Congestion,CDF
0.0,0.009433962264150943
0.0,0.018867924528301886
0.0,0.02830188679245283
0.0,0.03773584905660377
0.0,0.04716981132075472
0.0,0.05660377358490566
0.0,0.0660377358490566
0.0,0.07547169811320754
0.0,0.08490566037735849
0.0,0.09433962264150944
0.0,0.10377358490566038
0.0,0.11320754716981132
0.0,0.12264150943396226
0.0,0.1320754716981132
0.0,0.14150943396226415
0.0,0.1509433962264151
0.0,0.16037735849056603
0.0,0.16981132075471697
0.0,0.1792452830188679
0.0,0.18867924528301888
0.0,0.19811320754716982
0.0,0.20754716981132076
0.0,0.2169811320754717
0.0,0.22641509433962265
0.0,0.2358490566037736
0.0,0.24528301886792453
0.0,0.25471698113207547
0.0,0.2641509433962264
0.0,0.27358490566037735
0.0,0.2830188679245283
1.5695169346e-07,0.29245283018867924
4.04345430485e-06,0.3018867924528302
4.54693465744e-06,0.3113207547169811
6.16411620256e-06,0.32075471698113206
6.95817503499e-06,0.330188679245283
9.25871538139e-06,0.33962264150943394
1.41196832612e-05,0.3490566037735849
1.80739404629e-05,0.3584905660377358
1.91279132693e-05,0.36792452830188677
2.23094751088e-05,0.37735849056603776
2.74683065592e-05,0.3867924528301887
2.80977082574e-05,0.39622641509433965
2.96458473168e-05,0.4056603773584906
0.00018997122151,0.41509433962264153
0.000260401370102,0.42452830188679247
0.000260401370102,0.4339622641509434
0.000677772767359,0.44339622641509435
0.000677772767359,0.4528301886792453
0.000677772767359,0.46226415094339623
0.000694403653604,0.4716981132075472
0.000694403653604,0.4811320754716981
0.000694403653604,0.49056603773584906
0.0010720601022,0.5
0.00128026109458,0.5094339622641509
0.00128026109458,0.5188679245283019
0.00135554553472,0.5283018867924528
0.00135554553472,0.5377358490566038
0.00184923486077,0.5471698113207547
0.00235719531251,0.5566037735849056
0.00235719531251,0.5660377358490566
0.00292062118842,0.5754716981132075
0.00292062118842,0.5849056603773585
0.003688413606,0.5943396226415094
0.00448621057129,0.6037735849056604
0.00606297816758,0.6132075471698113
0.00945428707137,0.6226415094339622
0.0095909368347,0.6320754716981132
0.0111004442871,0.6415094339622641
0.0122816575152,0.6509433962264151
0.0204738539341,0.660377358490566
0.0224040440652,0.6698113207547169
0.0226124462033,0.6792452830188679
0.0263330618146,0.6886792452830188
0.0318738603104,0.6981132075471698
0.0322958552553,0.7075471698113207
0.0352186838288,0.7169811320754716
0.0355266632968,0.7264150943396226
0.0382134886558,0.7358490566037735
0.0405728204357,0.7452830188679245
0.0438710672617,0.7547169811320755
0.0442478509883,0.7641509433962265
0.396551943918,0.7735849056603774
0.999187405221,0.7830188679245284
0.999187405221,0.7924528301886793
1.32070064358,0.8018867924528302
1.32070064358,0.8113207547169812
1.32070064358,0.8207547169811321
2.64140128716,0.8301886792452831
2.64140128716,0.839622641509434
2.66449974726,0.8490566037735849
2.66449974726,0.8584905660377359
2.66449974726,0.8679245283018868
3.68449725456,0.8773584905660378
3.72489115332,0.8867924528301887
4.95218234204,0.8962264150943396
4.95218234204,0.9056603773584906
5.62299660413,0.9150943396226415
5.62299660413,0.9245283018867925
6.55415518693,0.9339622641509434
6.55415518693,0.9433962264150944
10.6639065188,0.9528301886792453
10.7107969999,0.9622641509433962
15.8142706957,0.9716981132075472
15.9273058137,0.9811320754716981
24.9039414651,0.9905660377358491
51.9444966887,1.0
