Congestion,CDF
0.0,0.009433962264150943
0.0,0.018867924528301886
0.0,0.02830188679245283
0.0,0.03773584905660377
0.0,0.04716981132075472
0.0,0.05660377358490566
0.0,0.0660377358490566
0.0,0.07547169811320754
0.0,0.08490566037735849
0.0,0.09433962264150944
0.0,0.10377358490566038
0.0,0.11320754716981132
0.0,0.12264150943396226
0.0,0.1320754716981132
0.0,0.14150943396226415
0.0,0.1509433962264151
0.0,0.16037735849056603
0.0,0.16981132075471697
0.0,0.1792452830188679
0.0,0.18867924528301888
0.0,0.19811320754716982
0.0,0.20754716981132076
0.0,0.2169811320754717
0.0,0.22641509433962265
0.0,0.2358490566037736
0.0,0.24528301886792453
0.0,0.25471698113207547
0.0,0.2641509433962264
0.0,0.27358490566037735
0.0,0.2830188679245283
1.58655555423e-07,0.29245283018867924
4.08734989997e-06,0.3018867924528302
4.59629601723e-06,0.3113207547169811
6.23103362728e-06,0.32075471698113206
7.03371273396e-06,0.330188679245283
7.60590712598e-06,0.33962264150943394
9.35922766396e-06,0.3490566037735849
1.4272966037e-05,0.3584905660377358
1.82701505132e-05,0.36792452830188677
1.93355652107e-05,0.37735849056603776
2.25516659716e-05,0.3867924528301887
2.77665015114e-05,0.39622641509433965
2.84027359718e-05,0.4056603773584906
2.99676815735e-05,0.41509433962264153
4.44252996686e-05,0.42452830188679247
0.000192033542287,0.4339622641509434
0.000263228278049,0.44339622641509435
0.000263228278049,0.4528301886792453
0.000685130644247,0.46226415094339623
0.000685130644247,0.4716981132075472
0.000685130644247,0.4811320754716981
0.000701942074797,0.49056603773584906
0.000701942074797,0.5
0.000701942074797,0.5094339622641509
0.00108369834827,0.5188679245283019
0.00129415956317,0.5283018867924528
0.00129415956317,0.5377358490566038
0.00137026128849,0.5471698113207547
0.00137026128849,0.5566037735849056
0.00186931008818,0.5660377358490566
0.0022817721378,0.5754716981132075
0.00238278494039,0.5849056603773585
0.00238278494039,0.5943396226415094
0.0028885301922,0.6037735849056604
0.00295232734743,0.6132075471698113
0.00295232734743,0.6226415094339622
0.00313611202964,0.6320754716981132
0.003728454892,0.6415094339622641
0.00453491271257,0.6509433962264151
0.00612879764141,0.660377358490566
0.00927641134413,0.6698113207547169
0.0095569224732,0.6792452830188679
0.00969505570146,0.6886792452830188
0.0151113486526,0.6981132075471698
0.01830500787,0.7075471698113207
0.0206961173591,0.7169811320754716
0.0229700116582,0.7264150943396226
0.023790386114,0.7358490566037735
0.0246405617732,0.7452830188679245
0.0297040760689,0.7547169811320755
0.0339530154849,0.7641509433962265
0.0345359572097,0.7735849056603774
0.218363449604,0.7830188679245284
0.669104609457,0.7924528301886793
0.669104609457,0.8018867924528302
0.861375437184,0.8113207547169812
0.861375437184,0.8207547169811321
0.861375437184,0.8301886792452831
1.18436407799,0.839622641509434
1.72275087437,0.8490566037735849
1.72275087437,0.8584905660377359
1.78427895855,0.8679245283018868
1.78427895855,0.8773584905660378
1.78427895855,0.8867924528301887
2.35873246356,0.8962264150943396
2.35873246356,0.9056603773584906
3.37444957272,0.9150943396226415
3.37444957272,0.9245283018867925
4.02436886596,0.9339622641509434
4.08007477939,0.9433962264150944
4.6568447451,0.9528301886792453
4.6568447451,0.9622641509433962
11.9394195619,0.9716981132075472
12.1143020794,0.9811320754716981
13.8875075407,0.9905660377358491
37.6550165,1.0
