Congestion,CDF
0.0,0.009433962264150943
0.0,0.018867924528301886
0.0,0.02830188679245283
0.0,0.03773584905660377
0.0,0.04716981132075472
0.0,0.05660377358490566
0.0,0.0660377358490566
0.0,0.07547169811320754
0.0,0.08490566037735849
0.0,0.09433962264150944
0.0,0.10377358490566038
0.0,0.11320754716981132
0.0,0.12264150943396226
0.0,0.1320754716981132
0.0,0.14150943396226415
0.0,0.1509433962264151
0.0,0.16037735849056603
0.0,0.16981132075471697
0.0,0.1792452830188679
0.0,0.18867924528301888
0.0,0.19811320754716982
0.0,0.20754716981132076
0.0,0.2169811320754717
0.0,0.22641509433962265
0.0,0.2358490566037736
0.0,0.24528301886792453
0.0,0.25471698113207547
0.0,0.2641509433962264
0.0,0.27358490566037735
0.0,0.2830188679245283
1.72895805951e-07,0.29245283018867924
4.45421311138e-06,0.3018867924528302
5.00884007604e-06,0.3113207547169811
6.79030480858e-06,0.32075471698113206
7.60590712598e-06,0.330188679245283
7.66502899141e-06,0.33962264150943394
8.5856968531e-06,0.3490566037735849
1.01992722897e-05,0.3584905660377358
1.55540470026e-05,0.36792452830188677
1.99100018238e-05,0.37735849056603776
2.1071043631e-05,0.3867924528301887
2.36019450412e-05,0.39622641509433965
2.45758079716e-05,0.4056603773584906
2.75276763337e-05,0.41509433962264153
3.02587050574e-05,0.42452830188679247
3.09520452276e-05,0.4339622641509434
3.26574537167e-05,0.44339622641509435
3.30032988237e-05,0.4528301886792453
3.65800309327e-05,0.46226415094339623
8.80745080137e-05,0.4716981132075472
0.000197200702689,0.4811320754716981
0.000209269659514,0.49056603773584906
0.000286854533149,0.5
0.000286854533149,0.5094339622641509
0.000306139751187,0.5188679245283019
0.000746625068394,0.5283018867924528
0.000746625068394,0.5377358490566038
0.000746625068394,0.5471698113207547
0.000764945421731,0.5566037735849056
0.000764945421731,0.5660377358490566
0.000764945421731,0.5754716981132075
0.00118096652104,0.5849056603773585
0.001410317843,0.5943396226415094
0.001410317843,0.6037735849056604
0.00149325013679,0.6132075471698113
0.00149325013679,0.6226415094339622
0.00203709144258,0.6320754716981132
0.0022817721378,0.6415094339622641
0.00259665362224,0.6509433962264151
0.00259665362224,0.660377358490566
0.00321731574293,0.6698113207547169
0.00321731574293,0.6792452830188679
0.00406310520792,0.6886792452830188
0.004941947266,0.6981132075471698
0.00667889255373,0.7075471698113207
0.00739502635083,0.7169811320754716
0.00739502635083,0.7264150943396226
0.00739502635083,0.7358490566037735
0.00739769141713,0.7452830188679245
0.00861018050214,0.7547169811320755
0.00861018050214,0.7641509433962265
0.00940399361277,0.7735849056603774
0.0104147113475,0.7830188679245284
0.0105652428292,0.7924528301886793
0.012031524279,0.8018867924528302
0.0147900527017,0.8113207547169812
0.0147900527017,0.8207547169811321
0.0168116690824,0.8301886792452831
0.0168116690824,0.839622641509434
0.0178693213829,0.8490566037735849
0.0178693213829,0.8584905660377359
0.0187434508743,0.8679245283018868
0.0202799745328,0.8773584905660378
0.021137377429,0.8867924528301887
0.0225537131765,0.8962264150943396
0.022960481339,0.9056603773584906
0.022960481339,0.9150943396226415
0.022960481339,0.9245283018867925
0.0250421760423,0.9339622641509434
0.0589473565087,0.9433962264150944
1.0721057317,0.9528301886792453
1.0721057317,0.9622641509433962
1.47972242318,0.9716981132075472
6.10286762687,0.9811320754716981
6.36008849571,0.9905660377358491
16.1117378567,1.0
