Congestion,CDF
0.0,0.009433962264150943
0.0,0.018867924528301886
0.0,0.02830188679245283
0.0,0.03773584905660377
0.0,0.04716981132075472
0.0,0.05660377358490566
0.0,0.0660377358490566
0.0,0.07547169811320754
0.0,0.08490566037735849
0.0,0.09433962264150944
0.0,0.10377358490566038
0.0,0.11320754716981132
0.0,0.12264150943396226
0.0,0.1320754716981132
0.0,0.14150943396226415
0.0,0.1509433962264151
0.0,0.16037735849056603
0.0,0.16981132075471697
0.0,0.1792452830188679
0.0,0.18867924528301888
0.0,0.19811320754716982
0.0,0.20754716981132076
0.0,0.2169811320754717
0.0,0.22641509433962265
0.0,0.2358490566037736
0.0,0.24528301886792453
0.0,0.25471698113207547
0.0,0.2641509433962264
0.0,0.27358490566037735
0.0,0.2830188679245283
1.59541318388e-07,0.29245283018867924
4.11016929106e-06,0.3018867924528302
4.62195681921e-06,0.3113207547169811
6.26582105599e-06,0.32075471698113206
7.07298146446e-06,0.330188679245283
9.41147958308e-06,0.33962264150943394
1.43526510167e-05,0.3490566037735849
1.83721514968e-05,0.3584905660377358
1.94435143306e-05,0.36792452830188677
2.26775703591e-05,0.37735849056603776
2.79215199641e-05,0.3867924528301887
2.85613064774e-05,0.39622641509433965
3.01349890619e-05,0.4056603773584906
0.000193105652239,0.41509433962264153
0.000264697863274,0.42452830188679247
0.000264697863274,0.4339622641509434
0.000688955681129,0.44339622641509435
0.000688955681129,0.4528301886792453
0.000688955681129,0.46226415094339623
0.000705860968731,0.4716981132075472
0.000705860968731,0.4811320754716981
0.000705860968731,0.49056603773584906
0.00108974856101,0.5
0.00130138476628,0.5094339622641509
0.00130138476628,0.5188679245283019
0.00137791136226,0.5283018867924528
0.00137791136226,0.5377358490566038
0.0018797463168,0.5471698113207547
0.0023960878635,0.5566037735849056
0.0023960878635,0.5660377358490566
0.00296880998631,0.5754716981132075
0.00296880998631,0.5849056603773585
0.00374927059715,0.5943396226415094
0.00456023081582,0.6037735849056604
0.00506209617194,0.6132075471698113
0.0061630142937,0.6226415094339622
0.00740075341599,0.6320754716981132
0.00951031762067,0.6415094339622641
0.00961027810873,0.6509433962264151
0.00974918252523,0.660377358490566
0.0108471800393,0.6698113207547169
0.0109503770506,0.6792452830188679
0.0124907553301,0.6886792452830188
0.0139664215622,0.6981132075471698
0.0140030218186,0.7075471698113207
0.0151254074994,0.7169811320754716
0.0175086184095,0.7264150943396226
0.0177113037316,0.7358490566037735
0.0195488861943,0.7452830188679245
0.0197195065519,0.7547169811320755
0.0208116623474,0.7641509433962265
0.173844645396,0.7735849056603774
0.392805606437,0.7830188679245284
0.392805606437,0.7924528301886793
0.525113318198,0.8018867924528302
0.525113318198,0.8113207547169812
0.525113318198,0.8207547169811321
1.04748161717,0.8301886792452831
1.04748161717,0.839622641509434
1.04748161717,0.8490566037735849
1.0502266364,0.8584905660377359
1.0502266364,0.8679245283018868
1.49776148305,0.8773584905660378
1.85655132741,0.8867924528301887
1.85655132741,0.8962264150943396
2.19185056972,0.9056603773584906
2.19185056972,0.9150943396226415
2.2202260248,0.9245283018867925
2.75636016615,0.9339622641509434
2.75636016615,0.9433962264150944
4.63246607857,0.9528301886792453
4.6556854061,0.9622641509433962
6.91351998507,0.9716981132075472
6.96470609235,0.9811320754716981
10.6881709079,0.9905660377358491
22.8667640851,1.0
