Congestion,CDF
0.0,0.009433962264150943
0.0,0.018867924528301886
0.0,0.02830188679245283
0.0,0.03773584905660377
0.0,0.04716981132075472
0.0,0.05660377358490566
0.0,0.0660377358490566
0.0,0.07547169811320754
0.0,0.08490566037735849
0.0,0.09433962264150944
0.0,0.10377358490566038
0.0,0.11320754716981132
0.0,0.12264150943396226
0.0,0.1320754716981132
0.0,0.14150943396226415
0.0,0.1509433962264151
0.0,0.16037735849056603
0.0,0.16981132075471697
0.0,0.1792452830188679
0.0,0.18867924528301888
0.0,0.19811320754716982
0.0,0.20754716981132076
0.0,0.2169811320754717
0.0,0.22641509433962265
0.0,0.2358490566037736
0.0,0.24528301886792453
0.0,0.25471698113207547
0.0,0.2641509433962264
0.0,0.27358490566037735
0.0,0.2830188679245283
1.69616412254e-07,0.29245283018867924
4.36972801747e-06,0.3018867924528302
4.91383511924e-06,0.3113207547169811
6.66150999677e-06,0.32075471698113206
7.51964288662e-06,0.330188679245283
7.60590712598e-06,0.33962264150943394
8.5856968531e-06,0.3490566037735849
1.00058180352e-05,0.3584905660377358
1.5259026291e-05,0.36792452830188677
1.95323597282e-05,0.37735849056603776
2.06713795252e-05,0.3867924528301887
2.36019450412e-05,0.39622641509433965
2.41096674002e-05,0.4056603773584906
2.75276763337e-05,0.41509433962264153
2.96847743822e-05,0.42452830188679247
3.03649636528e-05,0.4339622641509434
3.20380248804e-05,0.44339622641509435
3.65800309327e-05,0.4528301886792453
5.90480385263e-05,0.46226415094339623
0.000157435960523,0.4716981132075472
0.000205300346328,0.4811320754716981
0.000281413632239,0.49056603773584906
0.000281413632239,0.5
0.000335906438002,0.5094339622641509
0.000566021881588,0.5188679245283019
0.000732463489807,0.5283018867924528
0.000732463489807,0.5377358490566038
0.000732463489807,0.5471698113207547
0.000750436352637,0.5566037735849056
0.000750436352637,0.5660377358490566
0.000750436352637,0.5754716981132075
0.0011585665898,0.5849056603773585
0.00138356770051,0.5943396226415094
0.00138356770051,0.6037735849056604
0.00146492697961,0.6132075471698113
0.00146492697961,0.6226415094339622
0.00199845299903,0.6320754716981132
0.0022817721378,0.6415094339622641
0.00254740170733,0.6509433962264151
0.00254740170733,0.660377358490566
0.00315629144618,0.6698113207547169
0.00315629144618,0.6792452830188679
0.00398603843619,0.6886792452830188
0.00484821109567,0.6981132075471698
0.00655221094903,0.7075471698113207
0.0094700826082,0.7169811320754716
0.010217170762,0.7264150943396226
0.0103648470443,0.7358490566037735
0.0125964914251,0.7452830188679245
0.0125964914251,0.7547169811320755
0.0125964914251,0.7641509433962265
0.0132916399259,0.7735849056603774
0.0159193654197,0.7830188679245284
0.0159193654197,0.7924528301886793
0.0191016827489,0.8018867924528302
0.0220518836829,0.8113207547169812
0.0221259266004,0.8207547169811321
0.0228748434241,0.8301886792452831
0.0251929828501,0.839622641509434
0.0251929828501,0.8490566037735849
0.0280219528056,0.8584905660377359
0.0280219528056,0.8679245283018868
0.0299537345975,0.8773584905660378
0.0320096383227,0.8867924528301887
0.0320096383227,0.8962264150943396
0.0362524597655,0.9056603773584906
0.0424516411191,0.9150943396226415
0.0424516411191,0.9245283018867925
0.0424516411191,0.9339622641509434
0.068910763216,0.9433962264150944
1.52067622565,0.9528301886792453
1.52067622565,0.9622641509433962
2.11747860678,0.9716981132075472
6.64938741685,0.9811320754716981
6.89627533922,0.9905660377358491
18.4142558394,1.0
