Congestion,CDF
0.0,0.007352941176470588
0.0,0.014705882352941176
0.0,0.022058823529411766
0.0,0.029411764705882353
0.0,0.03676470588235294
0.0,0.04411764705882353
0.0,0.051470588235294115
0.0,0.058823529411764705
0.0,0.0661764705882353
0.0,0.07352941176470588
0.0,0.08088235294117647
0.0,0.08823529411764706
0.0,0.09558823529411764
0.0,0.10294117647058823
2.93710251301e-06,0.11029411764705882
2.93710251301e-06,0.11764705882352941
2.93710251301e-06,0.125
2.93710251301e-06,0.1323529411764706
2.93710251301e-06,0.13970588235294118
2.93710251301e-06,0.14705882352941177
2.93710251301e-06,0.15441176470588236
2.93710251301e-06,0.16176470588235295
2.93710251301e-06,0.16911764705882354
2.93710251301e-06,0.17647058823529413
2.93710251301e-06,0.18382352941176472
2.93710251301e-06,0.19117647058823528
2.93710251301e-06,0.19852941176470587
2.93710251301e-06,0.20588235294117646
2.93710251301e-06,0.21323529411764705
2.93710251301e-06,0.22058823529411764
2.93710251301e-06,0.22794117647058823
2.93710251301e-06,0.23529411764705882
2.93710251301e-06,0.2426470588235294
2.93710251301e-06,0.25
2.93710251301e-06,0.25735294117647056
2.93710251301e-06,0.2647058823529412
2.93710251301e-06,0.27205882352941174
2.93710251301e-06,0.27941176470588236
2.93710251301e-06,0.2867647058823529
2.93710251301e-06,0.29411764705882354
2.93710251301e-06,0.3014705882352941
7.34275628252e-05,0.3088235294117647
7.34275628252e-05,0.3161764705882353
7.93017678512e-05,0.3235294117647059
0.00014685512565,0.33088235294117646
0.00014685512565,0.3382352941176471
0.00014685512565,0.34558823529411764
0.00014685512565,0.35294117647058826
0.000220282688475,0.3602941176470588
0.000244758542751,0.36764705882352944
0.000244758542751,0.375
0.000244758542751,0.38235294117647056
0.000293710251301,0.3897058823529412
0.000293710251301,0.39705882352941174
0.000293710251301,0.40441176470588236
0.000293710251301,0.4117647058823529
0.000293710251301,0.41911764705882354
0.000293710251301,0.4264705882352941
0.000293710251301,0.4338235294117647
0.000367137814126,0.4411764705882353
0.000440565376951,0.4485294117647059
0.000440565376951,0.45588235294117646
0.000538468794051,0.4632352941176471
0.000587420502601,0.47058823529411764
0.000587420502601,0.47794117647058826
0.000776552937351,0.4852941176470588
0.000881130753902,0.49264705882352944
0.00119931685948,0.5
0.00150587793521,0.5073529411764706
0.00212939932193,0.5147058823529411
0.00217835103048,0.5220588235294118
0.00281472324163,0.5294117647058824
0.00350004716133,0.5367647058823529
0.00354899886988,0.5441176470588235
0.00379375741263,0.5514705882352942
0.00384270912118,0.5588235294117647
0.00413641937248,0.5661764705882353
0.0110569068117,0.5735294117647058
0.0112176469536,0.5808823529411765
0.0115790688429,0.5882352941176471
0.0116473505585,0.5955882352941176
0.0117271165214,0.6029411764705882
0.0117563776302,0.6102941176470589
0.0118988109676,0.6176470588235294
0.011935218593,0.625
0.0119473142919,0.6323529411764706
0.0119635928516,0.6397058823529411
0.011965432252,0.6470588235294118
0.011965764243,0.6544117647058824
0.0119671315528,0.6617647058823529
0.0119678446992,0.6691176470588235
0.0119688036319,0.6764705882352942
0.0119745241786,0.6838235294117647
0.011977429178,0.6911764705882353
0.011990529761,0.6985294117647058
0.0119957395258,0.7058823529411765
0.011995775895,0.7132352941176471
0.0119958483427,0.7205882352941176
0.0119958585061,0.7279411764705882
0.0119962845799,0.7352941176470589
0.0119962913559,0.7426470588235294
0.0119962913559,0.75
0.298761383953,0.7573529411764706
0.299178288819,0.7647058823529411
0.299363104466,0.7720588235294118
0.587818881511,0.7794117647058824
0.587818881511,0.7867647058823529
0.598871458898,0.7941176470588235
0.598871458898,0.8014705882352942
0.897534866457,0.8088235294117647
0.997400201384,0.8161764705882353
0.997400201384,0.8235294117647058
0.997400201384,0.8308823529411765
1.17271165214,0.8382352941176471
1.19678446992,0.8455882352941176
1.19745241786,0.8529411764705882
1.1995775895,0.8602941176470589
1.19958585061,0.8676470588235294
1.19962913559,0.875
1.19962913559,0.8823529411764706
1.49605865201,0.8897058823529411
1.7457257658,0.8970588235294118
1.79523074406,0.9044117647058824
2.19092206069,0.9117647058823529
2.33744670799,0.9191176470588235
2.39917068488,0.9264705882352942
3.59888672917,0.9338235294117647
4.88678654851,0.9411764705882353
8.69657206059,0.9485294117647058
8.85540858747,0.9558823529411765
11.491896697,0.9632352941176471
14.0442717424,0.9705882352941176
14.1948595359,0.9779411764705882
14.4818588702,0.9852941176470589
15.6036235656,0.9926470588235294
15.6812788593,1.0
