Congestion,CDF
0.0,0.007352941176470588
0.0,0.014705882352941176
0.0,0.022058823529411766
0.0,0.029411764705882353
0.0,0.03676470588235294
0.0,0.04411764705882353
0.0,0.051470588235294115
0.0,0.058823529411764705
0.0,0.0661764705882353
0.0,0.07352941176470588
0.0,0.08088235294117647
0.0,0.08823529411764706
0.0,0.09558823529411764
0.0,0.10294117647058823
3.60532230828e-06,0.11029411764705882
3.60532230828e-06,0.11764705882352941
3.60532230828e-06,0.125
3.60532230828e-06,0.1323529411764706
3.60532230828e-06,0.13970588235294118
3.60532230828e-06,0.14705882352941177
3.60532230828e-06,0.15441176470588236
3.60532230828e-06,0.16176470588235295
3.60532230828e-06,0.16911764705882354
3.60532230828e-06,0.17647058823529413
3.60532230828e-06,0.18382352941176472
3.60532230828e-06,0.19117647058823528
3.60532230828e-06,0.19852941176470587
3.60532230828e-06,0.20588235294117646
3.60532230828e-06,0.21323529411764705
3.60532230828e-06,0.22058823529411764
3.60532230828e-06,0.22794117647058823
3.60532230828e-06,0.23529411764705882
3.60532230828e-06,0.2426470588235294
3.60532230828e-06,0.25
3.60532230828e-06,0.25735294117647056
3.60532230828e-06,0.2647058823529412
3.60532230828e-06,0.27205882352941174
3.60532230828e-06,0.27941176470588236
3.60532230828e-06,0.2867647058823529
3.60532230828e-06,0.29411764705882354
3.60532230828e-06,0.3014705882352941
9.01330577071e-05,0.3088235294117647
9.01330577071e-05,0.3161764705882353
9.73437023237e-05,0.3235294117647059
0.000180266115414,0.33088235294117646
0.000180266115414,0.3382352941176471
0.000180266115414,0.34558823529411764
0.000180266115414,0.35294117647058826
0.000270399173121,0.3602941176470588
0.00030044352569,0.36764705882352944
0.00030044352569,0.375
0.00030044352569,0.38235294117647056
0.000360532230828,0.3897058823529412
0.000360532230828,0.39705882352941174
0.000360532230828,0.40441176470588236
0.000360532230828,0.4117647058823529
0.000360532230828,0.41911764705882354
0.000360532230828,0.4264705882352941
0.000360532230828,0.4338235294117647
0.000450665288535,0.4411764705882353
0.000540798346243,0.4485294117647059
0.000540798346243,0.45588235294117646
0.000660975756519,0.4632352941176471
0.000721064461657,0.47058823529411764
0.000721064461657,0.47794117647058826
0.00108159669249,0.4852941176470588
0.00147217327588,0.49264705882352944
0.00261385867351,0.5
0.00267394737864,0.5073529411764706
0.00345510054544,0.5147058823529411
0.00429634241737,0.5220588235294118
0.00435643112251,0.5294117647058824
0.0046568746482,0.5367647058823529
0.00471696335334,0.5441176470588235
0.00507749558417,0.5514705882352942
0.00823135081386,0.5588235294117647
0.00829548519065,0.5661764705882353
0.00886126148903,0.5735294117647058
0.00886126148903,0.5808823529411765
0.00886126148903,0.5882352941176471
0.00886126148903,0.5955882352941176
0.00888501408354,0.6029411764705882
0.00891180082168,0.6102941176470589
0.00896234015434,0.6176470588235294
0.00896234015434,0.625
0.00898159906807,0.6323529411764706
0.00898171086906,0.6397058823529411
0.00898204634387,0.6470588235294118
0.00898204634387,0.6544117647058824
0.00898204634387,0.6617647058823529
0.00898339152125,0.6691176470588235
0.00898339152125,0.6764705882352942
0.00898719222672,0.6838235294117647
0.00899190107771,0.6911764705882353
0.00900041063416,0.6985294117647058
0.00900397177452,0.7058823529411765
0.00900397177452,0.7132352941176471
0.00900397177452,0.7205882352941176
0.00900397177452,0.7279411764705882
0.00900438019962,0.7352941176470589
0.00900438019962,0.7426470588235294
0.00900438019962,0.75
0.224542771727,0.7573529411764706
0.224679805668,0.7647058823529411
0.240578140821,0.7720588235294118
0.445590041084,0.7794117647058824
0.445590041084,0.7867647058823529
0.449595053885,0.7941176470588235
0.449595053885,0.8014705882352942
0.67362831518,0.8088235294117647
0.748609212997,0.8161764705882353
0.748609212997,0.8235294117647058
0.748609212997,0.8308823529411765
0.886126148903,0.8382352941176471
0.898204634387,0.8455882352941176
0.898719222672,0.8529411764705882
0.900397177452,0.8602941176470589
0.900397177452,0.8676470588235294
0.900438019962,0.875
0.900438019962,0.8823529411764706
1.12274740611,0.8897058823529411
1.33171618999,0.8970588235294118
1.34793420601,0.9044117647058824
1.64484322843,0.9117647058823529
1.77225229781,0.9191176470588235
1.8007943549,0.9264705882352942
2.70131405989,0.9338235294117647
3.66776588789,0.9411764705882353
6.52758257536,0.9485294117647058
6.65443317283,0.9558823529411765
8.62582790566,0.9632352941176471
10.6445278095,0.9705882352941176
10.8721012638,0.9779411764705882
11.4676628909,0.9852941176470589
11.7606026722,0.9926470588235294
12.5901511912,1.0
