Congestion,CDF
0.0,0.009433962264150943
0.0,0.018867924528301886
0.0,0.02830188679245283
0.0,0.03773584905660377
0.0,0.04716981132075472
0.0,0.05660377358490566
0.0,0.0660377358490566
0.0,0.07547169811320754
0.0,0.08490566037735849
0.0,0.09433962264150944
0.0,0.10377358490566038
0.0,0.11320754716981132
0.0,0.12264150943396226
0.0,0.1320754716981132
0.0,0.14150943396226415
0.0,0.1509433962264151
0.0,0.16037735849056603
0.0,0.16981132075471697
0.0,0.1792452830188679
0.0,0.18867924528301888
0.0,0.19811320754716982
0.0,0.20754716981132076
0.0,0.2169811320754717
0.0,0.22641509433962265
0.0,0.2358490566037736
0.0,0.24528301886792453
0.0,0.25471698113207547
0.0,0.2641509433962264
0.0,0.27358490566037735
0.0,0.2830188679245283
5.28226223733e-08,0.29245283018867924
1.36083819881e-06,0.3018867924528302
1.53028621145e-06,0.3113207547169811
2.07455412079e-06,0.32075471698113206
2.34179730195e-06,0.330188679245283
3.11605192318e-06,0.33962264150943394
4.75202707594e-06,0.3490566037735849
6.08284568852e-06,0.3584905660377358
6.4375637952e-06,0.36792452830188677
7.50832917468e-06,0.37735849056603776
9.24455131783e-06,0.3867924528301887
9.45637858448e-06,0.39622641509433965
9.97741001215e-06,0.4056603773584906
3.89506490398e-05,0.41509433962264153
3.89506490398e-05,0.42452830188679247
6.39354560274e-05,0.4339622641509434
7.60355711066e-05,0.44339622641509435
7.60355711066e-05,0.4528301886792453
7.79012980796e-05,0.46226415094339623
7.79012980796e-05,0.4716981132075472
7.79012980796e-05,0.4811320754716981
0.000120268482384,0.49056603773584906
0.000152071142213,0.5
0.000152071142213,0.5094339622641509
0.000152071142213,0.5188679245283019
0.000191500530719,0.5283018867924528
0.000191500530719,0.5377358490566038
0.000207455412079,0.5471698113207547
0.000352587573943,0.5566037735849056
0.000352587573943,0.5660377358490566
0.000436864409906,0.5754716981132075
0.000436864409906,0.5849056603773585
0.000671044140101,0.5943396226415094
0.000680171924544,0.6037735849056604
0.00106062407859,0.6132075471698113
0.00110342049141,0.6226415094339622
0.00143460541112,0.6320754716981132
0.00229684822348,0.6415094339622641
0.0116197680316,0.6509433962264151
0.0248402028643,0.660377358490566
0.0250399683774,0.6698113207547169
0.0251685896659,0.6792452830188679
0.0278226672041,0.6886792452830188
0.0296973754375,0.6981132075471698
0.0300803995251,0.7075471698113207
0.0322458077046,0.7169811320754716
0.0323215906127,0.7264150943396226
0.034226549577,0.7358490566037735
0.034792698195,0.7452830188679245
0.0379849596561,0.7547169811320755
0.0382900203137,0.7641509433962265
0.384130597165,0.7735849056603774
0.403072596307,0.7830188679245284
0.403072596307,0.7924528301886793
0.404019882659,0.8018867924528302
0.404019882659,0.8113207547169812
0.806145192614,0.8207547169811321
0.806145192614,0.8301886792452831
0.806145192614,0.839622641509434
0.808039765318,0.8490566037735849
0.808039765318,0.8584905660377359
0.808039765318,0.8679245283018868
1.16197680316,0.8773584905660378
2.19822583917,0.8867924528301887
2.19822583917,0.8962264150943396
2.31111245522,0.9056603773584906
2.31111245522,0.9150943396226415
2.51841995782,0.9245283018867925
2.51841995782,0.9339622641509434
4.60558844458,0.9433962264150944
4.63609451033,0.9528301886792453
4.6822461256,0.9622641509433962
4.70222267691,0.9716981132075472
4.82797142181,0.9811320754716981
7.79926995679,0.9905660377358491
15.2393727322,1.0
