Congestion,CDF
0.0,0.009433962264150943
0.0,0.018867924528301886
0.0,0.02830188679245283
0.0,0.03773584905660377
0.0,0.04716981132075472
0.0,0.05660377358490566
0.0,0.0660377358490566
0.0,0.07547169811320754
0.0,0.08490566037735849
0.0,0.09433962264150944
0.0,0.10377358490566038
0.0,0.11320754716981132
0.0,0.12264150943396226
0.0,0.1320754716981132
0.0,0.14150943396226415
0.0,0.1509433962264151
0.0,0.16037735849056603
0.0,0.16981132075471697
0.0,0.1792452830188679
0.0,0.18867924528301888
0.0,0.19811320754716982
0.0,0.20754716981132076
0.0,0.2169811320754717
0.0,0.22641509433962265
0.0,0.2358490566037736
0.0,0.24528301886792453
0.0,0.25471698113207547
0.0,0.2641509433962264
0.0,0.27358490566037735
0.0,0.2830188679245283
1.49671072615e-07,0.29245283018867924
3.85588794574e-06,0.3018867924528302
4.33601302595e-06,0.3113207547169811
5.87817731316e-06,0.32075471698113206
6.63540161925e-06,0.330188679245283
8.82922529612e-06,0.33962264150943394
1.346470428e-05,0.3490566037735849
1.7235532767e-05,0.3584905660377358
1.82406142475e-05,0.36792452830188677
2.12745908974e-05,0.37735849056603776
2.61941162596e-05,0.3867924528301887
2.67943214895e-05,0.39622641509433965
2.827064601e-05,0.4056603773584906
0.000110365316202,0.41509433962264153
0.000110365316202,0.42452830188679247
0.000181158902224,0.4339622641509434
0.000215444159587,0.44339622641509435
0.000215444159587,0.4528301886792453
0.000220730632403,0.46226415094339623
0.000220730632403,0.4716981132075472
0.000220730632403,0.4811320754716981
0.00034077658305,0.49056603773584906
0.000430888319174,0.5
0.000430888319174,0.5094339622641509
0.000430888319174,0.5188679245283019
0.000542610127086,0.5283018867924528
0.000542610127086,0.5377358490566038
0.000587817731316,0.5471698113207547
0.000999044689788,0.5566037735849056
0.000999044689788,0.5660377358490566
0.00123784018816,0.5754716981132075
0.00123784018816,0.5849056603773585
0.00190138035009,0.5943396226415094
0.00192724361145,0.6037735849056604
0.00300524162474,0.6132075471698113
0.00312650377952,0.6226415094339622
0.00406490478916,0.6320754716981132
0.00650803996083,0.6415094339622641
0.0103882644582,0.6509433962264151
0.0103990544641,0.660377358490566
0.0104004522648,0.6698113207547169
0.0104049420079,0.6792452830188679
0.0104071465348,0.6886792452830188
0.0104135334709,0.6981132075471698
0.0104270288619,0.7075471698113207
0.0104380069733,0.7169811320754716
0.0104409330932,0.7264150943396226
0.0104497659886,0.7358490566037735
0.0104640883312,0.7452830188679245
0.0104658357244,0.7547169811320755
0.0104701337865,0.7641509433962265
0.130169168386,0.7735849056603774
0.130169168386,0.7830188679245284
0.130475087166,0.7924528301886793
0.130475087166,0.8018867924528302
0.13556918596,0.8113207547169812
0.260338336773,0.8207547169811321
0.260338336773,0.8301886792452831
0.260338336773,0.839622641509434
0.260950174332,0.8490566037735849
0.260950174332,0.8584905660377359
0.260950174332,0.8679245283018868
0.78066686879,0.8773584905660378
0.78066686879,0.8867924528301887
0.781995698646,0.8962264150943396
0.781995698646,0.9056603773584906
0.782690910213,0.9150943396226415
0.782690910213,0.9245283018867925
1.04049420079,0.9339622641509434
1.29947070137,0.9433962264150944
1.30722782799,0.9528301886792453
1.82340556369,0.9622641509433962
1.82697229751,0.9716981132075472
1.82970428886,0.9811320754716981
2.60256801384,0.9905660377358491
4.43377423127,1.0
