Congestion,CDF
0.00317619517486,0.005555555555555556
0.00317619517486,0.011111111111111112
0.00381599037639,0.016666666666666666
0.00381599037639,0.022222222222222223
0.00406368717214,0.027777777777777776
0.00406368717214,0.03333333333333333
0.00421155081439,0.03888888888888889
0.00421155081439,0.044444444444444446
0.00439149864196,0.05
0.00439149864196,0.05555555555555555
0.00446346785498,0.06111111111111111
0.00446346785498,0.06666666666666667
0.0046228170159,0.07222222222222222
0.0046228170159,0.07777777777777778
0.0048529194133,0.08333333333333333
0.0048529194133,0.08888888888888889
0.00489305535688,0.09444444444444444
0.00489305535688,0.1
0.0049242128592,0.10555555555555556
0.0049242128592,0.1111111111111111
0.00501195793685,0.11666666666666667
0.00501195793685,0.12222222222222222
0.00501818163691,0.12777777777777777
0.00501818163691,0.13333333333333333
0.00503876468265,0.1388888888888889
0.00503876468265,0.14444444444444443
0.00515335304407,0.15
0.00515335304407,0.15555555555555556
0.00525324803631,0.16111111111111112
0.00525324803631,0.16666666666666666
0.00528004329059,0.17222222222222222
0.00528004329059,0.17777777777777778
0.00544345935694,0.18333333333333332
0.00544345935694,0.18888888888888888
0.005614191951,0.19444444444444445
0.005614191951,0.2
0.00574388742148,0.20555555555555555
0.00574388742148,0.2111111111111111
0.00576893266818,0.21666666666666667
0.00576893266818,0.2222222222222222
0.00586792157895,0.22777777777777777
0.00586792157895,0.23333333333333334
0.00600271569006,0.2388888888888889
0.00600271569006,0.24444444444444444
0.00601432309542,0.25
0.00601432309542,0.25555555555555554
0.00601938009773,0.2611111111111111
0.00601938009773,0.26666666666666666
0.00608638568727,0.2722222222222222
0.00608638568727,0.2777777777777778
0.00610356375105,0.2833333333333333
0.00610356375105,0.28888888888888886
0.00623935660909,0.29444444444444445
0.00623935660909,0.3
0.00650987556086,0.3055555555555556
0.00650987556086,0.3111111111111111
0.00671404433896,0.31666666666666665
0.00671404433896,0.32222222222222224
0.00708114550922,0.3277777777777778
0.00708114550922,0.3333333333333333
0.0071545258766,0.3388888888888889
0.0071545258766,0.34444444444444444
0.00730664005475,0.35
0.00730664005475,0.35555555555555557
0.00756182220929,0.3611111111111111
0.00756182220929,0.36666666666666664
0.00765461319654,0.37222222222222223
0.00765461319654,0.37777777777777777
0.00768449514291,0.38333333333333336
0.00768449514291,0.3888888888888889
0.00799351208625,0.39444444444444443
0.00799351208625,0.4
0.00801858105127,0.40555555555555556
0.00801858105127,0.4111111111111111
0.00811833452244,0.4166666666666667
0.00811833452244,0.4222222222222222
0.00867548509075,0.42777777777777776
0.00867548509075,0.43333333333333335
0.0089827035938,0.4388888888888889
0.0089827035938,0.4444444444444444
0.105569573525,0.45
0.105569573525,0.45555555555555555
0.193529878231,0.46111111111111114
0.193529878231,0.4666666666666667
0.201502073127,0.4722222222222222
0.201502073127,0.4777777777777778
0.209069992145,0.48333333333333334
0.209069992145,0.4888888888888889
0.280596752286,0.49444444444444446
0.280596752286,0.5
0.329777621071,0.5055555555555555
0.329777621071,0.5111111111111111
0.355036581398,0.5166666666666667
0.355036581398,0.5222222222222223
0.365322471107,0.5277777777777778
0.365322471107,0.5333333333333333
0.436379750191,0.5388888888888889
0.436379750191,0.5444444444444444
0.447877426679,0.55
0.447877426679,0.5555555555555556
0.540353311184,0.5611111111111111
0.540353311184,0.5666666666666667
0.556272091938,0.5722222222222222
0.556272091938,0.5777777777777777
0.558922173748,0.5833333333333334
0.558922173748,0.5888888888888889
0.577464537855,0.5944444444444444
0.577464537855,0.6
0.580020325379,0.6055555555555555
0.580020325379,0.6111111111111112
0.616574512641,0.6166666666666667
0.616574512641,0.6222222222222222
0.654671047993,0.6277777777777778
0.654671047993,0.6333333333333333
0.709214076524,0.6388888888888888
0.709214076524,0.6444444444444445
0.809538949071,0.65
0.809538949071,0.6555555555555556
0.847130884408,0.6611111111111111
0.847130884408,0.6666666666666666
0.855102424703,0.6722222222222223
0.855102424703,0.6777777777777778
0.864934312128,0.6833333333333333
0.864934312128,0.6888888888888889
0.867696134939,0.6944444444444444
0.867696134939,0.7
0.88727661304,0.7055555555555556
0.88727661304,0.7111111111111111
1.09549204877,0.7166666666666667
1.09549204877,0.7222222222222222
1.13083287762,0.7277777777777777
1.13083287762,0.7333333333333333
1.33301891823,0.7388888888888889
1.33301891823,0.7444444444444445
1.3994483604,0.75
1.3994483604,0.7555555555555555
1.45951650008,0.7611111111111111
1.45951650008,0.7666666666666667
1.49171113219,0.7722222222222223
1.49171113219,0.7777777777777778
1.69737183345,0.7833333333333333
1.69737183345,0.7888888888888889
1.84551342653,0.7944444444444444
1.84551342653,0.8
1.92731841913,0.8055555555555556
1.92731841913,0.8111111111111111
1.98558862055,0.8166666666666667
1.98558862055,0.8222222222222222
2.02471770733,0.8277777777777777
2.02471770733,0.8333333333333334
2.11256508336,0.8388888888888889
2.11256508336,0.8444444444444444
2.152478788,0.85
2.152478788,0.8555555555555555
2.47943496951,0.8611111111111112
2.47943496951,0.8666666666666667
2.7395053188,0.8722222222222222
2.7395053188,0.8777777777777778
2.77909329394,0.8833333333333333
2.77909329394,0.8888888888888888
2.78397850575,0.8944444444444445
2.78397850575,0.9
2.97934155368,0.9055555555555556
2.97934155368,0.9111111111111111
3.03968089725,0.9166666666666666
3.03968089725,0.9222222222222223
3.03991481682,0.9277777777777778
3.03991481682,0.9333333333333333
3.06911185487,0.9388888888888889
3.06911185487,0.9444444444444444
3.15584439951,0.95
3.15584439951,0.9555555555555556
3.34408104966,0.9611111111111111
3.34408104966,0.9666666666666667
5.25601714503,0.9722222222222222
5.25601714503,0.9777777777777777
5.61399571372,0.9833333333333333
5.61399571372,0.9888888888888889
5.65581035585,0.9944444444444445
5.65581035585,1.0
