Congestion,CDF
0.0074833292325,0.005555555555555556
0.0074833292325,0.011111111111111112
0.00812000752143,0.016666666666666666
0.00812000752143,0.022222222222222223
0.00872649259708,0.027777777777777776
0.00872649259708,0.03333333333333333
0.00887864468637,0.03888888888888889
0.00887864468637,0.044444444444444446
0.00895184403481,0.05
0.00895184403481,0.05555555555555555
0.00903490611156,0.06111111111111111
0.00903490611156,0.06666666666666667
0.00906878513216,0.07222222222222222
0.00906878513216,0.07777777777777778
0.00921531025379,0.08333333333333333
0.00921531025379,0.08888888888888889
0.00943607951394,0.09444444444444444
0.00943607951394,0.1
0.00945413297813,0.10555555555555556
0.00945413297813,0.1111111111111111
0.00948981240058,0.11666666666666667
0.00948981240058,0.12222222222222222
0.00959457946264,0.12777777777777777
0.00959457946264,0.13333333333333333
0.00972466028022,0.1388888888888889
0.00972466028022,0.14444444444444443
0.00979079664376,0.15
0.00979079664376,0.15555555555555556
0.00979462582622,0.16111111111111112
0.00979462582622,0.16666666666666666
0.00980912879801,0.17222222222222222
0.00980912879801,0.17777777777777778
0.00984564534089,0.18333333333333332
0.00984564534089,0.18888888888888888
0.0102017327647,0.19444444444444445
0.0102017327647,0.2
0.0102900396526,0.20555555555555555
0.0102900396526,0.2111111111111111
0.0104266734165,0.21666666666666667
0.0104266734165,0.2222222222222222
0.0104983214865,0.22777777777777777
0.0104983214865,0.23333333333333334
0.0105348273172,0.2388888888888889
0.0105348273172,0.24444444444444444
0.0105356030746,0.25
0.0105356030746,0.25555555555555554
0.0106043591481,0.2611111111111111
0.0106043591481,0.26666666666666666
0.0107568113572,0.2722222222222222
0.0107568113572,0.2777777777777778
0.0107801410878,0.2833333333333333
0.0107801410878,0.28888888888888886
0.010906965493,0.29444444444444445
0.010906965493,0.3
0.0109087898883,0.3055555555555556
0.0109087898883,0.3111111111111111
0.0114174927995,0.31666666666666665
0.0114174927995,0.32222222222222224
0.0116429417794,0.3277777777777778
0.0116429417794,0.3333333333333333
0.0116705424071,0.3388888888888889
0.0116705424071,0.34444444444444444
0.0118861856784,0.35
0.0118861856784,0.35555555555555557
0.0124154686183,0.3611111111111111
0.0124154686183,0.36666666666666664
0.0126497781258,0.37222222222222223
0.0126497781258,0.37777777777777777
0.0126971276559,0.38333333333333336
0.0126971276559,0.3888888888888889
0.0127273828707,0.39444444444444443
0.0127273828707,0.4
0.0129156150706,0.40555555555555556
0.0129156150706,0.4111111111111111
0.0132908153698,0.4166666666666667
0.0132908153698,0.4222222222222222
0.0133760230508,0.42777777777777776
0.0133760230508,0.43333333333333335
0.0135478124614,0.4388888888888889
0.0135478124614,0.4444444444444444
0.24224408136,0.45
0.24224408136,0.45555555555555555
0.329960558264,0.46111111111111114
0.329960558264,0.4666666666666667
0.355386772394,0.4722222222222222
0.355386772394,0.4777777777777778
0.362367874677,0.48333333333333334
0.362367874677,0.4888888888888889
0.674366736581,0.49444444444444446
0.674366736581,0.5
0.686974397942,0.5055555555555555
0.686974397942,0.5111111111111111
0.716714433087,0.5166666666666667
0.716714433087,0.5222222222222223
0.718898561689,0.5277777777777778
0.718898561689,0.5333333333333333
0.795924440844,0.5388888888888889
0.795924440844,0.5444444444444444
1.02555663945,0.55
1.02555663945,0.5555555555555556
1.13003309309,0.5611111111111111
1.13003309309,0.5666666666666667
1.14936520642,0.5722222222222222
1.14936520642,0.5777777777777777
1.19123947739,0.5833333333333334
1.19123947739,0.5888888888888889
1.19916210426,0.5944444444444444
1.19916210426,0.6
1.25903592026,0.6055555555555555
1.25903592026,0.6111111111111112
1.31410173655,0.6166666666666667
1.31410173655,0.6222222222222222
1.32548498578,0.6277777777777778
1.32548498578,0.6333333333333333
1.35765786413,0.6388888888888888
1.35765786413,0.6444444444444445
1.37966225314,0.65
1.37966225314,0.6555555555555556
1.42065710757,0.6611111111111111
1.42065710757,0.6666666666666666
1.52455646848,0.6722222222222223
1.52455646848,0.6777777777777778
1.57539660751,0.6833333333333333
1.57539660751,0.6888888888888889
1.65527961638,0.6944444444444444
1.65527961638,0.7
1.69584839265,0.7055555555555556
1.69584839265,0.7111111111111111
1.72213481679,0.7166666666666667
1.72213481679,0.7222222222222222
1.94066548437,0.7277777777777777
1.94066548437,0.7333333333333333
2.02186223598,0.7388888888888889
2.02186223598,0.7444444444444445
2.48705122822,0.75
2.48705122822,0.7555555555555555
2.60283836467,0.7611111111111111
2.60283836467,0.7666666666666667
2.67545289285,0.7722222222222223
2.67545289285,0.7777777777777778
2.7280377409,0.7833333333333333
2.7280377409,0.7888888888888889
3.08732144616,0.7944444444444444
3.08732144616,0.8
3.09189524991,0.8055555555555556
3.09189524991,0.8111111111111111
3.15996302706,0.8166666666666667
3.15996302706,0.8222222222222222
3.30157314953,0.8277777777777777
3.30157314953,0.8333333333333334
3.35438654815,0.8388888888888889
3.35438654815,0.8444444444444444
3.69561415938,0.85
3.69561415938,0.8555555555555555
3.92510787243,0.8611111111111112
3.92510787243,0.8666666666666667
4.36856926785,0.8722222222222222
4.36856926785,0.8777777777777778
4.46307222718,0.8833333333333333
4.46307222718,0.8888888888888888
4.60032566853,0.8944444444444445
4.60032566853,0.9
4.8060025738,0.9055555555555556
4.8060025738,0.9111111111111111
4.85262146933,0.9166666666666666
4.85262146933,0.9222222222222223
5.07594228525,0.9277777777777778
5.07594228525,0.9333333333333333
5.41375092161,0.9388888888888889
5.41375092161,0.9444444444444444
5.49567906044,0.95
5.49567906044,0.9555555555555556
5.60055943989,0.9611111111111111
5.60055943989,0.9666666666666667
7.62325797893,0.9722222222222222
7.62325797893,0.9777777777777777
8.26260985171,0.9833333333333333
8.26260985171,0.9888888888888889
8.42055793253,0.9944444444444445
8.42055793253,1.0
