Congestion,CDF
0.0137048806393,0.005555555555555556
0.0137048806393,0.011111111111111112
0.014363359603,0.016666666666666666
0.014363359603,0.022222222222222223
0.0149871620443,0.027777777777777776
0.0149871620443,0.03333333333333333
0.0149917192517,0.03888888888888889
0.0149917192517,0.044444444444444446
0.0153046105379,0.05
0.0153046105379,0.05555555555555555
0.0153185538828,0.06111111111111111
0.0153185538828,0.06666666666666667
0.0154463399313,0.07222222222222222
0.0154463399313,0.07777777777777778
0.0154494140276,0.08333333333333333
0.0154494140276,0.08888888888888889
0.0154674131084,0.09444444444444444
0.0154674131084,0.1
0.0155249674079,0.10555555555555556
0.0155249674079,0.1111111111111111
0.0155992998037,0.11666666666666667
0.0155992998037,0.12222222222222222
0.0158246498768,0.12777777777777777
0.0158246498768,0.13333333333333333
0.0158315310603,0.1388888888888889
0.0158315310603,0.14444444444444443
0.0158388057218,0.15
0.0158388057218,0.15555555555555556
0.0159943604397,0.16111111111111112
0.0159943604397,0.16666666666666666
0.0160541480669,0.17222222222222222
0.0160541480669,0.17777777777777778
0.0161218915256,0.18333333333333332
0.0161218915256,0.18888888888888888
0.0161500195348,0.19444444444444445
0.0161500195348,0.2
0.0161749029161,0.20555555555555555
0.0161749029161,0.2111111111111111
0.0162086264328,0.21666666666666667
0.0162086264328,0.2222222222222222
0.0166130944713,0.22777777777777777
0.0166130944713,0.23333333333333334
0.0166514465882,0.2388888888888889
0.0166514465882,0.24444444444444444
0.0166785140802,0.25
0.0166785140802,0.25555555555555554
0.0172768443146,0.2611111111111111
0.0172768443146,0.26666666666666666
0.0173753699115,0.2722222222222222
0.0173753699115,0.2777777777777778
0.0174544705064,0.2833333333333333
0.0174544705064,0.28888888888888886
0.0176778772367,0.29444444444444445
0.0176778772367,0.3
0.0178833727278,0.3055555555555556
0.0178833727278,0.3111111111111111
0.0179416274435,0.31666666666666665
0.0179416274435,0.32222222222222224
0.0179748842917,0.3277777777777778
0.0179748842917,0.3333333333333333
0.0179978278478,0.3388888888888889
0.0179978278478,0.34444444444444444
0.0182621125774,0.35
0.0182621125774,0.35555555555555557
0.0186099799293,0.3611111111111111
0.0186099799293,0.36666666666666664
0.0188048832306,0.37222222222222223
0.0188048832306,0.37777777777777777
0.0188677483278,0.38333333333333336
0.0188677483278,0.3888888888888889
0.0192608191962,0.39444444444444443
0.0192608191962,0.4
0.0195102294941,0.40555555555555556
0.0195102294941,0.4111111111111111
0.0196131130245,0.4166666666666667
0.0196131130245,0.4222222222222222
0.0198833802673,0.42777777777777776
0.0198833802673,0.43333333333333335
0.0200762240788,0.4388888888888889
0.0200762240788,0.4444444444444444
0.431912116545,0.45
0.431912116545,0.45555555555555555
0.541993928511,0.46111111111111114
0.541993928511,0.4666666666666667
0.554668091892,0.4722222222222222
0.554668091892,0.4777777777777778
0.564971935216,0.48333333333333334
0.564971935216,0.4888888888888889
1.01917145946,0.49444444444444446
1.01917145946,0.5
1.10100208423,0.5055555555555555
1.10100208423,0.5111111111111111
1.24382651425,0.5166666666666667
1.24382651425,0.5222222222222223
1.28603735328,0.5277777777777778
1.28603735328,0.5333333333333333
1.48064955825,0.5388888888888889
1.48064955825,0.5444444444444444
1.830994735,0.55
1.830994735,0.5555555555555556
1.83567305382,0.5611111111111111
1.83567305382,0.5666666666666667
1.97347724698,0.5722222222222222
1.97347724698,0.5777777777777777
1.98358432052,0.5833333333333334
1.98358432052,0.5888888888888889
2.06518739717,0.5944444444444444
2.06518739717,0.6
2.08663396553,0.6055555555555555
2.08663396553,0.6111111111111112
2.14265291779,0.6166666666666667
2.14265291779,0.6222222222222222
2.16182300612,0.6277777777777778
2.16182300612,0.6333333333333333
2.25712058987,0.6388888888888888
2.25712058987,0.6444444444444445
2.35070445532,0.65
2.35070445532,0.6555555555555556
2.37798077039,0.6611111111111111
2.37798077039,0.6666666666666666
2.51999499693,0.6722222222222223
2.51999499693,0.6777777777777778
2.5429639275,0.6833333333333333
2.5429639275,0.6888888888888889
2.55150468678,0.6944444444444444
2.55150468678,0.7
2.58022549024,0.7055555555555556
2.58022549024,0.7111111111111111
2.7660543534,0.7166666666666667
2.7660543534,0.7222222222222222
2.94311035708,0.7277777777777777
2.94311035708,0.7333333333333333
3.00104330709,0.7388888888888889
3.00104330709,0.7444444444444445
3.74776912156,0.75
3.74776912156,0.7555555555555555
3.94132742914,0.7611111111111111
3.94132742914,0.7666666666666667
3.99940290182,0.7722222222222223
3.99940290182,0.7777777777777778
4.18407786649,0.7833333333333333
4.18407786649,0.7888888888888889
4.48973760731,0.7944444444444444
4.48973760731,0.8
4.5620728024,0.8055555555555556
4.5620728024,0.8111111111111111
4.6689297696,0.8166666666666667
4.6689297696,0.8222222222222222
4.8305881635,0.8277777777777777
4.8305881635,0.8333333333333334
5.02118374775,0.8388888888888889
5.02118374775,0.8444444444444444
5.65935272208,0.85
5.65935272208,0.8555555555555555
5.76413294147,0.8611111111111112
5.76413294147,0.8666666666666667
6.28161193347,0.8722222222222222
6.28161193347,0.8777777777777778
6.36487754628,0.8833333333333333
6.36487754628,0.8888888888888888
6.7797079108,0.8944444444444445
6.7797079108,0.9
6.89782725163,0.9055555555555556
6.89782725163,0.9111111111111111
7.26921899559,0.9166666666666666
7.26921899559,0.9222222222222223
7.43249117724,0.9277777777777778
7.43249117724,0.9333333333333333
8.14164700133,0.9388888888888889
8.14164700133,0.9444444444444444
8.24398522973,0.95
8.24398522973,0.9555555555555556
8.55843106358,0.9611111111111111
8.55843106358,0.9666666666666667
10.4957463555,0.9722222222222222
10.4957463555,0.9777777777777777
11.3810963947,0.9833333333333333
11.3810963947,0.9888888888888889
11.7317102428,0.9944444444444445
11.7317102428,1.0
