Congestion,CDF
0.0150582289322,0.005555555555555556
0.0150582289322,0.011111111111111112
0.0156735922179,0.016666666666666666
0.0156735922179,0.022222222222222223
0.016170561595,0.027777777777777776
0.016170561595,0.03333333333333333
0.0163263216915,0.03888888888888889
0.0163263216915,0.044444444444444446
0.0164656096122,0.05
0.0164656096122,0.05555555555555555
0.0164760767687,0.06111111111111111
0.0164760767687,0.06666666666666667
0.0167528513233,0.07222222222222222
0.0167528513233,0.07777777777777778
0.0168503908972,0.08333333333333333
0.0168503908972,0.08888888888888889
0.0168612970947,0.09444444444444444
0.0168612970947,0.1
0.0169274223607,0.10555555555555556
0.0169274223607,0.1111111111111111
0.016968835968,0.11666666666666667
0.016968835968,0.12222222222222222
0.0170685236529,0.12777777777777777
0.0170685236529,0.13333333333333333
0.0172006596349,0.1388888888888889
0.0172006596349,0.14444444444444443
0.0172278069173,0.15
0.0172278069173,0.15555555555555556
0.0172560792133,0.16111111111111112
0.0172560792133,0.16666666666666666
0.0172868776136,0.17222222222222222
0.0172868776136,0.17777777777777778
0.0174124405742,0.18333333333333332
0.0174124405742,0.18888888888888888
0.0174830631723,0.19444444444444445
0.0174830631723,0.2
0.0175932589278,0.20555555555555555
0.0175932589278,0.2111111111111111
0.0176154438964,0.21666666666666667
0.0176154438964,0.2222222222222222
0.0180952609539,0.22777777777777777
0.0180952609539,0.23333333333333334
0.0181908063065,0.2388888888888889
0.0181908063065,0.24444444444444444
0.0182127986007,0.25
0.0182127986007,0.25555555555555554
0.0185977382227,0.2611111111111111
0.0185977382227,0.26666666666666666
0.0188246048953,0.2722222222222222
0.0188246048953,0.2777777777777778
0.0188659275084,0.2833333333333333
0.0188659275084,0.28888888888888886
0.0191175148726,0.29444444444444445
0.0191175148726,0.3
0.0192422881375,0.3055555555555556
0.0192422881375,0.3111111111111111
0.0192627268915,0.31666666666666665
0.0192627268915,0.32222222222222224
0.0192891364211,0.3277777777777778
0.0192891364211,0.3333333333333333
0.019357807118,0.3388888888888889
0.019357807118,0.34444444444444444
0.0195828721676,0.35
0.0195828721676,0.35555555555555557
0.0198153989433,0.3611111111111111
0.0198153989433,0.36666666666666664
0.0200807016323,0.37222222222222223
0.0200807016323,0.37777777777777777
0.0201752554567,0.38333333333333336
0.0201752554567,0.3888888888888889
0.0205894738017,0.39444444444444443
0.0205894738017,0.4
0.020868023276,0.40555555555555556
0.020868023276,0.4111111111111111
0.0209089180394,0.4166666666666667
0.0209089180394,0.4222222222222222
0.0212093305575,0.42777777777777776
0.0212093305575,0.43333333333333335
0.0213590556977,0.4388888888888889
0.0213590556977,0.4444444444444444
0.472949317877,0.45
0.472949317877,0.45555555555555555
0.597461967149,0.46111111111111114
0.597461967149,0.4666666666666667
0.603459682825,0.4722222222222222
0.603459682825,0.4777777777777778
0.625571582459,0.48333333333333334
0.625571582459,0.4888888888888889
1.10140022454,0.49444444444444446
1.10140022454,0.5
1.21577642779,0.5055555555555555
1.21577642779,0.5111111111111111
1.35635576874,0.5166666666666667
1.35635576874,0.5222222222222223
1.40163059007,0.5277777777777778
1.40163059007,0.5333333333333333
1.63123738667,0.5388888888888889
1.63123738667,0.5444444444444444
1.97608552922,0.55
1.97608552922,0.5555555555555556
1.97849958749,0.5611111111111111
1.97849958749,0.5666666666666667
2.13690040648,0.5722222222222222
2.13690040648,0.5777777777777777
2.15801145778,0.5833333333333334
2.15801145778,0.5888888888888889
2.2107232074,0.5944444444444444
2.2107232074,0.6
2.25030462302,0.6055555555555555
2.25030462302,0.6111111111111112
2.32980358423,0.6166666666666667
2.32980358423,0.6222222222222222
2.33351120928,0.6277777777777778
2.33351120928,0.6333333333333333
2.4513765179,0.6388888888888888
2.4513765179,0.6444444444444445
2.52929534444,0.65
2.52929534444,0.6555555555555556
2.58888847092,0.6611111111111111
2.58888847092,0.6666666666666666
2.69703114389,0.6722222222222223
2.69703114389,0.6777777777777778
2.72107238625,0.6833333333333333
2.72107238625,0.6888888888888889
2.77848523267,0.6944444444444444
2.77848523267,0.7
2.78856074156,0.7055555555555556
2.78856074156,0.7111111111111111
2.96614857438,0.7166666666666667
2.96614857438,0.7222222222222222
3.12543965146,0.7277777777777777
3.12543965146,0.7333333333333333
3.20720350228,0.7388888888888889
3.20720350228,0.7444444444444445
3.98394266738,0.75
3.98394266738,0.7555555555555555
4.18668758536,0.7611111111111111
4.18668758536,0.7666666666666667
4.23702967889,0.7722222222222223
4.23702967889,0.7777777777777778
4.46488534933,0.7833333333333333
4.46488534933,0.7888888888888889
4.7389442626,0.7944444444444444
4.7389442626,0.8
4.84860530448,0.8055555555555556
4.84860530448,0.8111111111111111
4.96330593791,0.8166666666666667
4.96330593791,0.8222222222222222
5.10417194372,0.8277777777777777
5.10417194372,0.8333333333333334
5.33371908275,0.8388888888888889
5.33371908275,0.8444444444444444
5.9769708203,0.85
5.9769708203,0.8555555555555555
6.15477421205,0.8611111111111112
6.15477421205,0.8666666666666667
6.61656052515,0.8722222222222222
6.61656052515,0.8777777777777778
6.73709885929,0.8833333333333333
6.73709885929,0.8888888888888888
7.17852441262,0.8944444444444445
7.17852441262,0.9
7.27865937581,0.9055555555555556
7.27865937581,0.9111111111111111
7.7061547958,0.9166666666666666
7.7061547958,0.9222222222222223
7.86082170457,0.9277777777777778
7.86082170457,0.9333333333333333
8.62501193221,0.9388888888888889
8.62501193221,0.9444444444444444
8.75737859959,0.95
8.75737859959,0.9555555555555556
9.08491599916,0.9611111111111111
9.08491599916,0.9666666666666667
11.0204243326,0.9722222222222222
11.0204243326,0.9777777777777777
11.9486490097,0.9833333333333333
11.9486490097,0.9888888888888889
12.3320619335,0.9944444444444445
12.3320619335,1.0
