Congestion,CDF
0.0,0.009433962264150943
0.0,0.018867924528301886
0.0,0.02830188679245283
0.0,0.03773584905660377
0.0,0.04716981132075472
0.0,0.05660377358490566
0.0,0.0660377358490566
0.0,0.07547169811320754
0.0,0.08490566037735849
0.0,0.09433962264150944
0.0,0.10377358490566038
0.0,0.11320754716981132
0.0,0.12264150943396226
0.0,0.1320754716981132
0.0,0.14150943396226415
0.0,0.1509433962264151
0.0,0.16037735849056603
0.0,0.16981132075471697
0.0,0.1792452830188679
0.0,0.18867924528301888
0.0,0.19811320754716982
0.0,0.20754716981132076
0.0,0.2169811320754717
0.0,0.22641509433962265
0.0,0.2358490566037736
0.0,0.24528301886792453
0.0,0.25471698113207547
0.0,0.2641509433962264
0.0,0.27358490566037735
0.0,0.2830188679245283
6.99340503301e-08,0.29245283018867924
1.80166986815e-06,0.3018867924528302
2.02600908707e-06,0.3113207547169811
2.74658784016e-06,0.32075471698113206
3.10040211975e-06,0.330188679245283
4.1254697748e-06,0.33962264150943394
6.29140481421e-06,0.3490566037735849
8.05333051291e-06,0.3584905660377358
8.52295645745e-06,0.36792452830188677
9.9405869456e-06,0.37735849056603776
1.22392431139e-05,0.3867924528301887
1.25196899766e-05,0.39622641509433965
1.32095049924e-05,0.4056603773584906
8.46467895534e-05,0.41509433962264153
0.000116028837416,0.42452830188679247
0.000116028837416,0.4339622641509434
0.000301999894234,0.44339622641509435
0.000301999894234,0.4528301886792453
0.000301999894234,0.46226415094339623
0.00030941023311,0.4716981132075472
0.00030941023311,0.4811320754716981
0.00030941023311,0.49056603773584906
0.000477685225888,0.5
0.000570454780387,0.5094339622641509
0.000570454780387,0.5188679245283019
0.000603999788469,0.5283018867924528
0.000603999788469,0.5377358490566038
0.000823976352048,0.5471698113207547
0.00105031179969,0.5566037735849056
0.00105031179969,0.5660377358490566
0.00130136135956,0.5754716981132075
0.00130136135956,0.5849056603773585
0.00164347193122,0.5943396226415094
0.0019989518365,0.6037735849056604
0.00270152306722,0.6132075471698113
0.00303241426912,0.6226415094339622
0.00305233603833,0.6320754716981132
0.00421261200378,0.6415094339622641
0.00427349998285,0.6509433962264151
0.00498537785819,0.660377358490566
0.00539491322375,0.6698113207547169
0.00543825836817,0.6792452830188679
0.00547820865958,0.6886792452830188
0.00774452827774,0.6981132075471698
0.00777227256187,0.7075471698113207
0.00912267653768,0.7169811320754716
0.00954743241183,0.7264150943396226
0.0110919556582,0.7358490566037735
0.0120895142237,0.7452830188679245
0.0134847996181,0.7547169811320755
0.0136537567393,0.7641509433962265
0.102765767908,0.7735849056603774
0.217814857811,0.7830188679245284
0.217814857811,0.7924528301886793
0.29146022107,0.8018867924528302
0.29146022107,0.8113207547169812
0.29146022107,0.8207547169811321
0.58083962083,0.8301886792452831
0.58083962083,0.839622641509434
0.58083962083,0.8490566037735849
0.582920442141,0.8584905660377359
0.582920442141,0.8679245283018868
0.842020320643,0.8773584905660378
0.909724280737,0.8867924528301887
0.997265032661,0.8962264150943396
0.997265032661,0.9056603773584906
1.04821409003,0.9150943396226415
1.04821409003,0.9245283018867925
1.68425503516,0.9339622641509434
1.68425503516,0.9433962264150944
2.26206956538,0.9528301886792453
2.28081103844,0.9622641509433962
4.62731991691,0.9716981132075472
4.67800705326,0.9811320754716981
6.43958981398,0.9905660377358491
15.1778546175,1.0
