Congestion,CDF
0.0,0.007352941176470588
0.0,0.014705882352941176
0.0492077140553,0.022058823529411766
0.0492077140553,0.029411764705882353
0.0509762549412,0.03676470588235294
0.0509762549412,0.04411764705882353
0.0518983716554,0.051470588235294115
0.0518983716554,0.058823529411764705
0.0522638554063,0.0661764705882353
0.0522638554063,0.07352941176470588
0.0523951821448,0.08088235294117647
0.0523951821448,0.08823529411764706
0.0524051544639,0.09558823529411764
0.0524051544639,0.10294117647058823
0.0544615303955,0.11029411764705882
0.0544615303955,0.11764705882352941
0.0545113239732,0.125
0.0545113239732,0.1323529411764706
0.0548958637826,0.13970588235294118
0.0548958637826,0.14705882352941177
0.0549981778047,0.15441176470588236
0.0549981778047,0.16176470588235295
0.0559443265199,0.16911764705882354
0.0559443265199,0.17647058823529413
0.0559685337606,0.18382352941176472
0.0559685337606,0.19117647058823528
0.0561412954671,0.19852941176470587
0.0561412954671,0.20588235294117646
0.0563980310154,0.21323529411764705
0.0563980310154,0.22058823529411764
0.0565105199814,0.22794117647058823
0.0565105199814,0.23529411764705882
0.0577354821,0.2426470588235294
0.0577354821,0.25
0.0577604579906,0.25735294117647056
0.0577604579906,0.2647058823529412
0.0577923881958,0.27205882352941174
0.0577923881958,0.27941176470588236
0.0578243588327,0.2867647058823529
0.0578243588327,0.29411764705882354
0.0579608250346,0.3014705882352941
0.0579608250346,0.3088235294117647
0.0581435503492,0.3161764705882353
0.0581435503492,0.3235294117647059
0.0582433475057,0.33088235294117646
0.0582433475057,0.3382352941176471
0.0583969031792,0.34558823529411764
0.0583969031792,0.35294117647058826
0.0596199829433,0.3602941176470588
0.0596199829433,0.36764705882352944
0.060212228391,0.375
0.060212228391,0.38235294117647056
0.0605520661309,0.3897058823529412
0.0605520661309,0.39705882352941174
0.0607265942854,0.40441176470588236
0.0607265942854,0.4117647058823529
0.0657374621233,0.41911764705882354
0.0657374621233,0.4264705882352941
0.209154203131,0.4338235294117647
0.209154203131,0.4411764705882353
1.66839610805,0.4485294117647059
1.66839610805,0.45588235294117646
1.69779936669,0.4632352941176471
1.69779936669,0.47058823529411764
2.20432257007,0.47794117647058826
2.20432257007,0.4852941176470588
2.52991807949,0.49264705882352944
2.52991807949,0.5
2.63728850007,0.5073529411764706
2.63728850007,0.5147058823529411
2.77100363888,0.5220588235294118
2.77100363888,0.5294117647058824
2.80746577166,0.5367647058823529
2.80746577166,0.5441176470588235
3.29883837562,0.5514705882352942
3.29883837562,0.5588235294117647
3.5939086807,0.5661764705882353
3.5939086807,0.5735294117647058
4.21646173565,0.5808823529411765
4.21646173565,0.5882352941176471
4.37668957094,0.5955882352941176
4.37668957094,0.6029411764705882
4.9948074036,0.6102941176470589
4.9948074036,0.6176470588235294
5.30142182647,0.625
5.30142182647,0.6323529411764706
5.63431759133,0.6397058823529411
5.63431759133,0.6470588235294118
5.67644980083,0.6544117647058824
5.67644980083,0.6617647058823529
5.82433475057,0.6691176470588235
5.82433475057,0.6764705882352942
6.15480261133,0.6838235294117647
6.15480261133,0.6911764705882353
6.57374621233,0.6985294117647058
6.57374621233,0.7058823529411765
6.66760129662,0.7132352941176471
6.66760129662,0.7205882352941176
6.80688120866,0.7279411764705882
6.80688120866,0.7352941176470589
6.8145964571,0.7426470588235294
6.8145964571,0.75
7.13129508617,0.7573529411764706
7.13129508617,0.7647058823529411
7.83255087104,0.7720588235294118
7.83255087104,0.7794117647058824
8.12576183252,0.7867647058823529
8.12576183252,0.7941176470588235
8.42734906067,0.8014705882352942
8.42734906067,0.8088235294117647
9.01057492916,0.8161764705882353
9.01057492916,0.8235294117647058
9.26485296961,0.8308823529411765
9.26485296961,0.8382352941176471
9.72533672354,0.8455882352941176
9.72533672354,0.8529411764705882
10.5197959578,0.8602941176470589
10.5197959578,0.8676470588235294
10.8565986113,0.875
10.8565986113,0.8823529411764706
11.3495887797,0.8897058823529411
11.3495887797,0.8970588235294118
12.9865864058,0.9044117647058824
12.9865864058,0.9117647058823529
15.038356508,0.9191176470588235
15.038356508,0.9264705882352942
15.1247703949,0.9338235294117647
15.1247703949,0.9411764705882353
18.1546069472,0.9485294117647058
18.1546069472,0.9558823529411765
18.8067769547,0.9632352941176471
18.8067769547,0.9705882352941176
23.7824305701,0.9779411764705882
23.7824305701,0.9852941176470589
27.2471881133,0.9926470588235294
27.2471881133,1.0
