Congestion,CDF
0.0,0.007352941176470588
0.0,0.014705882352941176
0.0,0.022058823529411766
0.0,0.029411764705882353
0.0,0.03676470588235294
0.0,0.04411764705882353
0.0,0.051470588235294115
0.0,0.058823529411764705
0.0,0.0661764705882353
0.0,0.07352941176470588
0.0,0.08088235294117647
0.0,0.08823529411764706
0.0,0.09558823529411764
0.0,0.10294117647058823
1.51665216712e-05,0.11029411764705882
1.51665216712e-05,0.11764705882352941
1.51665216712e-05,0.125
1.51665216712e-05,0.1323529411764706
1.51665216712e-05,0.13970588235294118
1.51665216712e-05,0.14705882352941177
1.51665216712e-05,0.15441176470588236
1.51665216712e-05,0.16176470588235295
1.51665216712e-05,0.16911764705882354
1.51665216712e-05,0.17647058823529413
1.51665216712e-05,0.18382352941176472
1.51665216712e-05,0.19117647058823528
1.51665216712e-05,0.19852941176470587
1.51665216712e-05,0.20588235294117646
1.51665216712e-05,0.21323529411764705
1.51665216712e-05,0.22058823529411764
1.51665216712e-05,0.22794117647058823
1.51665216712e-05,0.23529411764705882
1.51665216712e-05,0.2426470588235294
1.51665216712e-05,0.25
1.51665216712e-05,0.25735294117647056
1.51665216712e-05,0.2647058823529412
1.51665216712e-05,0.27205882352941174
1.51665216712e-05,0.27941176470588236
1.51665216712e-05,0.2867647058823529
1.51665216712e-05,0.29411764705882354
1.51665216712e-05,0.3014705882352941
0.000379163041779,0.3088235294117647
0.000379163041779,0.3161764705882353
0.000409496085121,0.3235294117647059
0.000758326083558,0.33088235294117646
0.000758326083558,0.3382352941176471
0.000758326083558,0.34558823529411764
0.000758326083558,0.35294117647058826
0.00113748912534,0.3602941176470588
0.00126387680593,0.36764705882352944
0.00126387680593,0.375
0.00126387680593,0.38235294117647056
0.00151665216712,0.3897058823529412
0.00151665216712,0.39705882352941174
0.00151665216712,0.40441176470588236
0.00151665216712,0.4117647058823529
0.00151665216712,0.41911764705882354
0.00151665216712,0.4264705882352941
0.00151665216712,0.4338235294117647
0.0018958152089,0.4411764705882353
0.00227497825067,0.4485294117647059
0.00227497825067,0.45588235294117646
0.00278052897305,0.4632352941176471
0.00303330433423,0.47058823529411764
0.00303330433423,0.47794117647058826
0.00454995650135,0.4852941176470588
0.00619299634906,0.49264705882352944
0.0109957282116,0.5
0.0112485035728,0.5073529411764706
0.0120053401589,0.5147058823529411
0.012923172846,0.5220588235294118
0.0145345832682,0.5294117647058824
0.0180734383248,0.5367647058823529
0.018326213686,0.5441176470588235
0.0195900904919,0.5514705882352942
0.0198428658531,0.5588235294117647
0.0213595180202,0.5661764705882353
0.0245895064595,0.5735294117647058
0.0247041227574,0.5808823529411765
0.0249238757679,0.5882352941176471
0.0249695439068,0.5955882352941176
0.0250154123482,0.6029411764705882
0.0250641894635,0.6102941176470589
0.025175859851,0.6176470588235294
0.0251980741366,0.625
0.0252188991675,0.6323529411764706
0.025227120913,0.6397058823529411
0.0252279840565,0.6470588235294118
0.0252283408879,0.6544117647058824
0.0252284771494,0.6617647058823529
0.0252284911006,0.6691176470588235
0.0252288023711,0.6764705882352942
0.0252369072082,0.6838235294117647
0.0252423929457,0.6911764705882353
0.0252557155323,0.6985294117647058
0.025261328437,0.7058823529411765
0.0252613454419,0.7132352941176471
0.0252614158376,0.7205882352941176
0.0252614204938,0.7279411764705882
0.0252618774922,0.7352941176470589
0.0252618805966,0.7426470588235294
0.0252618805966,0.75
0.630711928736,0.7573529411764706
0.630922680205,0.7647058823529411
0.653723377924,0.7720588235294118
1.25320947318,0.7794117647058824
1.25320947318,0.7867647058823529
1.26211964729,0.7941176470588235
1.26211964729,0.8014705882352942
1.89213578621,0.8088235294117647
2.10256741082,0.8161764705882353
2.10256741082,0.8235294117647058
2.10256741082,0.8308823529411765
2.50154123482,0.8382352941176471
2.52283408879,0.8455882352941176
2.52369072082,0.8529411764705882
2.52613454419,0.8602941176470589
2.52614204938,0.8676470588235294
2.52618805966,0.875
2.52618805966,0.8823529411764706
3.15359216584,0.8897058823529411
3.74559704996,0.8970588235294118
3.78496875734,0.9044117647058824
4.62237482449,0.9117647058823529
4.9984956255,0.9191176470588235
5.05228363314,0.9264705882352942
7.57856386854,0.9338235294117647
10.3017057568,0.9411764705882353
18.3140375698,0.9485294117647058
18.6948760395,0.9558823529411765
24.2042961811,0.9632352941176471
29.8979193609,0.9705882352941176
30.5111548552,0.9779411764705882
31.0984533768,0.9852941176470589
32.981567131,0.9926470588235294
34.2738844156,1.0
