Congestion,CDF
0.0,0.007352941176470588
0.0,0.014705882352941176
0.0,0.022058823529411766
0.0,0.029411764705882353
0.0,0.03676470588235294
0.0,0.04411764705882353
0.0,0.051470588235294115
0.0,0.058823529411764705
0.0,0.0661764705882353
0.0,0.07352941176470588
0.0,0.08088235294117647
0.0,0.08823529411764706
0.0,0.09558823529411764
0.0,0.10294117647058823
1.56832022535e-05,0.11029411764705882
1.56832022535e-05,0.11764705882352941
1.56832022535e-05,0.125
1.56832022535e-05,0.1323529411764706
1.56832022535e-05,0.13970588235294118
1.56832022535e-05,0.14705882352941177
1.56832022535e-05,0.15441176470588236
1.56832022535e-05,0.16176470588235295
1.56832022535e-05,0.16911764705882354
1.56832022535e-05,0.17647058823529413
1.56832022535e-05,0.18382352941176472
1.56832022535e-05,0.19117647058823528
1.56832022535e-05,0.19852941176470587
1.56832022535e-05,0.20588235294117646
1.56832022535e-05,0.21323529411764705
1.56832022535e-05,0.22058823529411764
1.56832022535e-05,0.22794117647058823
1.56832022535e-05,0.23529411764705882
1.56832022535e-05,0.2426470588235294
1.56832022535e-05,0.25
1.56832022535e-05,0.25735294117647056
1.56832022535e-05,0.2647058823529412
1.56832022535e-05,0.27205882352941174
1.56832022535e-05,0.27941176470588236
1.56832022535e-05,0.2867647058823529
1.56832022535e-05,0.29411764705882354
1.56832022535e-05,0.3014705882352941
0.000392080056338,0.3088235294117647
0.000392080056338,0.3161764705882353
0.000423446460845,0.3235294117647059
0.000784160112676,0.33088235294117646
0.000784160112676,0.3382352941176471
0.000784160112676,0.34558823529411764
0.000784160112676,0.35294117647058826
0.00117624016901,0.3602941176470588
0.00130693352113,0.36764705882352944
0.00130693352113,0.375
0.00130693352113,0.38235294117647056
0.00156832022535,0.3897058823529412
0.00156832022535,0.39705882352941174
0.00156832022535,0.40441176470588236
0.00156832022535,0.4117647058823529
0.00156832022535,0.41911764705882354
0.00156832022535,0.4264705882352941
0.00156832022535,0.4338235294117647
0.00196040028169,0.4411764705882353
0.00235248033803,0.4485294117647059
0.00235248033803,0.45588235294117646
0.00287525374648,0.4632352941176471
0.00313664045071,0.47058823529411764
0.00313664045071,0.47794117647058826
0.00470496067606,0.4852941176470588
0.00640397425352,0.49264705882352944
0.00754148224007,0.5
0.00760561661686,0.5073529411764706
0.00815942320616,0.5147058823529411
0.00815942320616,0.5220588235294118
0.00815942320616,0.5294117647058824
0.00815942320616,0.5367647058823529
0.00818514631623,0.5441176470588235
0.00821221449816,0.5514705882352942
0.00826500579015,0.5588235294117647
0.00826500579015,0.5661764705882353
0.00828583100015,0.5735294117647058
0.00828583100015,0.5808823529411765
0.00828583100015,0.5882352941176471
0.00828645581017,0.5955882352941176
0.00828666410918,0.6029411764705882
0.00828969488358,0.6102941176470589
0.00828969488358,0.6176470588235294
0.00829337624722,0.625
0.0082994251669,0.6323529411764706
0.00830915545021,0.6397058823529411
0.00831351274838,0.6470588235294118
0.00831351274838,0.6544117647058824
0.00831351274838,0.6617647058823529
0.00831351274838,0.6691176470588235
0.00831394168199,0.6764705882352942
0.00831394168199,0.6838235294117647
0.00831394168199,0.6911764705882353
0.0113703216338,0.6985294117647058
0.011631708338,0.7058823529411765
0.015029735493,0.7132352941176471
0.0186891493521,0.7205882352941176
0.0189505360563,0.7279411764705882
0.0202574695775,0.7352941176470589
0.0205188562817,0.7426470588235294
0.0220871765071,0.75
0.207161395254,0.7573529411764706
0.207334406181,0.7647058823529411
0.221819999667,0.7720588235294118
0.410610724908,0.7794117647058824
0.410610724908,0.7867647058823529
0.414971258345,0.7941176470588235
0.414971258345,0.8014705882352942
0.621484185762,0.8088235294117647
0.690717938407,0.8161764705882353
0.690717938407,0.8235294117647058
0.690717938407,0.8308823529411765
0.815942320616,0.8382352941176471
0.828583100015,0.8455882352941176
0.829337624722,0.8529411764705882
0.831351274838,0.8602941176470589
0.831351274838,0.8676470588235294
0.831394168199,0.875
0.831394168199,0.8823529411764706
1.03574449527,0.8897058823529411
1.22655304552,0.8970588235294118
1.2439407467,0.9044117647058824
1.51721851742,0.9117647058823529
1.63188464123,0.9191176470588235
1.66270254968,0.9264705882352942
2.4941825046,0.9338235294117647
3.38362863371,0.9411764705882353
6.02692201013,0.9485294117647058
6.13795845505,0.9558823529411765
7.9635267519,0.9632352941176471
9.81233846242,0.9705882352941176
10.036436987,0.9779411764705882
10.5664866864,0.9852941176470589
10.8549516186,0.9926470588235294
11.6155132803,1.0
