Congestion,CDF
0.0,0.007352941176470588
0.0,0.014705882352941176
0.0,0.022058823529411766
0.0,0.029411764705882353
0.0,0.03676470588235294
0.0,0.04411764705882353
0.0,0.051470588235294115
0.0,0.058823529411764705
0.0,0.0661764705882353
0.0,0.07352941176470588
0.0,0.08088235294117647
0.0,0.08823529411764706
0.0,0.09558823529411764
0.0,0.10294117647058823
1.51487371314e-05,0.11029411764705882
1.51487371314e-05,0.11764705882352941
1.51487371314e-05,0.125
1.51487371314e-05,0.1323529411764706
1.51487371314e-05,0.13970588235294118
1.51487371314e-05,0.14705882352941177
1.51487371314e-05,0.15441176470588236
1.51487371314e-05,0.16176470588235295
1.51487371314e-05,0.16911764705882354
1.51487371314e-05,0.17647058823529413
1.51487371314e-05,0.18382352941176472
1.51487371314e-05,0.19117647058823528
1.51487371314e-05,0.19852941176470587
1.51487371314e-05,0.20588235294117646
1.51487371314e-05,0.21323529411764705
1.51487371314e-05,0.22058823529411764
1.51487371314e-05,0.22794117647058823
1.51487371314e-05,0.23529411764705882
1.51487371314e-05,0.2426470588235294
1.51487371314e-05,0.25
1.51487371314e-05,0.25735294117647056
1.51487371314e-05,0.2647058823529412
1.51487371314e-05,0.27205882352941174
1.51487371314e-05,0.27941176470588236
1.51487371314e-05,0.2867647058823529
1.51487371314e-05,0.29411764705882354
1.51487371314e-05,0.3014705882352941
0.000378718428285,0.3088235294117647
0.000378718428285,0.3161764705882353
0.000409015902548,0.3235294117647059
0.000757436856571,0.33088235294117646
0.000757436856571,0.3382352941176471
0.000757436856571,0.34558823529411764
0.000757436856571,0.35294117647058826
0.00113615528486,0.3602941176470588
0.00126239476095,0.36764705882352944
0.00126239476095,0.375
0.00126239476095,0.38235294117647056
0.00151487371314,0.3897058823529412
0.00151487371314,0.39705882352941174
0.00151487371314,0.40441176470588236
0.00151487371314,0.4117647058823529
0.00151487371314,0.41911764705882354
0.00151487371314,0.4264705882352941
0.00151487371314,0.4338235294117647
0.00189359214143,0.4411764705882353
0.00227231056971,0.4485294117647059
0.00227231056971,0.45588235294117646
0.00277726847409,0.4632352941176471
0.00302974742628,0.47058823529411764
0.00302974742628,0.47794117647058826
0.00454462113942,0.4852941176470588
0.00618573432866,0.49264705882352944
0.0109828344203,0.5
0.0112353133725,0.5073529411764706
0.0141352473881,0.5147058823529411
0.0145175397509,0.5220588235294118
0.0150387743342,0.5294117647058824
0.0180522450816,0.5367647058823529
0.0183047240338,0.5441176470588235
0.0195671187947,0.5514705882352942
0.0198195977469,0.5588235294117647
0.0213344714601,0.5661764705882353
0.026320265413,0.5735294117647058
0.0264306072853,0.5808823529411765
0.0266361698541,0.5882352941176471
0.0266802799711,0.5955882352941176
0.0267232155891,0.6029411764705882
0.0267730509577,0.6102941176470589
0.0268831694569,0.6176470588235294
0.0269043755684,0.625
0.0269255834071,0.6323529411764706
0.0269332810931,0.6397058823529411
0.0269340879445,0.6470588235294118
0.0269344286422,0.6544117647058824
0.0269345525567,0.6617647058823529
0.0269346943339,0.6691176470588235
0.0269348815712,0.6764705882352942
0.0269429689103,0.6838235294117647
0.0269485058703,0.6911764705882353
0.0269617852883,0.6985294117647058
0.0269673746874,0.7058823529411765
0.0269673908949,0.7132352941176471
0.0269674610555,0.7205882352941176
0.0269674655639,0.7279411764705882
0.0269679226318,0.7352941176470589
0.0269679256377,0.7426470588235294
0.0269679256377,0.75
0.673363813918,0.7573529411764706
0.673574222758,0.7647058823529411
0.700683391544,0.7720588235294118
1.33865254788,0.7794117647058824
1.33865254788,0.7867647058823529
1.34742529351,0.7941176470588235
1.34742529351,0.8014705882352942
2.02009144175,0.8088235294117647
2.24474096816,0.8161764705882353
2.24474096816,0.8235294117647058
2.24474096816,0.8308823529411765
2.67232155891,0.8382352941176471
2.69344286422,0.8455882352941176
2.69429689103,0.8529411764705882
2.69673908949,0.8602941176470589
2.69674655639,0.8676470588235294
2.69679256377,0.875
2.69679256377,0.8823529411764706
3.36685197104,0.8897058823529411
4.0022695333,0.8970588235294118
4.0408947269,0.9044117647058824
4.935178525,0.9117647058823529
5.34034955601,0.9191176470588235
5.39349266194,0.9264705882352942
8.09037739072,0.9338235294117647
10.9983639127,0.9411764705882353
19.5509208336,0.9485294117647058
19.9605119313,0.9558823529411765
25.8392656241,0.9632352941176471
31.9351575619,0.9705882352941176
32.5727186918,0.9779411764705882
33.3486823007,0.9852941176470589
35.2157794203,0.9926470588235294
36.7196568537,1.0
