Congestion,CDF
0.0,0.007352941176470588
0.0,0.014705882352941176
0.0,0.022058823529411766
0.0,0.029411764705882353
0.0,0.03676470588235294
0.0,0.04411764705882353
0.0,0.051470588235294115
0.0,0.058823529411764705
0.0,0.0661764705882353
0.0,0.07352941176470588
0.0,0.08088235294117647
0.0,0.08823529411764706
0.0,0.09558823529411764
0.0,0.10294117647058823
1.54231825635e-05,0.11029411764705882
1.54231825635e-05,0.11764705882352941
1.54231825635e-05,0.125
1.54231825635e-05,0.1323529411764706
1.54231825635e-05,0.13970588235294118
1.54231825635e-05,0.14705882352941177
1.54231825635e-05,0.15441176470588236
1.54231825635e-05,0.16176470588235295
1.54231825635e-05,0.16911764705882354
1.54231825635e-05,0.17647058823529413
1.54231825635e-05,0.18382352941176472
1.54231825635e-05,0.19117647058823528
1.54231825635e-05,0.19852941176470587
1.54231825635e-05,0.20588235294117646
1.54231825635e-05,0.21323529411764705
1.54231825635e-05,0.22058823529411764
1.54231825635e-05,0.22794117647058823
1.54231825635e-05,0.23529411764705882
1.54231825635e-05,0.2426470588235294
1.54231825635e-05,0.25
1.54231825635e-05,0.25735294117647056
1.54231825635e-05,0.2647058823529412
1.54231825635e-05,0.27205882352941174
1.54231825635e-05,0.27941176470588236
1.54231825635e-05,0.2867647058823529
1.54231825635e-05,0.29411764705882354
1.54231825635e-05,0.3014705882352941
0.000385579564088,0.3088235294117647
0.000385579564088,0.3161764705882353
0.000416425929215,0.3235294117647059
0.000771159128175,0.33088235294117646
0.000771159128175,0.3382352941176471
0.000771159128175,0.34558823529411764
0.000771159128175,0.35294117647058826
0.00115673869226,0.3602941176470588
0.00128526521363,0.36764705882352944
0.00128526521363,0.375
0.00128526521363,0.38235294117647056
0.00154231825635,0.3897058823529412
0.00154231825635,0.39705882352941174
0.00154231825635,0.40441176470588236
0.00154231825635,0.4117647058823529
0.00154231825635,0.41911764705882354
0.00154231825635,0.4264705882352941
0.00154231825635,0.4338235294117647
0.00192789782044,0.4411764705882353
0.00231347738453,0.4485294117647059
0.00231347738453,0.45588235294117646
0.00282758346998,0.4632352941176471
0.0030846365127,0.47058823529411764
0.0030846365127,0.47794117647058826
0.00462695476905,0.4852941176470588
0.00629779954677,0.49264705882352944
0.0109856030338,0.5
0.0111086735786,0.5073529411764706
0.0111818073585,0.5147058823529411
0.0114388604013,0.5220588235294118
0.0122385644353,0.5294117647058824
0.0122531002674,0.5367647058823529
0.0122690366958,0.5441176470588235
0.0122690366958,0.5514705882352942
0.0122780669552,0.5588235294117647
0.0123313122847,0.5661764705882353
0.0124098564677,0.5735294117647058
0.0124142837989,0.5808823529411765
0.012439820972,0.5882352941176471
0.012439820972,0.5955882352941176
0.0124399537673,0.6029411764705882
0.0124400517053,0.6102941176470589
0.0124400843671,0.6176470588235294
0.0124409820028,0.625
0.0124422666306,0.6323529411764706
0.0124478640903,0.6397058823529411
0.0124542151155,0.6470588235294118
0.0124661688161,0.6544117647058824
0.0124712137633,0.6617647058823529
0.0124712137633,0.6691176470588235
0.0124712683192,0.6764705882352942
0.0124712683192,0.6838235294117647
0.012471724694,0.6911764705882353
0.012471724694,0.6985294117647058
0.012471724694,0.7058823529411765
0.0147805499567,0.7132352941176471
0.0183792925548,0.7205882352941176
0.0186363455976,0.7279411764705882
0.0199216108112,0.7352941176470589
0.0201786638539,0.7426470588235294
0.0217209821103,0.75
0.311001292633,0.7573529411764706
0.311196602256,0.7647058823529411
0.332308900899,0.7720588235294118
0.616565614236,0.7794117647058824
0.616565614236,0.7867647058823529
0.622710755775,0.7941176470588235
0.622710755775,0.8014705882352942
0.933003877898,0.8088235294117647
1.03686737379,0.8161764705882353
1.03686737379,0.8235294117647058
1.03686737379,0.8308823529411765
1.22690366958,0.8382352941176471
1.2439820972,0.8455882352941176
1.24478640903,0.8529411764705882
1.24712137633,0.8602941176470589
1.24712683192,0.8676470588235294
1.2471724694,0.875
1.2471724694,0.8823529411764706
1.55499666937,0.8897058823529411
1.84187564097,0.8970588235294118
1.86693741884,0.9044117647058824
2.27829575368,0.9117647058823529
2.45380733917,0.9191176470588235
2.49425366385,0.9264705882352942
3.74151740819,0.9338235294117647
5.07982823755,0.9411764705882353
9.04121042696,0.9485294117647058
9.21567525224,0.9558823529411765
11.9474054381,0.9632352941176471
14.7352146759,0.9705882352941176
15.0584410573,0.9779411764705882
15.8337749793,0.9852941176470589
16.2862477528,0.9926470588235294
17.3971151106,1.0
