Congestion,CDF
0.0,0.007352941176470588
0.0,0.014705882352941176
0.0,0.022058823529411766
0.0,0.029411764705882353
0.0,0.03676470588235294
0.0,0.04411764705882353
0.0,0.051470588235294115
0.0,0.058823529411764705
0.0,0.0661764705882353
0.0,0.07352941176470588
0.0,0.08088235294117647
0.0,0.08823529411764706
0.0,0.09558823529411764
0.0,0.10294117647058823
1.5055339399e-05,0.11029411764705882
1.5055339399e-05,0.11764705882352941
1.5055339399e-05,0.125
1.5055339399e-05,0.1323529411764706
1.5055339399e-05,0.13970588235294118
1.5055339399e-05,0.14705882352941177
1.5055339399e-05,0.15441176470588236
1.5055339399e-05,0.16176470588235295
1.5055339399e-05,0.16911764705882354
1.5055339399e-05,0.17647058823529413
1.5055339399e-05,0.18382352941176472
1.5055339399e-05,0.19117647058823528
1.5055339399e-05,0.19852941176470587
1.5055339399e-05,0.20588235294117646
1.5055339399e-05,0.21323529411764705
1.5055339399e-05,0.22058823529411764
1.5055339399e-05,0.22794117647058823
1.5055339399e-05,0.23529411764705882
1.5055339399e-05,0.2426470588235294
1.5055339399e-05,0.25
1.5055339399e-05,0.25735294117647056
1.5055339399e-05,0.2647058823529412
1.5055339399e-05,0.27205882352941174
1.5055339399e-05,0.27941176470588236
1.5055339399e-05,0.2867647058823529
1.5055339399e-05,0.29411764705882354
1.5055339399e-05,0.3014705882352941
0.000376383484974,0.3088235294117647
0.000376383484974,0.3161764705882353
0.000406494163772,0.3235294117647059
0.000752766969948,0.33088235294117646
0.000752766969948,0.3382352941176471
0.000752766969948,0.34558823529411764
0.000752766969948,0.35294117647058826
0.00112915045492,0.3602941176470588
0.00125461161658,0.36764705882352944
0.00125461161658,0.375
0.00125461161658,0.38235294117647056
0.0015055339399,0.3897058823529412
0.0015055339399,0.39705882352941174
0.0015055339399,0.40441176470588236
0.0015055339399,0.4117647058823529
0.0015055339399,0.41911764705882354
0.0015055339399,0.4264705882352941
0.0015055339399,0.4338235294117647
0.00188191742487,0.4411764705882353
0.00225830090984,0.4485294117647059
0.00225830090984,0.45588235294117646
0.00276014555648,0.4632352941176471
0.00301106787979,0.47058823529411764
0.00301106787979,0.47794117647058826
0.00451660181969,0.4852941176470588
0.00614759692124,0.49264705882352944
0.0109151210642,0.5
0.0111660433876,0.5073529411764706
0.0144280335907,0.5147058823529411
0.0179409461171,0.5220588235294118
0.0181918684404,0.5294117647058824
0.019446480057,0.5367647058823529
0.0196974023803,0.5441176470588235
0.0212029363202,0.5514705882352942
0.0343831365831,0.5588235294117647
0.0349940172914,0.5661764705882353
0.041841405125,0.5735294117647058
0.0419232917336,0.5808823529411765
0.0420235309323,0.5882352941176471
0.0420594205159,0.5955882352941176
0.0420850156932,0.6029411764705882
0.0421393026059,0.6102941176470589
0.0422442425623,0.6176470588235294
0.0422598610043,0.625
0.0422833720638,0.6323529411764706
0.0422881712955,0.6397058823529411
0.0422886941902,0.6470588235294118
0.0422889796975,0.6544117647058824
0.0422890480859,0.6617647058823529
0.0422894033851,0.6691176470588235
0.0422897686046,0.6764705882352942
0.0422974209867,0.6838235294117647
0.042303143848,0.6911764705882353
0.042316294926,0.6985294117647058
0.0423217838836,0.7058823529411765
0.0423217970688,0.7132352941176471
0.0423218665659,0.7205882352941176
0.0423218706159,0.7279411764705882
0.042322327921,0.7352941176470589
0.0423223306213,0.7426470588235294
0.0423223306213,0.75
1.05722620215,0.7573529411764706
1.05743552467,0.7647058823529411
1.12514182843,0.7720588235294118
2.10696513029,0.7794117647058824
2.10696513029,0.7867647058823529
2.1151571924,0.7941176470588235
2.1151571924,0.8014705882352942
3.17167860644,0.8088235294117647
3.52428486649,0.8161764705882353
3.52428486649,0.8235294117647058
3.52428486649,0.8308823529411765
4.20850156932,0.8382352941176471
4.22889796975,0.8455882352941176
4.22974209867,0.8529411764705882
4.23217970688,0.8602941176470589
4.23218706159,0.8676470588235294
4.23223306213,0.875
4.23223306213,0.8823529411764706
5.28616654065,0.8897058823529411
6.30931822353,0.8970588235294118
6.34413405286,0.9044117647058824
7.75027096692,0.9117647058823529
8.4144436209,0.9191176470588235
8.46437371818,0.9264705882352942
12.6966989164,0.9338235294117647
17.2681665064,0.9411764705882353
30.6828662544,0.9485294117647058
31.3498268599,0.9558823529411765
40.5539378059,0.9632352941176471
50.2577292168,0.9705882352941176
51.1264090652,0.9779411764705882
53.6960428751,0.9852941176470589
55.3187382385,0.9926470588235294
58.8181399677,1.0
