Congestion,CDF
0.0,0.007352941176470588
0.0,0.014705882352941176
0.0,0.022058823529411766
0.0,0.029411764705882353
0.0,0.03676470588235294
0.0,0.04411764705882353
0.0,0.051470588235294115
0.0,0.058823529411764705
0.0,0.0661764705882353
0.0,0.07352941176470588
0.0,0.08088235294117647
0.0,0.08823529411764706
0.0,0.09558823529411764
0.0,0.10294117647058823
1.52288908168e-05,0.11029411764705882
1.52288908168e-05,0.11764705882352941
1.52288908168e-05,0.125
1.52288908168e-05,0.1323529411764706
1.52288908168e-05,0.13970588235294118
1.52288908168e-05,0.14705882352941177
1.52288908168e-05,0.15441176470588236
1.52288908168e-05,0.16176470588235295
1.52288908168e-05,0.16911764705882354
1.52288908168e-05,0.17647058823529413
1.52288908168e-05,0.18382352941176472
1.52288908168e-05,0.19117647058823528
1.52288908168e-05,0.19852941176470587
1.52288908168e-05,0.20588235294117646
1.52288908168e-05,0.21323529411764705
1.52288908168e-05,0.22058823529411764
1.52288908168e-05,0.22794117647058823
1.52288908168e-05,0.23529411764705882
1.52288908168e-05,0.2426470588235294
1.52288908168e-05,0.25
1.52288908168e-05,0.25735294117647056
1.52288908168e-05,0.2647058823529412
1.52288908168e-05,0.27205882352941174
1.52288908168e-05,0.27941176470588236
1.52288908168e-05,0.2867647058823529
1.52288908168e-05,0.29411764705882354
1.52288908168e-05,0.3014705882352941
0.000380722270419,0.3088235294117647
0.000380722270419,0.3161764705882353
0.000411180052052,0.3235294117647059
0.000761444540838,0.33088235294117646
0.000761444540838,0.3382352941176471
0.000761444540838,0.34558823529411764
0.000761444540838,0.35294117647058826
0.00114216681126,0.3602941176470588
0.00126907423473,0.36764705882352944
0.00126907423473,0.375
0.00126907423473,0.38235294117647056
0.00152288908168,0.3897058823529412
0.00152288908168,0.39705882352941174
0.00152288908168,0.40441176470588236
0.00152288908168,0.4117647058823529
0.00152288908168,0.41911764705882354
0.00152288908168,0.4264705882352941
0.00152288908168,0.4338235294117647
0.00190361135209,0.4411764705882353
0.00228433362251,0.4485294117647059
0.00228433362251,0.45588235294117646
0.00279196331641,0.4632352941176471
0.00304577816335,0.47058823529411764
0.00304577816335,0.47794117647058826
0.00456866724503,0.4852941176470588
0.00621846375018,0.49264705882352944
0.0100685504353,0.5
0.0108171361442,0.5073529411764706
0.0110409458421,0.5147058823529411
0.0112947606891,0.5220588235294118
0.0145943536994,0.5294117647058824
0.0181477615566,0.5367647058823529
0.0184015764036,0.5441176470588235
0.0196706506383,0.5514705882352942
0.0196909917481,0.5588235294117647
0.0198359632144,0.5661764705882353
0.0199244654853,0.5735294117647058
0.0199814913013,0.5808823529411765
0.0200445444234,0.5882352941176471
0.0200901801014,0.5955882352941176
0.0201712896042,0.6029411764705882
0.0203462329375,0.6102941176470589
0.0203722572548,0.6176470588235294
0.0204119504482,0.625
0.0204134284972,0.6323529411764706
0.0204142144388,0.6397058823529411
0.0204237610526,0.6470588235294118
0.0204264326623,0.6544117647058824
0.0204289843876,0.6617647058823529
0.0204394322518,0.6691176470588235
0.0204467644534,0.6764705882352942
0.0204658181979,0.6838235294117647
0.0204918140718,0.6911764705882353
0.0205046739912,0.6985294117647058
0.020504697024,0.7058823529411765
0.0205048517952,0.7132352941176471
0.0205048584753,0.7205882352941176
0.0205050354071,0.7279411764705882
0.0205050398607,0.7352941176470589
0.0205050398607,0.7426470588235294
0.0214473545669,0.75
0.510594026315,0.7573529411764706
0.511169111335,0.7647058823529411
0.529315434041,0.7720588235294118
1.00856448021,0.7794117647058824
1.00856448021,0.7867647058823529
1.0232909099,0.7941176470588235
1.0232909099,0.8014705882352942
1.53178207894,0.8088235294117647
1.70264422639,0.8161764705882353
1.70264422639,0.8235294117647058
1.70264422639,0.8308823529411765
2.00901801014,0.8382352941176471
2.04134284972,0.8455882352941176
2.04467644534,0.8529411764705882
2.0504697024,0.8602941176470589
2.05048584753,0.8676470588235294
2.05050398607,0.875
2.05050398607,0.8823529411764706
2.55201547019,0.8897058823529411
3.00671361034,0.8970588235294118
3.06723413507,0.9044117647058824
3.73986995188,0.9117647058823529
4.01347245247,0.9191176470588235
4.10097102706,0.9264705882352942
6.15151151286,0.9338235294117647
8.33719759113,0.9411764705882353
14.8645887528,0.9485294117647058
15.120255317,0.9558823529411765
19.6397052962,0.9632352941176471
24.1095405546,0.9705882352941176
24.7498378701,0.9779411764705882
25.1163955981,0.9852941176470589
26.7334341915,0.9926470588235294
27.8151478059,1.0
