Congestion,CDF
0.0,0.007352941176470588
0.0,0.014705882352941176
0.0,0.022058823529411766
0.0,0.029411764705882353
0.0,0.03676470588235294
0.0,0.04411764705882353
0.0,0.051470588235294115
0.0,0.058823529411764705
0.0,0.0661764705882353
0.0,0.07352941176470588
0.0,0.08088235294117647
0.0,0.08823529411764706
0.0,0.09558823529411764
0.0,0.10294117647058823
5.71598006088e-06,0.11029411764705882
5.71598006088e-06,0.11764705882352941
5.71598006088e-06,0.125
5.71598006088e-06,0.1323529411764706
5.71598006088e-06,0.13970588235294118
5.71598006088e-06,0.14705882352941177
5.71598006088e-06,0.15441176470588236
5.71598006088e-06,0.16176470588235295
5.71598006088e-06,0.16911764705882354
5.71598006088e-06,0.17647058823529413
5.71598006088e-06,0.18382352941176472
5.71598006088e-06,0.19117647058823528
5.71598006088e-06,0.19852941176470587
5.71598006088e-06,0.20588235294117646
5.71598006088e-06,0.21323529411764705
5.71598006088e-06,0.22058823529411764
5.71598006088e-06,0.22794117647058823
5.71598006088e-06,0.23529411764705882
5.71598006088e-06,0.2426470588235294
5.71598006088e-06,0.25
5.71598006088e-06,0.25735294117647056
5.71598006088e-06,0.2647058823529412
5.71598006088e-06,0.27205882352941174
5.71598006088e-06,0.27941176470588236
5.71598006088e-06,0.2867647058823529
5.71598006088e-06,0.29411764705882354
5.71598006088e-06,0.3014705882352941
0.000142899501522,0.3088235294117647
0.000142899501522,0.3161764705882353
0.000154331461644,0.3235294117647059
0.000285799003044,0.33088235294117646
0.000285799003044,0.3382352941176471
0.000285799003044,0.34558823529411764
0.000285799003044,0.35294117647058826
0.000428698504566,0.3602941176470588
0.00047633167174,0.36764705882352944
0.00047633167174,0.375
0.00047633167174,0.38235294117647056
0.000571598006088,0.3897058823529412
0.000571598006088,0.39705882352941174
0.000571598006088,0.40441176470588236
0.000571598006088,0.4117647058823529
0.000571598006088,0.41911764705882354
0.000571598006088,0.4264705882352941
0.000571598006088,0.4338235294117647
0.00071449750761,0.4411764705882353
0.000857397009132,0.4485294117647059
0.000857397009132,0.45588235294117646
0.00104792967783,0.4632352941176471
0.00114319601218,0.47058823529411764
0.00114319601218,0.47794117647058826
0.00171479401826,0.4852941176470588
0.00233402519153,0.49264705882352944
0.00414408554414,0.5
0.00423935187849,0.5073529411764706
0.00547781422501,0.5147058823529411
0.00681154290589,0.5220588235294118
0.00686017306471,0.5294117647058824
0.00690680924023,0.5367647058823529
0.00738314091197,0.5441176470588235
0.0074665393821,0.5514705882352942
0.00747840724632,0.5588235294117647
0.00805000525241,0.5661764705882353
0.0125044572174,0.5735294117647058
0.0126610027976,0.5808823529411765
0.012743087538,0.5882352941176471
0.0127646533078,0.5955882352941176
0.0127983740563,0.6029411764705882
0.0129552034888,0.6102941176470589
0.0132605516408,0.6176470588235294
0.0132892080064,0.625
0.0133573089953,0.6323529411764706
0.0133585015267,0.6397058823529411
0.0133597965409,0.6470588235294118
0.0134296605631,0.6544117647058824
0.0134528446313,0.6617647058823529
0.0135268668792,0.6691176470588235
0.0135727805011,0.6764705882352942
0.0135824221564,0.6838235294117647
0.0136500006548,0.6911764705882353
0.0137182868362,0.6985294117647058
0.0137503263695,0.7058823529411765
0.0137503524336,0.7132352941176471
0.0137506020898,0.7205882352941176
0.0137506115412,0.7279411764705882
0.0137512308802,0.7352941176470589
0.0137512371826,0.7426470588235294
0.0137512371826,0.75
0.335741514078,0.7573529411764706
0.338171671979,0.7647058823529411
0.348567317464,0.7720588235294118
0.64776017444,0.7794117647058824
0.64776017444,0.7867647058823529
0.682500032739,0.7941176470588235
0.682500032739,0.8014705882352942
1.00722454223,0.8088235294117647
1.12234134043,0.8161764705882353
1.12234134043,0.8235294117647058
1.12234134043,0.8308823529411765
1.27646533078,0.8382352941176471
1.33585015267,0.8455882352941176
1.35268668792,0.8529411764705882
1.37503524336,0.8602941176470589
1.37506115412,0.8676470588235294
1.37512371826,0.875
1.37512371826,0.8823529411764706
1.67172116817,0.8897058823529411
1.9138604542,0.8970588235294118
2.04074224838,0.9044117647058824
2.45126214108,0.9117647058823529
2.55077408458,0.9191176470588235
2.7501213631,0.9264705882352942
4.12537052453,0.9338235294117647
5.46564356079,0.9411764705882353
9.8907210404,0.9485294117647058
9.96373143992,0.9558823529411765
13.1404014967,0.9632352941176471
15.6058013009,0.9705882352941176
16.2918186074,0.9779411764705882
16.5384217952,0.9852941176470589
17.8182592008,0.9926470588235294
18.564913139,1.0
