Congestion,CDF
0.0,0.007352941176470588
0.0,0.014705882352941176
0.0,0.022058823529411766
0.0,0.029411764705882353
0.0,0.03676470588235294
0.0,0.04411764705882353
0.0,0.051470588235294115
0.0,0.058823529411764705
0.0,0.0661764705882353
0.0,0.07352941176470588
0.0,0.08088235294117647
0.0,0.08823529411764706
0.0,0.09558823529411764
0.0,0.10294117647058823
7.25549462336e-06,0.11029411764705882
7.25549462336e-06,0.11764705882352941
7.25549462336e-06,0.125
7.25549462336e-06,0.1323529411764706
7.25549462336e-06,0.13970588235294118
7.25549462336e-06,0.14705882352941177
7.25549462336e-06,0.15441176470588236
7.25549462336e-06,0.16176470588235295
7.25549462336e-06,0.16911764705882354
7.25549462336e-06,0.17647058823529413
7.25549462336e-06,0.18382352941176472
7.25549462336e-06,0.19117647058823528
7.25549462336e-06,0.19852941176470587
7.25549462336e-06,0.20588235294117646
7.25549462336e-06,0.21323529411764705
7.25549462336e-06,0.22058823529411764
7.25549462336e-06,0.22794117647058823
7.25549462336e-06,0.23529411764705882
7.25549462336e-06,0.2426470588235294
7.25549462336e-06,0.25
7.25549462336e-06,0.25735294117647056
7.25549462336e-06,0.2647058823529412
7.25549462336e-06,0.27205882352941174
7.25549462336e-06,0.27941176470588236
7.25549462336e-06,0.2867647058823529
7.25549462336e-06,0.29411764705882354
7.25549462336e-06,0.3014705882352941
0.000181387365584,0.3088235294117647
0.000181387365584,0.3161764705882353
0.000195898354831,0.3235294117647059
0.000362774731168,0.33088235294117646
0.000362774731168,0.3382352941176471
0.000362774731168,0.34558823529411764
0.000362774731168,0.35294117647058826
0.000544162096752,0.3602941176470588
0.000604624551946,0.36764705882352944
0.000604624551946,0.375
0.000604624551946,0.38235294117647056
0.000725549462336,0.3897058823529412
0.000725549462336,0.39705882352941174
0.000725549462336,0.40441176470588236
0.000725549462336,0.4117647058823529
0.000725549462336,0.41911764705882354
0.000725549462336,0.4264705882352941
0.000725549462336,0.4338235294117647
0.00090693682792,0.4411764705882353
0.0010883241935,0.4485294117647059
0.0010883241935,0.45588235294117646
0.00133017401428,0.4632352941176471
0.00145109892467,0.47058823529411764
0.00145109892467,0.47794117647058826
0.00217664838701,0.4852941176470588
0.00296266030454,0.49264705882352944
0.00521204461526,0.5
0.00526023360193,0.5073529411764706
0.00538115851232,0.5147058823529411
0.00548373542841,0.5220588235294118
0.00694349436591,0.5294117647058824
0.00694349436591,0.5367647058823529
0.00695318234738,0.5441176470588235
0.00695342128642,0.5514705882352942
0.00695342128642,0.5588235294117647
0.00712266199771,0.5661764705882353
0.00713856181161,0.5735294117647058
0.00730751212734,0.5808823529411765
0.00730928122358,0.5882352941176471
0.0073592943877,0.5955882352941176
0.0073592943877,0.6029411764705882
0.0073592943877,0.6102941176470589
0.00743202581642,0.6176470588235294
0.00745642669514,0.625
0.00752559808435,0.6323529411764706
0.00758769521253,0.6397058823529411
0.00758769521253,0.6470588235294118
0.00764766597725,0.6544117647058824
0.0077082441697,0.6617647058823529
0.00773783961893,0.6691176470588235
0.00773783961893,0.6764705882352942
0.00773792977856,0.6838235294117647
0.00773792977856,0.6911764705882353
0.0077384845097,0.6985294117647058
0.0077384845097,0.7058823529411765
0.0077384845097,0.7132352941176471
0.00864613109283,0.7205882352941176
0.00876705600322,0.7279411764705882
0.00937168055517,0.7352941176470589
0.00949260546556,0.7426470588235294
0.0102181549279,0.75
0.185800645411,0.7573529411764706
0.188139952109,0.7647058823529411
0.196557855164,0.7720588235294118
0.356133099886,0.7794117647058824
0.356133099886,0.7867647058823529
0.382383298862,0.7941176470588235
0.382383298862,0.8014705882352942
0.557401936232,0.8088235294117647
0.622488154024,0.8161764705882353
0.622488154024,0.8235294117647058
0.622488154024,0.8308823529411765
0.695342128642,0.8382352941176471
0.73592943877,0.8455882352941176
0.752559808435,0.8529411764705882
0.773783961893,0.8602941176470589
0.773792977856,0.8676470588235294
0.77384845097,0.875
0.77384845097,0.8823529411764706
0.92173008418,0.8897058823529411
1.05048253648,0.8970588235294118
1.14115282012,0.9044117647058824
1.35341627638,0.9117647058823529
1.39068425728,0.9191176470588235
1.54758595571,0.9264705882352942
2.32154535291,0.9338235294117647
3.01607711574,0.9411764705882353
5.45637770475,0.9485294117647058
5.60483918452,0.9558823529411765
7.38053505437,0.9632352941176471
8.5918939351,0.9705882352941176
9.11309839662,0.9779411764705882
9.28045739574,0.9852941176470589
9.9943135769,0.9926470588235294
10.5426871197,1.0
