Congestion,CDF
0.0,0.007352941176470588
0.0,0.014705882352941176
0.0,0.022058823529411766
0.0,0.029411764705882353
0.0,0.03676470588235294
0.0,0.04411764705882353
0.0,0.051470588235294115
0.0,0.058823529411764705
0.0,0.0661764705882353
0.0,0.07352941176470588
0.0,0.08088235294117647
0.0,0.08823529411764706
0.0,0.09558823529411764
0.0,0.10294117647058823
8.1731070369e-06,0.11029411764705882
8.1731070369e-06,0.11764705882352941
8.1731070369e-06,0.125
8.1731070369e-06,0.1323529411764706
8.1731070369e-06,0.13970588235294118
8.1731070369e-06,0.14705882352941177
8.1731070369e-06,0.15441176470588236
8.1731070369e-06,0.16176470588235295
8.1731070369e-06,0.16911764705882354
8.1731070369e-06,0.17647058823529413
8.1731070369e-06,0.18382352941176472
8.1731070369e-06,0.19117647058823528
8.1731070369e-06,0.19852941176470587
8.1731070369e-06,0.20588235294117646
8.1731070369e-06,0.21323529411764705
8.1731070369e-06,0.22058823529411764
8.1731070369e-06,0.22794117647058823
8.1731070369e-06,0.23529411764705882
8.1731070369e-06,0.2426470588235294
8.1731070369e-06,0.25
8.1731070369e-06,0.25735294117647056
8.1731070369e-06,0.2647058823529412
8.1731070369e-06,0.27205882352941174
8.1731070369e-06,0.27941176470588236
8.1731070369e-06,0.2867647058823529
8.1731070369e-06,0.29411764705882354
8.1731070369e-06,0.3014705882352941
0.000204327675922,0.3088235294117647
0.000204327675922,0.3161764705882353
0.000220673889996,0.3235294117647059
0.000408655351845,0.33088235294117646
0.000408655351845,0.3382352941176471
0.000408655351845,0.34558823529411764
0.000408655351845,0.35294117647058826
0.000612983027767,0.3602941176470588
0.000681092253075,0.36764705882352944
0.000681092253075,0.375
0.000681092253075,0.38235294117647056
0.00081731070369,0.3897058823529412
0.00081731070369,0.39705882352941174
0.00081731070369,0.40441176470588236
0.00081731070369,0.4117647058823529
0.00081731070369,0.41911764705882354
0.00081731070369,0.4264705882352941
0.00081731070369,0.4338235294117647
0.00102163837961,0.4411764705882353
0.00122596605553,0.4485294117647059
0.00122596605553,0.45588235294117646
0.00149840295676,0.4632352941176471
0.00163462140738,0.47058823529411764
0.00163462140738,0.47794117647058826
0.00245193211107,0.4852941176470588
0.00333735204007,0.49264705882352944
0.00422813085133,0.5
0.004441911033,0.5073529411764706
0.0054849421408,0.5147058823529411
0.0054849421408,0.5220588235294118
0.0054849421408,0.5294117647058824
0.0054849421408,0.5367647058823529
0.00562274583433,0.5441176470588235
0.00565237928409,0.5514705882352942
0.00576408303758,0.5588235294117647
0.00576408303758,0.5661764705882353
0.00580005133415,0.5735294117647058
0.00580005133415,0.5808823529411765
0.00580005133415,0.5882352941176471
0.00587409987062,0.5955882352941176
0.00589894669346,0.6029411764705882
0.00592550260175,0.6102941176470589
0.00596500770429,0.6176470588235294
0.00602908678952,0.625
0.00602908678952,0.6323529411764706
0.00606172105237,0.6397058823529411
0.00608405138454,0.6470588235294118
0.00613953111813,0.6544117647058824
0.00616748516357,0.6617647058823529
0.00616748516357,0.6691176470588235
0.00616748516357,0.6764705882352942
0.00616748516357,0.6838235294117647
0.00616791118553,0.6911764705882353
0.00616791118553,0.6985294117647058
0.00616791118553,0.7058823529411765
0.00783256091036,0.7132352941176471
0.00973961921897,0.7205882352941176
0.00987583766959,0.7279411764705882
0.0105569299227,0.7352941176470589
0.0106931483733,0.7426470588235294
0.011510459077,0.75
0.146852496766,0.7573529411764706
0.149125192607,0.7647058823529411
0.156006740205,0.7720588235294118
0.281137291717,0.7794117647058824
0.281137291717,0.7867647058823529
0.304202569227,0.7941176470588235
0.304202569227,0.8014705882352942
0.440557490297,0.8088235294117647
0.492609245821,0.8161764705882353
0.492609245821,0.8235294117647058
0.492609245821,0.8308823529411765
0.54849421408,0.8382352941176471
0.580005133415,0.8455882352941176
0.596500770429,0.8529411764705882
0.616748516357,0.8602941176470589
0.616748516357,0.8676470588235294
0.616791118553,0.875
0.616791118553,0.8823529411764706
0.726857630181,0.8897058823529411
0.829631505796,0.8970588235294118
0.907111248179,0.9044117647058824
1.06901754958,0.9117647058823529
1.09698842816,0.9191176470588235
1.23349703271,0.9264705882352942
1.85037335566,0.9338235294117647
2.37947714283,0.9411764705882353
4.30604028789,0.9485294117647058
4.46649261369,0.9558823529411765
5.87725754055,0.9632352941176471
6.78115443592,0.9705882352941176
7.20396752106,0.9779411764705882
7.38727746769,0.9852941176470589
7.95251539609,0.9926470588235294
8.39670649939,1.0
