Congestion,CDF
0.0,0.009433962264150943
0.0,0.018867924528301886
0.0,0.02830188679245283
0.0,0.03773584905660377
0.0,0.04716981132075472
0.0,0.05660377358490566
0.0,0.0660377358490566
0.0,0.07547169811320754
0.0,0.08490566037735849
0.0,0.09433962264150944
0.0,0.10377358490566038
0.0,0.11320754716981132
0.0,0.12264150943396226
0.0,0.1320754716981132
0.0,0.14150943396226415
0.0,0.1509433962264151
0.0,0.16037735849056603
0.0,0.16981132075471697
0.0,0.1792452830188679
0.0,0.18867924528301888
0.0,0.19811320754716982
0.0,0.20754716981132076
0.0,0.2169811320754717
0.0,0.22641509433962265
0.0,0.2358490566037736
0.0,0.24528301886792453
0.0,0.25471698113207547
0.0,0.2641509433962264
0.0,0.27358490566037735
0.0,0.2830188679245283
1.85317778449e-08,0.29245283018867924
4.77423309374e-07,0.3018867924528302
5.36870810944e-07,0.3113207547169811
7.2781649919e-07,0.32075471698113206
8.21573511644e-07,0.330188679245283
1.09320551308e-06,0.33962264150943394
1.66715520979e-06,0.3490566037735849
2.13404673793e-06,0.3584905660377358
2.25849260705e-06,0.36792452830188677
2.63414957455e-06,0.37735849056603776
3.24326895562e-06,0.3867924528301887
3.3175843847e-06,0.39622641509433965
3.5003780105e-06,0.4056603773584906
1.36650689134e-05,0.41509433962264153
1.36650689134e-05,0.42452830188679247
2.24304969022e-05,0.4339622641509434
2.66755842241e-05,0.44339622641509435
2.66755842241e-05,0.4528301886792453
2.73301378269e-05,0.46226415094339623
2.73301378269e-05,0.4716981132075472
2.73301378269e-05,0.4811320754716981
4.2193830922e-05,0.49056603773584906
5.33511684482e-05,0.5
5.33511684482e-05,0.5094339622641509
5.33511684482e-05,0.5188679245283019
6.71841936848e-05,0.5283018867924528
6.71841936848e-05,0.5377358490566038
7.2781649919e-05,0.5471698113207547
0.000123698413627,0.5566037735849056
0.000123698413627,0.5660377358490566
0.00015326528349,0.5754716981132075
0.00015326528349,0.5849056603773585
0.000235422634654,0.5943396226415094
0.000238624938249,0.6037735849056604
0.000372099091608,0.6132075471698113
0.000387113371082,0.6226415094339622
0.00050330308454,0.6320754716981132
0.000805804011777,0.6415094339622641
0.0297635226319,0.6509433962264151
0.0674461878628,0.660377358490566
0.067888139682,0.6698113207547169
0.0681855471135,0.6792452830188679
0.0795372799142,0.6886792452830188
0.0901735551783,0.6981132075471698
0.0921923226367,0.7075471698113207
0.0934758990656,0.7169811320754716
0.0979029446323,0.7264150943396226
0.0981060392812,0.7358490566037735
0.0994131614077,0.7452830188679245
0.10507066678,0.7547169811320755
0.105763183943,0.7641509433962265
1.09491845013,0.7735849056603774
1.2237868079,0.7830188679245284
1.2237868079,0.7924528301886793
1.22632549102,0.8018867924528302
1.22632549102,0.8113207547169812
2.44757361581,0.8207547169811321
2.44757361581,0.8301886792452831
2.44757361581,0.839622641509434
2.45265098203,0.8490566037735849
2.45265098203,0.8584905660377359
2.45265098203,0.8679245283018868
2.97635226319,0.8773584905660378
6.95879005784,0.8867924528301887
6.95879005784,0.8962264150943396
7.1239072522,0.9056603773584906
7.1239072522,0.9150943396226415
7.4207703693,0.9245283018867925
7.4207703693,0.9339622641509434
12.9571789769,0.9433962264150944
13.0264306932,0.9528301886792453
13.7034088441,0.9622641509433962
13.747604026,0.9716981132075472
13.9424619635,0.9811320754716981
22.4984056129,0.9905660377358491
42.6236123031,1.0
