Congestion,CDF
0.0,0.009433962264150943
0.0,0.018867924528301886
0.0,0.02830188679245283
0.0,0.03773584905660377
0.0,0.04716981132075472
0.0,0.05660377358490566
0.0,0.0660377358490566
0.0,0.07547169811320754
0.0,0.08490566037735849
0.0,0.09433962264150944
0.0,0.10377358490566038
0.0,0.11320754716981132
0.0,0.12264150943396226
0.0,0.1320754716981132
0.0,0.14150943396226415
0.0,0.1509433962264151
0.0,0.16037735849056603
0.0,0.16981132075471697
0.0,0.1792452830188679
0.0,0.18867924528301888
0.0,0.19811320754716982
0.0,0.20754716981132076
0.0,0.2169811320754717
0.0,0.22641509433962265
0.0,0.2358490566037736
0.0,0.24528301886792453
0.0,0.25471698113207547
0.0,0.2641509433962264
0.0,0.27358490566037735
0.0,0.2830188679245283
2.64649121062e-08,0.29245283018867924
6.81799988418e-07,0.3018867924528302
7.66695939425e-07,0.3113207547169811
1.03938218134e-06,0.32075471698113206
1.1732749527e-06,0.330188679245283
1.56118792593e-06,0.33962264150943394
2.38083558219e-06,0.3490566037735849
3.04759531559e-06,0.3584905660377358
3.22531431351e-06,0.36792452830188677
3.76178354546e-06,0.37735849056603776
4.63165642096e-06,0.3867924528301887
4.73778500265e-06,0.39622641509433965
4.99882942487e-06,0.4056603773584906
1.71132910335e-05,0.41509433962264153
1.95148490742e-05,0.42452830188679247
1.95148490742e-05,0.4339622641509434
3.20326055051e-05,0.44339622641509435
3.80949414449e-05,0.4528301886792453
3.80949414449e-05,0.46226415094339623
3.90296981483e-05,0.4716981132075472
3.90296981483e-05,0.4811320754716981
3.90296981483e-05,0.49056603773584906
6.02562817297e-05,0.5
7.61898828898e-05,0.5094339622641509
7.61898828898e-05,0.5188679245283019
7.61898828898e-05,0.5283018867924528
9.59445874903e-05,0.5377358490566038
9.59445874903e-05,0.5471698113207547
0.000103938218134,0.5566037735849056
0.000176651569629,0.5660377358490566
0.000176651569629,0.5754716981132075
0.000218875506195,0.5849056603773585
0.000218875506195,0.5943396226415094
0.000336203001464,0.6037735849056604
0.000340776155961,0.6132075471698113
0.000531388290784,0.6226415094339622
0.000552829924175,0.6320754716981132
0.000718758448682,0.6415094339622641
0.0011507548021,0.6509433962264151
0.00171132910335,0.660377358490566
0.0187157790007,0.6698113207547169
0.0195194735343,0.6792452830188679
0.0200445663186,0.6886792452830188
0.0405996280949,0.6981132075471698
0.0651692885472,0.7075471698113207
0.0727242058428,0.7169811320754716
0.0781319366472,0.7264150943396226
0.0872674151944,0.7358490566037735
0.0876349843991,0.7452830188679245
0.0881072875738,0.7547169811320755
0.0954065602907,0.7641509433962265
0.0969489615978,0.7735849056603774
0.770287200333,0.7830188679245284
1.09543730499,0.7924528301886793
1.09543730499,0.8018867924528302
1.10134109467,0.8113207547169812
1.10134109467,0.8207547169811321
2.19087460998,0.8301886792452831
2.19087460998,0.839622641509434
2.19087460998,0.8490566037735849
2.20268218935,0.8584905660377359
2.20268218935,0.8679245283018868
2.20268218935,0.8773584905660378
5.8329886918,0.8867924528301887
5.8329886918,0.8962264150943396
6.10337523202,0.9056603773584906
6.10337523202,0.9150943396226415
6.56014915938,0.9245283018867925
6.56014915938,0.9339622641509434
7.70456659187,0.9433962264150944
7.78493604524,0.9528301886792453
8.10783186388,0.9622641509433962
11.7374344287,0.9716981132075472
11.8916745594,0.9811320754716981
16.7234872009,0.9905660377358491
36.7061870023,1.0
