Congestion,CDF
0.0,0.009433962264150943
0.0,0.018867924528301886
0.0,0.02830188679245283
0.0,0.03773584905660377
0.0,0.04716981132075472
0.0,0.05660377358490566
0.0,0.0660377358490566
0.0,0.07547169811320754
0.0,0.08490566037735849
0.0,0.09433962264150944
0.0,0.10377358490566038
0.0,0.11320754716981132
0.0,0.12264150943396226
0.0,0.1320754716981132
0.0,0.14150943396226415
0.0,0.1509433962264151
0.0,0.16037735849056603
0.0,0.16981132075471697
0.0,0.1792452830188679
0.0,0.18867924528301888
0.0,0.19811320754716982
0.0,0.20754716981132076
0.0,0.2169811320754717
0.0,0.22641509433962265
0.0,0.2358490566037736
0.0,0.24528301886792453
0.0,0.25471698113207547
0.0,0.2641509433962264
0.0,0.27358490566037735
0.0,0.2830188679245283
1.77797606423e-08,0.29245283018867924
4.58049531823e-07,0.3018867924528302
5.15084661294e-07,0.3113207547169811
6.98281797645e-07,0.32075471698113206
7.88234162384e-07,0.330188679245283
1.04884337153e-06,0.33962264150943394
1.59950226209e-06,0.3490566037735849
2.04744739103e-06,0.3584905660377358
2.16684326252e-06,0.36792452830188677
2.52725611776e-06,0.37735849056603776
3.11165751133e-06,0.3867924528301887
3.1829572297e-06,0.39622641509433965
3.35833311327e-06,0.4056603773584906
1.31105421441e-05,0.41509433962264153
1.31105421441e-05,0.42452830188679247
2.1520270173e-05,0.4339622641509434
2.55930923879e-05,0.44339622641509435
2.55930923879e-05,0.4528301886792453
2.62210842883e-05,0.46226415094339623
2.62210842883e-05,0.4716981132075472
2.62210842883e-05,0.4811320754716981
4.04816105963e-05,0.49056603773584906
5.11861847759e-05,0.5
5.11861847759e-05,0.5094339622641509
5.11861847759e-05,0.5188679245283019
6.44578675967e-05,0.5283018867924528
6.44578675967e-05,0.5377358490566038
6.98281797645e-05,0.5471698113207547
0.000118678747637,0.5566037735849056
0.000118678747637,0.5660377358490566
0.000147045797658,0.5754716981132075
0.000147045797658,0.5849056603773585
0.000225869213896,0.5943396226415094
0.000228941568416,0.6037735849056604
0.000356999357502,0.6132075471698113
0.000371404359413,0.6226415094339622
0.000482879108984,0.6320754716981132
0.000773104586828,0.6415094339622641
0.00274824450722,0.6509433962264151
0.0615594143453,0.660377358490566
0.0622423151262,0.6698113207547169
0.062617237839,0.6792452830188679
0.0790727928125,0.6886792452830188
0.0974828680117,0.6981132075471698
0.100599090372,0.7075471698113207
0.104507324264,0.7169811320754716
0.110777991355,0.7264150943396226
0.111103453516,0.7358490566037735
0.11144334839,0.7452830188679245
0.117997928198,0.7547169811320755
0.119077385984,0.7641509433962265
0.274824450722,0.7735849056603774
1.14122939472,0.7830188679245284
1.38472489194,0.7924528301886793
1.38472489194,0.8018867924528302
1.38879316895,0.8113207547169812
1.38879316895,0.8207547169811321
2.76944978388,0.8301886792452831
2.76944978388,0.839622641509434
2.76944978388,0.8490566037735849
2.77758633789,0.8584905660377359
2.77758633789,0.8679245283018868
2.77758633789,0.8773584905660378
7.8034725795,0.8867924528301887
7.8034725795,0.8962264150943396
7.99888427409,0.9056603773584906
7.99888427409,0.9150943396226415
8.34568548038,0.9245283018867925
8.34568548038,0.9339622641509434
13.959414014,0.9433962264150944
14.0277040921,0.9528301886792453
14.260608058,0.9622641509433962
14.5733108807,0.9716981132075472
14.6812566593,0.9811320754716981
24.2518490357,0.9905660377358491
47.3485398216,1.0
