Congestion,CDF
0.0,0.009433962264150943
0.0,0.018867924528301886
0.0,0.02830188679245283
0.0,0.03773584905660377
0.0,0.04716981132075472
0.0,0.05660377358490566
0.0,0.0660377358490566
0.0,0.07547169811320754
0.0,0.08490566037735849
0.0,0.09433962264150944
0.0,0.10377358490566038
0.0,0.11320754716981132
0.0,0.12264150943396226
0.0,0.1320754716981132
0.0,0.14150943396226415
0.0,0.1509433962264151
0.0,0.16037735849056603
0.0,0.16981132075471697
0.0,0.1792452830188679
0.0,0.18867924528301888
0.0,0.19811320754716982
0.0,0.20754716981132076
0.0,0.2169811320754717
0.0,0.22641509433962265
0.0,0.2358490566037736
0.0,0.24528301886792453
0.0,0.25471698113207547
0.0,0.2641509433962264
0.0,0.27358490566037735
0.0,0.2830188679245283
3.76119089927e-08,0.29245283018867924
9.68973522856e-07,0.3018867924528302
1.08962757114e-06,0.3113207547169811
1.4771690099e-06,0.32075471698113206
1.66745729467e-06,0.330188679245283
2.21875885909e-06,0.33962264150943394
3.38364136199e-06,0.3490566037735849
4.33123968811e-06,0.3584905660377358
4.58381376616e-06,0.36792452830188677
5.34624335023e-06,0.37735849056603776
6.58250588899e-06,0.3867924528301887
6.73333573267e-06,0.39622641509433965
7.10433182789e-06,0.4056603773584906
1.71132910335e-05,0.41509433962264153
2.77344857386e-05,0.42452830188679247
2.77344857386e-05,0.4339622641509434
4.55247097827e-05,0.44339622641509435
5.41404961014e-05,0.4528301886792453
5.41404961014e-05,0.46226415094339623
5.54689714773e-05,0.4716981132075472
5.54689714773e-05,0.4811320754716981
5.54689714773e-05,0.49056603773584906
8.56361727393e-05,0.5
0.000108280992203,0.5094339622641509
0.000108280992203,0.5188679245283019
0.000108280992203,0.5283018867924528
0.000136356360397,0.5377358490566038
0.000136356360397,0.5471698113207547
0.00014771690099,0.5566037735849056
0.000251057049939,0.5660377358490566
0.000251057049939,0.5754716981132075
0.000311065670148,0.5849056603773585
0.000311065670148,0.5943396226415094
0.000477811399615,0.6037735849056604
0.000484310762622,0.6132075471698113
0.000755208555107,0.6226415094339622
0.000785681384962,0.6320754716981132
0.00102149885294,0.6415094339622641
0.00163545167714,0.6509433962264151
0.00171132910335,0.660377358490566
0.00198829042907,0.6698113207547169
0.00262609992609,0.6792452830188679
0.00307104264081,0.6886792452830188
0.0178479168685,0.6981132075471698
0.0444241446227,0.7075471698113207
0.0507034469417,0.7169811320754716
0.0584018672804,0.7264150943396226
0.0704012073506,0.7358490566037735
0.0708339029659,0.7452830188679245
0.0714033179753,0.7547169811320755
0.080118980896,0.7641509433962265
0.0819683903447,0.7735849056603774
0.553805721533,0.7830188679245284
0.885423787073,0.7924528301886793
0.885423787073,0.8018867924528302
0.892541474691,0.8113207547169812
0.892541474691,0.8207547169811321
1.77084757415,0.8301886792452831
1.77084757415,0.839622641509434
1.77084757415,0.8490566037735849
1.78508294938,0.8584905660377359
1.78508294938,0.8679245283018868
1.78508294938,0.8773584905660378
4.31313760885,0.8867924528301887
4.31313760885,0.8962264150943396
4.51196665176,0.9056603773584906
4.57574760146,0.9150943396226415
4.69805862578,0.9245283018867925
4.69805862578,0.9339622641509434
5.00516288986,0.9433962264150944
5.29802562929,0.9528301886792453
5.29802562929,0.9622641509433962
9.78986335137,0.9716981132075472
9.97480429624,0.9811320754716981
11.7808759419,0.9905660377358491
29.5051077392,1.0
