Congestion,CDF
0.0,0.009433962264150943
0.0,0.018867924528301886
0.0,0.02830188679245283
0.0,0.03773584905660377
0.0,0.04716981132075472
0.0,0.05660377358490566
0.0,0.0660377358490566
0.0,0.07547169811320754
0.0,0.08490566037735849
0.0,0.09433962264150944
0.0,0.10377358490566038
0.0,0.11320754716981132
0.0,0.12264150943396226
0.0,0.1320754716981132
0.0,0.14150943396226415
0.0,0.1509433962264151
0.0,0.16037735849056603
0.0,0.16981132075471697
0.0,0.1792452830188679
0.0,0.18867924528301888
0.0,0.19811320754716982
0.0,0.20754716981132076
0.0,0.2169811320754717
0.0,0.22641509433962265
0.0,0.2358490566037736
0.0,0.24528301886792453
0.0,0.25471698113207547
0.0,0.2641509433962264
0.0,0.27358490566037735
0.0,0.2830188679245283
6.4199036331e-08,0.29245283018867924
1.65392207053e-06,0.3018867924528302
1.85986412018e-06,0.3113207547169811
2.52135106868e-06,0.32075471698113206
2.84615044299e-06,0.330188679245283
3.78715636668e-06,0.33962264150943394
5.77547166701e-06,0.3490566037735849
7.39290882973e-06,0.3584905660377358
7.82402261384e-06,0.36792452830188677
9.1253988502e-06,0.37735849056603776
1.12355513462e-05,0.3867924528301887
1.14929998744e-05,0.39622641509433965
1.21262458977e-05,0.4056603773584906
1.71132910335e-05,0.41509433962264153
4.73394545835e-05,0.42452830188679247
4.73394545835e-05,0.4339622641509434
7.77052421845e-05,0.44339622641509435
9.24113603717e-05,0.4528301886792453
9.24113603717e-05,0.46226415094339623
9.46789091669e-05,0.4716981132075472
9.46789091669e-05,0.4811320754716981
9.46789091669e-05,0.49056603773584906
0.000146170718588,0.5
0.000184822720743,0.5094339622641509
0.000184822720743,0.5188679245283019
0.000184822720743,0.5283018867924528
0.000232744020964,0.5377358490566038
0.000232744020964,0.5471698113207547
0.000252135106868,0.5566037735849056
0.000397619547004,0.5660377358490566
0.000428524398306,0.5754716981132075
0.000428524398306,0.5849056603773585
0.000530951945647,0.5943396226415094
0.000530951945647,0.6037735849056604
0.000685494422831,0.6132075471698113
0.000815566989946,0.6226415094339622
0.000826660626322,0.6320754716981132
0.000907175924775,0.6415094339622641
0.0012890508024,0.6509433962264151
0.00134106428333,0.660377358490566
0.00171132910335,0.6698113207547169
0.00174357653541,0.6792452830188679
0.00271564512932,0.6886792452830188
0.00279152067657,0.6981132075471698
0.0174404151164,0.7075471698113207
0.0202686067887,0.7169811320754716
0.029906487391,0.7264150943396226
0.0449582008279,0.7358490566037735
0.0456464950069,0.7452830188679245
0.0476066670629,0.7547169811320755
0.0605956102592,0.7641509433962265
0.0628251114834,0.7735849056603774
0.333970642251,0.7830188679245284
0.561977510349,0.7924528301886793
0.561977510349,0.8018867924528302
0.570581187587,0.8113207547169812
0.570581187587,0.8207547169811321
1.1239550207,0.8301886792452831
1.1239550207,0.839622641509434
1.1239550207,0.8490566037735849
1.14116237517,0.8584905660377359
1.14116237517,0.8679245283018868
1.14116237517,0.8773584905660378
2.00457945376,0.8867924528301887
2.00457945376,0.8962264150943396
2.04434140846,0.9056603773584906
2.07312889604,0.9150943396226415
2.62788306749,0.9245283018867925
2.62788306749,0.9339622641509434
2.71860065996,0.9433962264150944
3.51289205108,0.9528301886792453
3.51289205108,0.9622641509433962
6.4123396315,0.9716981132075472
7.19211972385,0.9811320754716981
7.41506984627,0.9905660377358491
20.1469423001,1.0
