Congestion,CDF
0.0,0.009433962264150943
0.0,0.018867924528301886
0.0,0.02830188679245283
0.0,0.03773584905660377
0.0,0.04716981132075472
0.0,0.05660377358490566
0.0,0.0660377358490566
0.0,0.07547169811320754
0.0,0.08490566037735849
0.0,0.09433962264150944
0.0,0.10377358490566038
0.0,0.11320754716981132
0.0,0.12264150943396226
0.0,0.1320754716981132
0.0,0.14150943396226415
0.0,0.1509433962264151
0.0,0.16037735849056603
0.0,0.16981132075471697
0.0,0.1792452830188679
0.0,0.18867924528301888
0.0,0.19811320754716982
0.0,0.20754716981132076
0.0,0.2169811320754717
0.0,0.22641509433962265
0.0,0.2358490566037736
0.0,0.24528301886792453
0.0,0.25471698113207547
0.0,0.2641509433962264
0.0,0.27358490566037735
0.0,0.2830188679245283
1.57931373423e-08,0.29245283018867924
4.06869322439e-07,0.3018867924528302
4.57531626121e-07,0.3113207547169811
6.20259212466e-07,0.32075471698113206
7.00160740904e-07,0.330188679245283
9.31650754494e-07,0.33962264150943394
1.42078171989e-06,0.3490566037735849
1.81867565589e-06,0.3584905660377358
1.92473081796e-06,0.36792452830188677
2.24487290745e-06,0.37735849056603776
2.76397615397e-06,0.3867924528301887
2.82730919131e-06,0.39622641509433965
2.98308943332e-06,0.4056603773584906
1.16456344312e-05,0.41509433962264153
1.16456344312e-05,0.42452830188679247
1.91157006735e-05,0.4339622641509434
2.27334456986e-05,0.44339622641509435
2.27334456986e-05,0.4528301886792453
2.32912688623e-05,0.46226415094339623
2.32912688623e-05,0.4716981132075472
2.32912688623e-05,0.4811320754716981
3.5958393864e-05,0.49056603773584906
4.54668913973e-05,0.5
4.54668913973e-05,0.5094339622641509
4.54668913973e-05,0.5188679245283019
5.72556614359e-05,0.5283018867924528
5.72556614359e-05,0.5377358490566038
6.20259212466e-05,0.5471698113207547
0.000105418166124,0.5566037735849056
0.000105418166124,0.5660377358490566
0.000130615621028,0.5754716981132075
0.000130615621028,0.5849056603773585
0.000200631695118,0.5943396226415094
0.000203360759804,0.6037735849056604
0.000317109999261,0.6132075471698113
0.00032990545687,0.6226415094339622
0.000428924564359,0.6320754716981132
0.000686721669957,0.6415094339622641
0.0259016052986,0.6509433962264151
0.0761699823176,0.660377358490566
0.0767608008218,0.6698113207547169
0.0771067068459,0.6792452830188679
0.0916515139022,0.6886792452830188
0.107871582907,0.6981132075471698
0.108994155667,0.7075471698113207
0.112661817791,0.7169811320754716
0.118207983238,0.7264150943396226
0.118484498394,0.7358490566037735
0.119207748956,0.7452830188679245
0.125420936342,0.7547169811320755
0.12634563686,0.7641509433962265
1.28478496934,0.7735849056603774
1.47759979047,0.7830188679245284
1.47759979047,0.7924528301886793
1.48105622992,0.8018867924528302
1.48105622992,0.8113207547169812
2.59016052986,0.8207547169811321
2.95519958094,0.8301886792452831
2.95519958094,0.839622641509434
2.95519958094,0.8490566037735849
2.96211245984,0.8584905660377359
2.96211245984,0.8679245283018868
2.96211245984,0.8773584905660378
8.40836380376,0.8867924528301887
8.40836380376,0.8962264150943396
8.59174690994,0.9056603773584906
8.59174690994,0.9150943396226415
8.91904346821,0.9245283018867925
8.91904346821,0.9339622641509434
15.5007496546,0.9433962264150944
15.5932197064,0.9528301886792453
16.0253620355,0.9622641509433962
16.0844438859,0.9716981132075472
16.3024175945,0.9811320754716981
26.6759417684,0.9905660377358491
50.8001711199,1.0
