Congestion,CDF
0.0,0.005555555555555556
0.0,0.011111111111111112
0.0,0.016666666666666666
0.0,0.022222222222222223
0.0,0.027777777777777776
0.0,0.03333333333333333
0.0,0.03888888888888889
0.0,0.044444444444444446
0.0,0.05
0.0,0.05555555555555555
1.0793069329e-06,0.06111111111111111
1.24007175871e-06,0.06666666666666667
2.79129878484e-06,0.07222222222222222
4.07964554372e-06,0.07777777777777778
4.17448133345e-06,0.08333333333333333
5.51175240363e-06,0.08888888888888889
6.06365713839e-06,0.09444444444444444
8.35710224738e-06,0.1
8.40021695603e-06,0.10555555555555556
8.59421045783e-06,0.1111111111111111
8.77108916991e-06,0.11666666666666667
9.65517726671e-06,0.12222222222222222
9.87912678731e-06,0.12777777777777777
1.10319603993e-05,0.13333333333333333
1.129894377e-05,0.1388888888888889
1.1897931711e-05,0.14444444444444443
1.37577406616e-05,0.15
1.50565715707e-05,0.15555555555555556
1.57220935137e-05,0.16111111111111112
1.6351623758e-05,0.16666666666666666
1.66103400169e-05,0.17222222222222222
1.67437430441e-05,0.17777777777777778
1.72984871352e-05,0.18333333333333332
1.78995765917e-05,0.18888888888888888
1.82017290963e-05,0.19444444444444445
1.8407284754e-05,0.2
1.85094084579e-05,0.20555555555555555
1.87219591413e-05,0.2111111111111111
1.89049065526e-05,0.21666666666666667
1.89463913813e-05,0.2222222222222222
1.95794389863e-05,0.22777777777777777
1.97427877745e-05,0.23333333333333334
1.99694226876e-05,0.2388888888888889
2.16258136902e-05,0.24444444444444444
2.27560109847e-05,0.25
2.4706408897e-05,0.25555555555555554
2.50978130587e-05,0.2611111111111111
2.54589887821e-05,0.26666666666666666
2.63211558091e-05,0.2722222222222222
9.30432928282e-05,0.2777777777777778
0.000186086585656,0.2833333333333333
0.000203982277186,0.28888888888888886
0.000203982277186,0.29444444444444445
0.000210005423901,0.3
0.000210005423901,0.3055555555555556
0.000317936117191,0.3111111111111111
0.000417448133345,0.31666666666666665
0.000420010847802,0.32222222222222224
0.000559215669007,0.3277777777777778
0.000835710224738,0.3333333333333333
0.000869111357554,0.3388888888888889
0.000920364237698,0.34444444444444444
0.000920364237698,0.35
0.00117552315057,0.35555555555555557
0.00131967312407,0.3611111111111111
0.0015839166221,0.36666666666666664
0.00178995765917,0.37222222222222223
0.00182017290963,0.37777777777777777
0.00187835658159,0.38333333333333336
0.00202356027763,0.3888888888888889
0.00214094534434,0.39444444444444443
0.00214094534434,0.4
0.00244132070892,0.40555555555555556
0.00258002950237,0.4111111111111111
0.00277422360047,0.4166666666666667
0.00296590972601,0.4222222222222222
0.0036845967973,0.42777777777777776
0.00389575619175,0.43333333333333335
0.00409888924297,0.4388888888888889
0.00503917612068,0.4444444444444444
0.00591628503767,0.45
0.00619433744012,0.45555555555555555
0.00682917844005,0.46111111111111114
0.00717129012292,0.4666666666666667
0.00740768800826,0.4722222222222222
0.00741414742154,0.4777777777777778
0.00742641997208,0.48333333333333334
0.0074599479737,0.4888888888888889
0.00748742535816,0.49444444444444446
0.00750993659218,0.5
0.00757142432847,0.5055555555555555
0.00757899199377,0.5111111111111111
0.00758902197774,0.5166666666666667
0.00758921686242,0.5222222222222223
0.0076083401698,0.5277777777777778
0.00762755852055,0.5333333333333333
0.00762890737658,0.5388888888888889
0.00762933113706,0.5444444444444444
0.00764386503464,0.55
0.00764891086612,0.5555555555555556
0.00766923901207,0.5611111111111111
0.00771179215691,0.5666666666666667
0.00772510900712,0.5722222222222222
0.00773059116565,0.5777777777777777
0.00775064664911,0.5833333333333334
0.00777355386965,0.5888888888888889
0.0077773127614,0.5944444444444444
0.00778845535237,0.6
0.00779308039044,0.6055555555555555
0.00779509217127,0.6111111111111112
0.00779971580655,0.6166666666666667
0.00779993493977,0.6222222222222222
0.00782237708989,0.6277777777777778
0.00782286449582,0.6333333333333333
0.00786465756872,0.6388888888888888
0.00788199178302,0.6444444444444445
0.00792465232225,0.65
0.00793286486009,0.6555555555555556
0.00794845146925,0.6611111111111111
0.00794998068969,0.6666666666666666
0.00866497832982,0.6722222222222223
0.0154161367496,0.6777777777777778
0.0187551126247,0.6833333333333333
0.0196313286278,0.6888888888888889
0.0213872282057,0.6944444444444444
0.0219069297262,0.7
0.0230482622073,0.7055555555555556
0.0233007051745,0.7111111111111111
0.0246764792407,0.7166666666666667
0.0266507580181,0.7222222222222222
0.0268171094442,0.7277777777777777
0.027257123732,0.7333333333333333
0.02767653049,0.7388888888888889
0.0286644431687,0.7444444444444445
0.189474799844,0.75
0.189474799844,0.7555555555555555
0.248664932457,0.7611111111111111
0.286338644597,0.7666666666666667
0.370384400413,0.7722222222222223
0.370384400413,0.7777777777777778
0.378949599689,0.7833333333333333
0.389422767619,0.7888888888888889
0.389422767619,0.7944444444444444
0.497329864914,0.8
0.748742535816,0.8055555555555556
0.757142432847,0.8111111111111111
0.77773127614,0.8166666666666667
0.779308039044,0.8222222222222222
0.930889541999,0.8277777777777777
0.950308816824,0.8333333333333334
1.13331751412,0.8388888888888889
1.15231350528,0.8444444444444444
1.17394766866,0.85
1.21783201852,0.8555555555555555
1.21783201852,0.8611111111111112
1.53520829269,0.8666666666666667
1.55772477012,0.8722222222222222
1.68188320122,0.8777777777777778
1.9318227224,0.8833333333333333
1.97148464999,0.8888888888888888
2.0001184681,0.8944444444444445
2.45494231778,0.9
3.55678189411,0.9055555555555556
3.93195866572,0.9111111111111111
4.38374522724,0.9166666666666666
4.69088035196,0.9222222222222223
5.17621045946,0.9277777777777778
9.02763382672,0.9333333333333333
9.45904443799,0.9388888888888889
10.2538895849,0.9444444444444444
11.0250688006,0.95
11.3379067843,0.9555555555555556
12.1261059626,0.9611111111111111
12.9253102159,0.9666666666666667
13.2592462151,0.9722222222222222
13.6082280599,0.9777777777777777
13.7401953723,0.9833333333333333
14.0181484129,0.9888888888888889
14.7352774252,0.9944444444444445
14.8936690874,1.0
