Congestion,CDF
0.0,0.005555555555555556
0.0,0.011111111111111112
0.0,0.016666666666666666
0.0,0.022222222222222223
0.0,0.027777777777777776
0.0,0.03333333333333333
0.0,0.03888888888888889
0.0,0.044444444444444446
0.0,0.05
0.0,0.05555555555555555
1.06428294703e-06,0.06111111111111111
1.2228099215e-06,0.06666666666666667
2.75244381948e-06,0.07222222222222222
4.02285675164e-06,0.07777777777777778
4.11637242425e-06,0.08333333333333333
5.4350286398e-06,0.08888888888888889
5.97925084358e-06,0.09444444444444444
8.24077112577e-06,0.1
8.28328567634e-06,0.10555555555555556
8.4745787826e-06,0.1111111111111111
8.64899533754e-06,0.11666666666666667
9.5207769007e-06,0.12222222222222222
9.74160903706e-06,0.12777777777777777
1.08783951695e-05,0.13333333333333333
1.11416621235e-05,0.1388888888888889
1.17323121338e-05,0.14444444444444443
1.35662324863e-05,0.15
1.4846983629e-05,0.15555555555555556
1.5503241486e-05,0.16111111111111112
1.61240086498e-05,0.16666666666666666
1.63791235704e-05,0.17222222222222222
1.65106696233e-05,0.17777777777777778
1.70576916596e-05,0.18333333333333332
1.76504139322e-05,0.18888888888888888
1.79483604647e-05,0.19444444444444445
1.81510547812e-05,0.2
1.825175692e-05,0.20555555555555555
1.84613488913e-05,0.2111111111111111
1.8641749669e-05,0.21666666666666667
1.86826570277e-05,0.2222222222222222
1.93068925904e-05,0.22777777777777777
1.94679675584e-05,0.23333333333333334
1.96914477065e-05,0.2388888888888889
2.13247816952e-05,0.24444444444444444
2.24392466083e-05,0.25
2.43624949215e-05,0.25555555555555554
2.47484507251e-05,0.2611111111111111
2.51045988713e-05,0.26666666666666666
2.59547645066e-05,0.2722222222222222
9.17481273159e-05,0.2777777777777778
0.000183496254632,0.2833333333333333
0.000201142837582,0.28888888888888886
0.000201142837582,0.29444444444444445
0.000207082141909,0.3
0.000207082141909,0.3055555555555556
0.000313510436612,0.3111111111111111
0.000411637242425,0.31666666666666665
0.000414164283817,0.32222222222222224
0.000551431369608,0.3277777777777778
0.000824077112577,0.3333333333333333
0.000857013300591,0.3388888888888889
0.000907552739059,0.34444444444444444
0.000907552739059,0.35
0.00115915983198,0.35555555555555557
0.00176504139322,0.3611111111111111
0.00179483604647,0.36666666666666664
0.00185220979992,0.37222222222222223
0.00199539225601,0.37777777777777777
0.00211114331896,0.38333333333333336
0.00211114331896,0.3888888888888889
0.00240733744919,0.39444444444444443
0.00254411541194,0.4
0.0027356063222,0.40555555555555556
0.00292462417094,0.4111111111111111
0.00363330709599,0.4166666666666667
0.00384152714514,0.4222222222222222
0.004041832578,0.42777777777777776
0.00496903063331,0.43333333333333335
0.00583393016706,0.4388888888888889
0.00610811207148,0.4444444444444444
0.00754243779043,0.45
0.00854075969189,0.45555555555555555
0.00854436156362,0.46111111111111114
0.00869753205992,0.4666666666666667
0.0110230473192,0.4722222222222222
0.0112008917465,0.4777777777777778
0.0114222206336,0.48333333333333334
0.011460794401,0.4888888888888889
0.0114711358937,0.49444444444444446
0.0114860311016,0.5
0.0114932825459,0.5055555555555555
0.0114952875424,0.5111111111111111
0.0114968949873,0.5166666666666667
0.0115033425981,0.5222222222222223
0.0115144710473,0.5277777777777778
0.0115306530709,0.5333333333333333
0.0115377027708,0.5388888888888889
0.0115434728714,0.5444444444444444
0.0115447597911,0.55
0.0115519768013,0.5555555555555556
0.011556007573,0.5611111111111111
0.0115677573251,0.5666666666666667
0.011572665832,0.5722222222222222
0.0116013541628,0.5777777777777777
0.0116038659907,0.5833333333333334
0.0116138497618,0.5888888888888889
0.0116219223468,0.5944444444444444
0.0116253817825,0.6
0.0116269653031,0.6055555555555555
0.0116298233544,0.6111111111111112
0.0116319706996,0.6166666666666667
0.0116340588767,0.6222222222222222
0.0116369986773,0.6277777777777778
0.0116421227316,0.6333333333333333
0.0116472943978,0.6388888888888888
0.0116645080181,0.6444444444444445
0.0116682952365,0.65
0.0116874994348,0.6555555555555556
0.0116910140722,0.6611111111111111
0.011691956163,0.6666666666666666
0.0117037874992,0.6722222222222223
0.0152015436495,0.6777777777777778
0.0184940408773,0.6833333333333333
0.0193580599264,0.6888888888888889
0.0210895173279,0.6944444444444444
0.0216019845873,0.7
0.022727429685,0.7055555555555556
0.0229763586382,0.7111111111111111
0.0243329818868,0.7166666666666667
0.0262797786427,0.7222222222222222
0.0264438144518,0.7277777777777777
0.026877703727,0.7333333333333333
0.02729127233,0.7388888888888889
0.0282654332337,0.7444444444444445
0.28844256927,0.75
0.28844256927,0.7555555555555555
0.382867703385,0.7611111111111111
0.444833356113,0.7666666666666667
0.571111031682,0.7722222222222223
0.571111031682,0.7777777777777778
0.576885138539,0.7833333333333333
0.581348265157,0.7888888888888889
0.581348265157,0.7944444444444444
0.765735406771,0.8
1.14968949873,0.8055555555555556
1.15306530709,0.8111111111111111
1.16219223468,0.8166666666666667
1.16340588767,0.8222222222222222
1.43452200937,0.8277777777777777
1.4436402494,0.8333333333333334
1.72063978592,0.8388888888888889
1.73694902246,0.8444444444444444
1.74726388846,0.85
1.83488751387,0.8555555555555555
1.83488751387,0.8611111111111112
2.31614030054,0.8666666666666667
2.32538930464,0.8722222222222222
2.58485626917,0.8777777777777778
2.8999313579,0.8833333333333333
2.98689455186,0.8888888888888888
2.99961695365,0.8944444444444445
3.74499168545,0.9
5.32556101956,0.9055555555555556
5.96889565509,0.9111111111111111
6.64361753086,0.9166666666666666
7.12324294224,0.9222222222222223
7.81236747434,0.9277777777777778
13.6125038295,0.9333333333333333
14.2067895441,0.9388888888888889
15.3759851604,0.9444444444444444
16.5332517436,0.95
17.0900291062,0.9555555555555556
18.2568586299,0.9611111111111111
19.4053386343,0.9666666666666667
19.9824456407,0.9722222222222222
20.5076433662,0.9777777777777777
21.1317738953,0.9833333333333333
21.3617193354,0.9888888888888889
22.2518630699,0.9944444444444445
23.1216162759,1.0
