Congestion,CDF
0.0,0.007352941176470588
0.0,0.014705882352941176
0.0,0.022058823529411766
0.0,0.029411764705882353
0.0,0.03676470588235294
0.0,0.04411764705882353
0.00102513142549,0.051470588235294115
0.00102513142549,0.058823529411764705
0.00167277138057,0.0661764705882353
0.00167277138057,0.07352941176470588
0.00185213037729,0.08088235294117647
0.00185213037729,0.08823529411764706
0.0018656437501,0.09558823529411764
0.0018656437501,0.10294117647058823
0.00192226733352,0.11029411764705882
0.00192226733352,0.11764705882352941
0.00211221605193,0.125
0.00211221605193,0.1323529411764706
0.00215783719387,0.13970588235294118
0.00215783719387,0.14705882352941177
0.00226475464957,0.15441176470588236
0.00226475464957,0.16176470588235295
0.00232730305365,0.16911764705882354
0.00232730305365,0.17647058823529413
0.00235585103736,0.18382352941176472
0.00235585103736,0.19117647058823528
0.00244463524759,0.19852941176470587
0.00244463524759,0.20588235294117646
0.00266826389146,0.21323529411764705
0.00266826389146,0.22058823529411764
0.00286168911072,0.22794117647058823
0.00286168911072,0.23529411764705882
0.00307208057317,0.2426470588235294
0.00307208057317,0.25
0.00318573488336,0.25735294117647056
0.00318573488336,0.2647058823529412
0.00346033789677,0.27205882352941174
0.00346033789677,0.27941176470588236
0.00489328217588,0.2867647058823529
0.00489328217588,0.29411764705882354
0.00491901824271,0.3014705882352941
0.00491901824271,0.3088235294117647
0.00496642811884,0.3161764705882353
0.00496642811884,0.3235294117647059
0.00519055951812,0.33088235294117646
0.00519055951812,0.3382352941176471
0.00587860842606,0.34558823529411764
0.00587860842606,0.35294117647058826
0.00622304742348,0.3602941176470588
0.00622304742348,0.36764705882352944
0.0062526174488,0.375
0.0062526174488,0.38235294117647056
0.00699704804211,0.3897058823529412
0.00699704804211,0.39705882352941174
0.00751272205361,0.40441176470588236
0.00751272205361,0.4117647058823529
0.00764108740236,0.41911764705882354
0.00764108740236,0.4264705882352941
0.00819948808749,0.4338235294117647
0.00819948808749,0.4411764705882353
0.0124455313462,0.4485294117647059
0.0124455313462,0.45588235294117646
0.0138305557705,0.4632352941176471
0.0138305557705,0.47058823529411764
0.0140361947111,0.47794117647058826
0.0140361947111,0.4852941176470588
0.0204256859826,0.49264705882352944
0.0204256859826,0.5
0.0218451898047,0.5073529411764706
0.0218451898047,0.5147058823529411
0.0697481049474,0.5220588235294118
0.0697481049474,0.5294117647058824
0.0961133666759,0.5367647058823529
0.0961133666759,0.5441176470588235
0.0961133666759,0.5514705882352942
0.0961133666759,0.5588235294117647
0.142497035797,0.5661764705882353
0.142497035797,0.5735294117647058
0.156962147079,0.5808823529411765
0.156962147079,0.5882352941176471
0.156962147079,0.5955882352941176
0.156962147079,0.6029411764705882
0.18656437501,0.6102941176470589
0.18656437501,0.6176470588235294
0.187111023993,0.625
0.187111023993,0.6323529411764706
0.187111023993,0.6397058823529411
0.187111023993,0.6470588235294118
0.232730305365,0.6544117647058824
0.232730305365,0.6617647058823529
0.344614285855,0.6691176470588235
0.344614285855,0.6764705882352942
0.366029629625,0.6838235294117647
0.366029629625,0.6911764705882353
0.382282277748,0.6985294117647058
0.382282277748,0.7058823529411765
0.491901824271,0.7132352941176471
0.491901824271,0.7205882352941176
0.496885197847,0.7279411764705882
0.496885197847,0.7352941176470589
0.497667943309,0.7426470588235294
0.497667943309,0.75
0.624236613455,0.7573529411764706
0.624236613455,0.7647058823529411
0.73822667496,0.7720588235294118
0.73822667496,0.7794117647058824
0.73822667496,0.7867647058823529
0.73822667496,0.7941176470588235
0.742430160991,0.8014705882352942
0.742430160991,0.8088235294117647
0.764108740236,0.8161764705882353
0.764108740236,0.8235294117647058
0.88541587541,0.8308823529411765
0.88541587541,0.8382352941176471
1.19682623459,0.8455882352941176
1.19682623459,0.8529411764705882
1.21367426585,0.8602941176470589
1.21367426585,0.8676470588235294
1.32600719617,0.875
1.32600719617,0.8823529411764706
1.38305557705,0.8897058823529411
1.38305557705,0.8970588235294118
1.40361947111,0.9044117647058824
1.40361947111,0.9117647058823529
1.44338785846,0.9191176470588235
1.44338785846,0.9264705882352942
1.4441854222,0.9338235294117647
1.4441854222,0.9411764705882353
2.93368430253,0.9485294117647058
2.93368430253,0.9558823529411765
4.03122818277,0.9632352941176471
4.03122818277,0.9705882352941176
5.03224215128,0.9779411764705882
5.03224215128,0.9852941176470589
5.71534284357,0.9926470588235294
5.71534284357,1.0
