Congestion,CDF
0.0103453155659,0.007352941176470588
0.0103453155659,0.014705882352941176
0.0103992098574,0.022058823529411766
0.0103992098574,0.029411764705882353
0.0104252857301,0.03676470588235294
0.0104252857301,0.04411764705882353
0.0107093281376,0.051470588235294115
0.0107093281376,0.058823529411764705
0.0109674951091,0.0661764705882353
0.0109674951091,0.07352941176470588
0.0115023206203,0.08088235294117647
0.0115023206203,0.08823529411764706
0.0115706801447,0.09558823529411764
0.0115706801447,0.10294117647058823
0.0116883709941,0.11029411764705882
0.0116883709941,0.11764705882352941
0.0117933361576,0.125
0.0117933361576,0.1323529411764706
0.0118878263655,0.13970588235294118
0.0118878263655,0.14705882352941177
0.0121348100393,0.15441176470588236
0.0121348100393,0.16176470588235295
0.0123780893963,0.16911764705882354
0.0123780893963,0.17647058823529413
0.0124702110223,0.18382352941176472
0.0124702110223,0.19117647058823528
0.012899613293,0.19852941176470587
0.012899613293,0.20588235294117646
0.0138779089949,0.21323529411764705
0.0138779089949,0.22058823529411764
0.0140081888212,0.22794117647058823
0.0140081888212,0.23529411764705882
0.0142166330431,0.2426470588235294
0.0142166330431,0.25
0.0147063640939,0.25735294117647056
0.0147063640939,0.2647058823529412
0.0147811186986,0.27205882352941174
0.0147811186986,0.27941176470588236
0.0152822070302,0.2867647058823529
0.0152822070302,0.29411764705882354
0.0155671395418,0.3014705882352941
0.0155671395418,0.3088235294117647
0.0157122426821,0.3161764705882353
0.0157122426821,0.3235294117647059
0.0165668257332,0.33088235294117646
0.0165668257332,0.3382352941176471
0.0170535258856,0.34558823529411764
0.0170535258856,0.35294117647058826
0.0171698157017,0.3602941176470588
0.0171698157017,0.36764705882352944
0.0191775293127,0.375
0.0191775293127,0.38235294117647056
0.0195672010774,0.3897058823529412
0.0195672010774,0.39705882352941174
0.0199418519639,0.40441176470588236
0.0199418519639,0.4117647058823529
0.0333994942367,0.41911764705882354
0.0333994942367,0.4264705882352941
0.10577635202,0.4338235294117647
0.10577635202,0.4411764705882353
0.248509124436,0.4485294117647059
0.248509124436,0.45588235294117646
0.338580221196,0.4632352941176471
0.338580221196,0.47058823529411764
0.444480929516,0.47794117647058826
0.444480929516,0.4852941176470588
0.503680845875,0.49264705882352944
0.503680845875,0.5
0.543270955712,0.5073529411764706
0.543270955712,0.5147058823529411
0.703339053451,0.5220588235294118
0.703339053451,0.5294117647058824
0.731520382498,0.5367647058823529
0.731520382498,0.5441176470588235
0.761401863957,0.5514705882352942
0.761401863957,0.5588235294117647
0.841891703682,0.5661764705882353
0.841891703682,0.5735294117647058
0.975792770056,0.5808823529411765
0.975792770056,0.5882352941176471
0.984780602342,0.5955882352941176
0.984780602342,0.6029411764705882
1.04322184193,0.6102941176470589
1.04322184193,0.6176470588235294
1.10007434571,0.625
1.10007434571,0.6323529411764706
1.11683256779,0.6397058823529411
1.11683256779,0.6470588235294118
1.12674731984,0.6544117647058824
1.12674731984,0.6617647058823529
1.21736979546,0.6691176470588235
1.21736979546,0.6764705882352942
1.42830381018,0.6838235294117647
1.42830381018,0.6911764705882353
1.46056386927,0.6985294117647058
1.46056386927,0.7058823529411765
1.51191114387,0.7132352941176471
1.51191114387,0.7205882352941176
1.57221455057,0.7279411764705882
1.57221455057,0.7352941176470589
1.62241505271,0.7426470588235294
1.62241505271,0.75
1.65513594166,0.7573529411764706
1.65513594166,0.7647058823529411
1.75161410481,0.7720588235294118
1.75161410481,0.7794117647058824
1.77032510206,0.7867647058823529
1.77032510206,0.7941176470588235
1.91862095765,0.8014705882352942
1.91862095765,0.8088235294117647
1.99418519639,0.8161764705882353
1.99418519639,0.8235294117647058
2.15263938285,0.8308823529411765
2.15263938285,0.8382352941176471
2.33093382943,0.8455882352941176
2.33093382943,0.8529411764705882
2.42945580908,0.8602941176470589
2.42945580908,0.8676470588235294
2.44620231689,0.875
2.44620231689,0.8823529411764706
2.80127778754,0.8897058823529411
2.80127778754,0.8970588235294118
3.04563555207,0.9044117647058824
3.04563555207,0.9117647058823529
3.78134992114,0.9191176470588235
3.78134992114,0.9264705882352942
4.40293758732,0.9338235294117647
4.40293758732,0.9411764705882353
4.73100202978,0.9485294117647058
4.73100202978,0.9558823529411765
5.60797597183,0.9632352941176471
5.60797597183,0.9705882352941176
7.30238928608,0.9779411764705882
7.30238928608,0.9852941176470589
8.41982589435,0.9926470588235294
8.41982589435,1.0
