Congestion,CDF
0.0,0.007352941176470588
0.0,0.014705882352941176
0.0,0.022058823529411766
0.0,0.029411764705882353
0.0,0.03676470588235294
0.0,0.04411764705882353
0.0,0.051470588235294115
0.0,0.058823529411764705
0.0,0.0661764705882353
0.0,0.07352941176470588
0.0,0.08088235294117647
0.0,0.08823529411764706
0.0,0.09558823529411764
0.0,0.10294117647058823
0.00110281542125,0.11029411764705882
0.00110281542125,0.11764705882352941
0.00116537879625,0.125
0.00116537879625,0.1323529411764706
0.00116793645329,0.13970588235294118
0.00116793645329,0.14705882352941177
0.00121205584293,0.15441176470588236
0.00121205584293,0.16176470588235295
0.00135655247502,0.16911764705882354
0.00135655247502,0.17647058823529413
0.00137656849189,0.18382352941176472
0.00137656849189,0.19117647058823528
0.00140928557066,0.19852941176470587
0.00140928557066,0.20588235294117646
0.00155291515548,0.21323529411764705
0.00155291515548,0.22058823529411764
0.00168627500966,0.22794117647058823
0.00168627500966,0.23529411764705882
0.00187267933433,0.2426470588235294
0.00187267933433,0.25
0.00200480896324,0.25735294117647056
0.00200480896324,0.2647058823529412
0.00218213787999,0.27205882352941174
0.00218213787999,0.27941176470588236
0.00231784185762,0.2867647058823529
0.00231784185762,0.29411764705882354
0.0029552247478,0.3014705882352941
0.0029552247478,0.3088235294117647
0.00433592459621,0.3161764705882353
0.00433592459621,0.3235294117647059
0.00436543460252,0.33088235294117646
0.00436543460252,0.3382352941176471
0.00438974161385,0.34558823529411764
0.00438974161385,0.35294117647058826
0.00459134184975,0.3602941176470588
0.00459134184975,0.36764705882352944
0.00477205427776,0.375
0.00477205427776,0.38235294117647056
0.00483618165269,0.3897058823529412
0.00483618165269,0.39705882352941174
0.00559838406488,0.40441176470588236
0.00559838406488,0.4117647058823529
0.00582602815696,0.41911764705882354
0.00582602815696,0.4264705882352941
0.00613113817149,0.4338235294117647
0.00613113817149,0.4411764705882353
0.00656645451832,0.4485294117647059
0.00656645451832,0.45588235294117646
0.00726245541964,0.4632352941176471
0.00726245541964,0.47058823529411764
0.00997710709917,0.47794117647058826
0.00997710709917,0.4852941176470588
0.0114074228399,0.49264705882352944
0.0114074228399,0.5
0.0115171944201,0.5073529411764706
0.0115171944201,0.5147058823529411
0.0469761856886,0.5220588235294118
0.0469761856886,0.5294117647058824
0.0606027921463,0.5367647058823529
0.0606027921463,0.5441176470588235
0.0606027921463,0.5514705882352942
0.0606027921463,0.5588235294117647
0.0939523713773,0.5661764705882353
0.0939523713773,0.5735294117647058
0.115892092881,0.5808823529411765
0.115892092881,0.5882352941176471
0.115892092881,0.5955882352941176
0.115892092881,0.6029411764705882
0.116665762477,0.6102941176470589
0.116665762477,0.6176470588235294
0.116665762477,0.625
0.116665762477,0.6323529411764706
0.116793645329,0.6397058823529411
0.116793645329,0.6470588235294118
0.137656849189,0.6544117647058824
0.137656849189,0.6617647058823529
0.26108368847,0.6691176470588235
0.26108368847,0.6764705882352942
0.271183608429,0.6838235294117647
0.271183608429,0.6911764705882353
0.29552247478,0.6985294117647058
0.29552247478,0.7058823529411765
0.320899675979,0.7132352941176471
0.320899675979,0.7205882352941176
0.436543460252,0.7279411764705882
0.436543460252,0.7352941176470589
0.438974161385,0.7426470588235294
0.438974161385,0.75
0.450580651315,0.7573529411764706
0.450580651315,0.7647058823529411
0.559838406488,0.7720588235294118
0.559838406488,0.7794117647058824
0.58022781693,0.7867647058823529
0.58022781693,0.7941176470588235
0.613113817149,0.8014705882352942
0.613113817149,0.8088235294117647
0.654555040629,0.8161764705882353
0.654555040629,0.8235294117647058
0.654555040629,0.8308823529411765
0.654555040629,0.8382352941176471
0.77363708924,0.8455882352941176
0.77363708924,0.8529411764705882
0.808231633232,0.8602941176470589
0.808231633232,0.8676470588235294
1.14074228399,0.875
1.14074228399,0.8823529411764706
1.15171944201,0.8897058823529411
1.15171944201,0.8970588235294118
1.16066541129,0.9044117647058824
1.16066541129,0.9117647058823529
1.19571663284,0.9191176470588235
1.19571663284,0.9264705882352942
1.28608394845,0.9338235294117647
1.28608394845,0.9411764705882353
2.59728444091,0.9485294117647058
2.59728444091,0.9558823529411765
3.29017243591,0.9632352941176471
3.29017243591,0.9705882352941176
4.35746011035,0.9779411764705882
4.35746011035,0.9852941176470589
4.83662397514,0.9926470588235294
4.83662397514,1.0
