Congestion,CDF
0.0,0.009433962264150943
0.0,0.018867924528301886
0.0,0.02830188679245283
0.0,0.03773584905660377
0.0,0.04716981132075472
0.0,0.05660377358490566
0.0,0.0660377358490566
0.0,0.07547169811320754
0.0,0.08490566037735849
0.0,0.09433962264150944
0.0,0.10377358490566038
0.0,0.11320754716981132
0.0,0.12264150943396226
0.0,0.1320754716981132
0.0,0.14150943396226415
0.0,0.1509433962264151
0.0,0.16037735849056603
0.0,0.16981132075471697
0.0,0.1792452830188679
0.0,0.18867924528301888
0.0,0.19811320754716982
0.0,0.20754716981132076
0.0,0.2169811320754717
0.0,0.22641509433962265
0.0,0.2358490566037736
0.0,0.24528301886792453
0.0,0.25471698113207547
0.0,0.2641509433962264
0.0,0.27358490566037735
0.0,0.2830188679245283
2.22896690246e-08,0.29245283018867924
5.74235652922e-07,0.3018867924528302
6.45737974255e-07,0.3113207547169811
8.7540380709e-07,0.32075471698113206
9.88172953894e-07,0.330188679245283
1.31488674569e-06,0.33962264150943394
2.00522249672e-06,0.3490566037735849
2.56679072399e-06,0.3584905660377358
2.71647184242e-06,0.36792452830188677
3.16830487984e-06,0.37735849056603776
3.90094205659e-06,0.3867924528301887
3.99032723763e-06,0.39622641509433965
4.2101879252e-06,0.4056603773584906
1.64360843211e-05,0.41509433962264153
1.64360843211e-05,0.42452830188679247
2.69789739653e-05,0.4339622641509434
3.20848840499e-05,0.44339622641509435
3.20848840499e-05,0.4528301886792453
3.28721686422e-05,0.46226415094339623
3.28721686422e-05,0.4716981132075472
3.28721686422e-05,0.4811320754716981
5.07499352735e-05,0.49056603773584906
6.41697680999e-05,0.5
6.41697680999e-05,0.5094339622641509
6.41697680999e-05,0.5188679245283019
8.08078670838e-05,0.5283018867924528
8.08078670838e-05,0.5377358490566038
8.7540380709e-05,0.5471698113207547
0.000148782093207,0.5566037735849056
0.000148782093207,0.5660377358490566
0.000184344560492,0.5754716981132075
0.000184344560492,0.5849056603773585
0.000283161855881,0.5943396226415094
0.000287013525583,0.6037735849056604
0.000447553692134,0.6132075471698113
0.000465612581191,0.6226415094339622
0.000605363353012,0.6320754716981132
0.00096920570015,0.6415094339622641
0.00933033903719,0.6509433962264151
0.0508777123272,0.660377358490566
0.0513474646531,0.6698113207547169
0.0521702097261,0.6792452830188679
0.0652467000608,0.6886792452830188
0.0733383520508,0.6981132075471698
0.0787190605312,0.7075471698113207
0.080708276943,0.7169811320754716
0.0841385626507,0.7264150943396226
0.0843692313293,0.7358490566037735
0.0878205771935,0.7452830188679245
0.0957067060632,0.7547169811320755
0.0965492287175,0.7641509433962265
0.910322421284,0.7735849056603774
0.933033903719,0.7830188679245284
1.05173203313,0.7924528301886793
1.05173203313,0.8018867924528302
1.05461539162,0.8113207547169812
1.05461539162,0.8207547169811321
2.10346406627,0.8301886792452831
2.10346406627,0.839622641509434
2.10346406627,0.8490566037735849
2.10923078323,0.8584905660377359
2.10923078323,0.8679245283018868
2.10923078323,0.8773584905660378
5.77326502729,0.8867924528301887
5.77326502729,0.8962264150943396
6.04230045131,0.9056603773584906
6.04230045131,0.9150943396226415
6.49737628442,0.9245283018867925
6.49737628442,0.9339622641509434
10.86103626,0.9433962264150944
10.9080114926,0.9528301886792453
11.2593214239,0.9622641509433962
11.6770180311,0.9716981132075472
11.7612702965,0.9811320754716981
19.0643467418,0.9905660377358491
38.0064923063,1.0
