Congestion,CDF
0.0,0.009433962264150943
0.0,0.018867924528301886
0.0,0.02830188679245283
0.0,0.03773584905660377
0.0,0.04716981132075472
0.0,0.05660377358490566
0.0,0.0660377358490566
0.0,0.07547169811320754
0.0,0.08490566037735849
0.0,0.09433962264150944
0.0,0.10377358490566038
0.0,0.11320754716981132
0.0,0.12264150943396226
0.0,0.1320754716981132
0.0,0.14150943396226415
0.0,0.1509433962264151
0.0,0.16037735849056603
0.0,0.16981132075471697
0.0,0.1792452830188679
0.0,0.18867924528301888
0.0,0.19811320754716982
0.0,0.20754716981132076
0.0,0.2169811320754717
0.0,0.22641509433962265
0.0,0.2358490566037736
0.0,0.24528301886792453
0.0,0.25471698113207547
0.0,0.2641509433962264
0.0,0.27358490566037735
0.0,0.2830188679245283
4.3574130015e-07,0.29245283018867924
1.12257472159e-05,0.3018867924528302
1.12257472159e-05,0.3113207547169811
1.26235478933e-05,0.32075471698113206
1.71132910335e-05,0.330188679245283
1.71132910335e-05,0.33962264150943394
1.93178179195e-05,0.3490566037735849
1.93178179195e-05,0.3584905660377358
2.57047540492e-05,0.36792452830188677
3.92001450019e-05,0.37735849056603776
3.92001450019e-05,0.3867924528301887
5.01782563954e-05,0.39622641509433965
5.31043763426e-05,0.4056603773584906
5.31043763426e-05,0.41509433962264153
6.19372717508e-05,0.42452830188679247
6.19372717508e-05,0.4339622641509434
7.62596143383e-05,0.44339622641509435
7.80070074898e-05,0.4528301886792453
8.23050695986e-05,0.46226415094339623
8.23050695986e-05,0.4716981132075472
0.000321309425615,0.4811320754716981
0.000321309425615,0.49056603773584906
0.000390069507654,0.5
0.000440073162149,0.5094339622641509
0.000527412640329,0.5188679245283019
0.000627228204943,0.5283018867924528
0.000627228204943,0.5377358490566038
0.000642618851231,0.5471698113207547
0.000642618851231,0.5566037735849056
0.000642618851231,0.5660377358490566
0.000992111760573,0.5754716981132075
0.00125445640989,0.5849056603773585
0.00125445640989,0.5943396226415094
0.00125445640989,0.6037735849056604
0.00157971502522,0.6132075471698113
0.00157971502522,0.6226415094339622
0.00171132910335,0.6320754716981132
0.00171132910335,0.6415094339622641
0.00228085812512,0.6509433962264151
0.00290854488066,0.660377358490566
0.00290854488066,0.6698113207547169
0.00345711685953,0.6792452830188679
0.00360375644769,0.6886792452830188
0.00360375644769,0.6981132075471698
0.00487586884568,0.7075471698113207
0.00487586884568,0.7169811320754716
0.00550091452687,0.7264150943396226
0.00550091452687,0.7358490566037735
0.00553553823964,0.7452830188679245
0.00561083462747,0.7547169811320755
0.00874923837954,0.7641509433962265
0.00910227205573,0.7735849056603774
0.00975173769135,0.7830188679245284
0.00975173769135,0.7924528301886793
0.00975173769135,0.8018867924528302
0.0110018290537,0.8113207547169812
0.0110018290537,0.8207547169811321
0.0110018290537,0.8301886792452831
0.0118342634076,0.839622641509434
0.0123367906226,0.8490566037735849
0.0123367906226,0.8584905660377359
0.0130320021897,0.8679245283018868
0.0130320021897,0.8773584905660378
0.0149637839816,0.8867924528301887
0.0185305177977,0.8962264150943396
0.0189470265992,0.9056603773584906
0.0212625091495,0.9150943396226415
0.0309137647673,0.9245283018867925
0.0329820191778,0.9339622641509434
0.0707481053184,0.9433962264150944
0.124419689628,0.9528301886792453
0.124419689628,0.9622641509433962
0.137879054973,0.9716981132075472
3.1017532601,0.9811320754716981
3.30857870116,0.9905660377358491
6.88046333684,1.0
