Congestion,CDF
0.0,0.009433962264150943
0.0,0.018867924528301886
0.0,0.02830188679245283
0.0,0.03773584905660377
0.0,0.04716981132075472
0.0,0.05660377358490566
0.0,0.0660377358490566
0.0,0.07547169811320754
0.0,0.08490566037735849
0.0,0.09433962264150944
0.0,0.10377358490566038
0.0,0.11320754716981132
0.0,0.12264150943396226
0.0,0.1320754716981132
0.0,0.14150943396226415
0.0,0.1509433962264151
0.0,0.16037735849056603
0.0,0.16981132075471697
0.0,0.1792452830188679
0.0,0.18867924528301888
0.0,0.19811320754716982
0.0,0.20754716981132076
0.0,0.2169811320754717
0.0,0.22641509433962265
0.0,0.2358490566037736
0.0,0.24528301886792453
0.0,0.25471698113207547
0.0,0.2641509433962264
0.0,0.27358490566037735
0.0,0.2830188679245283
3.84528659409e-07,0.29245283018867924
9.9063860284e-06,0.3018867924528302
1.11399033021e-05,0.3113207547169811
1.51019672841e-05,0.32075471698113206
1.70473962985e-05,0.330188679245283
1.71132910335e-05,0.33962264150943394
1.93178179195e-05,0.3490566037735849
2.26836763272e-05,0.3584905660377358
3.45929550425e-05,0.36792452830188677
4.42808098672e-05,0.37735849056603776
4.68630231671e-05,0.3867924528301887
4.7304757068e-05,0.39622641509433965
5.31043763426e-05,0.4056603773584906
5.46577890725e-05,0.41509433962264153
6.19372717508e-05,0.42452830188679247
6.72968278621e-05,0.4339622641509434
6.88388500339e-05,0.44339622641509435
7.2631761241e-05,0.4528301886792453
8.23050695986e-05,0.46226415094339623
9.77883833962e-05,0.4716981132075472
0.00028354595409,0.4811320754716981
0.00028354595409,0.49056603773584906
0.000465425874186,0.5
0.00055351012334,0.5094339622641509
0.00055351012334,0.5188679245283019
0.00056709190818,0.5283018867924528
0.00056709190818,0.5377358490566038
0.00056709190818,0.5471698113207547
0.000875508943371,0.5566037735849056
0.00103769764265,0.5660377358490566
0.00110702024668,0.5754716981132075
0.00110702024668,0.5849056603773585
0.00110702024668,0.5943396226415094
0.00111040659278,0.6037735849056604
0.00139405124253,0.6132075471698113
0.00139405124253,0.6226415094339622
0.00151019672841,0.6320754716981132
0.00171132910335,0.6415094339622641
0.00256670382955,0.6509433962264151
0.00256670382955,0.660377358490566
0.00318020723578,0.6698113207547169
0.00318020723578,0.6792452830188679
0.00385908522316,0.6886792452830188
0.00488494686564,0.6981132075471698
0.00495139367493,0.7075471698113207
0.00517816039236,0.7169811320754716
0.00772094108082,0.7264150943396226
0.00803248273681,0.7358490566037735
0.0104433833599,0.7452830188679245
0.0129712205331,0.7547169811320755
0.0129712205331,0.7641509433962265
0.0138800824098,0.7735849056603774
0.0138800824098,0.7830188679245284
0.0167201840529,0.7924528301886793
0.0259424410662,0.8018867924528302
0.0259424410662,0.8113207547169812
0.0259424410662,0.8207547169811321
0.0277601648196,0.8301886792452831
0.0277601648196,0.839622641509434
0.0277601648196,0.8490566037735849
0.0292165407963,0.8584905660377359
0.0292165407963,0.8679245283018868
0.02950652176,0.8773584905660378
0.02950652176,0.8867924528301887
0.031438303552,0.8962264150943396
0.0354102679714,0.9056603773584906
0.035725320602,0.9150943396226415
0.0377164883465,0.9245283018867925
0.0377370287199,0.9339622641509434
0.0850060297665,0.9433962264150944
0.285759322561,0.9528301886792453
0.285759322561,0.9622641509433962
0.324754701697,0.9716981132075472
3.59938336314,0.9811320754716981
3.79850013759,0.9905660377358491
8.06955134561,1.0
