Congestion,CDF
0.0,0.009433962264150943
0.0,0.018867924528301886
0.0,0.02830188679245283
0.0,0.03773584905660377
0.0,0.04716981132075472
0.0,0.05660377358490566
0.0,0.0660377358490566
0.0,0.07547169811320754
0.0,0.08490566037735849
0.0,0.09433962264150944
0.0,0.10377358490566038
0.0,0.11320754716981132
0.0,0.12264150943396226
0.0,0.1320754716981132
0.0,0.14150943396226415
0.0,0.1509433962264151
0.0,0.16037735849056603
0.0,0.16981132075471697
0.0,0.1792452830188679
0.0,0.18867924528301888
0.0,0.19811320754716982
0.0,0.20754716981132076
0.0,0.2169811320754717
0.0,0.22641509433962265
0.0,0.2358490566037736
0.0,0.24528301886792453
0.0,0.25471698113207547
0.0,0.2641509433962264
0.0,0.27358490566037735
0.0,0.2830188679245283
3.59780511514e-08,0.29245283018867924
9.26881402814e-07,0.3018867924528302
1.04229425042e-06,0.3113207547169811
1.413000925e-06,0.32075471698113206
1.59502310431e-06,0.330188679245283
2.12237617986e-06,0.33962264150943394
3.23665629478e-06,0.3490566037735849
4.14309103742e-06,0.3584905660377358
4.38469332093e-06,0.36792452830188677
5.11400303451e-06,0.37735849056603776
6.29656244315e-06,0.3867924528301887
6.4408402524e-06,0.39622641509433965
6.79572031163e-06,0.4056603773584906
2.65297022482e-05,0.41509433962264153
2.65297022482e-05,0.42452830188679247
4.35471206084e-05,0.4339622641509434
5.17886379677e-05,0.44339622641509435
5.17886379677e-05,0.4528301886792453
5.30594044964e-05,0.46226415094339623
5.30594044964e-05,0.4716981132075472
5.30594044964e-05,0.4811320754716981
8.19161453311e-05,0.49056603773584906
0.000103577275935,0.5
0.000103577275935,0.5094339622641509
0.000103577275935,0.5188679245283019
0.000130433052737,0.5283018867924528
0.000130433052737,0.5377358490566038
0.0001413000925,0.5471698113207547
0.000240151154955,0.5566037735849056
0.000240151154955,0.5660377358490566
0.000297553006262,0.5754716981132075
0.000297553006262,0.5849056603773585
0.000457055316693,0.5943396226415094
0.000463272347973,0.6037735849056604
0.000722402365456,0.6132075471698113
0.000751551458406,0.6226415094339622
0.000977125037425,0.6320754716981132
0.00156440780784,0.6415094339622641
0.00933033903719,0.6509433962264151
0.0328974208901,0.660377358490566
0.0332083933219,0.6698113207547169
0.03373518473,0.6792452830188679
0.0420486408548,0.6886792452830188
0.0421524120602,0.6981132075471698
0.046269766446,0.7075471698113207
0.0496072898147,0.7169811320754716
0.0497407331637,0.7264150943396226
0.0518195287027,0.7358490566037735
0.0534034532895,0.7452830188679245
0.0596147904928,0.7547169811320755
0.0601488282257,0.7641509433962265
0.563976781029,0.7735849056603774
0.620091122684,0.7830188679245284
0.620091122684,0.7924528301886793
0.621759164546,0.8018867924528302
0.621759164546,0.8113207547169812
0.933033903719,0.8207547169811321
1.24018224537,0.8301886792452831
1.24018224537,0.839622641509434
1.24018224537,0.8490566037735849
1.24351832909,0.8584905660377359
1.24351832909,0.8679245283018868
1.24351832909,0.8773584905660378
3.34947089024,0.8867924528301887
3.34947089024,0.8962264150943396
3.55533860953,0.9056603773584906
3.55533860953,0.9150943396226415
3.91202295171,0.9245283018867925
3.91202295171,0.9339622641509434
6.63921297925,0.9433962264150944
6.67031022242,0.9528301886792453
6.92885708252,0.9622641509433962
7.20332933651,0.9716981132075472
7.2567331098,0.9811320754716981
11.6722256467,0.9905660377358491
23.5540382683,1.0
