Congestion,CDF
0.0,0.009433962264150943
0.0,0.018867924528301886
0.0,0.02830188679245283
0.0,0.03773584905660377
0.0,0.04716981132075472
0.0,0.05660377358490566
0.0,0.0660377358490566
0.0,0.07547169811320754
0.0,0.08490566037735849
0.0,0.09433962264150944
0.0,0.10377358490566038
0.0,0.11320754716981132
0.0,0.12264150943396226
0.0,0.1320754716981132
0.0,0.14150943396226415
0.0,0.1509433962264151
0.0,0.16037735849056603
0.0,0.16981132075471697
0.0,0.1792452830188679
0.0,0.18867924528301888
0.0,0.19811320754716982
0.0,0.20754716981132076
0.0,0.2169811320754717
0.0,0.22641509433962265
0.0,0.2358490566037736
0.0,0.24528301886792453
0.0,0.25471698113207547
0.0,0.2641509433962264
0.0,0.27358490566037735
0.0,0.2830188679245283
1.60966477411e-07,0.29245283018867924
4.146884826e-06,0.3018867924528302
4.66324407651e-06,0.3113207547169811
6.32179270962e-06,0.32075471698113206
7.13616336276e-06,0.330188679245283
9.49555093952e-06,0.33962264150943394
1.44808611275e-05,0.3490566037735849
1.85362672114e-05,0.3584905660377358
1.96172003711e-05,0.36792452830188677
2.28801457442e-05,0.37735849056603776
2.81709387762e-05,0.3867924528301887
2.88164404079e-05,0.39622641509433965
3.04041804663e-05,0.4056603773584906
0.000194830636496,0.41509433962264153
0.000267062370174,0.42452830188679247
0.000267062370174,0.4339622641509434
0.000695110020426,0.44339622641509435
0.000695110020426,0.4528301886792453
0.000695110020426,0.46226415094339623
0.000712166320464,0.4716981132075472
0.000712166320464,0.4811320754716981
0.000712166320464,0.49056603773584906
0.00109948312388,0.5
0.0013130098441,0.5094339622641509
0.0013130098441,0.5188679245283019
0.00139022004085,0.5283018867924528
0.00139022004085,0.5377358490566038
0.00189653781289,0.5471698113207547
0.00241749176233,0.5566037735849056
0.00241749176233,0.5660377358490566
0.00255481294881,0.5754716981132075
0.00257473471802,0.5849056603773585
0.00299532992724,0.5943396226415094
0.00299532992724,0.6037735849056604
0.00378276227738,0.6132075471698113
0.00448043980335,0.6226415094339622
0.00455117794357,0.6320754716981132
0.00459931076829,0.6415094339622641
0.00460096668386,0.6509433962264151
0.00464423221094,0.660377358490566
0.00621806758971,0.6698113207547169
0.00790802669123,0.6792452830188679
0.00794164485679,0.6886792452830188
0.00969612530302,0.6981132075471698
0.00983627053215,0.7075471698113207
0.0124163715874,0.7169811320754716
0.0171437129783,0.7264150943396226
0.0185581033762,0.7358490566037735
0.0209975698519,0.7452830188679245
0.0225484766542,0.7547169811320755
0.0228787826633,0.7641509433962265
0.1327998272,0.7735849056603774
0.222413250691,0.7830188679245284
0.222413250691,0.7924528301886793
0.29781168213,0.8018867924528302
0.29781168213,0.8113207547169812
0.29781168213,0.8207547169811321
0.593102001842,0.8301886792452831
0.593102001842,0.839622641509434
0.593102001842,0.8490566037735849
0.595623364259,0.8584905660377359
0.595623364259,0.8679245283018868
0.764568400859,0.8773584905660378
0.766443884643,0.8867924528301887
0.949821490164,0.8962264150943396
0.949821490164,0.9056603773584906
0.963194473721,0.9150943396226415
0.963194473721,0.9245283018867925
1.98720951102,0.9339622641509434
2.00814672118,0.9433962264150944
2.37443972235,0.9528301886792453
2.37443972235,0.9622641509433962
7.35890567932,0.9716981132075472
7.45799748204,0.9811320754716981
8.15725975956,0.9905660377358491
23.550253804,1.0
