Congestion,CDF
0.0,0.009433962264150943
0.0,0.018867924528301886
0.0,0.02830188679245283
0.0,0.03773584905660377
0.0,0.04716981132075472
0.0,0.05660377358490566
0.0,0.0660377358490566
0.0,0.07547169811320754
0.0,0.08490566037735849
0.0,0.09433962264150944
0.0,0.10377358490566038
0.0,0.11320754716981132
0.0,0.12264150943396226
0.0,0.1320754716981132
0.0,0.14150943396226415
0.0,0.1509433962264151
0.0,0.16037735849056603
0.0,0.16981132075471697
0.0,0.1792452830188679
0.0,0.18867924528301888
0.0,0.19811320754716982
0.0,0.20754716981132076
0.0,0.2169811320754717
0.0,0.22641509433962265
0.0,0.2358490566037736
0.0,0.24528301886792453
0.0,0.25471698113207547
0.0,0.2641509433962264
0.0,0.27358490566037735
0.0,0.2830188679245283
1.63022634034e-07,0.29245283018867924
4.19985638156e-06,0.3018867924528302
4.7228115116e-06,0.3113207547169811
6.4025461445e-06,0.32075471698113206
7.22731942084e-06,0.330188679245283
9.6168453871e-06,0.33962264150943394
1.46658370243e-05,0.3490566037735849
1.87730461309e-05,0.3584905660377358
1.98677869349e-05,0.36792452830188677
2.31724125812e-05,0.37735849056603776
2.85307892449e-05,0.3867924528301887
2.91845363976e-05,0.39622641509433965
3.07925579599e-05,0.4056603773584906
0.000197319367753,0.41509433962264153
0.000270473776512,0.42452830188679247
0.000270473776512,0.4339622641509434
0.000703989229908,0.44339622641509435
0.000703989229908,0.4528301886792453
0.000703989229908,0.46226415094339623
0.000721263404033,0.4716981132075472
0.000721263404033,0.4811320754716981
0.000721263404033,0.49056603773584906
0.00111352772213,0.5
0.001329781994,0.5094339622641509
0.001329781994,0.5188679245283019
0.00140797845982,0.5283018867924528
0.00140797845982,0.5377358490566038
0.00192076384335,0.5471698113207547
0.00244837236418,0.5566037735849056
0.00244837236418,0.5660377358490566
0.00255481294881,0.5754716981132075
0.00257473471802,0.5849056603773585
0.00303359172912,0.5943396226415094
0.00303359172912,0.6037735849056604
0.0037348386738,0.6132075471698113
0.00377441251513,0.6226415094339622
0.00381135298251,0.6320754716981132
0.00383108259747,0.6415094339622641
0.00426730955408,0.6509433962264151
0.00465973859881,0.660377358490566
0.0062974960587,0.6698113207547169
0.00659353972764,0.6792452830188679
0.00662156981894,0.6886792452830188
0.00930501325935,0.6981132075471698
0.00981998185119,0.7075471698113207
0.00996191727009,0.7169811320754716
0.0116020996402,0.7264150943396226
0.0132027102929,0.7358490566037735
0.0153937258078,0.7452830188679245
0.0156212517017,0.7547169811320755
0.0212657890055,0.7641509433962265
0.099057371641,0.7735849056603774
0.18544330484,0.7830188679245284
0.18544330484,0.7924528301886793
0.24830886821,0.8018867924528302
0.24830886821,0.8113207547169812
0.24830886821,0.8207547169811321
0.494515479573,0.8301886792452831
0.494515479573,0.839622641509434
0.494515479573,0.8490566037735849
0.496617736421,0.8584905660377359
0.496617736421,0.8679245283018868
0.715531296193,0.8773584905660378
0.766443884643,0.8867924528301887
0.79629636395,0.8962264150943396
0.79629636395,0.9056603773584906
0.851747280831,0.9150943396226415
0.851747280831,0.9245283018867925
1.63663506555,0.9339622641509434
1.65385078502,0.9433962264150944
1.67691116552,0.9528301886792453
1.67691116552,0.9622641509433962
5.11368435035,0.9716981132075472
5.18194211851,0.9811320754716981
6.16304857294,0.9905660377358491
16.4923211108,1.0
