Congestion,CDF
0.0206137213675,0.005555555555555556
0.0206137213675,0.011111111111111112
0.020764594791,0.016666666666666666
0.020764594791,0.022222222222222223
0.0207658722942,0.027777777777777776
0.0207658722942,0.03333333333333333
0.020847421564,0.03888888888888889
0.020847421564,0.044444444444444446
0.0208635649901,0.05
0.0208635649901,0.05555555555555555
0.0208833105038,0.06111111111111111
0.0208833105038,0.06666666666666667
0.021170878786,0.07222222222222222
0.021170878786,0.07777777777777778
0.021512351875,0.08333333333333333
0.021512351875,0.08888888888888889
0.0216317496343,0.09444444444444444
0.0216317496343,0.1
0.0216855215241,0.10555555555555556
0.0216855215241,0.1111111111111111
0.0219186235121,0.11666666666666667
0.0219186235121,0.12222222222222222
0.0220011980768,0.12777777777777777
0.0220011980768,0.13333333333333333
0.0220234910076,0.1388888888888889
0.0220234910076,0.14444444444444443
0.0221723297843,0.15
0.0221723297843,0.15555555555555556
0.0222938818144,0.16111111111111112
0.0222938818144,0.16666666666666666
0.0223112660118,0.17222222222222222
0.0223112660118,0.17777777777777778
0.0223488736876,0.18333333333333332
0.0223488736876,0.18888888888888888
0.0227105807273,0.19444444444444445
0.0227105807273,0.2
0.0227505999927,0.20555555555555555
0.0227505999927,0.2111111111111111
0.0227680261601,0.21666666666666667
0.0227680261601,0.2222222222222222
0.0228480417425,0.22777777777777777
0.0228480417425,0.23333333333333334
0.0229185878134,0.2388888888888889
0.0229185878134,0.24444444444444444
0.0229644117231,0.25
0.0229644117231,0.25555555555555554
0.0230771859859,0.2611111111111111
0.0230771859859,0.26666666666666666
0.0233319537201,0.2722222222222222
0.0233319537201,0.2777777777777778
0.0239845817493,0.2833333333333333
0.0239845817493,0.28888888888888886
0.0244270048345,0.29444444444444445
0.0244270048345,0.3
0.0246166013974,0.3055555555555556
0.0246166013974,0.3111111111111111
0.0246361328188,0.31666666666666665
0.0246361328188,0.32222222222222224
0.0247055410432,0.3277777777777778
0.0247055410432,0.3333333333333333
0.0247370062724,0.3388888888888889
0.0247370062724,0.34444444444444444
0.0247561715922,0.35
0.0247561715922,0.35555555555555557
0.0248340195908,0.3611111111111111
0.0248340195908,0.36666666666666664
0.0253173611499,0.37222222222222223
0.0253173611499,0.37777777777777777
0.0253897408615,0.38333333333333336
0.0253897408615,0.3888888888888889
0.0253950179831,0.39444444444444443
0.0253950179831,0.4
0.0256201261558,0.40555555555555556
0.0256201261558,0.4111111111111111
0.0256408591536,0.4166666666666667
0.0256408591536,0.4222222222222222
0.0258358580038,0.42777777777777776
0.0258358580038,0.43333333333333335
0.026367471961,0.4388888888888889
0.026367471961,0.4444444444444444
0.613246201078,0.45
0.613246201078,0.45555555555555555
0.708824780122,0.46111111111111114
0.708824780122,0.4666666666666667
0.751868320401,0.4722222222222222
0.751868320401,0.4777777777777778
0.771124795868,0.48333333333333334
0.771124795868,0.4888888888888889
1.30335478554,0.49444444444444446
1.30335478554,0.5
1.58756231925,0.5055555555555555
1.58756231925,0.5111111111111111
1.94882372905,0.5166666666666667
1.94882372905,0.5222222222222223
2.00318764268,0.5277777777777778
2.00318764268,0.5333333333333333
2.41809039972,0.5388888888888889
2.41809039972,0.5444444444444444
2.71730093033,0.55
2.71730093033,0.5555555555555556
2.8188418461,0.5611111111111111
2.8188418461,0.5666666666666667
2.83273627616,0.5722222222222222
2.83273627616,0.5777777777777777
2.853098719,0.5833333333333334
2.853098719,0.5888888888888889
2.88219185162,0.5944444444444444
2.88219185162,0.6
2.94371214888,0.6055555555555555
2.94371214888,0.6111111111111112
3.07224210634,0.6166666666666667
3.07224210634,0.6222222222222222
3.13994539616,0.6277777777777778
3.13994539616,0.6333333333333333
3.2201864929,0.6388888888888888
3.2201864929,0.6444444444444445
3.29132468455,0.65
3.29132468455,0.6555555555555556
3.48062158756,0.6611111111111111
3.48062158756,0.6666666666666666
3.52744445848,0.6722222222222223
3.52744445848,0.6777777777777778
3.59876234811,0.6833333333333333
3.59876234811,0.6888888888888889
3.61217981987,0.6944444444444444
3.61217981987,0.7
3.77920082273,0.7055555555555556
3.77920082273,0.7111111111111111
4.02026119291,0.7166666666666667
4.02026119291,0.7222222222222222
4.10783944437,0.7277777777777777
4.10783944437,0.7333333333333333
4.36720178252,0.7388888888888889
4.36720178252,0.7444444444444445
5.23380817118,0.75
5.23380817118,0.7555555555555555
5.41079179391,0.7611111111111111
5.41079179391,0.7666666666666667
5.42498905326,0.7722222222222223
5.42498905326,0.7777777777777778
5.72691762327,0.7833333333333333
5.72691762327,0.7888888888888889
5.79888215579,0.7944444444444444
5.79888215579,0.8
5.81291440073,0.8055555555555556
5.81291440073,0.8111111111111111
6.31278114323,0.8166666666666667
6.31278114323,0.8222222222222222
6.62366280137,0.8277777777777777
6.62366280137,0.8333333333333334
6.72199301294,0.8388888888888889
6.72199301294,0.8444444444444444
7.27356358068,0.85
7.27356358068,0.8555555555555555
7.98789165764,0.8611111111111112
7.98789165764,0.8666666666666667
8.0303498801,0.8722222222222222
8.0303498801,0.8777777777777778
8.89512534369,0.8833333333333333
8.89512534369,0.8888888888888888
8.93443803888,0.8944444444444445
8.93443803888,0.9
9.75044563466,0.9055555555555556
9.75044563466,0.9111111111111111
10.0709214664,0.9166666666666666
10.0709214664,0.9222222222222223
10.6778872137,0.9277777777777778
10.6778872137,0.9333333333333333
11.6452703717,0.9388888888888889
11.6452703717,0.9444444444444444
11.7228694044,0.95
11.7228694044,0.9555555555555556
12.1401668848,0.9611111111111111
12.1401668848,0.9666666666666667
13.1542537939,0.9722222222222222
13.1542537939,0.9777777777777777
14.3044588446,0.9833333333333333
14.3044588446,0.9888888888888889
14.8843020585,0.9944444444444445
14.8843020585,1.0
