Congestion,CDF
0.0278721716239,0.005555555555555556
0.0278721716239,0.011111111111111112
0.0279858302875,0.016666666666666666
0.0279858302875,0.022222222222222223
0.0282476907861,0.027777777777777776
0.0282476907861,0.03333333333333333
0.0282544583547,0.03888888888888889
0.0282544583547,0.044444444444444446
0.0282901057641,0.05
0.0282901057641,0.05555555555555555
0.0283602932592,0.06111111111111111
0.0283602932592,0.06666666666666667
0.0286967014162,0.07222222222222222
0.0286967014162,0.07777777777777778
0.0292323029335,0.08333333333333333
0.0292323029335,0.08888888888888889
0.0294820374608,0.09444444444444444
0.0294820374608,0.1
0.0297187347611,0.10555555555555556
0.0297187347611,0.1111111111111111
0.0298887825943,0.11666666666666667
0.0298887825943,0.12222222222222222
0.0299295854993,0.12777777777777777
0.0299295854993,0.13333333333333333
0.0299891261202,0.1388888888888889
0.0299891261202,0.14444444444444443
0.0303091522712,0.15
0.0303091522712,0.15555555555555556
0.0304384723471,0.16111111111111112
0.0304384723471,0.16666666666666666
0.0305251790749,0.17222222222222222
0.0305251790749,0.17777777777777778
0.0310140407722,0.18333333333333332
0.0310140407722,0.18888888888888888
0.0310612739668,0.19444444444444445
0.0310612739668,0.2
0.0310748671806,0.20555555555555555
0.0310748671806,0.2111111111111111
0.0311261217657,0.21666666666666667
0.0311261217657,0.2222222222222222
0.0311616786332,0.22777777777777777
0.0311616786332,0.23333333333333334
0.0311762945509,0.2388888888888889
0.0311762945509,0.24444444444444444
0.0312977018051,0.25
0.0312977018051,0.25555555555555554
0.0315153781126,0.2611111111111111
0.0315153781126,0.26666666666666666
0.0318153944619,0.2722222222222222
0.0318153944619,0.2777777777777778
0.0322568518463,0.2833333333333333
0.0322568518463,0.28888888888888886
0.0327992227806,0.29444444444444445
0.0327992227806,0.3
0.0328066192836,0.3055555555555556
0.0328066192836,0.3111111111111111
0.0328445293387,0.31666666666666665
0.0328445293387,0.32222222222222224
0.032869958353,0.3277777777777778
0.032869958353,0.3333333333333333
0.032921303873,0.3388888888888889
0.032921303873,0.34444444444444444
0.0329594998018,0.35
0.0329594998018,0.35555555555555557
0.0334012983228,0.3611111111111111
0.0334012983228,0.36666666666666664
0.0334399905792,0.37222222222222223
0.0334399905792,0.37777777777777777
0.0337189748769,0.38333333333333336
0.0337189748769,0.3888888888888889
0.0337347249813,0.39444444444444443
0.0337347249813,0.4
0.0337888476092,0.40555555555555556
0.0337888476092,0.4111111111111111
0.0338098053415,0.4166666666666667
0.0338098053415,0.4222222222222222
0.0342174015856,0.42777777777777776
0.0342174015856,0.43333333333333335
0.0346482551288,0.4388888888888889
0.0346482551288,0.4444444444444444
0.864561191619,0.45
0.864561191619,0.45555555555555555
1.00570430713,0.46111111111111114
1.00570430713,0.4666666666666667
1.0068753745,0.4722222222222222
1.0068753745,0.4777777777777778
1.08827785896,0.48333333333333334
1.08827785896,0.4888888888888889
1.78727945795,0.49444444444444446
1.78727945795,0.5
2.19319328986,0.5055555555555555
2.19319328986,0.5111111111111111
2.65875050061,0.5166666666666667
2.65875050061,0.5222222222222223
2.73002630365,0.5277777777777778
2.73002630365,0.5333333333333333
3.33563750438,0.5388888888888889
3.33563750438,0.5444444444444444
3.62496980721,0.55
3.62496980721,0.5555555555555556
3.77329718293,0.5611111111111111
3.77329718293,0.5666666666666667
3.79293033945,0.5722222222222222
3.79293033945,0.5777777777777777
3.85550854485,0.5833333333333334
3.85550854485,0.5888888888888889
3.86812225297,0.5944444444444444
3.86812225297,0.6
3.92523405085,0.6055555555555555
3.92523405085,0.6111111111111112
4.21456420164,0.6166666666666667
4.21456420164,0.6222222222222222
4.24442737776,0.6277777777777778
4.24442737776,0.6333333333333333
4.40655285157,0.6388888888888888
4.40655285157,0.6444444444444445
4.41306943205,0.65
4.41306943205,0.6555555555555556
4.65402086587,0.6611111111111111
4.65402086587,0.6666666666666666
4.78175654927,0.6722222222222223
4.78175654927,0.6777777777777778
4.8332478826,0.6833333333333333
4.8332478826,0.6888888888888889
4.93579074759,0.6944444444444444
4.93579074759,0.7
5.00843245507,0.7055555555555556
5.00843245507,0.7111111111111111
5.36500812818,0.7166666666666667
5.36500812818,0.7222222222222222
5.58763009313,0.7277777777777777
5.58763009313,0.7333333333333333
5.77212030142,0.7388888888888889
5.77212030142,0.7444444444444445
6.89688521368,0.75
6.89688521368,0.7555555555555555
7.09607554631,0.7611111111111111
7.09607554631,0.7666666666666667
7.14879967607,0.7722222222222223
7.14879967607,0.7777777777777778
7.49395775736,0.7833333333333333
7.49395775736,0.7888888888888889
7.74403031041,0.7944444444444444
7.74403031041,0.8
7.78337536397,0.8055555555555556
7.78337536397,0.8111111111111111
8.27063196625,0.8166666666666667
8.27063196625,0.8222222222222222
8.71061943089,0.8277777777777777
8.71061943089,0.8333333333333334
8.90861369901,0.8388888888888889
8.90861369901,0.8444444444444444
9.55227073638,0.85
9.55227073638,0.8555555555555555
10.4511050105,0.8611111111111112
10.4511050105,0.8666666666666667
10.6831883815,0.8722222222222222
10.6831883815,0.8777777777777778
11.5564296116,0.8833333333333333
11.5564296116,0.8888888888888888
11.6693563776,0.8944444444444445
11.6693563776,0.9
12.6473219135,0.9055555555555556
12.6473219135,0.9111111111111111
13.1876378055,0.9166666666666666
13.1876378055,0.9222222222222223
13.8011607638,0.9277777777777778
13.8011607638,0.9333333333333333
15.1239401515,0.9388888888888889
15.1239401515,0.9444444444444444
15.3559885792,0.95
15.3559885792,0.9555555555555556
15.8977425222,0.9611111111111111
15.8977425222,0.9666666666666667
17.0151795166,0.9722222222222222
17.0151795166,0.9777777777777777
18.4877691847,0.9833333333333333
18.4877691847,0.9888888888888889
19.3001110036,0.9944444444444445
19.3001110036,1.0
