Congestion,CDF
0.0197454130983,0.005555555555555556
0.0197454130983,0.011111111111111112
0.0198363230332,0.016666666666666666
0.0198363230332,0.022222222222222223
0.020157554788,0.027777777777777776
0.020157554788,0.03333333333333333
0.0201627837998,0.03888888888888889
0.0201627837998,0.044444444444444446
0.0202881023917,0.05
0.0202881023917,0.05555555555555555
0.02041029395,0.06111111111111111
0.02041029395,0.06666666666666667
0.020619272177,0.07222222222222222
0.020619272177,0.07777777777777778
0.0206310136879,0.08333333333333333
0.0206310136879,0.08888888888888889
0.0208647261414,0.09444444444444444
0.0208647261414,0.1
0.0208961971379,0.10555555555555556
0.0208961971379,0.1111111111111111
0.020959939449,0.11666666666666667
0.020959939449,0.12222222222222222
0.0210883880176,0.12777777777777777
0.0210883880176,0.13333333333333333
0.0211306418043,0.1388888888888889
0.0211306418043,0.14444444444444443
0.0212289420222,0.15
0.0212289420222,0.15555555555555556
0.0212373887159,0.16111111111111112
0.0212373887159,0.16666666666666666
0.0213432744975,0.17222222222222222
0.0213432744975,0.17777777777777778
0.0213777603346,0.18333333333333332
0.0213777603346,0.18888888888888888
0.0213942590358,0.19444444444444445
0.0213942590358,0.2
0.021492874447,0.20555555555555555
0.021492874447,0.2111111111111111
0.0216366576784,0.21666666666666667
0.0216366576784,0.2222222222222222
0.0217669739764,0.22777777777777777
0.0217669739764,0.23333333333333334
0.0217800745612,0.2388888888888889
0.0217800745612,0.24444444444444444
0.0218038830658,0.25
0.0218038830658,0.25555555555555554
0.0218864784145,0.2611111111111111
0.0218864784145,0.26666666666666666
0.0221566051835,0.2722222222222222
0.0221566051835,0.2777777777777778
0.0221933060583,0.2833333333333333
0.0221933060583,0.28888888888888886
0.0221944493427,0.29444444444444445
0.0221944493427,0.3
0.0224013049226,0.3055555555555556
0.0224013049226,0.3111111111111111
0.0224306218439,0.31666666666666665
0.0224306218439,0.32222222222222224
0.0224414425518,0.3277777777777778
0.0224414425518,0.3333333333333333
0.0225686845347,0.3388888888888889
0.0225686845347,0.34444444444444444
0.0226505720567,0.35
0.0226505720567,0.35555555555555557
0.0227448153781,0.3611111111111111
0.0227448153781,0.36666666666666664
0.022864134033,0.37222222222222223
0.022864134033,0.37777777777777777
0.0228898016628,0.38333333333333336
0.0228898016628,0.3888888888888889
0.0229025718052,0.39444444444444443
0.0229025718052,0.4
0.0229994256664,0.40555555555555556
0.0229994256664,0.4111111111111111
0.0230078560043,0.4166666666666667
0.0230078560043,0.4222222222222222
0.0232428375266,0.42777777777777776
0.0232428375266,0.43333333333333335
0.0233797438682,0.4388888888888889
0.0233797438682,0.4444444444444444
0.650698922368,0.45
0.650698922368,0.45555555555555555
0.711560059011,0.46111111111111114
0.711560059011,0.4666666666666667
0.809159043511,0.4722222222222222
0.809159043511,0.4777777777777778
0.88150350494,0.48333333333333334
0.88150350494,0.4888888888888889
1.27965290827,0.49444444444444446
1.27965290827,0.5
1.63897887913,0.5055555555555555
1.63897887913,0.5111111111111111
1.78036779496,0.5166666666666667
1.78036779496,0.5222222222222223
1.82611161157,0.5277777777777778
1.82611161157,0.5333333333333333
2.19897767738,0.5388888888888889
2.19897767738,0.5444444444444444
2.40326205272,0.55
2.40326205272,0.5555555555555556
2.4855598866,0.5611111111111111
2.4855598866,0.5666666666666667
2.50943181314,0.5722222222222222
2.50943181314,0.5777777777777777
2.54533202338,0.5833333333333334
2.54533202338,0.5888888888888889
2.69165188356,0.5944444444444444
2.69165188356,0.6
2.71773079302,0.6055555555555555
2.71773079302,0.6111111111111112
2.81604438013,0.6166666666666667
2.81604438013,0.6222222222222222
2.92292755162,0.6277777777777778
2.92292755162,0.6333333333333333
2.93863514293,0.6388888888888888
2.93863514293,0.6444444444444445
3.00770427049,0.65
3.00770427049,0.6555555555555556
3.06703100747,0.6611111111111111
3.06703100747,0.6666666666666666
3.08010010384,0.6722222222222223
3.08010010384,0.6777777777777778
3.28091949605,0.6833333333333333
3.28091949605,0.6888888888888889
3.30891746695,0.6944444444444444
3.30891746695,0.7
3.32596613342,0.7055555555555556
3.32596613342,0.7111111111111111
3.46285248034,0.7166666666666667
3.46285248034,0.7222222222222222
3.61397480344,0.7277777777777777
3.61397480344,0.7333333333333333
3.80219814884,0.7388888888888889
3.80219814884,0.7444444444444445
4.52500754569,0.75
4.52500754569,0.7555555555555555
4.64867462704,0.7611111111111111
4.64867462704,0.7666666666666667
4.64888590253,0.7722222222222223
4.64888590253,0.7777777777777778
4.93083945495,0.7833333333333333
4.93083945495,0.7888888888888889
5.15198089036,0.7944444444444444
5.15198089036,0.8
5.19187808625,0.8055555555555556
5.19187808625,0.8111111111111111
5.43783323668,0.8166666666666667
5.43783323668,0.8222222222222222
5.73203045963,0.8277777777777777
5.73203045963,0.8333333333333334
5.86015752326,0.8388888888888889
5.86015752326,0.8444444444444444
6.30064692477,0.85
6.30064692477,0.8555555555555555
6.86371705255,0.8611111111111112
6.86371705255,0.8666666666666667
7.10297459109,0.8722222222222222
7.10297459109,0.8777777777777778
7.59883966434,0.8833333333333333
7.59883966434,0.8888888888888888
7.667954862,0.8944444444444445
7.667954862,0.9
8.28360127651,0.9055555555555556
8.28360127651,0.9111111111111111
8.65541991689,0.9166666666666666
8.65541991689,0.9222222222222223
9.0293658485,0.9277777777777778
9.0293658485,0.9333333333333333
9.91998879687,0.9388888888888889
9.91998879687,0.9444444444444444
10.0709884566,0.95
10.0709884566,0.9555555555555556
10.4139484192,0.9611111111111111
10.4139484192,0.9666666666666667
11.1842434174,0.9722222222222222
11.1842434174,0.9777777777777777
12.1309620771,0.9833333333333333
12.1309620771,0.9888888888888889
12.6637506254,0.9944444444444445
12.6637506254,1.0
