Congestion,CDF
0.0303990506095,0.005555555555555556
0.0303990506095,0.011111111111111112
0.030483326219,0.016666666666666666
0.030483326219,0.022222222222222223
0.0306860998037,0.027777777777777776
0.0306860998037,0.03333333333333333
0.0308627026571,0.03888888888888889
0.0308627026571,0.044444444444444446
0.0308979597781,0.05
0.0308979597781,0.05555555555555555
0.0310968981783,0.06111111111111111
0.0310968981783,0.06666666666666667
0.0311656511968,0.07222222222222222
0.0311656511968,0.07777777777777778
0.0317980129761,0.08333333333333333
0.0317980129761,0.08888888888888889
0.0323517052197,0.09444444444444444
0.0323517052197,0.1
0.0327073926371,0.10555555555555556
0.0327073926371,0.1111111111111111
0.0327534109886,0.11666666666666667
0.0327534109886,0.12222222222222222
0.0328283645216,0.12777777777777777
0.0328283645216,0.13333333333333333
0.0328809667858,0.1388888888888889
0.0328809667858,0.14444444444444443
0.0329718334718,0.15
0.0329718334718,0.15555555555555556
0.0332259514424,0.16111111111111112
0.0332259514424,0.16666666666666666
0.0334905380462,0.17222222222222222
0.0334905380462,0.17777777777777778
0.0338761238077,0.18333333333333332
0.0338761238077,0.18888888888888888
0.0339098895739,0.19444444444444445
0.0339098895739,0.2
0.033980027889,0.20555555555555555
0.033980027889,0.2111111111111111
0.0340251272603,0.21666666666666667
0.0340251272603,0.2222222222222222
0.0340676705979,0.22777777777777777
0.0340676705979,0.23333333333333334
0.0341424505914,0.2388888888888889
0.0341424505914,0.24444444444444444
0.0341768030644,0.25
0.0341768030644,0.25555555555555554
0.034416823031,0.2611111111111111
0.034416823031,0.26666666666666666
0.0347063782673,0.2722222222222222
0.0347063782673,0.2777777777777778
0.0351757454409,0.2833333333333333
0.0351757454409,0.28888888888888886
0.0355695806816,0.29444444444444445
0.0355695806816,0.3
0.0356089979102,0.3055555555555556
0.0356089979102,0.3111111111111111
0.035645022663,0.31666666666666665
0.035645022663,0.32222222222222224
0.0356634122017,0.3277777777777778
0.0356634122017,0.3333333333333333
0.035711197328,0.3388888888888889
0.035711197328,0.34444444444444444
0.0357801628932,0.35
0.0357801628932,0.35555555555555557
0.0361834762457,0.3611111111111111
0.0361834762457,0.36666666666666664
0.0362630564289,0.37222222222222223
0.0362630564289,0.37777777777777777
0.0364841836807,0.38333333333333336
0.0364841836807,0.3888888888888889
0.0365510445907,0.39444444444444443
0.0365510445907,0.4
0.0365944436588,0.40555555555555556
0.0365944436588,0.4111111111111111
0.0367029392016,0.4166666666666667
0.0367029392016,0.4222222222222222
0.0370305562478,0.42777777777777776
0.0370305562478,0.43333333333333335
0.037563237846,0.4388888888888889
0.037563237846,0.4444444444444444
0.951100028903,0.45
0.951100028903,0.45555555555555555
1.09188013478,0.46111111111111114
1.09188013478,0.4666666666666667
1.12619247631,0.4722222222222222
1.12619247631,0.4777777777777778
1.216731158,0.48333333333333334
1.216731158,0.4888888888888889
1.95955658223,0.49444444444444446
1.95955658223,0.5
2.43213928128,0.5055555555555555
2.43213928128,0.5111111111111111
2.89593496757,0.5166666666666667
2.89593496757,0.5222222222222223
2.9762741554,0.5277777777777778
2.9762741554,0.5333333333333333
3.6558381845,0.5388888888888889
3.6558381845,0.5444444444444444
3.93889947036,0.55
3.93889947036,0.5555555555555556
4.09860158882,0.5611111111111111
4.09860158882,0.5666666666666667
4.12156971307,0.5722222222222222
4.12156971307,0.5777777777777777
4.19204568018,0.5833333333333334
4.19204568018,0.5888888888888889
4.21882916071,0.5944444444444444
4.21882916071,0.6
4.28179731307,0.6055555555555555
4.28179731307,0.6111111111111112
4.60486259383,0.6166666666666667
4.60486259383,0.6222222222222222
4.63012017072,0.6277777777777778
4.63012017072,0.6333333333333333
4.78580329217,0.6388888888888888
4.78580329217,0.6444444444444445
4.82128743993,0.65
4.82128743993,0.6555555555555556
5.05226952682,0.6611111111111111
5.05226952682,0.6666666666666666
5.20596442246,0.6722222222222223
5.20596442246,0.6777777777777778
5.27424057771,0.6833333333333333
5.27424057771,0.6888888888888889
5.38647460301,0.6944444444444444
5.38647460301,0.7
5.42604186809,0.7055555555555556
5.42604186809,0.7111111111111111
5.81716085584,0.7166666666666667
5.81716085584,0.7222222222222222
6.09405344959,0.7277777777777777
6.09405344959,0.7333333333333333
6.24660280588,0.7388888888888889
6.24660280588,0.7444444444444445
7.45166715993,0.75
7.45166715993,0.7555555555555555
7.65828941795,0.7611111111111111
7.65828941795,0.7666666666666667
7.72296666892,0.7722222222222223
7.72296666892,0.7777777777777778
8.08352065348,0.7833333333333333
8.08352065348,0.7888888888888889
8.39300908189,0.7944444444444444
8.39300908189,0.8
8.44265201171,0.8055555555555556
8.44265201171,0.8111111111111111
8.9229156009,0.8166666666666667
8.9229156009,0.8222222222222222
9.40590761431,0.8277777777777777
9.40590761431,0.8333333333333334
9.63368614617,0.8388888888888889
9.63368614617,0.8444444444444444
10.3093603437,0.85
10.3093603437,0.8555555555555555
11.2571281608,0.8611111111111112
11.2571281608,0.8666666666666667
11.5852845835,0.8722222222222222
11.5852845835,0.8777777777777778
12.4423296874,0.8833333333333333
12.4423296874,0.8888888888888888
12.5789849561,0.8944444444444445
12.5789849561,0.9
13.6121483599,0.9055555555555556
13.6121483599,0.9111111111111111
14.2253650772,0.9166666666666666
14.2253650772,0.9222222222222223
14.8435346351,0.9277777777777778
14.8435346351,0.9333333333333333
16.2884707722,0.9388888888888889
16.2884707722,0.9444444444444444
16.5692407541,0.95
16.5692407541,0.9555555555555556
17.1522910402,0.9611111111111111
17.1522910402,0.9666666666666667
18.3096504188,0.9722222222222222
18.3096504188,0.9777777777777777
19.8891833798,0.9833333333333333
19.8891833798,0.9888888888888889
20.7779931065,0.9944444444444445
20.7779931065,1.0
