Congestion,CDF
0.0,0.007352941176470588
0.0,0.014705882352941176
0.0,0.022058823529411766
0.0,0.029411764705882353
0.0,0.03676470588235294
0.0,0.04411764705882353
0.0,0.051470588235294115
0.0,0.058823529411764705
0.0,0.0661764705882353
0.0,0.07352941176470588
0.0,0.08088235294117647
0.0,0.08823529411764706
0.0,0.09558823529411764
0.0,0.10294117647058823
8.20228098469e-07,0.11029411764705882
8.20228098469e-07,0.11764705882352941
8.20228098469e-07,0.125
8.20228098469e-07,0.1323529411764706
8.20228098469e-07,0.13970588235294118
8.20228098469e-07,0.14705882352941177
8.20228098469e-07,0.15441176470588236
8.20228098469e-07,0.16176470588235295
8.20228098469e-07,0.16911764705882354
8.20228098469e-07,0.17647058823529413
8.20228098469e-07,0.18382352941176472
8.20228098469e-07,0.19117647058823528
8.20228098469e-07,0.19852941176470587
8.20228098469e-07,0.20588235294117646
8.20228098469e-07,0.21323529411764705
8.20228098469e-07,0.22058823529411764
8.20228098469e-07,0.22794117647058823
8.20228098469e-07,0.23529411764705882
8.20228098469e-07,0.2426470588235294
8.20228098469e-07,0.25
8.20228098469e-07,0.25735294117647056
8.20228098469e-07,0.2647058823529412
8.20228098469e-07,0.27205882352941174
8.20228098469e-07,0.27941176470588236
8.20228098469e-07,0.2867647058823529
8.20228098469e-07,0.29411764705882354
8.20228098469e-07,0.3014705882352941
2.05057024617e-05,0.3088235294117647
2.05057024617e-05,0.3161764705882353
2.21461586587e-05,0.3235294117647059
4.10114049234e-05,0.33088235294117646
4.10114049234e-05,0.3382352941176471
4.10114049234e-05,0.34558823529411764
4.10114049234e-05,0.35294117647058826
6.15171073851e-05,0.3602941176470588
6.8352341539e-05,0.36764705882352944
6.8352341539e-05,0.375
6.8352341539e-05,0.38235294117647056
8.20228098469e-05,0.3897058823529412
8.20228098469e-05,0.39705882352941174
8.20228098469e-05,0.40441176470588236
8.20228098469e-05,0.4117647058823529
8.20228098469e-05,0.41911764705882354
8.20228098469e-05,0.4264705882352941
8.20228098469e-05,0.4338235294117647
0.000102528512309,0.4411764705882353
0.00012303421477,0.4485294117647059
0.00012303421477,0.45588235294117646
0.000150375151386,0.4632352941176471
0.000164045619694,0.47058823529411764
0.000164045619694,0.47794117647058826
0.000246068429541,0.4852941176470588
0.000334926473541,0.49264705882352944
0.00059466537139,0.5
0.000608335839698,0.5073529411764706
0.000786051927699,0.5147058823529411
0.000977438484008,0.5220588235294118
0.000991108952316,0.5294117647058824
0.00105946129386,0.5367647058823529
0.00107313176216,0.5441176470588235
0.00115515457201,0.5514705882352942
0.0284921362381,0.5588235294117647
0.0293555442584,0.5661764705882353
0.0395946491501,0.5735294117647058
0.0396724592549,0.5808823529411765
0.0398303560599,0.5882352941176471
0.0398606948927,0.5955882352941176
0.0398889030376,0.6029411764705882
0.0399273703587,0.6102941176470589
0.0400052430638,0.6176470588235294
0.040018934164,0.625
0.0400313258336,0.6323529411764706
0.040037486649,0.6397058823529411
0.0400384538568,0.6470588235294118
0.0400393378119,0.6544117647058824
0.0400400523101,0.6617647058823529
0.0400407764479,0.6691176470588235
0.0400412764698,0.6764705882352942
0.0400436012759,0.6838235294117647
0.0400461812738,0.6911764705882353
0.0400545537785,0.6985294117647058
0.0400576348513,0.7058823529411765
0.0400576453843,0.7132352941176471
0.0400577103344,0.7205882352941176
0.0400577134406,0.7279411764705882
0.040058006381,0.7352941176470589
0.0400580084523,0.7426470588235294
0.0400580084523,0.75
1.0009834453,0.7573529411764706
1.0010900319,0.7647058823529411
1.05746406348,0.7720588235294118
1.99636851793,0.7794117647058824
1.99636851793,0.7867647058823529
2.00230906369,0.7941176470588235
2.00230906369,0.8014705882352942
3.00295033589,0.8088235294117647
3.33668860576,0.8161764705882353
3.33668860576,0.8235294117647058
3.33668860576,0.8308823529411765
3.98889030376,0.8382352941176471
4.00407764479,0.8455882352941176
4.00436012759,0.8529411764705882
4.00576453843,0.8602941176470589
4.00577134406,0.8676470588235294
4.00580084523,0.875
4.00580084523,0.8823529411764706
5.00511109228,0.8897058823529411
5.97940412392,0.8970588235294118
6.00605772859,0.9044117647058824
7.33858202216,0.9117647058823529
7.97495979303,0.9191176470588235
8.01154237749,0.9264705882352942
12.0174023286,0.9338235294117647
16.3498825738,0.9411764705882353
29.0415627615,0.9485294117647058
29.6853574203,0.9558823529411765
38.3860158088,0.9632352941176471
47.5991862523,0.9705882352941176
48.3952061208,0.9779411764705882
50.4483998761,0.9852941176470589
52.3624520462,0.9926470588235294
55.2980064721,1.0
