Congestion,CDF
0.0,0.007352941176470588
0.0,0.014705882352941176
0.0,0.022058823529411766
0.0,0.029411764705882353
0.0,0.03676470588235294
0.0,0.04411764705882353
0.0,0.051470588235294115
0.0,0.058823529411764705
0.0,0.0661764705882353
0.0,0.07352941176470588
0.0,0.08088235294117647
0.0,0.08823529411764706
0.0,0.09558823529411764
0.0,0.10294117647058823
5.67718864458e-07,0.11029411764705882
5.67718864458e-07,0.11764705882352941
5.67718864458e-07,0.125
5.67718864458e-07,0.1323529411764706
5.67718864458e-07,0.13970588235294118
5.67718864458e-07,0.14705882352941177
5.67718864458e-07,0.15441176470588236
5.67718864458e-07,0.16176470588235295
5.67718864458e-07,0.16911764705882354
5.67718864458e-07,0.17647058823529413
5.67718864458e-07,0.18382352941176472
5.67718864458e-07,0.19117647058823528
5.67718864458e-07,0.19852941176470587
5.67718864458e-07,0.20588235294117646
5.67718864458e-07,0.21323529411764705
5.67718864458e-07,0.22058823529411764
5.67718864458e-07,0.22794117647058823
5.67718864458e-07,0.23529411764705882
5.67718864458e-07,0.2426470588235294
5.67718864458e-07,0.25
5.67718864458e-07,0.25735294117647056
5.67718864458e-07,0.2647058823529412
5.67718864458e-07,0.27205882352941174
5.67718864458e-07,0.27941176470588236
5.67718864458e-07,0.2867647058823529
5.67718864458e-07,0.29411764705882354
5.67718864458e-07,0.3014705882352941
1.41929716115e-05,0.3088235294117647
1.41929716115e-05,0.3161764705882353
1.53284093404e-05,0.3235294117647059
2.83859432229e-05,0.33088235294117646
2.83859432229e-05,0.3382352941176471
2.83859432229e-05,0.34558823529411764
2.83859432229e-05,0.35294117647058826
4.25789148344e-05,0.3602941176470588
4.73099053715e-05,0.36764705882352944
4.73099053715e-05,0.375
4.73099053715e-05,0.38235294117647056
5.67718864458e-05,0.3897058823529412
5.67718864458e-05,0.39705882352941174
5.67718864458e-05,0.40441176470588236
5.67718864458e-05,0.4117647058823529
5.67718864458e-05,0.41911764705882354
5.67718864458e-05,0.4264705882352941
5.67718864458e-05,0.4338235294117647
7.09648580573e-05,0.4411764705882353
8.51578296688e-05,0.4485294117647059
8.51578296688e-05,0.45588235294117646
0.000104081791817,0.4632352941176471
0.000113543772892,0.47058823529411764
0.000113543772892,0.47794117647058826
0.000170315659338,0.4852941176470588
0.000231818536321,0.49264705882352944
0.000411596176732,0.5
0.000421058157807,0.5073529411764706
0.000544063911773,0.5147058823529411
0.000676531646813,0.5220588235294118
0.000685993627887,0.5294117647058824
0.000733303533259,0.5367647058823529
0.000742765514333,0.5441176470588235
0.000799537400779,0.5514705882352942
0.0504634389507,0.5588235294117647
0.0509828137844,0.5661764705882353
0.0567591886442,0.5735294117647058
0.0568195203615,0.5808823529411765
0.0569053935692,0.5882352941176471
0.0569320897886,0.5955882352941176
0.056951667331,0.6029411764705882
0.0569915289615,0.6102941176470589
0.057068643943,0.6176470588235294
0.0570797232886,0.625
0.0570932805198,0.6323529411764706
0.0570981478447,0.6397058823529411
0.0570989483378,0.6470588235294118
0.0570998027883,0.6544117647058824
0.0571006545062,0.6617647058823529
0.0571012586829,0.6691176470588235
0.057101752224,0.6764705882352942
0.0571040585011,0.6838235294117647
0.0571066830888,0.6911764705882353
0.0571150366934,0.6985294117647058
0.0571180856513,0.7058823529411765
0.0571180954222,0.7132352941176471
0.0571181602682,0.7205882352941176
0.0571181632929,0.7279411764705882
0.0571184562802,0.7352941176470589
0.0571184582971,0.7426470588235294
0.0571184582971,0.75
1.42749506971,0.7573529411764706
1.42760146253,0.7647058823529411
1.52780150932,0.7720588235294118
2.84957644807,0.7794117647058824
2.84957644807,0.7867647058823529
2.85533415444,0.7941176470588235
2.85533415444,0.8014705882352942
4.28248520912,0.8088235294117647
4.75839481016,0.8161764705882353
4.75839481016,0.8235294117647058
4.75839481016,0.8308823529411765
5.6951667331,0.8382352941176471
5.71012586829,0.8455882352941176
5.71040585011,0.8529411764705882
5.71180954222,0.8602941176470589
5.71181632929,0.8676470588235294
5.71184582971,0.875
5.71184582971,0.8823529411764706
7.13767029211,0.8897058823529411
8.54011580499,0.8970588235294118
8.56514893891,0.9044117647058824
10.466367139,0.9117647058823529
11.388375712,0.9191176470588235
11.4236323561,0.9264705882352942
17.1355372874,0.9338235294117647
23.3162564212,0.9411764705882353
41.4103892134,0.9485294117647058
42.3390644026,0.9558823529411765
54.7356218474,0.9632352941176471
67.943474784,0.9705882352941176
69.0100988383,0.9779411764705882
72.989818679,0.9852941176470589
74.6920508744,0.9926470588235294
79.7903322529,1.0
