Congestion,CDF
0.0,0.007352941176470588
0.0,0.014705882352941176
0.0,0.022058823529411766
0.0,0.029411764705882353
0.0,0.03676470588235294
0.0,0.04411764705882353
0.0,0.051470588235294115
0.0,0.058823529411764705
0.0,0.0661764705882353
0.0,0.07352941176470588
0.0,0.08088235294117647
0.0,0.08823529411764706
0.0,0.09558823529411764
0.0,0.10294117647058823
1.04145434788e-06,0.11029411764705882
1.04145434788e-06,0.11764705882352941
1.04145434788e-06,0.125
1.04145434788e-06,0.1323529411764706
1.04145434788e-06,0.13970588235294118
1.04145434788e-06,0.14705882352941177
1.04145434788e-06,0.15441176470588236
1.04145434788e-06,0.16176470588235295
1.04145434788e-06,0.16911764705882354
1.04145434788e-06,0.17647058823529413
1.04145434788e-06,0.18382352941176472
1.04145434788e-06,0.19117647058823528
1.04145434788e-06,0.19852941176470587
1.04145434788e-06,0.20588235294117646
1.04145434788e-06,0.21323529411764705
1.04145434788e-06,0.22058823529411764
1.04145434788e-06,0.22794117647058823
1.04145434788e-06,0.23529411764705882
1.04145434788e-06,0.2426470588235294
1.04145434788e-06,0.25
1.04145434788e-06,0.25735294117647056
1.04145434788e-06,0.2647058823529412
1.04145434788e-06,0.27205882352941174
1.04145434788e-06,0.27941176470588236
1.04145434788e-06,0.2867647058823529
1.04145434788e-06,0.29411764705882354
1.04145434788e-06,0.3014705882352941
2.60363586971e-05,0.3088235294117647
2.60363586971e-05,0.3161764705882353
2.81192673929e-05,0.3235294117647059
5.20727173942e-05,0.33088235294117646
5.20727173942e-05,0.3382352941176471
5.20727173942e-05,0.34558823529411764
5.20727173942e-05,0.35294117647058826
7.81090760913e-05,0.3602941176470588
8.67878623237e-05,0.36764705882352944
8.67878623237e-05,0.375
8.67878623237e-05,0.38235294117647056
0.000104145434788,0.3897058823529412
0.000104145434788,0.39705882352941174
0.000104145434788,0.40441176470588236
0.000104145434788,0.4117647058823529
0.000104145434788,0.41911764705882354
0.000104145434788,0.4264705882352941
0.000104145434788,0.4338235294117647
0.000130181793486,0.4411764705882353
0.000156218152183,0.4485294117647059
0.000156218152183,0.45588235294117646
0.000190933297112,0.4632352941176471
0.000208290869577,0.47058823529411764
0.000208290869577,0.47794117647058826
0.000312436304365,0.4852941176470588
0.000425260525386,0.49264705882352944
0.000755054402216,0.5
0.000772411974681,0.5073529411764706
0.000998060416722,0.5147058823529411
0.00124106643123,0.5220588235294118
0.00125842400369,0.5294117647058824
0.00134521186602,0.5367647058823529
0.00136256943848,0.5441176470588235
0.00146671487327,0.5514705882352942
0.0275527719463,0.5588235294117647
0.0278401188625,0.5661764705882353
0.0308693658214,0.5735294117647058
0.0309173926951,0.5808823529411765
0.0309551075188,0.5882352941176471
0.0309785793966,0.5955882352941176
0.0309910938012,0.6029411764705882
0.0310325391772,0.6102941176470589
0.0311080534737,0.6176470588235294
0.0311169047823,0.625
0.0311314097921,0.6323529411764706
0.0311351841321,0.6397058823529411
0.0311358107378,0.6470588235294118
0.0311366271799,0.6544117647058824
0.031137623753,0.6617647058823529
0.0311381029318,0.6691176470588235
0.0311385868686,0.6764705882352942
0.031140869187,0.6838235294117647
0.031143556368,0.6911764705882353
0.0311518704963,0.6985294117647058
0.0311548833146,0.7058823529411765
0.0311548920562,0.7132352941176471
0.0311549566979,0.7205882352941176
0.0311549595776,0.7279411764705882
0.0311552526418,0.7352941176470589
0.0311552545621,0.7426470588235294
0.0311552545621,0.75
0.778415679497,0.7573529411764706
0.778521729674,0.7647058823529411
0.832837022334,0.7720588235294118
1.55162695886,0.7794117647058824
1.55162695886,0.7867647058823529
1.5571778184,0.7941176470588235
1.5571778184,0.8014705882352942
2.33524703849,0.8088235294117647
2.5947977671,0.8161764705882353
2.5947977671,0.8235294117647058
2.5947977671,0.8308823529411765
3.09910938012,0.8382352941176471
3.11381029318,0.8455882352941176
3.1140869187,0.8529411764705882
3.11548920562,0.8602941176470589
3.11549595776,0.8676470588235294
3.11552545621,0.875
3.11552545621,0.8823529411764706
3.89227436636,0.8897058823529411
4.64713771074,0.8970588235294118
4.67069623161,0.9044117647058824
5.70648824532,0.9117647058823529
6.19696731978,0.9191176470588235
6.23099162755,0.9264705882352942
9.34657617659,0.9338235294117647
12.7146448019,0.9411764705882353
22.5870670709,0.9485294117647058
23.0835653535,0.9558823529411765
29.854229706,0.9632352941176471
37.0146069661,0.9705882352941176
37.6380669168,0.9779411764705882
39.7698841608,0.9852941176470589
40.7298061864,0.9926470588235294
43.5138180726,1.0
