Congestion,CDF
0.0,0.007352941176470588
0.0,0.014705882352941176
0.0,0.022058823529411766
0.0,0.029411764705882353
0.0,0.03676470588235294
0.0,0.04411764705882353
0.0,0.051470588235294115
0.0,0.058823529411764705
0.0,0.0661764705882353
0.0,0.07352941176470588
0.0,0.08088235294117647
0.0,0.08823529411764706
0.0,0.09558823529411764
0.0,0.10294117647058823
5.51026646466e-06,0.11029411764705882
5.51026646466e-06,0.11764705882352941
5.51026646466e-06,0.125
5.51026646466e-06,0.1323529411764706
5.51026646466e-06,0.13970588235294118
5.51026646466e-06,0.14705882352941177
5.51026646466e-06,0.15441176470588236
5.51026646466e-06,0.16176470588235295
5.51026646466e-06,0.16911764705882354
5.51026646466e-06,0.17647058823529413
5.51026646466e-06,0.18382352941176472
5.51026646466e-06,0.19117647058823528
5.51026646466e-06,0.19852941176470587
5.51026646466e-06,0.20588235294117646
5.51026646466e-06,0.21323529411764705
5.51026646466e-06,0.22058823529411764
5.51026646466e-06,0.22794117647058823
5.51026646466e-06,0.23529411764705882
5.51026646466e-06,0.2426470588235294
5.51026646466e-06,0.25
5.51026646466e-06,0.25735294117647056
5.51026646466e-06,0.2647058823529412
5.51026646466e-06,0.27205882352941174
5.51026646466e-06,0.27941176470588236
5.51026646466e-06,0.2867647058823529
5.51026646466e-06,0.29411764705882354
5.51026646466e-06,0.3014705882352941
0.000137756661617,0.3088235294117647
0.000137756661617,0.3161764705882353
0.000148777194546,0.3235294117647059
0.000275513323233,0.33088235294117646
0.000275513323233,0.3382352941176471
0.000275513323233,0.34558823529411764
0.000275513323233,0.35294117647058826
0.00041326998485,0.3602941176470588
0.000459188872055,0.36764705882352944
0.000459188872055,0.375
0.000459188872055,0.38235294117647056
0.000551026646466,0.3897058823529412
0.000551026646466,0.39705882352941174
0.000551026646466,0.40441176470588236
0.000551026646466,0.4117647058823529
0.000551026646466,0.41911764705882354
0.000551026646466,0.4264705882352941
0.000551026646466,0.4338235294117647
0.000688783308083,0.4411764705882353
0.0008265399697,0.4485294117647059
0.0008265399697,0.45588235294117646
0.00101021551852,0.4632352941176471
0.00110205329293,0.47058823529411764
0.00110205329293,0.47794117647058826
0.0016530799394,0.4852941176470588
0.00225002547307,0.49264705882352944
0.00391486510012,0.5
0.00399494318688,0.5073529411764706
0.00408678096129,0.5147058823529411
0.0046753358765,0.5220588235294118
0.00528067202864,0.5294117647058824
0.00656640087039,0.5367647058823529
0.0066582386448,0.5441176470588235
0.00711742751686,0.5514705882352942
0.00720926529127,0.5588235294117647
0.00776029193773,0.5661764705882353
0.0144655138975,0.5735294117647058
0.0146299639938,0.5808823529411765
0.0148231405504,0.5882352941176471
0.0148961806965,0.5955882352941176
0.0149552577481,0.6029411764705882
0.015028852174,0.6102941176470589
0.0152199537227,0.6176470588235294
0.0152517008645,0.625
0.0152927270402,0.6323529411764706
0.0152946983401,0.6397058823529411
0.0152956033732,0.6470588235294118
0.0153050573169,0.6544117647058824
0.0153067959633,0.6617647058823529
0.0153074790254,0.6691176470588235
0.0153198299022,0.6764705882352942
0.0153282879336,0.6838235294117647
0.0153468385333,0.6911764705882353
0.0153734493544,0.6985294117647058
0.0153865217901,0.7058823529411765
0.0153865526416,0.7132352941176471
0.0153867121296,0.7205882352941176
0.0153867209343,0.7279411764705882
0.0153868973137,0.7352941176470589
0.0153869031837,0.7426470588235294
0.0153869031837,0.75
0.382626432923,0.7573529411764706
0.383207198341,0.7647058823529411
0.388738742583,0.7720588235294118
0.751442608698,0.7794117647058824
0.751442608698,0.7867647058823529
0.767341926665,0.7941176470588235
0.767341926665,0.8014705882352942
1.14787929877,0.8088235294117647
1.27608293211,0.8161764705882353
1.27608293211,0.8235294117647058
1.27608293211,0.8308823529411765
1.49552577481,0.8382352941176471
1.52946983401,0.8455882352941176
1.53282879336,0.8529411764705882
1.53865526416,0.8602941176470589
1.53867209343,0.8676470588235294
1.53869031837,0.875
1.53869031837,0.8823529411764706
1.91218677024,0.8897058823529411
2.23375666374,0.8970588235294118
2.29932491689,0.9044117647058824
2.80125301856,0.9117647058823529
2.98514384445,0.9191176470588235
3.07734330638,0.9264705882352942
4.61607036812,0.9338235294117647
6.24701224038,0.9411764705882353
11.153928316,0.9485294117647058
11.3217032399,0.9558823529411765
14.7346981102,0.9632352941176471
17.9871551379,0.9705882352941176
18.3786416479,0.9779411764705882
18.5647026234,0.9852941176470589
20.0276990228,0.9926470588235294
20.4952326105,1.0
