Congestion,CDF
0.0,0.007352941176470588
0.0,0.014705882352941176
0.0,0.022058823529411766
0.0,0.029411764705882353
0.0,0.03676470588235294
0.0,0.04411764705882353
0.0,0.051470588235294115
0.0,0.058823529411764705
0.0,0.0661764705882353
0.0,0.07352941176470588
0.0,0.08088235294117647
0.0,0.08823529411764706
0.0,0.09558823529411764
0.0,0.10294117647058823
4.69202493859e-06,0.11029411764705882
4.69202493859e-06,0.11764705882352941
4.69202493859e-06,0.125
4.69202493859e-06,0.1323529411764706
4.69202493859e-06,0.13970588235294118
4.69202493859e-06,0.14705882352941177
4.69202493859e-06,0.15441176470588236
4.69202493859e-06,0.16176470588235295
4.69202493859e-06,0.16911764705882354
4.69202493859e-06,0.17647058823529413
4.69202493859e-06,0.18382352941176472
4.69202493859e-06,0.19117647058823528
4.69202493859e-06,0.19852941176470587
4.69202493859e-06,0.20588235294117646
4.69202493859e-06,0.21323529411764705
4.69202493859e-06,0.22058823529411764
4.69202493859e-06,0.22794117647058823
4.69202493859e-06,0.23529411764705882
4.69202493859e-06,0.2426470588235294
4.69202493859e-06,0.25
4.69202493859e-06,0.25735294117647056
4.69202493859e-06,0.2647058823529412
4.69202493859e-06,0.27205882352941174
4.69202493859e-06,0.27941176470588236
4.69202493859e-06,0.2867647058823529
4.69202493859e-06,0.29411764705882354
4.69202493859e-06,0.3014705882352941
0.000117300623465,0.3088235294117647
0.000117300623465,0.3161764705882353
0.000126684673342,0.3235294117647059
0.00023460124693,0.33088235294117646
0.00023460124693,0.3382352941176471
0.00023460124693,0.34558823529411764
0.00023460124693,0.35294117647058826
0.000351901870394,0.3602941176470588
0.000391002078216,0.36764705882352944
0.000391002078216,0.375
0.000391002078216,0.38235294117647056
0.000469202493859,0.3897058823529412
0.000469202493859,0.39705882352941174
0.000469202493859,0.40441176470588236
0.000469202493859,0.4117647058823529
0.000469202493859,0.41911764705882354
0.000469202493859,0.4264705882352941
0.000469202493859,0.4338235294117647
0.000586503117324,0.4411764705882353
0.000703803740789,0.4485294117647059
0.000703803740789,0.45588235294117646
0.000860204572075,0.4632352941176471
0.000938404987718,0.47058823529411764
0.000938404987718,0.47794117647058826
0.00140760748158,0.4852941176470588
0.00191591018326,0.49264705882352944
0.00340171808048,0.5
0.00347991849612,0.5073529411764706
0.00449652389948,0.5147058823529411
0.00559132971849,0.5220588235294118
0.00566953013413,0.5294117647058824
0.00606053221235,0.5367647058823529
0.00613873262799,0.5441176470588235
0.00660793512185,0.5514705882352942
0.0189010528455,0.5588235294117647
0.0195432627352,0.5661764705882353
0.0266228365296,0.5735294117647058
0.0267487741414,0.5808823529411765
0.0268358608824,0.5882352941176471
0.0268914059986,0.5955882352941176
0.0269238622899,0.6029411764705882
0.0270106776717,0.6102941176470589
0.0271765244274,0.6176470588235294
0.0271978152475,0.625
0.0272367496474,0.6323529411764706
0.0272378655614,0.6397058823529411
0.0272386000601,0.6470588235294118
0.0272481401246,0.6544117647058824
0.0272509664768,0.6617647058823529
0.0272562328777,0.6691176470588235
0.0272644555096,0.6764705882352942
0.0272710570377,0.6838235294117647
0.0272904024624,0.6911764705882353
0.0273161260407,0.6985294117647058
0.0273288614593,0.7058823529411765
0.0273288800904,0.7132352941176471
0.0273290332944,0.7205882352941176
0.0273290390627,0.7279411764705882
0.0273292163839,0.7352941176470589
0.0273292202296,0.7426470588235294
0.0273292202296,0.75
0.681203503115,0.7573529411764706
0.681776425943,0.7647058823529411
0.717766139318,0.7720588235294118
1.35053388359,0.7794117647058824
1.35053388359,0.7867647058823529
1.36452012312,0.7941176470588235
1.36452012312,0.8014705882352942
2.04361050935,0.8088235294117647
2.27134547829,0.8161764705882353
2.27134547829,0.8235294117647058
2.27134547829,0.8308823529411765
2.69238622899,0.8382352941176471
2.72378655614,0.8455882352941176
2.72710570377,0.8529411764705882
2.73288800904,0.8602941176470589
2.73290390627,0.8676470588235294
2.73292202296,0.875
2.73292202296,0.8823529411764706
3.40506350913,0.8897058823529411
4.03411997182,0.8970588235294118
4.09096567408,0.9044117647058824
4.99112700304,0.9117647058823529
5.38152682885,0.9191176470588235
5.46580723571,0.9264705882352942
8.19876568431,0.9338235294117647
11.1238705083,0.9411764705882353
19.8121235009,0.9485294117647058
20.1831838377,0.9558823529411765
26.1796017064,0.9632352941176471
32.2611142913,0.9705882352941176
32.9961906683,0.9779411764705882
34.1512195759,0.9852941176470589
35.6710680824,0.9926470588235294
37.6253943559,1.0
