Congestion,CDF
0.0,0.007352941176470588
0.0,0.014705882352941176
0.0,0.022058823529411766
0.0,0.029411764705882353
0.0,0.03676470588235294
0.0,0.04411764705882353
0.0,0.051470588235294115
0.0,0.058823529411764705
0.0,0.0661764705882353
0.0,0.07352941176470588
0.0,0.08088235294117647
0.0,0.08823529411764706
0.0,0.09558823529411764
0.0,0.10294117647058823
4.53248691495e-06,0.11029411764705882
4.53248691495e-06,0.11764705882352941
4.53248691495e-06,0.125
4.53248691495e-06,0.1323529411764706
4.53248691495e-06,0.13970588235294118
4.53248691495e-06,0.14705882352941177
4.53248691495e-06,0.15441176470588236
4.53248691495e-06,0.16176470588235295
4.53248691495e-06,0.16911764705882354
4.53248691495e-06,0.17647058823529413
4.53248691495e-06,0.18382352941176472
4.53248691495e-06,0.19117647058823528
4.53248691495e-06,0.19852941176470587
4.53248691495e-06,0.20588235294117646
4.53248691495e-06,0.21323529411764705
4.53248691495e-06,0.22058823529411764
4.53248691495e-06,0.22794117647058823
4.53248691495e-06,0.23529411764705882
4.53248691495e-06,0.2426470588235294
4.53248691495e-06,0.25
4.53248691495e-06,0.25735294117647056
4.53248691495e-06,0.2647058823529412
4.53248691495e-06,0.27205882352941174
4.53248691495e-06,0.27941176470588236
4.53248691495e-06,0.2867647058823529
4.53248691495e-06,0.29411764705882354
4.53248691495e-06,0.3014705882352941
0.000113312172874,0.3088235294117647
0.000113312172874,0.3161764705882353
0.000122377146704,0.3235294117647059
0.000226624345748,0.33088235294117646
0.000226624345748,0.3382352941176471
0.000226624345748,0.34558823529411764
0.000226624345748,0.35294117647058826
0.000339936518621,0.3602941176470588
0.000377707242913,0.36764705882352944
0.000377707242913,0.375
0.000377707242913,0.38235294117647056
0.000453248691495,0.3897058823529412
0.000453248691495,0.39705882352941174
0.000453248691495,0.40441176470588236
0.000453248691495,0.4117647058823529
0.000453248691495,0.41911764705882354
0.000453248691495,0.4264705882352941
0.000453248691495,0.4338235294117647
0.000566560864369,0.4411764705882353
0.000679873037243,0.4485294117647059
0.000679873037243,0.45588235294117646
0.000830955934408,0.4632352941176471
0.00090649738299,0.47058823529411764
0.00090649738299,0.47794117647058826
0.00135974607449,0.4852941176470588
0.00185076549027,0.49264705882352944
0.00328605301334,0.5
0.00336159446192,0.5073529411764706
0.00434363329349,0.5147058823529411
0.00540121357365,0.5220588235294118
0.00547675502223,0.5294117647058824
0.00585446226514,0.5367647058823529
0.00593000371373,0.5441176470588235
0.00638325240522,0.5514705882352942
0.0258395098853,0.5588235294117647
0.0263562825524,0.5661764705882353
0.031805309948,0.5735294117647058
0.0319200689266,0.5808823529411765
0.0319682919345,0.5882352941176471
0.0320202781916,0.5955882352941176
0.0320455624812,0.6029411764705882
0.0321345198412,0.6102941176470589
0.0322975527736,0.6176470588235294
0.0323164689451,0.625
0.0323551176657,0.6323529411764706
0.0323560771949,0.6397058823529411
0.0323567963529,0.6470588235294118
0.0323663252063,0.6544117647058824
0.032369207005,0.6617647058823529
0.0323758286568,0.6691176470588235
0.0323829099119,0.6764705882352942
0.0323892186456,0.6838235294117647
0.0324086588283,0.6911764705882353
0.0324343110024,0.6985294117647058
0.032446998672,0.7058823529411765
0.0324470157833,0.7132352941176471
0.0324471686153,0.7205882352941176
0.0324471741342,0.7279411764705882
0.0324473515808,0.7352941176470589
0.0324473552603,0.7426470588235294
0.0324473552603,0.75
0.809158130159,0.7573529411764706
0.809730466139,0.7647058823529411
0.859628715256,0.7720588235294118
1.60672599206,0.7794117647058824
1.60672599206,0.7867647058823529
1.62043294141,0.7941176470588235
1.62043294141,0.8014705882352942
2.42747439048,0.8088235294117647
2.69786216313,0.8161764705882353
2.69786216313,0.8235294117647058
2.69786216313,0.8308823529411765
3.20455624812,0.8382352941176471
3.23560771949,0.8455882352941176
3.23892186456,0.8529411764705882
3.24470157833,0.8602941176470589
3.24471741342,0.8676470588235294
3.24473552603,0.875
3.24473552603,0.8823529411764706
4.04483776545,0.8897058823529411
4.80355518551,0.8970588235294118
4.85872393261,0.9044117647058824
5.92950905764,0.9117647058823529
6.40658406729,0.9191176470588235
6.48943427495,0.9264705882352942
9.73420621013,0.9338235294117647
13.2138194146,0.9411764705882353
23.5227723968,0.9485294117647058
23.9798097417,0.9558823529411765
31.0844986016,0.9632352941176471
38.3704799893,0.9705882352941176
39.1808053998,0.9779411764705882
40.9544309778,0.9852941176470589
42.3728122925,0.9926470588235294
45.0084405477,1.0
