Congestion,CDF
0.0,0.005555555555555556
0.0,0.011111111111111112
0.0,0.016666666666666666
0.0,0.022222222222222223
0.0,0.027777777777777776
0.0,0.03333333333333333
0.0,0.03888888888888889
0.0,0.044444444444444446
0.0,0.05
0.0,0.05555555555555555
1.05205402729e-06,0.06111111111111111
1.20875948084e-06,0.06666666666666667
2.72081744168e-06,0.07222222222222222
3.97663296079e-06,0.07777777777777778
4.06907411119e-06,0.08333333333333333
5.37257858436e-06,0.08888888888888889
5.91054751718e-06,0.09444444444444444
8.1460822754e-06,0.1
8.18810832146e-06,0.10555555555555556
8.37720341444e-06,0.1111111111111111
8.54961587257e-06,0.11666666666666667
9.41138041273e-06,0.12222222222222222
9.62967512379e-06,0.12777777777777777
1.07533992539e-05,0.13333333333333333
1.10136411942e-05,0.1388888888888889
1.15975044646e-05,0.14444444444444443
1.34103525403e-05,0.15
1.46763874809e-05,0.15555555555555556
1.53251047448e-05,0.16111111111111112
1.59387391139e-05,0.16666666666666666
1.619092269e-05,0.17222222222222222
1.63209572407e-05,0.17777777777777778
1.68616938351e-05,0.18333333333333332
1.74476055568e-05,0.18888888888888888
1.77421285972e-05,0.19444444444444445
1.79424938973e-05,0.2
1.80420389393e-05,0.20555555555555555
1.82492226381e-05,0.2111111111111111
1.84275505585e-05,0.21666666666666667
1.84679878797e-05,0.2222222222222222
1.90850507948e-05,0.22777777777777777
1.92442749647e-05,0.23333333333333334
1.94651872611e-05,0.2388888888888889
2.10797537685e-05,0.24444444444444444
2.21814131566e-05,0.25
2.40825627888e-05,0.25555555555555554
2.44640838483e-05,0.2611111111111111
2.4816139749e-05,0.26666666666666666
2.56565367346e-05,0.2722222222222222
9.06939147226e-05,0.2777777777777778
0.000181387829445,0.2833333333333333
0.000198831648039,0.28888888888888886
0.000198831648039,0.29444444444444445
0.000204702708036,0.3
0.000204702708036,0.3055555555555556
0.000309908110765,0.3111111111111111
0.000406907411119,0.31666666666666665
0.000409405416073,0.32222222222222224
0.000545095263235,0.3277777777777778
0.00081460822754,0.3333333333333333
0.000847165969202,0.3388888888888889
0.000897124694863,0.34444444444444444
0.000897124694863,0.35
0.00114584074931,0.35555555555555557
0.00174476055568,0.3611111111111111
0.00177421285972,0.36666666666666664
0.0018309273721,0.37222222222222223
0.00197246462025,0.37777777777777777
0.00208688566992,0.38333333333333336
0.00208688566992,0.3888888888888889
0.00237967644368,0.39444444444444443
0.00251488278797,0.4
0.00270417341213,0.40555555555555556
0.00289101939097,0.4111111111111111
0.00359155934366,0.4166666666666667
0.00379738688406,0.4222222222222222
0.0039953907494,0.42777777777777776
0.00491193503013,0.43333333333333335
0.00576689661738,0.4388888888888889
0.00603792809219,0.4444444444444444
0.00745577299263,0.45
0.00844618437107,0.45555555555555555
0.0104347657906,0.46111111111111114
0.0109585273299,0.4666666666666667
0.0150268735039,0.4722222222222222
0.0182815389836,0.4777777777777778
0.0191356302033,0.48333333333333334
0.0207360129197,0.4888888888888889
0.0208158385738,0.49444444444444446
0.0208218316479,0.5
0.0208471926571,0.5055555555555555
0.020879592638,0.5111111111111111
0.0209194895582,0.5166666666666667
0.0209310671324,0.5222222222222223
0.0209808855875,0.5277777777777778
0.0210868326736,0.5333333333333333
0.0210884453859,0.5388888888888889
0.0211022560584,0.5444444444444444
0.0211351774983,0.55
0.0211863764834,0.5555555555555556
0.0211963838661,0.5611111111111111
0.0212011958492,0.5666666666666667
0.0212172009741,0.5722222222222222
0.0212724764888,0.5777777777777777
0.0213363044059,0.5833333333333334
0.021353771519,0.5888888888888889
0.0213610789271,0.5944444444444444
0.0213841339009,0.6
0.021384495895,0.6055555555555555
0.0213918638201,0.6111111111111112
0.0214197822787,0.6166666666666667
0.021442097822,0.6222222222222222
0.0214534154947,0.6277777777777778
0.0214598611705,0.6333333333333333
0.0214610335284,0.6388888888888888
0.0214648691577,0.6444444444444445
0.0214727217065,0.65
0.0214810770692,0.6555555555555556
0.0215047162425,0.6611111111111111
0.0215192302704,0.6666666666666666
0.0215808866718,0.6722222222222223
0.0216227981967,0.6777777777777778
0.0216956024894,0.6833333333333333
0.021710130817,0.6888888888888889
0.0217236488439,0.6944444444444444
0.0217553800505,0.7
0.0224662849261,0.7055555555555556
0.0227123536135,0.7111111111111111
0.0240533888675,0.7166666666666667
0.025977816364,0.7222222222222222
0.026139967354,0.7277777777777777
0.0265688711157,0.7333333333333333
0.0269776876955,0.7388888888888889
0.0279406552079,0.7444444444444445
0.527211134647,0.75
0.527211134647,0.7555555555555555
0.695986421268,0.7611111111111111
0.809589485215,0.7666666666666667
1.04597447791,0.7722222222222223
1.04597447791,0.7777777777777778
1.05442226929,0.7833333333333333
1.07305167642,0.7888888888888889
1.07305167642,0.7944444444444444
1.39197284254,0.8
2.09310671324,0.8055555555555556
2.10868326736,0.8111111111111111
2.1442097822,0.8166666666666667
2.14534154947,0.8222222222222222
2.60879499203,0.8277777777777777
2.64072888448,0.8333333333333334
3.184387868,0.8388888888888889
3.19168932476,0.8444444444444444
3.22678715369,0.85
3.36919919142,0.8555555555555555
3.36919919142,0.8611111111111112
4.25119538042,0.8666666666666667
4.29231748911,0.8722222222222222
4.70688355078,0.8777777777777778
5.33896149541,0.8833333333333333
5.47034574634,0.8888888888888888
5.51967081567,0.8944444444444445
6.84299144348,0.9
9.806990593,0.9055555555555556
10.9217281025,0.9111111111111111
12.1766494143,0.9166666666666666
13.0319537084,0.9222222222222223
14.3462096632,0.9277777777777778
24.9854312172,0.9333333333333333
26.1485017295,0.9388888888888889
28.3240397345,0.9444444444444444
30.4632261165,0.95
31.3750761871,0.9555555555555556
33.5373560067,0.9611111111111111
35.7936001016,0.9666666666666667
36.7050505821,0.9722222222222222
37.8672013935,0.9777777777777777
38.8322982309,0.9833333333333333
38.9106779726,0.9888888888888889
40.9524178159,0.9944444444444445
42.0482705489,1.0
