Congestion,CDF
0.0,0.005555555555555556
0.0,0.011111111111111112
0.0,0.016666666666666666
0.0,0.022222222222222223
0.0,0.027777777777777776
0.0,0.03333333333333333
0.0,0.03888888888888889
0.0,0.044444444444444446
0.0,0.05
0.0,0.05555555555555555
1.06200935583e-06,0.06111111111111111
1.22019767456e-06,0.06666666666666667
2.74656386804e-06,0.07222222222222222
4.01426286058e-06,0.07777777777777778
4.10757875886e-06,0.08333333333333333
5.42341797431e-06,0.08888888888888889
5.96647757485e-06,0.09444444444444444
8.22316664874e-06,0.1
8.26559037693e-06,0.10555555555555556
8.45647483027e-06,0.1111111111111111
8.6305187851e-06,0.11666666666666667
9.50043799118e-06,0.12222222222222222
9.72079837141e-06,0.12777777777777777
1.08551560266e-05,0.13333333333333333
1.11178605724e-05,0.1388888888888889
1.17072487974e-05,0.14444444444444443
1.35372514086e-05,0.15
1.48152665265e-05,0.15555555555555556
1.54701224423e-05,0.16111111111111112
1.60895634826e-05,0.16666666666666666
1.63441334098e-05,0.17222222222222222
1.64753984455e-05,0.17777777777777778
1.70212518973e-05,0.18333333333333332
1.76127079576e-05,0.18888888888888888
1.79100179971e-05,0.19444444444444445
1.81122793047e-05,0.2
1.8212766317e-05,0.20555555555555555
1.84219105441e-05,0.2111111111111111
1.86019259378e-05,0.21666666666666667
1.86427459075e-05,0.2222222222222222
1.92656479372e-05,0.22777777777777777
1.94263788063e-05,0.23333333333333334
1.96493815414e-05,0.2388888888888889
2.12792262946e-05,0.24444444444444444
2.23913104145e-05,0.25
2.43104501582e-05,0.25555555555555554
2.46955814577e-05,0.2611111111111111
2.50509687767e-05,0.26666666666666666
2.58993182324e-05,0.2722222222222222
9.15521289347e-05,0.2777777777777778
0.000183104257869,0.2833333333333333
0.000200713143029,0.28888888888888886
0.000200713143029,0.29444444444444445
0.000206639759423,0.3
0.000206639759423,0.3055555555555556
0.000312840695007,0.3111111111111111
0.000410757875886,0.31666666666666665
0.000413279518846,0.32222222222222224
0.000550253365665,0.3277777777777778
0.000822316664874,0.3333333333333333
0.000855182492438,0.3388888888888889
0.000869333338997,0.34444444444444444
0.000905613965235,0.35
0.000905613965235,0.35555555555555557
0.00115668355854,0.3611111111111111
0.00135119666299,0.36666666666666664
0.00176127079576,0.37222222222222223
0.00179100179971,0.37777777777777777
0.00184825298758,0.38333333333333336
0.0019911295679,0.3888888888888889
0.00210663335582,0.39444444444444443
0.00210663335582,0.4
0.00240219473667,0.40555555555555556
0.00253868050535,0.4111111111111111
0.00272976234013,0.4166666666666667
0.00291837639652,0.4222222222222222
0.00362554538651,0.42777777777777776
0.00383332062231,0.43333333333333335
0.00403319814953,0.4388888888888889
0.0049584154634,0.4444444444444444
0.00582146734191,0.45
0.00609506352092,0.45555555555555555
0.00752632513897,0.46111111111111114
0.00852610853674,0.4666666666666667
0.0123304012274,0.4722222222222222
0.0124668904468,0.4777777777777778
0.0124742352563,0.48333333333333334
0.0125450392018,0.4888888888888889
0.0125948764261,0.49444444444444446
0.0126081436702,0.5
0.0126692061434,0.5055555555555555
0.012799077366,0.5111111111111111
0.012801052596,0.5166666666666667
0.0128179816181,0.5222222222222223
0.0128583366077,0.5277777777777778
0.0129032686659,0.5333333333333333
0.0129211117547,0.5388888888888889
0.0129333640169,0.5444444444444444
0.0129591001926,0.55
0.0130267184297,0.5555555555555556
0.013104879269,0.5611111111111111
0.0131352496002,0.5666666666666667
0.0131639595657,0.5722222222222222
0.0131651645019,0.5777777777777777
0.0131733226183,0.5833333333333334
0.0132072075112,0.5888888888888889
0.0132345770292,0.5944444444444444
0.013248435325,0.6
0.0132564263673,0.6055555555555555
0.0132577816796,0.6111111111111112
0.013262475994,0.6166666666666667
0.0132721156096,0.6222222222222222
0.0132823580083,0.6277777777777778
0.0133113200699,0.6333333333333333
0.0133291131368,0.6388888888888888
0.0134046966723,0.6444444444444445
0.0134561064951,0.65
0.0135453146297,0.6555555555555556
0.0135631335638,0.6611111111111111
0.0135796888303,0.6666666666666666
0.0136186608749,0.6722222222222223
0.0151690691126,0.6777777777777778
0.0184545326913,0.6833333333333333
0.0193167059662,0.6888888888888889
0.0210444645146,0.6944444444444444
0.0215558370076,0.7
0.0226788778555,0.7055555555555556
0.0229272750304,0.7111111111111111
0.0242810001713,0.7166666666666667
0.0262236380519,0.7222222222222222
0.0263873234369,0.7277777777777777
0.0268202858094,0.7333333333333333
0.0272329709199,0.7388888888888889
0.0282050507571,0.7444444444444445
0.3200263149,0.75
0.3200263149,0.7555555555555555
0.418167973393,0.7611111111111111
0.485501320974,0.7666666666666667
0.629743821307,0.7722222222222223
0.629743821307,0.7777777777777778
0.640052629799,0.7833333333333333
0.662889083978,0.7888888888888889
0.662889083978,0.7944444444444444
0.836335946785,0.8
1.26081436702,0.8055555555555556
1.2799077366,0.8111111111111111
1.32345770292,0.8166666666666667
1.3248435325,0.8222222222222222
1.56671535958,0.8277777777777777
1.60585997567,0.8333333333333334
1.94626027149,0.8388888888888889
1.95500025945,0.8444444444444444
1.99802151283,0.85
2.06384693065,0.8555555555555555
2.06384693065,0.8611111111111112
2.60128403425,0.8666666666666667
2.65169350375,0.8722222222222222
2.83363597391,0.8777777777777778
3.2822118204,0.8833333333333333
3.33451587597,0.8888888888888888
3.39497893765,0.8944444444444445
4.14716093393,0.9
6.04054322127,0.9055555555555556
6.64578633225,0.9111111111111111
7.4228690682,0.9166666666666666
7.92758449406,0.9222222222222223
8.77740053116,0.9277777777777778
15.2943753147,0.9333333333333333
16.0676192117,0.9388888888888889
17.4294852992,0.9444444444444444
18.746817561,0.95
19.2120553055,0.9555555555555556
20.5576659551,0.9611111111111111
22.0187204692,0.9666666666666667
22.4833197956,0.9722222222222222
23.251760592,0.9777777777777777
23.3386939259,0.9833333333333333
23.7859916386,0.9888888888888889
25.0763185052,0.9944444444444445
25.2114381715,1.0
