Congestion,CDF
0.0,0.005555555555555556
0.0,0.011111111111111112
0.0,0.016666666666666666
0.0,0.022222222222222223
0.0,0.027777777777777776
0.0,0.03333333333333333
0.0,0.03888888888888889
0.0,0.044444444444444446
0.0,0.05
0.0,0.05555555555555555
1.04735484644e-06,0.06111111111111111
1.20336034804e-06,0.06666666666666667
2.70866444109e-06,0.07222222222222222
3.95887064349e-06,0.07777777777777778
4.05089888954e-06,0.08333333333333333
5.34858103506e-06,0.08888888888888889
5.88414703682e-06,0.09444444444444444
8.10969639329e-06,0.1
8.15153472276e-06,0.10555555555555556
8.33978518988e-06,0.1111111111111111
8.51142753802e-06,0.11666666666666667
9.36934285815e-06,0.12222222222222222
9.58666251822e-06,0.12777777777777777
1.07053673406e-05,0.13333333333333333
1.09644468654e-05,0.1388888888888889
1.15457022097e-05,0.14444444444444443
1.33504528867e-05,0.15
1.46108328638e-05,0.15555555555555556
1.52566525201e-05,0.16111111111111112
1.58675459854e-05,0.16666666666666666
1.611860314e-05,0.17222222222222222
1.62480568689e-05,0.17777777777777778
1.678637817e-05,0.18333333333333332
1.7369672816e-05,0.18888888888888888
1.76628803184e-05,0.19444444444444445
1.78623506522e-05,0.2
1.79614510592e-05,0.20555555555555555
1.81677093362e-05,0.2111111111111111
1.83452407242e-05,0.21666666666666667
1.83854974252e-05,0.2222222222222222
1.89998041223e-05,0.22777777777777777
1.91583170899e-05,0.23333333333333334
1.93782426434e-05,0.2388888888888889
2.09855974109e-05,0.24444444444444444
2.20823360472e-05,0.25
2.39749938666e-05,0.25555555555555554
2.43548107965e-05,0.2611111111111111
2.47052941787e-05,0.26666666666666666
2.55419373861e-05,0.2722222222222222
9.0288814703e-05,0.2777777777777778
0.000180577629406,0.2833333333333333
0.000197943532174,0.28888888888888886
0.000197943532174,0.29444444444444445
0.000203788368069,0.3
0.000203788368069,0.3055555555555556
0.000308523852713,0.3111111111111111
0.000405089888954,0.31666666666666665
0.000407576736138,0.32222222222222224
0.000542660501184,0.3277777777777778
0.000810969639329,0.3333333333333333
0.000843381956219,0.3388888888888889
0.000893117532612,0.34444444444444444
0.000893117532612,0.35
0.00114072265388,0.35555555555555557
0.0017369672816,0.3611111111111111
0.00176628803184,0.36666666666666664
0.00182274921906,0.37222222222222223
0.00196365426667,0.37777777777777777
0.00207756423497,0.38333333333333336
0.00207756423497,0.3888888888888889
0.00236904720822,0.39444444444444443
0.00250364963005,0.4
0.00269209475497,0.40555555555555556
0.002878106154,0.4111111111111111
0.00357551702411,0.4166666666666667
0.00378042520029,0.4222222222222222
0.0039775446472,0.42777777777777776
0.00488999502475,0.43333333333333335
0.00574113777855,0.4388888888888889
0.00601095864451,0.4444444444444444
0.00742247049604,0.45
0.00840845803116,0.45555555555555555
0.0149597533805,0.46111111111111114
0.0181998813352,0.4666666666666667
0.0190501576091,0.4722222222222222
0.0207540750738,0.4777777777777778
0.0212583912138,0.48333333333333334
0.0223659353878,0.4888888888888889
0.0225200463839,0.49444444444444446
0.022610904967,0.5
0.0229555058727,0.5055555555555555
0.0239459502556,0.5111111111111111
0.0258617819646,0.5166666666666667
0.0260232086793,0.5222222222222223
0.0264501966683,0.5277777777777778
0.0268571871983,0.5333333333333333
0.0278158534501,0.5388888888888889
0.0302926209533,0.5444444444444444
0.030357493576,0.55
0.0303619418097,0.5555555555555556
0.0304047965651,0.5611111111111111
0.030432537409,0.5666666666666667
0.0304429796197,0.5722222222222222
0.0304799478091,0.5777777777777777
0.0305585530222,0.5833333333333334
0.0305597514314,0.5888888888888889
0.0305699982747,0.5944444444444444
0.0305944242304,0.6
0.0306323932701,0.6055555555555555
0.0306392333289,0.6111111111111112
0.0306398351223,0.6166666666666667
0.0306549326531,0.6222222222222222
0.0306939073105,0.6277777777777778
0.0307436474194,0.6333333333333333
0.0307620267282,0.6388888888888888
0.0307757984042,0.6444444444444445
0.0307793943642,0.65
0.0307843321183,0.6555555555555556
0.0308055820114,0.6611111111111111
0.0308221214989,0.6666666666666666
0.0308305356877,0.6722222222222223
0.0308322785772,0.6777777777777778
0.0308361784726,0.6833333333333333
0.0308390327624,0.6888888888888889
0.0308448428518,0.6944444444444444
0.0308510415757,0.7
0.0308685975822,0.7055555555555556
0.0308793641327,0.7111111111111111
0.0309251037501,0.7166666666666667
0.0309561557648,0.7222222222222222
0.0310102171452,0.7277777777777777
0.0310209843966,0.7333333333333333
0.0310310317166,0.7388888888888889
0.031054479765,0.7444444444444445
0.763993785786,0.75
0.763993785786,0.7555555555555555
1.01349321884,0.7611111111111111
1.18204364537,0.7666666666666667
1.52162687045,0.7722222222222223
1.52162687045,0.7777777777777778
1.52798757157,0.7833333333333333
1.54180892363,0.7888888888888889
1.54180892363,0.7944444444444444
2.02698643767,0.8
3.04429796197,0.8055555555555556
3.05585530222,0.8111111111111111
3.08221214989,0.8166666666666667
3.08305356877,0.8222222222222222
3.79974314338,0.8277777777777777
3.82343620883,0.8333333333333334
4.59920671087,0.8388888888888889
4.60504825064,0.8444444444444444
4.63109074323,0.85
4.86103034657,0.8555555555555555
4.86103034657,0.8611111111111112
6.13680833698,0.8666666666666667
6.16731630746,0.8722222222222222
6.84773792429,0.8777777777777778
7.68953253582,0.8833333333333333
7.91129416961,0.8888888888888888
7.94789010478,0.8944444444444445
9.92394059712,0.9
14.1115018747,0.9055555555555556
15.8085186971,0.9111111111111111
17.6095412362,0.9166666666666666
18.8655185246,0.9222222222222223
20.7105629508,0.9277777777777778
36.0609236755,0.9333333333333333
37.6695102337,0.9388888888888889
40.7749582102,0.9444444444444444
43.853391422,0.95
45.2756714489,0.9555555555555556
48.3712870254,0.9611111111111111
51.5358259906,0.9666666666666667
52.9584071612,0.9722222222222222
54.5650880859,0.9777777777777777
56.0277978922,0.9833333333333333
56.8170927243,0.9888888888888889
59.0917212251,0.9944444444444445
61.3872718124,1.0
