Congestion,CDF
0.0,0.005555555555555556
0.0,0.011111111111111112
0.0,0.016666666666666666
0.0,0.022222222222222223
0.0,0.027777777777777776
0.0,0.03333333333333333
0.0,0.03888888888888889
0.0,0.044444444444444446
0.0,0.05
0.0,0.05555555555555555
1.04447085321e-06,0.06111111111111111
1.20004677853e-06,0.06666666666666667
2.70120587065e-06,0.07222222222222222
3.94796950892e-06,0.07777777777777778
4.03974434626e-06,0.08333333333333333
5.33385319804e-06,0.08888888888888889
5.86794446683e-06,0.09444444444444444
8.08736555714e-06,0.1
8.1290886807e-06,0.10555555555555556
8.31682078189e-06,0.1111111111111111
8.48799049617e-06,0.11666666666666667
9.3435434632e-06,0.12222222222222222
9.56026471249e-06,0.12777777777777777
1.06758890725e-05,0.13333333333333333
1.09342551967e-05,0.1388888888888889
1.15139099981e-05,0.14444444444444443
1.33136911188e-05,0.15
1.45706005174e-05,0.15555555555555556
1.52146418465e-05,0.16111111111111112
1.58238531574e-05,0.16666666666666666
1.60742190018e-05,0.17222222222222222
1.62033162673e-05,0.17777777777777778
1.67401552484e-05,0.18333333333333332
1.7321843736e-05,0.18888888888888888
1.76142438631e-05,0.19444444444444445
1.7813164936e-05,0.2
1.79119924604e-05,0.20555555555555555
1.81176827852e-05,0.2111111111111111
1.82947253232e-05,0.21666666666666667
1.83348711735e-05,0.2222222222222222
1.89474863175e-05,0.22777777777777777
1.91055628043e-05,0.23333333333333334
1.93248827714e-05,0.2388888888888889
2.09278115316e-05,0.24444444444444444
2.20215301916e-05,0.25
2.39089763939e-05,0.25555555555555554
2.4287747461e-05,0.2611111111111111
2.46372657532e-05,0.26666666666666666
2.54716051824e-05,0.2722222222222222
9.00401956882e-05,0.2777777777777778
0.000180080391376,0.2833333333333333
0.000197398475446,0.28888888888888886
0.000197398475446,0.29444444444444445
0.000203227217018,0.3
0.000203227217018,0.3055555555555556
0.000307674302339,0.3111111111111111
0.000403974434626,0.31666666666666665
0.000406454434035,0.32222222222222224
0.000541166232823,0.3277777777777778
0.000808736555714,0.3333333333333333
0.000841059622143,0.3388888888888889
0.000890658246799,0.34444444444444444
0.000890658246799,0.35
0.00113758156334,0.35555555555555557
0.0017321843736,0.3611111111111111
0.00176142438631,0.36666666666666664
0.00181773010217,0.37222222222222223
0.00195824715405,0.37777777777777777
0.0020718434602,0.38333333333333336
0.0020718434602,0.3888888888888889
0.0023625238068,0.39444444444444443
0.00249675558779,0.4
0.00268468181076,0.40555555555555556
0.00287018100936,0.4111111111111111
0.00356567149095,0.4166666666666667
0.00377001543257,0.4222222222222222
0.00396659209195,0.42777777777777776
0.00487652994882,0.43333333333333335
0.00572532899844,0.4388888888888889
0.00599440688645,0.4444444444444444
0.0074020320031,0.45
0.00838530452584,0.45555555555555555
0.0149185602476,0.46111111111111114
0.0181497661955,0.4666666666666667
0.0189977011511,0.4722222222222222
0.0206969267137,0.4777777777777778
0.0211998541703,0.48333333333333334
0.0223043486139,0.4888888888888889
0.0225486436455,0.49444444444444446
0.0238800127574,0.5
0.0257905690378,0.5055555555555555
0.0259515512484,0.5111111111111111
0.0263773634845,0.5166666666666667
0.0267832333266,0.5222222222222223
0.0277392597978,0.5277777777777778
0.037436619173,0.5333333333333333
0.0377222304733,0.5388888888888889
0.0421870053693,0.5444444444444444
0.0422845623287,0.55
0.0422870795118,0.5555555555555556
0.0423113014739,0.5611111111111111
0.0423236203283,0.5666666666666667
0.0423328702265,0.5722222222222222
0.0423537755861,0.5777777777777777
0.0423916985144,0.5833333333333334
0.0423982034579,0.5888888888888889
0.0423988839883,0.5944444444444444
0.0424046760451,0.6
0.0424184826456,0.6055555555555555
0.0424399142507,0.6111111111111112
0.0424441491924,0.6166666666666667
0.0424520639896,0.6222222222222222
0.0424694380097,0.6277777777777778
0.0425028261863,0.6333333333333333
0.0425132114797,0.6388888888888888
0.0425148892793,0.6444444444444445
0.0425230174239,0.65
0.0425248662382,0.6555555555555556
0.0425378316772,0.6611111111111111
0.0425461915758,0.6666666666666666
0.04254715109,0.6722222222222223
0.0425519359288,0.6777777777777778
0.0425551096516,0.6833333333333333
0.0425567372674,0.6888888888888889
0.0425599942737,0.6944444444444444
0.0425634971967,0.7
0.0425734492568,0.7055555555555556
0.0425795314603,0.7111111111111111
0.0426053750922,0.7166666666666667
0.0426228517909,0.7222222222222222
0.0426534854612,0.7277777777777777
0.0426595513123,0.7333333333333333
0.0426652603074,0.7388888888888889
0.0426783527058,0.7444444444444445
1.05997209971,0.75
1.05997209971,0.7555555555555555
1.4103767158,0.7611111111111111
1.64709169122,0.7666666666666667
2.11618101642,0.7722222222222223
2.11618101642,0.7777777777777778
2.11994419942,0.7833333333333333
2.12775548258,0.7888888888888889
2.12775548258,0.7944444444444444
2.8207534316,0.8
4.23328702265,0.8055555555555556
4.23982034579,0.8111111111111111
4.254715109,0.8166666666666667
4.25519359288,0.8222222222222222
5.28842833257,0.8277777777777777
5.30182036427,0.8333333333333334
6.36766994435,0.8388888888888889
6.37174690765,0.8444444444444444
6.38647023016,0.85
6.7258192905,0.8555555555555555
6.7258192905,0.8611111111111112
8.49382453187,0.8666666666666667
8.51106482867,0.8722222222222222
9.52380589118,0.8777777777777778
10.627746335,0.8833333333333333
10.9624796987,0.8888888888888888
10.9831642162,0.8944444444444445
13.7751270392,0.9
19.4921409768,0.9055555555555556
21.9170069404,0.9111111111111111
24.4006560135,0.9166666666666666
26.1574745449,0.9222222222222223
28.6660045597,0.9277777777777778
49.9052892484,0.9333333333333333
52.0707708546,0.9388888888888889
56.3386061252,0.9444444444444444
60.591092749,0.95
62.6514155227,0.9555555555555556
66.9137007018,0.9611111111111111
71.2133818509,0.9666666666666667
73.2750881171,0.9722222222222222
75.4320823879,0.9777777777777777
77.5220319181,0.9833333333333333
79.1757443052,0.9888888888888889
81.7612017696,0.9944444444444445
85.5334248169,1.0
