Congestion,CDF
0.0,0.005555555555555556
0.0,0.011111111111111112
0.0,0.016666666666666666
0.0,0.022222222222222223
0.0,0.027777777777777776
0.0,0.03333333333333333
0.0,0.03888888888888889
0.0,0.044444444444444446
0.0,0.05
0.0,0.05555555555555555
1.0469678158e-06,0.06111111111111111
1.20291566846e-06,0.06666666666666667
2.70766350418e-06,0.07222222222222222
3.95740771597e-06,0.07777777777777778
4.04940195468e-06,0.08333333333333333
5.34660456574e-06,0.08888888888888889
5.88197265897e-06,0.09444444444444444
8.10669960479e-06,0.1
8.14852247367e-06,0.10555555555555556
8.33670337631e-06,0.1111111111111111
8.50828229719e-06,0.11666666666666667
9.36588059057e-06,0.12222222222222222
9.58311994417e-06,0.12777777777777777
1.07014113698e-05,0.13333333333333333
1.09603951566e-05,0.1388888888888889
1.15414357087e-05,0.14444444444444443
1.33455194734e-05,0.15
1.46054337004e-05,0.15555555555555556
1.52510147059e-05,0.16111111111111112
1.58616824268e-05,0.16666666666666666
1.6112646808e-05,0.17222222222222222
1.62420526996e-05,0.17777777777777778
1.6780175074e-05,0.18333333333333332
1.73632541742e-05,0.18888888888888888
1.76563533272e-05,0.19444444444444445
1.78557499505e-05,0.2
1.79548137367e-05,0.20555555555555555
1.81609957948e-05,0.2111111111111111
1.83384615793e-05,0.21666666666666667
1.83787034042e-05,0.2222222222222222
1.89927830956e-05,0.22777777777777777
1.91512374878e-05,0.23333333333333334
1.93710817718e-05,0.2388888888888889
2.09778425711e-05,0.24444444444444444
2.20741759278e-05,0.25
2.39661343504e-05,0.25555555555555554
2.4345810926e-05,0.2611111111111111
2.46961647935e-05,0.26666666666666666
2.5532498835e-05,0.2722222222222222
9.02554501393e-05,0.2777777777777778
0.000180510900279,0.2833333333333333
0.000197870385798,0.28888888888888886
0.000197870385798,0.29444444444444445
0.000203713061842,0.3
0.000203713061842,0.3055555555555556
0.000308409843422,0.3111111111111111
0.000404940195468,0.31666666666666665
0.000407426123684,0.32222222222222224
0.00054245997102,0.3277777777777778
0.000810669960479,0.3333333333333333
0.000843070299996,0.3388888888888889
0.000892787497525,0.34444444444444444
0.000892787497525,0.35
0.0011403011209,0.35555555555555557
0.00173632541742,0.3611111111111111
0.00176563533272,0.36666666666666664
0.00182207565576,0.37222222222222223
0.00196292863451,0.37777777777777777
0.00207679650949,0.38333333333333336
0.00207679650949,0.3888888888888889
0.00236817177059,0.39444444444444443
0.00250272445257,0.4
0.00269109994108,0.40555555555555556
0.00287704260304,0.4111111111111111
0.00357419575784,0.4166666666666667
0.00377902821399,0.4222222222222222
0.00397607481905,0.42777777777777776
0.00488818801741,0.43333333333333335
0.00573901624713,0.4388888888888889
0.00600873740577,0.4444444444444444
0.00741972765917,0.45
0.00840535084082,0.45555555555555555
0.01495422528,0.46111111111111114
0.0181931559052,0.4666666666666667
0.0190431179752,0.4722222222222222
0.0207464057887,0.4777777777777778
0.021250535568,0.48333333333333334
0.0223576704695,0.4888888888888889
0.0226025495247,0.49444444444444446
0.023937101472,0.5
0.0240334268896,0.5055555555555555
0.0244541825159,0.5111111111111111
0.0258522252208,0.5166666666666667
0.0260135922832,0.5222222222222223
0.0264404224867,0.5277777777777778
0.0268472626209,0.5333333333333333
0.0278055746153,0.5388888888888889
0.0314839607913,0.5444444444444444
0.0315502004512,0.55
0.0315544555799,0.5555555555555556
0.031595447056,0.5611111111111111
0.0316216505535,0.5666666666666667
0.0316319686804,0.5722222222222222
0.0316673305868,0.5777777777777777
0.0317425180658,0.5833333333333334
0.0317436646871,0.5888888888888889
0.0317534660517,0.5944444444444444
0.031776830072,0.6
0.0318131453682,0.6055555555555555
0.0318161370098,0.6111111111111112
0.0318202665293,0.6166666666666667
0.0318346466458,0.6222222222222222
0.0318714991946,0.6277777777777778
0.0319195652961,0.6333333333333333
0.0319371452034,0.6388888888888888
0.0319497201279,0.6444444444444445
0.0319537566706,0.65
0.0319583868548,0.6555555555555556
0.031978806978,0.6611111111111111
0.0319946244581,0.6666666666666666
0.0320026757118,0.6722222222222223
0.0320037194932,0.6777777777777778
0.0320080715905,0.6833333333333333
0.0320108032129,0.6888888888888889
0.0320163579941,0.6944444444444444
0.032022287138,0.7
0.0320390827497,0.7055555555555556
0.0320493808654,0.7111111111111111
0.0320931308844,0.7166666666666667
0.0321228253873,0.7222222222222222
0.0321745439768,0.7277777777777777
0.0321848410892,0.7333333333333333
0.0321944545757,0.7388888888888889
0.0322168670954,0.7444444444444445
0.793591617178,0.75
0.793591617178,0.7555555555555555
1.05318156853,0.7611111111111111
1.22859584408,0.7666666666666667
1.58108252768,0.7722222222222223
1.58108252768,0.7777777777777778
1.58718323436,0.7833333333333333
1.60040357953,0.7888888888888889
1.60040357953,0.7944444444444444
2.10636313707,0.8
3.16319686804,0.8055555555555556
3.17425180658,0.8111111111111111
3.19946244581,0.8166666666666667
3.20026757118,0.8222222222222222
3.9486116623,0.8277777777777777
3.97127462437,0.8333333333333334
4.77605454047,0.8388888888888889
4.78171811634,0.8444444444444444
4.80662869192,0.85
5.04750924096,0.8555555555555555
5.04750924096,0.8611111111111112
6.37250995648,0.8666666666666667
6.4016911596,0.8722222222222222
7.11534472098,0.8777777777777778
7.98335391575,0.8833333333333333
8.21641272252,0.8888888888888888
8.25141751592,0.8944444444444445
10.3090592413,0.9
14.6495657849,0.9055555555555556
16.4193675215,0.9111111111111111
18.288652714,0.9166666666666666
19.5947141266,0.9222222222222223
21.5061071117,0.9277777777777778
37.4453602328,0.9333333333333333
39.1096362959,0.9388888888888889
42.3313230055,0.9444444444444444
45.527161691,0.95
47.0132458564,0.9555555555555556
50.2255283951,0.9611111111111111
53.5035881807,0.9666666666666667
54.9900755874,0.9722222222222222
56.6519842599,0.9777777777777777
58.1772255068,0.9833333333333333
59.0553269488,0.9888888888888889
61.3588392078,0.9944444444444445
63.8042574594,1.0
