Congestion,CDF
0.0,0.005555555555555556
0.0,0.011111111111111112
0.0,0.016666666666666666
0.0,0.022222222222222223
0.0,0.027777777777777776
0.0,0.03333333333333333
0.0,0.03888888888888889
0.0,0.044444444444444446
0.0,0.05
0.0,0.05555555555555555
1.04777370194e-06,0.06111111111111111
1.20384159287e-06,0.06666666666666667
2.70974768333e-06,0.07222222222222222
3.96045386503e-06,0.07777777777777778
4.05251891479e-06,0.08333333333333333
5.35072002608e-06,0.08888888888888889
5.88650021003e-06,0.09444444444444444
8.11293960258e-06,0.1
8.15479466393e-06,0.10555555555555556
8.3431204157e-06,0.1111111111111111
8.51483140661e-06,0.11666666666666667
9.37308982208e-06,0.12222222222222222
9.59049639207e-06,0.12777777777777777
1.0709648604e-05,0.13333333333333333
1.09688317393e-05,0.1388888888888889
1.15503195378e-05,0.14444444444444443
1.33557919661e-05,0.15
1.46166759912e-05,0.15555555555555556
1.5262753922e-05,0.16111111111111112
1.58738916943e-05,0.16666666666666666
1.61250492511e-05,0.17222222222222222
1.62545547508e-05,0.17777777777777778
1.67930913359e-05,0.18333333333333332
1.73766192516e-05,0.18888888888888888
1.76699440129e-05,0.19444444444444445
1.78694941184e-05,0.2
1.79686341573e-05,0.20555555555555555
1.81749749206e-05,0.2111111111111111
1.83525773065e-05,0.21666666666666667
1.83928501068e-05,0.2222222222222222
1.90074024759e-05,0.22777777777777777
1.91659788357e-05,0.23333333333333334
1.93859923413e-05,0.2388888888888889
2.0993989918e-05,0.24444444444444444
2.20911671593e-05,0.25
2.39845818855e-05,0.25555555555555554
2.43645507109e-05,0.2611111111111111
2.47151742575e-05,0.26666666666666666
2.55521520532e-05,0.2722222222222222
9.03249227777e-05,0.2777777777777778
0.000180649845555,0.2833333333333333
0.000198022693252,0.28888888888888886
0.000198022693252,0.29444444444444445
0.000203869866598,0.3
0.000203869866598,0.3055555555555556
0.000308647236793,0.3111111111111111
0.000405251891479,0.31666666666666665
0.000407739733196,0.32222222222222224
0.000542877520601,0.3277777777777778
0.000811293960258,0.3333333333333333
0.0008437192394,0.3388888888888889
0.000893474705919,0.34444444444444444
0.000893474705919,0.35
0.00114117884881,0.35555555555555557
0.00173766192516,0.3611111111111111
0.00176699440129,0.36666666666666664
0.00182347816833,0.37222222222222223
0.00196443956632,0.37777777777777777
0.00207839508921,0.38333333333333336
0.00207839508921,0.3888888888888889
0.0023699946316,0.39444444444444443
0.00250465088328,0.4
0.0026931713707,0.40555555555555556
0.00287925715895,0.4111111111111111
0.00357694693585,0.4166666666666667
0.00378193705838,0.4222222222222222
0.0039791353368,0.42777777777777776
0.0048919506192,0.43333333333333335
0.00574343375986,0.4388888888888889
0.0060133625319,0.4444444444444444
0.00742543887169,0.45
0.00841182072046,0.45555555555555555
0.0149657360473,0.46111111111111114
0.0182071597858,0.4666666666666667
0.0190577761,0.4722222222222222
0.0207623749911,0.4777777777777778
0.021002591625,0.48333333333333334
0.0212668928159,0.4888888888888889
0.0214524307908,0.49444444444444446
0.0223748799162,0.5
0.0226199474629,0.5055555555555555
0.0239555266596,0.5111111111111111
0.0258721245431,0.5166666666666667
0.0260336158152,0.5222222222222223
0.0264607745641,0.5277777777777778
0.0268679278567,0.5333333333333333
0.027826977496,0.5388888888888889
0.029100674448,0.5444444444444444
0.0291647867007,0.55
0.0291694280394,0.5555555555555556
0.0292141460742,0.5611111111111111
0.0292434221361,0.5666666666666667
0.029253990559,0.5722222222222222
0.0292925650314,0.5777777777777777
0.0293745879787,0.5833333333333334
0.0293758381757,0.5888888888888889
0.0293865304977,0.5944444444444444
0.0294120183889,0.6
0.0294516411719,0.6055555555555555
0.0294594037152,0.6111111111111112
0.0294617987586,0.6166666666666667
0.0294752183199,0.6222222222222222
0.0295163015594,0.6277777777777778
0.0295677295427,0.6333333333333333
0.0295869082531,0.6388888888888888
0.029601871667,0.6444444444444445
0.0296050320575,0.65
0.0296102768566,0.6555555555555556
0.0296323570448,0.6611111111111111
0.0296496185397,0.6666666666666666
0.0296583956635,0.6722222222222223
0.0296608199292,0.6777777777777778
0.0296642853547,0.6833333333333333
0.0296672623119,0.6888888888888889
0.0296733277094,0.6944444444444444
0.0296797960133,0.7
0.0296981124147,0.7055555555555556
0.0297093473999,0.7111111111111111
0.0297570766157,0.7166666666666667
0.0297894861336,0.7222222222222222
0.0298458903135,0.7277777777777777
0.0298571277035,0.7333333333333333
0.0298676088575,0.7388888888888889
0.0298920924187,0.7444444444444445
0.734395954393,0.75
0.734395954393,0.7555555555555555
0.973804869141,0.7611111111111111
1.13548179677,0.7666666666666667
1.46217110681,0.7722222222222223
1.46217110681,0.7777777777777778
1.46879190879,0.7833333333333333
1.48321426773,0.7888888888888889
1.48321426773,0.7944444444444444
1.94760973828,0.8
2.9253990559,0.8055555555555556
2.93745879787,0.8111111111111111
2.96496185397,0.8166666666666667
2.96583956635,0.8222222222222222
3.65087462446,0.8277777777777777
3.67559779329,0.8333333333333334
4.4223582735,0.8388888888888889
4.42837838493,0.8444444444444444
4.45555279454,0.85
4.67455145217,0.8555555555555555
4.67455145217,0.8611111111111112
5.90110671747,0.8666666666666667
5.9329414553,0.8722222222222222
6.5801311276,0.8777777777777778
7.39571115587,0.8833333333333333
7.6061756167,0.8888888888888888
7.64436269364,0.8944444444444445
9.53882195291,0.9
13.5734379645,0.9055555555555556
15.1976698728,0.9111111111111111
16.9304297585,0.9166666666666666
18.1363229226,0.9222222222222223
19.9150187899,0.9277777777777778
34.6764871183,0.9333333333333333
36.2293841714,0.9388888888888889
39.2185934132,0.9444444444444444
42.1796210989,0.95
43.5380970415,0.9555555555555556
46.5170456548,0.9611111111111111
49.5680613653,0.9666666666666667
50.9267385936,0.9722222222222222
52.4781288101,0.9777777777777777
53.8783687496,0.9833333333333333
54.5783879726,0.9888888888888889
56.8245486254,0.9944444444444445
58.9697917045,1.0
