Congestion,CDF
0.00068385676062,0.007352941176470588
0.00068385676062,0.014705882352941176
0.000683856785948,0.022058823529411766
0.000683856785948,0.029411764705882353
0.000683856785948,0.03676470588235294
0.000683856785948,0.04411764705882353
0.000683856811276,0.051470588235294115
0.000683856811276,0.058823529411764705
0.000683856811276,0.0661764705882353
0.000683856811276,0.07352941176470588
0.000683856836604,0.08088235294117647
0.000683856836604,0.08823529411764706
0.000683856836604,0.09558823529411764
0.000683856836604,0.10294117647058823
0.000683856861932,0.11029411764705882
0.000683856861932,0.11764705882352941
0.000683856861932,0.125
0.000683856861932,0.1323529411764706
0.000683856861932,0.13970588235294118
0.000683856861932,0.14705882352941177
0.000683856861932,0.15441176470588236
0.000683856861932,0.16176470588235295
0.00068385688726,0.16911764705882354
0.00068385688726,0.17647058823529413
0.00068385688726,0.18382352941176472
0.00068385688726,0.19117647058823528
0.00068385688726,0.19852941176470587
0.00068385688726,0.20588235294117646
0.00068385688726,0.21323529411764705
0.00068385688726,0.22058823529411764
0.00068385688726,0.22794117647058823
0.00068385688726,0.23529411764705882
0.00068385688726,0.2426470588235294
0.00068385688726,0.25
0.00068385688726,0.25735294117647056
0.00068385688726,0.2647058823529412
0.00068385688726,0.27205882352941174
0.00068385688726,0.27941176470588236
0.00068385688726,0.2867647058823529
0.00068385688726,0.29411764705882354
0.00068385688726,0.3014705882352941
0.00068385688726,0.3088235294117647
0.00068385688726,0.3161764705882353
0.00068385688726,0.3235294117647059
0.000683856912588,0.33088235294117646
0.000683856912588,0.3382352941176471
0.000683856912588,0.34558823529411764
0.000683856912588,0.35294117647058826
0.000683856937916,0.3602941176470588
0.000683856937916,0.36764705882352944
0.000683856963244,0.375
0.000683856963244,0.38235294117647056
0.000683856963244,0.3897058823529412
0.000683856963244,0.39705882352941174
0.0006838570139,0.40441176470588236
0.0006838570139,0.4117647058823529
0.00506560638468,0.41911764705882354
0.00506560638468,0.4264705882352941
0.0113976143655,0.4338235294117647
0.0113976143655,0.4411764705882353
0.0236394922405,0.4485294117647059
0.0236394922405,0.45588235294117646
0.0236394947733,0.4632352941176471
0.0236394947733,0.47058823529411764
0.0293383019561,0.47794117647058826
0.0293383019561,0.4852941176470588
0.0320821754582,0.49264705882352944
0.0320821754582,0.5
0.0325043059465,0.5073529411764706
0.0325043059465,0.5147058823529411
0.0352481794486,0.5220588235294118
0.0352481794486,0.5294117647058824
0.0382031156621,0.5367647058823529
0.0382031156621,0.5441176470588235
0.0384141885046,0.5514705882352942
0.0384141885046,0.5588235294117647
0.0460126031473,0.5661764705882353
0.0460126031473,0.5735294117647058
0.0468568539927,0.5808823529411765
0.0468568539927,0.5882352941176471
0.0512892646449,0.5955882352941176
0.0512892646449,0.6029411764705882
0.0582544759566,0.6102941176470589
0.0582544759566,0.6176470588235294
0.0633200848741,0.625
0.0633200848741,0.6323529411764706
0.0645864788719,0.6397058823529411
0.0645864788719,0.6470588235294118
0.0650086093602,0.6544117647058824
0.0650086093602,0.6617647058823529
0.0666971389119,0.6691176470588235
0.0666971389119,0.6764705882352942
0.0671192871298,0.6838235294117647
0.0671192871298,0.6911764705882353
0.068385688726,0.6985294117647058
0.068385688726,0.7058823529411765
0.0734512951107,0.7132352941176471
0.0734512951107,0.7205882352941176
0.0753509000378,0.7279411764705882
0.0753509000378,0.7352941176470589
0.0759840881718,0.7426470588235294
0.0759840881718,0.75
0.0804165038896,0.7573529411764706
0.0804165038896,0.7647058823529411
0.0827382367722,0.7720588235294118
0.0827382367722,0.7794117647058824
0.0928694495416,0.7867647058823529
0.0928694495416,0.7941176470588235
0.0935026554052,0.8014705882352942
0.0935026554052,0.8088235294117647
0.0964575890859,0.8161764705882353
0.0964575890859,0.8235294117647058
0.0966686619285,0.8308823529411765
0.0966686619285,0.8382352941176471
0.0992014549897,0.8455882352941176
0.0992014549897,0.8529411764705882
0.111865483615,0.8602941176470589
0.111865483615,0.8676470588235294
0.122207756563,0.875
0.122207756563,0.8823529411764706
0.123896283582,0.8897058823529411
0.123896283582,0.8970588235294118
0.134238566661,0.9044117647058824
0.134238566661,0.9117647058823529
0.151334990742,0.9191176470588235
0.151334990742,0.9264705882352942
0.152812465181,0.9338235294117647
0.152812465181,0.9411764705882353
0.178562632658,0.9485294117647058
0.178562632658,0.9558823529411765
0.18939739202,0.9632352941176471
0.18939739202,0.9705882352941176
0.231962564942,0.9779411764705882
0.231962564942,0.9852941176470589
0.263200469292,0.9926470588235294
0.263200469292,1.0
