Congestion,CDF
0.0,0.009433962264150943
0.0,0.018867924528301886
0.0,0.02830188679245283
0.0,0.03773584905660377
0.0,0.04716981132075472
0.0,0.05660377358490566
0.0,0.0660377358490566
0.0,0.07547169811320754
0.0,0.08490566037735849
0.0,0.09433962264150944
0.0,0.10377358490566038
0.0,0.11320754716981132
0.0,0.12264150943396226
0.0,0.1320754716981132
0.0,0.14150943396226415
0.0,0.1509433962264151
0.0,0.16037735849056603
0.0,0.16981132075471697
0.0,0.1792452830188679
0.0,0.18867924528301888
0.0,0.19811320754716982
0.0,0.20754716981132076
0.0,0.2169811320754717
0.0,0.22641509433962265
0.0,0.2358490566037736
0.0,0.24528301886792453
0.0,0.25471698113207547
0.0,0.2641509433962264
0.0,0.27358490566037735
0.0,0.2830188679245283
5.07357447688e-08,0.29245283018867924
1.30707519666e-06,0.3018867924528302
1.46982878091e-06,0.3113207547169811
1.992594151e-06,0.32075471698113206
2.24927928364e-06,0.330188679245283
2.9929452185e-06,0.33962264150943394
4.56428745918e-06,0.3490566037735849
5.84252906151e-06,0.3584905660377358
6.18323322416e-06,0.36792452830188677
7.21169558668e-06,0.37735849056603776
7.60590712598e-06,0.3867924528301887
8.87932433283e-06,0.39622641509433965
9.08278288246e-06,0.4056603773584906
9.58322978084e-06,0.41509433962264153
6.14095407032e-05,0.42452830188679247
7.07359645181e-05,0.4339622641509434
8.41765842704e-05,0.44339622641509435
8.41765842704e-05,0.4528301886792453
0.000219094839806,0.46226415094339623
0.000219094839806,0.4716981132075472
0.000219094839806,0.4811320754716981
0.000224470891388,0.49056603773584906
0.000224470891388,0.5
0.000224470891388,0.5094339622641509
0.000346551008931,0.5188679245283019
0.000413853451978,0.5283018867924528
0.000413853451978,0.5377358490566038
0.000438189679613,0.5471698113207547
0.000438189679613,0.5566037735849056
0.000597778245301,0.5660377358490566
0.000761980053283,0.5754716981132075
0.000761980053283,0.5849056603773585
0.000944111451844,0.5943396226415094
0.000944111451844,0.6037735849056604
0.00119230578014,0.6132075471698113
0.00145019929066,0.6226415094339622
0.00195990056601,0.6320754716981132
0.0022817721378,0.6415094339622641
0.00305616515024,0.6509433962264151
0.00310033815253,0.660377358490566
0.00661831806166,0.6698113207547169
0.00855400367091,0.6792452830188679
0.00881206387899,0.6886792452830188
0.0156360178668,0.6981132075471698
0.0205747561465,0.7075471698113207
0.023431556607,0.7169811320754716
0.0275465894238,0.7264150943396226
0.0281053958954,0.7358490566037735
0.0291112451554,0.7452830188679245
0.0334064006952,0.7547169811320755
0.0372731030495,0.7641509433962265
0.0377873978251,0.7735849056603774
0.270316872086,0.7830188679245284
0.790464259557,0.7924528301886793
0.790464259557,0.8018867924528302
1.03299710339,0.8113207547169812
1.03299710339,0.8207547169811321
1.03299710339,0.8301886792452831
1.67008984456,0.839622641509434
2.06599420678,0.8490566037735849
2.06599420678,0.8584905660377359
2.10790469215,0.8679245283018868
2.10790469215,0.8773584905660378
2.10790469215,0.8867924528301887
3.32426409711,0.8962264150943396
3.32426409711,0.9056603773584906
4.20126220538,0.9150943396226415
4.20126220538,0.9245283018867925
5.32343216531,0.9339622641509434
5.32343216531,0.9433962264150944
6.12591303134,0.9528301886792453
6.18397657816,0.9622641509433962
13.2688803643,0.9716981132075472
13.423168797,0.9811320754716981
17.7026885272,0.9905660377358491
42.5233322617,1.0
