Congestion,CDF
0.0,0.009433962264150943
0.0,0.018867924528301886
0.0,0.02830188679245283
0.0,0.03773584905660377
0.0,0.04716981132075472
0.0,0.05660377358490566
0.0,0.0660377358490566
0.0,0.07547169811320754
0.0,0.08490566037735849
0.0,0.09433962264150944
0.0,0.10377358490566038
0.0,0.11320754716981132
0.0,0.12264150943396226
0.0,0.1320754716981132
0.0,0.14150943396226415
0.0,0.1509433962264151
0.0,0.16037735849056603
0.0,0.16981132075471697
0.0,0.1792452830188679
0.0,0.18867924528301888
0.0,0.19811320754716982
0.0,0.20754716981132076
0.0,0.2169811320754717
0.0,0.22641509433962265
0.0,0.2358490566037736
0.0,0.24528301886792453
0.0,0.25471698113207547
0.0,0.2641509433962264
0.0,0.27358490566037735
0.0,0.2830188679245283
4.87841303303e-08,0.29245283018867924
1.25679690001e-06,0.3018867924528302
1.41328996229e-06,0.3113207547169811
1.91594650282e-06,0.32075471698113206
2.16275791796e-06,0.330188679245283
2.87781780432e-06,0.33962264150943394
4.38871638306e-06,0.3490566037735849
5.61778880933e-06,0.3584905660377358
5.94538735649e-06,0.36792452830188677
6.93428861657e-06,0.37735849056603776
8.53776991886e-06,0.3867924528301887
8.73340217867e-06,0.39622641509433965
9.21459875566e-06,0.4056603773584906
5.90473452364e-05,0.41509433962264153
8.09386257464e-05,0.42452830188679247
8.09386257464e-05,0.4339622641509434
0.00021066708035,0.44339622641509435
0.00021066708035,0.4528301886792453
0.00021066708035,0.46226415094339623
0.000215836335324,0.4716981132075472
0.000215836335324,0.4811320754716981
0.000215836335324,0.49056603773584906
0.000333220487111,0.5
0.000397934056767,0.5094339622641509
0.000397934056767,0.5188679245283019
0.0004213341607,0.5283018867924528
0.0004213341607,0.5377358490566038
0.000574783950847,0.5471698113207547
0.000732669529103,0.5566037735849056
0.000732669529103,0.5660377358490566
0.000907795013614,0.5754716981132075
0.000907795013614,0.5849056603773585
0.00114644223392,0.5943396226415094
0.00139441554516,0.6037735849056604
0.00188451051783,0.6132075471698113
0.00293860590161,0.6226415094339622
0.00298107973364,0.6320754716981132
0.00636373610674,0.6415094339622641
0.00882637021497,0.6509433962264151
0.0106546894821,0.660377358490566
0.0183889569554,0.6698113207547169
0.018562107837,0.6792452830188679
0.0199769251602,0.6886792452830188
0.0252390915794,0.6981132075471698
0.0261974095772,0.7075471698113207
0.0275819522162,0.7169811320754716
0.0277560337666,0.7264150943396226
0.0313528384559,0.7358490566037735
0.0327192986913,0.7452830188679245
0.0357178699506,0.7547169811320755
0.0360258772121,0.7641509433962265
0.318999421099,0.7735849056603774
0.780638449685,0.7830188679245284
0.780638449685,0.7924528301886793
1.03432320811,0.8018867924528302
1.03432320811,0.8113207547169812
1.03432320811,0.8207547169811321
2.06864641621,0.8301886792452831
2.06864641621,0.839622641509434
2.08170253249,0.8490566037735849
2.08170253249,0.8584905660377359
2.08170253249,0.8679245283018868
2.89485911733,0.8773584905660378
3.19640684464,0.8867924528301887
3.80378493628,0.8962264150943396
3.80378493628,0.9056603773584906
4.39577865844,0.9150943396226415
4.39577865844,0.9245283018867925
5.23730195853,0.9339622641509434
5.23730195853,0.9433962264150944
8.53329397342,0.9528301886792453
8.57225292177,0.9622641509433962
12.7905354595,0.9716981132075472
12.882937638,0.9811320754716981
19.9140053996,0.9905660377358491
42.0623939123,1.0
