Congestion,CDF
0.0,0.009433962264150943
0.0,0.018867924528301886
0.0,0.02830188679245283
0.0,0.03773584905660377
0.0,0.04716981132075472
0.0,0.05660377358490566
0.0,0.0660377358490566
0.0,0.07547169811320754
0.0,0.08490566037735849
0.0,0.09433962264150944
0.0,0.10377358490566038
0.0,0.11320754716981132
0.0,0.12264150943396226
0.0,0.1320754716981132
0.0,0.14150943396226415
0.0,0.1509433962264151
0.0,0.16037735849056603
0.0,0.16981132075471697
0.0,0.1792452830188679
0.0,0.18867924528301888
0.0,0.19811320754716982
0.0,0.20754716981132076
0.0,0.2169811320754717
0.0,0.22641509433962265
0.0,0.2358490566037736
0.0,0.24528301886792453
0.0,0.25471698113207547
0.0,0.2641509433962264
0.0,0.27358490566037735
0.0,0.2830188679245283
5.20269084588e-08,0.29245283018867924
1.34033868854e-06,0.3018867924528302
1.50723415578e-06,0.3113207547169811
2.04330327587e-06,0.32075471698113206
2.30652073645e-06,0.330188679245283
3.06911207503e-06,0.33962264150943394
4.68044308604e-06,0.3490566037735849
5.99121439995e-06,0.3584905660377358
6.34058907382e-06,0.36792452830188677
7.39522456664e-06,0.37735849056603776
7.60590712598e-06,0.3867924528301887
9.10529245891e-06,0.39622641509433965
9.31392878395e-06,0.4056603773584906
9.82711145406e-06,0.41509433962264153
5.59090545111e-05,0.42452830188679247
6.29723396635e-05,0.4339622641509434
8.63187771101e-05,0.44339622641509435
8.63187771101e-05,0.4528301886792453
0.000224670539998,0.46226415094339623
0.000224670539998,0.4716981132075472
0.000224670539998,0.4811320754716981
0.000230183405627,0.49056603773584906
0.000230183405627,0.5
0.000230183405627,0.5094339622641509
0.000355370315349,0.5188679245283019
0.000424385524634,0.5283018867924528
0.000424385524634,0.5377358490566038
0.000449341079996,0.5471698113207547
0.000449341079996,0.5566037735849056
0.000612990982761,0.5660377358490566
0.000781371529289,0.5754716981132075
0.000781371529289,0.5849056603773585
0.000968137952913,0.5943396226415094
0.000968137952913,0.6037735849056604
0.00122264852839,0.6132075471698113
0.00148710511861,0.6226415094339622
0.00200977767846,0.6320754716981132
0.0022817721378,0.6415094339622641
0.003133940878,0.6509433962264151
0.00317923803008,0.660377358490566
0.00557422108966,0.6698113207547169
0.00583165612357,0.6792452830188679
0.0067867462972,0.6886792452830188
0.0125203972486,0.6981132075471698
0.0178255019023,0.7075471698113207
0.0209569900494,0.7169811320754716
0.0253537489665,0.7264150943396226
0.0260299538845,0.7358490566037735
0.0268685392806,0.7452830188679245
0.0315689767648,0.7547169811320755
0.035615233009,0.7641509433962265
0.0361638621908,0.7735849056603774
0.244372595471,0.7830188679245284
0.732092453002,0.7924528301886793
0.732092453002,0.8018867924528302
0.950765586244,0.8113207547169812
0.950765586244,0.8207547169811321
0.950765586244,0.8301886792452831
1.43314543521,0.839622641509434
1.90153117249,0.8490566037735849
1.90153117249,0.8584905660377359
1.95224654134,0.8679245283018868
1.95224654134,0.8773584905660378
1.95224654134,0.8867924528301887
2.85371133316,0.8962264150943396
2.85371133316,0.9056603773584906
3.80282802325,0.9150943396226415
3.80282802325,0.9245283018867925
4.99667652872,0.9339622641509434
4.99667652872,0.9433962264150944
5.05702776842,0.9528301886792453
5.11495065105,0.9622641509433962
12.6114587596,0.9716981132075472
12.7760475141,0.9811320754716981
15.8148343865,0.9905660377358491
40.1103034296,1.0
