Congestion,CDF
0.0,0.009433962264150943
0.0,0.018867924528301886
0.0,0.02830188679245283
0.0,0.03773584905660377
0.0,0.04716981132075472
0.0,0.05660377358490566
0.0,0.0660377358490566
0.0,0.07547169811320754
0.0,0.08490566037735849
0.0,0.09433962264150944
0.0,0.10377358490566038
0.0,0.11320754716981132
0.0,0.12264150943396226
0.0,0.1320754716981132
0.0,0.14150943396226415
0.0,0.1509433962264151
0.0,0.16037735849056603
0.0,0.16981132075471697
0.0,0.1792452830188679
0.0,0.18867924528301888
0.0,0.19811320754716982
0.0,0.20754716981132076
0.0,0.2169811320754717
0.0,0.22641509433962265
0.0,0.2358490566037736
0.0,0.24528301886792453
0.0,0.25471698113207547
0.0,0.2641509433962264
0.0,0.27358490566037735
0.0,0.2830188679245283
4.96142779841e-08,0.29245283018867924
1.27818350649e-06,0.3018867924528302
1.43733957306e-06,0.3113207547169811
1.94854969741e-06,0.32075471698113206
2.19956104224e-06,0.330188679245283
2.92678892837e-06,0.33962264150943394
4.46339809992e-06,0.3490566037735849
5.71338535205e-06,0.3584905660377358
6.04655856383e-06,0.36792452830188677
7.05228771559e-06,0.37735849056603776
7.60590712598e-06,0.3867924528301887
8.68305506832e-06,0.39622641509433965
8.8820163546e-06,0.4056603773584906
9.37140133645e-06,0.41509433962264153
6.00521395163e-05,0.42452830188679247
8.23159386104e-05,0.4339622641509434
8.23159386104e-05,0.44339622641509435
9.13311623156e-05,0.4528301886792453
0.000214251950702,0.46226415094339623
0.000214251950702,0.4716981132075472
0.000214251950702,0.4811320754716981
0.000219509169628,0.49056603773584906
0.000219509169628,0.5
0.000219509169628,0.5094339622641509
0.000338890818911,0.5188679245283019
0.000404705603607,0.5283018867924528
0.000404705603607,0.5377358490566038
0.000428503901404,0.5471698113207547
0.000428503901404,0.5566037735849056
0.000584564909224,0.5660377358490566
0.000745137187877,0.5754716981132075
0.000745137187877,0.5849056603773585
0.000923242740068,0.5943396226415094
0.000923242740068,0.6037735849056604
0.00116595096194,0.6132075471698113
0.00141814397457,0.6226415094339622
0.00191657877393,0.6320754716981132
0.0022817721378,0.6415094339622641
0.0029886114419,0.6509433962264151
0.00303180804077,0.660377358490566
0.00647202625278,0.6698113207547169
0.0117657667065,0.6792452830188679
0.0120177579841,0.6886792452830188
0.0186373988339,0.6981132075471698
0.023355729803,0.7075471698113207
0.0257761075307,0.7169811320754716
0.0296045152309,0.7264150943396226
0.0300751848304,0.7358490566037735
0.0313678491086,0.7452830188679245
0.0352219116875,0.7547169811320755
0.038927202772,0.7641509433962265
0.0394071436697,0.7735849056603774
0.296255505227,0.7830188679245284
0.845864573355,0.7924528301886793
0.845864573355,0.8018867924528302
1.11016932116,0.8113207547169812
1.11016932116,0.8207547169811321
1.11016932116,0.8301886792452831
1.89787422228,0.839622641509434
2.22033864231,0.8490566037735849
2.22033864231,0.8584905660377359
2.25563886228,0.8679245283018868
2.25563886228,0.8773584905660378
2.25563886228,0.8867924528301887
3.77519893303,0.8962264150943396
3.77519893303,0.9056603773584906
4.57830366143,0.9150943396226415
4.57830366143,0.9245283018867925
5.64095662907,0.9339622641509434
5.64095662907,0.9433962264150944
7.22560117038,0.9528301886792453
7.28229920786,0.9622641509433962
13.9161495839,0.9716981132075472
14.0601318532,0.9811320754716981
19.5615930237,0.9905660377358491
44.9079116751,1.0
