Congestion,CDF
0.0,0.009433962264150943
0.0,0.018867924528301886
0.0,0.02830188679245283
0.0,0.03773584905660377
0.0,0.04716981132075472
0.0,0.05660377358490566
0.0,0.0660377358490566
0.0,0.07547169811320754
0.0,0.08490566037735849
0.0,0.09433962264150944
0.0,0.10377358490566038
0.0,0.11320754716981132
0.0,0.12264150943396226
0.0,0.1320754716981132
0.0,0.14150943396226415
0.0,0.1509433962264151
0.0,0.16037735849056603
0.0,0.16981132075471697
0.0,0.1792452830188679
0.0,0.18867924528301888
0.0,0.19811320754716982
0.0,0.20754716981132076
0.0,0.2169811320754717
0.0,0.22641509433962265
0.0,0.2358490566037736
0.0,0.24528301886792453
0.0,0.25471698113207547
0.0,0.2641509433962264
0.0,0.27358490566037735
0.0,0.2830188679245283
6.76729919128e-08,0.29245283018867924
1.74341954801e-06,0.3018867924528302
1.96050558944e-06,0.3113207547169811
2.65778709824e-06,0.32075471698113206
3.00016210395e-06,0.330188679245283
3.99208799417e-06,0.33962264150943394
6.0879955487e-06,0.3490566037735849
7.79295590773e-06,0.3584905660377358
8.24739823728e-06,0.36792452830188677
9.6191948958e-06,0.37735849056603776
1.18435325332e-05,0.3867924528301887
1.21149121857e-05,0.39622641509433965
1.27824245887e-05,0.4056603773584906
8.19100492228e-05,0.41509433962264153
0.000112277474836,0.42452830188679247
0.000112277474836,0.4339622641509434
0.00029223584654,0.44339622641509435
0.00029223584654,0.4528301886792453
0.00029223584654,0.46226415094339623
0.000299406599563,0.4716981132075472
0.000299406599563,0.4811320754716981
0.000299406599563,0.49056603773584906
0.000462241043895,0.5
0.000552011238553,0.5094339622641509
0.000552011238553,0.5188679245283019
0.00058447169308,0.5283018867924528
0.00058447169308,0.5377358490566038
0.000797336129472,0.5471698113207547
0.00101635385897,0.5566037735849056
0.00101635385897,0.5660377358490566
0.00125928666144,0.5754716981132075
0.00125928666144,0.5849056603773585
0.00159033635526,0.5943396226415094
0.00193432313482,0.6037735849056604
0.00261417932777,0.6132075471698113
0.00407641280203,0.6226415094339622
0.00413533219388,0.6320754716981132
0.00416673911907,0.6415094339622641
0.00577378538293,0.6509433962264151
0.00638314946265,0.660377358490566
0.00742241870612,0.6698113207547169
0.00748986583632,0.6792452830188679
0.00751180538028,0.6886792452830188
0.00878687241247,0.6981132075471698
0.00880989919724,0.7075471698113207
0.00882772859063,0.7169811320754716
0.00970873902068,0.7264150943396226
0.0104465328817,0.7358490566037735
0.0109386529868,0.7452830188679245
0.0116270190263,0.7547169811320755
0.011729173667,0.7641509433962265
0.110794653079,0.7735849056603774
0.247130786601,0.7830188679245284
0.247130786601,0.7924528301886793
0.330371219896,0.8018867924528302
0.330371219896,0.8113207547169812
0.330371219896,0.8207547169811321
0.659015430935,0.8301886792452831
0.659015430935,0.839622641509434
0.659015430935,0.8490566037735849
0.660742439793,0.8584905660377359
0.660742439793,0.8679245283018868
1.07526490893,0.8773584905660378
1.21301351607,0.8867924528301887
1.21301351607,0.8962264150943396
1.3399873068,0.9056603773584906
1.3399873068,0.9150943396226415
1.67014415071,0.9245283018867925
1.67014415071,0.9339622641509434
1.73213561488,0.9433962264150944
3.01003151568,0.9528301886792453
3.02520711998,0.9622641509433962
4.14798464324,0.9716981132075472
4.17863103546,0.9811320754716981
6.75683192858,0.9905660377358491
13.8350704424,1.0
