Congestion,CDF
0.0,0.005555555555555556
0.0,0.011111111111111112
0.0,0.016666666666666666
0.0,0.022222222222222223
0.0,0.027777777777777776
0.0,0.03333333333333333
0.0,0.03888888888888889
0.0,0.044444444444444446
0.0,0.05
0.0,0.05555555555555555
4.22851803677e-07,0.06111111111111111
4.85836386181e-07,0.06666666666666667
1.09357745215e-06,0.07222222222222222
1.59832705965e-06,0.07777777777777778
1.63548190737e-06,0.08333333333333333
2.15939912387e-06,0.08888888888888889
2.3756248382e-06,0.09444444444444444
3.27415274663e-06,0.1
3.29104426448e-06,0.10555555555555556
3.3670472064e-06,0.1111111111111111
3.4363449012e-06,0.11666666666666667
3.78271370042e-06,0.12222222222222222
3.8704528373e-06,0.12777777777777777
4.32211098691e-06,0.13333333333333333
4.42670996281e-06,0.1388888888888889
4.66138197641e-06,0.14444444444444443
5.39001953561e-06,0.15
5.89887663257e-06,0.15555555555555556
6.15961539501e-06,0.16111111111111112
6.40625329862e-06,0.16666666666666666
6.50761337828e-06,0.17222222222222222
6.55987813167e-06,0.17777777777777778
6.7772162515e-06,0.18333333333333332
7.01271159863e-06,0.18888888888888888
7.13108916824e-06,0.19444444444444445
7.21162194157e-06,0.2
7.25163205464e-06,0.20555555555555555
7.3349053452e-06,0.2111111111111111
7.40658064024e-06,0.21666666666666667
7.42283360233e-06,0.2222222222222222
7.67084954054e-06,0.22777777777777777
7.73484647007e-06,0.23333333333333334
7.82363769233e-06,0.2388888888888889
8.47257999197e-06,0.24444444444444444
8.9153696655e-06,0.25
9.67949824653e-06,0.25555555555555554
9.83284290753e-06,0.2611111111111111
9.97434464481e-06,0.26666666666666666
1.03121251884e-05,0.2722222222222222
3.64525817384e-05,0.2777777777777778
7.29051634768e-05,0.2833333333333333
7.99163529825e-05,0.28888888888888886
7.99163529825e-05,0.29444444444444445
8.22761066119e-05,0.3
8.22761066119e-05,0.3055555555555556
0.00012456128698,0.3111111111111111
0.000163548190737,0.31666666666666665
0.000164552213224,0.32222222222222224
0.000219089998475,0.3277777777777778
0.000327415274663,0.3333333333333333
0.000340501199367,0.3388888888888889
0.000360581097079,0.34444444444444444
0.000360581097079,0.35
0.000379516132761,0.35555555555555557
0.000460547476654,0.3611111111111111
0.000701271159863,0.36666666666666664
0.000713108916824,0.37222222222222223
0.000730249912612,0.37777777777777777
0.000735904166149,0.38333333333333336
0.000792792195769,0.3888888888888889
0.000838781418732,0.39444444444444443
0.000838781418732,0.4
0.000956462738868,0.40555555555555556
0.00101080618993,0.4111111111111111
0.00108688772165,0.4166666666666667
0.00116198667771,0.4222222222222222
0.0014435545201,0.42777777777777776
0.00152628273029,0.43333333333333335
0.00160586637279,0.4388888888888889
0.001974252779,0.4444444444444444
0.00231788726912,0.45
0.00242682287984,0.45555555555555555
0.00299669691476,0.46111111111111114
0.0033947727045,0.4666666666666667
0.00603974738934,0.4722222222222222
0.00719867304897,0.4777777777777778
0.00734789424563,0.48333333333333334
0.00756095176793,0.4888888888888889
0.00756687902218,0.49444444444444446
0.00762276895242,0.5
0.00764693825341,0.5055555555555555
0.00767242344793,0.5111111111111111
0.00768339930522,0.5166666666666667
0.00769117890914,0.5222222222222223
0.00772067437913,0.5277777777777778
0.00782320537751,0.5333333333333333
0.00782485440037,0.5388888888888889
0.00783824673936,0.5444444444444444
0.00787011681879,0.55
0.00791926554861,0.5555555555555556
0.00792933708423,0.5611111111111111
0.00794588797572,0.5666666666666667
0.00797911535276,0.5722222222222222
0.00806475569782,0.5777777777777777
0.00808550615748,0.5833333333333334
0.00808860256928,0.5888888888888889
0.00811122285689,0.5944444444444444
0.00811294765097,0.6
0.00814551728135,0.6055555555555555
0.00815381236403,0.6111111111111112
0.00816673441914,0.6166666666666667
0.00817806553651,0.6222222222222222
0.00818519789345,0.6277777777777778
0.00818913769451,0.6333333333333333
0.00819637187003,0.6388888888888888
0.00820445593348,0.6444444444444445
0.00822771135772,0.65
0.0082416538681,0.6555555555555556
0.00830127943515,0.6611111111111111
0.00834124305644,0.6666666666666666
0.00837910676447,0.6722222222222223
0.00841225154168,0.6777777777777778
0.00842611632978,0.6833333333333333
0.00843959327509,0.6888888888888889
0.00846889149782,0.6944444444444444
0.00858271587569,0.7
0.0090298681023,0.7055555555555556
0.00912877042631,0.7111111111111111
0.00966777237988,0.7166666666666667
0.0104412570269,0.7222222222222222
0.0105064303325,0.7277777777777777
0.0106788195107,0.7333333333333333
0.0108431350531,0.7388888888888889
0.0112301803368,0.7444444444444445
0.195621360009,0.75
0.195621360009,0.7555555555555555
0.254092298414,0.7611111111111111
0.297653571807,0.7666666666666667
0.38234691267,0.7722222222222223
0.38234691267,0.7777777777777778
0.391242720019,0.7833333333333333
0.409259894672,0.7888888888888889
0.409259894672,0.7944444444444444
0.508184596828,0.8
0.767242344793,0.8055555555555556
0.782320537751,0.8111111111111111
0.816673441914,0.8166666666666667
0.817806553651,0.8222222222222222
0.951716536803,0.8277777777777777
0.982633041888,0.8333333333333334
1.19089752842,0.8388888888888889
1.20118644953,0.8444444444444444
1.23520204753,0.85
1.26816017639,0.8555555555555555
1.26816017639,0.8611111111111112
1.59737028831,0.8666666666666667
1.63711903526,0.8722222222222222
1.72378397472,0.8777777777777778
2.02082363654,0.8833333333333333
2.04320091008,0.8888888888888888
2.09093131216,0.8944444444444445
2.53264423164,0.9
3.72328959395,0.9055555555555556
4.06804898869,0.9111111111111111
4.54839005088,0.9166666666666666
4.85187366263,0.9222222222222223
5.38961520505,0.9277777777777778
9.39407702602,0.9333333333333333
9.89016950982,0.9388888888888889
10.7370586596,0.9444444444444444
11.5483534247,0.95
11.8025696,0.9555555555555556
12.6366939057,0.9611111111111111
13.5546321895,0.9666666666666667
13.8136296159,0.9722222222222222
14.2744994944,0.9777777777777777
14.3124511077,0.9833333333333333
14.6115411512,0.9888888888888889
15.3798810817,0.9944444444444445
15.452906073,1.0
