Congestion,CDF
0.0,0.005555555555555556
0.0,0.011111111111111112
0.0,0.016666666666666666
0.0,0.022222222222222223
0.0,0.027777777777777776
0.0,0.03333333333333333
0.0,0.03888888888888889
0.0,0.044444444444444446
0.0,0.05
0.0,0.05555555555555555
8.89643318449e-07,0.06111111111111111
1.02215738721e-06,0.06666666666666667
2.30079158952e-06,0.07222222222222222
3.36274074498e-06,0.07777777777777778
3.44091130436e-06,0.08333333333333333
4.54318743757e-06,0.08888888888888889
4.99810748369e-06,0.09444444444444444
6.8885318433e-06,0.1
6.92407012375e-06,0.10555555555555556
7.08397368541e-06,0.1111111111111111
7.22976999189e-06,0.11666666666666667
7.95849973898e-06,0.12222222222222222
8.14309523133e-06,0.12777777777777777
9.09334458943e-06,0.13333333333333333
9.31341171277e-06,0.1388888888888889
9.80714116385e-06,0.14444444444444443
1.13401310447e-05,0.15
1.24107219997e-05,0.15555555555555556
1.29592936171e-05,0.16111111111111112
1.34781982573e-05,0.16666666666666666
1.36914510254e-05,0.17222222222222222
1.38014115085e-05,0.17777777777777778
1.42586719588e-05,0.18333333333333332
1.47541336319e-05,0.18888888888888888
1.50031897148e-05,0.19444444444444445
1.51726236467e-05,0.2
1.52568014353e-05,0.20555555555555555
1.54320011765e-05,0.2111111111111111
1.55827997465e-05,0.21666666666666667
1.56169945613e-05,0.2222222222222222
1.61387984661e-05,0.22777777777777777
1.62734424247e-05,0.23333333333333334
1.6460251413e-05,0.2388888888888889
1.78255694178e-05,0.24444444444444444
1.87571602757e-05,0.25
2.03648201712e-05,0.25555555555555554
2.06874439649e-05,0.2611111111111111
2.098515128e-05,0.26666666666666666
2.16958120861e-05,0.2722222222222222
7.66930529841e-05,0.2777777777777778
0.000153386105968,0.2833333333333333
0.000168137037249,0.28888888888888886
0.000168137037249,0.29444444444444445
0.000173101753094,0.3
0.000173101753094,0.3055555555555556
0.00025797931235,0.3111111111111111
0.000262066084939,0.31666666666666665
0.000344091130436,0.32222222222222224
0.000346203506187,0.3277777777777778
0.000455313341984,0.3333333333333333
0.00046094625017,0.3388888888888889
0.00068885318433,0.34444444444444444
0.000716384828695,0.35
0.000758631182333,0.35555555555555557
0.000758631182333,0.3611111111111111
0.000968951726991,0.36666666666666664
0.0010382785207,0.37222222222222223
0.00147541336319,0.37777777777777777
0.00150031897148,0.38333333333333336
0.0015482781881,0.3888888888888889
0.00159170036443,0.39444444444444443
0.00159737495295,0.4
0.00160430279591,0.40555555555555556
0.00166796564128,0.4111111111111111
0.00166950638883,0.4166666666666667
0.0016824459885,0.4222222222222222
0.00172736719939,0.42777777777777776
0.00176472295571,0.43333333333333335
0.00176472295571,0.4388888888888889
0.00178371539149,0.4444444444444444
0.00190333111116,0.45
0.00190526824711,0.45555555555555555
0.00192089404093,0.46111111111111114
0.00195807947421,0.4666666666666667
0.00201231419041,0.4722222222222222
0.00201527926789,0.4777777777777778
0.00202716726044,0.48333333333333334
0.00204311832967,0.4888888888888889
0.0020607675457,0.49444444444444446
0.00212664807222,0.5
0.00217764347942,0.5055555555555555
0.00218515762036,0.5111111111111111
0.00221295880783,0.5166666666666667
0.00223635094608,0.5222222222222223
0.00223928133143,0.5277777777777778
0.00225772277572,0.5333333333333333
0.00227937354009,0.5388888888888889
0.00228671697995,0.5444444444444444
0.00230396684604,0.55
0.00231734631381,0.5555555555555556
0.00232558191843,0.5611111111111111
0.00233025364254,0.5666666666666667
0.00233854955077,0.5722222222222222
0.00234797248108,0.5777777777777777
0.00237526660838,0.5833333333333334
0.00239151397038,0.5888888888888889
0.00244471863418,0.5944444444444444
0.00246100812699,0.6
0.00250713616539,0.6055555555555555
0.00259050242924,0.6111111111111112
0.00260655581717,0.6166666666666667
0.00262246396525,0.6222222222222222
0.00265565210118,0.6277777777777778
0.00303711281932,0.6333333333333333
0.00321116575892,0.6388888888888888
0.00337860280232,0.6444444444444445
0.00415365567439,0.65
0.00487663267357,0.6555555555555556
0.00510582369837,0.6611111111111111
0.00630478896968,0.6666666666666666
0.00714230571549,0.6722222222222223
0.0127071017868,0.6777777777777778
0.0154593286902,0.6833333333333333
0.0161815696847,0.6888888888888889
0.0176289098988,0.6944444444444444
0.0180572857123,0.7
0.0189980550014,0.7055555555555556
0.0192061368659,0.7111111111111111
0.0203401499704,0.7166666666666667
0.0219674942129,0.7222222222222222
0.0221046131641,0.7277777777777777
0.0224673049612,0.7333333333333333
0.0228130105327,0.7388888888888889
0.0236273200558,0.7444444444444445
0.0476317061778,0.75
0.0476317061778,0.7555555555555555
0.0556502129609,0.7611111111111111
0.0790041479712,0.7666666666666667
0.0841222994248,0.7722222222222223
0.0841222994248,0.7777777777777778
0.0952634123556,0.7833333333333333
0.111300425922,0.7888888888888889
0.116279095922,0.7944444444444444
0.116279095922,0.8
0.172736719939,0.8055555555555556
0.190333111116,0.8111111111111111
0.207369201472,0.8166666666666667
0.230396684604,0.8222222222222222
0.231734631381,0.8277777777777777
0.243439653599,0.8333333333333334
0.301886647367,0.8388888888888889
0.317807022711,0.8444444444444444
0.335763480423,0.85
0.335763480423,0.8555555555555555
0.35750980888,0.8611111111111112
0.385740740621,0.8666666666666667
0.418837532638,0.8722222222222222
0.465193932712,0.8777777777777778
0.517605628596,0.8833333333333333
0.551661977788,0.8888888888888888
0.573290141261,0.8944444444444445
0.607036621404,0.9
1.01379938861,0.9055555555555556
1.03296212665,0.9111111111111111
1.15280022548,0.9166666666666666
1.2058887927,0.9222222222222223
1.4118504684,0.9277777777777778
2.47187628361,0.9333333333333333
2.68936196062,0.9388888888888889
2.95492717074,0.9444444444444444
3.11464194939,0.95
3.17856226535,0.9555555555555556
3.36535556593,0.9611111111111111
3.65378969832,0.9666666666666667
3.70622119029,0.9722222222222222
3.81004904236,0.9777777777777777
3.83584697359,0.9833333333333333
3.85986645289,0.9888888888888889
4.01903648933,0.9944444444444445
4.06456782353,1.0
