Congestion,CDF
0.0,0.005555555555555556
0.0,0.011111111111111112
0.0,0.016666666666666666
0.0,0.022222222222222223
0.0,0.027777777777777776
0.0,0.03333333333333333
0.0,0.03888888888888889
0.0,0.044444444444444446
0.0,0.05
0.0,0.05555555555555555
3.15764171994e-07,0.06111111111111111
3.6279784755e-07,0.06666666666666667
8.16627895843e-07,0.07222222222222222
1.19354917297e-06,0.07777777777777778
1.22129451927e-06,0.08333333333333333
1.61252918972e-06,0.08888888888888889
1.77399553101e-06,0.09444444444444444
2.44497037031e-06,0.1
2.45758409479e-06,0.10555555555555556
2.51433921754e-06,0.1111111111111111
2.56608720355e-06,0.11666666666666667
2.82473776656e-06,0.12222222222222222
2.89025688145e-06,0.12777777777777777
3.22753216417e-06,0.13333333333333333
3.30564134742e-06,0.1388888888888889
3.4808824447e-06,0.14444444444444443
4.0249918314e-06,0.15
4.40498037227e-06,0.15555555555555556
4.59968678883e-06,0.16111111111111112
4.78386340281e-06,0.16666666666666666
4.85955394344e-06,0.17222222222222222
4.89858259706e-06,0.17777777777777778
5.06087962608e-06,0.18333333333333332
5.23673554687e-06,0.18888888888888888
5.32513388153e-06,0.19444444444444445
5.38527165147e-06,0.2
5.41514916438e-06,0.20555555555555555
5.47733341289e-06,0.2111111111111111
5.53085686955e-06,0.21666666666666667
5.54299375315e-06,0.2222222222222222
5.72819941312e-06,0.22777777777777777
5.77598905782e-06,0.23333333333333334
5.84229381645e-06,0.2388888888888889
6.32689084581e-06,0.24444444444444444
6.65754360267e-06,0.25
7.22815587531e-06,0.25555555555555554
7.34266585135e-06,0.2611111111111111
7.44833213566e-06,0.26666666666666666
7.70056942712e-06,0.2722222222222222
2.72209298614e-05,0.2777777777777778
5.44418597229e-05,0.2833333333333333
5.96774586483e-05,0.28888888888888886
5.96774586483e-05,0.29444444444444445
6.14396023696e-05,0.3
6.14396023696e-05,0.3055555555555556
9.3016019569e-05,0.3111111111111111
0.000122129451927,0.31666666666666665
0.000122879204739,0.32222222222222224
0.000163605242686,0.3277777777777778
0.000244497037031,0.3333333333333333
0.000254268938541,0.3388888888888889
0.000269263582573,0.34444444444444444
0.000269263582573,0.35
0.000343913379026,0.35555555555555557
0.000523673554687,0.3611111111111111
0.000532513388153,0.36666666666666664
0.000549535718354,0.37222222222222223
0.000592016798991,0.37777777777777777
0.000626359206385,0.38333333333333336
0.000626359206385,0.3888888888888889
0.000714237617424,0.39444444444444443
0.000754818536508,0.4
0.000811632346114,0.40555555555555556
0.000867712418306,0.4111111111111111
0.00107797293,0.4166666666666667
0.00113975014028,0.4222222222222222
0.0011991791477,0.42777777777777776
0.00147427133725,0.43333333333333335
0.00173088005761,0.4388888888888889
0.00181222761867,0.4444444444444444
0.00223778049846,0.45
0.0025350432062,0.45555555555555555
0.0045101754725,0.46111111111111114
0.00548703286162,0.4666666666666667
0.00574338034929,0.4722222222222222
0.00625708980433,0.4777777777777778
0.00640913470956,0.48333333333333334
0.00674304519868,0.4888888888888889
0.00681690041268,0.49444444444444446
0.00721939959582,0.5
0.0077969985016,0.5055555555555555
0.00784566660399,0.5111111111111111
0.0079743980547,0.5166666666666667
0.00809710052574,0.5222222222222223
0.00838612621389,0.5277777777777778
0.0187371331913,0.5333333333333333
0.0189262789073,0.5388888888888889
0.0217727659354,0.5444444444444444
0.0219191167372,0.55
0.0219798703542,0.5555555555555556
0.0219815492924,0.5611111111111111
0.0219900094863,0.5666666666666667
0.0219964470769,0.5722222222222222
0.0220095506924,0.5777777777777777
0.0220224628204,0.5833333333333334
0.0220498037226,0.5888888888888889
0.0220503133514,0.5944444444444444
0.0220539051735,0.6
0.0220624126554,0.6055555555555555
0.0220739703956,0.6111111111111112
0.0220751797285,0.6166666666666667
0.0220781953646,0.6222222222222222
0.0220793779292,0.6277777777777778
0.0220972784184,0.6333333333333333
0.0221143163086,0.6388888888888888
0.0221157251126,0.6444444444444445
0.0221205763664,0.65
0.0221221574443,0.6555555555555556
0.0221265623198,0.6611111111111111
0.0221358338916,0.6666666666666666
0.0221411681071,0.6722222222222223
0.022144513411,0.6777777777777778
0.0221462142031,0.6833333333333333
0.02214745504,0.6888888888888889
0.0221490734413,0.6944444444444444
0.0221512270115,0.7
0.0221577523729,0.7055555555555556
0.022161389382,0.7111111111111111
0.0221772443772,0.7166666666666667
0.0221873654731,0.7222222222222222
0.0222068095859,0.7277777777777777
0.0222103339649,0.7333333333333333
0.0222142634997,0.7388888888888889
0.0222208224441,0.7444444444444445
0.551257833784,0.75
0.551257833784,0.7555555555555555
0.733214902564,0.7611111111111111
0.85510642499,0.7666666666666667
1.09950047432,0.7722222222222223
1.09950047432,0.7777777777777778
1.10251566757,0.7833333333333333
1.10731071016,0.7888888888888889
1.10731071016,0.7944444444444444
1.46642980513,0.8
2.20095506924,0.8055555555555556
2.20498037226,0.8111111111111111
2.21411681071,0.8166666666666667
2.2144513411,0.8222222222222222
2.7492448692,0.8277777777777777
2.75749909932,0.8333333333333334
3.30922831615,0.8388888888888889
3.314828683,0.8444444444444444
3.32394201754,0.85
3.49909567957,0.8555555555555555
3.49909567957,0.8611111111111112
4.41867950696,0.8666666666666667
4.42923951186,0.8722222222222222
4.95149115124,0.8777777777777778
5.52973602714,0.8833333333333333
5.70214563274,0.8888888888888888
5.71487091686,0.8944444444444445
7.16354878787,0.9
10.1429056471,0.9055555555555556
11.3993962415,0.9111111111111111
12.6919788085,0.9166666666666666
13.6047867589,0.9222222222222223
14.9126597671,0.9277777777777778
25.96243791,0.9333333333333333
27.0926687026,0.9388888888888889
29.314750947,0.9444444444444444
31.5269666914,0.95
32.593773649,0.9555555555555556
34.8125101963,0.9611111111111111
37.0477675188,0.9666666666666667
38.1199484635,0.9722222222222222
39.2250441124,0.9777777777777777
40.3273455031,0.9833333333333333
41.0987574315,0.9888888888888889
42.5192571768,0.9944444444444445
44.4118850675,1.0
