Congestion,CDF
0.0,0.005555555555555556
0.0,0.011111111111111112
0.0,0.016666666666666666
0.0,0.022222222222222223
0.0,0.027777777777777776
0.0,0.03333333333333333
0.0,0.03888888888888889
0.0,0.044444444444444446
0.0,0.05
0.0,0.05555555555555555
3.7132954939e-07,0.06111111111111111
4.26639793869e-07,0.06666666666666667
9.60330827492e-07,0.07222222222222222
1.40357936676e-06,0.07777777777777778
1.43620709294e-06,0.08333333333333333
1.8962877695e-06,0.08888888888888889
2.08616752493e-06,0.09444444444444444
2.87521456328e-06,0.1
2.89004793908e-06,0.10555555555555556
2.95679032478e-06,0.1111111111111111
3.01764446224e-06,0.11666666666666667
3.32181005647e-06,0.12222222222222222
3.39885864389e-06,0.12777777777777777
3.79548463842e-06,0.13333333333333333
3.88733878271e-06,0.1388888888888889
4.09341725348e-06,0.14444444444444443
4.73327418249e-06,0.15
5.18012973537e-06,0.15555555555555556
5.4090988596e-06,0.16111111111111112
5.62568524001e-06,0.16666666666666666
5.71469513043e-06,0.17222222222222222
5.76059170023e-06,0.17777777777777778
5.95144832045e-06,0.18333333333333332
6.15824980591e-06,0.18888888888888888
6.2622036952e-06,0.19444444444444445
6.33292397633e-06,0.2
6.36805906888e-06,0.20555555555555555
6.44118594971e-06,0.2111111111111111
6.5041279894e-06,0.21666666666666667
6.51840061408e-06,0.2222222222222222
6.73619712287e-06,0.22777777777777777
6.79239636525e-06,0.23333333333333334
6.87036884702e-06,0.2388888888888889
7.44024096205e-06,0.24444444444444444
7.82907905737e-06,0.25
8.50010261504e-06,0.25555555555555554
8.63476304069e-06,0.2611111111111111
8.7590235402e-06,0.26666666666666666
9.05564731226e-06,0.2722222222222222
3.20110275831e-05,0.2777777777777778
6.40220551661e-05,0.2833333333333333
7.0178968338e-05,0.28888888888888886
7.0178968338e-05,0.29444444444444445
7.2251198477e-05,0.3
7.2251198477e-05,0.3055555555555556
0.000109384153416,0.3111111111111111
0.000143620709294,0.31666666666666665
0.000144502396954,0.32222222222222224
0.00019239504172,0.3277777777777778
0.000287521456328,0.3333333333333333
0.000299012930366,0.3388888888888889
0.000316646198816,0.34444444444444444
0.000316646198816,0.35
0.000404432204124,0.35555555555555557
0.000615824980591,0.3611111111111111
0.00062622036952,0.36666666666666664
0.000646238138361,0.37222222222222223
0.000696194662658,0.37777777777777777
0.000736580342206,0.38333333333333336
0.000736580342206,0.3888888888888889
0.000839922816326,0.39444444444444443
0.000887644805499,0.4
0.000954456205244,0.40555555555555556
0.00102040475097,0.4111111111111111
0.001267665042,0.4166666666666667
0.00134031325763,0.4222222222222222
0.00141020005449,0.42777777777777776
0.0016638350843,0.43333333333333335
0.00173370052684,0.4388888888888889
0.00203546497306,0.4444444444444444
0.002078377189,0.45
0.00213112735617,0.45555555555555555
0.00263156525606,0.46111111111111114
0.00298113761768,0.4666666666666667
0.00530383613601,0.4722222222222222
0.00645259222138,0.4777777777777778
0.00675404946551,0.48333333333333334
0.0073581569526,0.4888888888888889
0.00753695737124,0.49444444444444446
0.00792962646564,0.5
0.00801647806493,0.5055555555555555
0.00848980548318,0.5111111111111111
0.0091690451197,0.5166666666666667
0.00922627740294,0.5222222222222223
0.0093776618722,0.5277777777777778
0.00952195643542,0.5333333333333333
0.00986184229981,0.5388888888888889
0.0108347324031,0.5444444444444444
0.0111390724015,0.55
0.0111444203358,0.5555555555555556
0.0111947204278,0.5611111111111111
0.0112160767504,0.5666666666666667
0.0112393911374,0.5722222222222222
0.011270638208,0.5777777777777777
0.0112828227213,0.5833333333333334
0.0113751005664,0.5888888888888889
0.0113765941709,0.5944444444444444
0.0113886500855,0.6
0.0114173343444,0.6055555555555555
0.0114615224518,0.6111111111111112
0.0114706313088,0.6166666666666667
0.0114852652306,0.6222222222222222
0.0115157685336,0.6277777777777778
0.0115925093291,0.6333333333333333
0.011610751088,0.6388888888888888
0.0116139580144,0.6444444444444445
0.0116343108345,0.65
0.0116354733404,0.6555555555555556
0.0116651922014,0.6611111111111111
0.0116731063206,0.6666666666666666
0.0116842443909,0.6722222222222223
0.0116944856286,0.6777777777777778
0.0117008775904,0.6833333333333333
0.0117044491384,0.6888888888888889
0.011710918215,0.6944444444444444
0.0117181937575,0.7
0.0117391668682,0.7055555555555556
0.0117517041283,0.7111111111111111
0.0118053613868,0.7166666666666667
0.0118412676684,0.7222222222222222
0.011905232387,0.7277777777777777
0.0119176887321,0.7333333333333333
0.0119298618549,0.7388888888888889
0.0119560819042,0.7444444444444445
0.284414854272,0.75
0.284414854272,0.7555555555555555
0.373157347592,0.7611111111111111
0.43103978813,0.7666666666666667
0.560803837519,0.7722222222222223
0.560803837519,0.7777777777777778
0.568829708544,0.7833333333333333
0.58504387952,0.7888888888888889
0.58504387952,0.7944444444444444
0.746314695184,0.8
1.12393911374,0.8055555555555556
1.13751005664,0.8111111111111111
1.16842443909,0.8166666666666667
1.16944856286,0.8222222222222222
1.39832209442,0.8277777777777777
1.42614828871,0.8333333333333334
1.72187894632,0.8388888888888889
1.7311961247,0.8444444444444444
1.76181589403,0.85
1.82759686005,0.8555555555555555
1.82759686005,0.8611111111111112
2.30447525242,0.8666666666666667
2.34024381484,0.8722222222222222
2.52660436655,0.8777777777777778
2.9022879462,0.8833333333333333
2.95855656922,0.8888888888888888
3.00151354687,0.8944444444444445
3.68800016799,0.9
5.33748132986,0.9055555555555556
5.90059546284,0.9111111111111111
6.58572451698,0.9166666666666666
7.03946047139,0.9222222222222223
7.77624775568,0.9277777777777778
13.5473867151,0.9333333333333333
14.2105483899,0.9388888888888889
15.4061565803,0.9444444444444444
16.5697039144,0.95
17.015293051,0.9555555555555556
18.1994198178,0.9611111111111111
19.4588934928,0.9666666666666667
19.9087501784,0.9722222222222222
20.5423667331,0.9777777777777777
20.7087502415,0.9833333333333333
21.0603270317,0.9888888888888889
22.1873908526,0.9944444444444445
22.3952285715,1.0
