Congestion,CDF
0.0,0.005555555555555556
0.0,0.011111111111111112
0.0,0.016666666666666666
0.0,0.022222222222222223
0.0,0.027777777777777776
0.0,0.03333333333333333
0.0,0.03888888888888889
0.0,0.044444444444444446
0.0,0.05
0.0,0.05555555555555555
3.49632431022e-07,0.06111111111111111
4.01710848346e-07,0.06666666666666667
9.04217836563e-07,0.07222222222222222
1.32156696643e-06,0.07777777777777778
1.35228822532e-06,0.08333333333333333
1.78548597561e-06,0.08888888888888889
1.96427088677e-06,0.09444444444444444
2.7072131995e-06,0.1
2.72117984785e-06,0.10555555555555556
2.78402241614e-06,0.1111111111111111
2.8413207918e-06,0.11666666666666667
3.12771371776e-06,0.12222222222222222
3.20026028717e-06,0.12777777777777777
3.57371106937e-06,0.13333333333333333
3.66019809369e-06,0.1388888888888889
3.85423521471e-06,0.14444444444444443
4.4567047299e-06,0.15
4.87745011234e-06,0.15555555555555556
5.09304036543e-06,0.16111111111111112
5.29697140953e-06,0.16666666666666666
5.38078037227e-06,0.17222222222222222
5.42399516436e-06,0.17777777777777778
5.60369986121e-06,0.18333333333333332
5.79841775054e-06,0.18888888888888888
5.89629752091e-06,0.19444444444444445
5.96288555263e-06,0.2
5.99596767023e-06,0.20555555555555555
6.06482168188e-06,0.2111111111111111
6.12408596178e-06,0.21666666666666667
6.13752462421e-06,0.2222222222222222
6.3425950878e-06,0.22777777777777777
6.39551055807e-06,0.23333333333333334
6.46892703785e-06,0.2388888888888889
7.00550101447e-06,0.24444444444444444
7.37161895139e-06,0.25
8.0034340012e-06,0.25555555555555554
8.13022609749e-06,0.2611111111111111
8.24722594464e-06,0.26666666666666666
8.52651772385e-06,0.2722222222222222
3.01405945521e-05,0.2777777777777778
6.02811891042e-05,0.2833333333333333
6.60783483215e-05,0.28888888888888886
6.60783483215e-05,0.29444444444444445
6.80294961962e-05,0.3
6.80294961962e-05,0.3055555555555556
0.000102992739298,0.3111111111111111
0.000135228822532,0.31666666666666665
0.000136058992392,0.32222222222222224
0.000181153227002,0.3277777777777778
0.00027072131995,0.3333333333333333
0.00028154133686,0.3388888888888889
0.000298144277632,0.34444444444444444
0.000298144277632,0.35
0.000380800867973,0.35555555555555557
0.000579841775054,0.3611111111111111
0.000589629752091,0.36666666666666664
0.000608477864758,0.37222222222222223
0.000655515384568,0.37777777777777777
0.000693541292665,0.38333333333333336
0.000693541292665,0.3888888888888889
0.000790845373403,0.39444444444444443
0.000835778923979,0.4
0.000898686473759,0.40555555555555556
0.000960781586857,0.4111111111111111
0.00119359423748,0.4166666666666667
0.00126199755276,0.4222222222222222
0.00132780080144,0.42777777777777776
0.00163239885126,0.43333333333333335
0.00191653093044,0.4388888888888889
0.00200660367477,0.4444444444444444
0.00247780053966,0.45
0.00280694707489,0.45555555555555555
0.00499392823712,0.46111111111111114
0.00607556147487,0.4666666666666667
0.00635940430205,0.4722222222222222
0.00692821324725,0.4777777777777778
0.00709656619719,0.48333333333333334
0.00746629128448,0.4888888888888889
0.00754806806698,0.49444444444444446
0.00799373853997,0.5
0.00863328959578,0.5055555555555555
0.00868717774542,0.5111111111111111
0.00882971668446,0.5166666666666667
0.00896557998703,0.5222222222222223
0.00928560601575,0.5277777777777778
0.0118393558459,0.5333333333333333
0.0119519516239,0.5388888888888889
0.013558097025,0.5444444444444444
0.0136565660062,0.55
0.0137371588091,0.5555555555555556
0.0137373583023,0.5611111111111111
0.0137384579253,0.5666666666666667
0.0137477658718,0.5722222222222222
0.0137558852219,0.5777777777777777
0.0137639784758,0.5833333333333334
0.0137810661775,0.5888888888888889
0.0137814204407,0.5944444444444444
0.0137836758275,0.6
0.0137874069853,0.6055555555555555
0.0137889975021,0.6111111111111112
0.0137968033745,0.6166666666666667
0.0137979415566,0.6222222222222222
0.0137988569079,0.6277777777777778
0.0137992096291,0.6333333333333333
0.0138110677634,0.6388888888888888
0.0138214372608,0.6444444444444445
0.0138237729188,0.65
0.0138252991146,0.6555555555555556
0.0138290166705,0.6611111111111111
0.0138348761145,0.6666666666666666
0.0138380443622,0.6722222222222223
0.0138403008062,0.6777777777777778
0.0138412608953,0.6833333333333333
0.0138421337201,0.6888888888888889
0.0138429862557,0.6944444444444444
0.013844331102,0.7
0.0138485751978,0.7055555555555556
0.0138508069053,0.7111111111111111
0.0138606931394,0.7166666666666667
0.0138667440454,0.7222222222222222
0.0138791574274,0.7277777777777777
0.0138812716064,0.7333333333333333
0.0138838993992,0.7388888888888889
0.0138873561278,0.7444444444444445
0.344535511017,0.75
0.344535511017,0.7555555555555555
0.458258862394,0.7611111111111111
0.534554984341,0.7666666666666667
0.686857940457,0.7722222222222223
0.686857940457,0.7777777777777778
0.689071022034,0.7833333333333333
0.692063044767,0.7888888888888889
0.692063044767,0.7944444444444444
0.916517724788,0.8
1.37558852219,0.8055555555555556
1.37810661775,0.8111111111111111
1.38380443622,0.8166666666666667
1.38403008062,0.8222222222222222
1.71827134124,0.8277777777777777
1.72343526123,0.8333333333333334
2.06677890337,0.8388888888888889
2.07174338222,0.8444444444444444
2.07746096196,0.85
2.18693218877,0.8555555555555555
2.18693218877,0.8611111111111112
2.76165783613,0.8666666666666667
2.76823754641,0.8722222222222222
3.09466918883,0.8777777777777778
3.45604200779,0.8833333333333333
3.56383784971,0.8888888888888888
3.57178970854,0.8944444444444445
4.47719910029,0.9
6.33930740061,0.9055555555555556
7.12461583101,0.9111111111111111
7.93244945333,0.9166666666666666
8.50298341376,0.9222222222222223
9.32036519607,0.9277777777777778
16.2265041864,0.9333333333333333
16.9327719109,0.9388888888888889
18.3215075237,0.9444444444444444
19.7038848156,0.95
20.3710636896,0.9555555555555556
21.7577380941,0.9611111111111111
23.1517704953,0.9666666666666667
23.8243901902,0.9722222222222222
24.5075801978,0.9777777777777777
25.2031308888,0.9833333333333333
25.6915157824,0.9888888888888889
26.5687874894,0.9944444444444445
27.7639826518,1.0
