Congestion,CDF
0.0,0.005555555555555556
0.0,0.011111111111111112
0.0,0.016666666666666666
0.0,0.022222222222222223
0.0,0.027777777777777776
0.0,0.03333333333333333
0.0,0.03888888888888889
0.0,0.044444444444444446
0.0,0.05
0.0,0.05555555555555555
3.51534635391e-07,0.06111111111111111
4.03896389683e-07,0.06666666666666667
9.09137309033e-07,0.07222222222222222
1.32875706161e-06,0.07777777777777778
1.35964546207e-06,0.08333333333333333
1.79520006081e-06,0.08888888888888889
1.97495766617e-06,0.09444444444444444
2.72194201844e-06,0.1
2.73598465351e-06,0.10555555555555556
2.79916912203e-06,0.1111111111111111
2.85677923428e-06,0.11666666666666667
3.14473030481e-06,0.12222222222222222
3.21767156987e-06,0.12777777777777777
3.59315414216e-06,0.13333333333333333
3.68011170635e-06,0.1388888888888889
3.87520450249e-06,0.14444444444444443
4.48095180327e-06,0.15
4.90398628602e-06,0.15555555555555556
5.12074947584e-06,0.16111111111111112
5.32579002377e-06,0.16666666666666666
5.41005495616e-06,0.17222222222222222
5.45350486193e-06,0.17777777777777778
5.63418725715e-06,0.18333333333333332
5.82996452538e-06,0.18888888888888888
5.92837681879e-06,0.19444444444444445
5.99532712824e-06,0.2
6.02858923186e-06,0.20555555555555555
6.0978178495e-06,0.2111111111111111
6.15740456165e-06,0.21666666666666667
6.17091633824e-06,0.2222222222222222
6.37710250477e-06,0.22777777777777777
6.43030586607e-06,0.23333333333333334
6.50412177432e-06,0.2388888888888889
7.04361502636e-06,0.24444444444444444
7.41172485842e-06,0.25
8.04697735064e-06,0.25555555555555554
8.17445926989e-06,0.2611111111111111
8.29209566447e-06,0.26666666666666666
8.57290695387e-06,0.2722222222222222
3.03045769678e-05,0.2777777777777778
6.06091539355e-05,0.2833333333333333
6.64378530805e-05,0.28888888888888886
6.64378530805e-05,0.29444444444444445
6.83996163378e-05,0.3
6.83996163378e-05,0.3055555555555556
0.000103553079877,0.3111111111111111
0.000135964546207,0.31666666666666665
0.000136799232676,0.32222222222222224
0.000182138806225,0.3277777777777778
0.000272194201844,0.3333333333333333
0.000283073085958,0.3388888888888889
0.000299766356412,0.34444444444444444
0.000299766356412,0.35
0.000382872646819,0.35555555555555557
0.000582996452538,0.3611111111111111
0.000592837681879,0.36666666666666664
0.000611788339273,0.37222222222222223
0.000659081770628,0.37777777777777777
0.000697314561846,0.38333333333333336
0.000697314561846,0.3888888888888889
0.000795148033542,0.39444444444444443
0.000840326048843,0.4
0.000903575852389,0.40555555555555556
0.000966008799122,0.4111111111111111
0.00120008808636,0.4166666666666667
0.00126886355558,0.4222222222222222
0.00133502481232,0.42777777777777776
0.0016412800532,0.43333333333333335
0.00192695797663,0.4388888888888889
0.00201752076923,0.4444444444444444
0.00249128121992,0.45
0.00282221850429,0.45555555555555555
0.00433004481488,0.46111111111111114
0.00476417573631,0.4666666666666667
0.00502109811973,0.4722222222222222
0.00610861607322,0.4777777777777778
0.00639400317095,0.48333333333333334
0.00696590676861,0.4888888888888889
0.0071351756568,0.49444444444444446
0.00750691226423,0.5
0.00758913396013,0.5055555555555555
0.00803722914045,0.5111111111111111
0.00868025972706,0.5166666666666667
0.00873444105966,0.5222222222222223
0.00887775549368,0.5277777777777778
0.00901435797187,0.5333333333333333
0.00933612512885,0.5388888888888889
0.013246604359,0.5444444444444444
0.0135244861523,0.55
0.0135294478764,0.5555555555555556
0.0135760214097,0.5611111111111111
0.0135948371114,0.5666666666666667
0.0136173693108,0.5722222222222222
0.013650543934,0.5777777777777777
0.0136575882772,0.5833333333333334
0.013743030658,0.5888888888888889
0.0137444206824,0.5944444444444444
0.013755585641,0.6
0.0137821460274,0.6055555555555555
0.0138230267071,0.6111111111111112
0.0138314941231,0.6166666666666667
0.01384476142,0.6222222222222222
0.0138723789379,0.6277777777777778
0.0139443450826,0.6333333333333333
0.0139596016585,0.6388888888888888
0.0139641949661,0.6444444444444445
0.0139830356264,0.65
0.0139836878498,0.6555555555555556
0.0140116421365,0.6611111111111111
0.0140178161627,0.6666666666666666
0.01402925042,0.6722222222222223
0.0140387656783,0.6777777777777778
0.0140446638593,0.6833333333333333
0.0140479900511,0.6888888888888889
0.0140539486179,0.6944444444444444
0.014060685029,0.7
0.0140801372037,0.7055555555555556
0.0140917375997,0.7111111111111111
0.0141414157248,0.7166666666666667
0.0141746103949,0.7222222222222222
0.014233886095,0.7277777777777777
0.0142454025117,0.7333333333333333
0.0142567075731,0.7388888888888889
0.0142808628876,0.7444444444444445
0.34361051706,0.75
0.34361051706,0.7555555555555555
0.452534046989,0.7611111111111111
0.523532350308,0.7666666666666667
0.67974185557,0.7722222222222223
0.67974185557,0.7777777777777778
0.68722103412,0.7833333333333333
0.702233192963,0.7888888888888889
0.702233192963,0.7944444444444444
0.905068093978,0.8
1.36173693108,0.8055555555555556
1.3743030658,0.8111111111111111
1.402925042,0.8166666666666667
1.40387656783,0.8222222222222222
1.69605913229,0.8277777777777777
1.7218251198,0.8333333333333334
2.07570202142,0.8388888888888889
2.08453586367,0.8444444444444444
2.11289179143,0.85
2.20055464886,0.8555555555555555
2.20055464886,0.8611111111111112
2.77587850356,0.8666666666666667
2.8089935449,0.8722222222222222
3.06181796,0.8777777777777778
3.48993072546,0.8833333333333333
3.56879367505,0.8888888888888888
3.60856836923,0.8944444444444445
4.45823745662,0.9
6.4136091507,0.9055555555555556
7.12229311155,0.9111111111111111
7.94394747535,0.9166666666666666
8.49785167565,0.9222222222222223
9.36733608485,0.9277777777777778
16.3162598315,0.9333333333333333
17.0908006064,0.9388888888888889
18.5188868951,0.9444444444444444
19.9172556801,0.95
20.4904418977,0.9555555555555556
21.9079029372,0.9611111111111111
23.3947393178,0.9666666666666667
23.9721209347,0.9722222222222222
24.7193997537,0.9777777777777777
25.1524042352,0.9833333333333333
25.3593588285,0.9888888888888889
26.7244132219,0.9944444444444445
27.2008307956,1.0
