Congestion,CDF
0.0,0.005555555555555556
0.0,0.011111111111111112
0.0,0.016666666666666666
0.0,0.022222222222222223
0.0,0.027777777777777776
0.0,0.03333333333333333
0.0,0.03888888888888889
0.0,0.044444444444444446
0.0,0.05
0.0,0.05555555555555555
1.05517874596e-06,0.06111111111111111
1.21234963232e-06,0.06666666666666667
2.7288985752e-06,0.07222222222222222
3.98844400751e-06,0.07777777777777778
4.08115971851e-06,0.08333333333333333
5.38853574644e-06,0.08888888888888889
5.92810250744e-06,0.09444444444444444
8.17027705508e-06,0.1
8.21242792321e-06,0.10555555555555556
8.40208464986e-06,0.1111111111111111
8.57500919237e-06,0.11666666666666667
9.43933327004e-06,0.12222222222222222
9.65827634092e-06,0.12777777777777777
1.0785338058e-05,0.13333333333333333
1.10463529461e-05,0.1388888888888889
1.1631950356e-05,0.14444444444444443
1.34501827942e-05,0.15
1.47199780008e-05,0.15555555555555556
1.53706220279e-05,0.16111111111111112
1.598607896e-05,0.16666666666666666
1.62390115497e-05,0.17222222222222222
1.63694323175e-05,0.17777777777777778
1.69117749604e-05,0.18333333333333332
1.74994269058e-05,0.18888888888888888
1.77948247127e-05,0.19444444444444445
1.79957851202e-05,0.2
1.80956258222e-05,0.20555555555555555
1.83034248798e-05,0.2111111111111111
1.84822824542e-05,0.21666666666666667
1.85228398788e-05,0.2222222222222222
1.91417355401e-05,0.22777777777777777
1.93014326237e-05,0.23333333333333334
1.95230010544e-05,0.2388888888888889
2.11423630058e-05,0.24444444444444444
2.2247294446e-05,0.25
2.41540907062e-05,0.25555555555555554
2.45367449262e-05,0.2611111111111111
2.48898464724e-05,0.26666666666666666
2.57327395315e-05,0.2722222222222222
9.096328584e-05,0.2777777777777778
0.00018192657168,0.2833333333333333
0.000199422200375,0.28888888888888886
0.000199422200375,0.29444444444444445
0.00020531069808,0.3
0.00020531069808,0.3055555555555556
0.000310828572676,0.3111111111111111
0.000408115971851,0.31666666666666665
0.00041062139616,0.32222222222222224
0.000546714257415,0.3277777777777778
0.000817027705508,0.3333333333333333
0.00084968214732,0.3388888888888889
0.00089978925601,0.34444444444444444
0.00089978925601,0.35
0.00114924402508,0.35555555555555557
0.00174994269058,0.3611111111111111
0.00177948247127,0.36666666666666664
0.00183636543213,0.37222222222222223
0.00197832306181,0.37777777777777777
0.00209308395484,0.38333333333333336
0.00209308395484,0.3888888888888889
0.00238674435011,0.39444444444444443
0.00252235227243,0.4
0.00271220511101,0.40555555555555556
0.0028996060434,0.4111111111111111
0.00360222667846,0.4166666666666667
0.00380866554979,0.4222222222222222
0.00400725750886,0.42777777777777776
0.00492652402908,0.43333333333333335
0.00578402494832,0.4388888888888889
0.00605586141706,0.4444444444444444
0.00747791747616,0.45
0.00847127048769,0.45555555555555555
0.014843106818,0.46111111111111114
0.0149826223858,0.4666666666666667
0.0150715050067,0.4722222222222222
0.0170195241633,0.4777777777777778
0.0171330598643,0.48333333333333334
0.0172013057633,0.4888888888888889
0.0172025649774,0.49444444444444446
0.0172060868133,0.5
0.0172137380868,0.5055555555555555
0.0172235519253,0.5111111111111111
0.0172332501243,0.5166666666666667
0.0172537557784,0.5222222222222223
0.0172541378556,0.5277777777777778
0.0172568311134,0.5333333333333333
0.0172632125075,0.5388888888888889
0.0172679918727,0.5444444444444444
0.0172727580022,0.55
0.0172750491941,0.5555555555555556
0.0172753579906,0.5611111111111111
0.0172842716725,0.5666666666666667
0.0172982352869,0.5722222222222222
0.0173021402517,0.5777777777777777
0.0173068352989,0.5833333333333334
0.0173071290631,0.5888888888888889
0.0173113103383,0.5944444444444444
0.0173182777405,0.6
0.0173222491499,0.6055555555555555
0.0173247873808,0.6111111111111112
0.0173260487419,0.6166666666666667
0.0173269915015,0.6222222222222222
0.0173281782193,0.6277777777777778
0.0173297933224,0.6333333333333333
0.0173347166117,0.6388888888888888
0.0173374450534,0.6444444444444445
0.0173493221465,0.65
0.0173568361471,0.6555555555555556
0.0173715023954,0.6611111111111111
0.0173741228903,0.6666666666666666
0.0173771003073,0.6722222222222223
0.0173818539899,0.6777777777777778
0.0183358372086,0.6833333333333333
0.0191924651751,0.6888888888888889
0.0209091111617,0.6944444444444444
0.0214171946197,0.7
0.0225330123167,0.7055555555555556
0.0227798118557,0.7111111111111111
0.0241248301351,0.7166666666666667
0.0260549733975,0.7222222222222222
0.0262176059942,0.7277777777777777
0.0266477836482,0.7333333333333333
0.0270578144592,0.7388888888888889
0.0280236420933,0.7444444444444445
0.431353446391,0.75
0.431353446391,0.7555555555555555
0.57379126956,0.7611111111111111
0.669347052746,0.7666666666666667
0.860304340663,0.7722222222222223
0.860304340663,0.7777777777777778
0.862706892781,0.7833333333333333
0.866302437097,0.7888888888888889
0.866302437097,0.7944444444444444
1.14758253912,0.8
1.72235519253,0.8055555555555556
1.72537557784,0.8111111111111111
1.73222491499,0.8166666666666667
1.73247873808,0.8222222222222222
2.15148402272,0.8277777777777777
2.15767469714,0.8333333333333334
2.58873150791,0.8388888888888889
2.59357823732,0.8444444444444444
2.60041692351,0.85
2.73775219102,0.8555555555555555
2.73775219102,0.8611111111111112
3.45728740718,0.8666666666666667
3.46520424723,0.8722222222222222
3.87480903514,0.8777777777777778
4.32639605924,0.8833333333333333
4.46167999186,0.8888888888888888
4.47122385219,0.8944444444444445
5.60549256503,0.9
7.93553036432,0.9055555555555556
8.91968868062,0.9111111111111111
9.93091508532,0.9166666666666666
10.645371792,0.9222222222222223
11.6680653249,0.9277777777777778
20.3136013064,0.9333333333333333
21.1970779204,0.9388888888888889
22.9352633194,0.9444444444444444
24.6659762257,0.95
25.5020197474,0.9555555555555556
27.2377033622,0.9611111111111111
28.9845312623,0.9666666666666667
29.8255435019,0.9722222222222222
30.6864836786,0.9777777777777777
31.5523426891,0.9833333333333333
32.1707943604,0.9888888888888889
33.2656486756,0.9944444444444445
34.7639109142,1.0
