Congestion,CDF
0.0,0.005555555555555556
0.0,0.011111111111111112
0.0,0.016666666666666666
0.0,0.022222222222222223
0.0,0.027777777777777776
0.0,0.03333333333333333
0.0,0.03888888888888889
0.0,0.044444444444444446
0.0,0.05
0.0,0.05555555555555555
1.06484050633e-06,0.06111111111111111
1.22345053032e-06,0.06666666666666667
2.75388577686e-06,0.07222222222222222
4.02496425623e-06,0.07777777777777778
4.11852892007e-06,0.08333333333333333
5.43787595665e-06,0.08888888888888889
5.98238326897e-06,0.09444444444444444
8.24508832225e-06,0.1
8.28762514545e-06,0.10555555555555556
8.47901846683e-06,0.1111111111111111
8.65352639557e-06,0.11666666666666667
9.52576466991e-06,0.12222222222222222
9.74671249638e-06,0.12777777777777777
1.08840941713e-05,0.13333333333333333
1.11474990463e-05,0.1388888888888889
1.17384584878e-05,0.14444444444444443
1.35733395992e-05,0.15
1.48547617052e-05,0.15555555555555556
1.55113633642e-05,0.16111111111111112
1.61324557372e-05,0.16666666666666666
1.6387704308e-05,0.17222222222222222
1.65193192756e-05,0.17777777777777778
1.70666278872e-05,0.18333333333333332
1.76596606767e-05,0.18888888888888888
1.79577632981e-05,0.19444444444444445
1.81605638027e-05,0.2
1.82613186976e-05,0.20555555555555555
1.84710204705e-05,0.2111111111111111
1.8651515757e-05,0.21666666666666667
1.86924445463e-05,0.2222222222222222
1.93170071352e-05,0.22777777777777777
1.94781664876e-05,0.23333333333333334
1.9701763713e-05,0.2388888888888889
2.13359533769e-05,0.24444444444444444
2.24510021388e-05,0.25
2.43752580083e-05,0.25555555555555554
2.47614160075e-05,0.2611111111111111
2.51177507334e-05,0.26666666666666666
2.59683617557e-05,0.2722222222222222
9.17961925619e-05,0.2777777777777778
0.000183592385124,0.2833333333333333
0.000201248212812,0.28888888888888886
0.000201248212812,0.29444444444444445
0.000207190628636,0.3
0.000207190628636,0.3055555555555556
0.00031367467927,0.3111111111111111
0.000411852892007,0.31666666666666665
0.000414381257272,0.32222222222222224
0.000551720254899,0.3277777777777778
0.000824508832225,0.3333333333333333
0.000857462274934,0.3388888888888889
0.000908028190134,0.34444444444444444
0.000908028190134,0.35
0.00115976709563,0.35555555555555557
0.00153115468062,0.3611111111111111
0.00176596606767,0.36666666666666664
0.00179577632981,0.37222222222222223
0.00185318014037,0.37777777777777777
0.00195411067573,0.38333333333333336
0.00199643760726,0.3888888888888889
0.00211224931018,0.39444444444444443
0.00211224931018,0.4
0.00240859861135,0.40555555555555556
0.0025454482297,0.4111111111111111
0.00273703945871,0.4166666666666667
0.00292615633061,0.4222222222222222
0.0036352105223,0.42777777777777776
0.00384353965431,0.43333333333333335
0.0040439500237,0.4388888888888889
0.00497163382192,0.4444444444444444
0.00583698646148,0.45
0.00611131200501,0.45555555555555555
0.00754638914223,0.46111111111111114
0.00854883780584,0.4666666666666667
0.0109717415469,0.4722222222222222
0.0112598106204,0.4777777777777778
0.0112653181457,0.48333333333333334
0.0113174834006,0.4888888888888889
0.0113421136923,0.49444444444444446
0.0113638486241,0.5
0.0114088851277,0.5055555555555555
0.0114199887104,0.5111111111111111
0.0115045809273,0.5166666666666667
0.0115061023437,0.5222222222222223
0.0115185961298,0.5277777777777778
0.0115483401075,0.5333333333333333
0.0115942678671,0.5388888888888889
0.0116036143529,0.5444444444444444
0.0116195120339,0.55
0.0116539997821,0.5555555555555556
0.0117300030778,0.5611111111111111
0.0117522849572,0.5666666666666667
0.0117531865731,0.5722222222222222
0.0117733953551,0.5777777777777777
0.0117756814853,0.5833333333333334
0.0118053845861,0.5888888888888889
0.0118181579398,0.5944444444444444
0.0118252399923,0.6
0.0118357629617,0.6055555555555555
0.0118424562112,0.6111111111111112
0.0118460976835,0.6166666666666667
0.0118529009977,0.6222222222222222
0.0118604468123,0.6277777777777778
0.0118820990402,0.6333333333333333
0.0118951330371,0.6388888888888888
0.0119507811867,0.6444444444444445
0.01198815243,0.65
0.0120543681356,0.6555555555555556
0.0120673309838,0.6611111111111111
0.0120798535208,0.6666666666666666
0.012107374015,0.6722222222222223
0.0152095074735,0.6777777777777778
0.0185037295832,0.6833333333333333
0.0193682012769,0.6888888888888889
0.0211005657588,0.6944444444444444
0.0216133014908,0.7
0.0227393361896,0.7055555555555556
0.0229883955524,0.7111111111111111
0.0243457295123,0.7166666666666667
0.026293546161,0.7222222222222222
0.0264576679056,0.7277777777777777
0.0268917844879,0.7333333333333333
0.0273055697523,0.7388888888888889
0.028280241002,0.7444444444444445
0.287652558592,0.75
0.287652558592,0.7555555555555555
0.377249446687,0.7611111111111111
0.435879559751,0.7666666666666667
0.567105684615,0.7722222222222223
0.567105684615,0.7777777777777778
0.575305117183,0.7833333333333333
0.592122810562,0.7888888888888889
0.592122810562,0.7944444444444444
0.754498893374,0.8
1.13638486241,0.8055555555555556
1.15045809273,0.8111111111111111
1.18252399923,0.8166666666666667
1.18357629617,0.8222222222222222
1.41363362063,0.8277777777777777
1.44248656934,0.8333333333333334
1.74242434192,0.8388888888888889
1.75154959727,0.8444444444444444
1.78329046926,0.85
1.84907539896,0.8555555555555555
1.84907539896,0.8611111111111112
2.33146298108,0.8666666666666667
2.36856868047,0.8722222222222222
2.5545221334,0.8777777777777778
2.93683969704,0.8833333333333333
2.99273632381,0.8888888888888888
3.03728530298,0.8944444444444445
3.72975062912,0.9
5.40140005776,0.9055555555555556
5.96834353734,0.9111111111111111
6.66184483612,0.9166666666666666
7.12020315032,0.9222222222222223
7.86728164968,0.9277777777777778
13.7062129764,0.9333333333333333
14.3794231256,0.9388888888888889
15.5901605271,0.9444444444444444
16.7677286756,0.95
17.215015493,0.9555555555555556
18.413830736,0.9611111111111111
19.6919688115,0.9666666666666667
20.142887624,0.9722222222222222
20.7891429662,0.9777777777777777
20.9422584343,0.9833333333333333
21.3082876022,0.9888888888888889
22.4502864733,0.9944444444444445
22.6456975409,1.0
