Congestion,CDF
0.00698536349637,0.009433962264150943
0.00698536349637,0.018867924528301886
0.00699492688036,0.02830188679245283
0.00699492688036,0.03773584905660377
0.0069961196674,0.04716981132075472
0.0069961196674,0.05660377358490566
0.0069974807827,0.0660377358490566
0.0069974807827,0.07547169811320754
0.00700180365185,0.08490566037735849
0.00700180365185,0.09433962264150944
0.00700389557387,0.10377358490566038
0.00700389557387,0.11320754716981132
0.00700986010193,0.12264150943396226
0.00700986010193,0.1320754716981132
0.00702195078101,0.14150943396226415
0.00702195078101,0.1509433962264151
0.00703127679388,0.16037735849056603
0.00703127679388,0.16981132075471697
0.00703368487933,0.1792452830188679
0.00703368487933,0.18867924528301888
0.00704075816097,0.19811320754716982
0.00704075816097,0.20754716981132076
0.00705160158646,0.2169811320754717
0.00705160158646,0.22641509433962265
0.00705286831998,0.2358490566037736
0.00705286831998,0.24528301886792453
0.00705594258473,0.25471698113207547
0.00705594258473,0.2641509433962264
0.053974704627,0.27358490566037735
0.053974704627,0.2830188679245283
0.0716935820897,0.29245283018867924
0.0716935820897,0.3018867924528302
0.0988482057978,0.3113207547169811
0.0988482057978,0.32075471698113206
0.10408740043,0.330188679245283
0.10408740043,0.33962264150943394
0.104224527379,0.3490566037735849
0.104224527379,0.3584905660377358
0.107665968925,0.36792452830188677
0.107665968925,0.37735849056603776
0.119169897995,0.3867924528301887
0.119169897995,0.39622641509433965
0.119427504615,0.4056603773584906
0.119427504615,0.41509433962264153
0.120941481773,0.42452830188679247
0.120941481773,0.4339622641509434
0.127642909383,0.44339622641509435
0.127642909383,0.4528301886792453
0.134076473771,0.46226415094339623
0.134076473771,0.4716981132075472
0.134573554278,0.4811320754716981
0.134573554278,0.49056603773584906
0.154553663319,0.5
0.154553663319,0.5094339622641509
0.158958664152,0.5188679245283019
0.158958664152,0.5283018867924528
0.159195540667,0.5377358490566038
0.159195540667,0.5471698113207547
0.166392482451,0.5566037735849056
0.166392482451,0.5660377358490566
0.169783789203,0.5754716981132075
0.169783789203,0.5849056603773585
0.174956751191,0.5943396226415094
0.174956751191,0.6037735849056604
0.182180997992,0.6132075471698113
0.182180997992,0.6226415094339622
0.1887677978,0.6320754716981132
0.1887677978,0.6415094339622641
0.192747136251,0.6509433962264151
0.192747136251,0.660377358490566
0.197948580387,0.6698113207547169
0.197948580387,0.6792452830188679
0.203328357608,0.6886792452830188
0.203328357608,0.6981132075471698
0.222495169804,0.7075471698113207
0.222495169804,0.7169811320754716
0.226580606367,0.7264150943396226
0.226580606367,0.7358490566037735
0.227110257525,0.7452830188679245
0.227110257525,0.7547169811320755
0.244182303831,0.7641509433962265
0.244182303831,0.7735849056603774
0.244923237899,0.7830188679245284
0.244923237899,0.7924528301886793
0.277877319665,0.8018867924528302
0.277877319665,0.8113207547169812
0.277893515926,0.8207547169811321
0.277893515926,0.8301886792452831
0.285269126415,0.839622641509434
0.285269126415,0.8490566037735849
0.307206317399,0.8584905660377359
0.307206317399,0.8679245283018868
0.307859373169,0.8773584905660378
0.307859373169,0.8867924528301887
0.309635020812,0.8962264150943396
0.309635020812,0.9056603773584906
0.333689477048,0.9150943396226415
0.333689477048,0.9245283018867925
0.334303928179,0.9339622641509434
0.334303928179,0.9433962264150944
0.363721789724,0.9528301886792453
0.363721789724,0.9622641509433962
0.410062890053,0.9716981132075472
0.410062890053,0.9811320754716981
0.428262772289,0.9905660377358491
0.428262772289,1.0
