Congestion,CDF
0.0,0.007352941176470588
0.0,0.014705882352941176
0.0,0.022058823529411766
0.0,0.029411764705882353
0.0,0.03676470588235294
0.0,0.04411764705882353
0.0,0.051470588235294115
0.0,0.058823529411764705
0.0,0.0661764705882353
0.0,0.07352941176470588
0.0,0.08088235294117647
0.0,0.08823529411764706
0.0,0.09558823529411764
0.0,0.10294117647058823
2.29314962252e-06,0.11029411764705882
2.29314962252e-06,0.11764705882352941
2.29314962252e-06,0.125
2.29314962252e-06,0.1323529411764706
2.29314962252e-06,0.13970588235294118
2.29314962252e-06,0.14705882352941177
2.29314962252e-06,0.15441176470588236
2.29314962252e-06,0.16176470588235295
2.29314962252e-06,0.16911764705882354
2.29314962252e-06,0.17647058823529413
2.29314962252e-06,0.18382352941176472
2.29314962252e-06,0.19117647058823528
2.29314962252e-06,0.19852941176470587
2.29314962252e-06,0.20588235294117646
2.29314962252e-06,0.21323529411764705
2.29314962252e-06,0.22058823529411764
2.29314962252e-06,0.22794117647058823
2.29314962252e-06,0.23529411764705882
2.29314962252e-06,0.2426470588235294
2.29314962252e-06,0.25
2.29314962252e-06,0.25735294117647056
2.29314962252e-06,0.2647058823529412
2.29314962252e-06,0.27205882352941174
2.29314962252e-06,0.27941176470588236
2.29314962252e-06,0.2867647058823529
2.29314962252e-06,0.29411764705882354
2.29314962252e-06,0.3014705882352941
5.73287405629e-05,0.3088235294117647
5.73287405629e-05,0.3161764705882353
6.19150398079e-05,0.3235294117647059
7.13853867944e-05,0.33088235294117646
0.000114657481126,0.3382352941176471
0.000114657481126,0.34558823529411764
0.000114657481126,0.35294117647058826
0.000114657481126,0.3602941176470588
0.000171986221689,0.36764705882352944
0.000191095801876,0.375
0.000191095801876,0.38235294117647056
0.000191095801876,0.3897058823529412
0.000229314962252,0.39705882352941174
0.000229314962252,0.40441176470588236
0.000229314962252,0.4117647058823529
0.000229314962252,0.41911764705882354
0.000229314962252,0.4264705882352941
0.000229314962252,0.4338235294117647
0.000229314962252,0.4411764705882353
0.000286643702814,0.4485294117647059
0.000343972443377,0.45588235294117646
0.000343972443377,0.4632352941176471
0.000420410764128,0.47058823529411764
0.000458629924503,0.47794117647058826
0.000458629924503,0.4852941176470588
0.000687944886755,0.49264705882352944
0.000936369429194,0.5
0.000950308514333,0.5073529411764706
0.00166253347632,0.5147058823529411
0.0017007526367,0.5220588235294118
0.00219760172158,0.5294117647058824
0.00273266996683,0.5367647058823529
0.00277088912721,0.5441176470588235
0.00296198492908,0.5514705882352942
0.00300020408946,0.5588235294117647
0.00322951905171,0.5661764705882353
0.0143597650373,0.5735294117647058
0.0145066644197,0.5808823529411765
0.0148292510223,0.5882352941176471
0.0148888145861,0.5955882352941176
0.0149590430648,0.6029411764705882
0.0149932697074,0.6102941176470589
0.0151233711586,0.6176470588235294
0.0151547594134,0.625
0.0151700794346,0.6323529411764706
0.015184053765,0.6397058823529411
0.0151844303702,0.6470588235294118
0.0151851808704,0.6544117647058824
0.015186208464,0.6617647058823529
0.0151864205334,0.6691176470588235
0.01518712285,0.6764705882352942
0.0151939769699,0.6838235294117647
0.0151979304383,0.6911764705882353
0.0152110858859,0.6985294117647058
0.015216479083,0.7058823529411765
0.0152165070322,0.7132352941176471
0.0152165756391,0.7205882352941176
0.015216582933,0.7279411764705882
0.0152170277868,0.7352941176470589
0.0152170326496,0.7426470588235294
0.0152170326496,0.75
0.378240359666,0.7573529411764706
0.379655211601,0.7647058823529411
0.379849424248,0.7720588235294118
0.749663485369,0.7794117647058824
0.749663485369,0.7867647058823529
0.759896521917,0.7941176470588235
0.759896521917,0.8014705882352942
1.1389656348,0.8088235294117647
1.26567733153,0.8161764705882353
1.26567733153,0.8235294117647058
1.26567733153,0.8308823529411765
1.49590430648,0.8382352941176471
1.51864205334,0.8455882352941176
1.51939769699,0.8529411764705882
1.52165070322,0.8602941176470589
1.5216582933,0.8676470588235294
1.52170326496,0.875
1.52170326496,0.8823529411764706
1.8983674966,0.8897058823529411
2.2325885876,0.8970588235294118
2.27830189842,0.9044117647058824
2.78115327287,0.9117647058823529
2.98478576509,0.9191176470588235
3.04331585721,0.9264705882352942
4.56510930861,0.9338235294117647
6.20112991849,0.9411764705882353
11.0315732016,0.9485294117647058
11.2442837926,0.9558823529411765
14.5782556436,0.9632352941176471
17.897634649,0.9705882352941176
17.9047731877,0.9779411764705882
18.3735654855,0.9852941176470589
19.8242319275,0.9926470588235294
19.9192627789,1.0
