Congestion,CDF
0.0,0.007352941176470588
0.0,0.014705882352941176
0.0,0.022058823529411766
0.0,0.029411764705882353
0.0,0.03676470588235294
0.0,0.04411764705882353
0.0,0.051470588235294115
0.0,0.058823529411764705
0.0,0.0661764705882353
0.0,0.07352941176470588
0.0,0.08088235294117647
0.0,0.08823529411764706
0.0,0.09558823529411764
0.0,0.10294117647058823
8.01409149721e-07,0.11029411764705882
8.01409149721e-07,0.11764705882352941
8.01409149721e-07,0.125
8.01409149721e-07,0.1323529411764706
8.01409149721e-07,0.13970588235294118
8.01409149721e-07,0.14705882352941177
8.01409149721e-07,0.15441176470588236
8.01409149721e-07,0.16176470588235295
8.01409149721e-07,0.16911764705882354
8.01409149721e-07,0.17647058823529413
8.01409149721e-07,0.18382352941176472
8.01409149721e-07,0.19117647058823528
8.01409149721e-07,0.19852941176470587
8.01409149721e-07,0.20588235294117646
8.01409149721e-07,0.21323529411764705
8.01409149721e-07,0.22058823529411764
8.01409149721e-07,0.22794117647058823
8.01409149721e-07,0.23529411764705882
8.01409149721e-07,0.2426470588235294
8.01409149721e-07,0.25
8.01409149721e-07,0.25735294117647056
8.01409149721e-07,0.2647058823529412
8.01409149721e-07,0.27205882352941174
8.01409149721e-07,0.27941176470588236
8.01409149721e-07,0.2867647058823529
8.01409149721e-07,0.29411764705882354
8.01409149721e-07,0.3014705882352941
2.0035228743e-05,0.3088235294117647
2.0035228743e-05,0.3161764705882353
2.16380470425e-05,0.3235294117647059
4.00704574861e-05,0.33088235294117646
4.00704574861e-05,0.3382352941176471
4.00704574861e-05,0.34558823529411764
4.00704574861e-05,0.35294117647058826
6.01056862291e-05,0.3602941176470588
6.67840958101e-05,0.36764705882352944
6.67840958101e-05,0.375
6.67840958101e-05,0.38235294117647056
8.01409149721e-05,0.3897058823529412
8.01409149721e-05,0.39705882352941174
8.01409149721e-05,0.40441176470588236
8.01409149721e-05,0.4117647058823529
8.01409149721e-05,0.41911764705882354
8.01409149721e-05,0.4264705882352941
8.01409149721e-05,0.4338235294117647
0.000100176143715,0.4411764705882353
0.000120211372458,0.4485294117647059
0.000120211372458,0.45588235294117646
0.000146925010782,0.4632352941176471
0.000160281829944,0.47058823529411764
0.000160281829944,0.47794117647058826
0.000240422744916,0.4852941176470588
0.00032724206947,0.49264705882352944
0.000581021633548,0.5
0.00059437845271,0.5073529411764706
0.000768017101816,0.5147058823529411
0.000955012570085,0.5220588235294118
0.000968369389247,0.5294117647058824
0.00103515348506,0.5367647058823529
0.00104851030422,0.5441176470588235
0.00112865121919,0.5514705882352942
0.0318165971613,0.5588235294117647
0.032502391594,0.5661764705882353
0.0403217002182,0.5735294117647058
0.0404041637766,0.5808823529411765
0.0405225537596,0.5882352941176471
0.0405565330482,0.5955882352941176
0.0405835599527,0.6029411764705882
0.0406354869618,0.6102941176470589
0.0407348170817,0.6176470588235294
0.0407503590309,0.625
0.0407712233867,0.6323529411764706
0.0407772614208,0.6397058823529411
0.0407773175828,0.6470588235294118
0.0407777535729,0.6544117647058824
0.0407777697195,0.6617647058823529
0.0407781163475,0.6691176470588235
0.0407786144568,0.6764705882352942
0.040785170971,0.6838235294117647
0.0407901259648,0.6911764705882353
0.0408022341951,0.6985294117647058
0.0408071838954,0.7058823529411765
0.0408071963321,0.7132352941176471
0.0408072576614,0.7205882352941176
0.0408072613439,0.7279411764705882
0.0408077073832,0.7352941176470589
0.0408077098384,0.7426470588235294
0.0408077098384,0.75
1.01944424299,0.7573529411764706
1.01962927428,0.7647058823529411
1.0822957765,0.7720588235294118
2.03177434809,0.7794117647058824
2.03177434809,0.7867647058823529
2.03950629824,0.7941176470588235
2.03950629824,0.8014705882352942
3.05833272896,0.8088235294117647
3.39831556462,0.8161764705882353
3.39831556462,0.8235294117647058
3.39831556462,0.8308823529411765
4.05835599527,0.8382352941176471
4.07781163475,0.8455882352941176
4.0785170971,0.8529411764705882
4.08071963321,0.8602941176470589
4.08072613439,0.8676470588235294
4.08077098384,0.875
4.08077098384,0.8823529411764706
5.09730568866,0.8897058823529411
6.08402972405,0.8970588235294118
6.11728165553,0.9044117647058824
7.47335146771,0.9117647058823529
8.11400930008,0.9191176470588235
8.16145190054,0.9264705882352942
12.242312706,0.9338235294117647
16.6511646463,0.9411764705882353
29.5848319036,0.9485294117647058
30.2297721703,0.9558823529411765
39.1028771859,0.9632352941176471
48.4599812162,0.9705882352941176
49.2972811802,0.9779411764705882
51.6416409324,0.9852941176470589
53.3376975578,0.9926470588235294
56.5879367172,1.0
