Congestion,CDF
0.0,0.007352941176470588
0.0,0.014705882352941176
0.0,0.022058823529411766
0.0,0.029411764705882353
0.0,0.03676470588235294
0.0,0.04411764705882353
0.0,0.051470588235294115
0.0,0.058823529411764705
0.0,0.0661764705882353
0.0,0.07352941176470588
0.0,0.08088235294117647
0.0,0.08823529411764706
0.0,0.09558823529411764
0.0,0.10294117647058823
2.04253442333e-06,0.11029411764705882
2.04253442333e-06,0.11764705882352941
2.04253442333e-06,0.125
2.04253442333e-06,0.1323529411764706
2.04253442333e-06,0.13970588235294118
2.04253442333e-06,0.14705882352941177
2.04253442333e-06,0.15441176470588236
2.04253442333e-06,0.16176470588235295
2.04253442333e-06,0.16911764705882354
2.04253442333e-06,0.17647058823529413
2.04253442333e-06,0.18382352941176472
2.04253442333e-06,0.19117647058823528
2.04253442333e-06,0.19852941176470587
2.04253442333e-06,0.20588235294117646
2.04253442333e-06,0.21323529411764705
2.04253442333e-06,0.22058823529411764
2.04253442333e-06,0.22794117647058823
2.04253442333e-06,0.23529411764705882
2.04253442333e-06,0.2426470588235294
2.04253442333e-06,0.25
2.04253442333e-06,0.25735294117647056
2.04253442333e-06,0.2647058823529412
2.04253442333e-06,0.27205882352941174
2.04253442333e-06,0.27941176470588236
2.04253442333e-06,0.2867647058823529
2.04253442333e-06,0.29411764705882354
2.04253442333e-06,0.3014705882352941
5.10633605833e-05,0.3088235294117647
5.10633605833e-05,0.3161764705882353
5.514842943e-05,0.3235294117647059
0.000102126721167,0.33088235294117646
0.000102126721167,0.3382352941176471
0.000102126721167,0.34558823529411764
0.000102126721167,0.35294117647058826
0.00015319008175,0.3602941176470588
0.000170211201944,0.36764705882352944
0.000170211201944,0.375
0.000170211201944,0.38235294117647056
0.000204253442333,0.3897058823529412
0.000204253442333,0.39705882352941174
0.000204253442333,0.40441176470588236
0.000204253442333,0.4117647058823529
0.000204253442333,0.41911764705882354
0.000204253442333,0.4264705882352941
0.000204253442333,0.4338235294117647
0.000255316802916,0.4411764705882353
0.0003063801635,0.4485294117647059
0.0003063801635,0.45588235294117646
0.000374464644277,0.4632352941176471
0.000408506884666,0.47058823529411764
0.000408506884666,0.47794117647058826
0.000612760326999,0.4852941176470588
0.000834034889527,0.49264705882352944
0.00148083745692,0.5
0.0015148796973,0.5073529411764706
0.00187035832003,0.5147058823529411
0.00195742882236,0.5220588235294118
0.0024340201878,0.5294117647058824
0.00246806242819,0.5367647058823529
0.00263827363014,0.5441176470588235
0.00267231587053,0.5514705882352942
0.00278084282053,0.5588235294117647
0.00287656931286,0.5661764705882353
0.0161059413802,0.5735294117647058
0.0162456771736,0.5808823529411765
0.0165518548992,0.5882352941176471
0.0166072936882,0.5955882352941176
0.0166725751913,0.6029411764705882
0.0167093368809,0.6102941176470589
0.0168327686632,0.6176470588235294
0.0168618898051,0.625
0.016877800462,0.6323529411764706
0.0168907606015,0.6397058823529411
0.0168909630542,0.6470588235294118
0.0168916232616,0.6544117647058824
0.0168925464613,0.6617647058823529
0.0168927542513,0.6691176470588235
0.0168933988232,0.6764705882352942
0.0169002005145,0.6838235294117647
0.0169043583832,0.6911764705882353
0.0169172344852,0.6985294117647058
0.0169225325143,0.7058823529411765
0.0169225570076,0.7132352941176471
0.0169226231183,0.7205882352941176
0.0169226293911,0.7279411764705882
0.0169230744339,0.7352941176470589
0.016923078616,0.7426470588235294
0.016923078616,0.75
0.422313661532,0.7573529411764706
0.422505012861,0.7647058823529411
0.424649752817,0.7720588235294118
0.835466844043,0.7794117647058824
0.835466844043,0.7867647058823529
0.845217919162,0.7941176470588235
0.845217919162,0.8014705882352942
1.2669409846,0.8088235294117647
1.40787278311,0.8161764705882353
1.40787278311,0.8235294117647058
1.40787278311,0.8308823529411765
1.66725751913,0.8382352941176471
1.68927542513,0.8455882352941176
1.69002005145,0.8529411764705882
1.69225570076,0.8602941176470589
1.69226293911,0.8676470588235294
1.6923078616,0.875
1.6923078616,0.8823529411764706
2.11165354385,0.8897058823529411
2.49065233396,0.8970588235294118
2.53429397931,0.9044117647058824
3.09406176362,0.9117647058823529
3.32798688794,0.9191176470588235
3.38452525094,0.9264705882352942
5.07692316658,0.9338235294117647
6.89789805752,0.9411764705882353
12.2684623826,0.9485294117647058
12.5107035315,0.9558823529411765
16.2132765334,0.9632352941176471
19.9399368914,0.9705882352941176
20.1269727234,0.9779411764705882
20.4353505589,0.9852941176470589
22.0599182762,0.9926470588235294
22.3380025583,1.0
