Congestion,CDF
0.0105937333967,0.005555555555555556
0.0105937333967,0.011111111111111112
0.0112878103207,0.016666666666666666
0.0112878103207,0.022222222222222223
0.0113393661131,0.027777777777777776
0.0113393661131,0.03333333333333333
0.0116230145071,0.03888888888888889
0.0116230145071,0.044444444444444446
0.0116501621709,0.05
0.0116501621709,0.05555555555555555
0.0116915693624,0.06111111111111111
0.0116915693624,0.06666666666666667
0.0117291748043,0.07222222222222222
0.0117291748043,0.07777777777777778
0.0117382715238,0.08333333333333333
0.0117382715238,0.08888888888888889
0.0117739125624,0.09444444444444444
0.0117739125624,0.1
0.0118122722699,0.10555555555555556
0.0118122722699,0.1111111111111111
0.0118650086121,0.11666666666666667
0.0118650086121,0.12222222222222222
0.0120765911125,0.12777777777777777
0.0120765911125,0.13333333333333333
0.0120845388381,0.1388888888888889
0.0120845388381,0.14444444444444443
0.0121808740879,0.15
0.0121808740879,0.15555555555555556
0.0122144497165,0.16111111111111112
0.0122144497165,0.16666666666666666
0.0122313053497,0.17222222222222222
0.0122313053497,0.17777777777777778
0.0122346575635,0.18333333333333332
0.0122346575635,0.18888888888888888
0.0122686867584,0.19444444444444445
0.0122686867584,0.2
0.0123933898146,0.20555555555555555
0.0123933898146,0.2111111111111111
0.0124013344495,0.21666666666666667
0.0124013344495,0.2222222222222222
0.0124776569243,0.22777777777777777
0.0124776569243,0.23333333333333334
0.0126046488501,0.2388888888888889
0.0126046488501,0.24444444444444444
0.0127109818961,0.25
0.0127109818961,0.25555555555555554
0.0128065020503,0.2611111111111111
0.0128065020503,0.26666666666666666
0.0131543485012,0.2722222222222222
0.0131543485012,0.2777777777777778
0.01318211438,0.2833333333333333
0.01318211438,0.28888888888888886
0.0131891630659,0.29444444444444445
0.0131891630659,0.3
0.0140772499195,0.3055555555555556
0.0140772499195,0.3111111111111111
0.0144289740484,0.31666666666666665
0.0144289740484,0.32222222222222224
0.0145641283263,0.3277777777777778
0.0145641283263,0.3333333333333333
0.0147270203522,0.3388888888888889
0.0147270203522,0.34444444444444444
0.0147280916082,0.35
0.0147280916082,0.35555555555555557
0.0147600275021,0.3611111111111111
0.0147600275021,0.36666666666666664
0.0148364157626,0.37222222222222223
0.0148364157626,0.37777777777777777
0.0148431723972,0.38333333333333336
0.0148431723972,0.3888888888888889
0.0149910201977,0.39444444444444443
0.0149910201977,0.4
0.015170280948,0.40555555555555556
0.015170280948,0.4111111111111111
0.0153291350453,0.4166666666666667
0.0153291350453,0.4222222222222222
0.0154114028037,0.42777777777777776
0.0154114028037,0.43333333333333335
0.0155244257065,0.4388888888888889
0.0155244257065,0.4444444444444444
0.3200111808,0.45
0.3200111808,0.45555555555555555
0.381251361101,0.46111111111111114
0.381251361101,0.4666666666666667
0.432746223285,0.4722222222222222
0.432746223285,0.4777777777777778
0.435434737852,0.48333333333333334
0.435434737852,0.4888888888888889
0.77043344358,0.49444444444444446
0.77043344358,0.5
0.879821092818,0.5055555555555555
0.879821092818,0.5111111111111111
1.00338911326,0.5166666666666667
1.00338911326,0.5222222222222223
1.00587884969,0.5277777777777778
1.00587884969,0.5333333333333333
1.17164608975,0.5388888888888889
1.17164608975,0.5444444444444444
1.45285934457,0.55
1.45285934457,0.5555555555555556
1.5234214446,0.5611111111111111
1.5234214446,0.5666666666666667
1.53006297698,0.5722222222222222
1.53006297698,0.5777777777777777
1.57834650199,0.5833333333333334
1.57834650199,0.5888888888888889
1.62223127719,0.5944444444444444
1.62223127719,0.6
1.6243632832,0.6055555555555555
1.6243632832,0.6111111111111112
1.63649341634,0.6166666666666667
1.63649341634,0.6222222222222222
1.6994627991,0.6277777777777778
1.6994627991,0.6333333333333333
1.72700294822,0.6388888888888888
1.72700294822,0.6444444444444445
1.81084444326,0.65
1.81084444326,0.6555555555555556
1.8234173328,0.6611111111111111
1.8234173328,0.6666666666666666
1.9111114172,0.6722222222222223
1.9111114172,0.6777777777777778
1.96031006575,0.6833333333333333
1.96031006575,0.6888888888888889
1.9922143023,0.6944444444444444
1.9922143023,0.7
2.08748020406,0.7055555555555556
2.08748020406,0.7111111111111111
2.1352842783,0.7166666666666667
2.1352842783,0.7222222222222222
2.28218169509,0.7277777777777777
2.28218169509,0.7333333333333333
2.53856263929,0.7388888888888889
2.53856263929,0.7444444444444445
3.08267942374,0.75
3.08267942374,0.7555555555555555
3.09671364318,0.7611111111111111
3.09671364318,0.7666666666666667
3.2447164015,0.7722222222222223
3.2447164015,0.7777777777777778
3.34794508908,0.7833333333333333
3.34794508908,0.7888888888888889
3.46677917921,0.7944444444444444
3.46677917921,0.8
3.53231728657,0.8055555555555556
3.53231728657,0.8111111111111111
3.84589177694,0.8166666666666667
3.84589177694,0.8222222222222222
3.85910862981,0.8277777777777777
3.85910862981,0.8333333333333334
3.93922461141,0.8388888888888889
3.93922461141,0.8444444444444444
4.40331106868,0.85
4.40331106868,0.8555555555555555
4.57512985299,0.8611111111111112
4.57512985299,0.8666666666666667
4.99154313247,0.8722222222222222
4.99154313247,0.8777777777777778
5.43486332518,0.8833333333333333
5.43486332518,0.8888888888888888
5.47458042236,0.8944444444444445
5.47458042236,0.9
5.92700689813,0.9055555555555556
5.92700689813,0.9111111111111111
5.95373135742,0.9166666666666666
5.95373135742,0.9222222222222223
6.54320047776,0.9277777777777778
6.54320047776,0.9333333333333333
6.93625218396,0.9388888888888889
6.93625218396,0.9444444444444444
7.07688402871,0.95
7.07688402871,0.9555555555555556
7.12837963024,0.9611111111111111
7.12837963024,0.9666666666666667
8.38991779251,0.9722222222222222
8.38991779251,0.9777777777777777
9.11055641778,0.9833333333333333
9.11055641778,0.9888888888888889
9.34714484902,0.9944444444444445
9.34714484902,1.0
