Congestion,CDF
0.0111206964187,0.005555555555555556
0.0111206964187,0.011111111111111112
0.0118397537387,0.016666666666666666
0.0118397537387,0.022222222222222223
0.0118602120242,0.027777777777777776
0.0118602120242,0.03333333333333333
0.0120956980157,0.03888888888888889
0.0120956980157,0.044444444444444446
0.0121716651317,0.05
0.0121716651317,0.05555555555555555
0.0121910979481,0.06111111111111111
0.0121910979481,0.06666666666666667
0.0122018015967,0.07222222222222222
0.0122018015967,0.07777777777777778
0.0122967839144,0.08333333333333333
0.0122967839144,0.08888888888888889
0.0123233624906,0.09444444444444444
0.0123233624906,0.1
0.0123343292482,0.10555555555555556
0.0123343292482,0.1111111111111111
0.0123418402312,0.11666666666666667
0.0123418402312,0.12222222222222222
0.0125401950128,0.12777777777777777
0.0125401950128,0.13333333333333333
0.0126305585299,0.1388888888888889
0.0126305585299,0.14444444444444443
0.0126877943833,0.15
0.0126877943833,0.15555555555555556
0.0126940335876,0.16111111111111112
0.0126940335876,0.16666666666666666
0.0127081693993,0.17222222222222222
0.0127081693993,0.17777777777777778
0.0127396434513,0.18333333333333332
0.0127396434513,0.18888888888888888
0.0127719214953,0.19444444444444445
0.0127719214953,0.2
0.012908025426,0.20555555555555555
0.012908025426,0.2111111111111111
0.0129466164596,0.21666666666666667
0.0129466164596,0.2222222222222222
0.0129838668651,0.22777777777777777
0.0129838668651,0.23333333333333334
0.0131242682902,0.2388888888888889
0.0131242682902,0.24444444444444444
0.0131522824243,0.25
0.0131522824243,0.25555555555555554
0.0132880815491,0.2611111111111111
0.0132880815491,0.26666666666666666
0.0136323178067,0.2722222222222222
0.0136323178067,0.2777777777777778
0.0137248502427,0.2833333333333333
0.0137248502427,0.28888888888888886
0.0137554281895,0.29444444444444445
0.0137554281895,0.3
0.0146384026434,0.3055555555555556
0.0146384026434,0.3111111111111111
0.014949819076,0.31666666666666665
0.014949819076,0.32222222222222224
0.0150838889784,0.3277777777777778
0.0150838889784,0.3333333333333333
0.0152452933495,0.3388888888888889
0.0152452933495,0.34444444444444444
0.0152902389473,0.35
0.0152902389473,0.35555555555555557
0.0152990541004,0.3611111111111111
0.0152990541004,0.36666666666666664
0.0153624413485,0.37222222222222223
0.0153624413485,0.37777777777777777
0.0154223411133,0.38333333333333336
0.0154223411133,0.3888888888888889
0.0155237052171,0.39444444444444443
0.0155237052171,0.4
0.0157196397949,0.40555555555555556
0.0157196397949,0.4111111111111111
0.015850229642,0.4166666666666667
0.015850229642,0.4222222222222222
0.0159834979323,0.42777777777777776
0.0159834979323,0.43333333333333335
0.0160444597164,0.4388888888888889
0.0160444597164,0.4444444444444444
0.334920936815,0.45
0.334920936815,0.45555555555555555
0.396799625762,0.46111111111111114
0.396799625762,0.4666666666666667
0.449014561185,0.4722222222222222
0.449014561185,0.4777777777777778
0.45090235208,0.48333333333333334
0.45090235208,0.4888888888888889
0.796903972956,0.49444444444444446
0.796903972956,0.5
0.914106373138,0.5055555555555555
0.914106373138,0.5111111111111111
1.04920720164,0.5166666666666667
1.04920720164,0.5222222222222223
1.05421706355,0.5277777777777778
1.05421706355,0.5333333333333333
1.22899419306,0.5388888888888889
1.22899419306,0.5444444444444444
1.52101619072,0.55
1.52101619072,0.5555555555555556
1.58175094014,0.5611111111111111
1.58175094014,0.5666666666666667
1.597600813,0.5722222222222222
1.597600813,0.5777777777777777
1.64905433456,0.5833333333333334
1.64905433456,0.5888888888888889
1.68812279328,0.5944444444444444
1.68812279328,0.6
1.69656551998,0.6055555555555555
1.69656551998,0.6111111111111112
1.70057667561,0.6166666666666667
1.70057667561,0.6222222222222222
1.76003140643,0.6277777777777778
1.76003140643,0.6333333333333333
1.81257781098,0.6388888888888888
1.81257781098,0.6444444444444445
1.87767801851,0.65
1.87767801851,0.6555555555555556
1.91209236272,0.6611111111111111
1.91209236272,0.6666666666666666
1.99225792681,0.6722222222222223
1.99225792681,0.6777777777777778
2.02770979725,0.6833333333333333
2.02770979725,0.6888888888888889
2.09129090005,0.6944444444444444
2.09129090005,0.7
2.16730101638,0.7055555555555556
2.16730101638,0.7111111111111111
2.22845922374,0.7166666666666667
2.22845922374,0.7222222222222222
2.36150592877,0.7277777777777777
2.36150592877,0.7333333333333333
2.63052045219,0.7388888888888889
2.63052045219,0.7444444444444445
3.19230249354,0.75
3.19230249354,0.7555555555555555
3.21558849131,0.7611111111111111
3.21558849131,0.7666666666666667
3.35578227906,0.7722222222222223
3.35578227906,0.7777777777777778
3.4797278454,0.7833333333333333
3.4797278454,0.7888888888888889
3.58885447522,0.7944444444444444
3.58885447522,0.8
3.64995899587,0.8055555555555556
3.64995899587,0.8111111111111111
3.97657150054,0.8166666666666667
3.97657150054,0.8222222222222222
4.01158045448,0.8277777777777777
4.01158045448,0.8333333333333334
4.07756026054,0.8388888888888889
4.07756026054,0.8444444444444444
4.55917703346,0.85
4.55917703346,0.8555555555555555
4.75021197088,0.8611111111111112
4.75021197088,0.8666666666666667
5.15477137121,0.8722222222222222
5.15477137121,0.8777777777777778
5.62072814195,0.8833333333333333
5.62072814195,0.8888888888888888
5.65197708166,0.8944444444444445
5.65197708166,0.9
6.12251685628,0.9055555555555556
6.12251685628,0.9111111111111111
6.16979953986,0.9166666666666666
6.16979953986,0.9222222222222223
6.75517876809,0.9277777777777778
6.75517876809,0.9333333333333333
7.18459511973,0.9388888888888889
7.18459511973,0.9444444444444444
7.3111398532,0.95
7.3111398532,0.9555555555555556
7.39146106276,0.9611111111111111
7.39146106276,0.9666666666666667
8.64896507606,0.9722222222222222
8.64896507606,0.9777777777777777
9.39170739463,0.9833333333333333
9.39170739463,0.9888888888888889
9.64581004084,0.9944444444444445
9.64581004084,1.0
