Congestion,CDF
0.00713129635035,0.005555555555555556
0.00713129635035,0.011111111111111112
0.00754561104664,0.016666666666666666
0.00754561104664,0.022222222222222223
0.00766298250888,0.027777777777777776
0.00766298250888,0.03333333333333333
0.00769138551501,0.03888888888888889
0.00769138551501,0.044444444444444446
0.00789456525062,0.05
0.00789456525062,0.05555555555555555
0.00814006323608,0.06111111111111111
0.00814006323608,0.06666666666666667
0.00814203211976,0.07222222222222222
0.00814203211976,0.07777777777777778
0.00828380464237,0.08333333333333333
0.00828380464237,0.08888888888888889
0.00834313338522,0.09444444444444444
0.00834313338522,0.1
0.00838189365944,0.10555555555555556
0.00838189365944,0.1111111111111111
0.00842977429909,0.11666666666666667
0.00842977429909,0.12222222222222222
0.00853716985696,0.12777777777777777
0.00853716985696,0.13333333333333333
0.00857767358696,0.1388888888888889
0.00857767358696,0.14444444444444443
0.00867469136133,0.15
0.00867469136133,0.15555555555555556
0.00874136047613,0.16111111111111112
0.00874136047613,0.16666666666666666
0.00875906769755,0.17222222222222222
0.00875906769755,0.17777777777777778
0.0088062009092,0.18333333333333332
0.0088062009092,0.18888888888888888
0.00885720303626,0.19444444444444445
0.00885720303626,0.2
0.00896264713549,0.20555555555555555
0.00896264713549,0.2111111111111111
0.00897547927534,0.21666666666666667
0.00897547927534,0.2222222222222222
0.00901185650574,0.22777777777777777
0.00901185650574,0.23333333333333334
0.00906660698145,0.2388888888888889
0.00906660698145,0.24444444444444444
0.00923027652975,0.25
0.00923027652975,0.25555555555555554
0.00932549878579,0.2611111111111111
0.00932549878579,0.26666666666666666
0.00943740275747,0.2722222222222222
0.00943740275747,0.2777777777777778
0.00955508312109,0.2833333333333333
0.00955508312109,0.28888888888888886
0.0100627844829,0.29444444444444445
0.0100627844829,0.3
0.0102150367689,0.3055555555555556
0.0102150367689,0.3111111111111111
0.010754738556,0.31666666666666665
0.010754738556,0.32222222222222224
0.0108512544561,0.3277777777777778
0.0108512544561,0.3333333333333333
0.0108697951095,0.3388888888888889
0.0108697951095,0.34444444444444444
0.0109543838933,0.35
0.0109543838933,0.35555555555555557
0.0110311277993,0.3611111111111111
0.0110311277993,0.36666666666666664
0.0111028568171,0.37222222222222223
0.0111028568171,0.37777777777777777
0.0111792515517,0.38333333333333336
0.0111792515517,0.3888888888888889
0.0112954858605,0.39444444444444443
0.0112954858605,0.4
0.0113033084921,0.40555555555555556
0.0113033084921,0.4111111111111111
0.0115041724134,0.4166666666666667
0.0115041724134,0.4222222222222222
0.0117925369048,0.42777777777777776
0.0117925369048,0.43333333333333335
0.0120084828602,0.4388888888888889
0.0120084828602,0.4444444444444444
0.216155196323,0.45
0.216155196323,0.45555555555555555
0.272135983776,0.46111111111111114
0.272135983776,0.4666666666666667
0.321793835438,0.4722222222222222
0.321793835438,0.4777777777777778
0.324216780379,0.48333333333333334
0.324216780379,0.4888888888888889
0.585490823487,0.49444444444444446
0.585490823487,0.5
0.636664562457,0.5055555555555555
0.636664562457,0.5111111111111111
0.668158068507,0.5166666666666667
0.668158068507,0.5222222222222223
0.711133375342,0.5277777777777778
0.711133375342,0.5333333333333333
0.789276128906,0.5388888888888889
0.789276128906,0.5444444444444444
0.950897676301,0.55
0.950897676301,0.5555555555555556
1.05282737505,0.5611111111111111
1.05282737505,0.5666666666666667
1.08065990582,0.5722222222222222
1.08065990582,0.5777777777777777
1.12443275339,0.5833333333333334
1.12443275339,0.5888888888888889
1.12485545403,0.5944444444444444
1.12485545403,0.6
1.13727250566,0.6055555555555555
1.13727250566,0.6111111111111112
1.17043540231,0.6166666666666667
1.17043540231,0.6222222222222222
1.20653387094,0.6277777777777778
1.20653387094,0.6333333333333333
1.22959619701,0.6388888888888888
1.22959619701,0.6444444444444445
1.27841443206,0.65
1.27841443206,0.6555555555555556
1.29349954221,0.6611111111111111
1.29349954221,0.6666666666666666
1.32543995279,0.6722222222222223
1.32543995279,0.6777777777777778
1.34437216877,0.6833333333333333
1.34437216877,0.6888888888888889
1.47678058232,0.6944444444444444
1.47678058232,0.7
1.48426685714,0.7055555555555556
1.48426685714,0.7111111111111111
1.51257133221,0.7166666666666667
1.51257133221,0.7222222222222222
1.74072915453,0.7277777777777777
1.74072915453,0.7333333333333333
1.90057585463,0.7388888888888889
1.90057585463,0.7444444444444445
2.24218540817,0.75
2.24218540817,0.7555555555555555
2.31405605909,0.7611111111111111
2.31405605909,0.7666666666666667
2.40883604576,0.7722222222222223
2.40883604576,0.7777777777777778
2.45838008647,0.7833333333333333
2.45838008647,0.7888888888888889
2.62712074323,0.7944444444444444
2.62712074323,0.8
2.72293448573,0.8055555555555556
2.72293448573,0.8111111111111111
2.78458267476,0.8166666666666667
2.78458267476,0.8222222222222222
2.93145585272,0.8277777777777777
2.93145585272,0.8333333333333334
2.97235783861,0.8388888888888889
2.97235783861,0.8444444444444444
3.312925537,0.85
3.312925537,0.8555555555555555
3.33012476169,0.8611111111111112
3.33012476169,0.8666666666666667
3.85815420009,0.8722222222222222
3.85815420009,0.8777777777777778
4.11828666498,0.8833333333333333
4.11828666498,0.8888888888888888
4.23371464348,0.8944444444444445
4.23371464348,0.9
4.4211196482,0.9055555555555556
4.4211196482,0.9111111111111111
4.55813341672,0.9166666666666666
4.55813341672,0.9222222222222223
5.04329704236,0.9277777777777778
5.04329704236,0.9333333333333333
5.17940847022,0.9388888888888889
5.17940847022,0.9444444444444444
5.25373969271,0.95
5.25373969271,0.9555555555555556
5.43180280679,0.9611111111111111
5.43180280679,0.9666666666666667
6.57075074862,0.9722222222222222
6.57075074862,0.9777777777777777
7.12845911659,0.9833333333333333
7.12845911659,0.9888888888888889
7.23331245998,0.9944444444444445
7.23331245998,1.0
