Congestion,CDF
0.00769643855892,0.005555555555555556
0.00769643855892,0.011111111111111112
0.00808927981745,0.016666666666666666
0.00808927981745,0.022222222222222223
0.0083190832251,0.027777777777777776
0.0083190832251,0.03333333333333333
0.00838737562748,0.03888888888888889
0.00838737562748,0.044444444444444446
0.00843840097359,0.05
0.00843840097359,0.05555555555555555
0.00843882382646,0.06111111111111111
0.00843882382646,0.06666666666666667
0.00844093110664,0.07222222222222222
0.00844093110664,0.07777777777777778
0.00847038257081,0.08333333333333333
0.00847038257081,0.08888888888888889
0.00858094716454,0.09444444444444444
0.00858094716454,0.1
0.0085843658774,0.10555555555555556
0.0085843658774,0.1111111111111111
0.0086371208379,0.11666666666666667
0.0086371208379,0.12222222222222222
0.00867135893582,0.12777777777777777
0.00867135893582,0.13333333333333333
0.00880483261301,0.1388888888888889
0.00880483261301,0.14444444444444443
0.0088179398278,0.15
0.0088179398278,0.15555555555555556
0.00884969865601,0.16111111111111112
0.00884969865601,0.16666666666666666
0.00888622907003,0.17222222222222222
0.00888622907003,0.17777777777777778
0.00889371722366,0.18333333333333332
0.00889371722366,0.18888888888888888
0.00891030312326,0.19444444444444445
0.00891030312326,0.2
0.00892658241308,0.20555555555555555
0.00892658241308,0.2111111111111111
0.008939628433,0.21666666666666667
0.008939628433,0.2222222222222222
0.00901799411618,0.22777777777777777
0.00901799411618,0.23333333333333334
0.00902596468666,0.2388888888888889
0.00902596468666,0.24444444444444444
0.00904163279256,0.25
0.00904163279256,0.25555555555555554
0.00909733073097,0.2611111111111111
0.00909733073097,0.26666666666666666
0.00911136010545,0.2722222222222222
0.00911136010545,0.2777777777777778
0.00927399367654,0.2833333333333333
0.00927399367654,0.28888888888888886
0.00936607566177,0.29444444444444445
0.00936607566177,0.3
0.00970214052863,0.3055555555555556
0.00970214052863,0.3111111111111111
0.00975263367852,0.31666666666666665
0.00975263367852,0.32222222222222224
0.00978832794753,0.3277777777777778
0.00978832794753,0.3333333333333333
0.00983493145872,0.3388888888888889
0.00983493145872,0.34444444444444444
0.00983823824474,0.35
0.00983823824474,0.35555555555555557
0.00987425628845,0.3611111111111111
0.00987425628845,0.36666666666666664
0.00994351881953,0.37222222222222223
0.00994351881953,0.37777777777777777
0.00998194749876,0.38333333333333336
0.00998194749876,0.3888888888888889
0.0100136991174,0.39444444444444443
0.0100136991174,0.4
0.0101067231546,0.40555555555555556
0.0101067231546,0.4111111111111111
0.0101072642423,0.4166666666666667
0.0101072642423,0.4222222222222222
0.0101424530531,0.42777777777777776
0.0101424530531,0.43333333333333335
0.0102227119915,0.4388888888888889
0.0102227119915,0.4444444444444444
0.266560137437,0.45
0.266560137437,0.45555555555555555
0.303468593346,0.46111111111111114
0.303468593346,0.4666666666666667
0.335503261782,0.4722222222222222
0.335503261782,0.4777777777777778
0.382797540419,0.48333333333333334
0.382797540419,0.4888888888888889
0.566054194639,0.49444444444444446
0.566054194639,0.5
0.678539461129,0.5055555555555555
0.678539461129,0.5111111111111111
0.713400395463,0.5166666666666667
0.713400395463,0.5222222222222223
0.714243521965,0.5277777777777778
0.714243521965,0.5333333333333333
0.809316904897,0.5388888888888889
0.809316904897,0.5444444444444444
0.979646291872,0.55
0.979646291872,0.5555555555555556
0.981368438396,0.5611111111111111
0.981368438396,0.5666666666666667
1.03930688575,0.5722222222222222
1.03930688575,0.5777777777777777
1.06504750607,0.5833333333333334
1.06504750607,0.5888888888888889
1.10765439086,0.5944444444444444
1.10765439086,0.6
1.113458327,0.6055555555555555
1.113458327,0.6111111111111112
1.13068918673,0.6166666666666667
1.13068918673,0.6222222222222222
1.15630083181,0.6277777777777778
1.15630083181,0.6333333333333333
1.16630619144,0.6388888888888888
1.16630619144,0.6444444444444445
1.23407562352,0.65
1.23407562352,0.6555555555555556
1.27199346023,0.6611111111111111
1.27199346023,0.6666666666666666
1.27854001612,0.6722222222222223
1.27854001612,0.6777777777777778
1.31755082681,0.6833333333333333
1.31755082681,0.6888888888888889
1.31802603827,0.6944444444444444
1.31802603827,0.7
1.33489998992,0.7055555555555556
1.33489998992,0.7111111111111111
1.40458797933,0.7166666666666667
1.40458797933,0.7222222222222222
1.48487858828,0.7277777777777777
1.48487858828,0.7333333333333333
1.61116256814,0.7388888888888889
1.61116256814,0.7444444444444445
1.92366618736,0.75
1.92366618736,0.7555555555555555
1.93302458054,0.7611111111111111
1.93302458054,0.7666666666666667
2.0252843754,0.7722222222222223
2.0252843754,0.7777777777777778
2.21646251614,0.7833333333333333
2.21646251614,0.7888888888888889
2.25771877877,0.7944444444444444
2.25771877877,0.8
2.30243681004,0.8055555555555556
2.30243681004,0.8111111111111111
2.43563641714,0.8166666666666667
2.43563641714,0.8222222222222222
2.49707932454,0.8277777777777777
2.49707932454,0.8333333333333334
2.53154465586,0.8388888888888889
2.53154465586,0.8444444444444444
2.83882811816,0.85
2.83882811816,0.8555555555555555
3.02114322259,0.8611111111111112
3.02114322259,0.8666666666666667
3.1665519222,0.8722222222222222
3.1665519222,0.8777777777777778
3.47977762142,0.8833333333333333
3.47977762142,0.8888888888888888
3.48785580349,0.8944444444444445
3.48785580349,0.9
3.67690235206,0.9055555555555556
3.67690235206,0.9111111111111111
3.81380223411,0.9166666666666666
3.81380223411,0.9222222222222223
4.05992960541,0.9277777777777778
4.05992960541,0.9333333333333333
4.46868384817,0.9388888888888889
4.46868384817,0.9444444444444444
4.49130198611,0.95
4.49130198611,0.9555555555555556
4.57422702479,0.9611111111111111
4.57422702479,0.9666666666666667
5.32568483162,0.9722222222222222
5.32568483162,0.9777777777777777
5.77056656438,0.9833333333333333
5.77056656438,0.9888888888888889
5.92570659192,0.9944444444444445
5.92570659192,1.0
