Congestion,CDF
0.0193025084393,0.005555555555555556
0.0193025084393,0.011111111111111112
0.0194640144408,0.016666666666666666
0.0194640144408,0.022222222222222223
0.019505693533,0.027777777777777776
0.019505693533,0.03333333333333333
0.0197987806405,0.03888888888888889
0.0197987806405,0.044444444444444446
0.0199233168736,0.05
0.0199233168736,0.05555555555555555
0.0200284663265,0.06111111111111111
0.0200284663265,0.06666666666666667
0.0200809913522,0.07222222222222222
0.0200809913522,0.07777777777777778
0.0201199933676,0.08333333333333333
0.0201199933676,0.08888888888888889
0.0201554455564,0.09444444444444444
0.0201554455564,0.1
0.0202841180897,0.10555555555555556
0.0202841180897,0.1111111111111111
0.0203407479114,0.11666666666666667
0.0203407479114,0.12222222222222222
0.0205385245549,0.12777777777777777
0.0205385245549,0.13333333333333333
0.0205520657228,0.1388888888888889
0.0205520657228,0.14444444444444443
0.0206695082439,0.15
0.0206695082439,0.15555555555555556
0.0208298157324,0.16111111111111112
0.0208298157324,0.16666666666666666
0.0208537374153,0.17222222222222222
0.0208537374153,0.17777777777777778
0.0209079838317,0.18333333333333332
0.0209079838317,0.18888888888888888
0.0209751168678,0.19444444444444445
0.0209751168678,0.2
0.0209840963091,0.20555555555555555
0.0209840963091,0.2111111111111111
0.021158860012,0.21666666666666667
0.021158860012,0.2222222222222222
0.0212009881502,0.22777777777777777
0.0212009881502,0.23333333333333334
0.0212615149052,0.2388888888888889
0.0212615149052,0.24444444444444444
0.0214185308635,0.25
0.0214185308635,0.25555555555555554
0.0214601891238,0.2611111111111111
0.0214601891238,0.26666666666666666
0.0219506388403,0.2722222222222222
0.0219506388403,0.2777777777777778
0.0222860239846,0.2833333333333333
0.0222860239846,0.28888888888888886
0.0223937721223,0.29444444444444445
0.0223937721223,0.3
0.0232938878887,0.3055555555555556
0.0232938878887,0.3111111111111111
0.0233000029275,0.31666666666666665
0.0233000029275,0.32222222222222224
0.0233911803554,0.3277777777777778
0.0233911803554,0.3333333333333333
0.0234589676861,0.3388888888888889
0.0234589676861,0.34444444444444444
0.0234739286442,0.35
0.0234739286442,0.35555555555555557
0.0237248524333,0.3611111111111111
0.0237248524333,0.36666666666666664
0.0237374334838,0.37222222222222223
0.0237374334838,0.37777777777777777
0.0239279679625,0.38333333333333336
0.0239279679625,0.3888888888888889
0.0240127691121,0.39444444444444443
0.0240127691121,0.4
0.0240992366917,0.40555555555555556
0.0240992366917,0.4111111111111111
0.0241436022455,0.4166666666666667
0.0241436022455,0.4222222222222222
0.0241778210587,0.42777777777777776
0.0241778210587,0.43333333333333335
0.0246607670629,0.4388888888888889
0.0246607670629,0.4444444444444444
0.575855209128,0.45
0.575855209128,0.45555555555555555
0.674035190215,0.46111111111111114
0.674035190215,0.4666666666666667
0.70455573754,0.4722222222222222
0.70455573754,0.4777777777777778
0.723784150914,0.48333333333333334
0.723784150914,0.4888888888888889
1.24235271105,0.49444444444444446
1.24235271105,0.5
1.47275842576,0.5055555555555555
1.47275842576,0.5111111111111111
1.76196884748,0.5166666666666667
1.76196884748,0.5222222222222223
1.79702690889,0.5277777777777778
1.79702690889,0.5333333333333333
2.14558986539,0.5388888888888889
2.14558986539,0.5444444444444444
2.49128263654,0.55
2.49128263654,0.5555555555555556
2.53619339987,0.5611111111111111
2.53619339987,0.5666666666666667
2.61262438824,0.5722222222222222
2.61262438824,0.5777777777777777
2.63695200033,0.5833333333333334
2.63695200033,0.5888888888888889
2.69308702438,0.5944444444444444
2.69308702438,0.6
2.72924176249,0.6055555555555555
2.72924176249,0.6111111111111112
2.79240997869,0.6166666666666667
2.79240997869,0.6222222222222222
2.93424660495,0.6277777777777778
2.93424660495,0.6333333333333333
2.96307471878,0.6388888888888888
2.96307471878,0.6444444444444445
3.10841615234,0.65
3.10841615234,0.6555555555555556
3.11997223665,0.6611111111111111
3.11997223665,0.6666666666666666
3.20357622949,0.6722222222222223
3.20357622949,0.6777777777777778
3.26794565194,0.6833333333333333
3.26794565194,0.6888888888888889
3.37793483416,0.6944444444444444
3.37793483416,0.7
3.5882574788,0.7055555555555556
3.5882574788,0.7111111111111111
3.6115779789,0.7166666666666667
3.6115779789,0.7222222222222222
3.6143650789,0.7277777777777777
3.6143650789,0.7333333333333333
4.04456720012,0.7388888888888889
4.04456720012,0.7444444444444445
4.87118552606,0.75
4.87118552606,0.7555555555555555
4.96974835167,0.7611111111111111
4.96974835167,0.7666666666666667
5.05339068128,0.7722222222222223
5.05339068128,0.7777777777777778
5.42774992179,0.7833333333333333
5.42774992179,0.7888888888888889
5.45143672413,0.7944444444444444
5.45143672413,0.8
5.54502387405,0.8055555555555556
5.54502387405,0.8111111111111111
5.9530369759,0.8166666666666667
5.9530369759,0.8222222222222222
6.18610737329,0.8277777777777777
6.18610737329,0.8333333333333334
6.2617296009,0.8388888888888889
6.2617296009,0.8444444444444444
6.87539894629,0.85
6.87539894629,0.8555555555555555
7.45570992884,0.8611111111111112
7.45570992884,0.8666666666666667
7.59659772871,0.8722222222222222
7.59659772871,0.8777777777777778
8.33052573446,0.8833333333333333
8.33052573446,0.8888888888888888
8.39845853071,0.8944444444444445
8.39845853071,0.9
9.04499862294,0.9055555555555556
9.04499862294,0.9111111111111111
9.3529679563,0.9166666666666666
9.3529679563,0.9222222222222223
9.91066514237,0.9277777777777778
9.91066514237,0.9333333333333333
10.8389091181,0.9388888888888889
10.8389091181,0.9444444444444444
10.9036268851,0.95
10.9036268851,0.9555555555555556
11.2588300883,0.9611111111111111
11.2588300883,0.9666666666666667
12.5349581379,0.9722222222222222
12.5349581379,0.9777777777777777
13.6035102464,0.9833333333333333
13.6035102464,0.9888888888888889
14.1050133741,0.9944444444444445
14.1050133741,1.0
