Congestion,CDF
0.00234693254034,0.007352941176470588
0.00234693254034,0.014705882352941176
0.00234693262726,0.022058823529411766
0.00234693262726,0.029411764705882353
0.00234693262726,0.03676470588235294
0.00234693262726,0.04411764705882353
0.00234693271418,0.051470588235294115
0.00234693271418,0.058823529411764705
0.00234693271418,0.0661764705882353
0.00234693271418,0.07352941176470588
0.00234693280111,0.08088235294117647
0.00234693280111,0.08823529411764706
0.00234693280111,0.09558823529411764
0.00234693280111,0.10294117647058823
0.00234693288803,0.11029411764705882
0.00234693288803,0.11764705882352941
0.00234693288803,0.125
0.00234693288803,0.1323529411764706
0.00234693288803,0.13970588235294118
0.00234693288803,0.14705882352941177
0.00234693288803,0.15441176470588236
0.00234693288803,0.16176470588235295
0.00234693297495,0.16911764705882354
0.00234693297495,0.17647058823529413
0.00234693297495,0.18382352941176472
0.00234693297495,0.19117647058823528
0.00234693297495,0.19852941176470587
0.00234693297495,0.20588235294117646
0.00234693297495,0.21323529411764705
0.00234693297495,0.22058823529411764
0.00234693297495,0.22794117647058823
0.00234693297495,0.23529411764705882
0.00234693297495,0.2426470588235294
0.00234693297495,0.25
0.00234693297495,0.25735294117647056
0.00234693297495,0.2647058823529412
0.00234693297495,0.27205882352941174
0.00234693297495,0.27941176470588236
0.00234693297495,0.2867647058823529
0.00234693297495,0.29411764705882354
0.00234693297495,0.3014705882352941
0.00234693297495,0.3088235294117647
0.00234693297495,0.3161764705882353
0.00234693297495,0.3235294117647059
0.00234693306188,0.33088235294117646
0.00234693306188,0.3382352941176471
0.00234693306188,0.34558823529411764
0.00234693306188,0.35294117647058826
0.0023469331488,0.3602941176470588
0.0023469331488,0.36764705882352944
0.00234693323572,0.375
0.00234693323572,0.38235294117647056
0.00234693323572,0.3897058823529412
0.00234693323572,0.39705882352941174
0.00234693340957,0.40441176470588236
0.00234693340957,0.4117647058823529
0.0173846880595,0.41911764705882354
0.0173846880595,0.4264705882352941
0.0391155481339,0.4338235294117647
0.0391155481339,0.4411764705882353
0.0811285297904,0.4485294117647059
0.0811285297904,0.45588235294117646
0.0811285384827,0.4632352941176471
0.0811285384827,0.47058823529411764
0.10068631255,0.47794117647058826
0.10068631255,0.4852941176470588
0.110103030172,0.49264705882352944
0.110103030172,0.5
0.111551742587,0.5073529411764706
0.111551742587,0.5147058823529411
0.120968460209,0.5220588235294118
0.120968460209,0.5294117647058824
0.131109525346,0.5367647058823529
0.131109525346,0.5441176470588235
0.131833907631,0.5514705882352942
0.131833907631,0.5588235294117647
0.157910957105,0.5661764705882353
0.157910957105,0.5735294117647058
0.160808347166,0.5808823529411765
0.160808347166,0.5882352941176471
0.176019966602,0.5955882352941176
0.176019966602,0.6029411764705882
0.199923921376,0.6102941176470589
0.199923921376,0.6176470588235294
0.217308618128,0.625
0.217308618128,0.6323529411764706
0.221654764066,0.6397058823529411
0.221654764066,0.6470588235294118
0.223103476481,0.6544117647058824
0.223103476481,0.6617647058823529
0.228898352219,0.6691176470588235
0.228898352219,0.6764705882352942
0.230347125481,0.6838235294117647
0.230347125481,0.6911764705882353
0.234693297495,0.6985294117647058
0.234693297495,0.7058823529411765
0.252077985555,0.7132352941176471
0.252077985555,0.7205882352941176
0.25859725227,0.7279411764705882
0.25859725227,0.7352941176470589
0.260770294815,0.7426470588235294
0.260770294815,0.75
0.275981931637,0.7573529411764706
0.275981931637,0.7647058823529411
0.283949902074,0.7720588235294118
0.283949902074,0.7794117647058824
0.318719278193,0.7867647058823529
0.318719278193,0.7941176470588235
0.320892381585,0.8014705882352942
0.320892381585,0.8088235294117647
0.33103343803,0.8161764705882353
0.33103343803,0.8235294117647058
0.331757820315,0.8308823529411765
0.331757820315,0.8382352941176471
0.340450129575,0.8455882352941176
0.340450129575,0.8529411764705882
0.383911893186,0.8602941176470589
0.383911893186,0.8676470588235294
0.419405608128,0.875
0.419405608128,0.8823529411764706
0.425200475173,0.8897058823529411
0.425200475173,0.8970588235294118
0.460694224884,0.9044117647058824
0.460694224884,0.9117647058823529
0.519367555777,0.9191176470588235
0.519367555777,0.9264705882352942
0.524438110077,0.9338235294117647
0.524438110077,0.9411764705882353
0.612810280174,0.9485294117647058
0.612810280174,0.9558823529411765
0.649994162498,0.9632352941176471
0.649994162498,0.9705882352941176
0.796073861006,0.9779411764705882
0.796073861006,0.9852941176470589
0.903279431578,0.9926470588235294
0.903279431578,1.0
