Congestion,CDF
0.0,0.009433962264150943
0.0,0.018867924528301886
0.0,0.02830188679245283
0.0,0.03773584905660377
0.0,0.04716981132075472
0.0,0.05660377358490566
0.0,0.0660377358490566
0.0,0.07547169811320754
0.0,0.08490566037735849
0.0,0.09433962264150944
0.0,0.10377358490566038
0.0,0.11320754716981132
0.0,0.12264150943396226
0.0,0.1320754716981132
0.0,0.14150943396226415
0.0,0.1509433962264151
0.0,0.16037735849056603
0.0,0.16981132075471697
0.0,0.1792452830188679
0.0,0.18867924528301888
0.0,0.19811320754716982
0.0,0.20754716981132076
0.0,0.2169811320754717
0.0,0.22641509433962265
0.0,0.2358490566037736
0.0,0.24528301886792453
0.0,0.25471698113207547
0.0,0.2641509433962264
0.0,0.27358490566037735
0.0,0.2830188679245283
1.71087770453e-08,0.29245283018867924
4.40763375467e-07,0.3018867924528302
4.95646077967e-07,0.3113207547169811
6.71929607551e-07,0.32075471698113206
7.58487294349e-07,0.330188679245283
1.00926147208e-06,0.33962264150943394
1.53913925706e-06,0.3490566037735849
1.97017955585e-06,0.3584905660377358
2.08506959213e-06,0.36792452830188677
2.43188096427e-06,0.37735849056603776
2.99422785683e-06,0.3867924528301887
3.06283682235e-06,0.39622641509433965
3.23159426242e-06,0.4056603773584906
1.26157684009e-05,0.41509433962264153
1.26157684009e-05,0.42452830188679247
2.07081249154e-05,0.4339622641509434
2.46272444481e-05,0.44339622641509435
2.46272444481e-05,0.4528301886792453
2.52315368019e-05,0.46226415094339623
2.52315368019e-05,0.4716981132075472
2.52315368019e-05,0.4811320754716981
3.89538905536e-05,0.49056603773584906
4.92544888962e-05,0.5
4.92544888962e-05,0.5094339622641509
4.92544888962e-05,0.5188679245283019
6.20253167474e-05,0.5283018867924528
6.20253167474e-05,0.5377358490566038
6.71929607551e-05,0.5471698113207547
0.000114199975702,0.5566037735849056
0.000114199975702,0.5660377358490566
0.000141496492455,0.5754716981132075
0.000141496492455,0.5849056603773585
0.00021734522189,0.5943396226415094
0.000220301629996,0.6037735849056604
0.000343526695084,0.6132075471698113
0.000357388072129,0.6226415094339622
0.000464655918698,0.6320754716981132
0.000743928688067,0.6415094339622641
0.0230073393279,0.6509433962264151
0.0707650688172,0.660377358490566
0.0712823043188,0.6698113207547169
0.0717465485088,0.6792452830188679
0.0853332413384,0.6886792452830188
0.0988532430775,0.6981132075471698
0.100697047259,0.7075471698113207
0.102936524423,0.7169811320754716
0.10836554542,0.7264150943396226
0.108611071519,0.7358490566037735
0.110119917892,0.7452830188679245
0.116711564671,0.7547169811320755
0.117557484906,0.7641509433962265
1.18598690148,0.7735849056603774
1.35456931775,0.7830188679245284
1.35456931775,0.7924528301886793
1.35763839399,0.8018867924528302
1.35763839399,0.8113207547169812
2.30073393279,0.8207547169811321
2.7091386355,0.8301886792452831
2.7091386355,0.839622641509434
2.7091386355,0.8490566037735849
2.71527678798,0.8584905660377359
2.71527678798,0.8679245283018868
2.71527678798,0.8773584905660378
7.65486986561,0.8867924528301887
7.65486986561,0.8962264150943396
7.85903393289,0.9056603773584906
7.85903393289,0.9150943396226415
8.21820360631,0.9245283018867925
8.21820360631,0.9339622641509434
14.3833641789,0.9433962264150944
14.4679562024,0.9528301886792453
14.7313767473,0.9622641509433962
14.7831002975,0.9716981132075472
15.0336887838,0.9811320754716981
24.6105616731,0.9905660377358491
47.1392287134,1.0
