Congestion,CDF
0.0,0.009433962264150943
0.0,0.018867924528301886
0.0,0.02830188679245283
0.0,0.03773584905660377
0.0,0.04716981132075472
0.0,0.05660377358490566
0.0,0.0660377358490566
0.0,0.07547169811320754
0.0,0.08490566037735849
0.0,0.09433962264150944
0.0,0.10377358490566038
0.0,0.11320754716981132
0.0,0.12264150943396226
0.0,0.1320754716981132
0.0,0.14150943396226415
0.0,0.1509433962264151
0.0,0.16037735849056603
0.0,0.16981132075471697
0.0,0.1792452830188679
0.0,0.18867924528301888
0.0,0.19811320754716982
0.0,0.20754716981132076
0.0,0.2169811320754717
0.0,0.22641509433962265
0.0,0.2358490566037736
0.0,0.24528301886792453
0.0,0.25471698113207547
0.0,0.2641509433962264
0.0,0.27358490566037735
0.0,0.2830188679245283
4.54691005803e-08,0.29245283018867924
1.1713937354e-06,0.3018867924528302
1.31725261903e-06,0.3113207547169811
1.78575212172e-06,0.32075471698113206
2.01579195195e-06,0.330188679245283
2.68226134832e-06,0.33962264150943394
4.090489782e-06,0.3490566037735849
5.23604300581e-06,0.3584905660377358
5.54138023719e-06,0.36792452830188677
6.46308265464e-06,0.37735849056603776
7.95760253475e-06,0.3867924528301887
8.13994098863e-06,0.39622641509433965
8.58843879744e-06,0.4056603773584906
1.71132910335e-05,0.41509433962264153
3.3528266854e-05,0.42452830188679247
3.3528266854e-05,0.4339622641509434
5.50348988774e-05,0.44339622641509435
6.54505375726e-05,0.4528301886792453
6.54505375726e-05,0.46226415094339623
6.7056533708e-05,0.4716981132075472
6.7056533708e-05,0.4811320754716981
6.7056533708e-05,0.49056603773584906
0.000103525714485,0.5
0.000130901075145,0.5094339622641509
0.000130901075145,0.5188679245283019
0.000130901075145,0.5283018867924528
0.000164841435378,0.5377358490566038
0.000164841435378,0.5471698113207547
0.000178575212172,0.5566037735849056
0.000303503293527,0.5660377358490566
0.000303503293527,0.5754716981132075
0.000376047816286,0.5849056603773585
0.000376047816286,0.5943396226415094
0.000577627011481,0.6037735849056604
0.000585484102444,0.6132075471698113
0.000912972903289,0.6226415094339622
0.00094981155899,0.6320754716981132
0.00123489169603,0.6415094339622641
0.00129260103219,0.6509433962264151
0.00171132910335,0.660377358490566
0.00178472001305,0.6698113207547169
0.00197710030663,0.6792452830188679
0.00224953998167,0.6886792452830188
0.0113939827831,0.6981132075471698
0.0368125968882,0.7075471698113207
0.0373107418369,0.7169811320754716
0.0465173887061,0.7264150943396226
0.0591898054137,0.7358490566037735
0.0597273880158,0.7452830188679245
0.0603455016115,0.7547169811320755
0.0710856765221,0.7641509433962265
0.0728553676365,0.7735849056603774
0.460582423732,0.7830188679245284
0.739872567671,0.7924528301886793
0.739872567671,0.8018867924528302
0.746592350198,0.8113207547169812
0.746592350198,0.8207547169811321
1.47974513534,0.8301886792452831
1.47974513534,0.839622641509434
1.47974513534,0.8490566037735849
1.4931847004,0.8584905660377359
1.4931847004,0.8679245283018868
1.4931847004,0.8773584905660378
3.35200200971,0.8867924528301887
3.35200200971,0.8962264150943396
3.48126211293,0.9056603773584906
3.53047401102,0.9150943396226415
3.81233435317,0.9245283018867925
3.81233435317,0.9339622641509434
4.03728835134,0.9433962264150944
4.50373999844,0.9528301886792453
4.50373999844,0.9622641509433962
8.59503257008,0.9716981132075472
8.77200168152,0.9811320754716981
9.45547262993,0.9905660377358491
25.5520339389,1.0
