Congestion,CDF
0.0,0.009433962264150943
0.0,0.018867924528301886
0.0,0.02830188679245283
0.0,0.03773584905660377
0.0,0.04716981132075472
0.0,0.05660377358490566
0.0,0.0660377358490566
0.0,0.07547169811320754
0.0,0.08490566037735849
0.0,0.09433962264150944
0.0,0.10377358490566038
0.0,0.11320754716981132
0.0,0.12264150943396226
0.0,0.1320754716981132
0.0,0.14150943396226415
0.0,0.1509433962264151
0.0,0.16037735849056603
0.0,0.16981132075471697
0.0,0.1792452830188679
0.0,0.18867924528301888
0.0,0.19811320754716982
0.0,0.20754716981132076
0.0,0.2169811320754717
0.0,0.22641509433962265
0.0,0.2358490566037736
0.0,0.24528301886792453
0.0,0.25471698113207547
0.0,0.2641509433962264
0.0,0.27358490566037735
0.0,0.2830188679245283
3.35849302133e-08,0.29245283018867924
8.65228833506e-07,0.3018867924528302
9.72964864463e-07,0.3113207547169811
1.31901356351e-06,0.32075471698113206
1.48892833082e-06,0.330188679245283
1.98120391755e-06,0.33962264150943394
3.02136642496e-06,0.3490566037735849
3.86750863113e-06,0.3584905660377358
4.09304046432e-06,0.36792452830188677
4.77383931392e-06,0.37735849056603776
5.87773944028e-06,0.3867924528301887
6.01242044717e-06,0.39622641509433965
6.34369525616e-06,0.4056603773584906
1.71132910335e-05,0.41509433962264153
2.47650489694e-05,0.42452830188679247
2.47650489694e-05,0.4339622641509434
4.0650534418e-05,0.44339622641509435
4.83438578891e-05,0.4528301886792453
4.83438578891e-05,0.46226415094339623
4.95300979387e-05,0.4716981132075472
4.95300979387e-05,0.4811320754716981
4.95300979387e-05,0.49056603773584906
7.64673998798e-05,0.5
9.66877157782e-05,0.5094339622641509
9.66877157782e-05,0.5188679245283019
9.66877157782e-05,0.5283018867924528
0.000121757150082,0.5377358490566038
0.000121757150082,0.5471698113207547
0.000131901356351,0.5566037735849056
0.000224177228107,0.5660377358490566
0.000224177228107,0.5754716981132075
0.000277760930075,0.5849056603773585
0.000277760930075,0.5943396226415094
0.000426653763156,0.6037735849056604
0.000432457261539,0.6132075471698113
0.000674350951575,0.6226415094339622
0.000701561159499,0.6320754716981132
0.000912130455691,0.6415094339622641
0.00146034944556,0.6509433962264151
0.00171132910335,0.660377358490566
0.00706487343517,0.6698113207547169
0.0077459561996,0.6792452830188679
0.00842723952191,0.6886792452830188
0.027568500396,0.6981132075471698
0.0521413623177,0.7075471698113207
0.0556936885866,0.7169811320754716
0.0624568320475,0.7264150943396226
0.0729221539226,0.7358490566037735
0.0733876266143,0.7452830188679245
0.073429430449,0.7547169811320755
0.0826752926391,0.7641509433962265
0.0842153360047,0.7735849056603774
0.607745405425,0.7830188679245284
0.911526924032,0.7924528301886793
0.911526924032,0.8018867924528302
0.917345332679,0.8113207547169812
0.917345332679,0.8207547169811321
1.82305384806,0.8301886792452831
1.82305384806,0.839622641509434
1.82305384806,0.8490566037735849
1.83469066536,0.8584905660377359
1.83469066536,0.8679245283018868
1.83469066536,0.8773584905660378
4.61355668604,0.8867924528301887
4.61355668604,0.8962264150943396
4.95171385909,0.9056603773584906
4.95171385909,0.9150943396226415
5.32004402956,0.9245283018867925
5.388152306,0.9339622641509434
5.50034377916,0.9433962264150944
5.50034377916,0.9528301886792453
5.79443781128,0.9622641509433962
10.0964015206,0.9716981132075472
10.2504058572,0.9811320754716981
13.2089076778,0.9905660377358491
31.0612873887,1.0
