Congestion,CDF
0.0,0.009433962264150943
0.0,0.018867924528301886
0.0,0.02830188679245283
0.0,0.03773584905660377
0.0,0.04716981132075472
0.0,0.05660377358490566
0.0,0.0660377358490566
0.0,0.07547169811320754
0.0,0.08490566037735849
0.0,0.09433962264150944
0.0,0.10377358490566038
0.0,0.11320754716981132
0.0,0.12264150943396226
0.0,0.1320754716981132
0.0,0.14150943396226415
0.0,0.1509433962264151
0.0,0.16037735849056603
0.0,0.16981132075471697
0.0,0.1792452830188679
0.0,0.18867924528301888
0.0,0.19811320754716982
0.0,0.20754716981132076
0.0,0.2169811320754717
0.0,0.22641509433962265
0.0,0.2358490566037736
0.0,0.24528301886792453
0.0,0.25471698113207547
0.0,0.2641509433962264
0.0,0.27358490566037735
0.0,0.2830188679245283
6.24132297458e-08,0.29245283018867924
1.60791538423e-06,0.3018867924528302
1.80812880166e-06,0.3113207547169811
2.45121535327e-06,0.32075471698113206
2.76697987449e-06,0.330188679245283
3.68181010036e-06,0.33962264150943394
5.61481699172e-06,0.3490566037735849
7.1872623586e-06,0.3584905660377358
7.6063839715e-06,0.36792452830188677
8.87156019015e-06,0.37735849056603776
1.09230151661e-05,0.3867924528301887
1.11733023208e-05,0.39622641509433965
1.17889335171e-05,0.4056603773584906
4.60226262545e-05,0.41509433962264153
4.60226262545e-05,0.42452830188679247
7.55437372597e-05,0.4339622641509434
8.98407794825e-05,0.44339622641509435
8.98407794825e-05,0.4528301886792453
9.2045252509e-05,0.46226415094339623
9.2045252509e-05,0.4716981132075472
9.2045252509e-05,0.4811320754716981
0.000142104728712,0.49056603773584906
0.000179681558965,0.5
0.000179681558965,0.5094339622641509
0.000179681558965,0.5188679245283019
0.00022626984582,0.5283018867924528
0.00022626984582,0.5377358490566038
0.000245121535327,0.5471698113207547
0.000416604255323,0.5566037735849056
0.000416604255323,0.5660377358490566
0.000516182604312,0.5754716981132075
0.000516182604312,0.5849056603773585
0.000792880591761,0.5943396226415094
0.000803665639566,0.6037735849056604
0.00125319363782,0.6132075471698113
0.00130376027434,0.6226415094339622
0.00169507595602,0.6320754716981132
0.00271386972896,0.6415094339622641
0.0133640319652,0.6509433962264151
0.0220457301812,0.660377358490566
0.0222042338618,0.6698113207547169
0.0222293774909,0.6792452830188679
0.0233963358025,0.6886792452830188
0.0249563033224,0.6981132075471698
0.0253597690812,0.7075471698113207
0.0266081081124,0.7169811320754716
0.0266666164119,0.7264150943396226
0.0279064949607,0.7358490566037735
0.0288162019557,0.7452830188679245
0.030660830568,0.7547169811320755
0.0308898834958,0.7641509433962265
0.32510391721,0.7735849056603774
0.332601351405,0.7830188679245284
0.332601351405,0.7924528301886793
0.333332705149,0.8018867924528302
0.333332705149,0.8113207547169812
0.665202702811,0.8207547169811321
0.665202702811,0.8301886792452831
0.665202702811,0.839622641509434
0.666665410297,0.8490566037735849
0.666665410297,0.8584905660377359
0.666665410297,0.8679245283018868
1.33640319652,0.8773584905660378
1.83575084668,0.8867924528301887
1.83575084668,0.8962264150943396
1.91374922268,0.9056603773584906
1.91374922268,0.9150943396226415
2.06125880459,0.9245283018867925
2.06125880459,0.9339622641509434
3.73201711336,0.9433962264150944
3.75492240613,0.9528301886792453
4.0403238648,0.9622641509433962
4.05617423287,0.9716981132075472
4.13668697176,0.9811320754716981
6.51098493538,0.9905660377358491
12.4298185197,1.0
