Congestion,CDF
0.0,0.007352941176470588
0.0,0.014705882352941176
0.0,0.022058823529411766
0.0,0.029411764705882353
0.0,0.03676470588235294
0.0,0.04411764705882353
0.0,0.051470588235294115
0.0,0.058823529411764705
0.0,0.0661764705882353
0.0,0.07352941176470588
0.0,0.08088235294117647
0.0,0.08823529411764706
0.0,0.09558823529411764
0.0,0.10294117647058823
1.86264514923e-05,0.11029411764705882
1.86264514923e-05,0.11764705882352941
1.86264514923e-05,0.125
1.86264514923e-05,0.1323529411764706
1.86264514923e-05,0.13970588235294118
1.86264514923e-05,0.14705882352941177
1.86264514923e-05,0.15441176470588236
1.86264514923e-05,0.16176470588235295
1.86264514923e-05,0.16911764705882354
1.86264514923e-05,0.17647058823529413
1.86264514923e-05,0.18382352941176472
1.86264514923e-05,0.19117647058823528
1.86264514923e-05,0.19852941176470587
1.86264514923e-05,0.20588235294117646
1.86264514923e-05,0.21323529411764705
1.86264514923e-05,0.22058823529411764
1.86264514923e-05,0.22794117647058823
1.86264514923e-05,0.23529411764705882
1.86264514923e-05,0.2426470588235294
1.86264514923e-05,0.25
1.86264514923e-05,0.25735294117647056
1.86264514923e-05,0.2647058823529412
1.86264514923e-05,0.27205882352941174
1.86264514923e-05,0.27941176470588236
1.86264514923e-05,0.2867647058823529
1.86264514923e-05,0.29411764705882354
1.86264514923e-05,0.3014705882352941
0.000102549540672,0.3088235294117647
0.000223006232073,0.3161764705882353
0.000246917396284,0.3235294117647059
0.00037956481319,0.33088235294117646
0.000386993387658,0.3382352941176471
0.000465661287308,0.34558823529411764
0.000465661287308,0.35294117647058826
0.000502914190292,0.3602941176470588
0.000566184555915,0.36764705882352944
0.000790380952241,0.375
0.000931322574615,0.38235294117647056
0.000931322574615,0.3897058823529412
0.000931322574615,0.39705882352941174
0.000931322574615,0.40441176470588236
0.00108379397816,0.4117647058823529
0.00112997103331,0.41911764705882354
0.00126670772755,0.4264705882352941
0.00126828749717,0.4338235294117647
0.00127050835827,0.4411764705882353
0.00135079042715,0.4485294117647059
0.00137758580558,0.45588235294117646
0.00139698386192,0.4632352941176471
0.00148149594118,0.47058823529411764
0.00154493317228,0.47794117647058826
0.00155220429103,0.4852941176470588
0.00155220429103,0.49264705882352944
0.00155220429103,0.5
0.00156009818262,0.5073529411764706
0.00163372845311,0.5147058823529411
0.00165715453538,0.5220588235294118
0.0017560098848,0.5294117647058824
0.00180132778561,0.5367647058823529
0.0018013666384,0.5441176470588235
0.00180185092961,0.5514705882352942
0.00180186556291,0.5588235294117647
0.00180317992597,0.5661764705882353
0.00180318968607,0.5735294117647058
0.00180318968607,0.5808823529411765
0.00186264514923,0.5882352941176471
0.00186264514923,0.5955882352941176
0.00186264514923,0.6029411764705882
0.00186264514923,0.6102941176470589
0.00186264514923,0.6176470588235294
0.00186264514923,0.625
0.00186264514923,0.6323529411764706
0.00232830643654,0.6397058823529411
0.00279396772385,0.6470588235294118
0.00279396772385,0.6544117647058824
0.00341484944026,0.6617647058823529
0.00372529029846,0.6691176470588235
0.00372529029846,0.6764705882352942
0.00558793544769,0.6838235294117647
0.00760580102603,0.6911764705882353
0.0135041773319,0.6985294117647058
0.0138146181901,0.7058823529411765
0.0178503493468,0.7132352941176471
0.0221965213617,0.7205882352941176
0.0225069622199,0.7279411764705882
0.0240591665109,0.7352941176470589
0.0243696073691,0.7426470588235294
0.0246917396284,0.75
0.0262322525183,0.7573529411764706
0.0283092277958,0.7647058823529411
0.0283092277958,0.7720588235294118
0.0336926320893,0.7794117647058824
0.0337697606787,0.7867647058823529
0.0370373985295,0.7941176470588235
0.0385641818629,0.8014705882352942
0.0469923628357,0.8088235294117647
0.0828577267691,0.8161764705882353
0.0828577267691,0.8235294117647058
0.101309282036,0.8308823529411765
0.116726686061,0.8382352941176471
0.116726686061,0.8455882352941176
0.116726686061,0.8529411764705882
0.126828749717,0.8602941176470589
0.148149594118,0.8676470588235294
0.160820596506,0.875
0.18013666384,0.8823529411764706
0.180186556291,0.8897058823529411
0.180318968607,0.8970588235294118
0.180318968607,0.9044117647058824
0.229723789392,0.9117647058823529
0.238867545031,0.9191176470588235
0.360371649252,0.9264705882352942
0.531046805039,0.9338235294117647
0.540955929812,0.9411764705882353
0.897459220043,0.9485294117647058
1.14638861005,0.9558823529411765
1.18434509137,0.9632352941176471
1.29863441999,0.9705882352941176
1.6738198213,0.9779411764705882
2.06718068356,0.9852941176470589
2.10588002233,0.9926470588235294
2.18491811755,1.0
