Congestion,CDF
0.0,0.007352941176470588
0.0,0.014705882352941176
0.0,0.022058823529411766
0.0,0.029411764705882353
0.0,0.03676470588235294
0.0,0.04411764705882353
0.0,0.051470588235294115
0.0,0.058823529411764705
0.0,0.0661764705882353
0.0,0.07352941176470588
0.0,0.08088235294117647
0.0,0.08823529411764706
0.0,0.09558823529411764
0.0,0.10294117647058823
1.71542213377e-05,0.11029411764705882
1.71542213377e-05,0.11764705882352941
1.71542213377e-05,0.125
1.71542213377e-05,0.1323529411764706
1.71542213377e-05,0.13970588235294118
1.71542213377e-05,0.14705882352941177
1.71542213377e-05,0.15441176470588236
1.71542213377e-05,0.16176470588235295
1.71542213377e-05,0.16911764705882354
1.71542213377e-05,0.17647058823529413
1.71542213377e-05,0.18382352941176472
1.71542213377e-05,0.19117647058823528
1.71542213377e-05,0.19852941176470587
1.71542213377e-05,0.20588235294117646
1.71542213377e-05,0.21323529411764705
1.71542213377e-05,0.22058823529411764
1.71542213377e-05,0.22794117647058823
1.71542213377e-05,0.23529411764705882
1.71542213377e-05,0.2426470588235294
1.71542213377e-05,0.25
1.71542213377e-05,0.25735294117647056
1.71542213377e-05,0.2647058823529412
1.71542213377e-05,0.27205882352941174
1.71542213377e-05,0.27941176470588236
1.71542213377e-05,0.2867647058823529
1.71542213377e-05,0.29411764705882354
1.71542213377e-05,0.3014705882352941
0.000428855533442,0.3088235294117647
0.000428855533442,0.3161764705882353
0.000463163976117,0.3235294117647059
0.000857711066884,0.33088235294117646
0.000857711066884,0.3382352941176471
0.000857711066884,0.34558823529411764
0.000857711066884,0.35294117647058826
0.00128656660033,0.3602941176470588
0.00142951844481,0.36764705882352944
0.00142951844481,0.375
0.00142951844481,0.38235294117647056
0.00171542213377,0.3897058823529412
0.00171542213377,0.39705882352941174
0.00171542213377,0.40441176470588236
0.00171542213377,0.4117647058823529
0.00171542213377,0.41911764705882354
0.00171542213377,0.4264705882352941
0.00171542213377,0.4338235294117647
0.00214427766721,0.4411764705882353
0.00236746793665,0.4485294117647059
0.00243160231344,0.45588235294117646
0.00257313320065,0.4632352941176471
0.00257313320065,0.47058823529411764
0.00272807592795,0.47794117647058826
0.00272807592795,0.4852941176470588
0.00272807592795,0.49264705882352944
0.00272807592795,0.5
0.00275736917307,0.5073529411764706
0.00278666241819,0.5147058823529411
0.00278666241819,0.5220588235294118
0.00278666241819,0.5294117647058824
0.00278666241819,0.5367647058823529
0.00278666241819,0.5441176470588235
0.00279616252627,0.5514705882352942
0.00284518312671,0.5588235294117647
0.00286469030652,0.5661764705882353
0.00290738945271,0.5735294117647058
0.00295963667165,0.5808823529411765
0.00295963667165,0.5882352941176471
0.00299019096196,0.5955882352941176
0.00302074525226,0.6029411764705882
0.00303548772219,0.6102941176470589
0.00303548772219,0.6176470588235294
0.00303548772219,0.625
0.00303548772219,0.6323529411764706
0.00303548772219,0.6397058823529411
0.00303548772219,0.6470588235294118
0.00303548772219,0.6544117647058824
0.00314494057857,0.6617647058823529
0.00343084426754,0.6691176470588235
0.00343084426754,0.6764705882352942
0.0051462664013,0.6838235294117647
0.00700464037955,0.6911764705882353
0.0124368104698,0.6985294117647058
0.0127227141588,0.7058823529411765
0.0164394621153,0.7132352941176471
0.0204421137607,0.7205882352941176
0.0207280174497,0.7279411764705882
0.0221575358945,0.7352941176470589
0.0224434395835,0.7426470588235294
0.0241588617172,0.75
0.0711295781678,0.7573529411764706
0.0726847363178,0.7647058823529411
0.076994104251,0.7720588235294118
0.137868458654,0.7794117647058824
0.137868458654,0.7867647058823529
0.149509548098,0.7941176470588235
0.149509548098,0.8014705882352942
0.213388734503,0.8088235294117647
0.23930399137,0.8161764705882353
0.23930399137,0.8235294117647058
0.23930399137,0.8308823529411765
0.272807592795,0.8382352941176471
0.278666241819,0.8455882352941176
0.290738945271,0.8529411764705882
0.303548772219,0.8602941176470589
0.303548772219,0.8676470588235294
0.303548772219,0.875
0.303548772219,0.8823529411764706
0.349795819987,0.8897058823529411
0.410676051448,0.8970588235294118
0.445473215263,0.9044117647058824
0.517970233189,0.9117647058823529
0.545615185589,0.9191176470588235
0.607097544439,0.9264705882352942
0.910646316658,0.9338235294117647
1.146432295,0.9411764705882353
2.08093722866,0.9485294117647058
2.19752614185,0.9558823529411765
2.88841420655,0.9632352941176471
3.31003605849,0.9705882352941176
3.54678285215,0.9779411764705882
3.62985108898,0.9852941176470589
3.9094673416,0.9926470588235294
4.15262757295,1.0
