Congestion,CDF
0.0,0.007352941176470588
0.0,0.014705882352941176
0.0,0.022058823529411766
0.0,0.029411764705882353
0.0,0.03676470588235294
0.0,0.04411764705882353
0.0,0.051470588235294115
0.0,0.058823529411764705
0.0,0.0661764705882353
0.0,0.07352941176470588
0.0,0.08088235294117647
0.0,0.08823529411764706
0.0,0.09558823529411764
0.0,0.10294117647058823
1.54765270811e-05,0.11029411764705882
1.54765270811e-05,0.11764705882352941
1.54765270811e-05,0.125
1.54765270811e-05,0.1323529411764706
1.54765270811e-05,0.13970588235294118
1.54765270811e-05,0.14705882352941177
1.54765270811e-05,0.15441176470588236
1.54765270811e-05,0.16176470588235295
1.54765270811e-05,0.16911764705882354
1.54765270811e-05,0.17647058823529413
1.54765270811e-05,0.18382352941176472
1.54765270811e-05,0.19117647058823528
1.54765270811e-05,0.19852941176470587
1.54765270811e-05,0.20588235294117646
1.54765270811e-05,0.21323529411764705
1.54765270811e-05,0.22058823529411764
1.54765270811e-05,0.22794117647058823
1.54765270811e-05,0.23529411764705882
1.54765270811e-05,0.2426470588235294
1.54765270811e-05,0.25
1.54765270811e-05,0.25735294117647056
1.54765270811e-05,0.2647058823529412
1.54765270811e-05,0.27205882352941174
1.54765270811e-05,0.27941176470588236
1.54765270811e-05,0.2867647058823529
1.54765270811e-05,0.29411764705882354
1.54765270811e-05,0.3014705882352941
0.000386913177029,0.3088235294117647
0.000386913177029,0.3161764705882353
0.000417866231191,0.3235294117647059
0.000773826354057,0.33088235294117646
0.000773826354057,0.3382352941176471
0.000773826354057,0.34558823529411764
0.000773826354057,0.35294117647058826
0.00116073953109,0.3602941176470588
0.0012897105901,0.36764705882352944
0.0012897105901,0.375
0.0012897105901,0.38235294117647056
0.00154765270811,0.3897058823529412
0.00154765270811,0.39705882352941174
0.00154765270811,0.40441176470588236
0.00154765270811,0.4117647058823529
0.00154765270811,0.41911764705882354
0.00154765270811,0.4264705882352941
0.00154765270811,0.4338235294117647
0.00193456588514,0.4411764705882353
0.00232147906217,0.4485294117647059
0.00232147906217,0.45588235294117646
0.00283736329821,0.4632352941176471
0.00309530541623,0.47058823529411764
0.00309530541623,0.47794117647058826
0.00464295812434,0.4852941176470588
0.00473304721715,0.49264705882352944
0.00535830887171,0.5
0.00631958189147,0.5073529411764706
0.0107492298924,0.5147058823529411
0.0109289381199,0.5220588235294118
0.0110173932573,0.5294117647058824
0.0110431887512,0.5367647058823529
0.0110536392626,0.5441176470588235
0.0112204821338,0.5514705882352942
0.011233270442,0.5588235294117647
0.0114784242518,0.5661764705882353
0.0115492334123,0.5735294117647058
0.0115810071377,0.5808823529411765
0.0116502921738,0.5882352941176471
0.0116517289731,0.5955882352941176
0.0116531701096,0.6029411764705882
0.0117227302421,0.6102941176470589
0.0117458051938,0.6176470588235294
0.0118202627631,0.625
0.0118642545763,0.6323529411764706
0.0118751606043,0.6397058823529411
0.0119432494224,0.6470588235294118
0.0120120510265,0.6544117647058824
0.0120442621896,0.6617647058823529
0.0120442934896,0.6691176470588235
0.0120445501263,0.6764705882352942
0.0120445614817,0.6838235294117647
0.0120451812436,0.6911764705882353
0.0120451888154,0.6985294117647058
0.0120451888154,0.7058823529411765
0.0148316717861,0.7132352941176471
0.0184428614384,0.7205882352941176
0.0187008035564,0.7279411764705882
0.0199905141465,0.7352941176470589
0.0202484562645,0.7426470588235294
0.0217961089726,0.75
0.293068256052,0.7573529411764706
0.295506569077,0.7647058823529411
0.301499187611,0.7720588235294118
0.561663522098,0.7794117647058824
0.561663522098,0.7867647058823529
0.597162471118,0.7941176470588235
0.597162471118,0.8014705882352942
0.879204768155,0.8088235294117647
0.980101664921,0.8161764705882353
0.980101664921,0.8235294117647058
0.980101664921,0.8308823529411765
1.10431887512,0.8382352941176471
1.16517289731,0.8455882352941176
1.18202627631,0.8529411764705882
1.20442934896,0.8602941176470589
1.20445614817,0.8676470588235294
1.20451888154,0.875
1.20451888154,0.8823529411764706
1.45838526701,0.8897058823529411
1.65455733409,0.8970588235294118
1.78467853154,0.9044117647058824
2.13820237869,0.9117647058823529
2.20605820086,0.9191176470588235
2.4089111608,0.9264705882352942
3.61355588744,0.9338235294117647
4.76868904663,0.9411764705882353
8.62347828864,0.9485294117647058
8.72682918524,0.9558823529411765
11.5052984239,0.9632352941176471
13.5590168128,0.9705882352941176
14.0323215345,0.9779411764705882
14.4764024131,0.9852941176470589
15.5817663394,0.9926470588235294
16.1175972265,1.0
