Congestion,CDF
0.0,0.007352941176470588
0.0,0.014705882352941176
0.0,0.022058823529411766
0.0,0.029411764705882353
0.0,0.03676470588235294
0.0,0.04411764705882353
0.0,0.051470588235294115
0.0,0.058823529411764705
0.0,0.0661764705882353
0.0,0.07352941176470588
0.0,0.08088235294117647
0.0,0.08823529411764706
0.0,0.09558823529411764
0.0,0.10294117647058823
1.55243816507e-05,0.11029411764705882
1.55243816507e-05,0.11764705882352941
1.55243816507e-05,0.125
1.55243816507e-05,0.1323529411764706
1.55243816507e-05,0.13970588235294118
1.55243816507e-05,0.14705882352941177
1.55243816507e-05,0.15441176470588236
1.55243816507e-05,0.16176470588235295
1.55243816507e-05,0.16911764705882354
1.55243816507e-05,0.17647058823529413
1.55243816507e-05,0.18382352941176472
1.55243816507e-05,0.19117647058823528
1.55243816507e-05,0.19852941176470587
1.55243816507e-05,0.20588235294117646
1.55243816507e-05,0.21323529411764705
1.55243816507e-05,0.22058823529411764
1.55243816507e-05,0.22794117647058823
1.55243816507e-05,0.23529411764705882
1.55243816507e-05,0.2426470588235294
1.55243816507e-05,0.25
1.55243816507e-05,0.25735294117647056
1.55243816507e-05,0.2647058823529412
1.55243816507e-05,0.27205882352941174
1.55243816507e-05,0.27941176470588236
1.55243816507e-05,0.2867647058823529
1.55243816507e-05,0.29411764705882354
1.55243816507e-05,0.3014705882352941
0.000388109541269,0.3088235294117647
0.000388109541269,0.3161764705882353
0.00041915830457,0.3235294117647059
0.000776219082537,0.33088235294117646
0.000776219082537,0.3382352941176471
0.000776219082537,0.34558823529411764
0.000776219082537,0.35294117647058826
0.00116432862381,0.3602941176470588
0.0012936984709,0.36764705882352944
0.0012936984709,0.375
0.0012936984709,0.38235294117647056
0.00155243816507,0.3897058823529412
0.00155243816507,0.39705882352941174
0.00155243816507,0.40441176470588236
0.00155243816507,0.4117647058823529
0.00155243816507,0.41911764705882354
0.00155243816507,0.4264705882352941
0.00155243816507,0.4338235294117647
0.00194054770634,0.4411764705882353
0.00232865724761,0.4485294117647059
0.00232865724761,0.45588235294117646
0.00284613663597,0.4632352941176471
0.00310487633015,0.47058823529411764
0.00310487633015,0.47794117647058826
0.00465731449522,0.4852941176470588
0.00633912250739,0.49264705882352944
0.00721938485585,0.5
0.00759046528277,0.5073529411764706
0.00992327749091,0.5147058823529411
0.00994330184345,0.5220588235294118
0.00998778666675,0.5294117647058824
0.00998778666675,0.5367647058823529
0.0101559295445,0.5441176470588235
0.0101775728603,0.5514705882352942
0.0104204278933,0.5588235294117647
0.0104311967507,0.5661764705882353
0.010492036968,0.5735294117647058
0.010492036968,0.5808823529411765
0.0104923738586,0.5882352941176471
0.0105638505155,0.5955882352941176
0.010587828298,0.6029411764705882
0.0106594285195,0.6102941176470589
0.0107162395831,0.6176470588235294
0.0107186626806,0.625
0.0107831067867,0.6323529411764706
0.0108482262166,0.6397058823529411
0.0108792188522,0.6470588235294118
0.0108792188522,0.6544117647058824
0.010879418797,0.6617647058823529
0.010879418797,0.6691176470588235
0.010880031017,0.6764705882352942
0.010880031017,0.6838235294117647
0.010880031017,0.6911764705882353
0.0112551766968,0.6985294117647058
0.011513916391,0.7058823529411765
0.0148775324153,0.7132352941176471
0.0184998881338,0.7205882352941176
0.018758627828,0.7279411764705882
0.0200523262989,0.7352941176470589
0.0203110659931,0.7426470588235294
0.0218635041581,0.75
0.264096262886,0.7573529411764706
0.266485712988,0.7647058823529411
0.278348288599,0.7720588235294118
0.508878643016,0.7794117647058824
0.508878643016,0.7867647058823529
0.539155339337,0.7941176470588235
0.539155339337,0.8014705882352942
0.792288788659,0.8088235294117647
0.883509585808,0.8161764705882353
0.883509585808,0.8235294117647058
0.883509585808,0.8308823529411765
0.998778666675,0.8382352941176471
1.0492036968,0.8455882352941176
1.06594285195,0.8529411764705882
1.08792188522,0.8602941176470589
1.0879418797,0.8676470588235294
1.0880031017,0.875
1.0880031017,0.8823529411764706
1.31333364874,0.8897058823529411
1.50320882736,0.8970588235294118
1.61102160739,0.9044117647058824
1.92662926088,0.9117647058823529
1.99755733335,0.9191176470588235
2.1758837594,0.9264705882352942
3.2640093051,0.9338235294117647
4.29525062815,0.9411764705882353
7.77280132138,0.9485294117647058
7.88222254793,0.9558823529411765
10.3897100947,0.9632352941176471
12.2658952312,0.9705882352941176
12.9878337168,0.9779411764705882
13.0723556604,0.9852941176470589
14.0879486149,0.9926470588235294
14.8469951432,1.0
