Congestion,CDF
0.0,0.007352941176470588
0.0,0.014705882352941176
0.0,0.022058823529411766
0.0,0.029411764705882353
0.0,0.03676470588235294
0.0,0.04411764705882353
0.0,0.051470588235294115
0.0,0.058823529411764705
0.0,0.0661764705882353
0.0,0.07352941176470588
0.0,0.08088235294117647
0.0,0.08823529411764706
0.0,0.09558823529411764
0.0,0.10294117647058823
1.50895826284e-05,0.11029411764705882
1.50895826284e-05,0.11764705882352941
1.50895826284e-05,0.125
1.50895826284e-05,0.1323529411764706
1.50895826284e-05,0.13970588235294118
1.50895826284e-05,0.14705882352941177
1.50895826284e-05,0.15441176470588236
1.50895826284e-05,0.16176470588235295
1.50895826284e-05,0.16911764705882354
1.50895826284e-05,0.17647058823529413
1.50895826284e-05,0.18382352941176472
1.50895826284e-05,0.19117647058823528
1.50895826284e-05,0.19852941176470587
1.50895826284e-05,0.20588235294117646
1.50895826284e-05,0.21323529411764705
1.50895826284e-05,0.22058823529411764
1.50895826284e-05,0.22794117647058823
1.50895826284e-05,0.23529411764705882
1.50895826284e-05,0.2426470588235294
1.50895826284e-05,0.25
1.50895826284e-05,0.25735294117647056
1.50895826284e-05,0.2647058823529412
1.50895826284e-05,0.27205882352941174
1.50895826284e-05,0.27941176470588236
1.50895826284e-05,0.2867647058823529
1.50895826284e-05,0.29411764705882354
1.50895826284e-05,0.3014705882352941
0.000377239565709,0.3088235294117647
0.000377239565709,0.3161764705882353
0.000407418730966,0.3235294117647059
0.000754479131419,0.33088235294117646
0.000754479131419,0.3382352941176471
0.000754479131419,0.34558823529411764
0.000754479131419,0.35294117647058826
0.00113171869713,0.3602941176470588
0.00125746521903,0.36764705882352944
0.00125746521903,0.375
0.00125746521903,0.38235294117647056
0.00150895826284,0.3897058823529412
0.00150895826284,0.39705882352941174
0.00150895826284,0.40441176470588236
0.00150895826284,0.4117647058823529
0.00150895826284,0.41911764705882354
0.00150895826284,0.4264705882352941
0.00150895826284,0.4338235294117647
0.00188619782855,0.4411764705882353
0.00226343739426,0.4485294117647059
0.00226343739426,0.45588235294117646
0.00276642348187,0.4632352941176471
0.00301791652568,0.47058823529411764
0.00301791652568,0.47794117647058826
0.00452687478851,0.4852941176470588
0.00616157957325,0.49264705882352944
0.0109399474056,0.5
0.0111914404494,0.5073529411764706
0.0144608500189,0.5147058823529411
0.0179817526321,0.5220588235294118
0.018233245676,0.5294117647058824
0.019490710895,0.5367647058823529
0.0197422039388,0.5441176470588235
0.0212511622016,0.5514705882352942
0.0216451294743,0.5588235294117647
0.0226200352424,0.5661764705882353
0.0346237269877,0.5735294117647058
0.0347088810593,0.5808823529411765
0.0349037018984,0.5882352941176471
0.0349385560061,0.5955882352941176
0.0349721720007,0.6029411764705882
0.0350040529656,0.6102941176470589
0.0350795220647,0.6176470588235294
0.0350943333601,0.625
0.0351049579315,0.6323529411764706
0.0351117347593,0.6397058823529411
0.0351129488993,0.6470588235294118
0.0351138757594,0.6544117647058824
0.0351146149267,0.6617647058823529
0.0351154412263,0.6691176470588235
0.0351158861463,0.6764705882352942
0.0351177829473,0.6838235294117647
0.0351200065653,0.6911764705882353
0.0351278618884,0.6985294117647058
0.0351307105702,0.7058823529411765
0.035130722364,0.7132352941176471
0.0351308027249,0.7205882352941176
0.0351308062469,0.7279411764705882
0.03513105419,0.7352941176470589
0.0351310565384,0.7426470588235294
0.0351310565384,0.75
0.877846893985,0.7573529411764706
0.877944573682,0.7647058823529411
0.920661431282,0.7720588235294118
1.75020264828,0.7794117647058824
1.75020264828,0.7867647058823529
1.75600032826,0.7941176470588235
1.75600032826,0.8014705882352942
2.63354068195,0.8088235294117647
2.92622309764,0.8161764705882353
2.92622309764,0.8235294117647058
2.92622309764,0.8308823529411765
3.49721720007,0.8382352941176471
3.51154412263,0.8455882352941176
3.51177829473,0.8529411764705882
3.5130722364,0.8602941176470589
3.51308062469,0.8676470588235294
3.51310565384,0.875
3.51310565384,0.8823529411764706
4.38943550861,0.8897058823529411
5.24057283812,0.8970588235294118
5.2671738042,0.9044117647058824
6.43565643366,0.9117647058823529
6.99107280069,0.9191176470588235
7.02616089718,0.9264705882352942
10.5393167267,0.9338235294117647
14.3386642216,0.9411764705882353
25.469565491,0.9485294117647058
26.03247551,0.9558823529411765
33.6645751057,0.9632352941176471
41.7264938475,0.9705882352941176
42.4422447031,0.9779411764705882
43.891006795,0.9852941176470589
45.913132809,0.9926470588235294
48.1751363332,1.0
