Congestion,CDF
0.0,0.007352941176470588
0.0,0.014705882352941176
0.0,0.022058823529411766
0.0,0.029411764705882353
0.0,0.03676470588235294
0.0,0.04411764705882353
0.0,0.051470588235294115
0.0,0.058823529411764705
0.0,0.0661764705882353
0.0,0.07352941176470588
0.0,0.08088235294117647
0.0,0.08823529411764706
0.0,0.09558823529411764
0.0,0.10294117647058823
1.50645016589e-05,0.11029411764705882
1.50645016589e-05,0.11764705882352941
1.50645016589e-05,0.125
1.50645016589e-05,0.1323529411764706
1.50645016589e-05,0.13970588235294118
1.50645016589e-05,0.14705882352941177
1.50645016589e-05,0.15441176470588236
1.50645016589e-05,0.16176470588235295
1.50645016589e-05,0.16911764705882354
1.50645016589e-05,0.17647058823529413
1.50645016589e-05,0.18382352941176472
1.50645016589e-05,0.19117647058823528
1.50645016589e-05,0.19852941176470587
1.50645016589e-05,0.20588235294117646
1.50645016589e-05,0.21323529411764705
1.50645016589e-05,0.22058823529411764
1.50645016589e-05,0.22794117647058823
1.50645016589e-05,0.23529411764705882
1.50645016589e-05,0.2426470588235294
1.50645016589e-05,0.25
1.50645016589e-05,0.25735294117647056
1.50645016589e-05,0.2647058823529412
1.50645016589e-05,0.27205882352941174
1.50645016589e-05,0.27941176470588236
1.50645016589e-05,0.2867647058823529
1.50645016589e-05,0.29411764705882354
1.50645016589e-05,0.3014705882352941
0.000376612541472,0.3088235294117647
0.000376612541472,0.3161764705882353
0.00040674154479,0.3235294117647059
0.000753225082945,0.33088235294117646
0.000753225082945,0.3382352941176471
0.000753225082945,0.34558823529411764
0.000753225082945,0.35294117647058826
0.00112983762442,0.3602941176470588
0.00125537513824,0.36764705882352944
0.00125537513824,0.375
0.00125537513824,0.38235294117647056
0.00150645016589,0.3897058823529412
0.00150645016589,0.39705882352941174
0.00150645016589,0.40441176470588236
0.00150645016589,0.4117647058823529
0.00150645016589,0.41911764705882354
0.00150645016589,0.4264705882352941
0.00150645016589,0.4338235294117647
0.00188306270736,0.4411764705882353
0.00225967524883,0.4485294117647059
0.00225967524883,0.45588235294117646
0.00276182530413,0.4632352941176471
0.00301290033178,0.47058823529411764
0.00301290033178,0.47794117647058826
0.00451935049767,0.4852941176470588
0.00615133817738,0.49264705882352944
0.0109217637027,0.5
0.0111728387303,0.5073529411764706
0.0144368140898,0.5147058823529411
0.0179518644769,0.5220588235294118
0.0182029395045,0.5294117647058824
0.0194583146427,0.5367647058823529
0.0197093896704,0.5441176470588235
0.0212158398363,0.5514705882352942
0.0283384730694,0.5588235294117647
0.0292254531597,0.5661764705882353
0.0397922397986,0.5735294117647058
0.0398688644082,0.5808823529411765
0.0400306834655,0.5882352941176471
0.0400633288648,0.5955882352941176
0.0400920460756,0.6029411764705882
0.0401249749882,0.6102941176470589
0.0401994468093,0.6176470588235294
0.0402127231037,0.625
0.0402240035342,0.6323529411764706
0.0402300280788,0.6397058823529411
0.0402311250192,0.6470588235294118
0.040232027442,0.6544117647058824
0.0402328642994,0.6617647058823529
0.0402336060581,0.6691176470588235
0.0402340450018,0.6764705882352942
0.0402359261938,0.6838235294117647
0.0402381893485,0.6911764705882353
0.0402460216273,0.6985294117647058
0.0402488464118,0.7058823529411765
0.0402488575463,0.7132352941176471
0.0402489377905,0.7205882352941176
0.0402489412264,0.7279411764705882
0.0402491892167,0.7352941176470589
0.0402491915077,0.7426470588235294
0.0402491915077,0.75
1.00580068605,0.7573529411764706
1.00589815485,0.7647058823529411
1.06202922555,0.7720588235294118
2.00624874941,0.7794117647058824
2.00624874941,0.7867647058823529
2.01190946742,0.7941176470588235
2.01190946742,0.8014705882352942
3.01740205815,0.8088235294117647
3.35273634154,0.8161764705882353
3.35273634154,0.8235294117647058
3.35273634154,0.8308823529411765
4.00920460756,0.8382352941176471
4.02336060581,0.8455882352941176
4.02359261938,0.8529411764705882
4.02488575463,0.8602941176470589
4.02489412264,0.8676470588235294
4.02491915077,0.875
4.02491915077,0.8823529411764706
5.02920518623,0.8897058823529411
6.00931709596,0.8970588235294118
6.0349122753,0.9044117647058824
7.37400865191,0.9117647058823529
8.01553749404,0.9191176470588235
8.04978790169,0.9264705882352942
12.0747572232,0.9338235294117647
16.4285885635,0.9411764705882353
29.1802136756,0.9485294117647058
29.8287906458,0.9558823529411765
38.5694616472,0.9632352941176471
47.8328692156,0.9705882352941176
48.626774276,0.9779411764705882
50.6667165226,0.9852941176470589
52.6136607168,0.9926470588235294
55.5362060328,1.0
