Congestion,CDF
0.0,0.007352941176470588
0.0,0.014705882352941176
0.0,0.022058823529411766
0.0,0.029411764705882353
0.0,0.03676470588235294
0.0,0.04411764705882353
0.0,0.051470588235294115
0.0,0.058823529411764705
0.0,0.0661764705882353
0.0,0.07352941176470588
0.0,0.08088235294117647
0.0,0.08823529411764706
0.0,0.09558823529411764
0.0,0.10294117647058823
1.50399012813e-05,0.11029411764705882
1.50399012813e-05,0.11764705882352941
1.50399012813e-05,0.125
1.50399012813e-05,0.1323529411764706
1.50399012813e-05,0.13970588235294118
1.50399012813e-05,0.14705882352941177
1.50399012813e-05,0.15441176470588236
1.50399012813e-05,0.16176470588235295
1.50399012813e-05,0.16911764705882354
1.50399012813e-05,0.17647058823529413
1.50399012813e-05,0.18382352941176472
1.50399012813e-05,0.19117647058823528
1.50399012813e-05,0.19852941176470587
1.50399012813e-05,0.20588235294117646
1.50399012813e-05,0.21323529411764705
1.50399012813e-05,0.22058823529411764
1.50399012813e-05,0.22794117647058823
1.50399012813e-05,0.23529411764705882
1.50399012813e-05,0.2426470588235294
1.50399012813e-05,0.25
1.50399012813e-05,0.25735294117647056
1.50399012813e-05,0.2647058823529412
1.50399012813e-05,0.27205882352941174
1.50399012813e-05,0.27941176470588236
1.50399012813e-05,0.2867647058823529
1.50399012813e-05,0.29411764705882354
1.50399012813e-05,0.3014705882352941
0.000375997532033,0.3088235294117647
0.000375997532033,0.3161764705882353
0.000406077334596,0.3235294117647059
0.000751995064067,0.33088235294117646
0.000751995064067,0.3382352941176471
0.000751995064067,0.34558823529411764
0.000751995064067,0.35294117647058826
0.0011279925961,0.3602941176470588
0.00125332510678,0.36764705882352944
0.00125332510678,0.375
0.00125332510678,0.38235294117647056
0.00150399012813,0.3897058823529412
0.00150399012813,0.39705882352941174
0.00150399012813,0.40441176470588236
0.00150399012813,0.4117647058823529
0.00150399012813,0.41911764705882354
0.00150399012813,0.4264705882352941
0.00150399012813,0.4338235294117647
0.00187998766017,0.4411764705882353
0.0022559851922,0.4485294117647059
0.0022559851922,0.45588235294117646
0.00275731523491,0.4632352941176471
0.00300798025627,0.47058823529411764
0.00300798025627,0.47794117647058826
0.0045119703844,0.4852941176470588
0.00614129302321,0.49264705882352944
0.010903928429,0.5
0.0111545934503,0.5073529411764706
0.0144132387279,0.5147058823529411
0.0179225490269,0.5220588235294118
0.0181732140483,0.5294117647058824
0.0194265391551,0.5367647058823529
0.0196772041764,0.5441176470588235
0.0211811943045,0.5514705882352942
0.037202040264,0.5588235294117647
0.0379565133266,0.5661764705882353
0.0466668851159,0.5735294117647058
0.0467350132316,0.5808823529411765
0.0468625329724,0.5882352941176471
0.0468932632415,0.5955882352941176
0.0469175338793,0.6029411764705882
0.0469512508849,0.6102941176470589
0.0470251783118,0.6176470588235294
0.0470370947627,0.625
0.0470489741678,0.6323529411764706
0.0470543273799,0.6397058823529411
0.0470553318612,0.6470588235294118
0.0470562170398,0.6544117647058824
0.0470571303299,0.6617647058823529
0.0470578055203,0.6691176470588235
0.0470582405581,0.6764705882352942
0.0470601108451,0.6838235294117647
0.0470624005959,0.6911764705882353
0.0470702202441,0.6985294117647058
0.0470730269282,0.7058823529411765
0.047073037611,0.7132352941176471
0.0470731177888,0.7205882352941176
0.0470731211734,0.7279411764705882
0.0470733691929,0.7352941176470589
0.0470733714497,0.7426470588235294
0.0470733714497,0.75
1.17640542599,0.7573529411764706
1.17650277113,0.7647058823529411
1.25034048013,0.7720588235294118
2.34756254425,0.7794117647058824
2.34756254425,0.7867647058823529
2.35312002979,0.7941176470588235
2.35312002979,0.8014705882352942
3.52921627798,0.8088235294117647
3.92141925916,0.8161764705882353
3.92141925916,0.8235294117647058
3.92141925916,0.8308823529411765
4.69175338793,0.8382352941176471
4.70578055203,0.8455882352941176
4.70601108451,0.8529411764705882
4.7073037611,0.8602941176470589
4.70731211734,0.8676470588235294
4.70733714497,0.875
4.70733714497,0.8823529411764706
5.8822294818,0.8897058823529411
7.03381584148,0.8970588235294118
7.05855276778,0.9044117647058824
8.62512873543,0.9117647058823529
9.38107971208,0.9191176470588235
9.41462389622,0.9264705882352942
14.1220112092,0.9338235294117647
19.215142326,0.9411764705882353
34.1277443305,0.9485294117647058
34.8903514368,0.9558823529411765
45.1093056439,0.9632352941176471
55.971935502,0.9705882352941176
56.8727558284,0.9779411764705882
59.6921395284,0.9852941176470589
61.5462571516,0.9926470588235294
65.3419084842,1.0
