Congestion,CDF
0.0,0.007352941176470588
0.0,0.014705882352941176
0.0,0.022058823529411766
0.0,0.029411764705882353
0.0,0.03676470588235294
0.0,0.04411764705882353
0.0,0.051470588235294115
0.0,0.058823529411764705
0.0,0.0661764705882353
0.0,0.07352941176470588
0.0,0.08088235294117647
0.0,0.08823529411764706
0.0,0.09558823529411764
0.0,0.10294117647058823
1.51940473561e-05,0.11029411764705882
1.51940473561e-05,0.11764705882352941
1.51940473561e-05,0.125
1.51940473561e-05,0.1323529411764706
1.51940473561e-05,0.13970588235294118
1.51940473561e-05,0.14705882352941177
1.51940473561e-05,0.15441176470588236
1.51940473561e-05,0.16176470588235295
1.51940473561e-05,0.16911764705882354
1.51940473561e-05,0.17647058823529413
1.51940473561e-05,0.18382352941176472
1.51940473561e-05,0.19117647058823528
1.51940473561e-05,0.19852941176470587
1.51940473561e-05,0.20588235294117646
1.51940473561e-05,0.21323529411764705
1.51940473561e-05,0.22058823529411764
1.51940473561e-05,0.22794117647058823
1.51940473561e-05,0.23529411764705882
1.51940473561e-05,0.2426470588235294
1.51940473561e-05,0.25
1.51940473561e-05,0.25735294117647056
1.51940473561e-05,0.2647058823529412
1.51940473561e-05,0.27205882352941174
1.51940473561e-05,0.27941176470588236
1.51940473561e-05,0.2867647058823529
1.51940473561e-05,0.29411764705882354
1.51940473561e-05,0.3014705882352941
0.000379851183903,0.3088235294117647
0.000379851183903,0.3161764705882353
0.000410239278616,0.3235294117647059
0.000759702367807,0.33088235294117646
0.000759702367807,0.3382352941176471
0.000759702367807,0.34558823529411764
0.000759702367807,0.35294117647058826
0.00113955355171,0.3602941176470588
0.00126617061301,0.36764705882352944
0.00126617061301,0.375
0.00126617061301,0.38235294117647056
0.00151940473561,0.3897058823529412
0.00151940473561,0.39705882352941174
0.00151940473561,0.40441176470588236
0.00151940473561,0.4117647058823529
0.00151940473561,0.41911764705882354
0.00151940473561,0.4264705882352941
0.00151940473561,0.4338235294117647
0.00189925591952,0.4411764705882353
0.00227910710342,0.4485294117647059
0.00227910710342,0.45588235294117646
0.00278557534863,0.4632352941176471
0.00303880947123,0.47058823529411764
0.00303880947123,0.47794117647058826
0.00455821420684,0.4852941176470588
0.00620423600376,0.49264705882352944
0.00689581590467,0.5
0.00794571225461,0.5073529411764706
0.0110156843332,0.5147058823529411
0.0112689184558,0.5220588235294118
0.0145609620496,0.5294117647058824
0.0181062397661,0.5367647058823529
0.0183594738887,0.5441176470588235
0.0196256445017,0.5514705882352942
0.0198788786243,0.5588235294117647
0.0213982833599,0.5661764705882353
0.0225233658546,0.5735294117647058
0.0226356132692,0.5808823529411765
0.0229246244956,0.5882352941176471
0.0229686539686,0.5955882352941176
0.0230202168095,0.6029411764705882
0.0230462879163,0.6102941176470589
0.0231297683655,0.6176470588235294
0.0231506085672,0.625
0.023158873329,0.6323529411764706
0.0231685474211,0.6397058823529411
0.0231703273656,0.6470588235294118
0.0231714072113,0.6544117647058824
0.0231716668267,0.6617647058823529
0.0231729037145,0.6691176470588235
0.0231733931582,0.6764705882352942
0.0231753845549,0.6838235294117647
0.0231773369914,0.6911764705882353
0.0231854104375,0.6985294117647058
0.023188389071,0.7058823529411765
0.0231884051296,0.7132352941176471
0.0231884866672,0.7205882352941176
0.0231884909427,0.7279411764705882
0.0231887385246,0.7352941176470589
0.0231887413753,0.7426470588235294
0.0231887413753,0.75
0.579285180282,0.7573529411764706
0.579384613873,0.7647058823529411
0.592285911501,0.7720588235294118
1.15231439582,0.7794117647058824
1.15231439582,0.7867647058823529
1.15886684957,0.7941176470588235
1.15886684957,0.8014705882352942
1.73785554085,0.8088235294117647
1.93101403968,0.8161764705882353
1.93101403968,0.8235294117647058
1.93101403968,0.8308823529411765
2.30202168095,0.8382352941176471
2.31729037145,0.8455882352941176
2.31753845549,0.8529411764705882
2.31884051296,0.8602941176470589
2.31884909427,0.8676470588235294
2.31887413753,0.875
2.31887413753,0.8823529411764706
2.8966244961,0.8897058823529411
3.44477684538,0.8970588235294118
3.47572159168,0.9044117647058824
4.24607489639,0.9117647058823529
4.59888707781,0.9191176470588235
4.63769776099,0.9264705882352942
6.95662212751,0.9338235294117647
9.4620955899,0.9411764705882353
16.8113839224,0.9485294117647058
17.1734617187,0.9558823529411765
22.2198058554,0.9632352941176471
27.4694622273,0.9705882352941176
28.01141478,0.9779411764705882
28.1590438178,0.9852941176470589
30.2749761069,0.9926470588235294
31.0695473324,1.0
