Congestion,CDF
0.0,0.007352941176470588
0.0,0.014705882352941176
0.0,0.022058823529411766
0.0,0.029411764705882353
0.0,0.03676470588235294
0.0,0.04411764705882353
0.0,0.051470588235294115
0.0,0.058823529411764705
0.0,0.0661764705882353
0.0,0.07352941176470588
0.0,0.08088235294117647
0.0,0.08823529411764706
0.0,0.09558823529411764
0.0,0.10294117647058823
1.50997350465e-05,0.11029411764705882
1.50997350465e-05,0.11764705882352941
1.50997350465e-05,0.125
1.50997350465e-05,0.1323529411764706
1.50997350465e-05,0.13970588235294118
1.50997350465e-05,0.14705882352941177
1.50997350465e-05,0.15441176470588236
1.50997350465e-05,0.16176470588235295
1.50997350465e-05,0.16911764705882354
1.50997350465e-05,0.17647058823529413
1.50997350465e-05,0.18382352941176472
1.50997350465e-05,0.19117647058823528
1.50997350465e-05,0.19852941176470587
1.50997350465e-05,0.20588235294117646
1.50997350465e-05,0.21323529411764705
1.50997350465e-05,0.22058823529411764
1.50997350465e-05,0.22794117647058823
1.50997350465e-05,0.23529411764705882
1.50997350465e-05,0.2426470588235294
1.50997350465e-05,0.25
1.50997350465e-05,0.25735294117647056
1.50997350465e-05,0.2647058823529412
1.50997350465e-05,0.27205882352941174
1.50997350465e-05,0.27941176470588236
1.50997350465e-05,0.2867647058823529
1.50997350465e-05,0.29411764705882354
1.50997350465e-05,0.3014705882352941
0.000377493376163,0.3088235294117647
0.000377493376163,0.3161764705882353
0.000407692846257,0.3235294117647059
0.000754986752327,0.33088235294117646
0.000754986752327,0.3382352941176471
0.000754986752327,0.34558823529411764
0.000754986752327,0.35294117647058826
0.00113248012849,0.3602941176470588
0.00125831125388,0.36764705882352944
0.00125831125388,0.375
0.00125831125388,0.38235294117647056
0.00150997350465,0.3897058823529412
0.00150997350465,0.39705882352941174
0.00150997350465,0.40441176470588236
0.00150997350465,0.4117647058823529
0.00150997350465,0.41911764705882354
0.00150997350465,0.4264705882352941
0.00150997350465,0.4338235294117647
0.00188746688082,0.4411764705882353
0.00226496025698,0.4485294117647059
0.00226496025698,0.45588235294117646
0.00276828475853,0.4632352941176471
0.00301994700931,0.47058823529411764
0.00301994700931,0.47794117647058826
0.00452992051396,0.4852941176470588
0.006165725144,0.49264705882352944
0.0109473079087,0.5
0.0111989701595,0.5073529411764706
0.0144705794196,0.5147058823529411
0.0179938509305,0.5220588235294118
0.0182455131812,0.5294117647058824
0.0194459281239,0.5367647058823529
0.0195038244351,0.5441176470588235
0.0197554866859,0.5514705882352942
0.0204444527144,0.5588235294117647
0.0212654601905,0.5661764705882353
0.0328987765826,0.5735294117647058
0.0329871439884,0.5808823529411765
0.0331940202337,0.5882352941176471
0.0332297822107,0.5955882352941176
0.0332653459859,0.6029411764705882
0.0332967563163,0.6102941176470589
0.033372741297,0.6176470588235294
0.0333881739995,0.625
0.0333985390014,0.6323529411764706
0.0334056187669,0.6397058823529411
0.0334068837638,0.6470588235294118
0.0334078221116,0.6544117647058824
0.0334085185777,0.6617647058823529
0.0334093816152,0.6691176470588235
0.0334098294607,0.6764705882352942
0.0334117335507,0.6838235294117647
0.0334139381942,0.6911764705882353
0.0334218057902,0.6985294117647058
0.0334246651508,0.7058823529411765
0.0334246772568,0.7132352941176471
0.0334247576798,0.7205882352941176
0.0334247612463,0.7279411764705882
0.0334250091656,0.7352941176470589
0.0334250115436,0.7426470588235294
0.0334250115436,0.75
0.835195552789,0.7573529411764706
0.835293338768,0.7647058823529411
0.873591085871,0.7720588235294118
1.66483781582,0.7794117647058824
1.66483781582,0.7867647058823529
1.67069690971,0.7941176470588235
1.67069690971,0.8014705882352942
2.50558665837,0.8088235294117647
2.78405168368,0.8161764705882353
2.78405168368,0.8235294117647058
2.78405168368,0.8308823529411765
3.32653459859,0.8382352941176471
3.34093816152,0.8455882352941176
3.34117335507,0.8529411764705882
3.34246772568,0.8602941176470589
3.34247612463,0.8676470588235294
3.34250115436,0.875
3.34250115436,0.8823529411764706
4.17617849886,0.8897058823529411
4.98423983919,0.8970588235294118
5.01125878639,0.9044117647058824
6.12286908363,0.9117647058823529
6.64951281966,0.9191176470588235
6.68495189261,0.9264705882352942
10.0275032253,0.9338235294117647
13.6420202018,0.9411764705882353
24.2326826974,0.9485294117647058
24.767001231,0.9558823529411765
32.0296118698,0.9632352941176471
39.6906315481,0.9705882352941176
40.3807245564,0.9779411764705882
41.6352243605,0.9852941176470589
43.6794389552,0.9926470588235294
45.7238842266,1.0
