Congestion,CDF
0.0,0.007352941176470588
0.0,0.014705882352941176
0.0,0.022058823529411766
0.0,0.029411764705882353
0.0,0.03676470588235294
0.0,0.04411764705882353
0.0,0.051470588235294115
0.0,0.058823529411764705
0.0,0.0661764705882353
0.0,0.07352941176470588
0.0,0.08088235294117647
0.0,0.08823529411764706
0.0,0.09558823529411764
0.0,0.10294117647058823
1.50893891625e-05,0.11029411764705882
1.50893891625e-05,0.11764705882352941
1.50893891625e-05,0.125
1.50893891625e-05,0.1323529411764706
1.50893891625e-05,0.13970588235294118
1.50893891625e-05,0.14705882352941177
1.50893891625e-05,0.15441176470588236
1.50893891625e-05,0.16176470588235295
1.50893891625e-05,0.16911764705882354
1.50893891625e-05,0.17647058823529413
1.50893891625e-05,0.18382352941176472
1.50893891625e-05,0.19117647058823528
1.50893891625e-05,0.19852941176470587
1.50893891625e-05,0.20588235294117646
1.50893891625e-05,0.21323529411764705
1.50893891625e-05,0.22058823529411764
1.50893891625e-05,0.22794117647058823
1.50893891625e-05,0.23529411764705882
1.50893891625e-05,0.2426470588235294
1.50893891625e-05,0.25
1.50893891625e-05,0.25735294117647056
1.50893891625e-05,0.2647058823529412
1.50893891625e-05,0.27205882352941174
1.50893891625e-05,0.27941176470588236
1.50893891625e-05,0.2867647058823529
1.50893891625e-05,0.29411764705882354
1.50893891625e-05,0.3014705882352941
0.000377234729063,0.3088235294117647
0.000377234729063,0.3161764705882353
0.000407413507388,0.3235294117647059
0.000754469458126,0.33088235294117646
0.000754469458126,0.3382352941176471
0.000754469458126,0.34558823529411764
0.000754469458126,0.35294117647058826
0.00113170418719,0.3602941176470588
0.00125744909688,0.36764705882352944
0.00125744909688,0.375
0.00125744909688,0.38235294117647056
0.00150893891625,0.3897058823529412
0.00150893891625,0.39705882352941174
0.00150893891625,0.40441176470588236
0.00150893891625,0.4117647058823529
0.00150893891625,0.41911764705882354
0.00150893891625,0.4264705882352941
0.00150893891625,0.4338235294117647
0.00188617364532,0.4411764705882353
0.00226340837438,0.4485294117647059
0.00226340837438,0.45588235294117646
0.00276638801313,0.4632352941176471
0.00301787783251,0.47058823529411764
0.00301787783251,0.47794117647058826
0.00452681674876,0.4852941176470588
0.0061615005747,0.49264705882352944
0.0109398071428,0.5
0.0111912969622,0.5073529411764706
0.0144606646141,0.5147058823529411
0.0179815220853,0.5220588235294118
0.0182330119047,0.5294117647058824
0.0194904610016,0.5367647058823529
0.019741950821,0.5441176470588235
0.0212508897372,0.5514705882352942
0.0285722716373,0.5588235294117647
0.0290487400996,0.5661764705882353
0.0341463207997,0.5735294117647058
0.0342383359375,0.5808823529411765
0.0342913990247,0.5882352941176471
0.0343412407485,0.5955882352941176
0.034363229168,0.6029411764705882
0.0344309957006,0.6102941176470589
0.0345661737637,0.6176470588235294
0.0345833524923,0.625
0.0346176896462,0.6323529411764706
0.0346185006728,0.6397058823529411
0.0346191051858,0.6470588235294118
0.0346219377429,0.6544117647058824
0.0346222092822,0.6617647058823529
0.0346229938381,0.6691176470588235
0.0346280059809,0.6764705882352942
0.0346364316013,0.6838235294117647
0.03464717043,0.6911764705882353
0.0346662105038,0.6985294117647058
0.0346748509689,0.7058823529411765
0.0346748652756,0.7132352941176471
0.0346749816406,0.7205882352941176
0.0346749862237,0.7279411764705882
0.0346752359229,0.7352941176470589
0.0346752389788,0.7426470588235294
0.0346752389788,0.75
0.865555232056,0.7573529411764706
0.865910790033,0.7647058823529411
0.921607712245,0.7720588235294118
1.72154978503,0.7794117647058824
1.72154978503,0.7867647058823529
1.7323585215,0.7941176470588235
1.7323585215,0.8014705882352942
2.59666569617,0.8088235294117647
2.88556581669,0.8161764705882353
2.88556581669,0.8235294117647058
2.88556581669,0.8308823529411765
3.4363229168,0.8382352941176471
3.46185006728,0.8455882352941176
3.46364316013,0.8529411764705882
3.46748652756,0.8602941176470589
3.46749862237,0.8676470588235294
3.46752389788,0.875
3.46752389788,0.8823529411764706
4.32746575064,0.8897058823529411
5.1506896875,0.8970588235294118
5.19515911959,0.9044117647058824
6.34390106592,0.9117647058823529
6.87044699166,0.9191176470588235
6.93499678643,0.9264705882352942
10.402571388,0.9338235294117647
14.1366505992,0.9411764705882353
25.138450589,0.9485294117647058
25.6587188266,0.9558823529411765
33.2229959775,0.9632352941176471
41.0944875857,0.9705882352941176
41.8803488714,0.9779411764705882
43.9517147494,0.9852941176470589
45.3041824652,0.9926470588235294
48.2090564751,1.0
