Congestion,CDF
0.0,0.007352941176470588
0.0,0.014705882352941176
0.0,0.022058823529411766
0.0,0.029411764705882353
0.0,0.03676470588235294
0.0,0.04411764705882353
0.0,0.051470588235294115
0.0,0.058823529411764705
0.0,0.0661764705882353
0.0,0.07352941176470588
0.0,0.08088235294117647
0.0,0.08823529411764706
0.0,0.09558823529411764
0.0,0.10294117647058823
1.52877605119e-05,0.11029411764705882
1.52877605119e-05,0.11764705882352941
1.52877605119e-05,0.125
1.52877605119e-05,0.1323529411764706
1.52877605119e-05,0.13970588235294118
1.52877605119e-05,0.14705882352941177
1.52877605119e-05,0.15441176470588236
1.52877605119e-05,0.16176470588235295
1.52877605119e-05,0.16911764705882354
1.52877605119e-05,0.17647058823529413
1.52877605119e-05,0.18382352941176472
1.52877605119e-05,0.19117647058823528
1.52877605119e-05,0.19852941176470587
1.52877605119e-05,0.20588235294117646
1.52877605119e-05,0.21323529411764705
1.52877605119e-05,0.22058823529411764
1.52877605119e-05,0.22794117647058823
1.52877605119e-05,0.23529411764705882
1.52877605119e-05,0.2426470588235294
1.52877605119e-05,0.25
1.52877605119e-05,0.25735294117647056
1.52877605119e-05,0.2647058823529412
1.52877605119e-05,0.27205882352941174
1.52877605119e-05,0.27941176470588236
1.52877605119e-05,0.2867647058823529
1.52877605119e-05,0.29411764705882354
1.52877605119e-05,0.3014705882352941
0.000382194012798,0.3088235294117647
0.000382194012798,0.3161764705882353
0.000412769533822,0.3235294117647059
0.000764388025596,0.33088235294117646
0.000764388025596,0.3382352941176471
0.000764388025596,0.34558823529411764
0.000764388025596,0.35294117647058826
0.00114658203839,0.3602941176470588
0.00127398004266,0.36764705882352944
0.00127398004266,0.375
0.00127398004266,0.38235294117647056
0.00152877605119,0.3897058823529412
0.00152877605119,0.39705882352941174
0.00152877605119,0.40441176470588236
0.00152877605119,0.4117647058823529
0.00152877605119,0.41911764705882354
0.00152877605119,0.4264705882352941
0.00152877605119,0.4338235294117647
0.00191097006399,0.4411764705882353
0.00229316407679,0.4485294117647059
0.00229316407679,0.45588235294117646
0.00280275609385,0.4632352941176471
0.00305755210239,0.47058823529411764
0.00305755210239,0.47794117647058826
0.00458632815358,0.4852941176470588
0.00490163771227,0.49264705882352944
0.00573732828015,0.5
0.00624250220904,0.5073529411764706
0.0110836263711,0.5147058823529411
0.0113384223797,0.5220588235294118
0.0146507704906,0.5294117647058824
0.016833719946,0.5367647058823529
0.016979350326,0.5441176470588235
0.0172077024508,0.5514705882352942
0.0172772459916,0.5588235294117647
0.0173348984557,0.5661764705882353
0.0173887230239,0.5735294117647058
0.0175455877917,0.5808823529411765
0.017575328059,0.5882352941176471
0.0176092960142,0.5955882352941176
0.0176115673046,0.6029411764705882
0.0176132905653,0.6102941176470589
0.0176140230185,0.6176470588235294
0.0176171339141,0.625
0.0176175427866,0.6323529411764706
0.0176213142524,0.6397058823529411
0.0176315737139,0.6470588235294118
0.0176415989374,0.6544117647058824
0.0176613079348,0.6617647058823529
0.0176702616722,0.6691176470588235
0.0176702867695,0.6764705882352942
0.0176704071499,0.6838235294117647
0.0176704139786,0.6911764705882353
0.0176706627706,0.6985294117647058
0.0176706673236,0.7058823529411765
0.0176706673236,0.7132352941176471
0.01821791461,0.7205882352941176
0.0184727106186,0.7279411764705882
0.0197466906612,0.7352941176470589
0.0200014866698,0.7426470588235294
0.021530262721,0.75
0.440428347853,0.7573529411764706
0.440789342848,0.7647058823529411
0.448713537467,0.7720588235294118
0.869436151196,0.7794117647058824
0.869436151196,0.7867647058823529
0.882079946869,0.7941176470588235
0.882079946869,0.8014705882352942
1.32128504356,0.8088235294117647
1.46846911692,0.8161764705882353
1.46846911692,0.8235294117647058
1.46846911692,0.8308823529411765
1.73348984557,0.8382352941176471
1.76132905653,0.8455882352941176
1.76315737139,0.8529411764705882
1.76702867695,0.8602941176470589
1.76704139786,0.8676470588235294
1.76706673236,0.875
1.76706673236,0.8823529411764706
2.2018306497,0.8897058823529411
2.59020639628,0.8970588235294118
2.64421137211,0.9044117647058824
3.22600192283,0.9117647058823529
3.46121444472,0.9191176470588235
3.53408211285,0.9264705882352942
5.30119974179,0.9338235294117647
7.19278555361,0.9411764705882353
12.8101260417,0.9485294117647058
13.0427824068,0.9558823529411765
16.9268058989,0.9632352941176471
20.7775752424,0.9705882352941176
21.2677390136,0.9779411764705882
21.3319468725,0.9852941176470589
23.0298819051,0.9926470588235294
23.6036147331,1.0
