Congestion,CDF
0.0,0.007352941176470588
0.0,0.014705882352941176
0.0,0.022058823529411766
0.0,0.029411764705882353
0.0,0.03676470588235294
0.0,0.04411764705882353
0.0,0.051470588235294115
0.0,0.058823529411764705
0.0,0.0661764705882353
0.0,0.07352941176470588
0.0,0.08088235294117647
0.0,0.08823529411764706
0.0,0.09558823529411764
0.0,0.10294117647058823
1.52210339751e-05,0.11029411764705882
1.52210339751e-05,0.11764705882352941
1.52210339751e-05,0.125
1.52210339751e-05,0.1323529411764706
1.52210339751e-05,0.13970588235294118
1.52210339751e-05,0.14705882352941177
1.52210339751e-05,0.15441176470588236
1.52210339751e-05,0.16176470588235295
1.52210339751e-05,0.16911764705882354
1.52210339751e-05,0.17647058823529413
1.52210339751e-05,0.18382352941176472
1.52210339751e-05,0.19117647058823528
1.52210339751e-05,0.19852941176470587
1.52210339751e-05,0.20588235294117646
1.52210339751e-05,0.21323529411764705
1.52210339751e-05,0.22058823529411764
1.52210339751e-05,0.22794117647058823
1.52210339751e-05,0.23529411764705882
1.52210339751e-05,0.2426470588235294
1.52210339751e-05,0.25
1.52210339751e-05,0.25735294117647056
1.52210339751e-05,0.2647058823529412
1.52210339751e-05,0.27205882352941174
1.52210339751e-05,0.27941176470588236
1.52210339751e-05,0.2867647058823529
1.52210339751e-05,0.29411764705882354
1.52210339751e-05,0.3014705882352941
0.000380525849377,0.3088235294117647
0.000380525849377,0.3161764705882353
0.000410967917327,0.3235294117647059
0.000761051698753,0.33088235294117646
0.000761051698753,0.3382352941176471
0.000761051698753,0.34558823529411764
0.000761051698753,0.35294117647058826
0.00114157754813,0.3602941176470588
0.00126841949792,0.36764705882352944
0.00126841949792,0.375
0.00126841949792,0.38235294117647056
0.00152210339751,0.3897058823529412
0.00152210339751,0.39705882352941174
0.00152210339751,0.40441176470588236
0.00152210339751,0.4117647058823529
0.00152210339751,0.41911764705882354
0.00152210339751,0.4264705882352941
0.00152210339751,0.4338235294117647
0.00190262924688,0.4411764705882353
0.00228315509626,0.4485294117647059
0.00228315509626,0.45588235294117646
0.00279052289543,0.4632352941176471
0.00304420679501,0.47058823529411764
0.00304420679501,0.47794117647058826
0.00456631019252,0.4852941176470588
0.00621525553982,0.49264705882352944
0.00895502884509,0.5
0.00979046782146,0.5073529411764706
0.0110352496319,0.5147058823529411
0.0112889335315,0.5220588235294118
0.0145868242261,0.5294117647058824
0.0181383988203,0.5367647058823529
0.0183920827199,0.5441176470588235
0.0196605022178,0.5514705882352942
0.0199141861174,0.5588235294117647
0.020312168266,0.5661764705882353
0.0204459928648,0.5735294117647058
0.0206425679794,0.5808823529411765
0.0207064457424,0.5882352941176471
0.0207556570955,0.5955882352941176
0.02081434417,0.6029411764705882
0.0209622888425,0.6102941176470589
0.0209886744711,0.6176470588235294
0.0210236956801,0.625
0.0210242218822,0.6323529411764706
0.0210256624867,0.6397058823529411
0.0210263385417,0.6470588235294118
0.0210294743508,0.6544117647058824
0.0210300208197,0.6617647058823529
0.0210341715476,0.6691176470588235
0.0210438112939,0.6764705882352942
0.0210541232754,0.6838235294117647
0.0210735180361,0.6911764705882353
0.0210823598927,0.6985294117647058
0.0210823808525,0.7058823529411765
0.0210824991743,0.7132352941176471
0.021082504973,0.7205882352941176
0.0210827541089,0.7279411764705882
0.0210827579752,0.7352941176470589
0.0210827579752,0.7426470588235294
0.0214362895149,0.75
0.525736858769,0.7573529411764706
0.526095282348,0.7647058823529411
0.542316688964,0.7720588235294118
1.0407172085,0.7794117647058824
1.0407172085,0.7867647058823529
1.05270616377,0.7941176470588235
1.05270616377,0.8014705882352942
1.57721057631,0.8088235294117647
1.75283283511,0.8161764705882353
1.75283283511,0.8235294117647058
1.75283283511,0.8308823529411765
2.07556570955,0.8382352941176471
2.10256624867,0.8455882352941176
2.10438112939,0.8529411764705882
2.10823808525,0.8602941176470589
2.1082504973,0.8676470588235294
2.10827579752,0.875
2.10827579752,0.8823529411764706
2.62837071294,0.8897058823529411
3.10497400644,0.8970588235294118
3.15612331853,0.9044117647058824
3.85170028222,0.9117647058823529
4.14621028379,0.9191176470588235
4.21650041474,0.9264705882352942
6.32482700593,0.9338235294117647
8.58619198494,0.9411764705882353
15.2838967775,0.9485294117647058
15.5748383599,0.9558823529411765
20.19678758,0.9632352941176471
24.8572394767,0.9705882352941176
25.4552804666,0.9779411764705882
25.7527423612,0.9852941176470589
27.499879753,0.9926470588235294
28.4789265352,1.0
