Congestion,CDF
0.0,0.007352941176470588
0.0,0.014705882352941176
0.0,0.022058823529411766
0.0,0.029411764705882353
0.0,0.03676470588235294
0.0,0.04411764705882353
0.0,0.051470588235294115
0.0,0.058823529411764705
0.0,0.0661764705882353
0.0,0.07352941176470588
0.0,0.08088235294117647
0.0,0.08823529411764706
0.0,0.09558823529411764
0.0,0.10294117647058823
1.55299000707e-05,0.11029411764705882
1.55299000707e-05,0.11764705882352941
1.55299000707e-05,0.125
1.55299000707e-05,0.1323529411764706
1.55299000707e-05,0.13970588235294118
1.55299000707e-05,0.14705882352941177
1.55299000707e-05,0.15441176470588236
1.55299000707e-05,0.16176470588235295
1.55299000707e-05,0.16911764705882354
1.55299000707e-05,0.17647058823529413
1.55299000707e-05,0.18382352941176472
1.55299000707e-05,0.19117647058823528
1.55299000707e-05,0.19852941176470587
1.55299000707e-05,0.20588235294117646
1.55299000707e-05,0.21323529411764705
1.55299000707e-05,0.22058823529411764
1.55299000707e-05,0.22794117647058823
1.55299000707e-05,0.23529411764705882
1.55299000707e-05,0.2426470588235294
1.55299000707e-05,0.25
1.55299000707e-05,0.25735294117647056
1.55299000707e-05,0.2647058823529412
1.55299000707e-05,0.27205882352941174
1.55299000707e-05,0.27941176470588236
1.55299000707e-05,0.2867647058823529
1.55299000707e-05,0.29411764705882354
1.55299000707e-05,0.3014705882352941
0.000388247501767,0.3088235294117647
0.000388247501767,0.3161764705882353
0.000419307301908,0.3235294117647059
0.000776495003534,0.33088235294117646
0.000776495003534,0.3382352941176471
0.000776495003534,0.34558823529411764
0.000776495003534,0.35294117647058826
0.0011647425053,0.3602941176470588
0.00129415833922,0.36764705882352944
0.00129415833922,0.375
0.00129415833922,0.38235294117647056
0.00155299000707,0.3897058823529412
0.00155299000707,0.39705882352941174
0.00155299000707,0.40441176470588236
0.00155299000707,0.4117647058823529
0.00155299000707,0.41911764705882354
0.00155299000707,0.4264705882352941
0.00155299000707,0.4338235294117647
0.00194123750884,0.4411764705882353
0.0023294850106,0.4485294117647059
0.0023294850106,0.45588235294117646
0.00284714834629,0.4632352941176471
0.00310598001414,0.47058823529411764
0.00310598001414,0.47794117647058826
0.0046589700212,0.4852941176470588
0.0063413758622,0.49264705882352944
0.00892594093563,0.5
0.00904954364704,0.5073529411764706
0.0101218693149,0.5147058823529411
0.010123282938,0.5220588235294118
0.0101464075292,0.5294117647058824
0.0101464075292,0.5367647058823529
0.0101698060096,0.5441176470588235
0.0102174180982,0.5514705882352942
0.0103121871168,0.5588235294117647
0.0103160933502,0.5661764705882353
0.0103457372256,0.5735294117647058
0.0103457372256,0.5808823529411765
0.0103457372256,0.5882352941176471
0.0103496879445,0.5955882352941176
0.0103510046782,0.6029411764705882
0.0103571188627,0.6102941176470589
0.0103574421017,0.6176470588235294
0.0103630337651,0.625
0.0103743351784,0.6323529411764706
0.0103912428211,0.6397058823529411
0.0103991541958,0.6470588235294118
0.0103991541958,0.6544117647058824
0.0103992334791,0.6617647058823529
0.0103992334791,0.6691176470588235
0.0103994754009,0.6764705882352942
0.0103994754009,0.6838235294117647
0.0103994754009,0.6911764705882353
0.0112591775512,0.6985294117647058
0.0115180092191,0.7058823529411765
0.0148828209011,0.7132352941176471
0.0185064642509,0.7205882352941176
0.0187652959187,0.7279411764705882
0.020059454258,0.7352941176470589
0.0203182859258,0.7426470588235294
0.0218712759329,0.75
0.258742198612,0.7573529411764706
0.259075844127,0.7647058823529411
0.275905235049,0.7720588235294118
0.510870904912,0.7794117647058824
0.510870904912,0.7867647058823529
0.518716758918,0.7941176470588235
0.518716758918,0.8014705882352942
0.776226595837,0.8088235294117647
0.862851532013,0.8161764705882353
0.862851532013,0.8235294117647058
0.862851532013,0.8308823529411765
1.01464075292,0.8382352941176471
1.03457372256,0.8455882352941176
1.03630337651,0.8529411764705882
1.03991541958,0.8602941176470589
1.03992334791,0.8676470588235294
1.03994754009,0.875
1.03994754009,0.8823529411764706
1.29331592117,0.8897058823529411
1.52319919871,0.8970588235294118
1.55446096909,0.9044117647058824
1.89446086704,0.9117647058823529
2.02928150583,0.9191176470588235
2.07984669582,0.9264705882352942
3.11984262026,0.9338235294117647
4.2253148983,0.9411764705882353
7.53859599936,0.9485294117647058
7.66186538192,0.9558823529411765
9.9592885724,0.9632352941176471
12.226533018,0.9705882352941176
12.5494614278,0.9779411764705882
13.1191271115,0.9852941176470589
13.5664420287,0.9926470588235294
14.4713963934,1.0
