Congestion,CDF
0.0,0.009433962264150943
0.0,0.018867924528301886
0.0,0.02830188679245283
0.0,0.03773584905660377
0.0,0.04716981132075472
0.0,0.05660377358490566
0.0,0.0660377358490566
0.0,0.07547169811320754
0.0,0.08490566037735849
0.0,0.09433962264150944
0.0,0.10377358490566038
0.0,0.11320754716981132
0.0,0.12264150943396226
0.0,0.1320754716981132
0.0,0.14150943396226415
0.0,0.1509433962264151
0.0,0.16037735849056603
0.0,0.16981132075471697
0.0,0.1792452830188679
0.0,0.18867924528301888
0.0,0.19811320754716982
0.0,0.20754716981132076
0.0,0.2169811320754717
0.0,0.22641509433962265
0.0,0.2358490566037736
0.0,0.24528301886792453
0.0,0.25471698113207547
0.0,0.2641509433962264
0.0,0.27358490566037735
0.0,0.2830188679245283
7.20093996894e-08,0.29245283018867924
1.8551358749e-06,0.3018867924528302
2.08613254111e-06,0.3113207547169811
2.82809504999e-06,0.32075471698113206
3.19240905375e-06,0.330188679245283
4.24789641839e-06,0.33962264150943394
6.47810732735e-06,0.3490566037735849
8.2923195925e-06,0.3584905660377358
8.7758820658e-06,0.36792452830188677
1.02355818823e-05,0.37735849056603776
1.26024525267e-05,0.3867924528301887
1.28912218763e-05,0.39622641509433965
1.36015077092e-05,0.4056603773584906
1.71132910335e-05,0.41509433962264153
5.30987052298e-05,0.42452830188679247
5.30987052298e-05,0.4339622641509434
8.71587513179e-05,0.44339622641509435
0.000103653994906,0.4528301886792453
0.000103653994906,0.46226415094339623
0.00010619741046,0.4716981132075472
0.00010619741046,0.4811320754716981
0.00010619741046,0.49056603773584906
0.000163953640105,0.5
0.000207307989813,0.5094339622641509
0.000207307989813,0.5188679245283019
0.000207307989813,0.5283018867924528
0.000261059327192,0.5377358490566038
0.000261059327192,0.5471698113207547
0.000282809504999,0.5566037735849056
0.000480658066503,0.5660377358490566
0.000480658066503,0.5754716981132075
0.000595546803426,0.5849056603773585
0.000595546803426,0.5943396226415094
0.000914787708801,0.6037735849056604
0.000927230981185,0.6132075471698113
0.00110186959409,0.6226415094339622
0.0013985623219,0.6320754716981132
0.00144587488777,0.6415094339622641
0.00150421625473,0.6509433962264151
0.00171132910335,0.660377358490566
0.00195569757434,0.6698113207547169
0.0026942751291,0.6792452830188679
0.00313113310773,0.6886792452830188
0.0118409645849,0.6981132075471698
0.012162133928,0.7075471698113207
0.0237053873427,0.7169811320754716
0.0295363334851,0.7264150943396226
0.0298208863891,0.7358490566037735
0.0330491502568,0.7452830188679245
0.0409429306252,0.7547169811320755
0.0543181022494,0.7641509433962265
0.055520008671,0.7735849056603774
0.296107717868,0.7830188679245284
0.369204168563,0.7924528301886793
0.369204168563,0.8018867924528302
0.372761079864,0.8113207547169812
0.372761079864,0.8207547169811321
0.738408337126,0.8301886792452831
0.738408337126,0.839622641509434
0.738408337126,0.8490566037735849
0.745522159729,0.8584905660377359
0.745522159729,0.8679245283018868
0.745522159729,0.8773584905660378
1.33401347767,0.8867924528301887
1.33401347767,0.8962264150943396
1.44420043708,0.9056603773584906
1.47386970986,0.9150943396226415
1.92723461556,0.9245283018867925
1.92723461556,0.9339622641509434
2.19666212847,0.9433962264150944
2.78911177969,0.9528301886792453
2.78911177969,0.9622641509433962
5.93255978805,0.9716981132075472
6.17377547337,0.9811320754716981
6.29396611553,0.9905660377358491
18.5617683943,1.0
