Congestion,CDF
0.0,0.005555555555555556
0.0,0.011111111111111112
0.0,0.016666666666666666
0.0,0.022222222222222223
0.0,0.027777777777777776
0.0,0.03333333333333333
0.0,0.03888888888888889
0.0,0.044444444444444446
0.0,0.05
0.0,0.05555555555555555
1.04692849494e-06,0.06111111111111111
1.20287049067e-06,0.06666666666666667
2.70756181274e-06,0.07222222222222222
3.95725908801e-06,0.07777777777777778
4.04924987171e-06,0.08333333333333333
5.34640376385e-06,0.08888888888888889
5.88175175032e-06,0.09444444444444444
8.10639514229e-06,0.1
8.14821644044e-06,0.10555555555555556
8.33639027559e-06,0.1111111111111111
8.5079627525e-06,0.11666666666666667
9.36552883714e-06,0.12222222222222222
9.58276003191e-06,0.12777777777777777
1.0701009458e-05,0.13333333333333333
1.09599835181e-05,0.1388888888888889
1.15410022482e-05,0.14444444444444443
1.33450182571e-05,0.15
1.46048851656e-05,0.15555555555555556
1.52504419251e-05,0.16111111111111112
1.58610867113e-05,0.16666666666666666
1.61120416669e-05,0.17222222222222222
1.62414426985e-05,0.17777777777777778
1.67795448627e-05,0.18333333333333332
1.73626020643e-05,0.18888888888888888
1.76556902094e-05,0.19444444444444445
1.78550793439e-05,0.2
1.79541394096e-05,0.20555555555555555
1.81603137241e-05,0.2111111111111111
1.83377728436e-05,0.21666666666666667
1.83780131571e-05,0.2222222222222222
1.89920697856e-05,0.22777777777777777
1.91505182267e-05,0.23333333333333334
1.9370354254e-05,0.2388888888888889
2.09770547084e-05,0.24444444444444444
2.20733468903e-05,0.25
2.39652342568e-05,0.25555555555555554
2.43448965729e-05,0.2611111111111111
2.46952372822e-05,0.26666666666666666
2.55315399135e-05,0.2722222222222222
9.02520604246e-05,0.2777777777777778
0.000180504120849,0.2833333333333333
0.0001978629544,0.28888888888888886
0.0001978629544,0.29444444444444445
0.000203705411011,0.3
0.000203705411011,0.3055555555555556
0.000308398260505,0.3111111111111111
0.000404924987171,0.31666666666666665
0.000407410822022,0.32222222222222224
0.000542439597906,0.3277777777777778
0.000810639514229,0.3333333333333333
0.00084303863689,0.3388888888888889
0.000892753967196,0.34444444444444444
0.000892753967196,0.35
0.00114025829473,0.35555555555555557
0.00173626020643,0.3611111111111111
0.00176556902094,0.36666666666666664
0.00182200722425,0.37222222222222223
0.001962854913,0.37777777777777777
0.00207671851145,0.38333333333333336
0.00207671851145,0.3888888888888889
0.0023680828294,0.39444444444444443
0.00250263045801,0.4
0.00269099887171,0.40555555555555556
0.00287693455024,0.4111111111111111
0.00357406152214,0.4166666666666667
0.00377888628541,0.4222222222222222
0.00397592549001,0.42777777777777776
0.00488800443223,0.43333333333333335
0.00573880070748,0.4388888888888889
0.00600851173623,0.4444444444444444
0.00741944899722,0.45
0.00840503516191,0.45555555555555555
0.0149536636457,0.46111111111111114
0.0181924726267,0.4666666666666667
0.0190424027748,0.4722222222222222
0.0207456266181,0.4777777777777778
0.0212497374638,0.48333333333333334
0.0223568307848,0.4888888888888889
0.022601700643,0.49444444444444446
0.0239362024687,0.5
0.0239565110673,0.5055555555555555
0.0243865375391,0.5111111111111111
0.0258512542914,0.5166666666666667
0.0260126152934,0.5222222222222223
0.0264394294664,0.5277777777777778
0.026846254321,0.5333333333333333
0.0278045303241,0.5388888888888889
0.0316170464228,0.5444444444444444
0.0316708988673,0.55
0.0316753456949,0.5555555555555556
0.0317182005972,0.5611111111111111
0.0317464571833,0.5666666666666667
0.0317563875329,0.5722222222222222
0.0317933531025,0.5777777777777777
0.0318719586164,0.5833333333333334
0.0318731557798,0.5888888888888889
0.0318834023835,0.5944444444444444
0.0319078281298,0.6
0.0319458077681,0.6055555555555555
0.0319532392224,0.6111111111111112
0.0319621420928,0.6166666666666667
0.0319684576949,0.6222222222222222
0.0320081369327,0.6277777777777778
0.0320570513193,0.6333333333333333
0.03207543203,0.6388888888888888
0.0320901249349,0.6444444444444445
0.0320928023471,0.65
0.0320979230618,0.6555555555555556
0.0321189862856,0.6611111111111111
0.0321355346006,0.6666666666666666
0.032143939962,0.6722222222222223
0.0321467365199,0.6777777777777778
0.0321495885357,0.6833333333333333
0.0321524374489,0.6888888888888889
0.0321582573961,0.6944444444444444
0.0321644546838,0.7
0.0321820018987,0.7055555555555556
0.0321927697346,0.7111111111111111
0.0322385116907,0.7166666666666667
0.0322695816386,0.7222222222222222
0.03232362483,0.7277777777777777
0.0323343976364,0.7333333333333333
0.0323444358187,0.7388888888888889
0.0323679241352,0.7444444444444445
0.796828894495,0.75
0.796828894495,0.7555555555555555
1.05727335324,0.7611111111111111
1.23353138314,0.7666666666666667
1.58732285917,0.7722222222222223
1.58732285917,0.7777777777777778
1.59365778899,0.7833333333333333
1.60747942678,0.7888888888888889
1.60747942678,0.7944444444444444
2.11454670648,0.8
3.17563875329,0.8055555555555556
3.18719586164,0.8111111111111111
3.21355346006,0.8166666666666667
3.2143939962,0.8222222222222222
3.96391878122,0.8277777777777777
3.98761170748,0.8333333333333334
4.79633535266,0.8388888888888889
4.8020602036,0.8444444444444444
4.82810137086,0.85
5.06898599979,0.8555555555555555
5.06898599979,0.8611111111111112
6.39948992236,0.8666666666666667
6.42999892844,0.8722222222222222
7.14325409147,0.8777777777777778
8.0178859432,0.8833333333333333
8.25059019264,0.8888888888888888
8.28718618966,0.8944444444444445
10.3507972945,0.9
14.7134788144,0.9055555555555556
16.4871107619,0.9111111111111111
18.3647495564,0.9166666666666666
19.6754510003,0.9222222222222223
21.5971120394,0.9277777777777778
37.6041735596,0.9333333333333333
39.2784366746,0.9388888888888889
42.5152290882,0.9444444444444444
45.7250213943,0.95
47.2129437167,0.9555555555555556
50.4399018805,0.9611111111111111
53.736030399,0.9666666666666667
55.2240705092,0.9722222222222222
56.8977350413,0.9777777777777777
58.4248842024,0.9833333333333333
59.293386148,0.9888888888888889
61.6210984117,0.9944444444444445
64.0597521656,1.0
