Congestion,CDF
0.0,0.005555555555555556
0.0,0.011111111111111112
0.0,0.016666666666666666
0.0,0.022222222222222223
0.0,0.027777777777777776
0.0,0.03333333333333333
0.0,0.03888888888888889
0.0,0.044444444444444446
0.0,0.05
0.0,0.05555555555555555
1.04406014725e-06,0.06111111111111111
1.19957489713e-06,0.06666666666666667
2.70014370472e-06,0.07222222222222222
3.94641709164e-06,0.07777777777777778
4.03815584136e-06,0.08333333333333333
5.33175582473e-06,0.08888888888888889
5.86563707859e-06,0.09444444444444444
8.08418544999e-06,0.1
8.12589216722e-06,0.10555555555555556
8.31355044855e-06,0.1111111111111111
8.48465285561e-06,0.11666666666666667
9.33986940282e-06,0.12222222222222222
9.55650543316e-06,0.12777777777777777
1.06716911083e-05,0.13333333333333333
1.0929955638e-05,0.1388888888888889
1.1509382508e-05,0.14444444444444443
1.33084559203e-05,0.15
1.4564871078e-05,0.15555555555555556
1.52086591577e-05,0.16111111111111112
1.5817630915e-05,0.16666666666666666
1.60678983108e-05,0.17222222222222222
1.61969448127e-05,0.17777777777777778
1.67335726985e-05,0.18333333333333332
1.7315032455e-05,0.18888888888888888
1.76073176048e-05,0.19444444444444445
1.78061604581e-05,0.2
1.79049491216e-05,0.20555555555555555
1.8110558565e-05,0.2111111111111111
1.82875314866e-05,0.21666666666666667
1.83276615507e-05,0.2222222222222222
1.89400358027e-05,0.22777777777777777
1.90980501308e-05,0.23333333333333334
1.93172838571e-05,0.2388888888888889
2.0919582315e-05,0.24444444444444444
2.20128709038e-05,0.25
2.38995749261e-05,0.25555555555555554
2.42781970532e-05,0.2611111111111111
2.46275779081e-05,0.26666666666666666
2.5461589259e-05,0.2722222222222222
9.00047901575e-05,0.2777777777777778
0.000180009580315,0.2833333333333333
0.000197320854582,0.28888888888888886
0.000197320854582,0.29444444444444445
0.000203147304181,0.3
0.000203147304181,0.3055555555555556
0.000307553318906,0.3111111111111111
0.000403815584136,0.31666666666666665
0.000406294608361,0.32222222222222224
0.000540953435888,0.3277777777777778
0.000808418544999,0.3333333333333333
0.000840728901379,0.3388888888888889
0.000890308022905,0.34444444444444444
0.000890308022905,0.35
0.00113713424446,0.35555555555555557
0.0017315032455,0.3611111111111111
0.00176073176048,0.36666666666666664
0.00181701533586,0.37222222222222223
0.00195747713374,0.37777777777777777
0.00207102877164,0.38333333333333336
0.00207102877164,0.3888888888888889
0.00236159481715,0.39444444444444443
0.00249577381563,0.4
0.00268362614242,0.40555555555555556
0.00286905239917,0.4111111111111111
0.00356426940057,0.4166666666666667
0.00376853299024,0.4222222222222222
0.00396503235191,0.42777777777777776
0.00487461240377,0.43333333333333335
0.00572307768933,0.4388888888888889
0.00599204977077,0.4444444444444444
0.00739912138224,0.45
0.00838200726338,0.45555555555555555
0.0149126939837,0.46111111111111114
0.0181426293595,0.4666666666666667
0.0189902308909,0.4722222222222222
0.0206887882854,0.4777777777777778
0.0211915179813,0.48333333333333334
0.0222955781165,0.4888888888888889
0.0225397770866,0.49444444444444446
0.0238706226787,0.5
0.0257804276917,0.5055555555555555
0.025941346601,0.5111111111111111
0.0263669913996,0.5166666666666667
0.0267727016459,0.5222222222222223
0.0277283521892,0.5277777777777778
0.0402519704817,0.5333333333333333
0.0405211079749,0.5388888888888889
0.0446949641731,0.5444444444444444
0.0447906744952,0.55
0.0447929971673,0.5555555555555556
0.0448153559969,0.5611111111111111
0.04482663598,0.5666666666666667
0.0448352672004,0.5722222222222222
0.0448545636572,0.5777777777777777
0.0448847419827,0.5833333333333334
0.0448955740956,0.5888888888888889
0.0448962015924,0.5944444444444444
0.0449015479309,0.6
0.0449142923865,0.6055555555555555
0.0449340808468,0.6111111111111112
0.0449379846995,0.6166666666666667
0.0449452998329,0.6222222222222222
0.0449611084573,0.6277777777777778
0.0449921479629,0.6333333333333333
0.0450017352566,0.6388888888888888
0.0450030906051,0.6444444444444445
0.0450107877117,0.65
0.0450125069951,0.6555555555555556
0.045024460918,0.6611111111111111
0.0450318973757,0.6666666666666666
0.0450330671507,0.6722222222222223
0.0450374802273,0.6777777777777778
0.0450404128325,0.6833333333333333
0.0450419124043,0.6888888888888889
0.0450449239598,0.6944444444444444
0.0450481558665,0.7
0.0450573387408,0.7055555555555556
0.045062953795,0.7111111111111111
0.0450868101669,0.7166666666666667
0.0451029472167,0.7222222222222222
0.0451312199775,0.7277777777777777
0.0451368212412,0.7333333333333333
0.0451420872686,0.7388888888888889
0.0451541842774,0.7444444444444445
1.12240503981,0.75
1.12240503981,0.7555555555555555
1.4938451999,0.7611111111111111
1.7448513109,0.7666666666666667
2.241331799,0.7722222222222223
2.241331799,0.7777777777777778
2.24481007962,0.7833333333333333
2.25202064163,0.7888888888888889
2.25202064163,0.7944444444444444
2.9876903998,0.8
4.48352672004,0.8055555555555556
4.48955740956,0.8111111111111111
4.50330671507,0.8166666666666667
4.50374802273,0.8222222222222222
5.60147248933,0.8277777777777777
5.61383427846,0.8333333333333334
6.74164085951,0.8388888888888889
6.74542872631,0.8444444444444444
6.75901880648,0.85
7.12025383811,0.8555555555555555
7.12025383811,0.8611111111111112
8.99220773672,0.8666666666666667
9.00812230172,0.8722222222222222
10.0869288551,0.8777777777777778
11.2499211223,0.8833333333333333
11.6068942746,0.8888888888888888
11.6259877122,0.8944444444444445
14.5871023807,0.9
20.6321818267,0.9055555555555556
23.2064478295,0.9111111111111111
25.8349758114,0.9166666666666666
27.6966026226,0.9222222222222223
30.3480978092,0.9277777777777778
52.8329756897,0.9333333333333333
55.1198233573,0.9388888888888889
59.635241785,0.9444444444444444
64.1364924845,0.95
66.3262621976,0.9555555555555556
70.8365569193,0.9611111111111111
75.3813230816,0.9666666666666667
77.5724187016,0.9722222222222222
79.8508194989,0.9777777777777777
82.0685295473,0.9833333333333333
83.8760165471,0.9888888888888889
86.5570037456,0.9944444444444445
90.6091145431,1.0
