Congestion,CDF
0.0,0.005555555555555556
0.0,0.011111111111111112
0.0,0.016666666666666666
0.0,0.022222222222222223
0.0,0.027777777777777776
0.0,0.03333333333333333
0.0,0.03888888888888889
0.0,0.044444444444444446
0.0,0.05
0.0,0.05555555555555555
1.04537577994e-06,0.06111111111111111
1.20108649582e-06,0.06666666666666667
2.70354618812e-06,0.07222222222222222
3.95139001905e-06,0.07777777777777778
4.04324436986e-06,0.08333333333333333
5.33847443406e-06,0.08888888888888889
5.87302843808e-06,0.09444444444444444
8.09437242883e-06,0.1
8.1361317012e-06,0.10555555555555556
8.32402645297e-06,0.1111111111111111
8.49534446822e-06,0.11666666666666667
9.35163868404e-06,0.12222222222222222
9.56854770003e-06,0.12777777777777777
1.0685138634e-05,0.13333333333333333
1.09437286059e-05,0.1388888888888889
1.15238856186e-05,0.14444444444444443
1.33252260649e-05,0.15
1.45832244463e-05,0.15555555555555556
1.52278237712e-05,0.16111111111111112
1.5837562901e-05,0.16666666666666666
1.60881456618e-05,0.17222222222222222
1.62173547768e-05,0.17777777777777778
1.67546588737e-05,0.18333333333333332
1.73368513346e-05,0.18888888888888888
1.76295047964e-05,0.19444444444444445
1.7828598214e-05,0.2
1.79275113623e-05,0.20555555555555555
1.81333798966e-05,0.2111111111111111
1.83105758239e-05,0.21666666666666667
1.83507564564e-05,0.2222222222222222
1.89639023685e-05,0.22777777777777777
1.91221158124e-05,0.23333333333333334
1.93416257977e-05,0.2388888888888889
2.0945943331e-05,0.24444444444444444
2.20406095859e-05,0.25
2.39296910665e-05,0.25555555555555554
2.43087902999e-05,0.2611111111111111
2.46586114138e-05,0.26666666666666666
2.54936737124e-05,0.2722222222222222
9.01182062708e-05,0.2777777777777778
0.000180236412542,0.2833333333333333
0.000197569500952,0.28888888888888886
0.000197569500952,0.29444444444444445
0.00020340329253,0.3
0.00020340329253,0.3055555555555556
0.000307940870524,0.3111111111111111
0.000404324436986,0.31666666666666665
0.00040680658506,0.32222222222222224
0.000541635097787,0.3277777777777778
0.000809437242883,0.3333333333333333
0.00084178831393,0.3388888888888889
0.0008914299107,0.34444444444444444
0.0008914299107,0.35
0.00113856716093,0.35555555555555557
0.00173368513346,0.3611111111111111
0.00176295047964,0.36666666666666664
0.00181930497863,0.37222222222222223
0.0019599437741,0.37777777777777777
0.00207363849978,0.38333333333333336
0.00207363849978,0.3888888888888889
0.00236457069105,0.39444444444444443
0.00249891877009,0.4
0.00268700781184,0.40555555555555556
0.00287266772644,0.4111111111111111
0.0035687607791,0.4166666666666667
0.00377328176376,0.4222222222222222
0.00397002873663,0.42777777777777776
0.0048807549612,0.43333333333333335
0.00573028940803,0.4388888888888889
0.0059996004244,0.4444444444444444
0.00740844510365,0.45
0.00839256953105,0.45555555555555555
0.0149314856479,0.46111111111111114
0.0181654911039,0.4666666666666667
0.0190141607081,0.4722222222222222
0.0207148584751,0.4777777777777778
0.0212182216667,0.48333333333333334
0.0223236730413,0.4888888888888889
0.0225681797295,0.49444444444444446
0.023900702336,0.5
0.0258129139172,0.5055555555555555
0.0259740356023,0.5111111111111111
0.026400216761,0.5166666666666667
0.0268064382476,0.5222222222222223
0.0277632930176,0.5277777777777778
0.0314366300741,0.5333333333333333
0.031792802955,0.5388888888888889
0.0375663928289,0.5444444444444444
0.0376344332436,0.55
0.037637914546,0.5555555555555556
0.0376714530516,0.5611111111111111
0.0376920024265,0.5666666666666667
0.0377013328363,0.5722222222222222
0.037730266991,0.5777777777777777
0.0377917838342,0.5833333333333334
0.0377927220583,0.5888888888888889
0.0378007412687,0.5944444444444444
0.0378198573374,0.6
0.0378402584068,0.6055555555555555
0.0378495682585,0.6111111111111112
0.0378553962574,0.6166666666666667
0.0378670241271,0.6222222222222222
0.037895941359,0.6277777777777778
0.0379366407027,0.6333333333333333
0.0379510244057,0.6388888888888888
0.0379596816096,0.6444444444444445
0.0379646138773,0.65
0.0379681912993,0.6555555555555556
0.0379851111185,0.6611111111111111
0.0379980493962,0.6666666666666666
0.0380037429617,0.6722222222222223
0.0380046400826,0.6777777777777778
0.0380090541252,0.6833333333333333
0.0380112897014,0.6888888888888889
0.0380158331071,0.6944444444444444
0.0380206824944,0.7
0.038034427736,0.7055555555555556
0.0380428533984,0.7111111111111111
0.0380786473618,0.7166666666666667
0.0381029296672,0.7222222222222222
0.038145258988,0.7277777777777777
0.0381536810949,0.7333333333333333
0.0381615501141,0.7388888888888889
0.0381798606339,0.7444444444444445
0.944818051456,0.75
0.944818051456,0.7555555555555555
1.25571510172,0.7611111111111111
1.46610428574,0.7666666666666667
1.88460012132,0.7722222222222223
1.88460012132,0.7777777777777778
1.88963610291,0.7833333333333333
1.90045270626,0.7888888888888889
1.90045270626,0.7944444444444444
2.51143020344,0.8
3.77013328363,0.8055555555555556
3.77917838342,0.8111111111111111
3.79980493962,0.8166666666666667
3.80046400826,0.8222222222222222
4.70826137582,0.8277777777777777
4.7268037852,0.8333333333333334
5.68056828229,0.8388888888888889
5.68540953211,0.8444444444444444
5.70579111432,0.85
6.00138047175,0.8555555555555555
6.00138047175,0.8611111111111112
7.57799801982,0.8666666666666667
7.60187318906,0.8722222222222222
8.48128807492,0.8777777777777778
9.48699284282,0.8833333333333333
9.77618295719,0.8888888888888888
9.80482324536,0.8944444444444445
12.2763905155,0.9
17.4037983655,0.9055555555555556
19.5413548835,0.9111111111111111
21.760306945,0.9166666666666666
23.3214290104,0.9222222222222223
25.5748328438,0.9277777777777778
44.526356346,0.9333333333333333
46.4790669852,0.9388888888888889
50.2970530486,0.9444444444444444
54.0938721785,0.95
55.9008157536,0.9555555555555556
59.7111087203,0.9611111111111111
63.574814757,0.9666666666666667
65.3824112543,0.9722222222222222
67.3314540399,0.9777777777777777
69.1720053902,0.9833333333333333
70.4751170473,0.9888888888888889
72.9560312309,0.9944444444444445
76.1353115264,1.0
