Congestion,CDF
0.0,0.007352941176470588
0.0,0.014705882352941176
0.0,0.022058823529411766
0.0,0.029411764705882353
0.0,0.03676470588235294
0.0,0.04411764705882353
0.0,0.051470588235294115
0.0,0.058823529411764705
0.0,0.0661764705882353
0.0,0.07352941176470588
0.0,0.08088235294117647
0.0,0.08823529411764706
0.0,0.09558823529411764
0.0,0.10294117647058823
4.25639338153e-06,0.11029411764705882
4.25639338153e-06,0.11764705882352941
4.25639338153e-06,0.125
4.25639338153e-06,0.1323529411764706
4.25639338153e-06,0.13970588235294118
4.25639338153e-06,0.14705882352941177
4.25639338153e-06,0.15441176470588236
4.25639338153e-06,0.16176470588235295
4.25639338153e-06,0.16911764705882354
4.25639338153e-06,0.17647058823529413
4.25639338153e-06,0.18382352941176472
4.25639338153e-06,0.19117647058823528
4.25639338153e-06,0.19852941176470587
4.25639338153e-06,0.20588235294117646
4.25639338153e-06,0.21323529411764705
4.25639338153e-06,0.22058823529411764
4.25639338153e-06,0.22794117647058823
4.25639338153e-06,0.23529411764705882
4.25639338153e-06,0.2426470588235294
4.25639338153e-06,0.25
4.25639338153e-06,0.25735294117647056
4.25639338153e-06,0.2647058823529412
4.25639338153e-06,0.27205882352941174
4.25639338153e-06,0.27941176470588236
4.25639338153e-06,0.2867647058823529
4.25639338153e-06,0.29411764705882354
4.25639338153e-06,0.3014705882352941
0.000106409834538,0.3088235294117647
0.000106409834538,0.3161764705882353
0.000114922621301,0.3235294117647059
0.000212819669076,0.33088235294117646
0.000212819669076,0.3382352941176471
0.000212819669076,0.34558823529411764
0.000212819669076,0.35294117647058826
0.000319229503615,0.3602941176470588
0.000354699448461,0.36764705882352944
0.000354699448461,0.375
0.000354699448461,0.38235294117647056
0.000425639338153,0.3897058823529412
0.000425639338153,0.39705882352941174
0.000425639338153,0.40441176470588236
0.000425639338153,0.4117647058823529
0.000425639338153,0.41911764705882354
0.000425639338153,0.4264705882352941
0.000425639338153,0.4338235294117647
0.000532049172691,0.4411764705882353
0.000638459007229,0.4485294117647059
0.000638459007229,0.45588235294117646
0.000780338786613,0.4632352941176471
0.000851278676305,0.47058823529411764
0.000851278676305,0.47794117647058826
0.00127691801446,0.4852941176470588
0.00173802729746,0.49264705882352944
0.00308588520161,0.5
0.0031568250913,0.5073529411764706
0.0040790436573,0.5147058823529411
0.00507220211299,0.5220588235294118
0.00514314200268,0.5294117647058824
0.00549784145114,0.5367647058823529
0.00556878134083,0.5441176470588235
0.00599442067898,0.5514705882352942
0.0390996292876,0.5588235294117647
0.0398699665262,0.5661764705882353
0.0487772802159,0.5735294117647058
0.0488415467184,0.5808823529411765
0.0489684713768,0.5882352941176471
0.0490025278152,0.5955882352941176
0.0490264859834,0.6029411764705882
0.0490511608947,0.6102941176470589
0.0491190796199,0.6176470588235294
0.0491311814275,0.625
0.0491400961455,0.6323529411764706
0.0491450583499,0.6397058823529411
0.0491466255788,0.6470588235294118
0.0491474178907,0.6544117647058824
0.0491482193867,0.6617647058823529
0.0491488898051,0.6691176470588235
0.0491492281155,0.6764705882352942
0.0491506973204,0.6838235294117647
0.0491521893127,0.6911764705882353
0.0491590748336,0.6985294117647058
0.0491614455569,0.7058823529411765
0.049161456436,0.7132352941176471
0.0491615518707,0.7205882352941176
0.0491615553959,0.7279411764705882
0.0491617359718,0.7352941176470589
0.0491617383221,0.7426470588235294
0.0491617383221,0.75
1.22868544727,0.7573529411764706
1.22876743301,0.7647058823529411
1.30650604848,0.7720588235294118
2.45255804473,0.7794117647058824
2.45255804473,0.7867647058823529
2.45760946563,0.7941176470588235
2.45760946563,0.8014705882352942
3.6860563418,0.8088235294117647
4.09567373291,0.8161764705882353
4.09567373291,0.8235294117647058
4.09567373291,0.8308823529411765
4.90264859834,0.8382352941176471
4.91488898051,0.8455882352941176
4.91506973204,0.8529411764705882
4.9161456436,0.8602941176470589
4.91615553959,0.8676470588235294
4.91617383221,0.875
4.91617383221,0.8823529411764706
6.14360825881,0.8897058823529411
7.34940518241,0.8970588235294118
7.37211530062,0.9044117647058824
9.00879187566,0.9117647058823529
9.80290137986,0.9191176470588235
9.83231072666,0.9264705882352942
14.7485212616,0.9338235294117647
20.0689929109,0.9411764705882353
35.6418896206,0.9485294117647058
36.4422507933,0.9558823529411765
47.1110803025,0.9632352941176471
58.4722853772,0.9705882352941176
59.3972052176,0.9779411764705882
62.3822483059,0.9852941176470589
64.2813598895,0.9926470588235294
68.2683565421,1.0
