Congestion,CDF
0.0,0.007352941176470588
0.0,0.014705882352941176
0.0,0.022058823529411766
0.0,0.029411764705882353
0.0,0.03676470588235294
0.0,0.04411764705882353
0.0,0.051470588235294115
0.0,0.058823529411764705
0.0,0.0661764705882353
0.0,0.07352941176470588
0.0,0.08088235294117647
0.0,0.08823529411764706
0.0,0.09558823529411764
0.0,0.10294117647058823
9.86566109737e-06,0.11029411764705882
9.86566109737e-06,0.11764705882352941
9.86566109737e-06,0.125
9.86566109737e-06,0.1323529411764706
9.86566109737e-06,0.13970588235294118
9.86566109737e-06,0.14705882352941177
9.86566109737e-06,0.15441176470588236
9.86566109737e-06,0.16176470588235295
9.86566109737e-06,0.16911764705882354
9.86566109737e-06,0.17647058823529413
9.86566109737e-06,0.18382352941176472
9.86566109737e-06,0.19117647058823528
9.86566109737e-06,0.19852941176470587
9.86566109737e-06,0.20588235294117646
9.86566109737e-06,0.21323529411764705
9.86566109737e-06,0.22058823529411764
9.86566109737e-06,0.22794117647058823
9.86566109737e-06,0.23529411764705882
9.86566109737e-06,0.2426470588235294
9.86566109737e-06,0.25
9.86566109737e-06,0.25735294117647056
9.86566109737e-06,0.2647058823529412
9.86566109737e-06,0.27205882352941174
9.86566109737e-06,0.27941176470588236
9.86566109737e-06,0.2867647058823529
9.86566109737e-06,0.29411764705882354
9.86566109737e-06,0.3014705882352941
0.000246641527434,0.3088235294117647
0.000246641527434,0.3161764705882353
0.000266372849629,0.3235294117647059
0.000291490510814,0.33088235294117646
0.000493283054868,0.3382352941176471
0.000493283054868,0.34558823529411764
0.000493283054868,0.35294117647058826
0.000493283054868,0.3602941176470588
0.000688452807148,0.36764705882352944
0.000739924582302,0.375
0.00082213842478,0.38235294117647056
0.00082213842478,0.3897058823529412
0.00082213842478,0.39705882352941174
0.000986566109737,0.40441176470588236
0.000986566109737,0.4117647058823529
0.000986566109737,0.41911764705882354
0.000986566109737,0.4264705882352941
0.000986566109737,0.4338235294117647
0.000986566109737,0.4411764705882353
0.000986566109737,0.4485294117647059
0.00123320763717,0.45588235294117646
0.0014798491646,0.4632352941176471
0.0014798491646,0.47058823529411764
0.00180870453452,0.47794117647058826
0.00197313221947,0.4852941176470588
0.00197313221947,0.49264705882352944
0.00295969832921,0.5
0.00359085984613,0.5073529411764706
0.00379808175295,0.5147058823529411
0.00402847828142,0.5220588235294118
0.0041868341553,0.5294117647058824
0.00431842439224,0.5367647058823529
0.00440237980504,0.5441176470588235
0.00444768293932,0.5514705882352942
0.00467374968762,0.5588235294117647
0.0047260883719,0.5661764705882353
0.00473903498881,0.5735294117647058
0.00475937586716,0.5808823529411765
0.0047662577925,0.5882352941176471
0.00476873084028,0.5955882352941176
0.0047695032008,0.6029411764705882
0.00477215406067,0.6102941176470589
0.00477379186039,0.6176470588235294
0.00477704292497,0.625
0.00477875955756,0.6323529411764706
0.00479738870605,0.6397058823529411
0.00480354494928,0.6470588235294118
0.00480358788146,0.6544117647058824
0.0048039093349,0.6617647058823529
0.00480392260364,0.6691176470588235
0.00480425109538,0.6764705882352942
0.00480425994182,0.6838235294117647
0.00480425994182,0.6911764705882353
0.00715260429559,0.6985294117647058
0.00731703198055,0.7058823529411765
0.00945459188498,0.7132352941176471
0.0117565794744,0.7205882352941176
0.0119210071593,0.7279411764705882
0.0127431455841,0.7352941176470589
0.0129075732691,0.7426470588235294
0.0138941393788,0.75
0.116453819816,0.7573529411764706
0.119218271007,0.7647058823529411
0.119426073124,0.7720588235294118
0.222384146966,0.7794117647058824
0.222384146966,0.7867647058823529
0.238937977878,0.7941176470588235
0.238937977878,0.8014705882352942
0.357654813021,0.8088235294117647
0.397519603881,0.8161764705882353
0.397519603881,0.8235294117647058
0.397519603881,0.8308823529411765
0.440237980504,0.8382352941176471
0.477215406067,0.8455882352941176
0.477704292497,0.8529411764705882
0.480358788146,0.8602941176470589
0.480392260364,0.8676470588235294
0.480425994182,0.875
0.480425994182,0.8823529411764706
0.596597457046,0.8897058823529411
0.641067562496,0.8970588235294118
0.714875564594,0.9044117647058824
0.870128441071,0.9117647058823529
0.872080419728,0.9191176470588235
0.960783193854,0.9264705882352942
1.4412770979,0.9338235294117647
1.94828278707,0.9411764705882353
3.48219964795,0.9485294117647058
3.50817034387,0.9558823529411765
4.59839610032,0.9632352941176471
5.38040431071,0.9705882352941176
5.44924959142,0.9779411764705882
5.78717516379,0.9852941176470589
6.16698333909,0.9926470588235294
6.19613239017,1.0
