Congestion,CDF
0.0,0.007352941176470588
0.0,0.014705882352941176
0.0,0.022058823529411766
0.0,0.029411764705882353
0.0,0.03676470588235294
0.0,0.04411764705882353
0.0,0.051470588235294115
0.0,0.058823529411764705
0.0,0.0661764705882353
0.0,0.07352941176470588
0.0,0.08088235294117647
0.0,0.08823529411764706
0.0,0.09558823529411764
0.0,0.10294117647058823
4.43546286834e-06,0.11029411764705882
4.43546286834e-06,0.11764705882352941
4.43546286834e-06,0.125
4.43546286834e-06,0.1323529411764706
4.43546286834e-06,0.13970588235294118
4.43546286834e-06,0.14705882352941177
4.43546286834e-06,0.15441176470588236
4.43546286834e-06,0.16176470588235295
4.43546286834e-06,0.16911764705882354
4.43546286834e-06,0.17647058823529413
4.43546286834e-06,0.18382352941176472
4.43546286834e-06,0.19117647058823528
4.43546286834e-06,0.19852941176470587
4.43546286834e-06,0.20588235294117646
4.43546286834e-06,0.21323529411764705
4.43546286834e-06,0.22058823529411764
4.43546286834e-06,0.22794117647058823
4.43546286834e-06,0.23529411764705882
4.43546286834e-06,0.2426470588235294
4.43546286834e-06,0.25
4.43546286834e-06,0.25735294117647056
4.43546286834e-06,0.2647058823529412
4.43546286834e-06,0.27205882352941174
4.43546286834e-06,0.27941176470588236
4.43546286834e-06,0.2867647058823529
4.43546286834e-06,0.29411764705882354
4.43546286834e-06,0.3014705882352941
0.000110886571708,0.3088235294117647
0.000110886571708,0.3161764705882353
0.000119757497445,0.3235294117647059
0.000221773143417,0.33088235294117646
0.000221773143417,0.3382352941176471
0.000221773143417,0.34558823529411764
0.000221773143417,0.35294117647058826
0.000332659715125,0.3602941176470588
0.000369621905695,0.36764705882352944
0.000369621905695,0.375
0.000369621905695,0.38235294117647056
0.000443546286834,0.3897058823529412
0.000443546286834,0.39705882352941174
0.000443546286834,0.40441176470588236
0.000443546286834,0.4117647058823529
0.000443546286834,0.41911764705882354
0.000443546286834,0.4264705882352941
0.000443546286834,0.4338235294117647
0.000554432858542,0.4411764705882353
0.000665319430251,0.4485294117647059
0.000665319430251,0.45588235294117646
0.000813168192529,0.4632352941176471
0.000887092573667,0.47058823529411764
0.000887092573667,0.47794117647058826
0.0013306388605,0.4852941176470588
0.0018111473379,0.49264705882352944
0.00321571057954,0.5
0.00328963496068,0.5073529411764706
0.00425065191549,0.5147058823529411
0.00528559325144,0.5220588235294118
0.00535951763257,0.5294117647058824
0.00572913953827,0.5367647058823529
0.00580306391941,0.5441176470588235
0.00624661020624,0.5514705882352942
0.0236553657829,0.5588235294117647
0.0246424775394,0.5661764705882353
0.0367432250073,0.5735294117647058
0.0368229454528,0.5808823529411765
0.0370118769375,0.5882352941176471
0.0370494994371,0.5955882352941176
0.0370816682574,0.6029411764705882
0.0371048343162,0.6102941176470589
0.03717387595,0.6176470588235294
0.0371884995404,0.625
0.0371963093499,0.6323529411764706
0.0372025150155,0.6397058823529411
0.0372042575265,0.6470588235294118
0.0372050832705,0.6544117647058824
0.037205739699,0.6617647058823529
0.0372065363335,0.6691176470588235
0.0372068823617,0.6764705882352942
0.0372083727783,0.6838235294117647
0.0372098125663,0.6911764705882353
0.0372167241931,0.6985294117647058
0.0372191295214,0.7058823529411765
0.0372191412834,0.7132352941176471
0.037219236854,0.7205882352941176
0.0372192404829,0.7279411764705882
0.0372194210003,0.7352941176470589
0.0372194234198,0.7426470588235294
0.0372194234198,0.75
0.930127081763,0.7573529411764706
0.930209319457,0.7647058823529411
0.977071517297,0.7720588235294118
1.85524171581,0.7794117647058824
1.85524171581,0.7867647058823529
1.86049062832,0.7941176470588235
1.86049062832,0.8014705882352942
2.79038124529,0.8088235294117647
3.10047831877,0.8161764705882353
3.10047831877,0.8235294117647058
3.10047831877,0.8308823529411765
3.70816682574,0.8382352941176471
3.72065363335,0.8455882352941176
3.72083727783,0.8529411764705882
3.72191412834,0.8602941176470589
3.72192404829,0.8676470588235294
3.72194234198,0.875
3.72194234198,0.8823529411764706
4.65081531793,0.8897058823529411
5.55642940956,0.8970588235294118
5.58074212986,0.9044117647058824
6.8193282728,0.9117647058823529
7.41311676946,0.9191176470588235
7.44384773368,0.9264705882352942
11.165826784,0.9338235294117647
15.1925212399,0.9411764705882353
26.9837109176,0.9485294117647058
27.5844788236,0.9558823529411765
35.666352284,0.9632352941176471
44.2283475033,0.9705882352941176
44.9667253489,0.9779411764705882
46.5938840816,0.9852941176470589
48.6490198941,0.9926470588235294
51.1132676481,1.0
