Congestion,CDF
0.0,0.007352941176470588
0.0,0.014705882352941176
0.0,0.022058823529411766
0.0,0.029411764705882353
0.0,0.03676470588235294
0.0,0.04411764705882353
0.0,0.051470588235294115
0.0,0.058823529411764705
0.0,0.0661764705882353
0.0,0.07352941176470588
0.0,0.08088235294117647
0.0,0.08823529411764706
0.0,0.09558823529411764
0.0,0.10294117647058823
4.3457465785e-06,0.11029411764705882
4.3457465785e-06,0.11764705882352941
4.3457465785e-06,0.125
4.3457465785e-06,0.1323529411764706
4.3457465785e-06,0.13970588235294118
4.3457465785e-06,0.14705882352941177
4.3457465785e-06,0.15441176470588236
4.3457465785e-06,0.16176470588235295
4.3457465785e-06,0.16911764705882354
4.3457465785e-06,0.17647058823529413
4.3457465785e-06,0.18382352941176472
4.3457465785e-06,0.19117647058823528
4.3457465785e-06,0.19852941176470587
4.3457465785e-06,0.20588235294117646
4.3457465785e-06,0.21323529411764705
4.3457465785e-06,0.22058823529411764
4.3457465785e-06,0.22794117647058823
4.3457465785e-06,0.23529411764705882
4.3457465785e-06,0.2426470588235294
4.3457465785e-06,0.25
4.3457465785e-06,0.25735294117647056
4.3457465785e-06,0.2647058823529412
4.3457465785e-06,0.27205882352941174
4.3457465785e-06,0.27941176470588236
4.3457465785e-06,0.2867647058823529
4.3457465785e-06,0.29411764705882354
4.3457465785e-06,0.3014705882352941
0.000108643664463,0.3088235294117647
0.000108643664463,0.3161764705882353
0.00011733515762,0.3235294117647059
0.000217287328925,0.33088235294117646
0.000217287328925,0.3382352941176471
0.000217287328925,0.34558823529411764
0.000217287328925,0.35294117647058826
0.000325930993388,0.3602941176470588
0.000362145548209,0.36764705882352944
0.000362145548209,0.375
0.000362145548209,0.38235294117647056
0.00043457465785,0.3897058823529412
0.00043457465785,0.39705882352941174
0.00043457465785,0.40441176470588236
0.00043457465785,0.4117647058823529
0.00043457465785,0.41911764705882354
0.00043457465785,0.4264705882352941
0.00043457465785,0.4338235294117647
0.000543218322313,0.4411764705882353
0.000651861986776,0.4485294117647059
0.000651861986776,0.45588235294117646
0.000796720206059,0.4632352941176471
0.000869149315701,0.47058823529411764
0.000869149315701,0.47794117647058826
0.00130372397355,0.4852941176470588
0.00177451318622,0.49264705882352944
0.00315066626942,0.5
0.00322309537906,0.5073529411764706
0.0041646738044,0.5147058823529411
0.00517868133938,0.5220588235294118
0.00525111044903,0.5294117647058824
0.00561325599723,0.5367647058823529
0.00568568510688,0.5441176470588235
0.00612025976473,0.5514705882352942
0.0303118206338,0.5588235294117647
0.031210802603,0.5661764705882353
0.0419071253733,0.5735294117647058
0.0419791171725,0.5808823529411765
0.0421376266686,0.5882352941176471
0.0421733476235,0.5955882352941176
0.0422012219442,0.6029411764705882
0.0422252433117,0.6102941176470589
0.0422935514246,0.6176470588235294
0.0423068424839,0.625
0.0423152287248,0.6323529411764706
0.0423207793546,0.6397058823529411
0.0423224243483,0.6470588235294118
0.0423232306591,0.6544117647058824
0.0423239680504,0.6617647058823529
0.0423246944158,0.6691176470588235
0.0423250358175,0.6764705882352942
0.0423265138244,0.6838235294117647
0.0423279845789,0.6911764705882353
0.0423348793954,0.6985294117647058
0.0423372651621,0.7058823529411765
0.0423372764038,0.7132352941176471
0.0423373718886,0.7205882352941176
0.0423373754531,0.7279411764705882
0.0423375560064,0.7352941176470589
0.0423375583829,0.7426470588235294
0.0423375583829,0.75
1.05808076648,0.7573529411764706
1.05816284561,0.7647058823529411
1.11835340009,0.7720588235294118
2.11126216559,0.7794117647058824
2.11126216559,0.7867647058823529
2.11639922894,0.7941176470588235
2.11639922894,0.8014705882352942
3.17424229943,0.8088235294117647
3.52699109036,0.8161764705882353
3.52699109036,0.8235294117647058
3.52699109036,0.8308823529411765
4.22012219442,0.8382352941176471
4.23246944158,0.8455882352941176
4.23265138244,0.8529411764705882
4.23372764038,0.8602941176470589
4.23373754531,0.8676470588235294
4.23375583829,0.875
4.23375583829,0.8823529411764706
5.29058434823,0.8897058823529411
6.32502483245,0.8970588235294118
6.3484771644,0.9044117647058824
7.75767533876,0.9117647058823529
8.43745695676,0.9191176470588235
8.46747473417,0.9264705882352942
12.7012672772,0.9338235294117647
17.2824416852,0.9411764705882353
30.6943590136,0.9485294117647058
31.380734332,0.9558823529411765
40.5712372724,0.9632352941176471
50.3339286586,0.9705882352941176
51.1512373093,0.9779411764705882
53.3651107219,0.9852941176470589
55.3491490266,0.9926470588235294
58.4702292869,1.0
