Congestion,CDF
0.0,0.007352941176470588
0.0,0.014705882352941176
0.0,0.022058823529411766
0.0,0.029411764705882353
0.0,0.03676470588235294
0.0,0.04411764705882353
0.0,0.051470588235294115
0.0,0.058823529411764705
0.0,0.0661764705882353
0.0,0.07352941176470588
0.0,0.08088235294117647
0.0,0.08823529411764706
0.0,0.09558823529411764
0.0,0.10294117647058823
4.20468189863e-06,0.11029411764705882
4.20468189863e-06,0.11764705882352941
4.20468189863e-06,0.125
4.20468189863e-06,0.1323529411764706
4.20468189863e-06,0.13970588235294118
4.20468189863e-06,0.14705882352941177
4.20468189863e-06,0.15441176470588236
4.20468189863e-06,0.16176470588235295
4.20468189863e-06,0.16911764705882354
4.20468189863e-06,0.17647058823529413
4.20468189863e-06,0.18382352941176472
4.20468189863e-06,0.19117647058823528
4.20468189863e-06,0.19852941176470587
4.20468189863e-06,0.20588235294117646
4.20468189863e-06,0.21323529411764705
4.20468189863e-06,0.22058823529411764
4.20468189863e-06,0.22794117647058823
4.20468189863e-06,0.23529411764705882
4.20468189863e-06,0.2426470588235294
4.20468189863e-06,0.25
4.20468189863e-06,0.25735294117647056
4.20468189863e-06,0.2647058823529412
4.20468189863e-06,0.27205882352941174
4.20468189863e-06,0.27941176470588236
4.20468189863e-06,0.2867647058823529
4.20468189863e-06,0.29411764705882354
4.20468189863e-06,0.3014705882352941
0.000105117047466,0.3088235294117647
0.000105117047466,0.3161764705882353
0.000113526411263,0.3235294117647059
0.000210234094932,0.33088235294117646
0.000210234094932,0.3382352941176471
0.000210234094932,0.34558823529411764
0.000210234094932,0.35294117647058826
0.000315351142397,0.3602941176470588
0.000350390158219,0.36764705882352944
0.000350390158219,0.375
0.000350390158219,0.38235294117647056
0.000420468189863,0.3897058823529412
0.000420468189863,0.39705882352941174
0.000420468189863,0.40441176470588236
0.000420468189863,0.4117647058823529
0.000420468189863,0.41911764705882354
0.000420468189863,0.4264705882352941
0.000420468189863,0.4338235294117647
0.000525585237329,0.4411764705882353
0.000630702284795,0.4485294117647059
0.000630702284795,0.45588235294117646
0.000770858348083,0.4632352941176471
0.000840936379727,0.47058823529411764
0.000840936379727,0.47794117647058826
0.00126140456959,0.4852941176470588
0.00171691177527,0.49264705882352944
0.00304839437651,0.5
0.00311847240815,0.5073529411764706
0.00402948681952,0.5147058823529411
0.00501057926254,0.5220588235294118
0.00508065729418,0.5294117647058824
0.0054310474524,0.5367647058823529
0.00550112548404,0.5441176470588235
0.00592159367391,0.5514705882352942
0.0456092013615,0.5588235294117647
0.046280872514,0.5661764705882353
0.0539222105166,0.5735294117647058
0.0539819925187,0.5808823529411765
0.0540900336756,0.5882352941176471
0.0541232340489,0.5955882352941176
0.0541451128921,0.6029411764705882
0.0541700843724,0.6102941176470589
0.0542379078846,0.6176470588235294
0.0542493885616,0.625
0.0542585850087,0.6323529411764706
0.0542632383218,0.6397058823529411
0.0542647690561,0.6470588235294118
0.0542655554152,0.6544117647058824
0.0542663867498,0.6617647058823529
0.0542670309431,0.6691176470588235
0.0542673680156,0.6764705882352942
0.054268833527,0.6838235294117647
0.0542703342039,0.6911764705882353
0.0542772168299,0.6985294117647058
0.0542795806914,0.7058823529411765
0.0542795914204,0.7132352941176471
0.0542796868374,0.7205882352941176
0.0542796903482,0.7279411764705882
0.0542798709326,0.7352941176470589
0.0542798732733,0.7426470588235294
0.0542798732733,0.75
1.35663888538,0.7573529411764706
1.35672083817,0.7647058823529411
1.44743752319,0.7720588235294118
2.70850421862,0.7794117647058824
2.70850421862,0.7867647058823529
2.71351671019,0.7941176470588235
2.71351671019,0.8014705882352942
4.06991665614,0.8088235294117647
4.52218535876,0.8161764705882353
4.52218535876,0.8235294117647058
4.52218535876,0.8308823529411765
5.41451128921,0.8382352941176471
5.42670309431,0.8455882352941176
5.4268833527,0.8529411764705882
5.42795914204,0.8602941176470589
5.42796903482,0.8676470588235294
5.42798732733,0.875
5.42798732733,0.8823529411764706
6.78337568695,0.8897058823529411
8.11750758618,0.8970588235294118
8.13984054237,0.9044117647058824
9.94712421492,0.9117647058823529
10.8268346941,0.9191176470588235
10.8559377186,0.9264705882352942
16.2839617479,0.9338235294117647
22.158902815,0.9411764705882353
39.3525375158,0.9485294117647058
40.238322037,0.9558823529411765
52.0159612678,0.9632352941176471
64.5748853689,0.9705882352941176
65.581660311,0.9779411764705882
69.1358055051,0.9852941176470589
70.9798595629,0.9926470588235294
75.6079468143,1.0
