Congestion,CDF
0.0365904410948,0.005555555555555556
0.0365904410948,0.011111111111111112
0.0366236093652,0.016666666666666666
0.0366236093652,0.022222222222222223
0.037267854986,0.027777777777777776
0.037267854986,0.03333333333333333
0.0373268962811,0.03888888888888889
0.0373268962811,0.044444444444444446
0.0374417283147,0.05
0.0374417283147,0.05555555555555555
0.0375393791021,0.06111111111111111
0.0375393791021,0.06666666666666667
0.0383291500048,0.07222222222222222
0.0383291500048,0.07777777777777778
0.0384277085237,0.08333333333333333
0.0384277085237,0.08888888888888889
0.0394912906553,0.09444444444444444
0.0394912906553,0.1
0.0396234634743,0.10555555555555556
0.0396234634743,0.1111111111111111
0.0397774373433,0.11666666666666667
0.0397774373433,0.12222222222222222
0.0398969430185,0.12777777777777777
0.0398969430185,0.13333333333333333
0.0399782429074,0.1388888888888889
0.0399782429074,0.14444444444444443
0.0404306591627,0.15
0.0404306591627,0.15555555555555556
0.04049168992,0.16111111111111112
0.04049168992,0.16666666666666666
0.040676318446,0.17222222222222222
0.040676318446,0.17777777777777778
0.0407851519391,0.18333333333333332
0.0407851519391,0.18888888888888888
0.0408378221902,0.19444444444444445
0.0408378221902,0.2
0.0408685532195,0.20555555555555555
0.0408685532195,0.2111111111111111
0.0409526335738,0.21666666666666667
0.0409526335738,0.2222222222222222
0.0411948175921,0.22777777777777777
0.0411948175921,0.23333333333333334
0.0412061383949,0.2388888888888889
0.0412061383949,0.24444444444444444
0.0415456577206,0.25
0.0415456577206,0.25555555555555554
0.041703988742,0.2611111111111111
0.041703988742,0.26666666666666666
0.0420495113082,0.2722222222222222
0.0420495113082,0.2777777777777778
0.0421171348741,0.2833333333333333
0.0421171348741,0.28888888888888886
0.0423319261534,0.29444444444444445
0.0423319261534,0.3
0.0423518607876,0.3055555555555556
0.0423518607876,0.3111111111111111
0.0424059820291,0.31666666666666665
0.0424059820291,0.32222222222222224
0.0425475310237,0.3277777777777778
0.0425475310237,0.3333333333333333
0.0425950866973,0.3388888888888889
0.0425950866973,0.34444444444444444
0.0426634371201,0.35
0.0426634371201,0.35555555555555557
0.0429459722627,0.3611111111111111
0.0429459722627,0.36666666666666664
0.0430856843605,0.37222222222222223
0.0430856843605,0.37777777777777777
0.0432142133762,0.38333333333333336
0.0432142133762,0.3888888888888889
0.0433042178911,0.39444444444444443
0.0433042178911,0.4
0.0434860541349,0.40555555555555556
0.0434860541349,0.4111111111111111
0.043807578902,0.4166666666666667
0.043807578902,0.4222222222222222
0.0440978865364,0.42777777777777776
0.0440978865364,0.43333333333333335
0.0445442964631,0.4388888888888889
0.0445442964631,0.4444444444444444
1.15793626134,0.45
1.15793626134,0.45555555555555555
1.31585946905,0.46111111111111114
1.31585946905,0.4666666666666667
1.46248043215,0.4722222222222222
1.46248043215,0.4777777777777778
1.56498263317,0.48333333333333334
1.56498263317,0.4888888888888889
2.41470839718,0.49444444444444446
2.41470839718,0.5
3.08104266262,0.5055555555555555
3.08104266262,0.5111111111111111
3.47756692227,0.5166666666666667
3.47756692227,0.5222222222222223
3.56675592442,0.5277777777777778
3.56675592442,0.5333333333333333
4.39748562199,0.5388888888888889
4.39748562199,0.5444444444444444
4.67878430855,0.55
4.67878430855,0.5555555555555556
4.86757548098,0.5611111111111111
4.86757548098,0.5666666666666667
4.86827372926,0.5722222222222222
4.86827372926,0.5777777777777777
4.96948234152,0.5833333333333334
4.96948234152,0.5888888888888889
5.07393688809,0.5944444444444444
5.07393688809,0.6
5.17526930304,0.6055555555555555
5.17526930304,0.6111111111111112
5.53017509671,0.6166666666666667
5.53017509671,0.6222222222222222
5.5673156733,0.6277777777777778
5.5673156733,0.6333333333333333
5.71637175592,0.6388888888888888
5.71637175592,0.6444444444444445
5.7633443389,0.65
5.7633443389,0.6555555555555556
5.96734923177,0.6611111111111111
5.96734923177,0.6666666666666666
6.16285338822,0.6722222222222223
6.16285338822,0.6777777777777778
6.34233040552,0.6833333333333333
6.34233040552,0.6888888888888889
6.39602803538,0.6944444444444444
6.39602803538,0.7
6.43079151551,0.7055555555555556
6.43079151551,0.7111111111111111
6.84166049047,0.7166666666666667
6.84166049047,0.7222222222222222
7.25206134544,0.7277777777777777
7.25206134544,0.7333333333333333
7.34105366519,0.7388888888888889
7.34105366519,0.7444444444444445
8.72616527554,0.75
8.72616527554,0.7555555555555555
8.94826219365,0.7611111111111111
8.94826219365,0.7666666666666667
9.02934692296,0.7722222222222223
9.02934692296,0.7777777777777778
9.44130575819,0.7833333333333333
9.44130575819,0.7888888888888889
9.88777361937,0.7944444444444444
9.88777361937,0.8
9.96558577742,0.8055555555555556
9.96558577742,0.8111111111111111
10.4231900665,0.8166666666666667
10.4231900665,0.8222222222222222
11.0089011518,0.8277777777777777
11.0089011518,0.8333333333333334
11.2918336093,0.8388888888888889
11.2918336093,0.8444444444444444
12.0510454438,0.85
12.0510454438,0.8555555555555555
13.1147992752,0.8611111111111112
13.1147992752,0.8666666666666667
13.6649527343,0.8722222222222222
13.6649527343,0.8777777777777778
14.4880017907,0.8833333333333333
14.4880017907,0.8888888888888888
14.6740404877,0.8944444444444445
14.6740404877,0.9
15.832405071,0.9055555555555556
15.832405071,0.9111111111111111
16.6028765731,0.9166666666666666
16.6028765731,0.9222222222222223
17.2329376605,0.9277777777777778
17.2329376605,0.9333333333333333
18.951752424,0.9388888888888889
18.951752424,0.9444444444444444
19.339392703,0.95
19.339392703,0.9555555555555556
20.0097226196,0.9611111111111111
20.0097226196,0.9666666666666667
21.2765660532,0.9722222222222222
21.2765660532,0.9777777777777777
23.0956861209,0.9833333333333333
23.0956861209,0.9888888888888889
24.1531436815,0.9944444444444445
24.1531436815,1.0
