Congestion,CDF
0.0354564555481,0.005555555555555556
0.0354564555481,0.011111111111111112
0.0354936346253,0.016666666666666666
0.0354936346253,0.022222222222222223
0.0359653369216,0.027777777777777776
0.0359653369216,0.03333333333333333
0.0360895921741,0.03888888888888889
0.0360895921741,0.044444444444444446
0.0362419812064,0.05
0.0362419812064,0.05555555555555555
0.036326987238,0.06111111111111111
0.036326987238,0.06666666666666667
0.0370391821394,0.07222222222222222
0.0370391821394,0.07777777777777778
0.0371406082966,0.08333333333333333
0.0371406082966,0.08888888888888889
0.03828474372,0.09444444444444444
0.03828474372,0.1
0.0383970733579,0.10555555555555556
0.0383970733579,0.1111111111111111
0.0384112094648,0.11666666666666667
0.0384112094648,0.12222222222222222
0.038670871002,0.12777777777777777
0.038670871002,0.13333333333333333
0.0386983273882,0.1388888888888889
0.0386983273882,0.14444444444444443
0.0390569577219,0.15
0.0390569577219,0.15555555555555556
0.039241102995,0.16111111111111112
0.039241102995,0.16666666666666666
0.0393585432111,0.17222222222222222
0.0393585432111,0.17777777777777778
0.03944393042,0.18333333333333332
0.03944393042,0.18888888888888888
0.0395957107334,0.19444444444444445
0.0395957107334,0.2
0.0396261040588,0.20555555555555555
0.0396261040588,0.2111111111111111
0.0396386734503,0.21666666666666667
0.0396386734503,0.2222222222222222
0.0399114859973,0.22777777777777777
0.0399114859973,0.23333333333333334
0.0399394341749,0.2388888888888889
0.0399394341749,0.24444444444444444
0.040210521606,0.25
0.040210521606,0.25555555555555554
0.0403399959457,0.2611111111111111
0.0403399959457,0.26666666666666666
0.0407221719441,0.2722222222222222
0.0407221719441,0.2777777777777778
0.040897303966,0.2833333333333333
0.040897303966,0.28888888888888886
0.0410527909676,0.29444444444444445
0.0410527909676,0.3
0.0411223900163,0.3055555555555556
0.0411223900163,0.3111111111111111
0.0412003102744,0.31666666666666665
0.0412003102744,0.32222222222222224
0.0412575675303,0.3277777777777778
0.0412575675303,0.3333333333333333
0.0413851778816,0.3388888888888889
0.0413851778816,0.34444444444444444
0.0414604692267,0.35
0.0414604692267,0.35555555555555557
0.0416418167933,0.3611111111111111
0.0416418167933,0.36666666666666664
0.0418585187124,0.37222222222222223
0.0418585187124,0.37777777777777777
0.0419445749196,0.38333333333333336
0.0419445749196,0.3888888888888889
0.0420641538061,0.39444444444444443
0.0420641538061,0.4
0.0422242626346,0.40555555555555556
0.0422242626346,0.4111111111111111
0.0425444292344,0.4166666666666667
0.0425444292344,0.4222222222222222
0.0428412910396,0.42777777777777776
0.0428412910396,0.43333333333333335
0.0433060039119,0.4388888888888889
0.0433060039119,0.4444444444444444
1.11529625246,0.45
1.11529625246,0.45555555555555555
1.27331857532,0.46111111111111114
1.27331857532,0.4666666666666667
1.39975785689,0.4722222222222222
1.39975785689,0.4777777777777778
1.49726858646,0.48333333333333334
1.49726858646,0.4888888888888889
2.33069488343,0.49444444444444446
2.33069488343,0.5
2.96036667942,0.5055555555555555
2.96036667942,0.5111111111111111
3.37193021595,0.5166666666666667
3.37193021595,0.5222222222222223
3.45954816345,0.5277777777777778
3.45954816345,0.5333333333333333
4.26566880436,0.5388888888888889
4.26566880436,0.5444444444444444
4.54809475291,0.55
4.54809475291,0.5555555555555556
4.7319083991,0.5611111111111111
4.7319083991,0.5666666666666667
4.73555200599,0.5722222222222222
4.73555200599,0.5777777777777777
4.83105158641,0.5833333333333334
4.83105158641,0.5888888888888889
4.91763864908,0.5944444444444444
4.91763864908,0.6
5.01198568373,0.6055555555555555
5.01198568373,0.6111111111111112
5.36412649991,0.6166666666666667
5.36412649991,0.6222222222222222
5.39861206869,0.6277777777777778
5.39861206869,0.6333333333333333
5.54596000668,0.6388888888888888
5.54596000668,0.6444444444444445
5.59479956009,0.65
5.59479956009,0.6555555555555556
5.80222585089,0.6611111111111111
5.80222585089,0.6666666666666666
5.98829338879,0.6722222222222223
5.98829338879,0.6777777777777778
6.15255431216,0.6833333333333333
6.15255431216,0.6888888888888889
6.22272109081,0.6944444444444444
6.22272109081,0.7
6.24292109613,0.7055555555555556
6.24292109613,0.7111111111111111
6.65526968399,0.7166666666666667
6.65526968399,0.7222222222222222
7.04197448035,0.7277777777777777
7.04197448035,0.7333333333333333
7.14497525642,0.7388888888888889
7.14497525642,0.7444444444444445
8.49841366286,0.75
8.49841366286,0.7555555555555555
8.71735285096,0.7611111111111111
8.71735285096,0.7666666666666667
8.79385265147,0.7722222222222223
8.79385265147,0.7777777777777778
9.19921192077,0.7833333333333333
9.19921192077,0.7888888888888889
9.62286130537,0.7944444444444444
9.62286130537,0.8
9.69613271634,0.8055555555555556
9.69613271634,0.8111111111111111
10.155972028,0.8166666666666667
10.155972028,0.8222222222222222
10.7243250418,0.8277777777777777
10.7243250418,0.8333333333333334
10.9964030595,0.8388888888888889
10.9964030595,0.8444444444444444
11.7421022831,0.85
11.7421022831,0.8555555555555555
12.785625674,0.8611111111111112
12.785625674,0.8666666666666667
13.2985618489,0.8722222222222222
13.2985618489,0.8777777777777778
14.1270494834,0.8833333333333333
14.1270494834,0.8888888888888888
14.3035984089,0.8944444444444445
14.3035984089,0.9
15.4395711862,0.9055555555555556
15.4395711862,0.9111111111111111
16.1828009076,0.9166666666666666
16.1828009076,0.9222222222222223
16.810218337,0.9277777777777778
16.810218337,0.9333333333333333
18.4818218521,0.9388888888888889
18.4818218521,0.9444444444444444
18.8510336351,0.95
18.8510336351,0.9555555555555556
19.5049459404,0.9611111111111111
19.5049459404,0.9666666666666667
20.755153099,0.9722222222222222
20.755153099,0.9777777777777777
22.531830942,0.9833333333333333
22.531830942,0.9888888888888889
23.5591426218,0.9944444444444445
23.5591426218,1.0
