Congestion,CDF
0.0296077401095,0.005555555555555556
0.0296077401095,0.011111111111111112
0.0296892128064,0.016666666666666666
0.0296892128064,0.022222222222222223
0.0299552613123,0.027777777777777776
0.0299552613123,0.03333333333333333
0.0300912836083,0.03888888888888889
0.0300912836083,0.044444444444444446
0.0301517318566,0.05
0.0301517318566,0.05555555555555555
0.0303508373291,0.06111111111111111
0.0303508373291,0.06666666666666667
0.0303622353072,0.07222222222222222
0.0303622353072,0.07777777777777778
0.0309996264446,0.08333333333333333
0.0309996264446,0.08888888888888889
0.0315891494196,0.09444444444444444
0.0315891494196,0.1
0.0317672605766,0.10555555555555556
0.0317672605766,0.1111111111111111
0.031971641333,0.11666666666666667
0.031971641333,0.12222222222222222
0.0319735422427,0.12777777777777777
0.0319735422427,0.13333333333333333
0.0320492182016,0.1388888888888889
0.0320492182016,0.14444444444444443
0.0321581090815,0.15
0.0321581090815,0.15555555555555556
0.032292220897,0.16111111111111112
0.032292220897,0.16666666666666666
0.0326049877485,0.17222222222222222
0.0326049877485,0.17777777777777778
0.0329711485732,0.18333333333333332
0.0329711485732,0.18888888888888888
0.0330654321431,0.19444444444444445
0.0330654321431,0.2
0.0330727081126,0.20555555555555555
0.0330727081126,0.2111111111111111
0.0331135029035,0.21666666666666667
0.0331135029035,0.2222222222222222
0.0332222530591,0.22777777777777777
0.0332222530591,0.23333333333333334
0.0332582325039,0.2388888888888889
0.0332582325039,0.24444444444444444
0.0332587422651,0.25
0.0332587422651,0.25555555555555554
0.0334897968808,0.2611111111111111
0.0334897968808,0.26666666666666666
0.0338126355257,0.2722222222222222
0.0338126355257,0.2777777777777778
0.0343077319959,0.2833333333333333
0.0343077319959,0.28888888888888886
0.0346521242391,0.29444444444444445
0.0346521242391,0.3
0.0347346408705,0.3055555555555556
0.0347346408705,0.3111111111111111
0.0347759010767,0.31666666666666665
0.0347759010767,0.32222222222222224
0.0348275643992,0.3277777777777778
0.0348275643992,0.3333333333333333
0.0348698157287,0.3388888888888889
0.0348698157287,0.34444444444444444
0.0349538290725,0.35
0.0349538290725,0.35555555555555557
0.0352999145496,0.3611111111111111
0.0352999145496,0.36666666666666664
0.0354166406659,0.37222222222222223
0.0354166406659,0.37777777777777777
0.0355919769576,0.38333333333333336
0.0355919769576,0.3888888888888889
0.0356824817438,0.39444444444444443
0.0356824817438,0.4
0.0357092040039,0.40555555555555556
0.0357092040039,0.4111111111111111
0.0358090071736,0.4166666666666667
0.0358090071736,0.4222222222222222
0.0361669552933,0.42777777777777776
0.0361669552933,0.43333333333333335
0.036670502813,0.4388888888888889
0.036670502813,0.4444444444444444
0.923799668756,0.45
0.923799668756,0.45555555555555555
1.06389455248,0.46111111111111114
1.06389455248,0.4666666666666667
1.09399521185,0.4722222222222222
1.09399521185,0.4777777777777778
1.1815182746,0.48333333333333334
1.1815182746,0.4888888888888889
1.90742562845,0.49444444444444446
1.90742562845,0.5
2.36515854642,0.5055555555555555
2.36515854642,0.5111111111111111
2.81455490811,0.5166666666666667
2.81455490811,0.5222222222222223
2.89158298828,0.5277777777777778
2.89158298828,0.5333333333333333
3.54732470221,0.5388888888888889
3.54732470221,0.5444444444444444
3.837940372,0.55
3.837940372,0.5555555555555556
3.99588062471,0.5611111111111111
3.99588062471,0.5666666666666667
4.00895524227,0.5722222222222222
4.00895524227,0.5777777777777777
4.0787561641,0.5833333333333334
4.0787561641,0.5888888888888889
4.11273821243,0.5944444444444444
4.11273821243,0.6
4.17056937493,0.6055555555555555
4.17056937493,0.6111111111111112
4.47637063759,0.6166666666666667
4.47637063759,0.6222222222222222
4.5136211178,0.6277777777777778
4.5136211178,0.6333333333333333
4.66488881402,0.6388888888888888
4.66488881402,0.6444444444444445
4.68765768117,0.65
4.68765768117,0.6555555555555556
4.91834827115,0.6611111111111111
4.91834827115,0.6666666666666666
5.05051023311,0.6722222222222223
5.05051023311,0.6777777777777778
5.14198661186,0.6833333333333333
5.14198661186,0.6888888888888889
5.23612072408,0.6944444444444444
5.23612072408,0.7
5.29522417556,0.7055555555555556
5.29522417556,0.7111111111111111
5.65422608761,0.7166666666666667
5.65422608761,0.7222222222222222
5.91350931512,0.7277777777777777
5.91350931512,0.7333333333333333
6.09205757128,0.7388888888888889
6.09205757128,0.7444444444444445
7.2683953401,0.75
7.2683953401,0.7555555555555555
7.47065414832,0.7611111111111111
7.47065414832,0.7666666666666667
7.52079420741,0.7722222222222223
7.52079420741,0.7777777777777778
7.89024793324,0.7833333333333333
7.89024793324,0.7888888888888889
8.18474500689,0.7944444444444444
8.18474500689,0.8
8.23366191979,0.8055555555555556
8.23366191979,0.8111111111111111
8.70747933616,0.8166666666666667
8.70747933616,0.8222222222222222
9.17892375222,0.8277777777777777
9.17892375222,0.8333333333333334
9.38763574343,0.8388888888888889
9.38763574343,0.8444444444444444
10.0597183465,0.85
10.0597183465,0.8555555555555555
10.9908455132,0.8611111111111112
10.9908455132,0.8666666666666667
11.2912749045,0.8722222222222222
11.2912749045,0.8777777777777778
12.1533381312,0.8833333333333333
12.1533381312,0.8888888888888888
12.2775976749,0.8944444444444445
12.2775976749,0.9
13.2906903744,0.9055555555555556
13.2906903744,0.9111111111111111
13.8793081602,0.9166666666666666
13.8793081602,0.9222222222222223
14.4960245851,0.9277777777777778
14.4960245851,0.9333333333333333
15.9058424365,0.9388888888888889
15.9058424365,0.9444444444444444
16.1706856573,0.95
16.1706856573,0.9555555555555556
16.7346456994,0.9611111111111111
16.7346456994,0.9666666666666667
17.8961953012,0.9722222222222222
17.8961953012,0.9777777777777777
19.4385008724,0.9833333333333333
19.4385008724,0.9888888888888889
20.2987998858,0.9944444444444445
20.2987998858,1.0
