Congestion,CDF
0.0241502244749,0.005555555555555556
0.0241502244749,0.011111111111111112
0.0242795909696,0.016666666666666666
0.0242795909696,0.022222222222222223
0.0244370451512,0.027777777777777776
0.0244370451512,0.03333333333333333
0.024498344005,0.03888888888888889
0.024498344005,0.044444444444444446
0.0245184053137,0.05
0.0245184053137,0.05555555555555555
0.0246581768583,0.06111111111111111
0.0246581768583,0.06666666666666667
0.0249417524446,0.07222222222222222
0.0249417524446,0.07777777777777778
0.0252949504437,0.08333333333333333
0.0252949504437,0.08888888888888889
0.0254977777992,0.09444444444444444
0.0254977777992,0.1
0.0256175870335,0.10555555555555556
0.0256175870335,0.1111111111111111
0.0256206833309,0.11666666666666667
0.0256206833309,0.12222222222222222
0.025803465785,0.12777777777777777
0.025803465785,0.13333333333333333
0.025819741711,0.1388888888888889
0.025819741711,0.14444444444444443
0.026130271416,0.15
0.026130271416,0.15555555555555556
0.0262258114886,0.16111111111111112
0.0262258114886,0.16666666666666666
0.0263769880472,0.17222222222222222
0.0263769880472,0.17777777777777778
0.0265981510771,0.18333333333333332
0.0265981510771,0.18888888888888888
0.0266854095953,0.19444444444444445
0.0266854095953,0.2
0.0267364726154,0.20555555555555555
0.0267364726154,0.2111111111111111
0.026792749015,0.21666666666666667
0.026792749015,0.2222222222222222
0.0268591101067,0.22777777777777777
0.0268591101067,0.23333333333333334
0.0268858315851,0.2388888888888889
0.0268858315851,0.24444444444444444
0.0269188982828,0.25
0.0269188982828,0.25555555555555554
0.0271027338085,0.2611111111111111
0.0271027338085,0.26666666666666666
0.0274572139171,0.2722222222222222
0.0274572139171,0.2777777777777778
0.0279647961993,0.2833333333333333
0.0279647961993,0.28888888888888886
0.0285380032795,0.29444444444444445
0.0285380032795,0.3
0.0285391754949,0.3055555555555556
0.0285391754949,0.3111111111111111
0.0286678053067,0.31666666666666665
0.0286678053067,0.32222222222222224
0.0287102347879,0.3277777777777778
0.0287102347879,0.3333333333333333
0.0287824250958,0.3388888888888889
0.0287824250958,0.34444444444444444
0.0288103365678,0.35
0.0288103365678,0.35555555555555557
0.0291132409948,0.3611111111111111
0.0291132409948,0.36666666666666664
0.0293150789601,0.37222222222222223
0.0293150789601,0.37777777777777777
0.0294803696106,0.38333333333333336
0.0294803696106,0.3888888888888889
0.0294850467289,0.39444444444444443
0.0294850467289,0.4
0.0295289922352,0.40555555555555556
0.0295289922352,0.4111111111111111
0.0295363146823,0.4166666666666667
0.0295363146823,0.4222222222222222
0.0299490857101,0.42777777777777776
0.0299490857101,0.43333333333333335
0.0303633373792,0.4388888888888889
0.0303633373792,0.4444444444444444
0.733912707046,0.45
0.733912707046,0.45555555555555555
0.850922368047,0.46111111111111114
0.850922368047,0.4666666666666667
0.876367835179,0.4722222222222222
0.876367835179,0.4777777777777778
0.915540630762,0.48333333333333334
0.915540630762,0.4888888888888889
1.53375799442,0.49444444444444446
1.53375799442,0.5
1.87006797325,0.5055555555555555
1.87006797325,0.5111111111111111
2.29165722466,0.5166666666666667
2.29165722466,0.5222222222222223
2.35381751895,0.5277777777777778
2.35381751895,0.5333333333333333
2.85277778999,0.5388888888888889
2.85277778999,0.5444444444444444
3.15323052715,0.55
3.15323052715,0.5555555555555556
3.28456005426,0.5611111111111111
3.28456005426,0.5666666666666667
3.28763654694,0.5722222222222222
3.28763654694,0.5777777777777777
3.34701424781,0.5833333333333334
3.34701424781,0.5888888888888889
3.34980197542,0.5944444444444444
3.34980197542,0.6
3.4126810714,0.6055555555555555
3.4126810714,0.6111111111111112
3.62500121445,0.6166666666666667
3.62500121445,0.6222222222222222
3.67677184822,0.6277777777777778
3.67677184822,0.6333333333333333
3.79224415917,0.6388888888888888
3.79224415917,0.6444444444444445
3.83434289401,0.65
3.83434289401,0.6555555555555556
4.04604751419,0.6611111111111111
4.04604751419,0.6666666666666666
4.11544078744,0.6722222222222223
4.11544078744,0.6777777777777778
4.19562846706,0.6833333333333333
4.19562846706,0.6888888888888889
4.24823142601,0.6944444444444444
4.24823142601,0.7
4.37903853266,0.7055555555555556
4.37903853266,0.7111111111111111
4.65863301986,0.7166666666666667
4.65863301986,0.7222222222222222
4.80015602343,0.7277777777777777
4.80015602343,0.7333333333333333
5.0485234255,0.7388888888888889
5.0485234255,0.7444444444444445
6.04655882171,0.75
6.04655882171,0.7555555555555555
6.23281450273,0.7611111111111111
6.23281450273,0.7666666666666667
6.25592531026,0.7722222222222223
6.25592531026,0.7777777777777778
6.59222963106,0.7833333333333333
6.59222963106,0.7888888888888889
6.75456945394,0.7944444444444444
6.75456945394,0.8
6.78013711657,0.8055555555555556
6.78013711657,0.8111111111111111
7.27113384516,0.8166666666666667
7.27113384516,0.8222222222222222
7.64745122512,0.8277777777777777
7.64745122512,0.8333333333333334
7.78763056013,0.8388888888888889
7.78763056013,0.8444444444444444
8.39131171109,0.85
8.39131171109,0.8555555555555555
9.2160654814,0.8611111111111112
9.2160654814,0.8666666666666667
9.30373293424,0.8722222222222222
9.30373293424,0.8777777777777778
10.2008136209,0.8833333333333333
10.2008136209,0.8888888888888888
10.2727798183,0.8944444444444445
10.2727798183,0.9
11.164390583,0.9055555555555556
11.164390583,0.9111111111111111
11.5913440622,0.9166666666666666
11.5913440622,0.9222222222222223
12.2021787954,0.9277777777777778
12.2021787954,0.9333333333333333
13.3464073949,0.9388888888888889
13.3464073949,0.9444444444444444
13.5010558655,0.95
13.5010558655,0.9555555555555556
13.9750309358,0.9611111111111111
13.9750309358,0.9666666666666667
15.0542814811,0.9722222222222222
15.0542814811,0.9777777777777777
16.3591003732,0.9833333333333333
16.3591003732,0.9888888888888889
17.0494643531,0.9944444444444445
17.0494643531,1.0
