Congestion,CDF
0.0383932019228,0.005555555555555556
0.0383932019228,0.011111111111111112
0.0383958986048,0.016666666666666666
0.0383958986048,0.022222222222222223
0.0393545934222,0.027777777777777776
0.0393545934222,0.03333333333333333
0.0393867117162,0.03888888888888889
0.0393867117162,0.044444444444444446
0.039483914556,0.05
0.039483914556,0.05555555555555555
0.039491423707,0.06111111111111111
0.039491423707,0.06666666666666667
0.0402543182009,0.07222222222222222
0.0402543182009,0.07777777777777778
0.0406642240968,0.08333333333333333
0.0406642240968,0.08888888888888889
0.041339483824,0.09444444444444444
0.041339483824,0.1
0.041615678701,0.10555555555555556
0.041615678701,0.1111111111111111
0.0418103184799,0.11666666666666667
0.0418103184799,0.12222222222222222
0.0419328223184,0.12777777777777777
0.0419328223184,0.13333333333333333
0.0420363316764,0.1388888888888889
0.0420363316764,0.14444444444444443
0.0424778493359,0.15
0.0424778493359,0.15555555555555556
0.0425502740277,0.16111111111111112
0.0425502740277,0.16666666666666666
0.0425873557298,0.17222222222222222
0.0425873557298,0.17777777777777778
0.0427551836539,0.18333333333333332
0.0427551836539,0.18888888888888888
0.0428455093458,0.19444444444444445
0.0428455093458,0.2
0.0429794600686,0.20555555555555555
0.0429794600686,0.2111111111111111
0.0429980766539,0.21666666666666667
0.0429980766539,0.2222222222222222
0.0431410456687,0.22777777777777777
0.0431410456687,0.23333333333333334
0.0432435015621,0.2388888888888889
0.0432435015621,0.24444444444444444
0.0435931322441,0.25
0.0435931322441,0.25555555555555554
0.0438007437738,0.2611111111111111
0.0438007437738,0.26666666666666666
0.0440059018627,0.2722222222222222
0.0440059018627,0.2777777777777778
0.0440886014705,0.2833333333333333
0.0440886014705,0.28888888888888886
0.0442535031944,0.29444444444444445
0.0442535031944,0.3
0.0443154496706,0.3055555555555556
0.0443154496706,0.3111111111111111
0.0443477031873,0.31666666666666665
0.0443477031873,0.32222222222222224
0.044435879295,0.3277777777777778
0.044435879295,0.3333333333333333
0.044551316186,0.3388888888888889
0.044551316186,0.34444444444444444
0.0446376551069,0.35
0.0446376551069,0.35555555555555557
0.0449591887625,0.3611111111111111
0.0449591887625,0.36666666666666664
0.0449878586722,0.37222222222222223
0.0449878586722,0.37777777777777777
0.0451714078776,0.38333333333333336
0.0451714078776,0.3888888888888889
0.0452199690549,0.39444444444444443
0.0452199690549,0.4
0.0454260806046,0.40555555555555556
0.0454260806046,0.4111111111111111
0.0457289981588,0.4166666666666667
0.0457289981588,0.4222222222222222
0.0460135480889,0.42777777777777776
0.0460135480889,0.43333333333333335
0.0464226427899,0.4388888888888889
0.0464226427899,0.4444444444444444
1.22786309589,0.45
1.22786309589,0.45555555555555555
1.38172325818,0.46111111111111114
1.38172325818,0.4666666666666667
1.56631363443,0.4722222222222222
1.56631363443,0.4777777777777778
1.68098734259,0.48333333333333334
1.68098734259,0.4888888888888889
2.54762902939,0.49444444444444446
2.54762902939,0.5
3.2794598341,0.5055555555555555
3.2794598341,0.5111111111111111
3.63937019348,0.5166666666666667
3.63937019348,0.5222222222222223
3.73104771285,0.5277777777777778
3.73104771285,0.5333333333333333
4.60107958271,0.5388888888888889
4.60107958271,0.5444444444444444
4.8820086227,0.55
4.8820086227,0.5555555555555556
5.07375916968,0.5611111111111111
5.07375916968,0.5666666666666667
5.07876071692,0.5722222222222222
5.07876071692,0.5777777777777777
5.1842890662,0.5833333333333334
5.1842890662,0.5888888888888889
5.32008346589,0.5944444444444444
5.32008346589,0.6
5.42976359943,0.6055555555555555
5.42976359943,0.6111111111111112
5.78451626262,0.6166666666666667
5.78451626262,0.6222222222222222
5.82756810274,0.6277777777777778
5.82756810274,0.6333333333333333
5.97961471008,0.6388888888888888
5.97961471008,0.6444444444444445
6.02042307322,0.65
6.02042307322,0.6555555555555556
6.21848341199,0.6611111111111111
6.21848341199,0.6666666666666666
6.42785870476,0.6722222222222223
6.42785870476,0.6777777777777778
6.6304339682,0.6833333333333333
6.6304339682,0.6888888888888889
6.65943320085,0.6944444444444444
6.65943320085,0.7
6.71610818915,0.7055555555555556
6.71610818915,0.7111111111111111
7.12443316354,0.7166666666666667
7.12443316354,0.7222222222222222
7.57051015545,0.7277777777777777
7.57051015545,0.7333333333333333
7.6383796695,0.7388888888888889
7.6383796695,0.7444444444444445
9.07052681974,0.75
9.07052681974,0.7555555555555555
9.2973692943,0.7611111111111111
9.2973692943,0.7666666666666667
9.38525223659,0.7722222222222223
9.38525223659,0.7777777777777778
9.80709056948,0.7833333333333333
9.80709056948,0.7888888888888889
10.2873129597,0.7944444444444444
10.2873129597,0.8
10.3719700548,0.8055555555555556
10.3719700548,0.8111111111111111
10.8264336287,0.8166666666666667
10.8264336287,0.8222222222222222
11.43803076,0.8277777777777777
11.43803076,0.8333333333333334
11.7369486274,0.8388888888888889
11.7369486274,0.8444444444444444
12.5164772342,0.85
12.5164772342,0.8555555555555555
13.6104932548,0.8611111111111112
13.6104932548,0.8666666666666667
14.2155345379,0.8722222222222222
14.2155345379,0.8777777777777778
15.0310427914,0.8833333333333333
15.0310427914,0.8888888888888888
15.2313034934,0.8944444444444445
15.2313034934,0.9
16.423213141,0.9055555555555556
16.423213141,0.9111111111111111
17.2340183957,0.9166666666666666
17.2340183957,0.9222222222222223
17.8684257908,0.9277777777777778
17.8684257908,0.9333333333333333
19.6577537147,0.9388888888888889
19.6577537147,0.9444444444444444
20.0727426619,0.95
20.0727426619,0.9555555555555556
20.7677367537,0.9611111111111111
20.7677367537,0.9666666666666667
22.0597589277,0.9722222222222222
22.0597589277,0.9777777777777777
23.9424129986,0.9833333333333333
23.9424129986,0.9888888888888889
25.0449583859,0.9944444444444445
25.0449583859,1.0
