Congestion,CDF
0.0,0.007352941176470588
0.0,0.014705882352941176
0.0,0.022058823529411766
0.0,0.029411764705882353
0.0,0.03676470588235294
0.0,0.04411764705882353
0.0,0.051470588235294115
0.0,0.058823529411764705
0.0,0.0661764705882353
0.0,0.07352941176470588
0.0,0.08088235294117647
0.0,0.08823529411764706
0.0,0.09558823529411764
0.0,0.10294117647058823
1.52616363832e-05,0.11029411764705882
1.52616363832e-05,0.11764705882352941
1.52616363832e-05,0.125
1.52616363832e-05,0.1323529411764706
1.52616363832e-05,0.13970588235294118
1.52616363832e-05,0.14705882352941177
1.52616363832e-05,0.15441176470588236
1.52616363832e-05,0.16176470588235295
1.52616363832e-05,0.16911764705882354
1.52616363832e-05,0.17647058823529413
1.52616363832e-05,0.18382352941176472
1.52616363832e-05,0.19117647058823528
1.52616363832e-05,0.19852941176470587
1.52616363832e-05,0.20588235294117646
1.52616363832e-05,0.21323529411764705
1.52616363832e-05,0.22058823529411764
1.52616363832e-05,0.22794117647058823
1.52616363832e-05,0.23529411764705882
1.52616363832e-05,0.2426470588235294
1.52616363832e-05,0.25
1.52616363832e-05,0.25735294117647056
1.52616363832e-05,0.2647058823529412
1.52616363832e-05,0.27205882352941174
1.52616363832e-05,0.27941176470588236
1.52616363832e-05,0.2867647058823529
1.52616363832e-05,0.29411764705882354
1.52616363832e-05,0.3014705882352941
0.000381540909581,0.3088235294117647
0.000381540909581,0.3161764705882353
0.000412064182347,0.3235294117647059
0.000763081819162,0.33088235294117646
0.000763081819162,0.3382352941176471
0.000763081819162,0.34558823529411764
0.000763081819162,0.35294117647058826
0.000954766230395,0.3602941176470588
0.00114462272874,0.36764705882352944
0.00127180303194,0.375
0.00127180303194,0.38235294117647056
0.00127180303194,0.3897058823529412
0.00152616363832,0.39705882352941174
0.00152616363832,0.40441176470588236
0.00152616363832,0.4117647058823529
0.00152616363832,0.41911764705882354
0.00152616363832,0.4264705882352941
0.00152616363832,0.4338235294117647
0.00152616363832,0.4411764705882353
0.00190770454791,0.4485294117647059
0.00202089190728,0.45588235294117646
0.00228924545749,0.4632352941176471
0.00228924545749,0.47058823529411764
0.00279796667026,0.47794117647058826
0.00305232727665,0.4852941176470588
0.00305232727665,0.49264705882352944
0.00457849091497,0.5
0.00623183485649,0.5073529411764706
0.0110646863778,0.5147058823529411
0.0113190469842,0.5220588235294118
0.0146257348673,0.5294117647058824
0.0181867833567,0.5367647058823529
0.0184411439631,0.5441176470588235
0.0185034569959,0.5514705882352942
0.0186238612184,0.5588235294117647
0.0189716977985,0.5661764705882353
0.0190299591859,0.5735294117647058
0.0190909286713,0.5808823529411765
0.0190917112299,0.5882352941176471
0.0191670534106,0.5955882352941176
0.0191918407882,0.6029411764705882
0.0191926115272,0.6102941176470589
0.0192024609194,0.6176470588235294
0.0192060871921,0.625
0.019206417854,0.6323529411764706
0.0192069861667,0.6397058823529411
0.0192079014085,0.6470588235294118
0.0192082181444,0.6544117647058824
0.0192092356817,0.6617647058823529
0.0192095304192,0.6691176470588235
0.0192152168926,0.6764705882352942
0.0192172362327,0.6838235294117647
0.0192172551901,0.6911764705882353
0.0192173536452,0.6985294117647058
0.0192173584005,0.7058823529411765
0.0192174587168,0.7132352941176471
0.019217461887,0.7205882352941176
0.019217461887,0.7279411764705882
0.019712946995,0.7352941176470589
0.0199673076014,0.7426470588235294
0.0214934712397,0.75
0.480174654168,0.7573529411764706
0.48023826048,0.7647058823529411
0.481232419602,0.7720588235294118
0.954546433566,0.7794117647058824
0.954546433566,0.7867647058823529
0.960461784086,0.7941176470588235
0.960461784086,0.8014705882352942
1.4405239625,0.8088235294117647
1.60061582105,0.8161764705882353
1.60061582105,0.8235294117647058
1.60061582105,0.8308823529411765
1.90917112299,0.8382352941176471
1.92079014085,0.8455882352941176
1.92095304192,0.8529411764705882
1.92172551901,0.8602941176470589
1.92173584005,0.8676470588235294
1.9217461887,0.875
1.9217461887,0.8823529411764706
2.4009964686,0.8897058823529411
2.85171621342,0.8970588235294118
2.88070787603,0.9044117647058824
3.51987697377,0.9117647058823529
3.81216704158,0.9191176470588235
3.84347120457,0.9264705882352942
5.76523824909,0.9338235294117647
7.84304421591,0.9411764705882353
13.9323968564,0.9485294117647058
14.2341729643,0.9558823529411765
18.4149961508,0.9632352941176471
22.7484019189,0.9705882352941176
22.8438785419,0.9779411764705882
23.2148881057,0.9852941176470589
25.0772742275,0.9926470588235294
25.2793634182,1.0
