Congestion,CDF
0.0,0.007352941176470588
0.0,0.014705882352941176
0.0,0.022058823529411766
0.0,0.029411764705882353
0.0,0.03676470588235294
0.0,0.04411764705882353
0.0,0.051470588235294115
0.0,0.058823529411764705
0.0,0.0661764705882353
0.0,0.07352941176470588
0.0,0.08088235294117647
0.0,0.08823529411764706
0.0,0.09558823529411764
0.0,0.10294117647058823
1.51041046675e-05,0.11029411764705882
1.51041046675e-05,0.11764705882352941
1.51041046675e-05,0.125
1.51041046675e-05,0.1323529411764706
1.51041046675e-05,0.13970588235294118
1.51041046675e-05,0.14705882352941177
1.51041046675e-05,0.15441176470588236
1.51041046675e-05,0.16176470588235295
1.51041046675e-05,0.16911764705882354
1.51041046675e-05,0.17647058823529413
1.51041046675e-05,0.18382352941176472
1.51041046675e-05,0.19117647058823528
1.51041046675e-05,0.19852941176470587
1.51041046675e-05,0.20588235294117646
1.51041046675e-05,0.21323529411764705
1.51041046675e-05,0.22058823529411764
1.51041046675e-05,0.22794117647058823
1.51041046675e-05,0.23529411764705882
1.51041046675e-05,0.2426470588235294
1.51041046675e-05,0.25
1.51041046675e-05,0.25735294117647056
1.51041046675e-05,0.2647058823529412
1.51041046675e-05,0.27205882352941174
1.51041046675e-05,0.27941176470588236
1.51041046675e-05,0.2867647058823529
1.51041046675e-05,0.29411764705882354
1.51041046675e-05,0.3014705882352941
0.000377602616688,0.3088235294117647
0.000377602616688,0.3161764705882353
0.000407810826023,0.3235294117647059
0.000755205233375,0.33088235294117646
0.000755205233375,0.3382352941176471
0.000755205233375,0.34558823529411764
0.000755205233375,0.35294117647058826
0.00113280785006,0.3602941176470588
0.00125867538896,0.36764705882352944
0.00125867538896,0.375
0.00125867538896,0.38235294117647056
0.00151041046675,0.3897058823529412
0.00151041046675,0.39705882352941174
0.00151041046675,0.40441176470588236
0.00151041046675,0.4117647058823529
0.00151041046675,0.41911764705882354
0.00151041046675,0.4264705882352941
0.00151041046675,0.4338235294117647
0.00188801308344,0.4411764705882353
0.00226561570013,0.4485294117647059
0.00226561570013,0.45588235294117646
0.00276908585571,0.4632352941176471
0.0030208209335,0.47058823529411764
0.0030208209335,0.47794117647058826
0.00453123140025,0.4852941176470588
0.0061675094059,0.49264705882352944
0.0109504758839,0.5
0.0112022109617,0.5073529411764706
0.014474766973,0.5147058823529411
0.0168307549627,0.5220588235294118
0.0179475617015,0.5294117647058824
0.0179990580621,0.5367647058823529
0.0182507931399,0.5441176470588235
0.0195094685289,0.5514705882352942
0.0197612036067,0.5588235294117647
0.0212716140734,0.5661764705882353
0.0323570877659,0.5735294117647058
0.0324421525819,0.5808823529411765
0.0326745182853,0.5882352941176471
0.03271918163,0.5955882352941176
0.0327564285847,0.6029411764705882
0.032765525039,0.6102941176470589
0.0328264339017,0.6176470588235294
0.0328433651672,0.625
0.0328457764854,0.6323529411764706
0.03285229943,0.6397058823529411
0.03285504824,0.6470588235294118
0.0328556822143,0.6544117647058824
0.0328558527132,0.6617647058823529
0.0328566978034,0.6691176470588235
0.0328569272366,0.6764705882352942
0.0328580801815,0.6838235294117647
0.0328582897864,0.6911764705882353
0.0328638082134,0.6985294117647058
0.0328656090515,0.7058823529411765
0.0328656204128,0.7132352941176471
0.0328657161885,0.7205882352941176
0.0328657193924,0.7279411764705882
0.032865820367,0.7352941176470589
0.0328658225029,0.7426470588235294
0.0328658225029,0.75
0.821392055356,0.7573529411764706
0.821452004538,0.7647058823529411
0.854781602342,0.7720588235294118
1.63827625195,0.7794117647058824
1.63827625195,0.7867647058823529
1.64291448932,0.7941176470588235
1.64291448932,0.8014705882352942
2.46417616607,0.8088235294117647
2.73801233456,0.8161764705882353
2.73801233456,0.8235294117647058
2.73801233456,0.8308823529411765
3.27564285847,0.8382352941176471
3.28566978034,0.8455882352941176
3.28580801815,0.8529411764705882
3.28656204128,0.8602941176470589
3.28657193924,0.8676470588235294
3.28658225029,0.875
3.28658225029,0.8823529411764706
4.10708477902,0.8897058823529411
4.90572808048,0.8970588235294118
4.92814443232,0.9044117647058824
6.02234885128,0.9117647058823529
6.54756102148,0.9191176470588235
6.57314355809,0.9264705882352942
9.85974653729,0.9338235294117647
13.4163521652,0.9411764705882353
23.8274650464,0.9485294117647058
24.3596206586,0.9558823529411765
31.4947726916,0.9632352941176471
39.0486185372,0.9705882352941176
39.7074947724,0.9779411764705882
40.7316940335,0.9852941176470589
42.9517100306,0.9926470588235294
44.7464662008,1.0
