Congestion,CDF
0.0,0.007352941176470588
0.0,0.014705882352941176
0.0,0.022058823529411766
0.0,0.029411764705882353
0.0,0.03676470588235294
0.0,0.04411764705882353
0.0,0.051470588235294115
0.0,0.058823529411764705
0.0,0.0661764705882353
0.0,0.07352941176470588
0.0,0.08088235294117647
0.0,0.08823529411764706
0.0,0.09558823529411764
0.0,0.10294117647058823
1.52382089765e-05,0.11029411764705882
1.52382089765e-05,0.11764705882352941
1.52382089765e-05,0.125
1.52382089765e-05,0.1323529411764706
1.52382089765e-05,0.13970588235294118
1.52382089765e-05,0.14705882352941177
1.52382089765e-05,0.15441176470588236
1.52382089765e-05,0.16176470588235295
1.52382089765e-05,0.16911764705882354
1.52382089765e-05,0.17647058823529413
1.52382089765e-05,0.18382352941176472
1.52382089765e-05,0.19117647058823528
1.52382089765e-05,0.19852941176470587
1.52382089765e-05,0.20588235294117646
1.52382089765e-05,0.21323529411764705
1.52382089765e-05,0.22058823529411764
1.52382089765e-05,0.22794117647058823
1.52382089765e-05,0.23529411764705882
1.52382089765e-05,0.2426470588235294
1.52382089765e-05,0.25
1.52382089765e-05,0.25735294117647056
1.52382089765e-05,0.2647058823529412
1.52382089765e-05,0.27205882352941174
1.52382089765e-05,0.27941176470588236
1.52382089765e-05,0.2867647058823529
1.52382089765e-05,0.29411764705882354
1.52382089765e-05,0.3014705882352941
0.000380955224414,0.3088235294117647
0.000380955224414,0.3161764705882353
0.000411431642367,0.3235294117647059
0.000761910448827,0.33088235294117646
0.000761910448827,0.3382352941176471
0.000761910448827,0.34558823529411764
0.000761910448827,0.35294117647058826
0.00114286567324,0.3602941176470588
0.00126985074805,0.36764705882352944
0.00126985074805,0.375
0.00126985074805,0.38235294117647056
0.00152382089765,0.3897058823529412
0.00152382089765,0.39705882352941174
0.00152382089765,0.40441176470588236
0.00152382089765,0.4117647058823529
0.00152382089765,0.41911764705882354
0.00152382089765,0.4264705882352941
0.00152382089765,0.4338235294117647
0.00190477612207,0.4411764705882353
0.00228573134648,0.4485294117647059
0.00228573134648,0.45588235294117646
0.0027936716457,0.4632352941176471
0.00304764179531,0.47058823529411764
0.00304764179531,0.47794117647058826
0.00457146269296,0.4852941176470588
0.00622226866542,0.49264705882352944
0.011047701508,0.5
0.0113016716576,0.5073529411764706
0.0146032836025,0.5147058823529411
0.0176925052553,0.5220588235294118
0.0178158793777,0.5294117647058824
0.0181588656971,0.5367647058823529
0.0184128358467,0.5441176470588235
0.0190473051001,0.5514705882352942
0.0190715172886,0.5588235294117647
0.0190725832746,0.5661764705882353
0.0191003765933,0.5735294117647058
0.0191046641585,0.5808823529411765
0.0191221962003,0.5882352941176471
0.0191729424166,0.5955882352941176
0.0191791992574,0.6029411764705882
0.0191860117756,0.6102941176470589
0.0191873306435,0.6176470588235294
0.0191892170594,0.625
0.0191896380069,0.6323529411764706
0.0191905130051,0.6397058823529411
0.0191907390088,0.6470588235294118
0.0191909009144,0.6544117647058824
0.0191919260046,0.6617647058823529
0.0191925248974,0.6691176470588235
0.019197719586,0.6764705882352942
0.0191993227179,0.6838235294117647
0.019199328016,0.6911764705882353
0.0191994217667,0.6985294117647058
0.0191994238364,0.7058823529411765
0.0191995252702,0.7132352941176471
0.01919952665,0.7205882352941176
0.01919952665,0.7279411764705882
0.0196826865947,0.7352941176470589
0.0199366567443,0.7426470588235294
0.021460477642,0.75
0.479740950174,0.7573529411764706
0.479798150116,0.7647058823529411
0.514681764731,0.7720588235294118
0.956109810017,0.7794117647058824
0.956109810017,0.7867647058823529
0.959626244871,0.7941176470588235
0.959626244871,0.8014705882352942
1.43922285052,0.8088235294117647
1.59917966894,0.8161764705882353
1.59917966894,0.8235294117647058
1.59917966894,0.8308823529411765
1.91046641585,0.8382352941176471
1.91907390088,0.8455882352941176
1.91919260046,0.8529411764705882
1.9199328016,0.8602941176470589
1.91994238364,0.8676470588235294
1.919952665,0.875
1.919952665,0.8823529411764706
2.39883104161,0.8897058823529411
2.86326153888,0.8970588235294118
2.87835930922,0.9044117647058824
3.51709959468,0.9117647058823529
3.82050407518,0.9191176470588235
3.83988456031,0.9264705882352942
5.75985785702,0.9338235294117647
7.83613591195,0.9411764705882353
13.9194056408,0.9485294117647058
14.2266395583,0.9558823529411765
18.3979835132,0.9632352941176471
22.8151356824,0.9705882352941176
23.194944,0.9779411764705882
24.5843862079,0.9852941176470589
25.1022023275,0.9926470588235294
26.8837902653,1.0
