Congestion,CDF
0.0,0.007352941176470588
0.0,0.014705882352941176
0.0,0.022058823529411766
0.0,0.029411764705882353
0.0,0.03676470588235294
0.0,0.04411764705882353
0.0,0.051470588235294115
0.0,0.058823529411764705
0.0,0.0661764705882353
0.0,0.07352941176470588
0.0,0.08088235294117647
0.0,0.08823529411764706
0.0,0.09558823529411764
0.0,0.10294117647058823
1.58879043759e-05,0.11029411764705882
1.58879043759e-05,0.11764705882352941
1.58879043759e-05,0.125
1.58879043759e-05,0.1323529411764706
1.58879043759e-05,0.13970588235294118
1.58879043759e-05,0.14705882352941177
1.58879043759e-05,0.15441176470588236
1.58879043759e-05,0.16176470588235295
1.58879043759e-05,0.16911764705882354
1.58879043759e-05,0.17647058823529413
1.58879043759e-05,0.18382352941176472
1.58879043759e-05,0.19117647058823528
1.58879043759e-05,0.19852941176470587
1.58879043759e-05,0.20588235294117646
1.58879043759e-05,0.21323529411764705
1.58879043759e-05,0.22058823529411764
1.58879043759e-05,0.22794117647058823
1.58879043759e-05,0.23529411764705882
1.58879043759e-05,0.2426470588235294
1.58879043759e-05,0.25
1.58879043759e-05,0.25735294117647056
1.58879043759e-05,0.2647058823529412
1.58879043759e-05,0.27205882352941174
1.58879043759e-05,0.27941176470588236
1.58879043759e-05,0.2867647058823529
1.58879043759e-05,0.29411764705882354
1.58879043759e-05,0.3014705882352941
0.000254600337535,0.3088235294117647
0.000397197609396,0.3161764705882353
0.000397197609396,0.3235294117647059
0.000428973418148,0.33088235294117646
0.000704884879227,0.3382352941176471
0.000794395218793,0.34558823529411764
0.000794395218793,0.35294117647058826
0.000794395218793,0.3602941176470588
0.000794395218793,0.36764705882352944
0.00119159282819,0.375
0.00132399203132,0.38235294117647056
0.00132399203132,0.3897058823529412
0.00132399203132,0.39705882352941174
0.00158879043759,0.40441176470588236
0.00158879043759,0.4117647058823529
0.00158879043759,0.41911764705882354
0.00158879043759,0.4264705882352941
0.00158879043759,0.4338235294117647
0.00158879043759,0.4411764705882353
0.00158879043759,0.4485294117647059
0.00198598804698,0.45588235294117646
0.00238318565638,0.4632352941176471
0.00238318565638,0.47058823529411764
0.00291278246891,0.47794117647058826
0.00317758087517,0.4852941176470588
0.00317758087517,0.49264705882352944
0.00476637131276,0.5
0.00620805040875,0.5073529411764706
0.00638868844151,0.5147058823529411
0.00648756095347,0.5220588235294118
0.00682524286714,0.5294117647058824
0.00693437974965,0.5367647058823529
0.00702067165971,0.5441176470588235
0.00702464959876,0.5514705882352942
0.00718338562824,0.5588235294117647
0.00722876376741,0.5661764705882353
0.00723078642403,0.5735294117647058
0.00724822076949,0.5808823529411765
0.00725436826558,0.5882352941176471
0.00725533744889,0.5955882352941176
0.00725623239907,0.6029411764705882
0.00725799488223,0.6102941176470589
0.00725952174342,0.6176470588235294
0.00726002053107,0.625
0.00726092845447,0.6323529411764706
0.00727103505156,0.6397058823529411
0.00727468760548,0.6470588235294118
0.00727473068967,0.6544117647058824
0.00727492779638,0.6617647058823529
0.00727494117285,0.6691176470588235
0.00727506985731,0.6764705882352942
0.00727507877528,0.6838235294117647
0.00727507877528,0.6911764705882353
0.0115187306725,0.6985294117647058
0.0117835290788,0.7058823529411765
0.0152259083602,0.7132352941176471
0.0189330860479,0.7205882352941176
0.0191978844542,0.7279411764705882
0.0205218764855,0.7352941176470589
0.0207866748917,0.7426470588235294
0.0223754653293,0.75
0.17925227798,0.7573529411764706
0.181405809977,0.7647058823529411
0.181523211362,0.7720588235294118
0.351232479938,0.7794117647058824
0.351232479938,0.7867647058823529
0.363001026554,0.7941176470588235
0.363001026554,0.8014705882352942
0.544217429931,0.8088235294117647
0.604741296858,0.8161764705882353
0.604741296858,0.8235294117647058
0.604741296858,0.8308823529411765
0.702067165971,0.8382352941176471
0.725799488223,0.8455882352941176
0.726092845447,0.8529411764705882
0.727473068967,0.8602941176470589
0.727494117285,0.8676470588235294
0.727507877528,0.875
0.727507877528,0.8823529411764706
0.907357984319,0.8897058823529411
1.03375676665,0.8970588235294118
1.0878231035,0.9044117647058824
1.32781993926,0.9117647058823529
1.39550514094,0.9191176470588235
1.45498689692,0.9264705882352942
2.18252274079,0.9338235294117647
2.96343251429,0.9411764705882353
5.27397467859,0.9485294117647058
5.36082349631,0.9558823529411765
6.96882050715,0.9632352941176471
8.41089044478,0.9705882352941176
8.4813789327,0.9779411764705882
8.7795199874,0.9852941176470589
9.41838883155,0.9926470588235294
9.4438488653,1.0
