Congestion,CDF
0.0,0.007352941176470588
0.0,0.014705882352941176
0.0,0.022058823529411766
0.0,0.029411764705882353
0.0,0.03676470588235294
0.0,0.04411764705882353
0.0,0.051470588235294115
0.0,0.058823529411764705
0.0,0.0661764705882353
0.0,0.07352941176470588
0.0,0.08088235294117647
0.0,0.08823529411764706
0.0,0.09558823529411764
0.0,0.10294117647058823
1.50839986933e-05,0.11029411764705882
1.50839986933e-05,0.11764705882352941
1.50839986933e-05,0.125
1.50839986933e-05,0.1323529411764706
1.50839986933e-05,0.13970588235294118
1.50839986933e-05,0.14705882352941177
1.50839986933e-05,0.15441176470588236
1.50839986933e-05,0.16176470588235295
1.50839986933e-05,0.16911764705882354
1.50839986933e-05,0.17647058823529413
1.50839986933e-05,0.18382352941176472
1.50839986933e-05,0.19117647058823528
1.50839986933e-05,0.19852941176470587
1.50839986933e-05,0.20588235294117646
1.50839986933e-05,0.21323529411764705
1.50839986933e-05,0.22058823529411764
1.50839986933e-05,0.22794117647058823
1.50839986933e-05,0.23529411764705882
1.50839986933e-05,0.2426470588235294
1.50839986933e-05,0.25
1.50839986933e-05,0.25735294117647056
1.50839986933e-05,0.2647058823529412
1.50839986933e-05,0.27205882352941174
1.50839986933e-05,0.27941176470588236
1.50839986933e-05,0.2867647058823529
1.50839986933e-05,0.29411764705882354
1.50839986933e-05,0.3014705882352941
0.000377099967331,0.3088235294117647
0.000377099967331,0.3161764705882353
0.000407267964718,0.3235294117647059
0.000754199934663,0.33088235294117646
0.000754199934663,0.3382352941176471
0.000754199934663,0.34558823529411764
0.000754199934663,0.35294117647058826
0.00113129990199,0.3602941176470588
0.0012569998911,0.36764705882352944
0.0012569998911,0.375
0.0012569998911,0.38235294117647056
0.00150839986933,0.3897058823529412
0.00150839986933,0.39705882352941174
0.00150839986933,0.40441176470588236
0.00150839986933,0.4117647058823529
0.00150839986933,0.41911764705882354
0.00150839986933,0.4264705882352941
0.00150839986933,0.4338235294117647
0.00188549983666,0.4411764705882353
0.00226259980399,0.4485294117647059
0.00226259980399,0.45588235294117646
0.00276539976043,0.4632352941176471
0.00301679973865,0.47058823529411764
0.00301679973865,0.47794117647058826
0.00452519960798,0.4852941176470588
0.00615929946641,0.49264705882352944
0.0109358990526,0.5
0.0111872990308,0.5073529411764706
0.0144554987477,0.5147058823529411
0.0179750984428,0.5220588235294118
0.018226498421,0.5294117647058824
0.0194834983121,0.5367647058823529
0.0197348982903,0.5441176470588235
0.0211519793081,0.5514705882352942
0.0212432981597,0.5588235294117647
0.0222329785312,0.5661764705882353
0.0358068350412,0.5735294117647058
0.0358855081485,0.5808823529411765
0.0360937952955,0.5882352941176471
0.0361366637166,0.5955882352941176
0.0361700495626,0.6029411764705882
0.036180069811,0.6102941176470589
0.0362399779232,0.6176470588235294
0.036255679626,0.625
0.0362586057932,0.6323529411764706
0.0362645288493,0.6397058823529411
0.0362671775124,0.6470588235294118
0.0362677890181,0.6544117647058824
0.0362680434869,0.6617647058823529
0.0362688163012,0.6691176470588235
0.0362690400282,0.6764705882352942
0.0362701787092,0.6838235294117647
0.0362704254024,0.6911764705882353
0.0362759200078,0.6985294117647058
0.0362776998694,0.7058823529411765
0.03627771062,0.7132352941176471
0.0362778062751,0.7205882352941176
0.0362778093925,0.7279411764705882
0.0362779104134,0.7352941176470589
0.0362779124917,0.7426470588235294
0.0362779124917,0.75
0.906694725452,0.7573529411764706
0.90675446773,0.7647058823529411
0.948778823626,0.7720588235294118
1.80900349055,0.7794117647058824
1.80900349055,0.7867647058823529
1.81352127012,0.7941176470588235
1.81352127012,0.8014705882352942
2.72008417636,0.8088235294117647
3.02235511026,0.8161764705882353
3.02235511026,0.8235294117647058
3.02235511026,0.8308823529411765
3.61700495626,0.8382352941176471
3.62688163012,0.8455882352941176
3.62701787092,0.8529411764705882
3.627771062,0.8602941176470589
3.62778093925,0.8676470588235294
3.62779124917,0.875
3.62779124917,0.8823529411764706
4.53359872827,0.8897058823529411
5.4183830201,0.8970588235294118
5.43997415505,0.9044117647058824
6.64792307286,0.9117647058823529
7.23067132793,0.9191176470588235
7.25556156676,0.9264705882352942
10.8833735397,0.9338235294117647
14.8096398173,0.9411764705882353
26.3012306231,0.9485294117647058
26.8905641731,0.9558823529411765
34.7646990043,0.9632352941176471
43.1203020252,0.9705882352941176
43.8305337386,0.9779411764705882
45.235499956,0.9852941176470589
47.4190845535,0.9926470588235294
49.6423824066,1.0
