Congestion,CDF
0.0,0.007352941176470588
0.0,0.014705882352941176
0.0,0.022058823529411766
0.0,0.029411764705882353
0.0,0.03676470588235294
0.0,0.04411764705882353
0.0,0.051470588235294115
0.0,0.058823529411764705
0.0,0.0661764705882353
0.0,0.07352941176470588
0.0,0.08088235294117647
0.0,0.08823529411764706
0.0,0.09558823529411764
0.0,0.10294117647058823
1.51291194403e-05,0.11029411764705882
1.51291194403e-05,0.11764705882352941
1.51291194403e-05,0.125
1.51291194403e-05,0.1323529411764706
1.51291194403e-05,0.13970588235294118
1.51291194403e-05,0.14705882352941177
1.51291194403e-05,0.15441176470588236
1.51291194403e-05,0.16176470588235295
1.51291194403e-05,0.16911764705882354
1.51291194403e-05,0.17647058823529413
1.51291194403e-05,0.18382352941176472
1.51291194403e-05,0.19117647058823528
1.51291194403e-05,0.19852941176470587
1.51291194403e-05,0.20588235294117646
1.51291194403e-05,0.21323529411764705
1.51291194403e-05,0.22058823529411764
1.51291194403e-05,0.22794117647058823
1.51291194403e-05,0.23529411764705882
1.51291194403e-05,0.2426470588235294
1.51291194403e-05,0.25
1.51291194403e-05,0.25735294117647056
1.51291194403e-05,0.2647058823529412
1.51291194403e-05,0.27205882352941174
1.51291194403e-05,0.27941176470588236
1.51291194403e-05,0.2867647058823529
1.51291194403e-05,0.29411764705882354
1.51291194403e-05,0.3014705882352941
0.000378227986006,0.3088235294117647
0.000378227986006,0.3161764705882353
0.000408486224887,0.3235294117647059
0.000756455972013,0.33088235294117646
0.000756455972013,0.3382352941176471
0.000756455972013,0.34558823529411764
0.000756455972013,0.35294117647058826
0.00113468395802,0.3602941176470588
0.00126075995335,0.36764705882352944
0.00126075995335,0.375
0.00126075995335,0.38235294117647056
0.00151291194403,0.3897058823529412
0.00151291194403,0.39705882352941174
0.00151291194403,0.40441176470588236
0.00151291194403,0.4117647058823529
0.00151291194403,0.41911764705882354
0.00151291194403,0.4264705882352941
0.00151291194403,0.4338235294117647
0.00189113993003,0.4411764705882353
0.00226936791604,0.4485294117647059
0.00226936791604,0.45588235294117646
0.00277367189738,0.4632352941176471
0.00302582388805,0.47058823529411764
0.00302582388805,0.47794117647058826
0.00453873583208,0.4852941176470588
0.00617772377144,0.49264705882352944
0.0109686115942,0.5
0.0112207635849,0.5073529411764706
0.0126231750206,0.5147058823529411
0.0137599162579,0.5220588235294118
0.0144987394636,0.5294117647058824
0.018028867333,0.5367647058823529
0.0182810193236,0.5441176470588235
0.019541779277,0.5514705882352942
0.0197939312677,0.5588235294117647
0.0213068432117,0.5661764705882353
0.0289031493407,0.5735294117647058
0.0289953480324,0.5808823529411765
0.0292535649868,0.5882352941176471
0.0293004417318,0.5955882352941176
0.0293422470969,0.6029411764705882
0.0293500813196,0.6102941176470589
0.0294125506416,0.6176470588235294
0.0294309686557,0.625
0.0294327758986,0.6323529411764706
0.0294400193069,0.6397058823529411
0.0294428988502,0.6470588235294118
0.0294435649855,0.6544117647058824
0.0294436250917,0.6617647058823529
0.0294445646996,0.6691176470588235
0.0294448027601,0.6764705882352942
0.0294459759175,0.6838235294117647
0.0294461308985,0.6911764705882353
0.0294516884821,0.6985294117647058
0.0294535177993,0.7058823529411765
0.0294535300436,0.7132352941176471
0.029453626021,0.7205882352941176
0.0294536293632,0.7279411764705882
0.0294537302666,0.7352941176470589
0.0294537324948,0.7426470588235294
0.0294537324948,0.75
0.736089124637,0.7573529411764706
0.736149397936,0.7647058823529411
0.760982988458,0.7720588235294118
1.46750406598,0.7794117647058824
1.46750406598,0.7867647058823529
1.47230654493,0.7941176470588235
1.47230654493,0.8014705882352942
2.20826737391,0.8088235294117647
2.45366848425,0.8161764705882353
2.45366848425,0.8235294117647058
2.45366848425,0.8308823529411765
2.93422470969,0.8382352941176471
2.94445646996,0.8455882352941176
2.94459759175,0.8529411764705882
2.94535300436,0.8602941176470589
2.94536293632,0.8676470588235294
2.94537324948,0.875
2.94537324948,0.8823529411764706
3.68056940065,0.8897058823529411
4.39286056467,0.8970588235294118
4.41630847562,0.9044117647058824
5.39676534982,0.9117647058823529
5.86426888287,0.9191176470588235
5.89072553842,0.9264705882352942
8.83611952562,0.9338235294117647
12.023056864,0.9411764705882353
21.3536992463,0.9485294117647058
21.828581344,0.9558823529411765
28.2248431236,0.9632352941176471
34.9760257256,0.9705882352941176
35.5844291891,0.9779411764705882
36.2383432277,0.9852941176470589
38.4839639924,0.9926470588235294
39.8599556182,1.0
