Congestion,CDF
0.0,0.009433962264150943
0.0,0.018867924528301886
0.0,0.02830188679245283
0.0,0.03773584905660377
0.0,0.04716981132075472
0.0,0.05660377358490566
0.0,0.0660377358490566
0.0,0.07547169811320754
0.0,0.08490566037735849
0.0,0.09433962264150944
0.0,0.10377358490566038
0.0,0.11320754716981132
0.0,0.12264150943396226
0.0,0.1320754716981132
0.0,0.14150943396226415
0.0,0.1509433962264151
0.0,0.16037735849056603
0.0,0.16981132075471697
0.0,0.1792452830188679
0.0,0.18867924528301888
0.0,0.19811320754716982
0.0,0.20754716981132076
0.0,0.2169811320754717
0.0,0.22641509433962265
0.0,0.2358490566037736
0.0,0.24528301886792453
0.0,0.25471698113207547
0.0,0.2641509433962264
0.0,0.27358490566037735
0.0,0.2830188679245283
1.93662800067e-07,0.29245283018867924
4.98922098485e-06,0.3018867924528302
5.61046573036e-06,0.3113207547169811
7.60590712598e-06,0.32075471698113206
8.5856968531e-06,0.330188679245283
1.1424335133e-05,0.33962264150943394
1.74222866675e-05,0.3490566037735849
2.23014472869e-05,0.3584905660377358
2.36019450412e-05,0.36792452830188677
2.75276763337e-05,0.37735849056603776
3.38931619282e-05,0.3867924528301887
3.46697811066e-05,0.39622641509433965
3.65800309327e-05,0.4056603773584906
0.000234405617924,0.41509433962264153
0.000321309425615,0.42452830188679247
0.000321309425615,0.4339622641509434
0.000836304273257,0.44339622641509435
0.000836304273257,0.4528301886792453
0.000836304273257,0.46226415094339623
0.000856825134974,0.4716981132075472
0.000856825134974,0.4811320754716981
0.000856825134974,0.49056603773584906
0.00111459674354,0.5
0.00111939230172,0.5094339622641509
0.00112001354647,0.5188679245283019
0.00112200898786,0.5283018867924528
0.00112298877759,0.5377358490566038
0.00112582741587,0.5471698113207547
0.0011318253674,0.5566037735849056
0.00113670452802,0.5660377358490566
0.00113800502578,0.5754716981132075
0.00114193075707,0.5849056603773585
0.00114829624266,0.5943396226415094
0.00114907286184,0.6037735849056604
0.00115098311167,0.6132075471698113
0.00132281568076,0.6226415094339622
0.00157971502522,0.6320754716981132
0.00157971502522,0.6415094339622641
0.00167260854651,0.6509433962264151
0.00167260854651,0.660377358490566
0.0022817721378,0.6698113207547169
0.00290854488066,0.6792452830188679
0.00290854488066,0.6886792452830188
0.00360375644769,0.6981132075471698
0.00360375644769,0.7075471698113207
0.00455113602787,0.7169811320754716
0.00553553823964,0.7264150943396226
0.00748111283663,0.7358490566037735
0.0116656511727,0.7452830188679245
0.0118342634076,0.7547169811320755
0.0147216456675,0.7641509433962265
0.0252627021322,0.7735849056603774
0.0316638960713,0.7830188679245284
0.0316638960713,0.7924528301886793
0.0426264198009,0.8018867924528302
0.0426264198009,0.8113207547169812
0.0426264198009,0.8207547169811321
0.0844370561902,0.8301886792452831
0.0844370561902,0.839622641509434
0.0844370561902,0.8490566037735849
0.0852528396017,0.8584905660377359
0.0852528396017,0.8679245283018868
0.1896352349,0.8773584905660378
0.1896352349,0.8867924528301887
0.190964064755,0.8962264150943396
0.190964064755,0.9056603773584906
0.191659276322,0.9150943396226415
0.191659276322,0.9245283018867925
0.223949242548,0.9339622641509434
0.336602696359,0.9433962264150944
0.419223970957,0.9528301886792453
0.429566806449,0.9622641509433962
0.44433175128,0.9716981132075472
0.450630476448,0.9811320754716981
0.843283423389,0.9905660377358491
1.44612663007,1.0
