Congestion,CDF
0.0,0.007352941176470588
0.0,0.014705882352941176
0.0,0.022058823529411766
0.0,0.029411764705882353
0.0,0.03676470588235294
0.0,0.04411764705882353
0.0,0.051470588235294115
0.0,0.058823529411764705
0.0,0.0661764705882353
0.0,0.07352941176470588
0.0,0.08088235294117647
0.0,0.08823529411764706
0.0,0.09558823529411764
0.0,0.10294117647058823
1.86264514923e-05,0.11029411764705882
1.86264514923e-05,0.11764705882352941
1.86264514923e-05,0.125
1.86264514923e-05,0.1323529411764706
1.86264514923e-05,0.13970588235294118
1.86264514923e-05,0.14705882352941177
1.86264514923e-05,0.15441176470588236
1.86264514923e-05,0.16176470588235295
1.86264514923e-05,0.16911764705882354
1.86264514923e-05,0.17647058823529413
1.86264514923e-05,0.18382352941176472
1.86264514923e-05,0.19117647058823528
1.86264514923e-05,0.19852941176470587
1.86264514923e-05,0.20588235294117646
1.86264514923e-05,0.21323529411764705
1.86264514923e-05,0.22058823529411764
1.86264514923e-05,0.22794117647058823
1.86264514923e-05,0.23529411764705882
1.86264514923e-05,0.2426470588235294
1.86264514923e-05,0.25
1.86264514923e-05,0.25735294117647056
1.86264514923e-05,0.2647058823529412
1.86264514923e-05,0.27205882352941174
1.86264514923e-05,0.27941176470588236
1.86264514923e-05,0.2867647058823529
1.86264514923e-05,0.29411764705882354
1.86264514923e-05,0.3014705882352941
0.000129231194646,0.3088235294117647
0.000202951228471,0.3161764705882353
0.000370639794137,0.3235294117647059
0.000370639794137,0.33088235294117646
0.000370639794137,0.3382352941176471
0.000370639794137,0.34558823529411764
0.000384639193661,0.35294117647058826
0.000398638593185,0.3602941176470588
0.000398638593185,0.36764705882352944
0.000398638593185,0.375
0.000398638593185,0.38235294117647056
0.000398638593185,0.3897058823529412
0.000465661287308,0.39705882352941174
0.000465661287308,0.40441176470588236
0.000502914190292,0.4117647058823529
0.000931322574615,0.41911764705882354
0.000931322574615,0.4264705882352941
0.000931322574615,0.4338235294117647
0.000931322574615,0.4411764705882353
0.00105342931218,0.4485294117647059
0.00105342931218,0.45588235294117646
0.00105342931218,0.4632352941176471
0.00105342931218,0.47058823529411764
0.00105342931218,0.47794117647058826
0.00105342931218,0.4852941176470588
0.00105342931218,0.49264705882352944
0.00105342931218,0.5
0.00105342931218,0.5073529411764706
0.00105342931218,0.5147058823529411
0.00105342931218,0.5220588235294118
0.00105342931218,0.5294117647058824
0.00105342931218,0.5367647058823529
0.00107785390564,0.5441176470588235
0.00139698386192,0.5514705882352942
0.00155220429103,0.5588235294117647
0.00155220429103,0.5661764705882353
0.00155220429103,0.5735294117647058
0.00167864826212,0.5808823529411765
0.00186264514923,0.5882352941176471
0.00186264514923,0.5955882352941176
0.00186264514923,0.6029411764705882
0.00186264514923,0.6102941176470589
0.00186264514923,0.6176470588235294
0.00186264514923,0.625
0.00186264514923,0.6323529411764706
0.00232830643654,0.6397058823529411
0.00279396772385,0.6470588235294118
0.00279396772385,0.6544117647058824
0.00341484944026,0.6617647058823529
0.00372529029846,0.6691176470588235
0.00372529029846,0.6764705882352942
0.00507378071179,0.6838235294117647
0.00558793544769,0.6911764705882353
0.00760580102603,0.6985294117647058
0.0135041773319,0.7058823529411765
0.0138146181901,0.7132352941176471
0.0152213421354,0.7205882352941176
0.0178503493468,0.7279411764705882
0.0192319596831,0.7352941176470589
0.0192319596831,0.7426470588235294
0.0206436569853,0.75
0.0221965213617,0.7573529411764706
0.0225069622199,0.7647058823529411
0.0240591665109,0.7720588235294118
0.0243696073691,0.7794117647058824
0.0262322525183,0.7867647058823529
0.026946347641,0.7941176470588235
0.036327834841,0.8014705882352942
0.036327834841,0.8088235294117647
0.036327834841,0.8161764705882353
0.0370639794137,0.8235294117647058
0.0398638593185,0.8308823529411765
0.0449376400303,0.8382352941176471
0.0526714656088,0.8455882352941176
0.0526714656088,0.8529411764705882
0.0562959390968,0.8602941176470589
0.0741279588274,0.8676470588235294
0.0761916941596,0.875
0.105342931218,0.8823529411764706
0.105342931218,0.8897058823529411
0.105342931218,0.8970588235294118
0.105342931218,0.9044117647058824
0.107785390564,0.9117647058823529
0.158014396826,0.9191176470588235
0.160993193508,0.9264705882352942
0.210685862435,0.9338235294117647
0.29628070667,0.9411764705882353
0.316028793653,0.9485294117647058
0.463768584007,0.9558823529411765
0.63163341022,0.9632352941176471
0.764346866164,0.9705882352941176
0.958689097832,0.9779411764705882
1.22204642588,0.9852941176470589
1.32738935709,0.9926470588235294
1.43273228831,1.0
