Congestion,CDF
0.0,0.007352941176470588
0.0,0.014705882352941176
0.0,0.022058823529411766
0.0,0.029411764705882353
0.0,0.03676470588235294
0.0,0.04411764705882353
0.0,0.051470588235294115
0.0,0.058823529411764705
0.0,0.0661764705882353
0.0,0.07352941176470588
0.0,0.08088235294117647
0.0,0.08823529411764706
0.0,0.09558823529411764
0.0,0.10294117647058823
1.52652684549e-05,0.11029411764705882
1.52652684549e-05,0.11764705882352941
1.52652684549e-05,0.125
1.52652684549e-05,0.1323529411764706
1.52652684549e-05,0.13970588235294118
1.52652684549e-05,0.14705882352941177
1.52652684549e-05,0.15441176470588236
1.52652684549e-05,0.16176470588235295
1.52652684549e-05,0.16911764705882354
1.52652684549e-05,0.17647058823529413
1.52652684549e-05,0.18382352941176472
1.52652684549e-05,0.19117647058823528
1.52652684549e-05,0.19852941176470587
1.52652684549e-05,0.20588235294117646
1.52652684549e-05,0.21323529411764705
1.52652684549e-05,0.22058823529411764
1.52652684549e-05,0.22794117647058823
1.52652684549e-05,0.23529411764705882
1.52652684549e-05,0.2426470588235294
1.52652684549e-05,0.25
1.52652684549e-05,0.25735294117647056
1.52652684549e-05,0.2647058823529412
1.52652684549e-05,0.27205882352941174
1.52652684549e-05,0.27941176470588236
1.52652684549e-05,0.2867647058823529
1.52652684549e-05,0.29411764705882354
1.52652684549e-05,0.3014705882352941
0.000381631711373,0.3088235294117647
0.000381631711373,0.3161764705882353
0.000412162248283,0.3235294117647059
0.000763263422747,0.33088235294117646
0.000763263422747,0.3382352941176471
0.000763263422747,0.34558823529411764
0.000763263422747,0.35294117647058826
0.000974756185357,0.3602941176470588
0.00114489513412,0.36764705882352944
0.00127210570458,0.375
0.00127210570458,0.38235294117647056
0.00127210570458,0.3897058823529412
0.00152652684549,0.39705882352941174
0.00152652684549,0.40441176470588236
0.00152652684549,0.4117647058823529
0.00152652684549,0.41911764705882354
0.00152652684549,0.4264705882352941
0.00152652684549,0.4338235294117647
0.00152652684549,0.4411764705882353
0.00190815855687,0.4485294117647059
0.00202952128059,0.45588235294117646
0.00228979026824,0.4632352941176471
0.00228979026824,0.47058823529411764
0.00279863255007,0.47794117647058826
0.00305305369099,0.4852941176470588
0.00305305369099,0.49264705882352944
0.00457958053648,0.5
0.00623331795243,0.5073529411764706
0.0110673196298,0.5147058823529411
0.0113217407707,0.5220588235294118
0.0146292156026,0.5294117647058824
0.0181911115755,0.5367647058823529
0.0183050364347,0.5441176470588235
0.0184267369123,0.5514705882352942
0.0184455327164,0.5588235294117647
0.0187736139345,0.5661764705882353
0.0188312720844,0.5735294117647058
0.0188935607657,0.5808823529411765
0.0188951737042,0.5882352941176471
0.0189739128914,0.5955882352941176
0.0189995826041,0.6029411764705882
0.0189997043127,0.6102941176470589
0.0190105174185,0.6176470588235294
0.0190139988402,0.625
0.0190144551991,0.6323529411764706
0.0190149561948,0.6397058823529411
0.0190159695417,0.6470588235294118
0.0190163141407,0.6544117647058824
0.0190176234472,0.6617647058823529
0.019017700455,0.6691176470588235
0.0190239339471,0.6764705882352942
0.0190260940005,0.6838235294117647
0.0190261135871,0.6911764705882353
0.0190262142319,0.6985294117647058
0.0190262192211,0.7058823529411765
0.0190263345763,0.7132352941176471
0.0190263379025,0.7205882352941176
0.0190263379025,0.7279411764705882
0.019717638421,0.7352941176470589
0.0199720595619,0.7426470588235294
0.0214985864074,0.75
0.47537390487,0.7573529411764706
0.475442511374,0.7647058823529411
0.476431991716,0.7720588235294118
0.94475868521,0.7794117647058824
0.94475868521,0.7867647058823529
0.950881172358,0.7941176470588235
0.950881172358,0.8014705882352942
1.42612171461,0.8088235294117647
1.58461637758,0.8161764705882353
1.58461637758,0.8235294117647058
1.58461637758,0.8308823529411765
1.88935607657,0.8382352941176471
1.90159695417,0.8455882352941176
1.9017700455,0.8529411764705882
1.90261135871,0.8602941176470589
1.90262192211,0.8676470588235294
1.90263379025,0.875
1.90263379025,0.8823529411764706
2.37700531894,0.8897058823529411
2.82212007866,0.8970588235294118
2.85193291421,0.9044117647058824
3.484574638,0.9117647058823529
3.77248328501,0.9191176470588235
3.8052433453,0.9264705882352942
5.70790103813,0.9338235294117647
7.7646641706,0.9411764705882353
13.7938076536,0.9485294117647058
14.091388783,0.9558823529411765
18.2316985982,0.9632352941176471
22.5164957901,0.9705882352941176
22.6139714086,0.9779411764705882
22.9836019437,0.9852941176470589
24.8262756349,0.9926470588235294
25.029227763,1.0
