Congestion,CDF
0.0,0.007352941176470588
0.0,0.014705882352941176
0.0,0.022058823529411766
0.0,0.029411764705882353
0.0,0.03676470588235294
0.0,0.04411764705882353
0.0,0.051470588235294115
0.0,0.058823529411764705
0.0,0.0661764705882353
0.0,0.07352941176470588
0.0,0.08088235294117647
0.0,0.08823529411764706
0.0,0.09558823529411764
0.0,0.10294117647058823
1.59159435238e-05,0.11029411764705882
1.59159435238e-05,0.11764705882352941
1.59159435238e-05,0.125
1.59159435238e-05,0.1323529411764706
1.59159435238e-05,0.13970588235294118
1.59159435238e-05,0.14705882352941177
1.59159435238e-05,0.15441176470588236
1.59159435238e-05,0.16176470588235295
1.59159435238e-05,0.16911764705882354
1.59159435238e-05,0.17647058823529413
1.59159435238e-05,0.18382352941176472
1.59159435238e-05,0.19117647058823528
1.59159435238e-05,0.19852941176470587
1.59159435238e-05,0.20588235294117646
1.59159435238e-05,0.21323529411764705
1.59159435238e-05,0.22058823529411764
1.59159435238e-05,0.22794117647058823
1.59159435238e-05,0.23529411764705882
1.59159435238e-05,0.2426470588235294
1.59159435238e-05,0.25
1.59159435238e-05,0.25735294117647056
1.59159435238e-05,0.2647058823529412
1.59159435238e-05,0.27205882352941174
1.59159435238e-05,0.27941176470588236
1.59159435238e-05,0.2867647058823529
1.59159435238e-05,0.29411764705882354
1.59159435238e-05,0.3014705882352941
0.00025835234321,0.3088235294117647
0.000397898588094,0.3161764705882353
0.000397898588094,0.3235294117647059
0.000429730475142,0.33088235294117646
0.000712273626941,0.3382352941176471
0.000795797176189,0.34558823529411764
0.000795797176189,0.35294117647058826
0.000795797176189,0.3602941176470588
0.000795797176189,0.36764705882352944
0.00119369576428,0.375
0.00132632862698,0.38235294117647056
0.00132632862698,0.3897058823529412
0.00132632862698,0.39705882352941174
0.00159159435238,0.40441176470588236
0.00159159435238,0.4117647058823529
0.00159159435238,0.41911764705882354
0.00159159435238,0.4264705882352941
0.00159159435238,0.4338235294117647
0.00159159435238,0.4411764705882353
0.00159159435238,0.4485294117647059
0.00198949294047,0.45588235294117646
0.00238739152857,0.4632352941176471
0.00238739152857,0.47058823529411764
0.00291792297936,0.47794117647058826
0.00318318870475,0.4852941176470588
0.00318318870475,0.49264705882352944
0.00477478305713,0.5
0.00600454165043,0.5073529411764706
0.00618744677959,0.5147058823529411
0.00649901027221,0.5220588235294118
0.00662006693907,0.5294117647058824
0.00673034933414,0.5367647058823529
0.00681640741678,0.5441176470588235
0.00682453195696,0.5514705882352942
0.00698880553505,0.5588235294117647
0.00703592384641,0.5661764705882353
0.00703667311101,0.5735294117647058
0.00705562906499,0.5808823529411765
0.00706169696731,0.5882352941176471
0.00706288698945,0.5955882352941176
0.00706363407958,0.6029411764705882
0.00706555353465,0.6102941176470589
0.00706711901433,0.6176470588235294
0.00706803290219,0.625
0.00706864464375,0.6323529411764706
0.00707965059428,0.6397058823529411
0.0070835274671,0.6470588235294118
0.00708357081253,0.6544117647058824
0.00708377725568,0.6617647058823529
0.00708379075254,0.6691176470588235
0.00708393829852,0.6764705882352942
0.00708394729686,0.6838235294117647
0.00708394729686,0.6911764705882353
0.0115390590547,0.6985294117647058
0.0118043247801,0.7058823529411765
0.0152527792103,0.7132352941176471
0.0189664993658,0.7205882352941176
0.0192317650912,0.7279411764705882
0.0205580937182,0.7352941176470589
0.0208233594436,0.7426470588235294
0.022414953796,0.75
0.17439471951,0.7573529411764706
0.176590851989,0.7647058823529411
0.176716116094,0.7720588235294118
0.341226597848,0.7794117647058824
0.341226597848,0.7867647058823529
0.35340164511,0.7941176470588235
0.35340164511,0.8014705882352942
0.529772555968,0.8088235294117647
0.588696866993,0.8161764705882353
0.588696866993,0.8235294117647058
0.588696866993,0.8308823529411765
0.681640741678,0.8382352941176471
0.706555353465,0.8455882352941176
0.706864464375,0.8529411764705882
0.708357081253,0.8602941176470589
0.708379075254,0.8676470588235294
0.708394729686,0.875
0.708394729686,0.8823529411764706
0.883302753422,0.8897058823529411
1.00323329175,0.8970588235294118
1.05896455161,0.9044117647058824
1.29236417809,0.9117647058823529
1.35467567509,0.9191176470588235
1.41675680082,0.9264705882352942
2.12518328922,0.9338235294117647
2.88484367283,0.9411764705882353
5.1353660341,0.9485294117647058
5.21731500227,0.9558823529411765
6.78542960563,0.9632352941176471
8.17567813416,0.9705882352941176
8.24690549686,0.9779411764705882
8.54798654188,0.9852941176470589
9.16673121984,0.9926470588235294
9.19256645416,1.0
