Congestion,CDF
0.0,0.007352941176470588
0.0,0.014705882352941176
0.0,0.022058823529411766
0.0,0.029411764705882353
0.0,0.03676470588235294
0.0,0.04411764705882353
0.0,0.051470588235294115
0.0,0.058823529411764705
0.0,0.0661764705882353
0.0,0.07352941176470588
0.0,0.08088235294117647
0.0,0.08823529411764706
0.0,0.09558823529411764
0.0,0.10294117647058823
1.53044574364e-05,0.11029411764705882
1.53044574364e-05,0.11764705882352941
1.53044574364e-05,0.125
1.53044574364e-05,0.1323529411764706
1.53044574364e-05,0.13970588235294118
1.53044574364e-05,0.14705882352941177
1.53044574364e-05,0.15441176470588236
1.53044574364e-05,0.16176470588235295
1.53044574364e-05,0.16911764705882354
1.53044574364e-05,0.17647058823529413
1.53044574364e-05,0.18382352941176472
1.53044574364e-05,0.19117647058823528
1.53044574364e-05,0.19852941176470587
1.53044574364e-05,0.20588235294117646
1.53044574364e-05,0.21323529411764705
1.53044574364e-05,0.22058823529411764
1.53044574364e-05,0.22794117647058823
1.53044574364e-05,0.23529411764705882
1.53044574364e-05,0.2426470588235294
1.53044574364e-05,0.25
1.53044574364e-05,0.25735294117647056
1.53044574364e-05,0.2647058823529412
1.53044574364e-05,0.27205882352941174
1.53044574364e-05,0.27941176470588236
1.53044574364e-05,0.2867647058823529
1.53044574364e-05,0.29411764705882354
1.53044574364e-05,0.3014705882352941
0.000242390244945,0.3088235294117647
0.000382611435909,0.3161764705882353
0.000382611435909,0.3235294117647059
0.000413220350782,0.33088235294117646
0.000765222871818,0.3382352941176471
0.000765222871818,0.34558823529411764
0.000765222871818,0.35294117647058826
0.000765222871818,0.3602941176470588
0.000950278479347,0.36764705882352944
0.00114783430773,0.375
0.00127537145303,0.38235294117647056
0.00127537145303,0.3897058823529412
0.00127537145303,0.39705882352941174
0.00153044574364,0.40441176470588236
0.00153044574364,0.4117647058823529
0.00153044574364,0.41911764705882354
0.00153044574364,0.4264705882352941
0.00153044574364,0.4338235294117647
0.00153044574364,0.4411764705882353
0.00153044574364,0.4485294117647059
0.00191305717955,0.45588235294117646
0.00229566861545,0.4632352941176471
0.00229566861545,0.47058823529411764
0.00280581719667,0.47794117647058826
0.00306089148727,0.4852941176470588
0.00306089148727,0.49264705882352944
0.00459133723091,0.5
0.00624932011985,0.5073529411764706
0.0110957316414,0.5147058823529411
0.011350805932,0.5220588235294118
0.0146667717098,0.5294117647058824
0.0165630419433,0.5367647058823529
0.0166910375109,0.5441176470588235
0.0170545043926,0.5514705882352942
0.0171154237473,0.5588235294117647
0.0171812374371,0.5661764705882353
0.0171823098921,0.5735294117647058
0.0172652235187,0.5808823529411765
0.017292328968,0.5882352941176471
0.01729277771,0.5955882352941176
0.0173040056929,0.6029411764705882
0.0173077067316,0.6102941176470589
0.0173080689213,0.6176470588235294
0.0173087453449,0.625
0.0173097450664,0.6323529411764706
0.0173101255618,0.6397058823529411
0.0173113084864,0.6470588235294118
0.0173115566703,0.6544117647058824
0.0173178159014,0.6617647058823529
0.0173200437201,0.6691176470588235
0.0173200658198,0.6764705882352942
0.0173201678568,0.6838235294117647
0.0173201735064,0.6911764705882353
0.0173202886652,0.6985294117647058
0.0173202924317,0.7058823529411765
0.0173202924317,0.7132352941176471
0.0182378117783,0.7205882352941176
0.0184928860689,0.7279411764705882
0.019768257522,0.7352941176470589
0.0200233318126,0.7426470588235294
0.0215537775562,0.75
0.431860956653,0.7573529411764706
0.432718633623,0.7647058823529411
0.432788916759,0.7720588235294118
0.859061871854,0.7794117647058824
0.859061871854,0.7867647058823529
0.865565424318,0.7941176470588235
0.865565424318,0.8014705882352942
1.29815590087,0.8088235294117647
1.4424311081,0.8161764705882353
1.4424311081,0.8235294117647058
1.4424311081,0.8308823529411765
1.71823098921,0.8382352941176471
1.73097450664,0.8455882352941176
1.73115566703,0.8529411764705882
1.73200658198,0.8602941176470589
1.73201735064,0.8676470588235294
1.73202924317,0.875
1.73202924317,0.8823529411764706
2.1637311898,0.8897058823529411
2.56451231111,0.8970588235294118
2.5959659936,0.9044117647058824
3.1717088791,0.9117647058823529
3.42977336394,0.9191176470588235
3.46403413632,0.9264705882352942
5.19608735287,0.9338235294117647
7.06794369667,0.9411764705882353
12.5569213599,0.9485294117647058
12.8252367995,0.9558823529411765
16.5966994825,0.9632352941176471
20.4758266689,0.9705882352941176
20.5708545168,0.9779411764705882
20.9218983729,0.9852941176470589
22.591002124,0.9926470588235294
22.6152411485,1.0
