Congestion,CDF
0.0,0.007352941176470588
0.0,0.014705882352941176
0.0,0.022058823529411766
0.0,0.029411764705882353
0.0,0.03676470588235294
0.0,0.04411764705882353
0.0,0.051470588235294115
0.0,0.058823529411764705
0.0,0.0661764705882353
0.0,0.07352941176470588
0.0,0.08088235294117647
0.0,0.08823529411764706
0.0,0.09558823529411764
0.0,0.10294117647058823
1.5161109833e-05,0.11029411764705882
1.5161109833e-05,0.11764705882352941
1.5161109833e-05,0.125
1.5161109833e-05,0.1323529411764706
1.5161109833e-05,0.13970588235294118
1.5161109833e-05,0.14705882352941177
1.5161109833e-05,0.15441176470588236
1.5161109833e-05,0.16176470588235295
1.5161109833e-05,0.16911764705882354
1.5161109833e-05,0.17647058823529413
1.5161109833e-05,0.18382352941176472
1.5161109833e-05,0.19117647058823528
1.5161109833e-05,0.19852941176470587
1.5161109833e-05,0.20588235294117646
1.5161109833e-05,0.21323529411764705
1.5161109833e-05,0.22058823529411764
1.5161109833e-05,0.22794117647058823
1.5161109833e-05,0.23529411764705882
1.5161109833e-05,0.2426470588235294
1.5161109833e-05,0.25
1.5161109833e-05,0.25735294117647056
1.5161109833e-05,0.2647058823529412
1.5161109833e-05,0.27205882352941174
1.5161109833e-05,0.27941176470588236
1.5161109833e-05,0.2867647058823529
1.5161109833e-05,0.29411764705882354
1.5161109833e-05,0.3014705882352941
0.000379027745825,0.3088235294117647
0.000379027745825,0.3161764705882353
0.000409349965491,0.3235294117647059
0.000758055491649,0.33088235294117646
0.000758055491649,0.3382352941176471
0.000758055491649,0.34558823529411764
0.000758055491649,0.35294117647058826
0.00113708323747,0.3602941176470588
0.00126342581942,0.36764705882352944
0.00126342581942,0.375
0.00126342581942,0.38235294117647056
0.0015161109833,0.3897058823529412
0.0015161109833,0.39705882352941174
0.0015161109833,0.40441176470588236
0.0015161109833,0.4117647058823529
0.0015161109833,0.41911764705882354
0.0015161109833,0.4264705882352941
0.0015161109833,0.4338235294117647
0.00189513872912,0.4411764705882353
0.00227416647495,0.4485294117647059
0.00227416647495,0.45588235294117646
0.00277953680271,0.4632352941176471
0.0030322219666,0.47058823529411764
0.0030322219666,0.47794117647058826
0.0045483329499,0.4852941176470588
0.00619078651514,0.49264705882352944
0.0109918046289,0.5
0.0112444897928,0.5073529411764706
0.0145293969233,0.5147058823529411
0.0180669892176,0.5220588235294118
0.0183196743815,0.5294117647058824
0.0195831002009,0.5367647058823529
0.0198357853648,0.5441176470588235
0.0213518963481,0.5514705882352942
0.0226853202082,0.5588235294117647
0.0228654780539,0.5661764705882353
0.0247182140437,0.5735294117647058
0.0247500704156,0.5808823529411765
0.0247646842739,0.5882352941176471
0.0247954071926,0.5955882352941176
0.0248038168952,0.6029411764705882
0.0248217597008,0.6102941176470589
0.024878937864,0.6176470588235294
0.0248867438823,0.625
0.0248939882004,0.6323529411764706
0.0248961716953,0.6397058823529411
0.0248980806754,0.6470588235294118
0.0248986197294,0.6544117647058824
0.0248994336633,0.6617647058823529
0.0248998095425,0.6691176470588235
0.0249000259862,0.6764705882352942
0.0249011577325,0.6838235294117647
0.0249018442571,0.6911764705882353
0.0249075174428,0.6985294117647058
0.0249093122619,0.7058823529411765
0.0249093200719,0.7132352941176471
0.024909417073,0.7205882352941176
0.0249094198761,0.7279411764705882
0.0249095362028,0.7352941176470589
0.0249095380716,0.7426470588235294
0.0249095380716,0.75
0.622465493235,0.7573529411764706
0.622528943313,0.7647058823529411
0.667333163084,0.7720588235294118
1.24108798504,0.7794117647058824
1.24108798504,0.7867647058823529
1.24509221286,0.7941176470588235
1.24509221286,0.8014705882352942
1.86739647971,0.8088235294117647
2.07493045906,0.8161764705882353
2.07493045906,0.8235294117647058
2.07493045906,0.8308823529411765
2.48038168952,0.8382352941176471
2.48998095425,0.8455882352941176
2.49011577325,0.8529411764705882
2.49093200719,0.8602941176470589
2.49094198761,0.8676470588235294
2.49095380716,0.875
2.49095380716,0.8823529411764706
3.11246809185,0.8897058823529411
3.71755641243,0.8970588235294118
3.73470938239,0.9044117647058824
4.5636048473,0.9117647058823529
4.95992240878,0.9191176470588235
4.9818836949,0.9264705882352942
7.47286123459,0.9338235294117647
10.1673228715,0.9411764705882353
18.0591371062,0.9485294117647058
18.4599094902,0.9558823529411765
23.8699115224,0.9632352941176471
29.6092097158,0.9705882352941176
30.0940197248,0.9779411764705882
31.8777417366,0.9852941176470589
32.5690267664,0.9926470588235294
34.8555745718,1.0
