Congestion,CDF
0.0,0.007352941176470588
0.0,0.014705882352941176
0.0,0.022058823529411766
0.0,0.029411764705882353
0.0,0.03676470588235294
0.0,0.04411764705882353
0.0,0.051470588235294115
0.0,0.058823529411764705
0.0,0.0661764705882353
0.0,0.07352941176470588
0.0,0.08088235294117647
0.0,0.08823529411764706
0.0,0.09558823529411764
0.0,0.10294117647058823
1.50761895705e-05,0.11029411764705882
1.50761895705e-05,0.11764705882352941
1.50761895705e-05,0.125
1.50761895705e-05,0.1323529411764706
1.50761895705e-05,0.13970588235294118
1.50761895705e-05,0.14705882352941177
1.50761895705e-05,0.15441176470588236
1.50761895705e-05,0.16176470588235295
1.50761895705e-05,0.16911764705882354
1.50761895705e-05,0.17647058823529413
1.50761895705e-05,0.18382352941176472
1.50761895705e-05,0.19117647058823528
1.50761895705e-05,0.19852941176470587
1.50761895705e-05,0.20588235294117646
1.50761895705e-05,0.21323529411764705
1.50761895705e-05,0.22058823529411764
1.50761895705e-05,0.22794117647058823
1.50761895705e-05,0.23529411764705882
1.50761895705e-05,0.2426470588235294
1.50761895705e-05,0.25
1.50761895705e-05,0.25735294117647056
1.50761895705e-05,0.2647058823529412
1.50761895705e-05,0.27205882352941174
1.50761895705e-05,0.27941176470588236
1.50761895705e-05,0.2867647058823529
1.50761895705e-05,0.29411764705882354
1.50761895705e-05,0.3014705882352941
0.000376904739261,0.3088235294117647
0.000376904739261,0.3161764705882353
0.000407057118402,0.3235294117647059
0.000753809478523,0.33088235294117646
0.000753809478523,0.3382352941176471
0.000753809478523,0.34558823529411764
0.000753809478523,0.35294117647058826
0.00113071421778,0.3602941176470588
0.00125634913087,0.36764705882352944
0.00125634913087,0.375
0.00125634913087,0.38235294117647056
0.00150761895705,0.3897058823529412
0.00150761895705,0.39705882352941174
0.00150761895705,0.40441176470588236
0.00150761895705,0.4117647058823529
0.00150761895705,0.41911764705882354
0.00150761895705,0.4264705882352941
0.00150761895705,0.4338235294117647
0.00188452369631,0.4411764705882353
0.00226142843557,0.4485294117647059
0.00226142843557,0.45588235294117646
0.00276396808792,0.4632352941176471
0.00301523791409,0.47058823529411764
0.00301523791409,0.47794117647058826
0.00452285687114,0.4852941176470588
0.00615611074127,0.49264705882352944
0.0109302374386,0.5
0.0111815072648,0.5073529411764706
0.014448015005,0.5147058823529411
0.0179657925715,0.5220588235294118
0.0182170623976,0.5294117647058824
0.0194734115285,0.5367647058823529
0.0197246813547,0.5441176470588235
0.0212323003117,0.5514705882352942
0.023402791928,0.5588235294117647
0.0244444152061,0.5661764705882353
0.0373336840444,0.5735294117647058
0.0374103708091,0.5808823529411765
0.0376058090595,0.5882352941176471
0.037647063306,0.5955882352941176
0.0376789882496,0.6029411764705882
0.0376920319699,0.6102941176470589
0.037753702466,0.6176470588235294
0.0377688479186,0.625
0.0377729297628,0.6323529411764706
0.0377787243244,0.6397058823529411
0.0377811695399,0.6470588235294118
0.03778182378,0.6544117647058824
0.0377821942003,0.6617647058823529
0.037782955118,0.6691176470588235
0.0377832015686,0.6764705882352942
0.0377844048764,0.6838235294117647
0.0377848989262,0.6911764705882353
0.0377906967592,0.6985294117647058
0.0377926033807,0.7058823529411765
0.0377926143131,0.7132352941176471
0.0377927120014,0.7205882352941176
0.0377927152655,0.7279411764705882
0.0377928313602,0.7352941176470589
0.0377928335364,0.7426470588235294
0.0377928335364,0.75
0.944545594501,0.7573529411764706
0.944610121911,0.7647058823529411
0.991109847207,0.7720588235294118
1.8846015985,0.7794117647058824
1.8846015985,0.7867647058823529
1.88924494631,0.7941176470588235
1.88924494631,0.8014705882352942
2.8336367835,0.8088235294117647
3.14852803441,0.8161764705882353
3.14852803441,0.8235294117647058
3.14852803441,0.8308823529411765
3.76789882496,0.8382352941176471
3.7782955118,0.8455882352941176
3.77844048764,0.8529411764705882
3.77926143131,0.8602941176470589
3.77927152655,0.8676470588235294
3.77928335364,0.875
3.77928335364,0.8823529411764706
4.72286575137,0.8897058823529411
5.64518250445,0.8970588235294118
5.66711737875,0.9044117647058824
6.92541282627,0.9117647058823529
7.53260515556,0.9191176470588235
7.55854272669,0.9264705882352942
11.3378498433,0.9338235294117647
15.4279087176,0.9411764705882353
27.3995244613,0.9485294117647058
28.013293389,0.9558823529411765
36.2163671179,0.9632352941176471
44.9244494534,0.9705882352941176
45.6607774729,0.9779411764705882
47.2647286462,0.9852941176470589
49.4018145539,0.9926470588235294
51.8462560745,1.0
