Congestion,CDF
0.0,0.005555555555555556
0.0,0.011111111111111112
0.0,0.016666666666666666
0.0,0.022222222222222223
0.0,0.027777777777777776
0.0,0.03333333333333333
0.0,0.03888888888888889
0.0,0.044444444444444446
0.0,0.05
0.0,0.05555555555555555
1.04588413604e-06,0.06111111111111111
1.20167057253e-06,0.06666666666666667
2.70486089641e-06,0.07222222222222222
3.95331154169e-06,0.07777777777777778
4.04521056039e-06,0.08333333333333333
5.3410704824e-06,0.08888888888888889
5.87588443485e-06,0.09444444444444444
8.09830864363e-06,0.1
8.14008822313e-06,0.10555555555555556
8.3280743463e-06,0.1111111111111111
8.49947567184e-06,0.11666666666666667
9.35618629523e-06,0.12222222222222222
9.57320079197e-06,0.12777777777777777
1.06903347133e-05,0.13333333333333333
1.0949050435e-05,0.1388888888888889
1.15294895724e-05,0.14444444444444443
1.33317059931e-05,0.15
1.45903161269e-05,0.15555555555555556
1.52352289142e-05,0.16111111111111112
1.58452645543e-05,0.16666666666666666
1.6095969171e-05,0.17222222222222222
1.62252411191e-05,0.17777777777777778
1.67628065019e-05,0.18333333333333332
1.73452820773e-05,0.18888888888888888
1.76380778536e-05,0.19444444444444445
1.78372680884e-05,0.2
1.79362293372e-05,0.20555555555555555
1.81421979834e-05,0.2111111111111111
1.83194800793e-05,0.21666666666666667
1.83596802513e-05,0.2222222222222222
1.89731243303e-05,0.22777777777777777
1.91314147118e-05,0.23333333333333334
1.93510314427e-05,0.2388888888888889
2.09561291401e-05,0.24444444444444444
2.20513277206e-05,0.25
2.39413278432e-05,0.25555555555555554
2.43206114288e-05,0.2611111111111111
2.46706026574e-05,0.26666666666666666
2.55060710387e-05,0.2722222222222222
9.01620298804e-05,0.2777777777777778
0.000180324059761,0.2833333333333333
0.000197665577084,0.28888888888888886
0.000197665577084,0.29444444444444445
0.000203502205578,0.3
0.000203502205578,0.3055555555555556
0.000308090619183,0.3111111111111111
0.000404521056039,0.31666666666666665
0.000407004411157,0.32222222222222224
0.000541898489682,0.3277777777777778
0.000809830864363,0.3333333333333333
0.000842197667423,0.3388888888888889
0.00089186340442,0.34444444444444444
0.00089186340442,0.35
0.0011391208351,0.35555555555555557
0.00173452820773,0.3611111111111111
0.00176380778536,0.36666666666666664
0.00182018968899,0.37222222222222223
0.00196089687575,0.37777777777777777
0.00207464689008,0.38333333333333336
0.00207464689008,0.3888888888888889
0.00236572055884,0.39444444444444443
0.00250013397005,0.4
0.00268831447768,0.40555555555555556
0.00287406467689,0.4111111111111111
0.00357049623286,0.4166666666666667
0.00377511667409,0.4222222222222222
0.0039719593231,0.42777777777777776
0.004883128425,0.43333333333333335
0.00573307599219,0.4388888888888889
0.0060025179719,0.4444444444444444
0.00741204775865,0.45
0.00839665075622,0.45555555555555555
0.0149387466846,0.46111111111111114
0.0181743248061,0.4666666666666667
0.01902340711,0.4722222222222222
0.0207249319099,0.4777777777777778
0.0212285398821,0.48333333333333334
0.022334528827,0.4888888888888889
0.0225791544164,0.49444444444444446
0.0239123250157,0.5
0.0258254664869,0.5055555555555555
0.0259866665239,0.5111111111111111
0.0264130549304,0.5166666666666667
0.0268194739586,0.5222222222222223
0.0277767940378,0.5277777777777778
0.0309617793324,0.5333333333333333
0.0312266259614,0.5388888888888889
0.0353086333275,0.5444444444444444
0.0354761082584,0.55
0.0354782751369,0.5555555555555556
0.0354936430561,0.5611111111111111
0.0354987679999,0.5666666666666667
0.0355024966921,0.5722222222222222
0.0355169541769,0.5777777777777777
0.0355346732477,0.5833333333333334
0.0355722654091,0.5888888888888889
0.0355728676574,0.5944444444444444
0.0355777757761,0.6
0.0355894623415,0.6055555555555555
0.035607440849,0.6111111111111112
0.0356111762736,0.6166666666666667
0.0356162343988,0.6222222222222222
0.0356229393292,0.6277777777777778
0.0356592200949,0.6333333333333333
0.0356608299389,0.6388888888888888
0.035669580317,0.6444444444444445
0.0356769411413,0.65
0.0356778470102,0.6555555555555556
0.0356852196171,0.6611111111111111
0.0356904421845,0.6666666666666666
0.0356981795247,0.6722222222222223
0.0357023765461,0.6777777777777778
0.0357049727093,0.6833333333333333
0.0357064330853,0.6888888888888889
0.0357090465709,0.6944444444444444
0.0357120107731,0.7
0.0357205800209,0.7055555555555556
0.0357256965962,0.7111111111111111
0.035747534701,0.7166666666666667
0.0357620591467,0.7222222222222222
0.0357882382049,0.7277777777777777
0.0357932856229,0.7333333333333333
0.0357982702352,0.7388888888888889
0.0358087408452,0.7444444444444445
0.889321691436,0.75
0.889321691436,0.7555555555555555
1.18329226666,0.7611111111111111
1.38086562411,0.7666666666666667
1.7751248346,0.7722222222222223
1.7751248346,0.7777777777777778
1.77864338287,0.7833333333333333
1.78524863546,0.7888888888888889
1.78524863546,0.7944444444444444
2.36658453333,0.8
3.55169541769,0.8055555555555556
3.55722654091,0.8111111111111111
3.56981795247,0.8166666666666667
3.57023765461,0.8222222222222222
4.43693251728,0.8277777777777777
4.44826792559,0.8333333333333334
5.34104684409,0.8388888888888889
5.34599272037,0.8444444444444444
5.35847040639,0.85
5.64308628354,0.8555555555555555
5.64308628354,0.8611111111111112
7.12644888779,0.8666666666666667
7.14101902978,0.8722222222222222
7.99039984205,0.8777777777777778
8.91689737745,0.8833333333333333
9.19764318614,0.8888888888888888
9.21514428563,0.8944444444444445
11.5573578737,0.9
16.3544261587,0.9055555555555556
18.3885569834,0.9111111111111111
20.4724027097,0.9166666666666666
21.946334561,0.9222222222222223
24.0512265302,0.9277777777777778
41.8714040282,0.9333333333333333
43.6884714998,0.9388888888888889
47.2693455843,0.9444444444444444
50.8370396984,0.95
52.565637617,0.9555555555555556
56.1418435317,0.9611111111111111
59.7466085042,0.9666666666666667
61.4785918062,0.9722222222222222
63.277471837,0.9777777777777777
65.0408857391,0.9833333333333333
66.3736497702,0.9888888888888889
68.5902500447,0.9944444444444445
71.7129126408,1.0
