Congestion,CDF
0.0,0.005555555555555556
0.0,0.011111111111111112
0.0,0.016666666666666666
0.0,0.022222222222222223
0.0,0.027777777777777776
0.0,0.03333333333333333
0.0,0.03888888888888889
0.0,0.044444444444444446
0.0,0.05
0.0,0.05555555555555555
1.12267446206e-06,0.06111111111111111
1.28989896404e-06,0.06666666666666667
2.90345569569e-06,0.07222222222222222
4.24356939308e-06,0.07777777777777778
4.34221577065e-06,0.08333333333333333
5.73321960245e-06,0.08888888888888889
6.30730036883e-06,0.09444444444444444
8.69289817751e-06,0.1
8.73774527416e-06,0.10555555555555556
8.93953361039e-06,0.1111111111111111
9.12351946917e-06,0.11666666666666667
1.00431310257e-05,0.12222222222222222
1.02760790406e-05,0.12777777777777777
1.14752345503e-05,0.13333333333333333
1.17529455544e-05,0.1388888888888889
1.23760013729e-05,0.14444444444444443
1.43105391299e-05,0.15
1.56615582402e-05,0.15555555555555556
1.6353821457e-05,0.16111111111111112
1.70086467962e-05,0.16666666666666666
1.72777585084e-05,0.17222222222222222
1.741652179e-05,0.17777777777777778
1.79935560007e-05,0.18333333333333332
1.86187977753e-05,0.18888888888888888
1.8933091041e-05,0.19444444444444445
1.9146906111e-05,0.2
1.92531332378e-05,0.20555555555555555
1.94742243999e-05,0.2111111111111111
1.96645228037e-05,0.21666666666666667
1.97076745305e-05,0.2222222222222222
2.0366158561e-05,0.22777777777777777
2.05360708513e-05,0.23333333333333334
2.07718121603e-05,0.2388888888888889
2.24947584522e-05,0.24444444444444444
2.36703680965e-05,0.25
2.56991347618e-05,0.25555555555555554
2.61062658969e-05,0.2611111111111111
2.64819539876e-05,0.26666666666666666
2.73787636659e-05,0.2722222222222222
9.67818565231e-05,0.2777777777777778
0.000193563713046,0.2833333333333333
0.000212178469654,0.28888888888888886
0.000212178469654,0.29444444444444445
0.000218443631854,0.3
0.000218443631854,0.3055555555555556
0.000304513261627,0.3111111111111111
0.00033071107806,0.31666666666666665
0.000434221577065,0.32222222222222224
0.000436887263708,0.3277777777777778
0.000581685460587,0.3333333333333333
0.00079954471215,0.3388888888888889
0.000869289817751,0.34444444444444444
0.000904033038305,0.35
0.000957345305549,0.35555555555555557
0.000957345305549,0.3611111111111111
0.00122275673442,0.36666666666666664
0.00186187977753,0.37222222222222223
0.0018933091041,0.37777777777777777
0.00195383064865,0.38333333333333336
0.00210486876058,0.3888888888888889
0.00222697046548,0.39444444444444443
0.00222697046548,0.4
0.00253941518401,0.40555555555555556
0.00268369742228,0.4111111111111111
0.00285174771343,0.4166666666666667
0.00288569441496,0.4222222222222222
0.00308508266247,0.42777777777777776
0.00327302100501,0.43333333333333335
0.00328040304474,0.4388888888888889
0.00335120433315,0.4444444444444444
0.0033852704855,0.45
0.00341423383002,0.45555555555555555
0.00344438205058,0.46111111111111114
0.00347533655904,0.4666666666666667
0.00360520610321,0.4722222222222222
0.00360720899665,0.4777777777777778
0.00362414494578,0.48333333333333334
0.00366450438038,0.4888888888888889
0.00372710867648,0.49444444444444446
0.00373952773791,0.5
0.00376223851139,0.5055555555555555
0.00380668777559,0.5111111111111111
0.00383264723058,0.5166666666666667
0.00391104701636,0.5222222222222223
0.00394106228537,0.5277777777777778
0.00394137947568,0.5333333333333333
0.00397004505289,0.5388888888888889
0.00397487033831,0.5444444444444444
0.00401336692882,0.55
0.00402926021425,0.5555555555555556
0.004040565931,0.5611111111111111
0.00405229120057,0.5666666666666667
0.00405459473027,0.5722222222222222
0.0040638432857,0.5777777777777777
0.00406862790944,0.5833333333333334
0.0040781099045,0.5888888888888889
0.00408834651296,0.5944444444444444
0.00411747966378,0.6
0.00413524136613,0.6055555555555555
0.00421078394433,0.6111111111111112
0.00426179808877,0.6166666666666667
0.00426358632158,0.6222222222222222
0.00435140273394,0.6277777777777778
0.00436911278149,0.6333333333333333
0.00438585243194,0.6388888888888888
0.00442396698827,0.6444444444444445
0.00524165477684,0.65
0.00615400672376,0.6555555555555556
0.00644323152333,0.6611111111111111
0.00795625102575,0.6666666666666666
0.00901314499951,0.6722222222222223
0.0160355710733,0.6777777777777778
0.0195087100203,0.6833333333333333
0.0204201331752,0.6888888888888889
0.0222465863869,0.6944444444444444
0.0227871699848,0.7
0.0239743622378,0.7055555555555556
0.0242369485918,0.7111111111111111
0.0256680025048,0.7166666666666667
0.0277216095899,0.7222222222222222
0.0278946451668,0.7277777777777777
0.0283523396268,0.7333333333333333
0.0287885985278,0.7388888888888889
0.0298162064319,0.7444444444444445
0.0901802249162,0.75
0.0901802249162,0.7555555555555555
0.111706811105,0.7611111111111111
0.143547041707,0.7666666666666667
0.169263524275,0.7722222222222223
0.169263524275,0.7777777777777778
0.180360449832,0.7833333333333333
0.203192164285,0.7888888888888889
0.203192164285,0.7944444444444444
0.22341362221,0.8
0.341423383002,0.8055555555555556
0.360520610321,0.8111111111111111
0.4040565931,0.8166666666666667
0.405459473027,0.8222222222222222
0.417482325417,0.8277777777777777
0.456630662954,0.8333333333333334
0.563369752812,0.8388888888888889
0.575903031932,0.8444444444444444
0.608156044513,0.85
0.608156044513,0.8555555555555555
0.618945693026,0.8611111111111112
0.762501777435,0.8666666666666667
0.765015981321,0.8722222222222222
0.812891244395,0.8777777777777778
0.959442175695,0.8833333333333333
0.983714022382,0.8888888888888888
1.01990401089,0.8944444444444445
1.15915392889,0.9
1.8267001768,0.9055555555555556
1.89563852468,0.9111111111111111
2.13639084011,0.9166666666666666
2.25805301926,0.9222222222222223
2.5715311135,0.9277777777777778
4.491615987,0.9333333333333333
4.80504765843,0.9388888888888889
5.24744435725,0.9444444444444444
5.64493139109,0.95
5.65112226973,0.9555555555555556
6.07730207861,0.9611111111111111
6.61122716532,0.9666666666666667
6.62278945402,0.9722222222222222
6.89640193667,0.9777777777777777
6.97635640788,0.9833333333333333
7.00345823158,0.9888888888888889
7.34789643664,0.9944444444444445
7.3783477628,1.0
