Congestion,CDF
0.0,0.005555555555555556
0.0,0.011111111111111112
0.0,0.016666666666666666
0.0,0.022222222222222223
0.0,0.027777777777777776
0.0,0.03333333333333333
0.0,0.03888888888888889
0.0,0.044444444444444446
0.0,0.05
0.0,0.05555555555555555
1.06698901121e-06,0.06111111111111111
1.2259190591e-06,0.06666666666666667
2.75944223062e-06,0.07222222222222222
4.03308533662e-06,0.07777777777777778
4.12683878379e-06,0.08333333333333333
5.44884783738e-06,0.08888888888888889
5.99445378994e-06,0.09444444444444444
8.26172425261e-06,0.1
8.30434690141e-06,0.10555555555555556
8.49612639282e-06,0.1111111111111111
8.6709864223e-06,0.11666666666666667
9.5449845923e-06,0.12222222222222222
9.76637822026e-06,0.12777777777777777
1.09060547648e-05,0.13333333333333333
1.11699911058e-05,0.1388888888888889
1.17621429131e-05,0.14444444444444443
1.3600726223e-05,0.15
1.48847338257e-05,0.15555555555555556
1.55426602953e-05,0.16111111111111112
1.61650058324e-05,0.16666666666666666
1.64207694126e-05,0.17222222222222222
1.65526499368e-05,0.17777777777777778
1.71010628407e-05,0.18333333333333332
1.76952921792e-05,0.18888888888888888
1.79939962756e-05,0.19444444444444445
1.81972059662e-05,0.2
1.82981641521e-05,0.20555555555555555
1.85082890355e-05,0.2111111111111111
1.86891485033e-05,0.21666666666666667
1.87301598737e-05,0.2222222222222222
1.93559826286e-05,0.22777777777777777
1.95174671486e-05,0.23333333333333334
1.97415155212e-05,0.2388888888888889
2.1379002453e-05,0.24444444444444444
2.24963010239e-05,0.25
2.44244394214e-05,0.25555555555555554
2.48113765629e-05,0.2611111111111111
2.51684302575e-05,0.26666666666666666
2.60207575386e-05,0.2722222222222222
9.19814076873e-05,0.2777777777777778
0.000183962815375,0.2833333333333333
0.000201654266831,0.28888888888888886
0.000201654266831,0.29444444444444445
0.000207608672535,0.3
0.000207608672535,0.3055555555555556
0.000314307573657,0.3111111111111111
0.000412683878379,0.31666666666666665
0.00041521734507,0.32222222222222224
0.000416079337077,0.3277777777777778
0.000552833448522,0.3333333333333333
0.000826172425261,0.3388888888888889
0.000859192357395,0.34444444444444444
0.000909860298311,0.35
0.000909860298311,0.35555555555555557
0.00116210713177,0.3611111111111111
0.00118496223362,0.36666666666666664
0.00176952921792,0.37222222222222223
0.00179939962756,0.37777777777777777
0.00185691926051,0.38333333333333336
0.00200046577479,0.3888888888888889
0.00211651114839,0.39444444444444443
0.00211651114839,0.4
0.00241345838692,0.40555555555555556
0.00255058412368,0.4111111111111111
0.00274256192203,0.4166666666666667
0.00293206037082,0.4222222222222222
0.00364254520529,0.42777777777777776
0.00385129467834,0.43333333333333335
0.00405210941125,0.4388888888888889
0.00498166497632,0.4444444444444444
0.00584876361855,0.45
0.00612364266261,0.45555555555555555
0.00756161532288,0.46111111111111114
0.00856608660475,0.4666666666666667
0.0101735282931,0.4722222222222222
0.0104292638772,0.4777777777777778
0.0104354859619,0.48333333333333334
0.0104951076911,0.4888888888888889
0.0105295890226,0.49444444444444446
0.0105481837931,0.5
0.010599634915,0.5055555555555555
0.010674887681,0.5111111111111111
0.0107089994852,0.5166666666666667
0.0107106892877,0.5222222222222223
0.0107249524554,0.5277777777777778
0.0107589396696,0.5333333333333333
0.0108116466657,0.5388888888888889
0.0108221167258,0.5444444444444444
0.0108420459323,0.55
0.0108888154506,0.5555555555555556
0.0109665545283,0.5611111111111111
0.0109920923361,0.5666666666666667
0.011003991952,0.5722222222222222
0.0110162381579,0.5777777777777777
0.0110214920782,0.5833333333333334
0.0110527178821,0.5888888888888889
0.0110756171514,0.5944444444444444
0.011078948584,0.6
0.0110874360367,0.6055555555555555
0.0110952171643,0.6111111111111112
0.0110992535989,0.6166666666666667
0.0111072283242,0.6222222222222222
0.0111158536453,0.6277777777777778
0.0111403915031,0.6333333333333333
0.0111553451958,0.6388888888888888
0.0112189647289,0.6444444444444445
0.011261988213,0.65
0.0113373746425,0.6555555555555556
0.0113522941606,0.6611111111111111
0.0113663901943,0.6666666666666666
0.0113985908301,0.6722222222222223
0.0152401953566,0.6777777777777778
0.0185410641447,0.6833333333333333
0.0194072800636,0.6888888888888889
0.0211431398985,0.6944444444444444
0.0216569101659,0.7
0.0227852168398,0.7055555555555556
0.0230347787241,0.7111111111111111
0.0243948513464,0.7166666666666667
0.0263465980613,0.7222222222222222
0.0265110509506,0.7277777777777777
0.0269460434402,0.7333333333333333
0.0273606635899,0.7388888888888889
0.0283373014119,0.7444444444444445
0.267767232191,0.75
0.267767232191,0.7555555555555555
0.349836923035,0.7611111111111111
0.405698909386,0.7666666666666667
0.526479451132,0.7722222222222223
0.526479451132,0.7777777777777778
0.535534464383,0.7833333333333333
0.554760858216,0.7888888888888889
0.554760858216,0.7944444444444444
0.69967384607,0.8
1.05481837931,0.8055555555555556
1.07089994852,0.8111111111111111
1.10756171514,0.8166666666666667
1.10874360367,0.8222222222222222
1.31069361991,0.8277777777777777
1.34366119915,0.8333333333333334
1.62687864633,0.8388888888888889
1.63592552479,0.8444444444444444
1.67217348381,0.85
1.72702950123,0.8555555555555555
1.72702950123,0.8611111111111112
2.1767148522,0.8666666666666667
2.21914707967,0.8722222222222222
2.37065711141,0.8777777777777778
2.74664835721,0.8833333333333333
2.79015357502,0.8888888888888888
2.84106865154,0.8944444444444445
3.46986634502,0.9
5.05508404343,0.9055555555555556
5.56073167244,0.9111111111111111
6.21106167133,0.9166666666666666
6.63322691798,0.9222222222222223
7.34479913558,0.9277777777777778
12.7982363213,0.9333333333333333
13.4458239885,0.9388888888888889
14.5856830715,0.9444444444444444
15.6878322794,0.95
16.0765749893,0.9555555555555556
17.2027738106,0.9611111111111111
18.4226057841,0.9666666666666667
18.813457855,0.9722222222222222
19.4399586134,0.9777777777777777
19.5584548368,0.9833333333333333
19.9023394,0.9888888888888889
20.9698281681,0.9944444444444445
21.0114361018,1.0
