Congestion,CDF
0.0,0.005555555555555556
0.0,0.011111111111111112
0.0,0.016666666666666666
0.0,0.022222222222222223
0.0,0.027777777777777776
0.0,0.03333333333333333
0.0,0.03888888888888889
0.0,0.044444444444444446
0.0,0.05
0.0,0.05555555555555555
1.0518369101e-06,0.06111111111111111
1.20851002364e-06,0.06666666666666667
2.72025593418e-06,0.07222222222222222
3.97581228491e-06,0.07777777777777778
4.06823435781e-06,0.08333333333333333
5.37146982083e-06,0.08888888888888889
5.90932773055e-06,0.09444444444444444
8.14440113127e-06,0.1
8.18641850421e-06,0.10555555555555556
8.37547457278e-06,0.1111111111111111
8.54785144937e-06,0.11666666666666667
9.40943814325e-06,0.12222222222222222
9.62768780383e-06,0.12777777777777777
1.07511800259e-05,0.13333333333333333
1.10113682589e-05,0.1388888888888889
1.15951110347e-05,0.14444444444444443
1.34075849847e-05,0.15
1.46733586479e-05,0.15555555555555556
1.53219420331e-05,0.16111111111111112
1.59354497636e-05,0.16666666666666666
1.61875812955e-05,0.17222222222222222
1.63175890103e-05,0.17777777777777778
1.68582140104e-05,0.18333333333333332
1.74440048149e-05,0.18888888888888888
1.77384670733e-05,0.19444444444444445
1.7938791023e-05,0.2
1.80383155215e-05,0.20555555555555555
1.82454564628e-05,0.2111111111111111
1.84237475809e-05,0.21666666666666667
1.84641765569e-05,0.2222222222222222
1.90811121259e-05,0.22777777777777777
1.9240303436e-05,0.23333333333333334
1.94611701417e-05,0.2388888888888889
2.10754034436e-05,0.24444444444444444
2.21768354772e-05,0.25
2.40775927605e-05,0.25555555555555554
2.44590350838e-05,0.2611111111111111
2.48110183291e-05,0.26666666666666666
2.56512418781e-05,0.2722222222222222
9.0675197806e-05,0.2777777777777778
0.000181350395612,0.2833333333333333
0.000198790614246,0.28888888888888886
0.000198790614246,0.29444444444444445
0.000204660462605,0.3
0.000204660462605,0.3055555555555556
0.000309844153616,0.3111111111111111
0.000406823435781,0.31666666666666665
0.000409320925211,0.32222222222222224
0.000544982769441,0.3277777777777778
0.000814440113127,0.3333333333333333
0.000846991135698,0.3388888888888889
0.00089693955115,0.34444444444444444
0.00089693955115,0.35
0.00114560427693,0.35555555555555557
0.00174440048149,0.3611111111111111
0.00177384670733,0.36666666666666664
0.00183054951528,0.37222222222222223
0.00197205755374,0.37777777777777777
0.00208645498981,0.38333333333333336
0.00208645498981,0.3888888888888889
0.002379185339,0.39444444444444443
0.00251436378014,0.4
0.00270361533953,0.40555555555555556
0.00289042275812,0.4111111111111111
0.00359081813718,0.4166666666666667
0.00379660320001,0.4222222222222222
0.00399456620239,0.42777777777777776
0.0049109213317,0.43333333333333335
0.00576570647664,0.4388888888888889
0.00603668201745,0.4444444444444444
0.00745423431076,0.45
0.0084444412935,0.45555555555555555
0.0124673313985,0.46111111111111114
0.0129278057004,0.4666666666666667
0.0150237723396,0.4722222222222222
0.0182777661391,0.4777777777777778
0.0191316810961,0.48333333333333334
0.0208428903269,0.4888888888888889
0.0209915732489,0.49444444444444446
0.0211636257552,0.5
0.0211681098943,0.5055555555555555
0.0212109621093,0.5111111111111111
0.0212330157118,0.5166666666666667
0.021249085447,0.5222222222222223
0.0212860799153,0.5277777777777778
0.0213493646438,0.5333333333333333
0.0213527279768,0.5388888888888889
0.0213646848862,0.5444444444444444
0.0213659085891,0.55
0.0213761624517,0.5555555555555556
0.0214005922433,0.5611111111111111
0.0214384156702,0.5666666666666667
0.0214459993894,0.5722222222222222
0.0214596497187,0.5777777777777777
0.0214912591898,0.5833333333333334
0.0215498154186,0.5888888888888889
0.0215681586152,0.5944444444444444
0.0215719126007,0.6
0.0215854993176,0.6055555555555555
0.0215882584085,0.6111111111111112
0.0216117425854,0.6166666666666667
0.0216271900534,0.6222222222222222
0.0216281440115,0.6277777777777778
0.0216366962567,0.6333333333333333
0.0216422552936,0.6388888888888888
0.0216451876786,0.6444444444444445
0.021650864857,0.65
0.0216570640185,0.6555555555555556
0.0216747580114,0.6611111111111111
0.0216854958029,0.6666666666666666
0.0217312090861,0.6722222222222223
0.0217620231734,0.6777777777777778
0.0218163162228,0.6833333333333333
0.021827005278,0.6888888888888889
0.0218371959262,0.6944444444444444
0.0218600919595,0.7
0.0224616484564,0.7055555555555556
0.0227076663615,0.7111111111111111
0.02404842486,0.7166666666666667
0.0259724552036,0.7222222222222222
0.0261345727298,0.7277777777777777
0.0265633879766,0.7333333333333333
0.0269721201871,0.7388888888888889
0.0279348889675,0.7444444444444445
0.534147714729,0.75
0.534147714729,0.7555555555555555
0.70703207031,0.7611111111111111
0.821549873871,0.7666666666666667
1.06165078559,0.7722222222222223
1.06165078559,0.7777777777777778
1.06829542946,0.7833333333333333
1.08211276468,0.7888888888888889
1.08211276468,0.7944444444444444
1.41406414062,0.8
2.1249085447,0.8055555555555556
2.13646848862,0.8111111111111111
2.16281440115,0.8166666666666667
2.16366962567,0.8222222222222222
2.65051029025,0.8277777777777777
2.67420693906,0.8333333333333334
3.21884204566,0.8388888888888889
3.22595433169,0.8444444444444444
3.25201502208,0.85
3.40533955082,0.8555555555555555
3.40533955082,0.8611111111111112
4.2980294533,0.8666666666666667
4.328520803,0.8722222222222222
4.77911828177,0.8777777777777778
5.3910408174,0.8833333333333333
5.53622055124,0.8888888888888888
5.57281535196,0.8944444444444445
6.9359341433,0.9
9.89765923617,0.9055555555555556
11.0583710915,0.9111111111111111
12.3230649769,0.9166666666666666
13.1959873366,0.9222222222222223
14.5046965992,0.9277777777777778
25.2581653407,0.9333333333333333
26.4069587474,0.9388888888888889
28.5929679433,0.9444444444444444
30.7517937842,0.95
31.7147447257,0.9555555555555556
33.8909470431,0.9611111111111111
36.1333548352,0.9666666666666667
37.0985628005,0.9722222222222222
38.2325121601,0.9777777777777777
39.2476887195,0.9833333333333333
39.4792452999,0.9888888888888889
41.3829615172,0.9944444444444445
42.6757420872,1.0
