Congestion,CDF
0.0142456407362,0.007352941176470588
0.0142456407362,0.014705882352941176
0.0147739226194,0.022058823529411766
0.0147739226194,0.029411764705882353
0.0148502764898,0.03676470588235294
0.0148502764898,0.04411764705882353
0.0151777456373,0.051470588235294115
0.0151777456373,0.058823529411764705
0.0151829591508,0.0661764705882353
0.0151829591508,0.07352941176470588
0.0156016834129,0.08088235294117647
0.0156016834129,0.08823529411764706
0.0156068051307,0.09558823529411764
0.0156068051307,0.10294117647058823
0.0157509627645,0.11029411764705882
0.0157509627645,0.11764705882352941
0.0161845001059,0.125
0.0161845001059,0.1323529411764706
0.0162845410824,0.13970588235294118
0.0162845410824,0.14705882352941177
0.0164844898672,0.15441176470588236
0.0164844898672,0.16176470588235295
0.0165708856733,0.16911764705882354
0.0165708856733,0.17647058823529413
0.0165886204099,0.18382352941176472
0.0165886204099,0.19117647058823528
0.0166568111198,0.19852941176470587
0.0166568111198,0.20588235294117646
0.0169034895301,0.21323529411764705
0.0169034895301,0.22058823529411764
0.0173791447838,0.22794117647058823
0.0173791447838,0.23529411764705882
0.0173968283981,0.2426470588235294
0.0173968283981,0.25
0.0177505916924,0.25735294117647056
0.0177505916924,0.2647058823529412
0.0181414431534,0.27205882352941174
0.0181414431534,0.27941176470588236
0.0182163798294,0.2867647058823529
0.0182163798294,0.29411764705882354
0.0183415751698,0.3014705882352941
0.0183415751698,0.3088235294117647
0.0186451299227,0.3161764705882353
0.0186451299227,0.3235294117647059
0.0187473662329,0.33088235294117646
0.0187473662329,0.3382352941176471
0.0192497594657,0.34558823529411764
0.0192497594657,0.35294117647058826
0.0194763423302,0.3602941176470588
0.0194763423302,0.36764705882352944
0.0205272216437,0.375
0.0205272216437,0.38235294117647056
0.0209903418832,0.3897058823529412
0.0209903418832,0.39705882352941174
0.0213081330957,0.40441176470588236
0.0213081330957,0.4117647058823529
0.046950484079,0.41911764705882354
0.046950484079,0.4264705882352941
0.143411074432,0.4338235294117647
0.143411074432,0.4411764705882353
0.423347425188,0.4485294117647059
0.423347425188,0.45588235294117646
0.556988839712,0.4632352941176471
0.556988839712,0.47058823529411764
0.635128871429,0.47794117647058826
0.635128871429,0.4852941176470588
0.671131629134,0.49264705882352944
0.671131629134,0.5
0.725552579726,0.5073529411764706
0.725552579726,0.5147058823529411
0.835396872217,0.5220588235294118
0.835396872217,0.5294117647058824
0.93012736812,0.5367647058823529
0.93012736812,0.5441176470588235
1.00889083818,0.5514705882352942
1.00889083818,0.5588235294117647
1.07750272463,0.5661764705882353
1.07750272463,0.5735294117647058
1.15465635941,0.5808823529411765
1.15465635941,0.5882352941176471
1.25445100588,0.5955882352941176
1.25445100588,0.6029411764705882
1.3795526819,0.6102941176470589
1.3795526819,0.6176470588235294
1.44540497152,0.625
1.44540497152,0.6323529411764706
1.50333272142,0.6397058823529411
1.50333272142,0.6470588235294118
1.61013808325,0.6544117647058824
1.61013808325,0.6617647058823529
1.7975181345,0.6691176470588235
1.7975181345,0.6764705882352942
1.83184469974,0.6838235294117647
1.83184469974,0.6911764705882353
1.95499305712,0.6985294117647058
1.95499305712,0.7058823529411765
1.98115175755,0.7132352941176471
1.98115175755,0.7205882352941176
2.00352862684,0.7279411764705882
2.00352862684,0.7352941176470589
2.04866360384,0.7426470588235294
2.04866360384,0.75
2.13081330957,0.7573529411764706
2.13081330957,0.7647058823529411
2.15967791387,0.7720588235294118
2.15967791387,0.7794117647058824
2.32191632388,0.7867647058823529
2.32191632388,0.7941176470588235
2.4702865892,0.8014705882352942
2.4702865892,0.8088235294117647
2.69955790763,0.8161764705882353
2.69955790763,0.8235294117647058
2.73235655176,0.8308823529411765
2.73235655176,0.8382352941176471
2.80523973941,0.8455882352941176
2.80523973941,0.8529411764705882
2.94200045442,0.8602941176470589
2.94200045442,0.8676470588235294
3.03661018966,0.875
3.03661018966,0.8823529411764706
3.08198374164,0.8897058823529411
3.08198374164,0.8970588235294118
3.86370068925,0.9044117647058824
3.86370068925,0.9117647058823529
4.55129276901,0.9191176470588235
4.55129276901,0.9264705882352942
4.75789279279,0.9338235294117647
4.75789279279,0.9411764705882353
5.7414534244,0.9485294117647058
5.7414534244,0.9558823529411765
5.93503624568,0.9632352941176471
5.93503624568,0.9705882352941176
7.71143513111,0.9779411764705882
7.71143513111,0.9852941176470589
8.87646445105,0.9926470588235294
8.87646445105,1.0
