Congestion,CDF
0.0,0.007352941176470588
0.0,0.014705882352941176
0.0,0.022058823529411766
0.0,0.029411764705882353
0.0105883580314,0.03676470588235294
0.0105883580314,0.04411764705882353
0.0111273232294,0.051470588235294115
0.0111273232294,0.058823529411764705
0.0122081297631,0.0661764705882353
0.0122081297631,0.07352941176470588
0.0129276809546,0.08088235294117647
0.0129276809546,0.08823529411764706
0.013100030001,0.09558823529411764
0.013100030001,0.10294117647058823
0.013845336079,0.11029411764705882
0.013845336079,0.11764705882352941
0.0138574760975,0.125
0.0138574760975,0.1323529411764706
0.0144431893278,0.13970588235294118
0.0144431893278,0.14705882352941177
0.0148075965851,0.15441176470588236
0.0148075965851,0.16176470588235295
0.0154831029681,0.16911764705882354
0.0154831029681,0.17647058823529413
0.0156306555503,0.18382352941176472
0.0156306555503,0.19117647058823528
0.015682908635,0.19852941176470587
0.015682908635,0.20588235294117646
0.016255817078,0.21323529411764705
0.016255817078,0.22058823529411764
0.0172061984681,0.22794117647058823
0.0172061984681,0.23529411764705882
0.0173508397824,0.2426470588235294
0.0173508397824,0.25
0.0177503268303,0.25735294117647056
0.0177503268303,0.2647058823529412
0.0180636875426,0.27205882352941174
0.0180636875426,0.27941176470588236
0.0180694722329,0.2867647058823529
0.0180694722329,0.29411764705882354
0.0182204437308,0.3014705882352941
0.0182204437308,0.3088235294117647
0.018398220243,0.3161764705882353
0.018398220243,0.3235294117647059
0.0191250022308,0.33088235294117646
0.0191250022308,0.3382352941176471
0.0203312629163,0.34558823529411764
0.0203312629163,0.35294117647058826
0.0217561655143,0.3602941176470588
0.0217561655143,0.36764705882352944
0.0230824293488,0.375
0.0230824293488,0.38235294117647056
0.0236113745836,0.3897058823529412
0.0236113745836,0.39705882352941174
0.0255297658469,0.40441176470588236
0.0255297658469,0.4117647058823529
0.0263960343679,0.41911764705882354
0.0263960343679,0.4264705882352941
0.0276607355557,0.4338235294117647
0.0276607355557,0.4411764705882353
0.247618920971,0.4485294117647059
0.247618920971,0.45588235294117646
0.378097958792,0.4632352941176471
0.378097958792,0.47058823529411764
0.430922603687,0.47794117647058826
0.430922603687,0.4852941176470588
0.610483908565,0.49264705882352944
0.610483908565,0.5
0.669802384506,0.5073529411764706
0.669802384506,0.5147058823529411
0.800776548725,0.5220588235294118
0.800776548725,0.5294117647058824
0.91244111466,0.5367647058823529
0.91244111466,0.5441176470588235
0.956410304249,0.5514705882352942
0.956410304249,0.5588235294117647
1.08596691287,0.5661764705882353
1.08596691287,0.5735294117647058
1.33681541891,0.5808823529411765
1.33681541891,0.5882352941176471
1.35242121043,0.5955882352941176
1.35242121043,0.6029411764705882
1.37544615057,0.6102941176470589
1.37544615057,0.6176470588235294
1.4610208276,0.625
1.4610208276,0.6323529411764706
1.47764533211,0.6397058823529411
1.47764533211,0.6470588235294118
1.90274878322,0.6544117647058824
1.90274878322,0.6617647058823529
1.91250022308,0.6691176470588235
1.91250022308,0.6764705882352942
1.99818235343,0.6838235294117647
1.99818235343,0.6911764705882353
2.03063424745,0.6985294117647058
2.03063424745,0.7058823529411765
2.16600658193,0.7132352941176471
2.16600658193,0.7205882352941176
2.2602616372,0.7279411764705882
2.2602616372,0.7352941176470589
2.36113745836,0.7426470588235294
2.36113745836,0.75
2.53634611072,0.7573529411764706
2.53634611072,0.7647058823529411
2.58507539896,0.7720588235294118
2.58507539896,0.7794117647058824
2.63960343679,0.7867647058823529
2.63960343679,0.7941176470588235
2.76607355557,0.8014705882352942
2.76607355557,0.8088235294117647
3.04182332382,0.8161764705882353
3.04182332382,0.8235294117647058
3.10487182984,0.8308823529411765
3.10487182984,0.8382352941176471
3.24182672302,0.8455882352941176
3.24182672302,0.8529411764705882
3.35609920266,0.8602941176470589
3.35609920266,0.8676470588235294
3.551062702,0.875
3.551062702,0.8823529411764706
4.05889648468,0.8897058823529411
4.05889648468,0.8970588235294118
4.80115340664,0.9044117647058824
4.80115340664,0.9117647058823529
5.58280141152,0.9191176470588235
5.58280141152,0.9264705882352942
6.15687940604,0.9338235294117647
6.15687940604,0.9411764705882353
7.23283438601,0.9485294117647058
7.23283438601,0.9558823529411765
7.95865357706,0.9632352941176471
7.95865357706,0.9705882352941176
10.4201198322,0.9779411764705882
10.4201198322,0.9852941176470589
12.1836869848,0.9926470588235294
12.1836869848,1.0
