Congestion,CDF
0.0105834506029,0.007352941176470588
0.0105834506029,0.014705882352941176
0.0108828296268,0.022058823529411766
0.0108828296268,0.029411764705882353
0.0109122409531,0.03676470588235294
0.0109122409531,0.04411764705882353
0.0111895920467,0.051470588235294115
0.0111895920467,0.058823529411764705
0.0112946858044,0.0661764705882353
0.0112946858044,0.07352941176470588
0.0115800177413,0.08088235294117647
0.0115800177413,0.08823529411764706
0.0116030135667,0.09558823529411764
0.0116030135667,0.10294117647058823
0.0116573512016,0.11029411764705882
0.0116573512016,0.11764705882352941
0.0117969196624,0.125
0.0117969196624,0.1323529411764706
0.0119345739061,0.13970588235294118
0.0119345739061,0.14705882352941177
0.0121085793956,0.15441176470588236
0.0121085793956,0.16176470588235295
0.0121702496986,0.16911764705882354
0.0121702496986,0.17647058823529413
0.0122719110094,0.18382352941176472
0.0122719110094,0.19117647058823528
0.0122893712989,0.19852941176470587
0.0122893712989,0.20588235294117646
0.0124990264182,0.21323529411764705
0.0124990264182,0.22058823529411764
0.0127386170711,0.22794117647058823
0.0127386170711,0.23529411764705882
0.0128133963102,0.2426470588235294
0.0128133963102,0.25
0.0132481596933,0.25735294117647056
0.0132481596933,0.2647058823529412
0.0133518042863,0.27205882352941174
0.0133518042863,0.27941176470588236
0.0134875628408,0.2867647058823529
0.0134875628408,0.29411764705882354
0.0135279664674,0.3014705882352941
0.0135279664674,0.3088235294117647
0.0137548047555,0.3161764705882353
0.0137548047555,0.3235294117647059
0.0137606607176,0.33088235294117646
0.0137606607176,0.3382352941176471
0.0142386377922,0.34558823529411764
0.0142386377922,0.35294117647058826
0.0144335997623,0.3602941176470588
0.0144335997623,0.36764705882352944
0.0151962663143,0.375
0.0151962663143,0.38235294117647056
0.0155564457843,0.3897058823529412
0.0155564457843,0.39705882352941174
0.0156191891836,0.40441176470588236
0.0156191891836,0.4117647058823529
0.046950484079,0.41911764705882354
0.046950484079,0.4264705882352941
0.112952074594,0.4338235294117647
0.112952074594,0.4411764705882353
0.316918591839,0.4485294117647059
0.316918591839,0.45588235294117646
0.415608818553,0.4632352941176471
0.415608818553,0.47058823529411764
0.468372146336,0.47794117647058826
0.468372146336,0.4852941176470588
0.502475326025,0.49264705882352944
0.502475326025,0.5
0.546939908517,0.5073529411764706
0.546939908517,0.5147058823529411
0.622872618871,0.5220588235294118
0.622872618871,0.5294117647058824
0.69900971945,0.5367647058823529
0.69900971945,0.5441176470588235
0.755785648939,0.5514705882352942
0.755785648939,0.5588235294117647
0.805769438683,0.5661764705882353
0.805769438683,0.5735294117647058
0.844973649634,0.5808823529411765
0.844973649634,0.5882352941176471
0.925030475021,0.5955882352941176
0.925030475021,0.6029411764705882
1.01639003959,0.6102941176470589
1.01639003959,0.6176470588235294
1.06859187649,0.625
1.06859187649,0.6323529411764706
1.10220918255,0.6397058823529411
1.10220918255,0.6470588235294118
1.16390745548,0.6544117647058824
1.16390745548,0.6617647058823529
1.29637407339,0.6691176470588235
1.29637407339,0.6764705882352942
1.34232696959,0.6838235294117647
1.34232696959,0.6911764705882353
1.42031789298,0.6985294117647058
1.42031789298,0.7058823529411765
1.43858563017,0.7132352941176471
1.43858563017,0.7205882352941176
1.46042382526,0.7279411764705882
1.46042382526,0.7352941176470589
1.50582965331,0.7426470588235294
1.50582965331,0.75
1.55416314442,0.7573529411764706
1.55416314442,0.7647058823529411
1.56191891836,0.7720588235294118
1.56191891836,0.7794117647058824
1.66304026328,0.7867647058823529
1.66304026328,0.7941176470588235
1.8056382857,0.8014705882352942
1.8056382857,0.8088235294117647
1.91372783655,0.8161764705882353
1.91372783655,0.8235294117647058
2.00891395081,0.8308823529411765
2.00891395081,0.8382352941176471
2.03668443986,0.8455882352941176
2.03668443986,0.8529411764705882
2.11057646057,0.8602941176470589
2.11057646057,0.8676470588235294
2.20418927752,0.875
2.20418927752,0.8823529411764706
2.25668096211,0.8897058823529411
2.25668096211,0.8970588235294118
2.8104422736,0.9044117647058824
2.8104422736,0.9117647058823529
3.31569973482,0.9191176470588235
3.31569973482,0.9264705882352942
3.49857991246,0.9338235294117647
3.49857991246,0.9411764705882353
4.1967870497,0.9485294117647058
4.1967870497,0.9558823529411765
4.37555201976,0.9632352941176471
4.37555201976,0.9705882352941176
5.70034019057,0.9779411764705882
5.70034019057,0.9852941176470589
6.55001426742,0.9926470588235294
6.55001426742,1.0
