Congestion,CDF
0.0,0.007352941176470588
0.0,0.014705882352941176
0.036650811561,0.022058823529411766
0.036650811561,0.029411764705882353
0.0375736769462,0.03676470588235294
0.0375736769462,0.04411764705882353
0.0381737172109,0.051470588235294115
0.0381737172109,0.058823529411764705
0.0388891067403,0.0661764705882353
0.0388891067403,0.07352941176470588
0.0390972519541,0.08088235294117647
0.0390972519541,0.08823529411764706
0.0391410192789,0.09558823529411764
0.0391410192789,0.10294117647058823
0.0409416872219,0.11029411764705882
0.0409416872219,0.11764705882352941
0.0410830717023,0.125
0.0410830717023,0.1323529411764706
0.0414244168255,0.13970588235294118
0.0414244168255,0.14705882352941177
0.0429394891353,0.15441176470588236
0.0429394891353,0.16176470588235295
0.0430450758385,0.16911764705882354
0.0430450758385,0.17647058823529413
0.0430685700474,0.18382352941176472
0.0430685700474,0.19117647058823528
0.0430773280295,0.19852941176470587
0.0430773280295,0.20588235294117646
0.0431807263196,0.21323529411764705
0.0431807263196,0.22058823529411764
0.0435378622776,0.22794117647058823
0.0435378622776,0.23529411764705882
0.044504686583,0.2426470588235294
0.044504686583,0.25
0.0448503429254,0.25735294117647056
0.0448503429254,0.2647058823529412
0.045404359924,0.27205882352941174
0.045404359924,0.27941176470588236
0.0454300444303,0.2867647058823529
0.0454300444303,0.29411764705882354
0.0454709581488,0.3014705882352941
0.0454709581488,0.3088235294117647
0.0458695193463,0.3161764705882353
0.0458695193463,0.3235294117647059
0.0460766559809,0.33088235294117646
0.0460766559809,0.3382352941176471
0.0463635205542,0.34558823529411764
0.0463635205542,0.35294117647058826
0.0465541814186,0.3602941176470588
0.0465541814186,0.36764705882352944
0.0477417568814,0.375
0.0477417568814,0.38235294117647056
0.0491373856891,0.3897058823529412
0.0491373856891,0.39705882352941174
0.0492080689679,0.40441176470588236
0.0492080689679,0.4117647058823529
0.0533376835561,0.41911764705882354
0.0533376835561,0.4264705882352941
0.111439753124,0.4338235294117647
0.111439753124,0.4411764705882353
1.18746308001,0.4485294117647059
1.18746308001,0.45588235294117646
1.29893039792,0.4632352941176471
1.29893039792,0.47058823529411764
1.701424218,0.47794117647058826
1.701424218,0.4852941176470588
1.80102801234,0.49264705882352944
1.80102801234,0.5
1.86397861291,0.5073529411764706
1.86397861291,0.5147058823529411
2.18001710401,0.5220588235294118
2.18001710401,0.5294117647058824
2.22737829235,0.5367647058823529
2.22737829235,0.5441176470588235
2.64944064596,0.5514705882352942
2.64944064596,0.5588235294117647
2.67953030183,0.5661764705882353
2.67953030183,0.5735294117647058
3.30691767736,0.5808823529411765
3.30691767736,0.5882352941176471
3.3220978258,0.5955882352941176
3.3220978258,0.6029411764705882
3.83748212702,0.6102941176470589
3.83748212702,0.6176470588235294
3.96443548048,0.625
3.96443548048,0.6323529411764706
4.23804041194,0.6397058823529411
4.23804041194,0.6470588235294118
4.53906306851,0.6544117647058824
4.53906306851,0.6617647058823529
4.54300444303,0.6691176470588235
4.54300444303,0.6764705882352942
4.98234109849,0.6838235294117647
4.98234109849,0.6911764705882353
5.07139488279,0.6985294117647058
5.07139488279,0.7058823529411765
5.29153882002,0.7132352941176471
5.29153882002,0.7205882352941176
5.33376835561,0.7279411764705882
5.33376835561,0.7352941176470589
5.36503182973,0.7426470588235294
5.36503182973,0.75
5.42493015614,0.7573529411764706
5.42493015614,0.7647058823529411
6.1191006443,0.7720588235294118
6.1191006443,0.7794117647058824
6.33155701375,0.7867647058823529
6.33155701375,0.7941176470588235
6.53030734789,0.8014705882352942
6.53030734789,0.8088235294117647
7.13023654014,0.8161764705882353
7.13023654014,0.8235294117647058
7.4236163341,0.8308823529411765
7.4236163341,0.8382352941176471
7.87648472601,0.8455882352941176
7.87648472601,0.8529411764705882
8.12985981507,0.8602941176470589
8.12985981507,0.8676470588235294
8.23357773063,0.875
8.23357773063,0.8823529411764706
8.64139069919,0.8897058823529411
8.64139069919,0.8970588235294118
10.3184742168,0.9044117647058824
10.3184742168,0.9117647058823529
12.0363009272,0.9191176470588235
12.0363009272,0.9264705882352942
12.281673138,0.9338235294117647
12.281673138,0.9411764705882353
14.8768317855,0.9485294117647058
14.8768317855,0.9558823529411765
15.1043049022,0.9632352941176471
15.1043049022,0.9705882352941176
19.5002189842,0.9779411764705882
19.5002189842,0.9852941176470589
22.4181767137,0.9926470588235294
22.4181767137,1.0
