Congestion,CDF
0.0,0.007352941176470588
0.0,0.014705882352941176
0.010909433486,0.022058823529411766
0.010909433486,0.029411764705882353
0.0232157372861,0.03676470588235294
0.0232157372861,0.04411764705882353
0.0239541427252,0.051470588235294115
0.0239541427252,0.058823529411764705
0.0243937092717,0.0661764705882353
0.0243937092717,0.07352941176470588
0.0245690946574,0.08088235294117647
0.0245690946574,0.08823529411764706
0.0247945918012,0.09558823529411764
0.0247945918012,0.10294117647058823
0.0248136747013,0.11029411764705882
0.0248136747013,0.11764705882352941
0.0264417090294,0.125
0.0264417090294,0.1323529411764706
0.0265542304558,0.13970588235294118
0.0265542304558,0.14705882352941177
0.0281098826918,0.15441176470588236
0.0281098826918,0.16176470588235295
0.0282718052411,0.16911764705882354
0.0282718052411,0.17647058823529413
0.0294963634758,0.18382352941176472
0.0294963634758,0.19117647058823528
0.0295771137584,0.19852941176470587
0.0295771137584,0.20588235294117646
0.0296686206635,0.21323529411764705
0.0296686206635,0.22058823529411764
0.0301049754407,0.22794117647058823
0.0301049754407,0.23529411764705882
0.0301175173533,0.2426470588235294
0.0301175173533,0.25
0.0306325730351,0.25735294117647056
0.0306325730351,0.2647058823529412
0.0308328339376,0.27205882352941174
0.0308328339376,0.27941176470588236
0.0317751001991,0.2867647058823529
0.0317751001991,0.29411764705882354
0.0319558198575,0.3014705882352941
0.0319558198575,0.3088235294117647
0.0325668994835,0.3161764705882353
0.0325668994835,0.3235294117647059
0.0330032027154,0.33088235294117646
0.0330032027154,0.3382352941176471
0.0333035455395,0.34558823529411764
0.0333035455395,0.35294117647058826
0.0343712609499,0.3602941176470588
0.0343712609499,0.36764705882352944
0.0351915526604,0.375
0.0351915526604,0.38235294117647056
0.0354223502247,0.3897058823529412
0.0354223502247,0.39705882352941174
0.0371669858532,0.40441176470588236
0.0371669858532,0.4117647058823529
0.0375637000969,0.41911764705882354
0.0375637000969,0.4264705882352941
0.0402765696471,0.4338235294117647
0.0402765696471,0.4411764705882353
0.685769303919,0.4485294117647059
0.685769303919,0.45588235294117646
0.940581104187,0.4632352941176471
0.940581104187,0.47058823529411764
1.01322099177,0.47794117647058826
1.01322099177,0.4852941176470588
1.07140961395,0.49264705882352944
1.07140961395,0.5
1.21766838896,0.5073529411764706
1.21766838896,0.5147058823529411
1.57403098486,0.5220588235294118
1.57403098486,0.5294117647058824
1.5754175205,0.5367647058823529
1.5754175205,0.5441176470588235
1.73516379447,0.5514705882352942
1.73516379447,0.5588235294117647
2.01187377981,0.5661764705882353
2.01187377981,0.5735294117647058
2.27216965349,0.5808823529411765
2.27216965349,0.5882352941176471
2.42980742284,0.5955882352941176
2.42980742284,0.6029411764705882
2.49979977712,0.6102941176470589
2.49979977712,0.6176470588235294
2.60318603637,0.625
2.60318603637,0.6323529411764706
2.7997941714,0.6397058823529411
2.7997941714,0.6470588235294118
3.30032027154,0.6544117647058824
3.30032027154,0.6617647058823529
3.4262166615,0.6691176470588235
3.4262166615,0.6764705882352942
3.47384663966,0.6838235294117647
3.47384663966,0.6911764705882353
3.58442164793,0.6985294117647058
3.58442164793,0.7058823529411765
3.7500796259,0.7132352941176471
3.7500796259,0.7205882352941176
3.76727944318,0.7279411764705882
3.76727944318,0.7352941176470589
3.9046785375,0.7426470588235294
3.9046785375,0.75
4.02765696471,0.7573529411764706
4.02765696471,0.7647058823529411
4.02912098979,0.7720588235294118
4.02912098979,0.7794117647058824
4.55836565327,0.7867647058823529
4.55836565327,0.7941176470588235
4.84007173181,0.8014705882352942
4.84007173181,0.8088235294117647
5.1345832192,0.8161764705882353
5.1345832192,0.8235294117647058
5.48175492544,0.8308823529411765
5.48175492544,0.8382352941176471
5.55410880228,0.8455882352941176
5.55410880228,0.8529411764705882
5.89500721732,0.8602941176470589
5.89500721732,0.8676470588235294
6.00479082335,0.875
6.00479082335,0.8823529411764706
6.00589027569,0.8897058823529411
6.00589027569,0.8970588235294118
7.6878774877,0.9044117647058824
7.6878774877,0.9117647058823529
8.97545981631,0.9191176470588235
8.97545981631,0.9264705882352942
9.34064216358,0.9338235294117647
9.34064216358,0.9411764705882353
11.3607111988,0.9485294117647058
11.3607111988,0.9558823529411765
11.4679972593,0.9632352941176471
11.4679972593,0.9705882352941176
15.1095706593,0.9779411764705882
15.1095706593,0.9852941176470589
17.4807526571,0.9926470588235294
17.4807526571,1.0
