Congestion,CDF
0.0,0.009433962264150943
0.0,0.018867924528301886
0.0,0.02830188679245283
0.0,0.03773584905660377
0.0,0.04716981132075472
0.0,0.05660377358490566
0.0,0.0660377358490566
0.0,0.07547169811320754
0.0,0.08490566037735849
0.0,0.09433962264150944
0.0,0.10377358490566038
0.0,0.11320754716981132
0.0,0.12264150943396226
0.0,0.1320754716981132
0.0,0.14150943396226415
0.0,0.1509433962264151
0.0,0.16037735849056603
0.0,0.16981132075471697
0.0,0.1792452830188679
0.0,0.18867924528301888
0.0,0.19811320754716982
0.0,0.20754716981132076
0.0,0.2169811320754717
0.0,0.22641509433962265
0.0,0.2358490566037736
0.0,0.24528301886792453
0.0,0.25471698113207547
0.0,0.2641509433962264
0.0,0.27358490566037735
0.0,0.2830188679245283
4.88365597533e-08,0.29245283018867924
1.25814760845e-06,0.3018867924528302
1.41480885741e-06,0.3113207547169811
1.91800561444e-06,0.32075471698113206
2.16508228347e-06,0.330188679245283
2.88091066107e-06,0.33962264150943394
4.39343303714e-06,0.3490566037735849
5.62382637572e-06,0.3584905660377358
5.95177700054e-06,0.36792452830188677
6.94174105547e-06,0.37735849056603776
8.54694565587e-06,0.3867924528301887
8.74278816615e-06,0.39622641509433965
9.22450189613e-06,0.4056603773584906
5.91108047716e-05,0.41509433962264153
8.10256123426e-05,0.42452830188679247
8.10256123426e-05,0.4339622641509434
0.00021089348909,0.44339622641509435
0.00021089348909,0.4528301886792453
0.00021089348909,0.46226415094339623
0.00021606829958,0.4716981132075472
0.00021606829958,0.4811320754716981
0.00021606829958,0.49056603773584906
0.000333578606806,0.5
0.000398361725618,0.5094339622641509
0.000398361725618,0.5188679245283019
0.000421786978179,0.5283018867924528
0.000421786978179,0.5377358490566038
0.000575401684333,0.5471698113207547
0.000733456945838,0.5566037735849056
0.000733456945838,0.5660377358490566
0.000908770641721,0.5754716981132075
0.000908770641721,0.5849056603773585
0.00114767434166,0.5943396226415094
0.0013959141555,0.6037735849056604
0.00188653584448,0.6132075471698113
0.00294176408873,0.6226415094339622
0.00298428356835,0.6320754716981132
0.00637057535978,0.6415094339622641
0.00702804299162,0.6509433962264151
0.00749150575334,0.660377358490566
0.0170616386559,0.6698113207547169
0.017251079001,0.6792452830188679
0.0183026406514,0.6886792452830188
0.0247365180773,0.6981132075471698
0.0262957731449,0.7075471698113207
0.0272560611757,0.7169811320754716
0.0274715133652,0.7264150943396226
0.0328872819992,0.7358490566037735
0.0344908587503,0.7452830188679245
0.038347557674,0.7547169811320755
0.0387236691773,0.7641509433962265
0.317344140417,0.7735849056603774
0.772636313397,0.7830188679245284
0.772636313397,0.7924528301886793
1.02210229409,0.8018867924528302
1.02210229409,0.8113207547169812
1.02210229409,0.8207547169811321
2.04420458817,0.8301886792452831
2.04420458817,0.839622641509434
2.06036350239,0.8490566037735849
2.06036350239,0.8584905660377359
2.06036350239,0.8679245283018868
2.10841289749,0.8773584905660378
2.64192445087,0.8867924528301887
3.59826010725,0.8962264150943396
3.59826010725,0.9056603773584906
4.32207131765,0.9150943396226415
4.32207131765,0.9245283018867925
5.41943464337,0.9339622641509434
5.41943464337,0.9433962264150944
8.16094001522,0.9528301886792453
8.20356409289,0.9622641509433962
13.5565513475,0.9716981132075472
13.6693847985,0.9811320754716981
19.9123249443,0.9905660377358491
44.3180336036,1.0
