Congestion,CDF
0.0,0.009433962264150943
0.0,0.018867924528301886
0.0,0.02830188679245283
0.0,0.03773584905660377
0.0,0.04716981132075472
0.0,0.05660377358490566
0.0,0.0660377358490566
0.0,0.07547169811320754
0.0,0.08490566037735849
0.0,0.09433962264150944
0.0,0.10377358490566038
0.0,0.11320754716981132
0.0,0.12264150943396226
0.0,0.1320754716981132
0.0,0.14150943396226415
0.0,0.1509433962264151
0.0,0.16037735849056603
0.0,0.16981132075471697
0.0,0.1792452830188679
0.0,0.18867924528301888
0.0,0.19811320754716982
0.0,0.20754716981132076
0.0,0.2169811320754717
0.0,0.22641509433962265
0.0,0.2358490566037736
0.0,0.24528301886792453
0.0,0.25471698113207547
0.0,0.2641509433962264
0.0,0.27358490566037735
0.0,0.2830188679245283
5.1667158037e-08,0.29245283018867924
1.33107064969e-06,0.3018867924528302
1.49681208499e-06,0.3113207547169811
2.02917444836e-06,0.32075471698113206
2.29057183938e-06,0.330188679245283
3.04789008824e-06,0.33962264150943394
4.64807923003e-06,0.3490566037735849
5.94978695459e-06,0.3584905660377358
6.29674580768e-06,0.36792452830188677
7.34408881332e-06,0.37735849056603776
7.60590712598e-06,0.3867924528301887
9.04233210051e-06,0.39622641509433965
9.24952576813e-06,0.4056603773584906
9.75915993444e-06,0.41509433962264153
6.25369048774e-05,0.42452830188679247
8.57219087319e-05,0.4339622641509434
8.57219087319e-05,0.44339622641509435
0.000223117010797,0.4528301886792453
0.000223117010797,0.46226415094339623
0.000223117010797,0.4716981132075472
0.000228591756618,0.4811320754716981
0.000228591756618,0.49056603773584906
0.000228591756618,0.5
0.000352913036517,0.5094339622641509
0.00042145102639,0.5188679245283019
0.00042145102639,0.5283018867924528
0.000446234021594,0.5377358490566038
0.000446234021594,0.5471698113207547
0.000608752334509,0.5566037735849056
0.000775968580207,0.5660377358490566
0.000775968580207,0.5754716981132075
0.000961443570194,0.5849056603773585
0.000961443570194,0.5943396226415094
0.0012141942816,0.6037735849056604
0.00147682223405,0.6132075471698113
0.00152723096319,0.6226415094339622
0.00199588067037,0.6320754716981132
0.0022817721378,0.6415094339622641
0.00311227061954,0.6509433962264151
0.00315725455544,0.660377358490566
0.00673981798807,0.6698113207547169
0.00988328134106,0.6792452830188679
0.0100998725833,0.6886792452830188
0.0126649921069,0.6981132075471698
0.0200882588293,0.7075471698113207
0.0205072343179,0.7169811320754716
0.0231323821467,0.7264150943396226
0.0235276713225,0.7358490566037735
0.0282995702504,0.7452830188679245
0.0308331204549,0.7547169811320755
0.0350323514131,0.7641509433962265
0.0354772103307,0.7735849056603774
0.251080781967,0.7830188679245284
0.661715755946,0.7924528301886793
0.661715755946,0.8018867924528302
0.867464330503,0.8113207547169812
0.867464330503,0.8207547169811321
0.867464330503,0.8301886792452831
1.54037629128,0.839622641509434
1.73492866101,0.8490566037735849
1.73492866101,0.8584905660377359
1.76457534919,0.8679245283018868
1.76457534919,0.8773584905660378
1.76457534919,0.8867924528301887
2.73712561585,0.8962264150943396
2.73712561585,0.9056603773584906
3.57224312212,0.9150943396226415
3.57224312212,0.9245283018867925
4.781040055,0.9339622641509434
4.781040055,0.9433962264150944
5.79598142386,0.9528301886792453
5.84471445337,0.9622641509433962
12.259457429,0.9716981132075472
12.3929151043,0.9811320754716981
16.1763911898,0.9905660377358491
39.5169636818,1.0
