Congestion,CDF
0.0,0.009433962264150943
0.0,0.018867924528301886
0.0,0.02830188679245283
0.0,0.03773584905660377
0.0,0.04716981132075472
0.0,0.05660377358490566
0.0,0.0660377358490566
0.0,0.07547169811320754
0.0,0.08490566037735849
0.0,0.09433962264150944
0.0,0.10377358490566038
0.0,0.11320754716981132
0.0,0.12264150943396226
0.0,0.1320754716981132
0.0,0.14150943396226415
0.0,0.1509433962264151
0.0,0.16037735849056603
0.0,0.16981132075471697
0.0,0.1792452830188679
0.0,0.18867924528301888
0.0,0.19811320754716982
0.0,0.20754716981132076
0.0,0.2169811320754717
0.0,0.22641509433962265
0.0,0.2358490566037736
0.0,0.24528301886792453
0.0,0.25471698113207547
0.0,0.2641509433962264
0.0,0.27358490566037735
0.0,0.2830188679245283
1.16887370695e-07,0.29245283018867924
3.01130068623e-06,0.3018867924528302
3.38625997028e-06,0.3113207547169811
4.59063116615e-06,0.32075471698113206
5.18199432417e-06,0.330188679245283
6.89528652472e-06,0.33962264150943394
1.05154179294e-05,0.3490566037735849
1.34602904387e-05,0.3584905660377358
1.42452205494e-05,0.36792452830188677
1.66146400181e-05,0.37735849056603776
2.04566007565e-05,0.3867924528301887
2.09253380347e-05,0.39622641509433965
2.20782908964e-05,0.4056603773584906
8.61910815591e-05,0.41509433962264153
8.61910815591e-05,0.42452830188679247
0.000141478158665,0.4339622641509434
0.000168253630484,0.44339622641509435
0.000168253630484,0.4528301886792453
0.000172382163118,0.46226415094339623
0.000172382163118,0.4716981132075472
0.000172382163118,0.4811320754716981
0.000266133449112,0.49056603773584906
0.000336507260967,0.5
0.000336507260967,0.5094339622641509
0.000336507260967,0.5188679245283019
0.000423757710557,0.5283018867924528
0.000423757710557,0.5377358490566038
0.000459063116615,0.5471698113207547
0.000780215608511,0.5566037735849056
0.000780215608511,0.5660377358490566
0.000966705739512,0.5754716981132075
0.000966705739512,0.5849056603773585
0.00148490517193,0.5943396226415094
0.00150510338769,0.6037735849056604
0.00234697851551,0.6132075471698113
0.00244167961032,0.6226415094339622
0.00317453482915,0.6320754716981132
0.00508252975083,0.6415094339622641
0.00539012814458,0.6509433962264151
0.00618826808363,0.660377358490566
0.00625916099966,0.6698113207547169
0.00632545326266,0.6792452830188679
0.00740223773265,0.6886792452830188
0.00962608466175,0.6981132075471698
0.0117523662281,0.7075471698113207
0.0118056421127,0.7169811320754716
0.0134776933984,0.7264150943396226
0.01739372381,0.7358490566037735
0.0232637164065,0.7452830188679245
0.0271088224802,0.7547169811320755
0.0275993274029,0.7641509433962265
0.146904577852,0.7735849056603774
0.146904577852,0.7830188679245284
0.147570526408,0.7924528301886793
0.147570526408,0.8018867924528302
0.173592624724,0.8113207547169812
0.293809155704,0.8207547169811321
0.293809155704,0.8301886792452831
0.293809155704,0.839622641509434
0.295141052817,0.8490566037735849
0.295141052817,0.8584905660377359
0.295141052817,0.8679245283018868
0.539012814458,0.8773584905660378
0.607433154243,0.8867924528301887
0.607433154243,0.8962264150943396
0.775779337348,0.9056603773584906
0.775779337348,0.9150943396226415
1.16416129476,0.9245283018867925
1.16416129476,0.9339622641509434
1.22625996261,0.9433962264150944
1.23997848051,0.9528301886792453
1.51600311061,0.9622641509433962
3.00535735228,0.9716981132075472
3.05440784455,0.9811320754716981
3.28770997195,0.9905660377358491
9.55029813224,1.0
