Congestion,CDF
0.0,0.009433962264150943
0.0,0.018867924528301886
0.0,0.02830188679245283
0.0,0.03773584905660377
0.0,0.04716981132075472
0.0,0.05660377358490566
0.0,0.0660377358490566
0.0,0.07547169811320754
0.0,0.08490566037735849
0.0,0.09433962264150944
0.0,0.10377358490566038
0.0,0.11320754716981132
0.0,0.12264150943396226
0.0,0.1320754716981132
0.0,0.14150943396226415
0.0,0.1509433962264151
0.0,0.16037735849056603
0.0,0.16981132075471697
0.0,0.1792452830188679
0.0,0.18867924528301888
0.0,0.19811320754716982
0.0,0.20754716981132076
0.0,0.2169811320754717
0.0,0.22641509433962265
0.0,0.2358490566037736
0.0,0.24528301886792453
0.0,0.25471698113207547
0.0,0.2641509433962264
0.0,0.27358490566037735
0.0,0.2830188679245283
1.64588767976e-07,0.29245283018867924
4.24020377054e-06,0.3018867924528302
4.76818285191e-06,0.3113207547169811
6.46405444295e-06,0.32075471698113206
7.29675119218e-06,0.330188679245283
7.60590712598e-06,0.33962264150943394
8.5856968531e-06,0.3490566037735849
9.70923297524e-06,0.3584905660377358
1.48067295162e-05,0.36792452830188677
1.89533959633e-05,0.37735849056603776
2.00586537777e-05,0.3867924528301887
2.33950264658e-05,0.39622641509433965
2.36019450412e-05,0.4056603773584906
2.75276763337e-05,0.41509433962264153
2.88048802488e-05,0.42452830188679247
2.9464907852e-05,0.4339622641509434
3.10883774358e-05,0.44339622641509435
3.65800309327e-05,0.4528301886792453
0.00019921498526,0.46226415094339623
0.000244542495912,0.4716981132075472
0.000273072177429,0.4811320754716981
0.000273072177429,0.49056603773584906
0.000710752348624,0.5
0.000710752348624,0.5094339622641509
0.000710752348624,0.5188679245283019
0.000728192473143,0.5283018867924528
0.000728192473143,0.5377358490566038
0.000728192473143,0.5471698113207547
0.00112422521559,0.5566037735849056
0.00134255700974,0.5660377358490566
0.00134255700974,0.5754716981132075
0.00142150469725,0.5849056603773585
0.00142150469725,0.5943396226415094
0.00193921633289,0.6037735849056604
0.00199657200588,0.6132075471698113
0.00222530025369,0.6226415094339622
0.0022817721378,0.6320754716981132
0.00247189350947,0.6415094339622641
0.00247189350947,0.6509433962264151
0.00306273498889,0.660377358490566
0.00306273498889,0.6698113207547169
0.00386788723214,0.6792452830188679
0.00441889885116,0.6886792452830188
0.00470450400713,0.6981132075471698
0.00635799515677,0.7075471698113207
0.0099143209408,0.7169811320754716
0.0100576199119,0.7264150943396226
0.0152289375048,0.7358490566037735
0.0182854579471,0.7452830188679245
0.021470086244,0.7547169811320755
0.0247137194843,0.7641509433962265
0.0253298781178,0.7735849056603774
0.0625865696351,0.7830188679245284
0.0625865696351,0.7924528301886793
0.0748714502203,0.8018867924528302
0.0748714502203,0.8113207547169812
0.0748714502203,0.8207547169811321
0.0762224576327,0.8301886792452831
0.0925472079169,0.839622641509434
0.121395376117,0.8490566037735849
0.121395376117,0.8584905660377359
0.123327157909,0.8679245283018868
0.129625883077,0.8773584905660378
0.14625118809,0.8867924528301887
0.14625118809,0.8962264150943396
0.149742900441,0.9056603773584906
0.149742900441,0.9150943396226415
0.166897519027,0.9245283018867925
0.166897519027,0.9339622641509434
0.166897519027,0.9433962264150944
2.17585417634,0.9528301886792453
2.17585417634,0.9622641509433962
4.42181014126,0.9716981132075472
7.57243605503,0.9811320754716981
7.75728364507,0.9905660377358491
22.7995398533,1.0
