Congestion,CDF
0.0,0.007352941176470588
0.0,0.014705882352941176
0.0,0.022058823529411766
0.0,0.029411764705882353
0.0,0.03676470588235294
0.0,0.04411764705882353
0.0,0.051470588235294115
0.0,0.058823529411764705
0.0,0.0661764705882353
0.0,0.07352941176470588
0.0,0.08088235294117647
0.0,0.08823529411764706
0.0,0.09558823529411764
0.0,0.10294117647058823
7.72625331521e-06,0.11029411764705882
7.72625331521e-06,0.11764705882352941
7.72625331521e-06,0.125
7.72625331521e-06,0.1323529411764706
7.72625331521e-06,0.13970588235294118
7.72625331521e-06,0.14705882352941177
7.72625331521e-06,0.15441176470588236
7.72625331521e-06,0.16176470588235295
7.72625331521e-06,0.16911764705882354
7.72625331521e-06,0.17647058823529413
7.72625331521e-06,0.18382352941176472
7.72625331521e-06,0.19117647058823528
7.72625331521e-06,0.19852941176470587
7.72625331521e-06,0.20588235294117646
7.72625331521e-06,0.21323529411764705
7.72625331521e-06,0.22058823529411764
7.72625331521e-06,0.22794117647058823
7.72625331521e-06,0.23529411764705882
7.72625331521e-06,0.2426470588235294
7.72625331521e-06,0.25
7.72625331521e-06,0.25735294117647056
7.72625331521e-06,0.2647058823529412
7.72625331521e-06,0.27205882352941174
7.72625331521e-06,0.27941176470588236
7.72625331521e-06,0.2867647058823529
7.72625331521e-06,0.29411764705882354
7.72625331521e-06,0.3014705882352941
0.00019315633288,0.3088235294117647
0.00019315633288,0.3161764705882353
0.000208608839511,0.3235294117647059
0.000386312665761,0.33088235294117646
0.000386312665761,0.3382352941176471
0.000386312665761,0.34558823529411764
0.000386312665761,0.35294117647058826
0.000579468998641,0.3602941176470588
0.000643854442934,0.36764705882352944
0.000643854442934,0.375
0.000643854442934,0.38235294117647056
0.000772625331521,0.3897058823529412
0.000772625331521,0.39705882352941174
0.000772625331521,0.40441176470588236
0.000772625331521,0.4117647058823529
0.000772625331521,0.41911764705882354
0.000772625331521,0.4264705882352941
0.000772625331521,0.4338235294117647
0.000965781664401,0.4411764705882353
0.00115893799728,0.4485294117647059
0.00115893799728,0.45588235294117646
0.00141647977446,0.4632352941176471
0.00154525066304,0.47058823529411764
0.00154525066304,0.47794117647058826
0.00231787599456,0.4852941176470588
0.00315488677038,0.49264705882352944
0.00415783789423,0.5
0.00415783789423,0.5073529411764706
0.00415783789423,0.5147058823529411
0.00415783789423,0.5220588235294118
0.00415783789423,0.5294117647058824
0.00415783789423,0.5367647058823529
0.00415783789423,0.5441176470588235
0.00415783789423,0.5514705882352942
0.00415783789423,0.5588235294117647
0.00415783789423,0.5661764705882353
0.00415783789423,0.5735294117647058
0.00415783789423,0.5808823529411765
0.00415783789423,0.5882352941176471
0.00415783789423,0.5955882352941176
0.00415783789423,0.6029411764705882
0.00415783789423,0.6102941176470589
0.00415783789423,0.6176470588235294
0.00415783789423,0.625
0.00415783789423,0.6323529411764706
0.00415783789423,0.6397058823529411
0.00415783789423,0.6470588235294118
0.00415783789423,0.6544117647058824
0.00415783789423,0.6617647058823529
0.00415783789423,0.6691176470588235
0.00415783789423,0.6764705882352942
0.00415783789423,0.6838235294117647
0.00415783789423,0.6911764705882353
0.00560153365353,0.6985294117647058
0.00573030454211,0.7058823529411765
0.00740432609374,0.7132352941176471
0.00920711853396,0.7205882352941176
0.00933588942255,0.7279411764705882
0.00997974386548,0.7352941176470589
0.0101085147541,0.7426470588235294
0.0108811400856,0.75
0.103945947356,0.7573529411764706
0.103945947356,0.7647058823529411
0.112261623144,0.7720588235294118
0.207891894711,0.7794117647058824
0.207891894711,0.7867647058823529
0.207891894711,0.7941176470588235
0.207891894711,0.8014705882352942
0.311837842067,0.8088235294117647
0.346486491186,0.8161764705882353
0.346486491186,0.8235294117647058
0.346486491186,0.8308823529411765
0.415783789423,0.8382352941176471
0.415783789423,0.8455882352941176
0.415783789423,0.8529411764705882
0.415783789423,0.8602941176470589
0.415783789423,0.8676470588235294
0.415783789423,0.875
0.415783789423,0.8823529411764706
0.519729736778,0.8897058823529411
0.623675684134,0.8970588235294118
0.623675684134,0.9044117647058824
0.762270280608,0.9117647058823529
0.831567578846,0.9191176470588235
0.831567578846,0.9264705882352942
1.24735136827,0.9338235294117647
1.69778380681,0.9411764705882353
3.01443247332,0.9485294117647058
3.08372977155,0.9558823529411765
3.98459464863,0.9632352941176471
4.95475682395,0.9705882352941176
5.02405412219,0.9779411764705882
5.37054061338,0.9852941176470589
5.43983791161,0.9926470588235294
5.85562170104,1.0
