Congestion,CDF
0.0,0.007352941176470588
0.0,0.014705882352941176
0.0,0.022058823529411766
0.0,0.029411764705882353
0.0,0.03676470588235294
0.0,0.04411764705882353
0.0,0.051470588235294115
0.0,0.058823529411764705
0.0,0.0661764705882353
0.0,0.07352941176470588
0.0,0.08088235294117647
0.0,0.08823529411764706
0.0,0.09558823529411764
0.0,0.10294117647058823
9.2641566704e-07,0.11029411764705882
9.2641566704e-07,0.11764705882352941
9.2641566704e-07,0.125
9.2641566704e-07,0.1323529411764706
9.2641566704e-07,0.13970588235294118
9.2641566704e-07,0.14705882352941177
9.2641566704e-07,0.15441176470588236
9.2641566704e-07,0.16176470588235295
9.2641566704e-07,0.16911764705882354
9.2641566704e-07,0.17647058823529413
9.2641566704e-07,0.18382352941176472
9.2641566704e-07,0.19117647058823528
9.2641566704e-07,0.19852941176470587
9.2641566704e-07,0.20588235294117646
9.2641566704e-07,0.21323529411764705
9.2641566704e-07,0.22058823529411764
9.2641566704e-07,0.22794117647058823
9.2641566704e-07,0.23529411764705882
9.2641566704e-07,0.2426470588235294
9.2641566704e-07,0.25
9.2641566704e-07,0.25735294117647056
9.2641566704e-07,0.2647058823529412
9.2641566704e-07,0.27205882352941174
9.2641566704e-07,0.27941176470588236
9.2641566704e-07,0.2867647058823529
9.2641566704e-07,0.29411764705882354
9.2641566704e-07,0.3014705882352941
2.3160391676e-05,0.3088235294117647
2.3160391676e-05,0.3161764705882353
2.50132230101e-05,0.3235294117647059
4.6320783352e-05,0.33088235294117646
4.6320783352e-05,0.3382352941176471
4.6320783352e-05,0.34558823529411764
4.6320783352e-05,0.35294117647058826
6.9481175028e-05,0.3602941176470588
7.72013055866e-05,0.36764705882352944
7.72013055866e-05,0.375
7.72013055866e-05,0.38235294117647056
9.2641566704e-05,0.3897058823529412
9.2641566704e-05,0.39705882352941174
9.2641566704e-05,0.40441176470588236
9.2641566704e-05,0.4117647058823529
9.2641566704e-05,0.41911764705882354
9.2641566704e-05,0.4264705882352941
9.2641566704e-05,0.4338235294117647
0.00011580195838,0.4411764705882353
0.000138962350056,0.4485294117647059
0.000138962350056,0.45588235294117646
0.000169842872291,0.4632352941176471
0.000185283133408,0.47058823529411764
0.000185283133408,0.47794117647058826
0.000277924700112,0.4852941176470588
0.000378286397375,0.49264705882352944
0.000671651358604,0.5
0.000687091619721,0.5073529411764706
0.000887815014246,0.5147058823529411
0.00110397866989,0.5220588235294118
0.00111941893101,0.5294117647058824
0.00119662023659,0.5367647058823529
0.00121206049771,0.5441176470588235
0.00130470206441,0.5514705882352942
0.0252353926868,0.5588235294117647
0.0260033443933,0.5661764705882353
0.0349543232642,0.5735294117647058
0.0350468717866,0.5808823529411765
0.0351886056502,0.5882352941176471
0.035227176295,0.5955882352941176
0.0352587751248,0.6029411764705882
0.035311821498,0.6102941176470589
0.0354178886409,0.6176470588235294
0.0354353796225,0.625
0.035458086479,0.6323529411764706
0.0354638559734,0.6397058823529411
0.03546446677,0.6470588235294118
0.035464765296,0.6544117647058824
0.0354648492303,0.6617647058823529
0.0354651958774,0.6691176470588235
0.0354654014382,0.6764705882352942
0.0354732317132,0.6838235294117647
0.0354789087943,0.6911764705882353
0.0354920856851,0.6985294117647058
0.0354976029232,0.7058823529411765
0.0354976168747,0.7132352941176471
0.0354976865029,0.7205882352941176
0.0354976906505,0.7279411764705882
0.0354981479017,0.7352941176470589
0.035498150667,0.7426470588235294
0.035498150667,0.75
0.886621230758,0.7573529411764706
0.886830792829,0.7647058823529411
0.936255472406,0.7720588235294118
1.7655910749,0.7794117647058824
1.7655910749,0.7867647058823529
1.77394543972,0.7941176470588235
1.77394543972,0.8014705882352942
2.65986369227,0.8088235294117647
2.95560091592,0.8161764705882353
2.95560091592,0.8235294117647058
2.95560091592,0.8308823529411765
3.52587751248,0.8382352941176471
3.5464765296,0.8455882352941176
3.54732317132,0.8529411764705882
3.54976168747,0.8602941176470589
3.54976906505,0.8676470588235294
3.5498150667,0.875
3.5498150667,0.8823529411764706
4.4331408185,0.8897058823529411
5.28445163992,0.8970588235294118
5.32048558354,0.9044117647058824
6.49913887817,0.9117647058823529
7.04859514198,0.9191176470588235
7.09953771533,0.9264705882352942
10.6494449236,0.9338235294117647
14.4816038614,0.9411764705882353
25.7353354115,0.9485294117647058
26.2881226785,0.9558823529411765
34.0140903357,0.9632352941176471
42.1166017868,0.9705882352941176
42.8803845671,0.9779411764705882
44.6401410555,0.9852941176470589
46.3850717458,0.9926470588235294
48.9854061851,1.0
