Congestion,CDF
0.0,0.007352941176470588
0.0,0.014705882352941176
0.0,0.022058823529411766
0.0,0.029411764705882353
0.0,0.03676470588235294
0.0,0.04411764705882353
0.0,0.051470588235294115
0.0,0.058823529411764705
0.0,0.0661764705882353
0.0,0.07352941176470588
0.0,0.08088235294117647
0.0,0.08823529411764706
0.0,0.09558823529411764
0.0,0.10294117647058823
2.64973351916e-06,0.11029411764705882
2.64973351916e-06,0.11764705882352941
2.64973351916e-06,0.125
2.64973351916e-06,0.1323529411764706
2.64973351916e-06,0.13970588235294118
2.64973351916e-06,0.14705882352941177
2.64973351916e-06,0.15441176470588236
2.64973351916e-06,0.16176470588235295
2.64973351916e-06,0.16911764705882354
2.64973351916e-06,0.17647058823529413
2.64973351916e-06,0.18382352941176472
2.64973351916e-06,0.19117647058823528
2.64973351916e-06,0.19852941176470587
2.64973351916e-06,0.20588235294117646
2.64973351916e-06,0.21323529411764705
2.64973351916e-06,0.22058823529411764
2.64973351916e-06,0.22794117647058823
2.64973351916e-06,0.23529411764705882
2.64973351916e-06,0.2426470588235294
2.64973351916e-06,0.25
2.64973351916e-06,0.25735294117647056
2.64973351916e-06,0.2647058823529412
2.64973351916e-06,0.27205882352941174
2.64973351916e-06,0.27941176470588236
2.64973351916e-06,0.2867647058823529
2.64973351916e-06,0.29411764705882354
2.64973351916e-06,0.3014705882352941
6.62433379789e-05,0.3088235294117647
6.62433379789e-05,0.3161764705882353
7.15428050172e-05,0.3235294117647059
0.000132486675958,0.33088235294117646
0.000132486675958,0.3382352941176471
0.000132486675958,0.34558823529411764
0.000132486675958,0.35294117647058826
0.000198730013937,0.3602941176470588
0.000220811126596,0.36764705882352944
0.000220811126596,0.375
0.000220811126596,0.38235294117647056
0.000230286189658,0.3897058823529412
0.000264973351916,0.39705882352941174
0.000264973351916,0.40441176470588236
0.000264973351916,0.4117647058823529
0.000264973351916,0.41911764705882354
0.000264973351916,0.4264705882352941
0.000264973351916,0.4338235294117647
0.000264973351916,0.4411764705882353
0.000331216689895,0.4485294117647059
0.000397460027873,0.45588235294117646
0.000397460027873,0.4632352941176471
0.000485784478512,0.47058823529411764
0.000529946703831,0.47794117647058826
0.000529946703831,0.4852941176470588
0.000794920055747,0.49264705882352944
0.00105218656466,0.5
0.00108197452032,0.5073529411764706
0.00192105680139,0.5147058823529411
0.00196521902671,0.5220588235294118
0.00253932795586,0.5294117647058824
0.00315759911033,0.5367647058823529
0.00320176133565,0.5441176470588235
0.00342257246224,0.5514705882352942
0.00346673468756,0.5588235294117647
0.00373170803948,0.5661764705882353
0.012405562755,0.5735294117647058
0.0125629862914,0.5808823529411765
0.0128929501331,0.5882352941176471
0.0129606895382,0.5955882352941176
0.0130361949356,0.6029411764705882
0.0130703063841,0.6102941176470589
0.0132156061001,0.6176470588235294
0.0132504078464,0.625
0.0132675988996,0.6323529411764706
0.0132824015029,0.6397058823529411
0.0132829095169,0.6470588235294118
0.013283812547,0.6544117647058824
0.0132846770875,0.6617647058823529
0.0132848244665,0.6691176470588235
0.0132854083498,0.6764705882352942
0.0132937814558,0.6838235294117647
0.0132982478913,0.6911764705882353
0.0133128892322,0.6985294117647058
0.0133189740827,0.7058823529411765
0.0133190079171,0.7132352941176471
0.0133190896347,0.7205882352941176
0.0133190989718,0.7279411764705882
0.0133195550633,0.7352941176470589
0.0133195612884,0.7426470588235294
0.0133195612884,0.75
0.330788575934,0.7573529411764706
0.332120611662,0.7647058823529411
0.332344536395,0.7720588235294118
0.653515319207,0.7794117647058824
0.653515319207,0.7867647058823529
0.664912394565,0.7941176470588235
0.664912394565,0.8014705882352942
0.996361834985,0.8088235294117647
1.10725889962,0.8161764705882353
1.10725889962,0.8235294117647058
1.10725889962,0.8308823529411765
1.30361949356,0.8382352941176471
1.32846770875,0.8455882352941176
1.32937814558,0.8529411764705882
1.33190079171,0.8602941176470589
1.33190989718,0.8676470588235294
1.33195612884,0.875
1.33195612884,0.8823529411764706
1.66066144664,0.8897058823529411
1.94281033252,0.8970588235294118
1.99320334626,0.9044117647058824
2.43229968426,0.9117647058823529
2.59968844738,0.9191176470588235
2.66381886065,0.9264705882352942
3.99586776402,0.9338235294117647
5.42462820531,0.9411764705882353
9.65582936105,0.9485294117647058
9.83200381879,0.9558823529411765
12.7592895785,0.9632352941176471
15.6150588742,0.9705882352941176
15.6380874932,0.9779411764705882
16.0792528147,0.9852941176470589
17.3355514438,0.9926470588235294
17.4407701003,1.0
