Congestion,CDF
0.0,0.007352941176470588
0.0,0.014705882352941176
0.0,0.022058823529411766
0.0,0.029411764705882353
0.0,0.03676470588235294
0.0,0.04411764705882353
0.0,0.051470588235294115
0.0,0.058823529411764705
0.0,0.0661764705882353
0.0,0.07352941176470588
0.0,0.08088235294117647
0.0,0.08823529411764706
0.0,0.09558823529411764
0.0,0.10294117647058823
5.18177568998e-06,0.11029411764705882
5.18177568998e-06,0.11764705882352941
5.18177568998e-06,0.125
5.18177568998e-06,0.1323529411764706
5.18177568998e-06,0.13970588235294118
5.18177568998e-06,0.14705882352941177
5.18177568998e-06,0.15441176470588236
5.18177568998e-06,0.16176470588235295
5.18177568998e-06,0.16911764705882354
5.18177568998e-06,0.17647058823529413
5.18177568998e-06,0.18382352941176472
5.18177568998e-06,0.19117647058823528
5.18177568998e-06,0.19852941176470587
5.18177568998e-06,0.20588235294117646
5.18177568998e-06,0.21323529411764705
5.18177568998e-06,0.22058823529411764
5.18177568998e-06,0.22794117647058823
5.18177568998e-06,0.23529411764705882
5.18177568998e-06,0.2426470588235294
5.18177568998e-06,0.25
5.18177568998e-06,0.25735294117647056
5.18177568998e-06,0.2647058823529412
5.18177568998e-06,0.27205882352941174
5.18177568998e-06,0.27941176470588236
5.18177568998e-06,0.2867647058823529
5.18177568998e-06,0.29411764705882354
5.18177568998e-06,0.3014705882352941
0.00012954439225,0.3088235294117647
0.00012954439225,0.3161764705882353
0.000139907943629,0.3235294117647059
0.000259088784499,0.33088235294117646
0.000259088784499,0.3382352941176471
0.000259088784499,0.34558823529411764
0.000259088784499,0.35294117647058826
0.000388633176749,0.3602941176470588
0.00041812833667,0.36764705882352944
0.000431814640832,0.375
0.000431814640832,0.38235294117647056
0.000431814640832,0.3897058823529412
0.000518177568998,0.39705882352941174
0.000518177568998,0.40441176470588236
0.000518177568998,0.4117647058823529
0.000518177568998,0.41911764705882354
0.000518177568998,0.4264705882352941
0.000518177568998,0.4338235294117647
0.000518177568998,0.4411764705882353
0.000647721961248,0.4485294117647059
0.000777266353497,0.45588235294117646
0.000777266353497,0.4632352941176471
0.00094999220983,0.47058823529411764
0.000983886883058,0.47794117647058826
0.001036355138,0.4852941176470588
0.001036355138,0.49264705882352944
0.00155453270699,0.5
0.00211589174008,0.5073529411764706
0.00375678737524,0.5147058823529411
0.0038431503034,0.5220588235294118
0.00496586836957,0.5294117647058824
0.00573695525843,0.5367647058823529
0.00600435287085,0.5441176470588235
0.00604754028992,0.5514705882352942
0.00612744771077,0.5588235294117647
0.00616484005867,0.5661764705882353
0.00617494936389,0.5735294117647058
0.00626131229206,0.5808823529411765
0.00635181172428,0.5882352941176471
0.00669312693289,0.5955882352941176
0.00671324730729,0.6029411764705882
0.00675941746725,0.6102941176470589
0.00677948986106,0.6176470588235294
0.00683261780241,0.625
0.00683458199008,0.6323529411764706
0.00683692542691,0.6397058823529411
0.00688821226369,0.6470588235294118
0.00690492079692,0.6544117647058824
0.0069687454219,0.6617647058823529
0.00697933414945,0.6691176470588235
0.00699551335181,0.6764705882352942
0.00705961528611,0.6838235294117647
0.00712425175445,0.6911764705882353
0.00715718603532,0.6985294117647058
0.00715722937777,0.7058823529411765
0.00715754941415,0.7132352941176471
0.00715756515059,0.7205882352941176
0.00715813897161,0.7279411764705882
0.00715814946545,0.7352941176470589
0.00715814946545,0.7426470588235294
0.00729766743006,0.75
0.170836314031,0.7573529411764706
0.172205306592,0.7647058823529411
0.174218635547,0.7720588235294118
0.317590586214,0.7794117647058824
0.317590586214,0.7867647058823529
0.352980764305,0.7941176470588235
0.352980764305,0.8014705882352942
0.516615919777,0.8088235294117647
0.576587968704,0.8161764705882353
0.576587968704,0.8235294117647058
0.576587968704,0.8308823529411765
0.616484005867,0.8382352941176471
0.683458199008,0.8455882352941176
0.69687454219,0.8529411764705882
0.715722937777,0.8602941176470589
0.715756515059,0.8676470588235294
0.715814946545,0.875
0.715814946545,0.8823529411764706
0.855897849283,0.8897058823529411
0.918025873299,0.8970588235294118
1.05253209949,0.9044117647058824
1.22922877694,0.9117647058823529
1.25252971543,0.9191176470588235
1.43151145647,0.9264705882352942
2.14744379025,0.9338235294117647
2.79920579724,0.9411764705882353
5.04065082961,0.9485294117647058
5.18461542358,0.9558823529411765
6.82660933203,0.9632352941176471
7.7616010057,0.9705882352941176
7.80341383936,0.9779411764705882
8.57707484647,0.9852941176470589
9.18182887546,0.9926470588235294
9.28021756376,1.0
