Congestion,CDF
0.0,0.007352941176470588
0.0,0.014705882352941176
0.0,0.022058823529411766
0.0,0.029411764705882353
0.0,0.03676470588235294
0.0,0.04411764705882353
0.0,0.051470588235294115
0.0,0.058823529411764705
0.0,0.0661764705882353
0.0,0.07352941176470588
0.0,0.08088235294117647
0.0,0.08823529411764706
0.0,0.09558823529411764
0.0,0.10294117647058823
9.91900253817e-06,0.11029411764705882
9.91900253817e-06,0.11764705882352941
9.91900253817e-06,0.125
9.91900253817e-06,0.1323529411764706
9.91900253817e-06,0.13970588235294118
9.91900253817e-06,0.14705882352941177
9.91900253817e-06,0.15441176470588236
9.91900253817e-06,0.16176470588235295
9.91900253817e-06,0.16911764705882354
9.91900253817e-06,0.17647058823529413
9.91900253817e-06,0.18382352941176472
9.91900253817e-06,0.19117647058823528
9.91900253817e-06,0.19852941176470587
9.91900253817e-06,0.20588235294117646
9.91900253817e-06,0.21323529411764705
9.91900253817e-06,0.22058823529411764
9.91900253817e-06,0.22794117647058823
9.91900253817e-06,0.23529411764705882
9.91900253817e-06,0.2426470588235294
9.91900253817e-06,0.25
9.91900253817e-06,0.25735294117647056
9.91900253817e-06,0.2647058823529412
9.91900253817e-06,0.27205882352941174
9.91900253817e-06,0.27941176470588236
9.91900253817e-06,0.2867647058823529
9.91900253817e-06,0.29411764705882354
9.91900253817e-06,0.3014705882352941
0.000247975063454,0.3088235294117647
0.000247975063454,0.3161764705882353
0.00026781306853,0.3235294117647059
0.000495950126908,0.33088235294117646
0.000495950126908,0.3382352941176471
0.000495950126908,0.34558823529411764
0.000495950126908,0.35294117647058826
0.000743925190362,0.3602941176470588
0.000826583544847,0.36764705882352944
0.000826583544847,0.375
0.000826583544847,0.38235294117647056
0.000991900253817,0.3897058823529412
0.000991900253817,0.39705882352941174
0.000991900253817,0.40441176470588236
0.000991900253817,0.4117647058823529
0.000991900253817,0.41911764705882354
0.000991900253817,0.4264705882352941
0.000991900253817,0.4338235294117647
0.00123987531727,0.4411764705882353
0.00148785038072,0.4485294117647059
0.00148785038072,0.45588235294117646
0.00181848379866,0.4632352941176471
0.00198380050763,0.47058823529411764
0.00198380050763,0.47794117647058826
0.00271240222354,0.4852941176470588
0.00277653660033,0.49264705882352944
0.00297570076145,0.5
0.00311392687067,0.5073529411764706
0.00311392687067,0.5147058823529411
0.00311392687067,0.5220588235294118
0.00311392687067,0.5294117647058824
0.00315614512432,0.5367647058823529
0.00317527755701,0.5441176470588235
0.00319836337797,0.5514705882352942
0.00319836337797,0.5588235294117647
0.00319836337797,0.5661764705882353
0.00319836337797,0.5735294117647058
0.00319836337797,0.5808823529411765
0.00324830591433,0.5882352941176471
0.00326495364809,0.5955882352941176
0.00330286601441,0.6029411764705882
0.00333880538986,0.6102941176470589
0.00333880538986,0.6176470588235294
0.00336846945663,0.625
0.0033981335234,0.6323529411764706
0.0034166037783,0.6397058823529411
0.0034166037783,0.6470588235294118
0.0034166037783,0.6544117647058824
0.0034166037783,0.6617647058823529
0.0034166037783,0.6691176470588235
0.0034166037783,0.6764705882352942
0.0034166037783,0.6838235294117647
0.00405025936975,0.6911764705882353
0.00719127684017,0.6985294117647058
0.00735659354914,0.7058823529411765
0.00950571076574,0.7132352941176471
0.0118201446913,0.7205882352941176
0.0119854614003,0.7279411764705882
0.0128120449451,0.7352941176470589
0.0129773616541,0.7426470588235294
0.0139692619079,0.75
0.0812076478583,0.7573529411764706
0.0825716503603,0.7647058823529411
0.0874444516625,0.7720588235294118
0.157807256216,0.7794117647058824
0.157807256216,0.7867647058823529
0.168423472832,0.7941176470588235
0.168423472832,0.8014705882352942
0.243622943575,0.8088235294117647
0.272611086488,0.8161764705882353
0.272611086488,0.8235294117647058
0.272611086488,0.8308823529411765
0.311392687067,0.8382352941176471
0.319836337797,0.8455882352941176
0.330286601441,0.8529411764705882
0.34166037783,0.8602941176470589
0.34166037783,0.8676470588235294
0.34166037783,0.875
0.34166037783,0.8823529411764706
0.401043985656,0.8897058823529411
0.469199943283,0.8970588235294118
0.502304011818,0.9044117647058824
0.592447424286,0.9117647058823529
0.622785374134,0.9191176470588235
0.68332075566,0.9264705882352942
1.02498113349,0.9338235294117647
1.31332774774,0.9411764705882353
2.38341876604,0.9485294117647058
2.47419429517,0.9558823529411765
3.25504220683,0.9632352941176471
3.78679677052,0.9705882352941176
4.05803699288,0.9779411764705882
4.09122675764,0.9852941176470589
4.40875451334,0.9926470588235294
4.68640817337,1.0
