Congestion,CDF
0.0,0.007352941176470588
0.0,0.014705882352941176
0.0,0.022058823529411766
0.0,0.029411764705882353
0.0,0.03676470588235294
0.0,0.04411764705882353
0.0,0.051470588235294115
0.0,0.058823529411764705
0.0,0.0661764705882353
0.0,0.07352941176470588
0.0,0.08088235294117647
0.0,0.08823529411764706
0.0,0.09558823529411764
0.0,0.10294117647058823
2.14443575249e-06,0.11029411764705882
2.14443575249e-06,0.11764705882352941
2.14443575249e-06,0.125
2.14443575249e-06,0.1323529411764706
2.14443575249e-06,0.13970588235294118
2.14443575249e-06,0.14705882352941177
2.14443575249e-06,0.15441176470588236
2.14443575249e-06,0.16176470588235295
2.14443575249e-06,0.16911764705882354
2.14443575249e-06,0.17647058823529413
2.14443575249e-06,0.18382352941176472
2.14443575249e-06,0.19117647058823528
2.14443575249e-06,0.19852941176470587
2.14443575249e-06,0.20588235294117646
2.14443575249e-06,0.21323529411764705
2.14443575249e-06,0.22058823529411764
2.14443575249e-06,0.22794117647058823
2.14443575249e-06,0.23529411764705882
2.14443575249e-06,0.2426470588235294
2.14443575249e-06,0.25
2.14443575249e-06,0.25735294117647056
2.14443575249e-06,0.2647058823529412
2.14443575249e-06,0.27205882352941174
2.14443575249e-06,0.27941176470588236
2.14443575249e-06,0.2867647058823529
2.14443575249e-06,0.29411764705882354
2.14443575249e-06,0.3014705882352941
5.36108938122e-05,0.3088235294117647
5.36108938122e-05,0.3161764705882353
5.78997653172e-05,0.3235294117647059
0.000107221787624,0.33088235294117646
0.000107221787624,0.3382352941176471
0.000107221787624,0.34558823529411764
0.000107221787624,0.35294117647058826
0.000160832681437,0.3602941176470588
0.000178702979374,0.36764705882352944
0.000178702979374,0.375
0.000178702979374,0.38235294117647056
0.000214443575249,0.3897058823529412
0.000214443575249,0.39705882352941174
0.000214443575249,0.40441176470588236
0.000214443575249,0.4117647058823529
0.000214443575249,0.41911764705882354
0.000214443575249,0.4264705882352941
0.000214443575249,0.4338235294117647
0.000268054469061,0.4411764705882353
0.000321665362873,0.4485294117647059
0.000321665362873,0.45588235294117646
0.000393146554623,0.4632352941176471
0.000428887150498,0.47058823529411764
0.000428887150498,0.47794117647058826
0.000643330725747,0.4852941176470588
0.000875644598933,0.49264705882352944
0.00155471592055,0.5
0.00159045651643,0.5073529411764706
0.0020550842628,0.5147058823529411
0.00255545260505,0.5220588235294118
0.00259119320092,0.5294117647058824
0.0027698961803,0.5367647058823529
0.00280563677617,0.5441176470588235
0.00302008035142,0.5514705882352942
0.0107296055355,0.5588235294117647
0.0111738405084,0.5661764705882353
0.0146352847003,0.5735294117647058
0.0147144428643,0.5808823529411765
0.0147754186629,0.5882352941176471
0.0147826663459,0.5955882352941176
0.0148525238728,0.6029411764705882
0.0149633334146,0.6102941176470589
0.0152205617202,0.6176470588235294
0.0152395913221,0.625
0.0152993646059,0.6323529411764706
0.015299830181,0.6397058823529411
0.0153008029959,0.6470588235294118
0.0153544652096,0.6544117647058824
0.015372380843,0.6617647058823529
0.0154323010279,0.6691176470588235
0.0154592215697,0.6764705882352942
0.0154648727403,0.6838235294117647
0.0155232557958,0.6911764705882353
0.0155821099592,0.6985294117647058
0.0156131688797,0.7058823529411765
0.0156131815895,0.7132352941176471
0.0156133925392,0.7205882352941176
0.015613397666,0.7279411764705882
0.015613940758,0.7352941176470589
0.0156139441772,0.7426470588235294
0.0156139441772,0.75
0.38386163024,0.7573529411764706
0.385807525698,0.7647058823529411
0.404470843662,0.7720588235294118
0.74816667073,0.7794117647058824
0.74816667073,0.7867647058823529
0.77616278979,0.7941176470588235
0.77616278979,0.8014705882352942
1.15158489072,0.8088235294117647
1.2820818507,0.8161764705882353
1.2820818507,0.8235294117647058
1.2820818507,0.8308823529411765
1.47826663459,0.8382352941176471
1.5299830181,0.8455882352941176
1.54323010279,0.8529411764705882
1.56131815895,0.8602941176470589
1.5613397666,0.8676470588235294
1.56139441772,0.875
1.56139441772,0.8823529411764706
1.91394192983,0.8897058823529411
2.21961095716,0.8970588235294118
2.32265006382,0.9044117647058824
2.80604098291,0.9117647058823529
2.95580850088,0.9191176470588235
3.12267902052,0.9264705882352942
4.68418291123,0.9338235294117647
6.25594325922,0.9411764705882353
11.3153045044,0.9485294117647058
11.3322070849,0.9558823529411765
14.9317601408,0.9632352941176471
17.971155013,0.9705882352941176
18.8003323616,0.9779411764705882
19.0441155665,0.9852941176470589
20.2855847489,0.9926470588235294
21.4029687997,1.0
