Congestion,CDF
0.0,0.005555555555555556
0.0,0.011111111111111112
0.0,0.016666666666666666
0.0,0.022222222222222223
0.0,0.027777777777777776
0.0,0.03333333333333333
0.0,0.03888888888888889
0.0,0.044444444444444446
0.0,0.05
0.0,0.05555555555555555
3.30603520028e-07,0.06111111111111111
3.79847544772e-07,0.06666666666666667
8.55005351666e-07,0.07222222222222222
1.24964005707e-06,0.07777777777777778
1.27868929686e-06,0.08333333333333333
1.688310054e-06,0.08888888888888889
1.85736451151e-06,0.09444444444444444
2.55987183627e-06,0.1
2.57307834316e-06,0.10555555555555556
2.63250067484e-06,0.1111111111111111
2.68668055922e-06,0.11666666666666667
2.95748641426e-06,0.12222222222222222
3.02608460219e-06,0.12777777777777777
3.37921014833e-06,0.13333333333333333
3.46099007531e-06,0.1388888888888889
3.64446663393e-06,0.14444444444444443
4.21414645982e-06,0.15
4.61199257514e-06,0.15555555555555556
4.81584922638e-06,0.16111111111111112
5.00868122662e-06,0.16666666666666666
5.08792884679e-06,0.17222222222222222
5.12879165331e-06,0.17777777777777778
5.29871583675e-06,0.18333333333333332
5.48283611253e-06,0.18888888888888888
5.57538872995e-06,0.19444444444444445
5.63835267644e-06,0.2
5.66963428409e-06,0.20555555555555555
5.73474088348e-06,0.2111111111111111
5.79077967681e-06,0.21666666666666667
5.80348693367e-06,0.2222222222222222
5.99739633994e-06,0.22777777777777777
6.04743186063e-06,0.23333333333333334
6.11685261366e-06,0.2388888888888889
6.62422329694e-06,0.24444444444444444
6.97041509138e-06,0.25
7.56784330724e-06,0.25555555555555554
7.68773468352e-06,0.2611111111111111
7.79836675847e-06,0.26666666666666666
8.06245795004e-06,0.2722222222222222
2.85001783889e-05,0.2777777777777778
5.70003567777e-05,0.2833333333333333
6.24820028533e-05,0.28888888888888886
6.24820028533e-05,0.29444444444444445
6.43269585789e-05,0.3
6.43269585789e-05,0.3055555555555556
9.73873105817e-05,0.3111111111111111
0.000127868929686,0.31666666666666665
0.000128653917158,0.32222222222222224
0.000171293876647,0.3277777777777778
0.000255987183627,0.3333333333333333
0.000266218315981,0.3388888888888889
0.000281917633822,0.34444444444444444
0.000281917633822,0.35
0.000360075600005,0.35555555555555557
0.000548283611253,0.3611111111111111
0.000557538872995,0.36666666666666664
0.000575361168184,0.37222222222222223
0.000619838648655,0.37777777777777777
0.000655794978656,0.38333333333333336
0.000655794978656,0.3888888888888889
0.00074780323862,0.39444444444444443
0.00079029125938,0.4
0.000849775035907,0.40555555555555556
0.000908490593004,0.4111111111111111
0.00112863230462,0.4166666666666667
0.001193312737,0.4222222222222222
0.00125553461265,0.42777777777777776
0.00154355476904,0.43333333333333335
0.00181222282496,0.4388888888888889
0.00189739331743,0.4444444444444444
0.00234294506932,0.45
0.00265417764816,0.45555555555555555
0.00472213132269,0.46111111111111114
0.00574489615813,0.4666666666666667
0.00601329070473,0.4722222222222222
0.00655114195314,0.4777777777777778
0.00671033221387,0.48333333333333334
0.00705993483782,0.4888888888888889
0.00713726088012,0.49444444444444446
0.0075586755261,0.5
0.00815591435418,0.5055555555555555
0.00816341871216,0.5111111111111111
0.00821437397368,0.5166666666666667
0.00834915516331,0.5222222222222223
0.00847762404117,0.5277777777777778
0.00862423011168,0.5333333333333333
0.00878023250139,0.5388888888888889
0.0172608461882,0.5444444444444444
0.0174647907039,0.55
0.0174696760143,0.5555555555555556
0.0175162539496,0.5611111111111111
0.0175400204186,0.5666666666666667
0.017557682829,0.5722222222222222
0.0175978930255,0.5777777777777777
0.0176552956496,0.5833333333333334
0.0176833351138,0.5888888888888889
0.0176846713489,0.5944444444444444
0.0176958193533,0.6
0.0177223742146,0.6055555555555555
0.0177634621549,0.6111111111111112
0.0177717289627,0.6166666666666667
0.0177864497878,0.6222222222222222
0.0178202635705,0.6277777777777778
0.0178845733133,0.6333333333333333
0.0179045002371,0.6388888888888888
0.0179083087199,0.6444444444444445
0.0179233499776,0.65
0.0179261772494,0.6555555555555556
0.0179518837527,0.6611111111111111
0.0179678281382,0.6666666666666666
0.0179696883113,0.6722222222222223
0.0179790073071,0.6777777777777778
0.0179850344439,0.6833333333333333
0.017988236497,0.6888888888888889
0.0179943850569,0.6944444444444444
0.0180011230768,0.7
0.018020378786,0.7055555555555556
0.0180320425708,0.7111111111111111
0.0180817301491,0.7166666666666667
0.0181151966853,0.7222222222222222
0.0181742334069,0.7277777777777777
0.0181858417025,0.7333333333333333
0.0181969425713,0.7388888888888889
0.0182217606436,0.7444444444444445
0.442116783723,0.75
0.442116783723,0.7555555555555555
0.583875131652,0.7611111111111111
0.677182930348,0.7666666666666667
0.877001020929,0.7722222222222223
0.877001020929,0.7777777777777778
0.884233567446,0.7833333333333333
0.899251722197,0.7888888888888889
0.899251722197,0.7944444444444444
1.1677502633,0.8
1.7557682829,0.8055555555555556
1.76833351138,0.8111111111111111
1.79696883113,0.8166666666666667
1.79790073071,0.8222222222222222
2.18859585411,0.8277777777777777
2.21435420518,0.8333333333333334
2.66783189292,0.8388888888888889
2.67559793769,0.8444444444444444
2.70392782458,0.85
2.82442549208,0.8555555555555555
2.82442549208,0.8611111111111112
3.56394129781,0.8666666666666667
3.59708113882,0.8722222222222222
3.94838515665,0.8777777777777778
4.47503644338,0.8833333333333333
4.58668666817,0.8888888888888888
4.62646337067,0.8944444444444445
5.73883518037,0.9
8.21955247665,0.9055555555555556
9.15807976167,0.9111111111111111
10.209624671,0.9166666666666666
10.927661697,0.9222222222222223
12.0270480117,0.9277777777777778
20.9460378233,0.9333333333333333
21.9177497642,0.9388888888888889
23.7399258285,0.9444444444444444
25.5325435535,0.95
26.3023141189,0.9555555555555556
28.1138337875,0.9611111111111111
29.9971582602,0.9666666666666667
30.7694797872,0.9722222222222222
31.723242879,0.9777777777777777
32.5388343144,0.9833333333333333
32.5515061442,0.9888888888888889
34.3170357092,0.9944444444444445
35.1794587203,1.0
