Congestion,CDF
0.0,0.005555555555555556
0.0,0.011111111111111112
0.0,0.016666666666666666
0.0,0.022222222222222223
0.0,0.027777777777777776
0.0,0.03333333333333333
0.0,0.03888888888888889
0.0,0.044444444444444446
0.0,0.05
0.0,0.05555555555555555
3.05285475899e-07,0.06111111111111111
3.5075832969e-07,0.06666666666666667
7.89527938652e-07,0.07222222222222222
1.15394100913e-06,0.07777777777777778
1.18076562066e-06,0.08333333333333333
1.5590170917e-06,0.08888888888888889
1.71512514073e-06,0.09444444444444444
2.36383354813e-06,0.1
2.37602868369e-06,0.10555555555555556
2.43090037654e-06,0.1111111111111111
2.48093109546e-06,0.11666666666666667
2.73099828872e-06,0.12222222222222222
2.79434313891e-06,0.12777777777777777
3.1204258751e-06,0.13333333333333333
3.19594298975e-06,0.1388888888888889
3.36536867678e-06,0.14444444444444443
3.89142168657e-06,0.15
4.25880023304e-06,0.15555555555555556
4.44704527891e-06,0.16111111111111112
4.62510995576e-06,0.16666666666666666
4.69828869093e-06,0.17222222222222222
4.736022171e-06,0.17777777777777778
4.89293334122e-06,0.18333333333333332
5.06295344873e-06,0.18888888888888888
5.14841826728e-06,0.19444444444444445
5.20656035351e-06,0.2
5.23544637529e-06,0.20555555555555555
5.29556702729e-06,0.2111111111111111
5.34731429753e-06,0.21666666666666667
5.35904841625e-06,0.2222222222222222
5.53810799e-06,0.22777777777777777
5.58431172596e-06,0.23333333333333334
5.64841614814e-06,0.2388888888888889
6.11693172986e-06,0.24444444444444444
6.43661171001e-06,0.25
6.98828810226e-06,0.25555555555555554
7.09899804224e-06,0.2611111111111111
7.20115777015e-06,0.26666666666666666
7.44502451752e-06,0.2722222222222222
2.63175979551e-05,0.2777777777777778
5.26351959102e-05,0.2833333333333333
5.76970504565e-05,0.28888888888888886
5.76970504565e-05,0.29444444444444445
5.94007170921e-05,0.3
5.94007170921e-05,0.3055555555555556
8.9929264682e-05,0.3111111111111111
0.000118076562066,0.31666666666666665
0.000118801434184,0.32222222222222224
0.000158175970559,0.3277777777777778
0.000236383354813,0.3333333333333333
0.000245830973852,0.3388888888888889
0.000260328017676,0.34444444444444444
0.000260328017676,0.35
0.000332500545964,0.35555555555555557
0.000506295344873,0.3611111111111111
0.000514841826728,0.36666666666666664
0.000531299267557,0.37222222222222223
0.000572370605185,0.37777777777777777
0.000605573353042,0.38333333333333336
0.000605573353042,0.3888888888888889
0.000690535501742,0.39444444444444443
0.000729769735052,0.4
0.000784698167223,0.40555555555555556
0.000838917211199,0.4111111111111111
0.0010422001865,0.4166666666666667
0.00110192730791,0.4222222222222222
0.00115938415204,0.42777777777777776
0.00142534735323,0.43333333333333335
0.00167344046278,0.4388888888888889
0.00175208848905,0.4444444444444444
0.00216351931289,0.45
0.00245091729927,0.45555555555555555
0.0043605044132,0.46111111111111114
0.00530494459791,0.4666666666666667
0.00555278514383,0.4722222222222222
0.00604944704966,0.4777777777777778
0.00619644631483,0.48333333333333334
0.00651927591875,0.4888888888888889
0.00659068023296,0.49444444444444446
0.00697982240162,0.5
0.00753825357422,0.5055555555555555
0.00758530661606,0.5111111111111111
0.00770976608829,0.5166666666666667
0.00782839665372,0.5222222222222223
0.00810783096761,0.5277777777777778
0.0203562681238,0.5333333333333333
0.0207313909405,0.5388888888888889
0.0268345712801,0.5444444444444444
0.027006445706,0.55
0.027009786176,0.5555555555555556
0.0270414578766,0.5611111111111111
0.0270532533799,0.5666666666666667
0.0270695953202,0.5722222222222222
0.0270969552471,0.5777777777777777
0.0271080706985,0.5833333333333334
0.0271550554626,0.5888888888888889
0.0271559773945,0.5944444444444444
0.0271635615697,0.6
0.0271816209467,0.6055555555555555
0.0272094789461,0.6111111111111112
0.0272151802188,0.6166666666666667
0.0272242031721,0.6222222222222222
0.0272423078092,0.6277777777777778
0.0272919163268,0.6333333333333333
0.0273002929479,0.6388888888888888
0.0273054480384,0.6444444444444445
0.0273182484752,0.65
0.0273186790746,0.6555555555555556
0.0273376834856,0.6611111111111111
0.0273410305265,0.6666666666666666
0.0273497119967,0.6722222222222223
0.0273561275001,0.6777777777777778
0.0273601793906,0.6833333333333333
0.027362400103,0.6888888888888889
0.0273665062153,0.6944444444444444
0.0273710875997,0.7
0.0273842601257,0.7055555555555556
0.0273921764336,0.7111111111111111
0.0274259472349,0.7166666666666667
0.0274485550376,0.7222222222222222
0.0274888480676,0.7277777777777777
0.027496695345,0.7333333333333333
0.027504325444,0.7388888888888889
0.0275208617921,0.7444444444444445
0.678899434861,0.75
0.678899434861,0.7555555555555555
0.901381929221,0.7611111111111111
1.04989616143,0.7666666666666667
1.352662669,0.7722222222222223
1.352662669,0.7777777777777778
1.35779886972,0.7833333333333333
1.36800896953,0.7888888888888889
1.36800896953,0.7944444444444444
1.80276385844,0.8
2.70695953202,0.8055555555555556
2.71550554626,0.8111111111111111
2.73497119967,0.8166666666666667
2.73561275001,0.8222222222222222
3.37954400546,0.8277777777777777
3.39706152953,0.8333333333333334
4.08269196379,0.8388888888888889
4.08895686414,0.8444444444444444
4.10823141412,0.85
4.31625664722,0.8555555555555555
4.31625664722,0.8611111111111112
5.44955425551,0.8666666666666667
5.47207995964,0.8722222222222222
6.08923953017,0.8777777777777778
6.82560748567,0.8833333333333333
7.02763509144,0.8888888888888888
7.05468265979,0.8944444444444445
8.81978433401,0.9
12.5240637584,0.9055555555555556
14.0448703563,0.9111111111111111
15.6425164932,0.9166666666666666
16.7612265132,0.9222222222222223
18.3914012999,0.9277777777777778
32.0215302819,0.9333333333333333
33.4387582797,0.9388888888888889
36.1908444589,0.9444444444444444
38.9227123664,0.95
40.2029093849,0.9555555555555556
42.9477648887,0.9611111111111111
45.7395073828,0.9666666666666667
47.0228478749,0.9722222222222222
48.4229645108,0.9777777777777777
49.7470786558,0.9833333333333333
50.4585913232,0.9888888888888889
52.4578857257,0.9944444444444445
54.5310248197,1.0
