Congestion,CDF
0.0,0.005555555555555556
0.0,0.011111111111111112
0.0,0.016666666666666666
0.0,0.022222222222222223
0.0,0.027777777777777776
0.0,0.03333333333333333
0.0,0.03888888888888889
0.0,0.044444444444444446
0.0,0.05
0.0,0.05555555555555555
2.99245046691e-07,0.06111111111111111
3.43818167033e-07,0.06666666666666667
7.73906207528e-07,0.07222222222222222
1.13110894038e-06,0.07777777777777778
1.15740279568e-06,0.08333333333333333
1.52817012019e-06,0.08888888888888889
1.6811893894e-06,0.09444444444444444
2.31706234435e-06,0.1
2.32901618492e-06,0.10555555555555556
2.38280217733e-06,0.1111111111111111
2.43184298013e-06,0.11666666666666667
2.6769623023e-06,0.12222222222222222
2.73905380075e-06,0.12777777777777777
3.05868460968e-06,0.13333333333333333
3.13270753014e-06,0.1388888888888889
3.29878093234e-06,0.14444444444444443
3.81442536978e-06,0.15
4.17453490322e-06,0.15555555555555556
4.3590553013e-06,0.16111111111111112
4.53359676083e-06,0.16666666666666666
4.60532756938e-06,0.17222222222222222
4.64231444854e-06,0.17777777777777778
4.79612094824e-06,0.18333333333333332
4.96277700962e-06,0.18888888888888888
5.04655080706e-06,0.19444444444444445
5.1035424843e-06,0.2
5.13185696244e-06,0.20555555555555555
5.19078805722e-06,0.2111111111111111
5.24151144736e-06,0.21666666666666667
5.25301339286e-06,0.2222222222222222
5.4285300641e-06,0.22777777777777777
5.47381960526e-06,0.23333333333333334
5.53665564668e-06,0.2388888888888889
5.99590110116e-06,0.24444444444444444
6.30925584005e-06,0.25
6.85001667143e-06,0.25555555555555554
6.95853608613e-06,0.2611111111111111
7.05867446467e-06,0.26666666666666666
7.29771602401e-06,0.2722222222222222
2.57968735843e-05,0.2777777777777778
5.15937471685e-05,0.2833333333333333
5.65554470188e-05,0.28888888888888886
5.65554470188e-05,0.29444444444444445
5.8225404623e-05,0.3
5.8225404623e-05,0.3055555555555556
8.81499092922e-05,0.3111111111111111
0.000115740279568,0.31666666666666665
0.000116450809246,0.32222222222222224
0.000155046274494,0.3277777777777778
0.000231706234435,0.3333333333333333
0.000240966921311,0.3388888888888889
0.000255177124215,0.34444444444444444
0.000255177124215,0.35
0.000325921634853,0.35555555555555557
0.000496277700962,0.3611111111111111
0.000504655080706,0.36666666666666664
0.000520786891873,0.37222222222222223
0.000561045585183,0.37777777777777777
0.000593591377948,0.38333333333333336
0.000593591377948,0.3888888888888889
0.000676872451441,0.39444444444444443
0.000715330389684,0.4
0.00076917199876,0.40555555555555556
0.000822318255713,0.4111111111111111
0.00102157904025,0.4166666666666667
0.0010801243909,0.4222222222222222
0.00113644438436,0.42777777777777776
0.00139714519341,0.43333333333333335
0.00164032949142,0.4388888888888889
0.00171742137476,0.4444444444444444
0.00212071155989,0.45
0.0024024230419,0.45555555555555555
0.00427422674756,0.46111111111111114
0.00519998008167,0.4666666666666667
0.00544291681332,0.4722222222222222
0.00592975168407,0.4777777777777778
0.00607384239733,0.48333333333333334
0.00639028444101,0.4888888888888889
0.00646027593758,0.49444444444444446
0.00684171847456,0.5
0.00738910043508,0.5055555555555555
0.00743522247762,0.5111111111111111
0.00755721937402,0.5166666666666667
0.00767350269535,0.5222222222222223
0.00794740807542,0.5277777777777778
0.0269022836774,0.5333333333333333
0.0271462256152,0.5388888888888889
0.0308776606587,0.5444444444444444
0.0310496212546,0.55
0.0310569819501,0.5555555555555556
0.0310589706847,0.5611111111111111
0.03107759943,0.5666666666666667
0.0310786435197,0.5722222222222222
0.0310941068624,0.5777777777777777
0.0311102228081,0.5833333333333334
0.0311443988847,0.5888888888888889
0.0311449583015,0.5944444444444444
0.0311494241261,0.6
0.0311600499545,0.6055555555555555
0.03117633175,0.6111111111111112
0.0311797881851,0.6166666666666667
0.0311837907013,0.6222222222222222
0.0311870923728,0.6277777777777778
0.031219354589,0.6333333333333333
0.0312249295808,0.6388888888888888
0.0312328654816,0.6444444444444445
0.0312386526271,0.65
0.0312403727386,0.6555555555555556
0.0312427729455,0.6611111111111111
0.0312518463688,0.6666666666666666
0.0312588208282,0.6722222222222223
0.0312626957861,0.6777777777777778
0.0312650193331,0.6833333333333333
0.0312663813738,0.6888888888888889
0.0312687003292,0.6944444444444444
0.0312713946533,0.7
0.0312792444151,0.7055555555555556
0.0312838816801,0.7111111111111111
0.0313037252924,0.7166666666666667
0.0313168305517,0.7222222222222222
0.0313407240065,0.7277777777777777
0.0313452803129,0.7333333333333333
0.0313498735747,0.7388888888888889
0.0313591612955,0.7444444444444445
0.778623957536,0.75
0.778623957536,0.7555555555555555
1.035919981,0.7611111111111111
1.2086006785,0.7666666666666667
1.55393217598,0.7722222222222223
1.55393217598,0.7777777777777778
1.55724791507,0.7833333333333333
1.56325096666,0.7888888888888889
1.56325096666,0.7944444444444444
2.071839962,0.8
3.10941068624,0.8055555555555556
3.11443988847,0.8111111111111111
3.12588208282,0.8166666666666667
3.12626957861,0.8222222222222222
3.88432215254,0.8277777777777777
3.89462895299,0.8333333333333334
4.67586763488,0.8388888888888889
4.68088414166,0.8444444444444444
4.69223527254,0.85
4.94102702653,0.8555555555555555
4.94102702653,0.8611111111111112
6.23978321548,0.8666666666666667
6.25302154815,0.8722222222222222
6.99534443336,0.8777777777777778
7.80775417458,0.8833333333333333
8.05304189207,0.8888888888888888
8.06895146804,0.8944444444444445
10.1186309815,0.9
14.3204056835,0.9055555555555556
16.0999659871,0.9111111111111111
17.9247100046,0.9166666666666666
19.2149083997,0.9222222222222223
21.0587824053,0.9277777777777778
36.6619522206,0.9333333333333333
38.2540861593,0.9388888888888889
41.3900022889,0.9444444444444444
44.5138675516,0.95
46.0257727099,0.9555555555555556
49.1574557651,0.9611111111111111
52.314012481,0.9666666666666667
53.8297670112,0.9722222222222222
55.4017785469,0.9777777777777777
56.9484762485,0.9833333333333333
58.0920069146,0.9888888888888889
60.0534383739,0.9944444444444445
62.7680609355,1.0
