Congestion,CDF
0.0,0.005555555555555556
0.0,0.011111111111111112
0.0,0.016666666666666666
0.0,0.022222222222222223
0.0,0.027777777777777776
0.0,0.03333333333333333
0.0,0.03888888888888889
0.0,0.044444444444444446
0.0,0.05
0.0,0.05555555555555555
3.39185766277e-07,0.06111111111111111
3.89708132966e-07,0.06666666666666667
8.77200718707e-07,0.07222222222222222
1.2820798771e-06,0.07777777777777778
1.31188321573e-06,0.08333333333333333
1.73213745374e-06,0.08888888888888889
1.90558045189e-06,0.09444444444444444
2.62632439691e-06,0.1
2.63987373589e-06,0.10555555555555556
2.70083863156e-06,0.1111111111111111
2.75642498949e-06,0.11666666666666667
3.0342607834e-06,0.12222222222222222
3.10463973441e-06,0.12777777777777777
3.46693218353e-06,0.13333333333333333
3.55083506271e-06,0.1388888888888889
3.73907455007e-06,0.14444444444444443
4.3235428832e-06,0.15
4.73171681756e-06,0.15555555555555556
4.94086545112e-06,0.16111111111111112
5.1387032411e-06,0.16666666666666666
5.22000807649e-06,0.17222222222222222
5.26193165413e-06,0.17777777777777778
5.43626695571e-06,0.18333333333333332
5.62516687071e-06,0.18888888888888888
5.72012209216e-06,0.19444444444444445
5.78472054059e-06,0.2
5.81681419785e-06,0.20555555555555555
5.88361092101e-06,0.2111111111111111
5.94110444394e-06,0.21666666666666667
5.95414157268e-06,0.2222222222222222
6.15308473745e-06,0.22777777777777777
6.20441914679e-06,0.23333333333333334
6.27564201612e-06,0.2388888888888889
6.79618370298e-06,0.24444444444444444
7.15136240485e-06,0.25
7.76429945759e-06,0.25555555555555554
7.8873031338e-06,0.2611111111111111
8.00080714342e-06,0.26666666666666666
8.27175396568e-06,0.2722222222222222
2.92400239569e-05,0.2777777777777778
5.84800479138e-05,0.2833333333333333
6.4103993855e-05,0.28888888888888886
6.4103993855e-05,0.29444444444444445
6.59968433972e-05,0.3
6.59968433972e-05,0.3055555555555556
9.99154200249e-05,0.3111111111111111
0.000131188321573,0.31666666666666665
0.000131993686794,0.32222222222222224
0.000175740551111,0.3277777777777778
0.000262632439691,0.3333333333333333
0.000273129165399,0.3388888888888889
0.00028923602703,0.34444444444444444
0.00028923602703,0.35
0.000369422921737,0.35555555555555557
0.000562516687071,0.3611111111111111
0.000572012209216,0.36666666666666664
0.000590297159268,0.37222222222222223
0.000635929245382,0.37777777777777777
0.00067281897766,0.38333333333333336
0.00067281897766,0.3888888888888889
0.000767215710511,0.39444444444444443
0.000810806691871,0.4
0.00087183462745,0.40555555555555556
0.000932074401136,0.4111111111111111
0.00115793084434,0.4166666666666667
0.00122429033748,0.4222222222222222
0.0012881274514,0.42777777777777776
0.00158362441841,0.43333333333333335
0.00185926691736,0.4388888888888889
0.00194664837884,0.4444444444444444
0.00240376635619,0.45
0.0027230783246,0.45555555555555555
0.00484471469333,0.46111111111111114
0.00589402981981,0.4666666666666667
0.00616939170932,0.4722222222222222
0.00672120521637,0.4777777777777778
0.0068845279498,0.48333333333333334
0.00724320602402,0.4888888888888889
0.00732253939866,0.49444444444444446
0.00775489368698,0.5
0.00837533560166,0.5055555555555555
0.00842761362769,0.5111111111111111
0.00856589364685,0.5166666666666667
0.00869769749084,0.5222222222222223
0.00900816146428,0.5277777777777778
0.0136104483849,0.5333333333333333
0.013725377847,0.5388888888888889
0.0153745098104,0.5444444444444444
0.0154695586241,0.55
0.0155284569123,0.5555555555555556
0.0155294801216,0.5611111111111111
0.0155324740371,0.5666666666666667
0.0155387924702,0.5722222222222222
0.0155469927627,0.5777777777777777
0.0155550772825,0.5833333333333334
0.0155721646891,0.5888888888888889
0.0155724651657,0.5944444444444444
0.0155747035974,0.6
0.0155800197479,0.6055555555555555
0.0155840954392,0.6111111111111112
0.0155880328392,0.6166666666666667
0.015589885806,0.6222222222222222
0.015590341531,0.6277777777777778
0.0155974957169,0.6333333333333333
0.0156093268422,0.6388888888888888
0.0156124595501,0.6444444444444445
0.0156163984433,0.65
0.0156169291368,0.6555555555555556
0.0156201249184,0.6611111111111111
0.015625911788,0.6666666666666666
0.015629276234,0.6722222222222223
0.0156313364927,0.6777777777777778
0.0156324255155,0.6833333333333333
0.0156331742153,0.6888888888888889
0.015634216659,0.6944444444444444
0.0156355630909,0.7
0.0156396108383,0.7055555555555556
0.015641905931,0.7111111111111111
0.015651801568,0.7166666666666667
0.0156581207912,0.7222222222222222
0.0156702987626,0.7277777777777777
0.0156725044984,0.7333333333333333
0.0156749284559,0.7388888888888889
0.0156790413609,0.7444444444444445
0.389311629143,0.75
0.389311629143,0.7555555555555555
0.517959749007,0.7611111111111111
0.604445727878,0.7666666666666667
0.776623701855,0.7722222222222223
0.776623701855,0.7777777777777778
0.778623258286,0.7833333333333333
0.781621275775,0.7888888888888889
0.781621275775,0.7944444444444444
1.03591949801,0.8
1.55469927627,0.8055555555555556
1.55721646891,0.8111111111111111
1.5629276234,0.8166666666666667
1.56313364927,0.8222222222222222
1.94215732037,0.8277777777777777
1.94731360393,0.8333333333333334
2.33637327355,0.8388888888888889
2.3404245597,0.8444444444444444
2.34611610388,0.85
2.47051209125,0.8555555555555555
2.47051209125,0.8611111111111112
3.11987943308,0.8666666666666667
3.12648393249,0.8722222222222222
3.49766504862,0.8777777777777778
3.9038462256,0.8833333333333333
4.02651930795,0.8888888888888888
4.03447317508,0.8944444444444445
5.05930489295,0.9
7.16019800314,0.9055555555555556
8.04997941136,0.9111111111111111
8.96233323073,0.9166666666666666
9.6074497711,0.9222222222222223
10.529363107,0.9277777777777778
18.3309651958,0.9333333333333333
19.1269437149,0.9388888888888889
20.694847851,0.9444444444444444
22.2565407647,0.95
23.0128571207,0.9555555555555556
24.5786691998,0.9611111111111111
26.1538467224,0.9666666666666667
26.9143270548,0.9722222222222222
27.6912977035,0.9777777777777777
28.4727365987,0.9833333333333333
29.052342542,0.9888888888888889
30.0196924611,0.9944444444444445
31.3922302458,1.0
