Congestion,CDF
0.0,0.007352941176470588
0.0,0.014705882352941176
0.0,0.022058823529411766
0.0,0.029411764705882353
0.0,0.03676470588235294
0.0,0.04411764705882353
0.0,0.051470588235294115
0.0,0.058823529411764705
0.0,0.0661764705882353
0.0,0.07352941176470588
0.0,0.08088235294117647
0.0,0.08823529411764706
0.0,0.09558823529411764
0.0,0.10294117647058823
6.59239703266e-07,0.11029411764705882
6.59239703266e-07,0.11764705882352941
6.59239703266e-07,0.125
6.59239703266e-07,0.1323529411764706
6.59239703266e-07,0.13970588235294118
6.59239703266e-07,0.14705882352941177
6.59239703266e-07,0.15441176470588236
6.59239703266e-07,0.16176470588235295
6.59239703266e-07,0.16911764705882354
6.59239703266e-07,0.17647058823529413
6.59239703266e-07,0.18382352941176472
6.59239703266e-07,0.19117647058823528
6.59239703266e-07,0.19852941176470587
6.59239703266e-07,0.20588235294117646
6.59239703266e-07,0.21323529411764705
6.59239703266e-07,0.22058823529411764
6.59239703266e-07,0.22794117647058823
6.59239703266e-07,0.23529411764705882
6.59239703266e-07,0.2426470588235294
6.59239703266e-07,0.25
6.59239703266e-07,0.25735294117647056
6.59239703266e-07,0.2647058823529412
6.59239703266e-07,0.27205882352941174
6.59239703266e-07,0.27941176470588236
6.59239703266e-07,0.2867647058823529
6.59239703266e-07,0.29411764705882354
6.59239703266e-07,0.3014705882352941
1.64809925817e-05,0.3088235294117647
1.64809925817e-05,0.3161764705882353
1.77994719882e-05,0.3235294117647059
3.29619851633e-05,0.33088235294117646
3.29619851633e-05,0.3382352941176471
3.29619851633e-05,0.34558823529411764
3.29619851633e-05,0.35294117647058826
4.9442977745e-05,0.3602941176470588
5.49366419389e-05,0.36764705882352944
5.49366419389e-05,0.375
5.49366419389e-05,0.38235294117647056
6.59239703266e-05,0.3897058823529412
6.59239703266e-05,0.39705882352941174
6.59239703266e-05,0.40441176470588236
6.59239703266e-05,0.4117647058823529
6.59239703266e-05,0.41911764705882354
6.59239703266e-05,0.4264705882352941
6.59239703266e-05,0.4338235294117647
8.24049629083e-05,0.4411764705882353
9.888595549e-05,0.4485294117647059
9.888595549e-05,0.45588235294117646
0.000120860612266,0.4632352941176471
0.000131847940653,0.47058823529411764
0.000131847940653,0.47794117647058826
0.00019777191098,0.4852941176470588
0.0002691895455,0.49264705882352944
0.000477948784868,0.5
0.000488936113256,0.5073529411764706
0.000631771382297,0.5147058823529411
0.000785593979726,0.5220588235294118
0.000796581308114,0.5294117647058824
0.000851517950052,0.5367647058823529
0.00086250527844,0.5441176470588235
0.000928429248767,0.5514705882352942
0.038843370103,0.5588235294117647
0.0396602830277,0.5661764705882353
0.0491697687674,0.5735294117647058
0.0492322059876,0.5808823529411765
0.0493645617111,0.5882352941176471
0.0494013206503,0.5955882352941176
0.0494253731992,0.6029411764705882
0.0494428593417,0.6102941176470589
0.0495057430132,0.6176470588235294
0.049518333439,0.625
0.0495245669847,0.6323529411764706
0.0495292797547,0.6397058823529411
0.049531348393,0.6470588235294118
0.0495320276969,0.6544117647058824
0.0495326360529,0.6617647058823529
0.0495332899103,0.6691176470588235
0.0495335574859,0.6764705882352942
0.049534814063,0.6838235294117647
0.0495356358691,0.6911764705882353
0.0495417479615,0.6985294117647058
0.0495437704248,0.7058823529411765
0.0495437808742,0.7132352941176471
0.0495438794468,0.7205882352941176
0.0495438827723,0.7279411764705882
0.0495440167525,0.7352941176470589
0.0495440189696,0.7426470588235294
0.0495440189696,0.75
1.23830069242,0.7573529411764706
1.23837035157,0.7647058823529411
1.31570009162,0.7720588235294118
2.47214296708,0.7794117647058824
2.47214296708,0.7867647058823529
2.47678179345,0.7941176470588235
2.47678179345,0.8014705882352942
3.71490207727,0.8088235294117647
4.12771599043,0.8161764705882353
4.12771599043,0.8235294117647058
4.12771599043,0.8308823529411765
4.94253731992,0.8382352941176471
4.95332899103,0.8455882352941176
4.9534814063,0.8529411764705882
4.95437808742,0.8602941176470589
4.95438827723,0.8676470588235294
4.95440189696,0.875
4.95440189696,0.8823529411764706
6.19165644101,0.8897058823529411
7.40859913819,0.8970588235294118
7.42970976893,0.9044117647058824
9.07954933433,0.9117647058823529
9.88266938494,0.9191176470588235
9.90877622191,0.9264705882352942
14.8632054692,0.9338235294117647
20.2259650278,0.9411764705882353
35.9191071726,0.9485294117647058
36.7282316305,0.9558823529411765
47.4777797526,0.9632352941176471
58.9364770304,0.9705882352941176
59.85994622,0.9779411764705882
62.8208140407,0.9852941176470589
64.7831668187,0.9926470588235294
68.7491951215,1.0
