Congestion,CDF
0.0,0.007352941176470588
0.0,0.014705882352941176
0.0,0.022058823529411766
0.0,0.029411764705882353
0.0,0.03676470588235294
0.0,0.04411764705882353
0.0,0.051470588235294115
0.0,0.058823529411764705
0.0,0.0661764705882353
0.0,0.07352941176470588
0.0,0.08088235294117647
0.0,0.08823529411764706
0.0,0.09558823529411764
0.0,0.10294117647058823
1.22267387749e-06,0.11029411764705882
1.22267387749e-06,0.11764705882352941
1.22267387749e-06,0.125
1.22267387749e-06,0.1323529411764706
1.22267387749e-06,0.13970588235294118
1.22267387749e-06,0.14705882352941177
1.22267387749e-06,0.15441176470588236
1.22267387749e-06,0.16176470588235295
1.22267387749e-06,0.16911764705882354
1.22267387749e-06,0.17647058823529413
1.22267387749e-06,0.18382352941176472
1.22267387749e-06,0.19117647058823528
1.22267387749e-06,0.19852941176470587
1.22267387749e-06,0.20588235294117646
1.22267387749e-06,0.21323529411764705
1.22267387749e-06,0.22058823529411764
1.22267387749e-06,0.22794117647058823
1.22267387749e-06,0.23529411764705882
1.22267387749e-06,0.2426470588235294
1.22267387749e-06,0.25
1.22267387749e-06,0.25735294117647056
1.22267387749e-06,0.2647058823529412
1.22267387749e-06,0.27205882352941174
1.22267387749e-06,0.27941176470588236
1.22267387749e-06,0.2867647058823529
1.22267387749e-06,0.29411764705882354
1.22267387749e-06,0.3014705882352941
3.05668469372e-05,0.3088235294117647
3.05668469372e-05,0.3161764705882353
3.30121946922e-05,0.3235294117647059
6.11336938744e-05,0.33088235294117646
6.11336938744e-05,0.3382352941176471
6.11336938744e-05,0.34558823529411764
6.11336938744e-05,0.35294117647058826
9.17005408116e-05,0.3602941176470588
0.000101889489791,0.36764705882352944
0.000101889489791,0.375
0.000101889489791,0.38235294117647056
0.000122267387749,0.3897058823529412
0.000122267387749,0.39705882352941174
0.000122267387749,0.40441176470588236
0.000122267387749,0.4117647058823529
0.000122267387749,0.41911764705882354
0.000122267387749,0.4264705882352941
0.000122267387749,0.4338235294117647
0.000152834234686,0.4411764705882353
0.000183401081623,0.4485294117647059
0.000183401081623,0.45588235294117646
0.000224156877539,0.4632352941176471
0.000244534775497,0.47058823529411764
0.000244534775497,0.47794117647058826
0.000366802163246,0.4852941176470588
0.000499258499974,0.49264705882352944
0.000886438561178,0.5
0.000906816459136,0.5073529411764706
0.00117172913259,0.5147058823529411
0.00145701970401,0.5220588235294118
0.00147739760196,0.5294117647058824
0.00157928709175,0.5367647058823529
0.00159966498971,0.5441176470588235
0.00172193237746,0.5514705882352942
0.0106016564796,0.5588235294117647
0.0117283317764,0.5661764705882353
0.0269769579953,0.5735294117647058
0.0270741511049,0.5808823529411765
0.0273448463408,0.5882352941176471
0.0273922668147,0.5955882352941176
0.027437034908,0.6029411764705882
0.0274466493731,0.6102941176470589
0.0275124365823,0.6176470588235294
0.0275317451064,0.625
0.0275341221862,0.6323529411764706
0.0275419376469,0.6397058823529411
0.0275447410949,0.6470588235294118
0.0275454817189,0.6544117647058824
0.0275455502748,0.6617647058823529
0.0275465701265,0.6691176470588235
0.0275468395951,0.6764705882352942
0.0275480972618,0.6838235294117647
0.0275484451251,0.6911764705882353
0.0275543459696,0.6985294117647058
0.0275563300508,0.7058823529411765
0.0275563433519,0.7132352941176471
0.0275564415718,0.7205882352941176
0.0275564452017,0.7279411764705882
0.0275565611079,0.7352941176470589
0.0275565635279,0.7426470588235294
0.0275565635279,0.75
0.688637042974,0.7573529411764706
0.688702431545,0.7647058823529411
0.709397455821,0.7720588235294118
1.37233246865,0.7794117647058824
1.37233246865,0.7867647058823529
1.37742225625,0.7941176470588235
1.37742225625,0.8014705882352942
2.06591112892,0.8088235294117647
2.29549751102,0.8161764705882353
2.29549751102,0.8235294117647058
2.29549751102,0.8308823529411765
2.7437034908,0.8382352941176471
2.75465701265,0.8455882352941176
2.75480972618,0.8529411764705882
2.75563433519,0.8602941176470589
2.75564452017,0.8676470588235294
2.75565635279,0.875
2.75565635279,0.8823529411764706
3.44332100248,0.8897058823529411
4.10681710274,0.8970588235294118
4.13161602094,0.9044117647058824
5.04867202165,0.9117647058823529
5.48293017227,0.9191176470588235
5.51128867735,0.9264705882352942
8.26696881636,0.9338235294117647
11.2480305536,0.9411764705882353
19.9782272655,0.9485294117647058
20.4202787022,0.9558823529411765
26.4065816298,0.9632352941176471
32.7077217767,0.9705882352941176
33.2916098693,0.9779411764705882
33.7678874247,0.9852941176470589
35.9990249798,0.9926470588235294
37.1718581575,1.0
