Congestion,CDF
0.0,0.007352941176470588
0.0,0.014705882352941176
0.0,0.022058823529411766
0.0,0.029411764705882353
0.0,0.03676470588235294
0.0,0.04411764705882353
0.0,0.051470588235294115
0.0,0.058823529411764705
0.0,0.0661764705882353
0.0,0.07352941176470588
0.0,0.08088235294117647
0.0,0.08823529411764706
0.0,0.09558823529411764
0.0,0.10294117647058823
6.79521392378e-06,0.11029411764705882
6.79521392378e-06,0.11764705882352941
6.79521392378e-06,0.125
6.79521392378e-06,0.1323529411764706
6.79521392378e-06,0.13970588235294118
6.79521392378e-06,0.14705882352941177
6.79521392378e-06,0.15441176470588236
6.79521392378e-06,0.16176470588235295
6.79521392378e-06,0.16911764705882354
6.79521392378e-06,0.17647058823529413
6.79521392378e-06,0.18382352941176472
6.79521392378e-06,0.19117647058823528
6.79521392378e-06,0.19852941176470587
6.79521392378e-06,0.20588235294117646
6.79521392378e-06,0.21323529411764705
6.79521392378e-06,0.22058823529411764
6.79521392378e-06,0.22794117647058823
6.79521392378e-06,0.23529411764705882
6.79521392378e-06,0.2426470588235294
6.79521392378e-06,0.25
6.79521392378e-06,0.25735294117647056
6.79521392378e-06,0.2647058823529412
6.79521392378e-06,0.27205882352941174
6.79521392378e-06,0.27941176470588236
6.79521392378e-06,0.2867647058823529
6.79521392378e-06,0.29411764705882354
6.79521392378e-06,0.3014705882352941
0.000169880348094,0.3088235294117647
0.000169880348094,0.3161764705882353
0.000183470775942,0.3235294117647059
0.000248874310009,0.33088235294117646
0.000339760696189,0.3382352941176471
0.000339760696189,0.34558823529411764
0.000339760696189,0.35294117647058826
0.000339760696189,0.3602941176470588
0.000509641044283,0.36764705882352944
0.000566267826982,0.375
0.000566267826982,0.38235294117647056
0.000566267826982,0.3897058823529412
0.000644531485121,0.39705882352941174
0.000679521392378,0.40441176470588236
0.000679521392378,0.4117647058823529
0.000679521392378,0.41911764705882354
0.000679521392378,0.4264705882352941
0.000679521392378,0.4338235294117647
0.000679521392378,0.4411764705882353
0.000679521392378,0.4485294117647059
0.000849401740472,0.45588235294117646
0.00101928208857,0.4632352941176471
0.00101928208857,0.47058823529411764
0.00124578921936,0.47794117647058826
0.00135904278476,0.4852941176470588
0.00135904278476,0.49264705882352944
0.00203856417713,0.5
0.00277471235221,0.5073529411764706
0.00420944028326,0.5147058823529411
0.00440797404995,0.5220588235294118
0.00481615284543,0.5294117647058824
0.00492653009474,0.5367647058823529
0.00495061792888,0.5441176470588235
0.00503573381493,0.5514705882352942
0.00503978366014,0.5588235294117647
0.00505834083622,0.5661764705882353
0.00526289314939,0.5735294117647058
0.00531514992273,0.5808823529411765
0.00532011085502,0.5882352941176471
0.00534033413569,0.5955882352941176
0.00534767308313,0.6029411764705882
0.00534986313371,0.6102941176470589
0.00534988218481,0.6176470588235294
0.00535254610237,0.625
0.00535411003942,0.6323529411764706
0.00535653918489,0.6397058823529411
0.00535663175236,0.6470588235294118
0.00537215710839,0.6544117647058824
0.00537720026546,0.6617647058823529
0.00537724360916,0.6691176470588235
0.00537753306517,0.6764705882352942
0.00537754656165,0.6838235294117647
0.00537776051052,0.6911764705882353
0.00537776950868,0.6985294117647058
0.00537776950868,0.7058823529411765
0.00651208001029,0.7132352941176471
0.00809762992584,0.7205882352941176
0.00821088349123,0.7279411764705882
0.00877715131822,0.7352941176470589
0.00889040488361,0.7426470588235294
0.00956992627599,0.75
0.131092379235,0.7573529411764706
0.133746578343,0.7647058823529411
0.133913479622,0.7720588235294118
0.252917041811,0.7794117647058824
0.252917041811,0.7867647058823529
0.267831587618,0.7941176470588235
0.267831587618,0.8014705882352942
0.401239735028,0.8088235294117647
0.445915827403,0.8161764705882353
0.445915827403,0.8235294117647058
0.445915827403,0.8308823529411765
0.503573381493,0.8382352941176471
0.535254610237,0.8455882352941176
0.535653918489,0.8529411764705882
0.537724360916,0.8602941176470589
0.537754656165,0.8676470588235294
0.537776950868,0.875
0.537776950868,0.8823529411764706
0.669157582285,0.8897058823529411
0.734532326355,0.8970588235294118
0.801865001187,0.9044117647058824
0.977430819676,0.9117647058823529
0.998635174381,0.9191176470588235
1.07550796268,0.9264705882352942
1.61332995279,0.9338235294117647
2.18531623841,0.9411764705882353
3.89819578255,0.9485294117647058
3.94195341483,0.9558823529411765
5.14915890841,0.9632352941176471
6.09606494389,0.9705882352941176
6.16051809241,0.9779411764705882
6.4830349951,0.9852941176470589
6.9238324001,0.9926470588235294
6.9487198311,1.0
