Congestion,CDF
0.0,0.007352941176470588
0.0,0.014705882352941176
0.0,0.022058823529411766
0.0,0.029411764705882353
0.0,0.03676470588235294
0.0,0.04411764705882353
0.0,0.051470588235294115
0.0,0.058823529411764705
0.0,0.0661764705882353
0.0,0.07352941176470588
0.0,0.08088235294117647
0.0,0.08823529411764706
0.0,0.09558823529411764
0.0,0.10294117647058823
7.99235371226e-07,0.11029411764705882
7.99235371226e-07,0.11764705882352941
7.99235371226e-07,0.125
7.99235371226e-07,0.1323529411764706
7.99235371226e-07,0.13970588235294118
7.99235371226e-07,0.14705882352941177
7.99235371226e-07,0.15441176470588236
7.99235371226e-07,0.16176470588235295
7.99235371226e-07,0.16911764705882354
7.99235371226e-07,0.17647058823529413
7.99235371226e-07,0.18382352941176472
7.99235371226e-07,0.19117647058823528
7.99235371226e-07,0.19852941176470587
7.99235371226e-07,0.20588235294117646
7.99235371226e-07,0.21323529411764705
7.99235371226e-07,0.22058823529411764
7.99235371226e-07,0.22794117647058823
7.99235371226e-07,0.23529411764705882
7.99235371226e-07,0.2426470588235294
7.99235371226e-07,0.25
7.99235371226e-07,0.25735294117647056
7.99235371226e-07,0.2647058823529412
7.99235371226e-07,0.27205882352941174
7.99235371226e-07,0.27941176470588236
7.99235371226e-07,0.2867647058823529
7.99235371226e-07,0.29411764705882354
7.99235371226e-07,0.3014705882352941
1.99808842806e-05,0.3088235294117647
1.99808842806e-05,0.3161764705882353
2.15793550231e-05,0.3235294117647059
3.99617685613e-05,0.33088235294117646
3.99617685613e-05,0.3382352941176471
3.99617685613e-05,0.34558823529411764
3.99617685613e-05,0.35294117647058826
5.99426528419e-05,0.3602941176470588
6.66029476021e-05,0.36764705882352944
6.66029476021e-05,0.375
6.66029476021e-05,0.38235294117647056
7.99235371226e-05,0.3897058823529412
7.99235371226e-05,0.39705882352941174
7.99235371226e-05,0.40441176470588236
7.99235371226e-05,0.4117647058823529
7.99235371226e-05,0.41911764705882354
7.99235371226e-05,0.4264705882352941
7.99235371226e-05,0.4338235294117647
9.99044214032e-05,0.4411764705882353
0.000119885305684,0.4485294117647059
0.000119885305684,0.45588235294117646
0.000146526484725,0.4632352941176471
0.000159847074245,0.47058823529411764
0.000159847074245,0.47794117647058826
0.000239770611368,0.4852941176470588
0.000326354443251,0.49264705882352944
0.000579445644139,0.5
0.000592766233659,0.5073529411764706
0.000765933897425,0.5147058823529411
0.000952422150711,0.5220588235294118
0.000965742740231,0.5294117647058824
0.00103234568783,0.5367647058823529
0.00104566627735,0.5441176470588235
0.00112558981448,0.5514705882352942
0.0278078609027,0.5588235294117647
0.0287963695212,0.5661764705882353
0.0407767630741,0.5735294117647058
0.0408482170382,0.5808823529411765
0.0410230784221,0.5882352941176471
0.0410630390765,0.5955882352941176
0.0410920463964,0.6029411764705882
0.0411056741172,0.6102941176470589
0.0411668402492,0.6176470588235294
0.0411810798961,0.625
0.041185553314,0.6323529411764706
0.0411909026452,0.6397058823529411
0.0411932813345,0.6470588235294118
0.0411939222995,0.6544117647058824
0.0411943479356,0.6617647058823529
0.0411950609275,0.6691176470588235
0.0411953042095,0.6764705882352942
0.0411964990287,0.6838235294117647
0.041197014281,0.6911764705882353
0.0412028005552,0.6985294117647058
0.0412046938206,0.7058823529411765
0.0412047043968,0.7132352941176471
0.0412048020262,0.7205882352941176
0.0412048052461,0.7279411764705882
0.0412049213654,0.7352941176470589
0.0412049235121,0.7426470588235294
0.0412049235121,0.75
1.02984805749,0.7573529411764706
1.02991247572,0.7647058823529411
1.0852394291,0.7720588235294118
2.05528370586,0.7794117647058824
2.05528370586,0.7867647058823529
2.05985071405,0.7941176470588235
2.05985071405,0.8014705882352942
3.08954417246,0.8088235294117647
3.43286991102,0.8161764705882353
3.43286991102,0.8235294117647058
3.43286991102,0.8308823529411765
4.10920463964,0.8382352941176471
4.11950609275,0.8455882352941176
4.11964990287,0.8529411764705882
4.12047043968,0.8602941176470589
4.12048052461,0.8676470588235294
4.12049235121,0.875
4.12049235121,0.8823529411764706
5.14937847843,0.8897058823529411
6.15759154807,0.8970588235294118
6.17894097857,0.9044117647058824
7.55097790063,0.9117647058823529
8.21550854728,0.9191176470588235
8.24096072723,0.9264705882352942
12.361476839,0.9338235294117647
16.8211892758,0.9411764705882353
29.8732898636,0.9485294117647058
30.5441349072,0.9558823529411765
39.4862905442,0.9632352941176471
48.9949113099,0.9705882352941176
49.7837868542,0.9779411764705882
51.7756974002,0.9852941176470589
53.868608558,0.9926470588235294
56.7482455102,1.0
