Congestion,CDF
0.0,0.007352941176470588
0.0,0.014705882352941176
0.0,0.022058823529411766
0.0,0.029411764705882353
0.0,0.03676470588235294
0.0,0.04411764705882353
0.0,0.051470588235294115
0.0,0.058823529411764705
0.0,0.0661764705882353
0.0,0.07352941176470588
0.0,0.08088235294117647
0.0,0.08823529411764706
0.0,0.09558823529411764
0.0,0.10294117647058823
2.59580362892e-06,0.11029411764705882
2.59580362892e-06,0.11764705882352941
2.59580362892e-06,0.125
2.59580362892e-06,0.1323529411764706
2.59580362892e-06,0.13970588235294118
2.59580362892e-06,0.14705882352941177
2.59580362892e-06,0.15441176470588236
2.59580362892e-06,0.16176470588235295
2.59580362892e-06,0.16911764705882354
2.59580362892e-06,0.17647058823529413
2.59580362892e-06,0.18382352941176472
2.59580362892e-06,0.19117647058823528
2.59580362892e-06,0.19852941176470587
2.59580362892e-06,0.20588235294117646
2.59580362892e-06,0.21323529411764705
2.59580362892e-06,0.22058823529411764
2.59580362892e-06,0.22794117647058823
2.59580362892e-06,0.23529411764705882
2.59580362892e-06,0.2426470588235294
2.59580362892e-06,0.25
2.59580362892e-06,0.25735294117647056
2.59580362892e-06,0.2647058823529412
2.59580362892e-06,0.27205882352941174
2.59580362892e-06,0.27941176470588236
2.59580362892e-06,0.2867647058823529
2.59580362892e-06,0.29411764705882354
2.59580362892e-06,0.3014705882352941
6.4895090723e-05,0.3088235294117647
6.4895090723e-05,0.3161764705882353
7.00866979808e-05,0.3235294117647059
0.000129790181446,0.33088235294117646
0.000129790181446,0.3382352941176471
0.000129790181446,0.34558823529411764
0.000129790181446,0.35294117647058826
0.000194685272169,0.3602941176470588
0.000216316969077,0.36764705882352944
0.000216316969077,0.375
0.000216316969077,0.38235294117647056
0.000259580362892,0.3897058823529412
0.000259580362892,0.39705882352941174
0.000259580362892,0.40441176470588236
0.000259580362892,0.4117647058823529
0.000259580362892,0.41911764705882354
0.000259580362892,0.4264705882352941
0.000259580362892,0.4338235294117647
0.000324475453615,0.4411764705882353
0.000389370544338,0.4485294117647059
0.000389370544338,0.45588235294117646
0.000475897331969,0.4632352941176471
0.000519160725784,0.47058823529411764
0.000519160725784,0.47794117647058826
0.000778741088676,0.4852941176470588
0.00105995314848,0.49264705882352944
0.00188195763097,0.5
0.00192522102478,0.5073529411764706
0.00248764514438,0.5147058823529411
0.0030933326578,0.5220588235294118
0.00313659605161,0.5294117647058824
0.00335291302069,0.5367647058823529
0.0033961764145,0.5441176470588235
0.0036557567774,0.5514705882352942
0.0116806936828,0.5588235294117647
0.0117448280596,0.5661764705882353
0.0123505630578,0.5735294117647058
0.0123505630578,0.5808823529411765
0.012367737444,0.5882352941176471
0.0123711255949,0.5955882352941176
0.0123711255949,0.6029411764705882
0.0123914314407,0.6102941176470589
0.0124322998237,0.6176470588235294
0.0124351031836,0.625
0.0124433055989,0.6323529411764706
0.0124433055989,0.6397058823529411
0.0124446848034,0.6470588235294118
0.0124450147443,0.6544117647058824
0.0124460045976,0.6617647058823529
0.0124460045976,0.6691176470588235
0.0124460045976,0.6764705882352942
0.0124471279455,0.6838235294117647
0.0124481260987,0.6911764705882353
0.0124529465984,0.6985294117647058
0.0124544574023,0.7058823529411765
0.0124544574023,0.7132352941176471
0.0124545421226,0.7205882352941176
0.0124545421226,0.7279411764705882
0.0124546571588,0.7352941176470589
0.0124546571588,0.7426470588235294
0.0124546571588,0.75
0.311125368607,0.7573529411764706
0.311178198636,0.7647058823529411
0.334139966647,0.7720588235294118
0.619571572036,0.7794117647058824
0.619571572036,0.7867647058823529
0.622406304933,0.7941176470588235
0.622406304933,0.8014705882352942
0.93337610582,0.8088235294117647
1.03712639402,0.8161764705882353
1.03712639402,0.8235294117647058
1.03712639402,0.8308823529411765
1.23711255949,0.8382352941176471
1.24460045976,0.8455882352941176
1.24471279455,0.8529411764705882
1.24544574023,0.8602941176470589
1.24545421226,0.8676470588235294
1.24546571588,0.875
1.24546571588,0.8823529411764706
1.55572582836,0.8897058823529411
1.85462787781,0.8970588235294118
1.86673686483,0.9044117647058824
2.28063671238,0.9117647058823529
2.47422511898,0.9191176470588235
2.49090842452,0.9264705882352942
3.73639714764,0.9338235294117647
5.0820531419,0.9411764705882353
9.02937525127,0.9485294117647058
9.22549140868,0.9558823529411765
11.9342026101,0.9632352941176471
14.7894007112,0.9705882352941176
15.0452700348,0.9779411764705882
15.9574700795,0.9852941176470589
16.2820437792,0.9926470588235294
17.4565265851,1.0
