Congestion,CDF
0.0,0.007352941176470588
0.0,0.014705882352941176
0.0,0.022058823529411766
0.0,0.029411764705882353
0.0,0.03676470588235294
0.0,0.04411764705882353
0.0,0.051470588235294115
0.0,0.058823529411764705
0.0,0.0661764705882353
0.0,0.07352941176470588
0.0,0.08088235294117647
0.0,0.08823529411764706
0.0,0.09558823529411764
0.0,0.10294117647058823
7.42914365385e-07,0.11029411764705882
7.42914365385e-07,0.11764705882352941
7.42914365385e-07,0.125
7.42914365385e-07,0.1323529411764706
7.42914365385e-07,0.13970588235294118
7.42914365385e-07,0.14705882352941177
7.42914365385e-07,0.15441176470588236
7.42914365385e-07,0.16176470588235295
7.42914365385e-07,0.16911764705882354
7.42914365385e-07,0.17647058823529413
7.42914365385e-07,0.18382352941176472
7.42914365385e-07,0.19117647058823528
7.42914365385e-07,0.19852941176470587
7.42914365385e-07,0.20588235294117646
7.42914365385e-07,0.21323529411764705
7.42914365385e-07,0.22058823529411764
7.42914365385e-07,0.22794117647058823
7.42914365385e-07,0.23529411764705882
7.42914365385e-07,0.2426470588235294
7.42914365385e-07,0.25
7.42914365385e-07,0.25735294117647056
7.42914365385e-07,0.2647058823529412
7.42914365385e-07,0.27205882352941174
7.42914365385e-07,0.27941176470588236
7.42914365385e-07,0.2867647058823529
7.42914365385e-07,0.29411764705882354
7.42914365385e-07,0.3014705882352941
1.85728591346e-05,0.3088235294117647
1.85728591346e-05,0.3161764705882353
2.00586878654e-05,0.3235294117647059
3.71457182693e-05,0.33088235294117646
3.71457182693e-05,0.3382352941176471
3.71457182693e-05,0.34558823529411764
3.71457182693e-05,0.35294117647058826
5.57185774039e-05,0.3602941176470588
6.19095304488e-05,0.36764705882352944
6.19095304488e-05,0.375
6.19095304488e-05,0.38235294117647056
7.42914365385e-05,0.3897058823529412
7.42914365385e-05,0.39705882352941174
7.42914365385e-05,0.40441176470588236
7.42914365385e-05,0.4117647058823529
7.42914365385e-05,0.41911764705882354
7.42914365385e-05,0.4264705882352941
7.42914365385e-05,0.4338235294117647
9.28642956731e-05,0.4411764705882353
0.000111437154808,0.4485294117647059
0.000111437154808,0.45588235294117646
0.000136200966987,0.4632352941176471
0.000148582873077,0.47058823529411764
0.000148582873077,0.47794117647058826
0.000222874309616,0.4852941176470588
0.000303356699199,0.49264705882352944
0.000538612914904,0.5
0.000550994820994,0.5073529411764706
0.000711959600161,0.5147058823529411
0.000885306285417,0.5220588235294118
0.000897688191507,0.5294117647058824
0.000959597721956,0.5367647058823529
0.000971979628045,0.5441176470588235
0.00104627106458,0.5514705882352942
0.0392435702496,0.5588235294117647
0.03958865131,0.5661764705882353
0.0433359419765,0.5735294117647058
0.0433786001399,0.5808823529411765
0.0434323086431,0.5882352941176471
0.0434667025343,0.5955882352941176
0.0434822880774,0.6029411764705882
0.0434979038116,0.6102941176470589
0.0435582934901,0.6176470588235294
0.0435685089877,0.625
0.0435748001455,0.6323529411764706
0.043578149706,0.6397058823529411
0.0435802865551,0.6470588235294118
0.0435808868611,0.6544117647058824
0.0435815104535,0.6617647058823529
0.0435820497029,0.6691176470588235
0.0435822842831,0.6764705882352942
0.043583453716,0.6838235294117647
0.0435840294436,0.6911764705882353
0.0435897930597,0.6985294117647058
0.0435916403904,0.7058823529411765
0.0435916499277,0.7132352941176471
0.0435917474243,0.7205882352941176
0.0435917505389,0.7279411764705882
0.0435918667192,0.7352941176470589
0.0435918687957,0.7426470588235294
0.0435918687957,0.75
1.08952217153,0.7573529411764706
1.0895863429,0.7647058823529411
1.16751240574,0.7720588235294118
2.17489519058,0.7794117647058824
2.17489519058,0.7867647058823529
2.17920147218,0.7941176470588235
2.17920147218,0.8014705882352942
3.26856651458,0.8088235294117647
3.63178473293,0.8161764705882353
3.63178473293,0.8235294117647058
3.63178473293,0.8308823529411765
4.34822880774,0.8382352941176471
4.35820497029,0.8455882352941176
4.3583453716,0.8529411764705882
4.35916499277,0.8602941176470589
4.35917505389,0.8676470588235294
4.35918687957,0.875
4.35918687957,0.8823529411764706
5.44775059983,0.8897058823529411
6.51812605489,0.8970588235294118
6.53701644278,0.9044117647058824
7.9886356317,0.9117647058823529
8.69489906118,0.9191176470588235
8.71834979631,0.9264705882352942
13.0775604311,0.9338235294117647
17.7958913484,0.9411764705882353
31.6038256021,0.9485294117647058
32.3152515197,0.9558823529411765
41.7737911132,0.9632352941176471
51.8618708334,0.9705882352941176
52.6682875705,0.9779411764705882
55.7862278584,0.9852941176470589
57.0061475845,0.9926470588235294
60.9650127155,1.0
