Congestion,CDF
0.0,0.007352941176470588
0.0,0.014705882352941176
0.0,0.022058823529411766
0.0,0.029411764705882353
0.0,0.03676470588235294
0.0,0.04411764705882353
0.0,0.051470588235294115
0.0,0.058823529411764705
0.0,0.0661764705882353
0.0,0.07352941176470588
0.0,0.08088235294117647
0.0,0.08823529411764706
0.0,0.09558823529411764
0.0,0.10294117647058823
1.02039079647e-06,0.11029411764705882
1.02039079647e-06,0.11764705882352941
1.02039079647e-06,0.125
1.02039079647e-06,0.1323529411764706
1.02039079647e-06,0.13970588235294118
1.02039079647e-06,0.14705882352941177
1.02039079647e-06,0.15441176470588236
1.02039079647e-06,0.16176470588235295
1.02039079647e-06,0.16911764705882354
1.02039079647e-06,0.17647058823529413
1.02039079647e-06,0.18382352941176472
1.02039079647e-06,0.19117647058823528
1.02039079647e-06,0.19852941176470587
1.02039079647e-06,0.20588235294117646
1.02039079647e-06,0.21323529411764705
1.02039079647e-06,0.22058823529411764
1.02039079647e-06,0.22794117647058823
1.02039079647e-06,0.23529411764705882
1.02039079647e-06,0.2426470588235294
1.02039079647e-06,0.25
1.02039079647e-06,0.25735294117647056
1.02039079647e-06,0.2647058823529412
1.02039079647e-06,0.27205882352941174
1.02039079647e-06,0.27941176470588236
1.02039079647e-06,0.2867647058823529
1.02039079647e-06,0.29411764705882354
1.02039079647e-06,0.3014705882352941
2.55097699118e-05,0.3088235294117647
2.55097699118e-05,0.3161764705882353
2.75505515047e-05,0.3235294117647059
5.10195398236e-05,0.33088235294117646
5.10195398236e-05,0.3382352941176471
5.10195398236e-05,0.34558823529411764
5.10195398236e-05,0.35294117647058826
7.65293097353e-05,0.3602941176470588
8.50325663726e-05,0.36764705882352944
8.50325663726e-05,0.375
8.50325663726e-05,0.38235294117647056
0.000102039079647,0.3897058823529412
0.000102039079647,0.39705882352941174
0.000102039079647,0.40441176470588236
0.000102039079647,0.4117647058823529
0.000102039079647,0.41911764705882354
0.000102039079647,0.4264705882352941
0.000102039079647,0.4338235294117647
0.000127548849559,0.4411764705882353
0.000153058619471,0.4485294117647059
0.000153058619471,0.45588235294117646
0.00018707164602,0.4632352941176471
0.000204078159294,0.47058823529411764
0.000204078159294,0.47794117647058826
0.000306117238941,0.4852941176470588
0.000416659575226,0.49264705882352944
0.000739783327442,0.5
0.000756789840716,0.5073529411764706
0.000977874513285,0.5147058823529411
0.00121596569913,0.5220588235294118
0.0012329722124,0.5294117647058824
0.00131800477878,0.5367647058823529
0.00133501129205,0.5441176470588235
0.0014370503717,0.5514705882352942
0.0168735018928,0.5588235294117647
0.017975638887,0.5661764705882353
0.0321601196661,0.5735294117647058
0.0322462088135,0.5808823529411765
0.0324772727361,0.5882352941176471
0.0325211245712,0.5955882352941176
0.0325586718657,0.6029411764705882
0.0325703995729,0.6102941176470589
0.0326334631583,0.6176470588235294
0.0326503931378,0.625
0.0326537246434,0.6323529411764706
0.0326603906702,0.6397058823529411
0.0326629794127,0.6470588235294118
0.03266366541,0.6544117647058824
0.0326639156306,0.6617647058823529
0.0326647801169,0.6691176470588235
0.0326650345777,0.6764705882352942
0.0326662580703,0.6838235294117647
0.0326666998874,0.6911764705882353
0.0326725307071,0.6985294117647058
0.0326744672357,0.7058823529411765
0.0326744790302,0.7132352941176471
0.0326745768854,0.7205882352941176
0.0326745802699,0.7279411764705882
0.0326746962999,0.7352941176470589
0.0326746985563,0.7426470588235294
0.0326746985563,0.75
0.816591635249,0.7573529411764706
0.816656451759,0.7647058823529411
0.850028970261,0.7720588235294118
1.62851997864,0.7794117647058824
1.62851997864,0.7867647058823529
1.63333499437,0.7941176470588235
1.63333499437,0.8014705882352942
2.44977490575,0.8088235294117647
2.72201406743,0.8161764705882353
2.72201406743,0.8235294117647058
2.72201406743,0.8308823529411765
3.25586718657,0.8382352941176471
3.26647801169,0.8455882352941176
3.26662580703,0.8529411764705882
3.26744790302,0.8602941176470589
3.26745802699,0.8676470588235294
3.26746985563,0.875
3.26746985563,0.8823529411764706
4.08309509302,0.8897058823529411
4.87624725226,0.8970588235294118
4.89937406139,0.9044117647058824
5.98705338121,0.9117647058823529
6.50797964369,0.9191176470588235
6.53491571553,0.9264705882352942
9.80240934125,0.9338235294117647
13.3379787352,0.9411764705882353
23.6888761351,0.9485294117647058
24.2168984109,0.9558823529411765
31.3114782676,0.9632352941176471
38.8171372734,0.9705882352941176
39.4762247934,0.9779411764705882
40.5044874627,0.9852941176470589
42.7008456747,0.9926470588235294
44.4984095634,1.0
