Congestion,CDF
0.0,0.005555555555555556
0.0,0.011111111111111112
0.0,0.016666666666666666
0.0,0.022222222222222223
0.0,0.027777777777777776
0.0,0.03333333333333333
0.0,0.03888888888888889
0.0,0.044444444444444446
0.0,0.05
0.0,0.05555555555555555
1.05921227834e-06,0.06111111111111111
1.21698396704e-06,0.06666666666666667
2.73933007869e-06,0.07222222222222222
4.00369025665e-06,0.07777777777777778
4.09676038327e-06,0.08333333333333333
5.40913399437e-06,0.08888888888888889
5.95076330639e-06,0.09444444444444444
8.20150880343e-06,0.1
8.24382079772e-06,0.10555555555555556
8.43420250727e-06,0.1111111111111111
8.60778807214e-06,0.11666666666666667
9.47541612003e-06,0.12222222222222222
9.69519612396e-06,0.12777777777777777
1.08265661536e-05,0.13333333333333333
1.10885787988e-05,0.1388888888888889
1.16764147167e-05,0.14444444444444443
1.35015975408e-05,0.15
1.47762466739e-05,0.15555555555555556
1.54293778566e-05,0.16111111111111112
1.60471874379e-05,0.16666666666666666
1.63010868892e-05,0.17222222222222222
1.64320062042e-05,0.17777777777777778
1.69764220092e-05,0.18333333333333332
1.75663203164e-05,0.18888888888888888
1.78628473126e-05,0.19444444444444445
1.80645759125e-05,0.2
1.81647982662e-05,0.20555555555555555
1.83733916577e-05,0.2111111111111111
1.85529329341e-05,0.21666666666666667
1.85936453938e-05,0.2222222222222222
1.92149068492e-05,0.22777777777777777
1.93752143918e-05,0.23333333333333334
1.95976297912e-05,0.2388888888888889
2.1223181925e-05,0.24444444444444444
2.23323370825e-05,0.25
2.42464222732e-05,0.25555555555555554
2.46305392294e-05,0.2611111111111111
2.49849905436e-05,0.26666666666666666
2.58311056506e-05,0.2722222222222222
7.1578949424e-05,0.2777777777777778
9.13110026228e-05,0.2833333333333333
0.000182622005246,0.28888888888888886
0.000200184512833,0.29444444444444445
0.000200184512833,0.3
0.000206095519943,0.3055555555555556
0.000206095519943,0.3111111111111111
0.000312016747777,0.31666666666666665
0.000399762979129,0.32222222222222224
0.000409676038327,0.3277777777777778
0.000412191039886,0.3333333333333333
0.000516783301772,0.3388888888888889
0.0005488041305,0.34444444444444444
0.000820150880343,0.35
0.000852930147214,0.35555555555555557
0.000901820430083,0.3611111111111111
0.000903228795627,0.36666666666666664
0.000903228795627,0.37222222222222223
0.000911745434299,0.37777777777777777
0.00100676669632,0.38333333333333336
0.00105371317274,0.3888888888888889
0.00109130293655,0.39444444444444443
0.00115363713195,0.4
0.00117333770903,0.40555555555555556
0.00124583295779,0.4111111111111111
0.0013476300518,0.4166666666666667
0.00135034008404,0.4222222222222222
0.00137307485548,0.42777777777777776
0.00142724473941,0.43333333333333335
0.0015111670382,0.4388888888888889
0.00152793056924,0.4444444444444444
0.00155694724897,0.45
0.00161617451368,0.45555555555555555
0.00175663203164,0.46111111111111114
0.001758127607,0.4666666666666667
0.00178628473126,0.4722222222222222
0.00179449289824,0.4777777777777778
0.00179879004511,0.48333333333333334
0.00183720463416,0.4888888888888889
0.00184201997953,0.49444444444444446
0.00184338513326,0.5
0.00189544310715,0.5055555555555555
0.00191495254153,0.5111111111111111
0.00193180303778,0.5166666666666667
0.00195077427919,0.5222222222222223
0.00196309227307,0.5277777777777778
0.00196959585554,0.5333333333333333
0.00198218646622,0.5388888888888889
0.00198588541099,0.5444444444444444
0.00199592128124,0.55
0.00203517145175,0.5555555555555556
0.00205896281798,0.5611111111111111
0.00210108498968,0.5666666666666667
0.00210108498968,0.5722222222222222
0.00216027527537,0.5777777777777777
0.00222827058868,0.5833333333333334
0.00234902550025,0.5888888888888889
0.00237269388552,0.5944444444444444
0.00239535516716,0.6
0.00239586793287,0.6055555555555555
0.00244570789742,0.6111111111111112
0.00253199423082,0.6166666666666667
0.00272257280196,0.6222222222222222
0.00291069009424,0.6277777777777778
0.00361599657101,0.6333333333333333
0.00382322457676,0.6388888888888888
0.0040225756746,0.6444444444444445
0.00494535618835,0.65
0.00580613499556,0.6555555555555556
0.00607901058797,0.6611111111111111
0.00750650260679,0.6666666666666666
0.00850365281528,0.6722222222222223
0.015129117429,0.6777777777777778
0.018405927886,0.6833333333333333
0.0192658304036,0.6888888888888889
0.020989038451,0.6944444444444444
0.0214990641118,0.7
0.02261914714,0.7055555555555556
0.0228668900963,0.7111111111111111
0.0242170498504,0.7166666666666667
0.0261545712896,0.7222222222222222
0.0263178255666,0.7277777777777777
0.0267496476202,0.7333333333333333
0.0271612458174,0.7388888888888889
0.0281307654298,0.7444444444444445
0.0335588898773,0.75
0.033758502101,0.7555555555555555
0.033758502101,0.7611111111111111
0.0526856586369,0.7666666666666667
0.0526856586369,0.7722222222222223
0.0627630202578,0.7777777777777778
0.0671177797547,0.7833333333333333
0.067517004202,0.7888888888888889
0.0981546136534,0.7944444444444444
0.0981546136534,0.8
0.109130293655,0.8055555555555556
0.123940545109,0.8111111111111111
0.13476300518,0.8166666666666667
0.176482976042,0.8222222222222222
0.193180303778,0.8277777777777777
0.195077427919,0.8333333333333334
0.232134948461,0.8388888888888889
0.241274316012,0.8444444444444444
0.249271317473,0.85
0.263481678798,0.8555555555555555
0.263481678798,0.8611111111111112
0.307052520918,0.8666666666666667
0.325157821192,0.8722222222222222
0.38585462662,0.8777777777777778
0.392772431902,0.8833333333333333
0.421153320524,0.8888888888888888
0.447489964095,0.8944444444444445
0.466998823973,0.9
0.740510848848,0.9055555555555556
0.851620562606,0.9111111111111111
0.859967221155,0.9166666666666666
0.877818334396,0.9222222222222223
1.09486977118,0.9277777777777778
1.92639848256,0.9333333333333333
2.17240155573,0.9388888888888889
2.41697234547,0.9444444444444444
2.43527676716,0.95
2.60117434342,0.9555555555555556
2.65810382603,0.9611111111111111
2.86648420957,0.9666666666666667
3.02480454604,0.9722222222222222
3.02810166093,0.9777777777777777
3.07648287622,0.9833333333333333
3.11645917413,0.9888888888888889
3.15268495671,0.9944444444444445
3.15984285165,1.0
