Congestion,CDF
0.0,0.005555555555555556
0.0,0.011111111111111112
0.0,0.016666666666666666
0.0,0.022222222222222223
0.0,0.027777777777777776
0.0,0.03333333333333333
0.0,0.03888888888888889
0.0,0.044444444444444446
0.0,0.05
0.0,0.05555555555555555
3.77127961991e-07,0.06111111111111111
4.33301891084e-07,0.06666666666666667
9.75326656345e-07,0.07222222222222222
1.42549664294e-06,0.07777777777777778
1.45863385999e-06,0.08333333333333333
1.92589882231e-06,0.08888888888888889
2.11874360212e-06,0.09444444444444444
2.92011182605e-06,0.1
2.93517682908e-06,0.10555555555555556
3.00296141541e-06,0.1111111111111111
3.06476580689e-06,0.11666666666666667
3.37368103017e-06,0.12222222222222222
3.45193275238e-06,0.12777777777777777
3.85475217043e-06,0.13333333333333333
3.94804064234e-06,0.1388888888888889
4.15733708486e-06,0.14444444444444443
4.80718555504e-06,0.15
5.26101887975e-06,0.15555555555555556
5.49356341955e-06,0.16111111111111112
5.7135318556e-06,0.16666666666666666
5.80393165984e-06,0.17222222222222222
5.85054491714e-06,0.17777777777777778
6.04438181575e-06,0.18333333333333332
6.25441256304e-06,0.18888888888888888
6.35998972078e-06,0.19444444444444445
6.43181431846e-06,0.2
6.4674980551e-06,0.20555555555555555
6.54176683221e-06,0.2111111111111111
6.60569172908e-06,0.21666666666666667
6.62018722471e-06,0.2222222222222222
6.84138468563e-06,0.22777777777777777
6.89846149456e-06,0.23333333333333334
6.97765153798e-06,0.2388888888888889
7.55642236215e-06,0.24444444444444444
7.95133227081e-06,0.25
8.6328340451e-06,0.25555555555555554
8.76959723017e-06,0.2611111111111111
8.8957980914e-06,0.26666666666666666
9.19705372489e-06,0.2722222222222222
3.25108885448e-05,0.2777777777777778
6.50217770897e-05,0.2833333333333333
7.10233642552e-05,0.28888888888888886
7.12748321468e-05,0.29444444444444445
7.12748321468e-05,0.3
7.33794207269e-05,0.3055555555555556
7.33794207269e-05,0.3111111111111111
0.000111092216926,0.31666666666666665
0.000145863385999,0.32222222222222224
0.000146758841454,0.3277777777777778
0.000195399342983,0.3333333333333333
0.000292011182605,0.3388888888888889
0.000303682099157,0.34444444444444444
0.000321590715923,0.35
0.000321590715923,0.35555555555555557
0.000410747523744,0.3611111111111111
0.000625441256304,0.36666666666666664
0.000635998972078,0.37222222222222223
0.000656329323861,0.37777777777777777
0.000707065932966,0.38333333333333336
0.000748082245959,0.3888888888888889
0.000748082245959,0.39444444444444443
0.000763158323779,0.4
0.000853038441112,0.40555555555555556
0.000901505622214,0.4111111111111111
0.000969360300263,0.4166666666666667
0.00103633865059,0.4222222222222222
0.00128745997878,0.42777777777777776
0.00136124261619,0.43333333333333335
0.00143222071452,0.4388888888888889
0.00176077273533,0.4444444444444444
0.00206724931602,0.45
0.00216440549344,0.45555555555555555
0.00267265786817,0.46111111111111114
0.00302768889795,0.4666666666666667
0.0053866569897,0.4722222222222222
0.00655335121593,0.4777777777777778
0.00685951579748,0.48333333333333334
0.00747305658842,0.4888888888888889
0.00765464902456,0.49444444444444446
0.0080534497544,0.5
0.00814165756519,0.5055555555555555
0.0086223761207,0.5111111111111111
0.00931222227015,0.5166666666666667
0.00937034825117,0.5222222222222223
0.00952409663036,0.5277777777777778
0.00967064439271,0.5333333333333333
0.0100158376679,0.5388888888888889
0.0103209615246,0.5444444444444444
0.0104435709096,0.55
0.0104518779022,0.5555555555555556
0.0105319985887,0.5611111111111111
0.0105904292669,0.5666666666666667
0.0106034201414,0.5722222222222222
0.010672507099,0.5777777777777777
0.0108194678153,0.5833333333333334
0.0108216989117,0.5888888888888889
0.0108408547872,0.5944444444444444
0.0108865189162,0.6
0.0109575891883,0.6055555555555555
0.0109627887698,0.6111111111111112
0.0109714189895,0.6166666666666667
0.0110010018566,0.6222222222222222
0.0110799356153,0.6277777777777778
0.0111655014026,0.6333333333333333
0.0111998720872,0.6388888888888888
0.0112323698609,0.6444444444444445
0.011237321965,0.65
0.0112436634225,0.6555555555555556
0.0112812951346,0.6611111111111111
0.0113122972021,0.6666666666666666
0.0113279476616,0.6722222222222223
0.0113385429249,0.6777777777777778
0.0113406661618,0.6833333333333333
0.0113438372535,0.6888888888888889
0.0113547778828,0.6944444444444444
0.0113663651479,0.7
0.0113991067544,0.7055555555555556
0.0114192451569,0.7111111111111111
0.0115047828265,0.7166666666666667
0.0115630239865,0.7222222222222222
0.0116639014255,0.7277777777777777
0.011684085143,0.7333333333333333
0.0117027865473,0.7388888888888889
0.0117470355016,0.7444444444444445
0.270542472793,0.75
0.270542472793,0.7555555555555555
0.351066619623,0.7611111111111111
0.41221864742,0.7666666666666667
0.529521463343,0.7722222222222223
0.529521463343,0.7777777777777778
0.541084945586,0.7833333333333333
0.566927146243,0.7888888888888889
0.566927146243,0.7944444444444444
0.702133239246,0.8
1.06034201414,0.8055555555555556
1.08194678153,0.8111111111111111
1.13122972021,0.8166666666666667
1.13279476616,0.8222222222222222
1.31489956375,0.8277777777777777
1.35919436441,0.8333333333333334
1.65325365984,0.8388888888888889
1.66268606508,0.8444444444444444
1.71136360031,0.85
1.75531936926,0.8555555555555555
1.75531936926,0.8611111111111112
2.21082029678,0.8666666666666667
2.267866235,0.8722222222222222
2.38215027365,0.8777777777777778
2.79816385336,0.8833333333333333
2.8268111243,0.8888888888888888
2.89523004469,0.8944444444444445
3.50213748237,0.9
5.15615432432,0.9055555555555556
5.62731828378,0.9111111111111111
6.29293592583,0.9166666666666666
6.7114037625,0.9222222222222223
7.45932606838,0.9277777777777778
13.0019418122,0.9333333333333333
13.693764671,0.9388888888888889
14.8684682212,0.9444444444444444
15.9928345635,0.95
16.3359990951,0.9555555555555556
17.4923014937,0.9611111111111111
18.7801548395,0.9666666666666667
19.1219231427,0.9722222222222222
19.8122509919,0.9777777777777777
19.8885668243,0.9833333333333333
20.2299167042,0.9888888888888889
21.3261955812,0.9944444444444445
21.3332979176,1.0
