Congestion,CDF
0.0,0.005555555555555556
0.0,0.011111111111111112
0.0,0.016666666666666666
0.0,0.022222222222222223
0.0,0.027777777777777776
0.0,0.03333333333333333
0.0,0.03888888888888889
0.0,0.044444444444444446
0.0,0.05
0.0,0.05555555555555555
5.11246889702e-07,0.06111111111111111
5.87398088832e-07,0.06666666666666667
1.3221844301e-06,0.07222222222222222
1.93244945597e-06,0.07777777777777778
1.97737134154e-06,0.08333333333333333
2.61081087063e-06,0.08888888888888889
2.87223750512e-06,0.09444444444444444
3.95859824546e-06,0.1
3.97902085188e-06,0.10555555555555556
4.07091183432e-06,0.1111111111111111
4.15469587077e-06,0.11666666666666667
4.57347136079e-06,0.12222222222222222
4.67955193191e-06,0.12777777777777777
5.22562699222e-06,0.13333333333333333
5.35209186865e-06,0.1388888888888889
5.63582091037e-06,0.14444444444444443
6.51677656109e-06,0.15
7.13200772685e-06,0.15555555555555556
7.44725264284e-06,0.16111111111111112
7.74544898492e-06,0.16666666666666666
7.86799788981e-06,0.17222222222222222
7.93118833236e-06,0.17777777777777778
8.19395991525e-06,0.18333333333333332
8.47868440433e-06,0.18888888888888888
8.62180822158e-06,0.19444444444444445
8.71917597437e-06,0.2
8.76755000443e-06,0.20555555555555555
8.86823116606e-06,0.2111111111111111
8.95488982836e-06,0.21666666666666667
8.97454039209e-06,0.2222222222222222
9.27440284012e-06,0.22777777777777777
9.35177801243e-06,0.23333333333333334
9.45913060221e-06,0.2388888888888889
1.0243731092e-05,0.24444444444444444
1.0779083765e-05,0.25
1.17029496608e-05,0.25555555555555554
1.18883502676e-05,0.2611111111111111
1.20594322458e-05,0.26666666666666666
1.24678241477e-05,0.2722222222222222
4.40728143367e-05,0.2777777777777778
8.31981434225e-05,0.2833333333333333
8.81456286733e-05,0.28888888888888886
9.66224727987e-05,0.29444444444444445
9.66224727987e-05,0.3
9.9475521297e-05,0.3055555555555556
9.9475521297e-05,0.3111111111111111
0.000150600210267,0.31666666666666665
0.000197737134154,0.32222222222222224
0.000198951042594,0.3277777777777778
0.000264889683126,0.3333333333333333
0.000395859824546,0.3388888888888889
0.00041168129733,0.34444444444444444
0.000435958798718,0.35
0.000435958798718,0.35555555555555557
0.000556822657376,0.3611111111111111
0.000592935806106,0.36666666666666664
0.000847868440433,0.37222222222222223
0.000862180822158,0.37777777777777777
0.000889741306034,0.38333333333333336
0.00095852149794,0.3888888888888889
0.00101412454136,0.39444444444444443
0.00101412454136,0.4
0.00115640656161,0.40555555555555556
0.00122211024336,0.4111111111111111
0.0013140962444,0.4166666666666667
0.00140489426718,0.4222222222222222
0.00174532247964,0.42777777777777776
0.00184534461455,0.43333333333333335
0.00194156482537,0.4388888888888889
0.00238696059464,0.4444444444444444
0.00280243018172,0.45
0.0029341382451,0.45555555555555555
0.00362314163905,0.46111111111111114
0.00410443321118,0.4666666666666667
0.00423765093895,0.4722222222222222
0.00448003632895,0.4777777777777778
0.00448930900314,0.48333333333333334
0.00457874607304,0.4888888888888889
0.00463929287537,0.49444444444444446
0.00465847069606,0.5
0.00473559299684,0.5055555555555555
0.00489964194921,0.5111111111111111
0.00490213253258,0.5166666666666667
0.00492351572601,0.5222222222222223
0.00495394205369,0.5277777777777778
0.00497448967844,0.5333333333333333
0.00505382232126,0.5388888888888889
0.00506926187079,0.5444444444444444
0.00510164019147,0.55
0.00518165322752,0.5555555555555556
0.00528591198736,0.5611111111111111
0.00532427938561,0.5666666666666667
0.0053563480298,0.5722222222222222
0.00536055184213,0.5777777777777777
0.00537219921499,0.5833333333333334
0.00541517006201,0.5888888888888889
0.00544977354845,0.5944444444444444
0.00546724730016,0.6
0.00547035725937,0.6055555555555555
0.00547907359949,0.6111111111111112
0.00548498420884,0.6166666666666667
0.00549719485712,0.6222222222222222
0.00551012837831,0.6277777777777778
0.00554668078173,0.6333333333333333
0.00556916077999,0.6388888888888888
0.00566464238108,0.6444444444444445
0.00572960299766,0.65
0.00584226437123,0.6555555555555556
0.00586478780536,0.6611111111111111
0.00588567216289,0.6666666666666666
0.00593497221108,0.6722222222222223
0.00730232682121,0.6777777777777778
0.00888393533213,0.6833333333333333
0.00929898196306,0.6888888888888889
0.0101307177469,0.6944444444444444
0.0103768903396,0.7
0.0109175175359,0.7055555555555556
0.0110370949034,0.7111111111111111
0.0116887725595,0.7166666666666667
0.0126239503608,0.7222222222222222
0.0127027478247,0.7277777777777777
0.0129111741113,0.7333333333333333
0.0131098390082,0.7388888888888889
0.0135777942014,0.7444444444444445
0.122553313315,0.75
0.122553313315,0.7555555555555555
0.152624869101,0.7611111111111111
0.194066335578,0.7666666666666667
0.231964643768,0.7722222222222223
0.231964643768,0.7777777777777778
0.245106626629,0.7833333333333333
0.273953679974,0.7888888888888889
0.273953679974,0.7944444444444444
0.305249738203,0.8
0.465847069606,0.8055555555555556
0.489964194921,0.8111111111111111
0.544977354845,0.8166666666666667
0.546724730016,0.8222222222222222
0.57055694621,0.8277777777777777
0.620002281159,0.8333333333333334
0.767599446749,0.8388888888888889
0.7793359121,0.8444444444444444
0.8229248841,0.85
0.8229248841,0.8555555555555555
0.833673842918,0.8611111111111112
1.03231130771,0.8666666666666667
1.04411624589,0.8722222222222222
1.09599019268,0.8777777777777778
1.301218349,0.8833333333333333
1.32905539781,0.8888888888888888
1.37759296227,0.8944444444444445
1.57654418445,0.9
2.46583469849,0.9055555555555556
2.57307413341,0.9111111111111111
2.89737813735,0.9166666666666666
3.06542570601,0.9222222222222223
3.48160457447,0.9277777777777778
6.07975882539,0.9333333333333333
6.4931289455,0.9388888888888889
7.0866261666,0.9444444444444444
7.6238460881,0.95
7.64812531731,0.9555555555555556
8.22108561708,0.9611111111111111
8.93848126079,0.9666666666666667
8.96321427999,0.9722222222222222
9.36224635468,0.9777777777777777
9.42153993529,0.9833333333333333
9.48137960275,0.9888888888888889
9.97677380812,0.9944444444444445
9.98509362246,1.0
