Congestion,CDF
0.00520633839961,0.005555555555555556
0.00520633839961,0.011111111111111112
0.00530913181035,0.016666666666666666
0.00530913181035,0.022222222222222223
0.00536376182708,0.027777777777777776
0.00536376182708,0.03333333333333333
0.00538161688617,0.03888888888888889
0.00538161688617,0.044444444444444446
0.00542207632609,0.05
0.00542207632609,0.05555555555555555
0.00543890870169,0.06111111111111111
0.00543890870169,0.06666666666666667
0.00545468563726,0.07222222222222222
0.00545468563726,0.07777777777777778
0.00546404550447,0.08333333333333333
0.00546404550447,0.08888888888888889
0.00546457915344,0.09444444444444444
0.00546457915344,0.1
0.00546693280784,0.10555555555555556
0.00546693280784,0.1111111111111111
0.00549007706169,0.11666666666666667
0.00549007706169,0.12222222222222222
0.00550302190895,0.12777777777777777
0.00550302190895,0.13333333333333333
0.00550869690288,0.1388888888888889
0.00550869690288,0.14444444444444443
0.00553212366612,0.15
0.00553212366612,0.15555555555555556
0.0055384311154,0.16111111111111112
0.0055384311154,0.16666666666666666
0.0055501587009,0.17222222222222222
0.0055501587009,0.17777777777777778
0.00558192667018,0.18333333333333332
0.00558192667018,0.18888888888888888
0.00558266685091,0.19444444444444445
0.00558266685091,0.2
0.00560927636428,0.20555555555555555
0.00560927636428,0.2111111111111111
0.00561304551828,0.21666666666666667
0.00561304551828,0.2222222222222222
0.00565127762801,0.22777777777777777
0.00565127762801,0.23333333333333334
0.0056515997802,0.2388888888888889
0.0056515997802,0.24444444444444444
0.00565873034518,0.25
0.00565873034518,0.25555555555555554
0.00567686518798,0.2611111111111111
0.00567686518798,0.26666666666666666
0.00570507917962,0.2722222222222222
0.00570507917962,0.2777777777777778
0.00571112552831,0.2833333333333333
0.00571112552831,0.28888888888888886
0.00579674445745,0.29444444444444445
0.00579674445745,0.3
0.00586825840362,0.3055555555555556
0.00586825840362,0.3111111111111111
0.00587451632255,0.31666666666666665
0.00587451632255,0.32222222222222224
0.00587560167556,0.3277777777777778
0.00587560167556,0.3333333333333333
0.00587644561728,0.3388888888888889
0.00587644561728,0.34444444444444444
0.00589321227304,0.35
0.00589321227304,0.35555555555555557
0.00589591354113,0.3611111111111111
0.00589591354113,0.36666666666666664
0.00589993043252,0.37222222222222223
0.00589993043252,0.37777777777777777
0.00590181054153,0.38333333333333336
0.00590181054153,0.3888888888888889
0.00592730390956,0.39444444444444443
0.00592730390956,0.4
0.00596342395971,0.40555555555555556
0.00596342395971,0.4111111111111111
0.00597085817137,0.4166666666666667
0.00597085817137,0.4222222222222222
0.00597262663415,0.42777777777777776
0.00597262663415,0.43333333333333335
0.00602492185229,0.4388888888888889
0.00602492185229,0.4444444444444444
0.183343784927,0.45
0.183343784927,0.45555555555555555
0.190946198837,0.46111111111111114
0.190946198837,0.4666666666666667
0.234056827918,0.4722222222222222
0.234056827918,0.4777777777777778
0.277926413742,0.48333333333333334
0.277926413742,0.4888888888888889
0.358952981114,0.49444444444444446
0.358952981114,0.5
0.464014207862,0.5055555555555555
0.464014207862,0.5111111111111111
0.468311927566,0.5166666666666667
0.468311927566,0.5222222222222223
0.47354530285,0.5277777777777778
0.47354530285,0.5333333333333333
0.55495536533,0.5388888888888889
0.55495536533,0.5444444444444444
0.601887209175,0.55
0.601887209175,0.5555555555555556
0.635916327212,0.5611111111111111
0.635916327212,0.5666666666666667
0.645244426843,0.5722222222222222
0.645244426843,0.5777777777777777
0.661109061191,0.5833333333333334
0.661109061191,0.5888888888888889
0.698434560949,0.5944444444444444
0.698434560949,0.6
0.716108123991,0.6055555555555555
0.716108123991,0.6111111111111112
0.721439272676,0.6166666666666667
0.721439272676,0.6222222222222222
0.751761894679,0.6277777777777778
0.751761894679,0.6333333333333333
0.755444926381,0.6388888888888888
0.755444926381,0.6444444444444445
0.759575123038,0.65
0.759575123038,0.6555555555555556
0.777687492191,0.6611111111111111
0.777687492191,0.6666666666666666
0.787321901468,0.6722222222222223
0.787321901468,0.6777777777777778
0.836201268171,0.6833333333333333
0.836201268171,0.6888888888888889
0.852306427294,0.6944444444444444
0.852306427294,0.7
0.866159323709,0.7055555555555556
0.866159323709,0.7111111111111111
0.873318390971,0.7166666666666667
0.873318390971,0.7222222222222222
0.899638346784,0.7277777777777777
0.899638346784,0.7333333333333333
0.959503855243,0.7388888888888889
0.959503855243,0.7444444444444445
1.12807374085,0.75
1.12807374085,0.7555555555555555
1.15581825565,0.7611111111111111
1.15581825565,0.7666666666666667
1.17010706811,0.7722222222222223
1.17010706811,0.7777777777777778
1.29945620874,0.7833333333333333
1.29945620874,0.7888888888888889
1.32695978569,0.7944444444444444
1.32695978569,0.8
1.3375172915,0.8055555555555556
1.3375172915,0.8111111111111111
1.3963490655,0.8166666666666667
1.3963490655,0.8222222222222222
1.45984197361,0.8277777777777777
1.45984197361,0.8333333333333334
1.48926079884,0.8388888888888889
1.48926079884,0.8444444444444444
1.6276431252,0.85
1.6276431252,0.8555555555555555
1.80403806524,0.8611111111111112
1.80403806524,0.8666666666666667
1.81010245458,0.8722222222222222
1.81010245458,0.8777777777777778
2.02447669502,0.8833333333333333
2.02447669502,0.8888888888888888
2.05282682473,0.8944444444444445
2.05282682473,0.9
2.1446283833,0.9055555555555556
2.1446283833,0.9111111111111111
2.26338056739,0.9166666666666666
2.26338056739,0.9222222222222223
2.37094277048,0.9277777777777778
2.37094277048,0.9333333333333333
2.62728275743,0.9388888888888889
2.62728275743,0.9444444444444444
2.69005964406,0.95
2.69005964406,0.9555555555555556
2.73971175483,0.9611111111111111
2.73971175483,0.9666666666666667
3.05121769768,0.9722222222222222
3.05121769768,0.9777777777777777
3.31744128693,0.9833333333333333
3.31744128693,0.9888888888888889
3.41357341084,0.9944444444444445
3.41357341084,1.0
