Congestion,CDF
0.0293055586547,0.005555555555555556
0.0293055586547,0.011111111111111112
0.0293582674665,0.016666666666666666
0.0293582674665,0.022222222222222223
0.0300628159913,0.027777777777777776
0.0300628159913,0.03333333333333333
0.030188461299,0.03888888888888889
0.030188461299,0.044444444444444446
0.0302208510374,0.05
0.0302208510374,0.05555555555555555
0.0305461532621,0.06111111111111111
0.0305461532621,0.06666666666666667
0.0308591159779,0.07222222222222222
0.0308591159779,0.07777777777777778
0.0309536037587,0.08333333333333333
0.0309536037587,0.08888888888888889
0.0312084326864,0.09444444444444444
0.0312084326864,0.1
0.0315284822513,0.10555555555555556
0.0315284822513,0.1111111111111111
0.0316355281105,0.11666666666666667
0.0316355281105,0.12222222222222222
0.0320809159533,0.12777777777777777
0.0320809159533,0.13333333333333333
0.0321888558396,0.1388888888888889
0.0321888558396,0.14444444444444443
0.0322164726867,0.15
0.0322164726867,0.15555555555555556
0.0323455349283,0.16111111111111112
0.0323455349283,0.16666666666666666
0.0323576674723,0.17222222222222222
0.0323576674723,0.17777777777777778
0.0324773580223,0.18333333333333332
0.0324773580223,0.18888888888888888
0.0325018405377,0.19444444444444445
0.0325018405377,0.2
0.0327450069522,0.20555555555555555
0.0327450069522,0.2111111111111111
0.0328071385915,0.21666666666666667
0.0328071385915,0.2222222222222222
0.0329212564277,0.22777777777777777
0.0329212564277,0.23333333333333334
0.0330464205806,0.2388888888888889
0.0330464205806,0.24444444444444444
0.0332803490993,0.25
0.0332803490993,0.25555555555555554
0.0335562192281,0.2611111111111111
0.0335562192281,0.26666666666666666
0.0335785803262,0.2722222222222222
0.0335785803262,0.2777777777777778
0.0337521525742,0.2833333333333333
0.0337521525742,0.28888888888888886
0.033992298319,0.29444444444444445
0.033992298319,0.3
0.0343809422151,0.3055555555555556
0.0343809422151,0.3111111111111111
0.0343844631339,0.31666666666666665
0.0343844631339,0.32222222222222224
0.0344925785218,0.3277777777777778
0.0344925785218,0.3333333333333333
0.0346209454445,0.3388888888888889
0.0346209454445,0.34444444444444444
0.0346360619598,0.35
0.0346360619598,0.35555555555555557
0.0350240285868,0.3611111111111111
0.0350240285868,0.36666666666666664
0.035061916276,0.37222222222222223
0.035061916276,0.37777777777777777
0.0351536233297,0.38333333333333336
0.0351536233297,0.3888888888888889
0.0351626943749,0.39444444444444443
0.0351626943749,0.4
0.0352042844229,0.40555555555555556
0.0352042844229,0.4111111111111111
0.0353763379732,0.4166666666666667
0.0353763379732,0.4222222222222222
0.0356609776935,0.42777777777777776
0.0356609776935,0.43333333333333335
0.0360054728889,0.4388888888888889
0.0360054728889,0.4444444444444444
0.91776215502,0.45
0.91776215502,0.45555555555555555
1.05862124779,0.46111111111111114
1.05862124779,0.4666666666666667
1.15014508289,0.4722222222222222
1.15014508289,0.4777777777777778
1.22835888848,0.48333333333333334
1.22835888848,0.4888888888888889
1.92637647125,0.49444444444444446
1.92637647125,0.5
2.43070687968,0.5055555555555555
2.43070687968,0.5111111111111111
2.74335155402,0.5166666666666667
2.74335155402,0.5222222222222223
2.80677718389,0.5277777777777778
2.80677718389,0.5333333333333333
3.42703956358,0.5388888888888889
3.42703956358,0.5444444444444444
3.73220108339,0.55
3.73220108339,0.5555555555555556
3.84897355479,0.5611111111111111
3.84897355479,0.5666666666666667
3.90524463957,0.5722222222222222
3.90524463957,0.5777777777777777
3.94541228328,0.5833333333333334
3.94541228328,0.5888888888888889
4.07837118187,0.5944444444444444
4.07837118187,0.6
4.14542610713,0.6055555555555555
4.14542610713,0.6111111111111112
4.36041140023,0.6166666666666667
4.36041140023,0.6222222222222222
4.46902177272,0.6277777777777778
4.46902177272,0.6333333333333333
4.54892130578,0.6388888888888888
4.54892130578,0.6444444444444445
4.61142639912,0.65
4.61142639912,0.6555555555555556
4.75912570444,0.6611111111111111
4.75912570444,0.6666666666666666
4.81371300226,0.6722222222222223
4.81371300226,0.6777777777777778
5.0686119233,0.6833333333333333
5.0686119233,0.6888888888888889
5.08650739783,0.6944444444444444
5.08650739783,0.7
5.17822904703,0.7055555555555556
5.17822904703,0.7111111111111111
5.40852724954,0.7166666666666667
5.40852724954,0.7222222222222222
5.65933082464,0.7277777777777777
5.65933082464,0.7333333333333333
5.89883569332,0.7388888888888889
5.89883569332,0.7444444444444445
7.03359759213,0.75
7.03359759213,0.7555555555555555
7.22329512654,0.7611111111111111
7.22329512654,0.7666666666666667
7.23251074132,0.7722222222222223
7.23251074132,0.7777777777777778
7.67569836134,0.7833333333333333
7.67569836134,0.7888888888888889
7.96294634323,0.7944444444444444
7.96294634323,0.8
8.04199877712,0.8055555555555556
8.04199877712,0.8111111111111111
8.45384027679,0.8166666666666667
8.45384027679,0.8222222222222222
8.88960787983,0.8277777777777777
8.88960787983,0.8333333333333334
9.07000565476,0.8388888888888889
9.07000565476,0.8444444444444444
9.75837923113,0.85
9.75837923113,0.8555555555555555
10.6728642104,0.8611111111111112
10.6728642104,0.8666666666666667
10.9583026169,0.8722222222222222
10.9583026169,0.8777777777777778
11.7840736459,0.8833333333333333
11.7840736459,0.8888888888888888
11.8940945454,0.8944444444444445
11.8940945454,0.9
12.8257278436,0.9055555555555556
12.8257278436,0.9111111111111111
13.4012723433,0.9166666666666666
13.4012723433,0.9222222222222223
13.9856225339,0.9277777777777778
13.9856225339,0.9333333333333333
15.3680755472,0.9388888888888889
15.3680755472,0.9444444444444444
15.6261581939,0.95
15.6261581939,0.9555555555555556
16.147114806,0.9611111111111111
16.147114806,0.9666666666666667
17.3981822648,0.9722222222222222
17.3981822648,0.9777777777777777
18.8764811651,0.9833333333333333
18.8764811651,0.9888888888888889
19.680628782,0.9944444444444445
19.680628782,1.0
