Congestion,CDF
0.0172578566307,0.005555555555555556
0.0172578566307,0.011111111111111112
0.0174034961364,0.016666666666666666
0.0174034961364,0.022222222222222223
0.0174425842526,0.027777777777777776
0.0174425842526,0.03333333333333333
0.0176507347814,0.03888888888888889
0.0176507347814,0.044444444444444446
0.0177261740844,0.05
0.0177261740844,0.05555555555555555
0.0177389207398,0.06111111111111111
0.0177389207398,0.06666666666666667
0.0178260868286,0.07222222222222222
0.0178260868286,0.07777777777777778
0.0180273995173,0.08333333333333333
0.0180273995173,0.08888888888888889
0.0180426732128,0.09444444444444444
0.0180426732128,0.1
0.018090367579,0.10555555555555556
0.018090367579,0.1111111111111111
0.018108795829,0.11666666666666667
0.018108795829,0.12222222222222222
0.0181454182714,0.12777777777777777
0.0181454182714,0.13333333333333333
0.0181711147246,0.1388888888888889
0.0181711147246,0.14444444444444443
0.0184753727998,0.15
0.0184753727998,0.15555555555555556
0.0185704671801,0.16111111111111112
0.0185704671801,0.16666666666666666
0.0186159831441,0.17222222222222222
0.0186159831441,0.17777777777777778
0.0186961116889,0.18333333333333332
0.0186961116889,0.18888888888888888
0.0187400293734,0.19444444444444445
0.0187400293734,0.2
0.0187927004297,0.20555555555555555
0.0187927004297,0.2111111111111111
0.0188176015635,0.21666666666666667
0.0188176015635,0.2222222222222222
0.0188307790527,0.22777777777777777
0.0188307790527,0.23333333333333334
0.0189041739342,0.2388888888888889
0.0189041739342,0.24444444444444444
0.0189138641192,0.25
0.0189138641192,0.25555555555555554
0.0189294828833,0.2611111111111111
0.0189294828833,0.26666666666666666
0.0193217032485,0.2722222222222222
0.0193217032485,0.2777777777777778
0.0199094341621,0.2833333333333333
0.0199094341621,0.28888888888888886
0.0202130392094,0.29444444444444445
0.0202130392094,0.3
0.0208646675016,0.3055555555555556
0.0208646675016,0.3111111111111111
0.0210063467137,0.31666666666666665
0.0210063467137,0.32222222222222224
0.0210707113617,0.3277777777777778
0.0210707113617,0.3333333333333333
0.0210941222791,0.3388888888888889
0.0210941222791,0.34444444444444444
0.0211609569547,0.35
0.0211609569547,0.35555555555555557
0.0212066776585,0.3611111111111111
0.0212066776585,0.36666666666666664
0.0213452535541,0.37222222222222223
0.0213452535541,0.37777777777777777
0.0216298140469,0.38333333333333336
0.0216298140469,0.3888888888888889
0.0216582916713,0.39444444444444443
0.0216582916713,0.4
0.0216765432263,0.40555555555555556
0.0216765432263,0.4111111111111111
0.0218215459024,0.4166666666666667
0.0218215459024,0.4222222222222222
0.0218423678028,0.42777777777777776
0.0218423678028,0.43333333333333335
0.0222390201385,0.4388888888888889
0.0222390201385,0.4444444444444444
0.503693234017,0.45
0.503693234017,0.45555555555555555
0.584055274369,0.46111111111111114
0.584055274369,0.4666666666666667
0.633621995748,0.4722222222222222
0.633621995748,0.4777777777777778
0.644207157284,0.48333333333333334
0.644207157284,0.4888888888888889
1.10300343975,0.49444444444444446
1.10300343975,0.5
1.32414234561,0.5055555555555555
1.32414234561,0.5111111111111111
1.5868504257,0.5166666666666667
1.5868504257,0.5222222222222223
1.61872203834,0.5277777777777778
1.61872203834,0.5333333333333333
1.92494139107,0.5388888888888889
1.92494139107,0.5444444444444444
2.25661714991,0.55
2.25661714991,0.5555555555555556
2.30144418148,0.5611111111111111
2.30144418148,0.5666666666666667
2.36470950637,0.5722222222222222
2.36470950637,0.5777777777777777
2.37676253916,0.5833333333333334
2.37676253916,0.5888888888888889
2.40574947683,0.5944444444444444
2.40574947683,0.6
2.46332531734,0.6055555555555555
2.46332531734,0.6111111111111112
2.50031571145,0.6166666666666667
2.50031571145,0.6222222222222222
2.61743187077,0.6277777777777778
2.61743187077,0.6333333333333333
2.64635471833,0.6388888888888888
2.64635471833,0.6444444444444445
2.79067607784,0.65
2.79067607784,0.6555555555555556
2.81490770268,0.6611111111111111
2.81490770268,0.6666666666666666
2.88753783688,0.6722222222222223
2.88753783688,0.6777777777777778
2.93214856536,0.6833333333333333
2.93214856536,0.6888888888888889
3.05318421417,0.6944444444444444
3.05318421417,0.7
3.22652262206,0.7055555555555556
3.22652262206,0.7111111111111111
3.27074872323,0.7166666666666667
3.27074872323,0.7222222222222222
3.28625480295,0.7277777777777777
3.28625480295,0.7333333333333333
3.68021368901,0.7388888888888889
3.68021368901,0.7444444444444445
4.4374664515,0.75
4.4374664515,0.7555555555555555
4.53423504084,0.7611111111111111
4.53423504084,0.7666666666666667
4.60577084132,0.7722222222222223
4.60577084132,0.7777777777777778
4.91977730406,0.7833333333333333
4.91977730406,0.7888888888888889
4.92279538306,0.7944444444444444
4.92279538306,0.8
4.94297269035,0.8055555555555556
4.94297269035,0.8111111111111111
5.40836233275,0.8166666666666667
5.40836233275,0.8222222222222222
5.63756158272,0.8277777777777777
5.63756158272,0.8333333333333334
5.65815616728,0.8388888888888889
5.65815616728,0.8444444444444444
6.21826701064,0.85
6.21826701064,0.8555555555555555
6.72581944362,0.8611111111111112
6.72581944362,0.8666666666666667
6.91349647765,0.8722222222222222
6.91349647765,0.8777777777777778
7.64204855478,0.8833333333333333
7.64204855478,0.8888888888888888
7.64599225108,0.8944444444444445
7.64599225108,0.9
8.33202577771,0.9055555555555556
8.33202577771,0.9111111111111111
8.55615111253,0.9166666666666666
8.55615111253,0.9222222222222223
9.1462509993,0.9277777777777778
9.1462509993,0.9333333333333333
9.96333106229,0.9388888888888889
9.96333106229,0.9444444444444444
9.97110110222,0.95
9.97110110222,0.9555555555555556
10.3081906041,0.9611111111111111
10.3081906041,0.9666666666666667
11.4223127133,0.9722222222222222
11.4223127133,0.9777777777777777
12.4078380512,0.9833333333333333
12.4078380512,0.9888888888888889
12.8526175095,0.9944444444444445
12.8526175095,1.0
