Congestion,CDF
0.022430561257,0.005555555555555556
0.022430561257,0.011111111111111112
0.0225375626903,0.016666666666666666
0.0225375626903,0.022222222222222223
0.0228474498835,0.027777777777777776
0.0228474498835,0.03333333333333333
0.0230236404121,0.03888888888888889
0.0230236404121,0.044444444444444446
0.0231393059299,0.05
0.0231393059299,0.05555555555555555
0.0232259199948,0.06111111111111111
0.0232259199948,0.06666666666666667
0.0234148622057,0.07222222222222222
0.0234148622057,0.07777777777777778
0.0235568990616,0.08333333333333333
0.0235568990616,0.08888888888888889
0.0237375709481,0.09444444444444444
0.0237375709481,0.1
0.0237583919144,0.10555555555555556
0.0237583919144,0.1111111111111111
0.02387854304,0.11666666666666667
0.02387854304,0.12222222222222222
0.0239955894775,0.12777777777777777
0.0239955894775,0.13333333333333333
0.0240016201243,0.1388888888888889
0.0240016201243,0.14444444444444443
0.0241594120267,0.15
0.0241594120267,0.15555555555555556
0.0241793689644,0.16111111111111112
0.0241793689644,0.16666666666666666
0.024291663117,0.17222222222222222
0.024291663117,0.17777777777777778
0.0243076053361,0.18333333333333332
0.0243076053361,0.18888888888888888
0.0243519333226,0.19444444444444445
0.0243519333226,0.2
0.0245431846132,0.20555555555555555
0.0245431846132,0.2111111111111111
0.0245872337895,0.21666666666666667
0.0245872337895,0.2222222222222222
0.0248075407476,0.22777777777777777
0.0248075407476,0.23333333333333334
0.0248890156759,0.2388888888888889
0.0248890156759,0.24444444444444444
0.0248963328767,0.25
0.0248963328767,0.25555555555555554
0.0249102817585,0.2611111111111111
0.0249102817585,0.26666666666666666
0.0252513424944,0.2722222222222222
0.0252513424944,0.2777777777777778
0.0252840835644,0.2833333333333333
0.0252840835644,0.28888888888888886
0.0253803705557,0.29444444444444445
0.0253803705557,0.3
0.0259230588231,0.3055555555555556
0.0259230588231,0.3111111111111111
0.0259587376613,0.31666666666666665
0.0259587376613,0.32222222222222224
0.0259859736174,0.3277777777777778
0.0259859736174,0.3333333333333333
0.0260853323727,0.3388888888888889
0.0260853323727,0.34444444444444444
0.0261664040283,0.35
0.0261664040283,0.35555555555555557
0.0263428652819,0.3611111111111111
0.0263428652819,0.36666666666666664
0.0263921314538,0.37222222222222223
0.0263921314538,0.37777777777777777
0.0264648026376,0.38333333333333336
0.0264648026376,0.3888888888888889
0.0265047184775,0.39444444444444443
0.0265047184775,0.4
0.0265161499797,0.40555555555555556
0.0265161499797,0.4111111111111111
0.0266585564102,0.4166666666666667
0.0266585564102,0.4222222222222222
0.0267670585885,0.42777777777777776
0.0267670585885,0.43333333333333335
0.0269750797671,0.4388888888888889
0.0269750797671,0.4444444444444444
0.721141043291,0.45
0.721141043291,0.45555555555555555
0.809694776246,0.46111111111111114
0.809694776246,0.4666666666666667
0.899305719351,0.4722222222222222
0.899305719351,0.4777777777777778
0.977084341446,0.48333333333333334
0.977084341446,0.4888888888888889
1.4658766874,0.49444444444444446
1.4658766874,0.5
1.85441338624,0.5055555555555555
1.85441338624,0.5111111111111111
2.0292332604,0.5166666666666667
2.0292332604,0.5222222222222223
2.07274015255,0.5277777777777778
2.07274015255,0.5333333333333333
2.4962608573,0.5388888888888889
2.4962608573,0.5444444444444444
2.7688232134,0.55
2.7688232134,0.5555555555555556
2.83736417071,0.5611111111111111
2.83736417071,0.5666666666666667
2.90687375566,0.5722222222222222
2.90687375566,0.5777777777777777
2.91709942368,0.5833333333333334
2.91709942368,0.5888888888888889
3.07766908945,0.5944444444444444
3.07766908945,0.6
3.11713083547,0.6055555555555555
3.11713083547,0.6111111111111112
3.20993897454,0.6166666666666667
3.20993897454,0.6222222222222222
3.35037274806,0.6277777777777778
3.35037274806,0.6333333333333333
3.35306686771,0.6388888888888888
3.35306686771,0.6444444444444445
3.46904827228,0.65
3.46904827228,0.6555555555555556
3.49479083909,0.6611111111111111
3.49479083909,0.6666666666666666
3.53094342048,0.6722222222222223
3.53094342048,0.6777777777777778
3.73051598587,0.6833333333333333
3.73051598587,0.6888888888888889
3.80667655459,0.6944444444444444
3.80667655459,0.7
3.87509330134,0.7055555555555556
3.87509330134,0.7111111111111111
3.96800021576,0.7166666666666667
3.96800021576,0.7222222222222222
4.11077739629,0.7277777777777777
4.11077739629,0.7333333333333333
4.39480328475,0.7388888888888889
4.39480328475,0.7444444444444445
5.24618946723,0.75
5.24618946723,0.7555555555555555
5.35581874569,0.7611111111111111
5.35581874569,0.7666666666666667
5.40276045662,0.7722222222222223
5.40276045662,0.7777777777777778
5.75753149138,0.7833333333333333
5.75753149138,0.7888888888888889
5.94721869734,0.7944444444444444
5.94721869734,0.8
6.01255355259,0.8055555555555556
6.01255355259,0.8111111111111111
6.33151995104,0.8166666666666667
6.33151995104,0.8222222222222222
6.64414257527,0.8277777777777777
6.64414257527,0.8333333333333334
6.75652265098,0.8388888888888889
6.75652265098,0.8444444444444444
7.30905386972,0.85
7.30905386972,0.8555555555555555
8.01327201837,0.8611111111111112
8.01327201837,0.8666666666666667
8.16961636425,0.8722222222222222
8.16961636425,0.8777777777777778
8.85682562617,0.8833333333333333
8.85682562617,0.8888888888888888
8.91293482779,0.8944444444444445
8.91293482779,0.9
9.6133796216,0.9055555555555556
9.6133796216,0.9111111111111111
10.020207267,0.9166666666666666
10.020207267,0.9222222222222223
10.4956347967,0.9277777777777778
10.4956347967,0.9333333333333333
11.5279537419,0.9388888888888889
11.5279537419,0.9444444444444444
11.6858784205,0.95
11.6858784205,0.9555555555555556
12.062639122,0.9611111111111111
12.062639122,0.9666666666666667
13.1080342439,0.9722222222222222
13.1080342439,0.9777777777777777
14.21579101,0.9833333333333333
14.21579101,0.9888888888888889
14.7940981227,0.9944444444444445
14.7940981227,1.0
