Congestion,CDF
0.020674452359,0.005555555555555556
0.020674452359,0.011111111111111112
0.0208408006899,0.016666666666666666
0.0208408006899,0.022222222222222223
0.0211533332369,0.027777777777777776
0.0211533332369,0.03333333333333333
0.0211664481711,0.03888888888888889
0.0211664481711,0.044444444444444446
0.0212443070925,0.05
0.0212443070925,0.05555555555555555
0.0213150152785,0.06111111111111111
0.0213150152785,0.06666666666666667
0.0213922217636,0.07222222222222222
0.0213922217636,0.07777777777777778
0.0214538134302,0.08333333333333333
0.0214538134302,0.08888888888888889
0.021761505508,0.09444444444444444
0.021761505508,0.1
0.0218258679351,0.10555555555555556
0.0218258679351,0.1111111111111111
0.0219020599981,0.11666666666666667
0.0219020599981,0.12222222222222222
0.0219875850382,0.12777777777777777
0.0219875850382,0.13333333333333333
0.0220118412138,0.1388888888888889
0.0220118412138,0.14444444444444443
0.022127772372,0.15
0.022127772372,0.15555555555555556
0.0222472081875,0.16111111111111112
0.0222472081875,0.16666666666666666
0.0224497561017,0.17222222222222222
0.0224497561017,0.17777777777777778
0.0226157198749,0.18333333333333332
0.0226157198749,0.18888888888888888
0.0226906844558,0.19444444444444445
0.0226906844558,0.2
0.0227132477329,0.20555555555555555
0.0227132477329,0.2111111111111111
0.0227369486823,0.21666666666666667
0.0227369486823,0.2222222222222222
0.0227372935317,0.22777777777777777
0.0227372935317,0.23333333333333334
0.0227646237711,0.2388888888888889
0.0227646237711,0.24444444444444444
0.0228427633551,0.25
0.0228427633551,0.25555555555555554
0.0229495570438,0.2611111111111111
0.0229495570438,0.26666666666666666
0.0234245588353,0.2722222222222222
0.0234245588353,0.2777777777777778
0.0239183005727,0.2833333333333333
0.0239183005727,0.28888888888888886
0.0241118112492,0.29444444444444445
0.0241118112492,0.3
0.0247868988039,0.3055555555555556
0.0247868988039,0.3111111111111111
0.0248526041082,0.31666666666666665
0.0248526041082,0.32222222222222224
0.0249208566178,0.3277777777777778
0.0249208566178,0.3333333333333333
0.0249460021806,0.3388888888888889
0.0249460021806,0.34444444444444444
0.0251063759168,0.35
0.0251063759168,0.35555555555555557
0.0251857133589,0.3611111111111111
0.0251857133589,0.36666666666666664
0.0253121910231,0.37222222222222223
0.0253121910231,0.37777777777777777
0.0253841788052,0.38333333333333336
0.0253841788052,0.3888888888888889
0.0255921261579,0.39444444444444443
0.0255921261579,0.4
0.0255975528741,0.40555555555555556
0.0255975528741,0.4111111111111111
0.0256300744068,0.4166666666666667
0.0256300744068,0.4222222222222222
0.025810930468,0.42777777777777776
0.025810930468,0.43333333333333335
0.026219064171,0.4388888888888889
0.026219064171,0.4444444444444444
0.619040365917,0.45
0.619040365917,0.45555555555555555
0.718406996799,0.46111111111111114
0.718406996799,0.4666666666666667
0.753394783555,0.4722222222222222
0.753394783555,0.4777777777777778
0.773865386269,0.48333333333333334
0.773865386269,0.4888888888888889
1.31613747569,0.49444444444444446
1.31613747569,0.5
1.58576118399,0.5055555555555555
1.58576118399,0.5111111111111111
1.92139131291,0.5166666666666667
1.92139131291,0.5222222222222223
1.96679234165,0.5277777777777778
1.96679234165,0.5333333333333333
2.35631149998,0.5388888888888889
2.35631149998,0.5444444444444444
2.68367951767,0.55
2.68367951767,0.5555555555555556
2.76427606847,0.5611111111111111
2.76427606847,0.5666666666666667
2.8187998752,0.5722222222222222
2.8187998752,0.5777777777777777
2.82666501091,0.5833333333333334
2.82666501091,0.5888888888888889
2.88022116147,0.5944444444444444
2.88022116147,0.6
2.91959111818,0.6055555555555555
2.91959111818,0.6111111111111112
3.04107502882,0.6166666666666667
3.04107502882,0.6222222222222222
3.16165191424,0.6277777777777778
3.16165191424,0.6333333333333333
3.18599720865,0.6388888888888888
3.18599720865,0.6444444444444445
3.31140088463,0.65
3.31140088463,0.6555555555555556
3.410366917,0.6611111111111111
3.410366917,0.6666666666666666
3.44371578998,0.6722222222222223
3.44371578998,0.6777777777777778
3.56291435602,0.6833333333333333
3.56291435602,0.6888888888888889
3.6188557458,0.6944444444444444
3.6188557458,0.7
3.80317977397,0.7055555555555556
3.80317977397,0.7111111111111111
3.92231679462,0.7166666666666667
3.92231679462,0.7222222222222222
3.97190576265,0.7277777777777777
3.97190576265,0.7333333333333333
4.34017894994,0.7388888888888889
4.34017894994,0.7444444444444445
5.220160366,0.75
5.220160366,0.7555555555555555
5.34687925556,0.7611111111111111
5.34687925556,0.7666666666666667
5.39758481087,0.7722222222222223
5.39758481087,0.7777777777777778
5.75000529841,0.7833333333333333
5.75000529841,0.7888888888888889
5.83799460892,0.7944444444444444
5.83799460892,0.8
5.87307218142,0.8055555555555556
5.87307218142,0.8111111111111111
6.32746034404,0.8166666666666667
6.32746034404,0.8222222222222222
6.6191116707,0.8277777777777777
6.6191116707,0.8333333333333334
6.6942382783,0.8388888888888889
6.6942382783,0.8444444444444444
7.29030324546,0.85
7.29030324546,0.8555555555555555
7.99452069033,0.8611111111111112
7.99452069033,0.8666666666666667
8.04851360526,0.8722222222222222
8.04851360526,0.8777777777777778
8.89505075129,0.8833333333333333
8.89505075129,0.8888888888888888
8.92808402138,0.8944444444444445
8.92808402138,0.9
9.68904178431,0.9055555555555556
9.68904178431,0.9111111111111111
10.0216771067,0.9166666666666666
10.0216771067,0.9222222222222223
10.6088220504,0.9277777777777778
10.6088220504,0.9333333333333333
11.5985090793,0.9388888888888889
11.5985090793,0.9444444444444444
11.6873259266,0.95
11.6873259266,0.9555555555555556
12.0828967216,0.9611111111111111
12.0828967216,0.9666666666666667
13.2305368577,0.9722222222222222
13.2305368577,0.9777777777777777
14.3679515135,0.9833333333333333
14.3679515135,0.9888888888888889
14.9245172919,0.9944444444444445
14.9245172919,1.0
