Congestion,CDF
0.0226325644219,0.005555555555555556
0.0226325644219,0.011111111111111112
0.0227890206705,0.016666666666666666
0.0227890206705,0.022222222222222223
0.0231780093282,0.027777777777777776
0.0231780093282,0.03333333333333333
0.0232454485372,0.03888888888888889
0.0232454485372,0.044444444444444446
0.0233195347447,0.05
0.0233195347447,0.05555555555555555
0.0233319492167,0.06111111111111111
0.0233319492167,0.06666666666666667
0.0234227292058,0.07222222222222222
0.0234227292058,0.07777777777777778
0.023574070459,0.08333333333333333
0.023574070459,0.08888888888888889
0.0239442489254,0.09444444444444444
0.0239442489254,0.1
0.0240818328593,0.10555555555555556
0.0240818328593,0.1111111111111111
0.024161166562,0.11666666666666667
0.024161166562,0.12222222222222222
0.0242272278292,0.12777777777777777
0.0242272278292,0.13333333333333333
0.0243309806233,0.1388888888888889
0.0243309806233,0.14444444444444443
0.0244063943492,0.15
0.0244063943492,0.15555555555555556
0.0245393000083,0.16111111111111112
0.0245393000083,0.16666666666666666
0.0246289270014,0.17222222222222222
0.0246289270014,0.17777777777777778
0.0249659647899,0.18333333333333332
0.0249659647899,0.18888888888888888
0.0250049716326,0.19444444444444445
0.0250049716326,0.2
0.0250313995749,0.20555555555555555
0.0250313995749,0.2111111111111111
0.0250315795469,0.21666666666666667
0.0250315795469,0.2222222222222222
0.0251759949589,0.22777777777777777
0.0251759949589,0.23333333333333334
0.0252154369481,0.2388888888888889
0.0252154369481,0.24444444444444444
0.0253120288164,0.25
0.0253120288164,0.25555555555555554
0.025369699749,0.2611111111111111
0.025369699749,0.26666666666666666
0.0258245002157,0.2722222222222222
0.0258245002157,0.2777777777777778
0.026309223636,0.2833333333333333
0.026309223636,0.28888888888888886
0.0263698436914,0.29444444444444445
0.0263698436914,0.3
0.0270937602789,0.3055555555555556
0.0270937602789,0.3111111111111111
0.0270999953688,0.31666666666666665
0.0270999953688,0.32222222222222224
0.0271440149236,0.3277777777777778
0.0271440149236,0.3333333333333333
0.027164220086,0.3388888888888889
0.027164220086,0.34444444444444444
0.027398374346,0.35
0.027398374346,0.35555555555555557
0.0275147658506,0.3611111111111111
0.0275147658506,0.36666666666666664
0.0276023717913,0.37222222222222223
0.0276023717913,0.37777777777777777
0.0276981091889,0.38333333333333336
0.0276981091889,0.3888888888888889
0.0278254335923,0.39444444444444443
0.0278254335923,0.4
0.0278639748223,0.40555555555555556
0.0278639748223,0.4111111111111111
0.0279097774075,0.4166666666666667
0.0279097774075,0.4222222222222222
0.0281594749509,0.42777777777777776
0.0281594749509,0.43333333333333335
0.028598598656,0.4388888888888889
0.028598598656,0.4444444444444444
0.68872164434,0.45
0.68872164434,0.45555555555555555
0.799391832228,0.46111111111111114
0.799391832228,0.4666666666666667
0.822216530324,0.4722222222222222
0.822216530324,0.4777777777777778
0.862052491856,0.48333333333333334
0.862052491856,0.4888888888888889
1.44948383732,0.49444444444444446
1.44948383732,0.5
1.75231658184,0.5055555555555555
1.75231658184,0.5111111111111111
2.11469030321,0.5166666666666667
2.11469030321,0.5222222222222223
2.16511978303,0.5277777777777778
2.16511978303,0.5333333333333333
2.61323352389,0.5388888888888889
2.61323352389,0.5444444444444444
2.93465185214,0.55
2.93465185214,0.5555555555555556
3.03261224753,0.5611111111111111
3.03261224753,0.5666666666666667
3.07866585828,0.5722222222222222
3.07866585828,0.5777777777777777
3.09820236044,0.5833333333333334
3.09820236044,0.5888888888888889
3.15976873527,0.5944444444444444
3.15976873527,0.6
3.19381672476,0.6055555555555555
3.19381672476,0.6111111111111112
3.35473513509,0.6166666666666667
3.35473513509,0.6222222222222222
3.46749725292,0.6277777777777778
3.46749725292,0.6333333333333333
3.5198569778,0.6388888888888888
3.5198569778,0.6444444444444445
3.61438386984,0.65
3.61438386984,0.6555555555555556
3.75721597717,0.6611111111111111
3.75721597717,0.6666666666666666
3.76612199981,0.6722222222222223
3.76612199981,0.6777777777777778
3.92855264842,0.6833333333333333
3.92855264842,0.6888888888888889
3.95323277903,0.6944444444444444
3.95323277903,0.7
4.14017628946,0.7055555555555556
4.14017628946,0.7111111111111111
4.28906188439,0.7166666666666667
4.28906188439,0.7222222222222222
4.38590724529,0.7277777777777777
4.38590724529,0.7333333333333333
4.72343599125,0.7388888888888889
4.72343599125,0.7444444444444445
5.66778982115,0.75
5.66778982115,0.7555555555555555
5.81056144272,0.7611111111111111
5.81056144272,0.7666666666666667
5.85037482578,0.7722222222222223
5.85037482578,0.7777777777777778
6.22491463417,0.7833333333333333
6.22491463417,0.7888888888888889
6.3629745494,0.7944444444444444
6.3629745494,0.8
6.40818054849,0.8055555555555556
6.40818054849,0.8111111111111111
6.85242929042,0.8166666666666667
6.85242929042,0.8222222222222222
7.17981096881,0.8277777777777777
7.17981096881,0.8333333333333334
7.283172349,0.8388888888888889
7.283172349,0.8444444444444444
7.90084816737,0.85
7.90084816737,0.8555555555555555
8.69643593135,0.8611111111111112
8.69643593135,0.8666666666666667
8.72503478423,0.8722222222222222
8.72503478423,0.8777777777777778
9.61075701784,0.8833333333333333
9.61075701784,0.8888888888888888
9.66310899808,0.8944444444444445
9.66310899808,0.9
10.4670339437,0.9055555555555556
10.4670339437,0.9111111111111111
10.8623744189,0.9166666666666666
10.8623744189,0.9222222222222223
11.4487560587,0.9277777777777778
11.4487560587,0.9333333333333333
12.5379813695,0.9388888888888889
12.5379813695,0.9444444444444444
12.6711346651,0.95
12.6711346651,0.9555555555555556
13.0985443025,0.9611111111111111
13.0985443025,0.9666666666666667
14.2691983126,0.9722222222222222
14.2691983126,0.9777777777777777
15.4922620375,0.9833333333333333
15.4922620375,0.9888888888888889
16.1115043814,0.9944444444444445
16.1115043814,1.0
