Congestion,CDF
0.00647642291381,0.005555555555555556
0.00647642291381,0.011111111111111112
0.006637839242,0.016666666666666666
0.006637839242,0.022222222222222223
0.00670245423534,0.027777777777777776
0.00670245423534,0.03333333333333333
0.00675057290454,0.03888888888888889
0.00675057290454,0.044444444444444446
0.0072437994194,0.05
0.0072437994194,0.05555555555555555
0.00726323296783,0.06111111111111111
0.00726323296783,0.06666666666666667
0.00733306790811,0.07222222222222222
0.00733306790811,0.07777777777777778
0.00733669669944,0.08333333333333333
0.00733669669944,0.08888888888888889
0.00750758931515,0.09444444444444444
0.00750758931515,0.1
0.00754488391494,0.10555555555555556
0.00754488391494,0.1111111111111111
0.00758894192086,0.11666666666666667
0.00758894192086,0.12222222222222222
0.00764543331549,0.12777777777777777
0.00764543331549,0.13333333333333333
0.00778952944431,0.1388888888888889
0.00778952944431,0.14444444444444443
0.00779411583654,0.15
0.00779411583654,0.15555555555555556
0.00781000561919,0.16111111111111112
0.00781000561919,0.16666666666666666
0.00786649428065,0.17222222222222222
0.00786649428065,0.17777777777777778
0.00798160502763,0.18333333333333332
0.00798160502763,0.18888888888888888
0.0079849316818,0.19444444444444445
0.0079849316818,0.2
0.00799560752782,0.20555555555555555
0.00799560752782,0.2111111111111111
0.00800484263195,0.21666666666666667
0.00800484263195,0.2222222222222222
0.00801684010069,0.22777777777777777
0.00801684010069,0.23333333333333334
0.00812771381662,0.2388888888888889
0.00812771381662,0.24444444444444444
0.00838643650014,0.25
0.00838643650014,0.25555555555555554
0.00849973915612,0.2611111111111111
0.00849973915612,0.26666666666666666
0.0087077212568,0.2722222222222222
0.0087077212568,0.2777777777777778
0.00873791652446,0.2833333333333333
0.00873791652446,0.28888888888888886
0.00936094104651,0.29444444444444445
0.00936094104651,0.3
0.00944963537464,0.3055555555555556
0.00944963537464,0.3111111111111111
0.00968273584886,0.31666666666666665
0.00968273584886,0.32222222222222224
0.00977931562774,0.3277777777777778
0.00977931562774,0.3333333333333333
0.00991183622933,0.3388888888888889
0.00991183622933,0.34444444444444444
0.0099184918432,0.35
0.0099184918432,0.35555555555555557
0.0100803392238,0.3611111111111111
0.0100803392238,0.36666666666666664
0.0100828265465,0.37222222222222223
0.0100828265465,0.37777777777777777
0.0101475932142,0.38333333333333336
0.0101475932142,0.3888888888888889
0.0102403446572,0.39444444444444443
0.0102403446572,0.4
0.0103354833543,0.40555555555555556
0.0103354833543,0.4111111111111111
0.0104551264446,0.4166666666666667
0.0104551264446,0.4222222222222222
0.010937589921,0.42777777777777776
0.010937589921,0.43333333333333335
0.0110594861868,0.4388888888888889
0.0110594861868,0.4444444444444444
0.190961911628,0.45
0.190961911628,0.45555555555555555
0.23950754989,0.46111111111111114
0.23950754989,0.4666666666666667
0.292108961092,0.4722222222222222
0.292108961092,0.4777777777777778
0.294880993947,0.48333333333333334
0.294880993947,0.4888888888888889
0.52626193605,0.49444444444444446
0.52626193605,0.5
0.576709938357,0.5055555555555555
0.576709938357,0.5111111111111111
0.602092613354,0.5166666666666667
0.602092613354,0.5222222222222223
0.65533560068,0.5277777777777778
0.65533560068,0.5333333333333333
0.726062972588,0.5388888888888889
0.726062972588,0.5444444444444444
0.851237603236,0.55
0.851237603236,0.5555555555555556
0.944555233969,0.5611111111111111
0.944555233969,0.5666666666666667
0.965214160736,0.5722222222222222
0.965214160736,0.5777777777777777
1.02416889736,0.5833333333333334
1.02416889736,0.5888888888888889
1.0393337065,0.5944444444444444
1.0393337065,0.6
1.04364179295,0.6055555555555555
1.04364179295,0.6111111111111112
1.04922962661,0.6166666666666667
1.04922962661,0.6222222222222222
1.08344745834,0.6277777777777778
1.08344745834,0.6333333333333333
1.12965815186,0.6388888888888888
1.12965815186,0.6444444444444445
1.16809233725,0.65
1.16809233725,0.6555555555555556
1.1745462902,0.6611111111111111
1.1745462902,0.6666666666666666
1.17560165454,0.6722222222222223
1.17560165454,0.6777777777777778
1.21735782025,0.6833333333333333
1.21735782025,0.6888888888888889
1.33305095873,0.6944444444444444
1.33305095873,0.7
1.34045035681,0.7055555555555556
1.34045035681,0.7111111111111111
1.35612152201,0.7166666666666667
1.35612152201,0.7222222222222222
1.58006445435,0.7277777777777777
1.58006445435,0.7333333333333333
1.75508828868,0.7388888888888889
1.75508828868,0.7444444444444445
2.03512311106,0.75
2.03512311106,0.7555555555555555
2.12880963828,0.7611111111111111
2.12880963828,0.7666666666666667
2.15568227479,0.7722222222222223
2.15568227479,0.7777777777777778
2.25085038428,0.7833333333333333
2.25085038428,0.7888888888888889
2.36173642769,0.7944444444444444
2.36173642769,0.8
2.47937645536,0.8055555555555556
2.47937645536,0.8111111111111111
2.4928524202,0.8166666666666667
2.4928524202,0.8222222222222222
2.66797105647,0.8277777777777777
2.66797105647,0.8333333333333334
2.7352223158,0.8388888888888889
2.7352223158,0.8444444444444444
2.96898325221,0.85
2.96898325221,0.8555555555555555
3.02207572703,0.8611111111111112
3.02207572703,0.8666666666666667
3.51317394263,0.8722222222222222
3.51317394263,0.8777777777777778
3.73619866152,0.8833333333333333
3.73619866152,0.8888888888888888
3.92217343727,0.8944444444444445
3.92217343727,0.9
4.04264929206,0.9055555555555556
4.04264929206,0.9111111111111111
4.24366877337,0.9166666666666666
4.24366877337,0.9222222222222223
4.69032740594,0.9277777777777778
4.69032740594,0.9333333333333333
4.75953698242,0.9388888888888889
4.75953698242,0.9444444444444444
4.79753588855,0.95
4.79753588855,0.9555555555555556
5.04666510707,0.9611111111111111
5.04666510707,0.9666666666666667
5.98449468804,0.9722222222222222
5.98449468804,0.9777777777777777
6.49516833833,0.9833333333333333
6.49516833833,0.9888888888888889
6.56660103529,0.9944444444444445
6.56660103529,1.0
