Congestion,CDF
0.0258082221395,0.005555555555555556
0.0258082221395,0.011111111111111112
0.0258945517557,0.016666666666666666
0.0258945517557,0.022222222222222223
0.0263326183392,0.027777777777777776
0.0263326183392,0.03333333333333333
0.0264560188767,0.03888888888888889
0.0264560188767,0.044444444444444446
0.0264688297671,0.05
0.0264688297671,0.05555555555555555
0.0265354470566,0.06111111111111111
0.0265354470566,0.06666666666666667
0.0268345893215,0.07222222222222222
0.0268345893215,0.07777777777777778
0.0271451087484,0.08333333333333333
0.0271451087484,0.08888888888888889
0.027164314972,0.09444444444444444
0.027164314972,0.1
0.0276967622096,0.10555555555555556
0.0276967622096,0.1111111111111111
0.0277050663597,0.11666666666666667
0.0277050663597,0.12222222222222222
0.0278301244723,0.12777777777777777
0.0278301244723,0.13333333333333333
0.0281514429199,0.1388888888888889
0.0281514429199,0.14444444444444443
0.0281878212309,0.15
0.0281878212309,0.15555555555555556
0.0282324481238,0.16111111111111112
0.0282324481238,0.16666666666666666
0.0284468663519,0.17222222222222222
0.0284468663519,0.17777777777777778
0.0285144488094,0.18333333333333332
0.0285144488094,0.18888888888888888
0.0285385478563,0.19444444444444445
0.0285385478563,0.2
0.028564438948,0.20555555555555555
0.028564438948,0.2111111111111111
0.028729904652,0.21666666666666667
0.028729904652,0.2222222222222222
0.0288786985454,0.22777777777777777
0.0288786985454,0.23333333333333334
0.0289739532283,0.2388888888888889
0.0289739532283,0.24444444444444444
0.0291045590486,0.25
0.0291045590486,0.25555555555555554
0.0293284728099,0.2611111111111111
0.0293284728099,0.26666666666666666
0.0296586584935,0.2722222222222222
0.0296586584935,0.2777777777777778
0.0297970802677,0.2833333333333333
0.0297970802677,0.28888888888888886
0.0300103130825,0.29444444444444445
0.0300103130825,0.3
0.0306080362164,0.3055555555555556
0.0306080362164,0.3111111111111111
0.0306127143644,0.31666666666666665
0.0306127143644,0.32222222222222224
0.0306601611986,0.3277777777777778
0.0306601611986,0.3333333333333333
0.0306811948455,0.3388888888888889
0.0306811948455,0.34444444444444444
0.0308857530557,0.35
0.0308857530557,0.35555555555555557
0.0310668251455,0.3611111111111111
0.0310668251455,0.36666666666666664
0.0312499914256,0.37222222222222223
0.0312499914256,0.37777777777777777
0.0312652929219,0.38333333333333336
0.0312652929219,0.3888888888888889
0.0313327772006,0.39444444444444443
0.0313327772006,0.4
0.0313355213767,0.40555555555555556
0.0313355213767,0.4111111111111111
0.0315048092759,0.4166666666666667
0.0315048092759,0.4222222222222222
0.0318312282523,0.42777777777777776
0.0318312282523,0.43333333333333335
0.0322455124617,0.4388888888888889
0.0322455124617,0.4444444444444444
0.795556546468,0.45
0.795556546468,0.45555555555555555
0.928656638772,0.46111111111111114
0.928656638772,0.4666666666666667
0.951118908614,0.4722222222222222
0.951118908614,0.4777777777777778
1.02282360068,0.48333333333333334
1.02282360068,0.4888888888888889
1.66664742842,0.49444444444444446
1.66664742842,0.5
2.05706514945,0.5055555555555555
2.05706514945,0.5111111111111111
2.41571462259,0.5166666666666667
2.41571462259,0.5222222222222223
2.47434286362,0.5277777777777778
2.47434286362,0.5333333333333333
3.01288003047,0.5388888888888889
3.01288003047,0.5444444444444444
3.32519751926,0.55
3.32519751926,0.5555555555555556
3.43601563153,0.5611111111111111
3.43601563153,0.5666666666666667
3.48302999076,0.5722222222222222
3.48302999076,0.5777777777777777
3.51426260679,0.5833333333333334
3.51426260679,0.5888888888888889
3.59422985943,0.5944444444444444
3.59422985943,0.6
3.63868907805,0.6055555555555555
3.63868907805,0.6111111111111112
3.84528908208,0.6166666666666667
3.84528908208,0.6222222222222222
3.94602724069,0.6277777777777778
3.94602724069,0.6333333333333333
4.02661842117,0.6388888888888888
4.02661842117,0.6444444444444445
4.0854605173,0.65
4.0854605173,0.6555555555555556
4.25442314926,0.6611111111111111
4.25442314926,0.6666666666666666
4.27862474356,0.6722222222222223
4.27862474356,0.6777777777777778
4.48866454384,0.6833333333333333
4.48866454384,0.6888888888888889
4.49937238746,0.6944444444444444
4.49937238746,0.7
4.64982853609,0.7055555555555556
4.64982853609,0.7111111111111111
4.84038396292,0.7166666666666667
4.84038396292,0.7222222222222222
5.01192872087,0.7277777777777777
5.01192872087,0.7333333333333333
5.300956588,0.7388888888888889
5.300956588,0.7444444444444445
6.34221536937,0.75
6.34221536937,0.7555555555555555
6.50881605961,0.7611111111111111
6.50881605961,0.7666666666666667
6.53279695117,0.7722222222222223
6.53279695117,0.7777777777777778
6.94207827006,0.7833333333333333
6.94207827006,0.7888888888888889
7.15558180767,0.7944444444444444
7.15558180767,0.8
7.21749226517,0.8055555555555556
7.21749226517,0.8111111111111111
7.64566602151,0.8166666666666667
7.64566602151,0.8222222222222222
8.02784492197,0.8277777777777777
8.02784492197,0.8333333333333334
8.17141465738,0.8388888888888889
8.17141465738,0.8444444444444444
8.82431753866,0.85
8.82431753866,0.8555555555555555
9.67975388818,0.8611111111111112
9.67975388818,0.8666666666666667
9.83690866033,0.8722222222222222
9.83690866033,0.8777777777777778
10.693524592,0.8833333333333333
10.693524592,0.8888888888888888
10.7748854755,0.8944444444444445
10.7748854755,0.9
11.6424820291,0.9055555555555556
11.6424820291,0.9111111111111111
12.1293601691,0.9166666666666666
12.1293601691,0.9222222222222223
12.7137910815,0.9277777777777778
12.7137910815,0.9333333333333333
13.9503611899,0.9388888888888889
13.9503611899,0.9444444444444444
14.1474041006,0.95
14.1474041006,0.9555555555555556
14.6217312601,0.9611111111111111
14.6217312601,0.9666666666666667
15.830881224,0.9722222222222222
15.830881224,0.9777777777777777
17.1819311996,0.9833333333333333
17.1819311996,0.9888888888888889
17.8941713994,0.9944444444444445
17.8941713994,1.0
