Congestion,CDF
0.0167723727429,0.005555555555555556
0.0167723727429,0.011111111111111112
0.0168515261302,0.016666666666666666
0.0168515261302,0.022222222222222223
0.0169597262973,0.027777777777777776
0.0169597262973,0.03333333333333333
0.0170727604219,0.03888888888888889
0.0170727604219,0.044444444444444446
0.0172456593006,0.05
0.0172456593006,0.05555555555555555
0.0172561170638,0.06111111111111111
0.0172561170638,0.06666666666666667
0.0173440871922,0.07222222222222222
0.0173440871922,0.07777777777777778
0.0174977118287,0.08333333333333333
0.0174977118287,0.08888888888888889
0.0175346092721,0.09444444444444444
0.0175346092721,0.1
0.0175368910941,0.10555555555555556
0.0175368910941,0.1111111111111111
0.0175812141434,0.11666666666666667
0.0175812141434,0.12222222222222222
0.0176267889148,0.12777777777777777
0.0176267889148,0.13333333333333333
0.0177144395146,0.1388888888888889
0.0177144395146,0.14444444444444443
0.0179020651834,0.15
0.0179020651834,0.15555555555555556
0.0179900717039,0.16111111111111112
0.0179900717039,0.16666666666666666
0.0180165349939,0.17222222222222222
0.0180165349939,0.17777777777777778
0.0181662223718,0.18333333333333332
0.0181662223718,0.18888888888888888
0.0181939082616,0.19444444444444445
0.0181939082616,0.2
0.0182601203413,0.20555555555555555
0.0182601203413,0.2111111111111111
0.0182765138931,0.21666666666666667
0.0182765138931,0.2222222222222222
0.0183335513512,0.22777777777777777
0.0183335513512,0.23333333333333334
0.0183510082841,0.2388888888888889
0.0183510082841,0.24444444444444444
0.0183990161047,0.25
0.0183990161047,0.25555555555555554
0.018401308453,0.2611111111111111
0.018401308453,0.26666666666666666
0.0187423164659,0.2722222222222222
0.0187423164659,0.2777777777777778
0.0193585862504,0.2833333333333333
0.0193585862504,0.28888888888888886
0.0196581460581,0.29444444444444445
0.0196581460581,0.3
0.0203092797052,0.3055555555555556
0.0203092797052,0.3111111111111111
0.0204593585642,0.31666666666666665
0.0204593585642,0.32222222222222224
0.0205242131629,0.3277777777777778
0.0205242131629,0.3333333333333333
0.020546418064,0.3388888888888889
0.020546418064,0.34444444444444444
0.0205874437199,0.35
0.0205874437199,0.35555555555555557
0.0206548877328,0.3611111111111111
0.0206548877328,0.36666666666666664
0.0207699180865,0.37222222222222223
0.0207699180865,0.37777777777777777
0.0210658949242,0.38333333333333336
0.0210658949242,0.3888888888888889
0.0210935696257,0.39444444444444443
0.0210935696257,0.4
0.0211597945888,0.40555555555555556
0.0211597945888,0.4111111111111111
0.0212731269221,0.4166666666666667
0.0212731269221,0.4222222222222222
0.0212852226763,0.42777777777777776
0.0212852226763,0.43333333333333335
0.0216810057254,0.4388888888888889
0.0216810057254,0.4444444444444444
0.487756522992,0.45
0.487756522992,0.45555555555555555
0.565287297008,0.46111111111111114
0.565287297008,0.4666666666666667
0.61662647207,0.4722222222222222
0.61662647207,0.4777777777777778
0.62624595141,0.48333333333333334
0.62624595141,0.4888888888888889
1.07295278035,0.49444444444444446
1.07295278035,0.5
1.28744390699,0.5055555555555555
1.28744390699,0.5111111111111111
1.53980847363,0.5166666666666667
1.53980847363,0.5222222222222223
1.56888746067,0.5277777777777778
1.56888746067,0.5333333333333333
1.86412517247,0.5388888888888889
1.86412517247,0.5444444444444444
2.19587798844,0.55
2.19587798844,0.5555555555555556
2.23500474049,0.5611111111111111
2.23500474049,0.5666666666666667
2.29795337925,0.5722222222222222
2.29795337925,0.5777777777777777
2.3138389401,0.5833333333333334
2.3138389401,0.5888888888888889
2.33875477675,0.5944444444444444
2.33875477675,0.6
2.39864243213,0.6055555555555555
2.39864243213,0.6111111111111112
2.42414993463,0.6166666666666667
2.42414993463,0.6222222222222222
2.53604813382,0.6277777777777778
2.53604813382,0.6333333333333333
2.57501040581,0.6388888888888888
2.57501040581,0.6444444444444445
2.71796440811,0.65
2.71796440811,0.6555555555555556
2.73035885074,0.6611111111111111
2.73035885074,0.6666666666666666
2.80775827764,0.6722222222222223
2.80775827764,0.6777777777777778
2.84211499492,0.6833333333333333
2.84211499492,0.6888888888888889
2.97282501004,0.6944444444444444
2.97282501004,0.7
3.14456131544,0.7055555555555556
3.14456131544,0.7111111111111111
3.17049478117,0.7166666666666667
3.17049478117,0.7222222222222222
3.19615503261,0.7277777777777777
3.19615503261,0.7333333333333333
3.58617963071,0.7388888888888889
3.58617963071,0.7444444444444445
4.32576399363,0.75
4.32576399363,0.7555555555555555
4.41850872657,0.7611111111111111
4.41850872657,0.7666666666666667
4.49273609572,0.7722222222222223
4.49273609572,0.7777777777777778
4.7922158362,0.7833333333333333
4.7922158362,0.7888888888888889
4.80130997697,0.7944444444444444
4.80130997697,0.8
4.81347691828,0.8055555555555556
4.81347691828,0.8111111111111111
5.2770320892,0.8166666666666667
5.2770320892,0.8222222222222222
5.49733995404,0.8277777777777777
5.49733995404,0.8333333333333334
5.50944402589,0.8388888888888889
5.50944402589,0.8444444444444444
6.06466486097,0.85
6.06466486097,0.8555555555555555
6.54558027097,0.8611111111111112
6.54558027097,0.8666666666666667
6.75122403005,0.8722222222222222
6.75122403005,0.8777777777777778
7.45795903411,0.8833333333333333
7.45795903411,0.8888888888888888
7.46758509675,0.8944444444444445
7.46758509675,0.9
8.13798523656,0.9055555555555556
8.13798523656,0.9111111111111111
8.34620164277,0.9166666666666666
8.34620164277,0.9222222222222223
8.93693506563,0.9277777777777778
8.93693506563,0.9333333333333333
9.72540463252,0.9388888888888889
9.72540463252,0.9444444444444444
9.72965696528,0.95
9.72965696528,0.9555555555555556
10.0536227934,0.9611111111111111
10.0536227934,0.9666666666666667
11.164286226,0.9722222222222222
11.164286226,0.9777777777777777
12.128377053,0.9833333333333333
12.128377053,0.9888888888888889
12.5570813051,0.9944444444444445
12.5570813051,1.0
