Congestion,CDF
0.0128752133132,0.005555555555555556
0.0128752133132,0.011111111111111112
0.0133618256021,0.016666666666666666
0.0133618256021,0.022222222222222223
0.0133620183095,0.027777777777777776
0.0133620183095,0.03333333333333333
0.0134914551021,0.03888888888888889
0.0134914551021,0.044444444444444446
0.0136895074738,0.05
0.0136895074738,0.05555555555555555
0.0137181113532,0.06111111111111111
0.0137181113532,0.06666666666666667
0.0137704822311,0.07222222222222222
0.0137704822311,0.07777777777777778
0.0138339197282,0.08333333333333333
0.0138339197282,0.08888888888888889
0.013846815722,0.09444444444444444
0.013846815722,0.1
0.0139122222781,0.10555555555555556
0.0139122222781,0.1111111111111111
0.0139203792,0.11666666666666667
0.0139203792,0.12222222222222222
0.0139399778696,0.12777777777777777
0.0139399778696,0.13333333333333333
0.0140110808258,0.1388888888888889
0.0140110808258,0.14444444444444443
0.0140721701436,0.15
0.0140721701436,0.15555555555555556
0.0141573387085,0.16111111111111112
0.0141573387085,0.16666666666666666
0.0142195465391,0.17222222222222222
0.0142195465391,0.17777777777777778
0.0143036399843,0.18333333333333332
0.0143036399843,0.18888888888888888
0.0143079643161,0.19444444444444445
0.0143079643161,0.2
0.0143085126405,0.20555555555555555
0.0143085126405,0.2111111111111111
0.0143198923799,0.21666666666666667
0.0143198923799,0.2222222222222222
0.0145345969092,0.22777777777777777
0.0145345969092,0.23333333333333334
0.0145558114787,0.2388888888888889
0.0145558114787,0.24444444444444444
0.014573414967,0.25
0.014573414967,0.25555555555555554
0.0147609052838,0.2611111111111111
0.0147609052838,0.26666666666666666
0.0147646003394,0.2722222222222222
0.0147646003394,0.2777777777777778
0.0147847985087,0.2833333333333333
0.0147847985087,0.28888888888888886
0.014984273262,0.29444444444444445
0.014984273262,0.3
0.0154278697343,0.3055555555555556
0.0154278697343,0.3111111111111111
0.0154753815405,0.31666666666666665
0.0154753815405,0.32222222222222224
0.0154755212294,0.3277777777777778
0.0154755212294,0.3333333333333333
0.0155356654363,0.3388888888888889
0.0155356654363,0.34444444444444444
0.0156244332333,0.35
0.0156244332333,0.35555555555555557
0.0156425606159,0.3611111111111111
0.0156425606159,0.36666666666666664
0.0157786506754,0.37222222222222223
0.0157786506754,0.37777777777777777
0.0157937700871,0.38333333333333336
0.0157937700871,0.3888888888888889
0.0158502409977,0.39444444444444443
0.0158502409977,0.4
0.0158801837143,0.40555555555555556
0.0158801837143,0.4111111111111111
0.0159716336006,0.4166666666666667
0.0159716336006,0.4222222222222222
0.0159783635261,0.42777777777777776
0.0159783635261,0.43333333333333335
0.0160912338049,0.4388888888888889
0.0160912338049,0.4444444444444444
0.427654600622,0.45
0.427654600622,0.45555555555555555
0.483512070526,0.46111111111111114
0.483512070526,0.4666666666666667
0.528383883862,0.4722222222222222
0.528383883862,0.4777777777777778
0.587980729247,0.48333333333333334
0.587980729247,0.4888888888888889
0.874317974664,0.49444444444444446
0.874317974664,0.5
1.08347200881,0.5055555555555555
1.08347200881,0.5111111111111111
1.16208406911,0.5166666666666667
1.16208406911,0.5222222222222223
1.18242537434,0.5277777777777778
1.18242537434,0.5333333333333333
1.38211091601,0.5388888888888889
1.38211091601,0.5444444444444444
1.60546298929,0.55
1.60546298929,0.5555555555555556
1.62872584313,0.5611111111111111
1.62872584313,0.5666666666666667
1.68468729103,0.5722222222222222
1.68468729103,0.5777777777777777
1.700482134,0.5833333333333334
1.700482134,0.5888888888888889
1.81905715452,0.5944444444444444
1.81905715452,0.6
1.83153582839,0.6055555555555555
1.83153582839,0.6111111111111112
1.83946920961,0.6166666666666667
1.83946920961,0.6222222222222222
1.9188545343,0.6277777777777778
1.9188545343,0.6333333333333333
1.93317433802,0.6388888888888888
1.93317433802,0.6444444444444445
1.9803644911,0.65
1.9803644911,0.6555555555555556
2.0600209489,0.6611111111111111
2.0600209489,0.6666666666666666
2.06695044878,0.6722222222222223
2.06695044878,0.6777777777777778
2.13565924955,0.6833333333333333
2.13565924955,0.6888888888888889
2.25656524071,0.6944444444444444
2.25656524071,0.7
2.25692192533,0.7055555555555556
2.25692192533,0.7111111111111111
2.27933553801,0.7166666666666667
2.27933553801,0.7222222222222222
2.31174640933,0.7277777777777777
2.31174640933,0.7333333333333333
2.59929219431,0.7388888888888889
2.59929219431,0.7444444444444445
3.11779404446,0.75
3.11779404446,0.7555555555555555
3.13972252064,0.7611111111111111
3.13972252064,0.7666666666666667
3.22548594777,0.7722222222222223
3.22548594777,0.7777777777777778
3.47669215584,0.7833333333333333
3.47669215584,0.7888888888888889
3.54573735473,0.7944444444444444
3.54573735473,0.8
3.59345959058,0.8055555555555556
3.59345959058,0.8111111111111111
3.80836351846,0.8166666666666667
3.80836351846,0.8222222222222222
3.97666071981,0.8277777777777777
3.97666071981,0.8333333333333334
4.01511343382,0.8388888888888889
4.01511343382,0.8444444444444444
4.40118534072,0.85
4.40118534072,0.8555555555555555
4.85636789823,0.8611111111111112
4.85636789823,0.8666666666666667
4.86160247937,0.8722222222222222
4.86160247937,0.8777777777777778
5.3852993523,0.8833333333333333
5.3852993523,0.8888888888888888
5.3982496587,0.8944444444444445
5.3982496587,0.9
5.81462269688,0.9055555555555556
5.81462269688,0.9111111111111111
6.02674562499,0.9166666666666666
6.02674562499,0.9222222222222223
6.37427317187,0.9277777777777778
6.37427317187,0.9333333333333333
6.99586352358,0.9388888888888889
6.99586352358,0.9444444444444444
7.04284595226,0.95
7.04284595226,0.9555555555555556
7.24580596348,0.9611111111111111
7.24580596348,0.9666666666666667
8.03730288282,0.9722222222222222
8.03730288282,0.9777777777777777
8.71197896341,0.9833333333333333
8.71197896341,0.9888888888888889
9.02338856355,0.9944444444444445
9.02338856355,1.0
