Congestion,CDF
0.00986055661885,0.005555555555555556
0.00986055661885,0.011111111111111112
0.0103601017826,0.016666666666666666
0.0103601017826,0.022222222222222223
0.0105587549903,0.027777777777777776
0.0105587549903,0.03333333333333333
0.01071107762,0.03888888888888889
0.01071107762,0.044444444444444446
0.0107128373199,0.05
0.0107128373199,0.05555555555555555
0.0107353159987,0.06111111111111111
0.0107353159987,0.06666666666666667
0.0108090313658,0.07222222222222222
0.0108090313658,0.07777777777777778
0.0108269529007,0.08333333333333333
0.0108269529007,0.08888888888888889
0.0108373601891,0.09444444444444444
0.0108373601891,0.1
0.0109977056347,0.10555555555555556
0.0109977056347,0.1111111111111111
0.0110987499316,0.11666666666666667
0.0110987499316,0.12222222222222222
0.0111733834276,0.12777777777777777
0.0111733834276,0.13333333333333333
0.0111907484864,0.1388888888888889
0.0111907484864,0.14444444444444443
0.0112949784271,0.15
0.0112949784271,0.15555555555555556
0.0112967569767,0.16111111111111112
0.0112967569767,0.16666666666666666
0.0112976159427,0.17222222222222222
0.0112976159427,0.17777777777777778
0.0113403281734,0.18333333333333332
0.0113403281734,0.18888888888888888
0.0113475825566,0.19444444444444445
0.0113475825566,0.2
0.0114478837472,0.20555555555555555
0.0114478837472,0.2111111111111111
0.0115589894028,0.21666666666666667
0.0115589894028,0.2222222222222222
0.0115618962543,0.22777777777777777
0.0115618962543,0.23333333333333334
0.0116488977194,0.2388888888888889
0.0116488977194,0.24444444444444444
0.0119062130788,0.25
0.0119062130788,0.25555555555555554
0.0121301472128,0.2611111111111111
0.0121301472128,0.26666666666666666
0.0121354610972,0.2722222222222222
0.0121354610972,0.2777777777777778
0.0123041346682,0.2833333333333333
0.0123041346682,0.28888888888888886
0.0125233523566,0.29444444444444445
0.0125233523566,0.3
0.0132745958163,0.3055555555555556
0.0132745958163,0.3111111111111111
0.0133902849552,0.31666666666666665
0.0133902849552,0.32222222222222224
0.0134878665779,0.3277777777777778
0.0134878665779,0.3333333333333333
0.0136311895593,0.3388888888888889
0.0136311895593,0.34444444444444444
0.0136405440328,0.35
0.0136405440328,0.35555555555555557
0.0137291130145,0.3611111111111111
0.0137291130145,0.36666666666666664
0.0137393829746,0.37222222222222223
0.0137393829746,0.37777777777777777
0.0138013827146,0.38333333333333336
0.0138013827146,0.3888888888888889
0.0140008261782,0.39444444444444443
0.0140008261782,0.4
0.0140209655962,0.40555555555555556
0.0140209655962,0.4111111111111111
0.0143444447378,0.4166666666666667
0.0143444447378,0.4222222222222222
0.0144334264384,0.42777777777777776
0.0144334264384,0.43333333333333335
0.0145315651028,0.4388888888888889
0.0145315651028,0.4444444444444444
0.295698361994,0.45
0.295698361994,0.45555555555555555
0.34912125362,0.46111111111111114
0.34912125362,0.4666666666666667
0.404058359832,0.4722222222222222
0.404058359832,0.4777777777777778
0.408229659212,0.48333333333333334
0.408229659212,0.4888888888888889
0.711733303828,0.49444444444444446
0.711733303828,0.5
0.825912934103,0.5055555555555555
0.825912934103,0.5111111111111111
0.940445036237,0.5166666666666667
0.940445036237,0.5222222222222223
0.942445861414,0.5277777777777778
0.942445861414,0.5333333333333333
1.10759529858,0.5388888888888889
1.10759529858,0.5444444444444444
1.36207506564,0.55
1.36207506564,0.5555555555555556
1.42245663005,0.5611111111111111
1.42245663005,0.5666666666666667
1.43212944324,0.5722222222222222
1.43212944324,0.5777777777777777
1.48770236016,0.5833333333333334
1.48770236016,0.5888888888888889
1.50791466937,0.5944444444444444
1.50791466937,0.6
1.50878802501,0.6055555555555555
1.50878802501,0.6111111111111112
1.52702846507,0.6166666666666667
1.52702846507,0.6222222222222222
1.60145648928,0.6277777777777778
1.60145648928,0.6333333333333333
1.62646300162,0.6388888888888888
1.62646300162,0.6444444444444445
1.69022433845,0.65
1.69022433845,0.6555555555555556
1.70591771894,0.6611111111111111
1.70591771894,0.6666666666666666
1.77026170464,0.6722222222222223
1.77026170464,0.6777777777777778
1.81963614704,0.6833333333333333
1.81963614704,0.6888888888888889
1.87906949464,0.6944444444444444
1.87906949464,0.7
1.94325127687,0.7055555555555556
1.94325127687,0.7111111111111111
2.00391228692,0.7166666666666667
2.00391228692,0.7222222222222222
2.11369812764,0.7277777777777777
2.11369812764,0.7333333333333333
2.38623492242,0.7388888888888889
2.38623492242,0.7444444444444445
2.89705059322,0.75
2.89705059322,0.7555555555555555
2.90072767638,0.7611111111111111
2.90072767638,0.7666666666666667
3.04256117876,0.7722222222222223
3.04256117876,0.7777777777777778
3.0994409023,0.7833333333333333
3.0994409023,0.7888888888888889
3.2054975439,0.7944444444444444
3.2054975439,0.8
3.28290045968,0.8055555555555556
3.28290045968,0.8111111111111111
3.5606640008,0.8166666666666667
3.5606640008,0.8222222222222222
3.57970347421,0.8277777777777777
3.57970347421,0.8333333333333334
3.69363363139,0.8388888888888889
3.69363363139,0.8444444444444444
4.05960311411,0.85
4.05960311411,0.8555555555555555
4.27413957476,0.8611111111111112
4.27413957476,0.8666666666666667
4.64441246976,0.8722222222222222
4.64441246976,0.8777777777777778
5.05612870939,0.8833333333333333
5.05612870939,0.8888888888888888
5.16689023528,0.8944444444444445
5.16689023528,0.9
5.57816168081,0.9055555555555556
5.57816168081,0.9111111111111111
5.60957223599,0.9166666666666666
5.60957223599,0.9222222222222223
6.19814517106,0.9277777777777778
6.19814517106,0.9333333333333333
6.52736092483,0.9388888888888889
6.52736092483,0.9444444444444444
6.69405444405,0.95
6.69405444405,0.9555555555555556
6.69470953317,0.9611111111111111
6.69470953317,0.9666666666666667
7.80340511685,0.9722222222222222
7.80340511685,0.9777777777777777
8.48429816037,0.9833333333333333
8.48429816037,0.9888888888888889
8.69378496033,0.9944444444444445
8.69378496033,1.0
