Congestion,CDF
0.0299911340033,0.005555555555555556
0.0299911340033,0.011111111111111112
0.0300447400613,0.016666666666666666
0.0300447400613,0.022222222222222223
0.0308771271307,0.027777777777777776
0.0308771271307,0.03333333333333333
0.0309241292907,0.03888888888888889
0.0309241292907,0.044444444444444446
0.0309469224263,0.05
0.0309469224263,0.05555555555555555
0.0314266603186,0.06111111111111111
0.0314266603186,0.06666666666666667
0.0315769105997,0.07222222222222222
0.0315769105997,0.07777777777777778
0.0316646093572,0.08333333333333333
0.0316646093572,0.08888888888888889
0.0320544566295,0.09444444444444444
0.0320544566295,0.1
0.0322495902137,0.10555555555555556
0.0322495902137,0.1111111111111111
0.0323907189863,0.11666666666666667
0.0323907189863,0.12222222222222222
0.0328732064522,0.12777777777777777
0.0328732064522,0.13333333333333333
0.0329176126868,0.1388888888888889
0.0329176126868,0.14444444444444443
0.0329841647026,0.15
0.0329841647026,0.15555555555555556
0.0330602623548,0.16111111111111112
0.0330602623548,0.16666666666666666
0.0330612477451,0.17222222222222222
0.0330612477451,0.17777777777777778
0.0332186640278,0.18333333333333332
0.0332186640278,0.18888888888888888
0.0332560537294,0.19444444444444445
0.0332560537294,0.2
0.0334466984926,0.20555555555555555
0.0334466984926,0.2111111111111111
0.0335454991246,0.21666666666666667
0.0335454991246,0.2222222222222222
0.0337051508452,0.22777777777777777
0.0337051508452,0.23333333333333334
0.0337800442705,0.2388888888888889
0.0337800442705,0.24444444444444444
0.0340064287495,0.25
0.0340064287495,0.25555555555555554
0.0342295673229,0.2611111111111111
0.0342295673229,0.26666666666666666
0.0343199236806,0.2722222222222222
0.0343199236806,0.2777777777777778
0.0344650745148,0.2833333333333333
0.0344650745148,0.28888888888888886
0.0346877225436,0.29444444444444445
0.0346877225436,0.3
0.03507699989,0.3055555555555556
0.03507699989,0.3111111111111111
0.0350785539477,0.31666666666666665
0.0350785539477,0.32222222222222224
0.0351681419056,0.3277777777777778
0.0351681419056,0.3333333333333333
0.0353199286761,0.3388888888888889
0.0353199286761,0.34444444444444444
0.0353461353147,0.35
0.0353461353147,0.35555555555555557
0.0357028621351,0.3611111111111111
0.0357028621351,0.36666666666666664
0.0357653752484,0.37222222222222223
0.0357653752484,0.37777777777777777
0.035830132838,0.38333333333333336
0.035830132838,0.3888888888888889
0.0358493920671,0.39444444444444443
0.0358493920671,0.4
0.0358660459794,0.40555555555555556
0.0358660459794,0.4111111111111111
0.0360540356468,0.4166666666666667
0.0360540356468,0.4222222222222222
0.0363185454919,0.42777777777777776
0.0363185454919,0.43333333333333335
0.0366447400291,0.4388888888888889
0.0366447400291,0.4444444444444444
0.944993778825,0.45
0.944993778825,0.45555555555555555
1.08241829685,0.46111111111111114
1.08241829685,0.4666666666666667
1.1913691847,0.4722222222222222
1.1913691847,0.4777777777777778
1.27601974046,0.48333333333333334
1.27601974046,0.4888888888888889
1.97878953271,0.49444444444444446
1.97878953271,0.5
2.51039912613,0.5055555555555555
2.51039912613,0.5111111111111111
2.80338344682,0.5166666666666667
2.80338344682,0.5222222222222223
2.86741994145,0.5277777777777778
2.86741994145,0.5333333333333333
3.5001132373,0.5388888888888889
3.5001132373,0.5444444444444444
3.80422613271,0.55
3.80422613271,0.5555555555555556
3.9212301574,0.5611111111111111
3.9212301574,0.5666666666666667
3.97982485678,0.5722222222222222
3.97982485678,0.5777777777777777
4.02120115762,0.5833333333333334
4.02120115762,0.5888888888888889
4.16834479549,0.5944444444444444
4.16834479549,0.6
4.23827335726,0.6055555555555555
4.23827335726,0.6111111111111112
4.45045199965,0.6166666666666667
4.45045199965,0.6222222222222222
4.5619511856,0.6277777777777778
4.5619511856,0.6333333333333333
4.63934893608,0.6388888888888888
4.63934893608,0.6444444444444445
4.70559168918,0.65
4.70559168918,0.6555555555555556
4.84651656879,0.6611111111111111
4.84651656879,0.6666666666666666
4.90591687855,0.6722222222222223
4.90591687855,0.6777777777777778
5.1684876167,0.6833333333333333
5.1684876167,0.6888888888888889
5.18832286931,0.6944444444444444
5.18832286931,0.7
5.26939117093,0.7055555555555556
5.26939117093,0.7111111111111111
5.50595696582,0.7166666666666667
5.50595696582,0.7222222222222222
5.7699883383,0.7277777777777777
5.7699883383,0.7333333333333333
6.00100975048,0.7388888888888889
6.00100975048,0.7444444444444445
7.15081474458,0.75
7.15081474458,0.7555555555555555
7.34428155672,0.7611111111111111
7.34428155672,0.7666666666666667
7.35110136714,0.7722222222222223
7.35110136714,0.7777777777777778
7.79983500337,0.7833333333333333
7.79983500337,0.7888888888888889
8.09903355631,0.7944444444444444
8.09903355631,0.8
8.18088603691,0.8055555555555556
8.18088603691,0.8111111111111111
8.59019411451,0.8166666666666667
8.59019411451,0.8222222222222222
9.03477076086,0.8277777777777777
9.03477076086,0.8333333333333334
9.22102315199,0.8388888888888889
9.22102315199,0.8444444444444444
9.91534310332,0.85
9.91534310332,0.8555555555555555
10.8396336167,0.8611111111111112
10.8396336167,0.8666666666666667
11.1459787718,0.8722222222222222
11.1459787718,0.8777777777777778
11.9668327742,0.8833333333333333
11.9668327742,0.8888888888888888
12.0816177548,0.8944444444444445
12.0816177548,0.9
13.0239126168,0.9055555555555556
13.0239126168,0.9111111111111111
13.6138466393,0.9166666666666666
13.6138466393,0.9222222222222223
14.1984474085,0.9277777777777778
14.1984474085,0.9333333333333333
15.6050049793,0.9388888888888889
15.6050049793,0.9444444444444444
15.8729954678,0.95
15.8729954678,0.9555555555555556
16.4017324104,0.9611111111111111
16.4017324104,0.9666666666666667
17.6600415697,0.9722222222222222
17.6600415697,0.9777777777777777
19.1594595853,0.9833333333333333
19.1594595853,0.9888888888888889
19.9788224444,0.9944444444444445
19.9788224444,1.0
