Congestion,CDF
0.0252926311925,0.005555555555555556
0.0252926311925,0.011111111111111112
0.0253679008228,0.016666666666666666
0.0253679008228,0.022222222222222223
0.0258985855683,0.027777777777777776
0.0258985855683,0.03333333333333333
0.0259814548332,0.03888888888888889
0.0259814548332,0.044444444444444446
0.0260294988978,0.05
0.0260294988978,0.05555555555555555
0.0263441086075,0.06111111111111111
0.0263441086075,0.06666666666666667
0.0263588545798,0.07222222222222222
0.0263588545798,0.07777777777777778
0.0266445695269,0.08333333333333333
0.0266445695269,0.08888888888888889
0.0268171906319,0.09444444444444444
0.0268171906319,0.1
0.0269067800383,0.10555555555555556
0.0269067800383,0.1111111111111111
0.0269948008004,0.11666666666666667
0.0269948008004,0.12222222222222222
0.0273466681057,0.12777777777777777
0.0273466681057,0.13333333333333333
0.0273597435179,0.1388888888888889
0.0273597435179,0.14444444444444443
0.0274225307952,0.15
0.0274225307952,0.15555555555555556
0.0274743667715,0.16111111111111112
0.0274743667715,0.16666666666666666
0.0274790455061,0.17222222222222222
0.0274790455061,0.17777777777777778
0.0274915620442,0.18333333333333332
0.0274915620442,0.18888888888888888
0.027582891459,0.19444444444444445
0.027582891459,0.2
0.0276502339998,0.20555555555555555
0.0276502339998,0.2111111111111111
0.0278855361566,0.21666666666666667
0.0278855361566,0.2222222222222222
0.0279942124981,0.22777777777777777
0.0279942124981,0.23333333333333334
0.0280576166866,0.2388888888888889
0.0280576166866,0.24444444444444444
0.0280780903103,0.25
0.0280780903103,0.25555555555555554
0.0281359483802,0.2611111111111111
0.0281359483802,0.26666666666666666
0.0284332786778,0.2722222222222222
0.0284332786778,0.2777777777777778
0.0284924771465,0.2833333333333333
0.0284924771465,0.28888888888888886
0.0285521550344,0.29444444444444445
0.0285521550344,0.3
0.0286237391714,0.3055555555555556
0.0286237391714,0.3111111111111111
0.0286461218061,0.31666666666666665
0.0286461218061,0.32222222222222224
0.0286616024221,0.3277777777777778
0.0286616024221,0.3333333333333333
0.0288373265566,0.3388888888888889
0.0288373265566,0.34444444444444444
0.0289160283661,0.35
0.0289160283661,0.35555555555555557
0.0290278813737,0.3611111111111111
0.0290278813737,0.36666666666666664
0.0291898251729,0.37222222222222223
0.0291898251729,0.37777777777777777
0.0292019912128,0.38333333333333336
0.0292019912128,0.3888888888888889
0.0292315686006,0.39444444444444443
0.0292315686006,0.4
0.0293227219653,0.40555555555555556
0.0293227219653,0.4111111111111111
0.0293900250164,0.4166666666666667
0.0293900250164,0.4222222222222222
0.0296287352986,0.42777777777777776
0.0296287352986,0.43333333333333335
0.0298154679162,0.4388888888888889
0.0298154679162,0.4444444444444444
0.834559519772,0.45
0.834559519772,0.45555555555555555
0.907949198173,0.46111111111111114
0.907949198173,0.4666666666666667
1.04887136491,0.4722222222222222
1.04887136491,0.4777777777777778
1.13931119067,0.48333333333333334
1.13931119067,0.4888888888888889
1.65225875384,0.49444444444444446
1.65225875384,0.5
2.13300646813,0.5055555555555555
2.13300646813,0.5111111111111111
2.31503797864,0.5166666666666667
2.31503797864,0.5222222222222223
2.37459488325,0.5277777777777778
2.37459488325,0.5333333333333333
2.88403932156,0.5388888888888889
2.88403932156,0.5444444444444444
3.09710890087,0.55
3.09710890087,0.5555555555555556
3.21083594349,0.5611111111111111
3.21083594349,0.5666666666666667
3.22729340244,0.5722222222222222
3.22729340244,0.5777777777777777
3.28860199994,0.5833333333333334
3.28860199994,0.5888888888888889
3.4488761976,0.5944444444444444
3.4488761976,0.6
3.49117253816,0.6055555555555555
3.49117253816,0.6111111111111112
3.65897112503,0.6166666666666667
3.65897112503,0.6222222222222222
3.74746641588,0.6277777777777778
3.74746641588,0.6333333333333333
3.809742368,0.6388888888888888
3.809742368,0.6444444444444445
3.84792995498,0.65
3.84792995498,0.6555555555555556
3.95996859384,0.6611111111111111
3.95996859384,0.6666666666666666
4.01516860919,0.6722222222222223
4.01516860919,0.6777777777777778
4.2398643242,0.6833333333333333
4.2398643242,0.6888888888888889
4.24738354154,0.6944444444444444
4.24738354154,0.7
4.25100078138,0.7055555555555556
4.25100078138,0.7111111111111111
4.48943959856,0.7166666666666667
4.48943959856,0.7222222222222222
4.72813255801,0.7277777777777777
4.72813255801,0.7333333333333333
4.86014939793,0.7388888888888889
4.86014939793,0.7444444444444445
5.77985840148,0.75
5.77985840148,0.7555555555555555
5.93048965448,0.7611111111111111
5.93048965448,0.7666666666666667
5.96304464417,0.7722222222222223
5.96304464417,0.7777777777777778
6.26411864541,0.7833333333333333
6.26411864541,0.7888888888888889
6.57043562084,0.7944444444444444
6.57043562084,0.8
6.62297417653,0.8055555555555556
6.62297417653,0.8111111111111111
6.91772746146,0.8166666666666667
6.91772746146,0.8222222222222222
7.29460283901,0.8277777777777777
7.29460283901,0.8333333333333334
7.47922338026,0.8388888888888889
7.47922338026,0.8444444444444444
8.00331007625,0.85
8.00331007625,0.8555555555555555
8.69941789549,0.8611111111111112
8.69941789549,0.8666666666666667
9.06355453248,0.8722222222222222
9.06355453248,0.8777777777777778
9.609220595,0.8833333333333333
9.609220595,0.8888888888888888
9.72706512968,0.8944444444444445
9.72706512968,0.9
10.4934804977,0.9055555555555556
10.4934804977,0.9111111111111111
10.9922133121,0.9166666666666666
10.9922133121,0.9222222222222223
11.4205291871,0.9277777777777778
11.4205291871,0.9333333333333333
12.5559387393,0.9388888888888889
12.5559387393,0.9444444444444444
12.7870441232,0.95
12.7870441232,0.9555555555555556
13.2331913833,0.9611111111111111
13.2331913833,0.9666666666666667
14.1173919892,0.9722222222222222
14.1173919892,0.9777777777777777
15.3136789645,0.9833333333333333
15.3136789645,0.9888888888888889
16.0104414373,0.9944444444444445
16.0104414373,1.0
