Congestion,CDF
0.0247912962632,0.005555555555555556
0.0247912962632,0.011111111111111112
0.0249079718402,0.016666666666666666
0.0249079718402,0.022222222222222223
0.0249473908103,0.027777777777777776
0.0249473908103,0.03333333333333333
0.0250214769774,0.03888888888888889
0.0250214769774,0.044444444444444446
0.0250454377409,0.05
0.0250454377409,0.05555555555555555
0.0251815535331,0.06111111111111111
0.0251815535331,0.06666666666666667
0.0255805382815,0.07222222222222222
0.0255805382815,0.07777777777777778
0.025776557075,0.08333333333333333
0.025776557075,0.08888888888888889
0.0261526948797,0.09444444444444444
0.0261526948797,0.1
0.0263343297874,0.10555555555555556
0.0263343297874,0.1111111111111111
0.0263953152788,0.11666666666666667
0.0263953152788,0.12222222222222222
0.026458074189,0.12777777777777777
0.026458074189,0.13333333333333333
0.0264900734929,0.1388888888888889
0.0264900734929,0.14444444444444443
0.0268290604897,0.15
0.0268290604897,0.15555555555555556
0.0270439160805,0.16111111111111112
0.0270439160805,0.16666666666666666
0.0271271809895,0.17222222222222222
0.0271271809895,0.17777777777777778
0.0272122289102,0.18333333333333332
0.0272122289102,0.18888888888888888
0.0272857840596,0.19444444444444445
0.0272857840596,0.2
0.0274264024717,0.20555555555555555
0.0274264024717,0.2111111111111111
0.0275600790396,0.21666666666666667
0.0275600790396,0.2222222222222222
0.0276459333877,0.22777777777777777
0.0276459333877,0.23333333333333334
0.0276490549003,0.2388888888888889
0.0276490549003,0.24444444444444444
0.0277542315257,0.25
0.0277542315257,0.25555555555555554
0.027830985067,0.2611111111111111
0.027830985067,0.26666666666666666
0.028219599588,0.2722222222222222
0.028219599588,0.2777777777777778
0.028742113923,0.2833333333333333
0.028742113923,0.28888888888888886
0.0291453628561,0.29444444444444445
0.0291453628561,0.3
0.0292746780509,0.3055555555555556
0.0292746780509,0.3111111111111111
0.0293772357648,0.31666666666666665
0.0293772357648,0.32222222222222224
0.0294152488663,0.3277777777777778
0.0294152488663,0.3333333333333333
0.029435189183,0.3388888888888889
0.029435189183,0.34444444444444444
0.0294590113244,0.35
0.0294590113244,0.35555555555555557
0.0297000779954,0.3611111111111111
0.0297000779954,0.36666666666666664
0.0300960009236,0.37222222222222223
0.0300960009236,0.37777777777777777
0.0301235403234,0.38333333333333336
0.0301235403234,0.3888888888888889
0.0302143363608,0.39444444444444443
0.0302143363608,0.4
0.0302779432806,0.40555555555555556
0.0302779432806,0.4111111111111111
0.030280879382,0.4166666666666667
0.030280879382,0.4222222222222222
0.0306778921513,0.42777777777777776
0.0306778921513,0.43333333333333335
0.0311816365418,0.4388888888888889
0.0311816365418,0.4444444444444444
0.754919041384,0.45
0.754919041384,0.45555555555555555
0.875496826794,0.46111111111111114
0.875496826794,0.4666666666666667
0.898479727314,0.4722222222222222
0.898479727314,0.4777777777777778
0.94126178593,0.48333333333333334
0.94126178593,0.4888888888888889
1.5726958126,0.49444444444444446
1.5726958126,0.5
1.92224569391,0.5055555555555555
1.92224569391,0.5111111111111111
2.36359984999,0.5166666666666667
2.36359984999,0.5222222222222223
2.42982143667,0.5277777777777778
2.42982143667,0.5333333333333333
2.95234572525,0.5388888888888889
2.95234572525,0.5444444444444444
3.24080107048,0.55
3.24080107048,0.5555555555555556
3.37451987809,0.5611111111111111
3.37451987809,0.5666666666666667
3.3821930812,0.5722222222222222
3.3821930812,0.5777777777777777
3.42911891244,0.5833333333333334
3.42911891244,0.5888888888888889
3.45056607035,0.5944444444444444
3.45056607035,0.6
3.50892980553,0.6055555555555555
3.50892980553,0.6111111111111112
3.73624729737,0.6166666666666667
3.73624729737,0.6222222222222222
3.76522449067,0.6277777777777778
3.76522449067,0.6333333333333333
3.90791859195,0.6388888888888888
3.90791859195,0.6444444444444445
3.92840950839,0.65
3.92840950839,0.6555555555555556
4.16125965749,0.6611111111111111
4.16125965749,0.6666666666666666
4.25994379847,0.6722222222222223
4.25994379847,0.6777777777777778
4.29423824598,0.6833333333333333
4.29423824598,0.6888888888888889
4.37854506835,0.6944444444444444
4.37854506835,0.7
4.48147764626,0.7055555555555556
4.48147764626,0.7111111111111111
4.80776147768,0.7166666666666667
4.80776147768,0.7222222222222222
4.96814500776,0.7277777777777777
4.96814500776,0.7333333333333333
5.17454822023,0.7388888888888889
5.17454822023,0.7444444444444445
6.19902995682,0.75
6.19902995682,0.7555555555555555
6.39094057935,0.7611111111111111
6.39094057935,0.7666666666666667
6.4355105046,0.7722222222222223
6.4355105046,0.7777777777777778
6.74489845435,0.7833333333333333
6.74489845435,0.7888888888888889
6.91089043152,0.7944444444444444
6.91089043152,0.8
6.93807519399,0.8055555555555556
6.93807519399,0.8111111111111111
7.44595474244,0.8166666666666667
7.44595474244,0.8222222222222222
7.82544643397,0.8277777777777777
7.82544643397,0.8333333333333334
7.98919716833,0.8388888888888889
7.98919716833,0.8444444444444444
8.58648050863,0.85
8.58648050863,0.8555555555555555
9.42721859238,0.8611111111111112
9.42721859238,0.8666666666666667
9.53377066537,0.8722222222222222
9.53377066537,0.8777777777777778
10.4261194712,0.8833333333333333
10.4261194712,0.8888888888888888
10.5122744867,0.8944444444444445
10.5122744867,0.9
11.4255892503,0.9055555555555556
11.4255892503,0.9111111111111111
11.8710061028,0.9166666666666666
11.8710061028,0.9222222222222223
12.4834959477,0.9277777777777778
12.4834959477,0.9333333333333333
13.6520552804,0.9388888888888889
13.6520552804,0.9444444444444444
13.819557027,0.95
13.819557027,0.9555555555555556
14.3127950142,0.9611111111111111
14.3127950142,0.9666666666666667
15.3713633351,0.9722222222222222
15.3713633351,0.9777777777777777
16.7073823578,0.9833333333333333
16.7073823578,0.9888888888888889
17.423427502,0.9944444444444445
17.423427502,1.0
