Congestion,CDF
0.0413823606645,0.005555555555555556
0.0413823606645,0.011111111111111112
0.0414239544371,0.016666666666666666
0.0414239544371,0.022222222222222223
0.042186306004,0.027777777777777776
0.042186306004,0.03333333333333333
0.0423237662771,0.03888888888888889
0.0423237662771,0.044444444444444446
0.0423970773158,0.05
0.0423970773158,0.05555555555555555
0.0425214913389,0.06111111111111111
0.0425214913389,0.06666666666666667
0.0433434191597,0.07222222222222222
0.0433434191597,0.07777777777777778
0.0436024149174,0.08333333333333333
0.0436024149174,0.08888888888888889
0.0448244225858,0.09444444444444444
0.0448244225858,0.1
0.0448375671481,0.10555555555555556
0.0448375671481,0.1111111111111111
0.0450055408706,0.11666666666666667
0.0450055408706,0.12222222222222222
0.045135327996,0.12777777777777777
0.045135327996,0.13333333333333333
0.0452224838956,0.1388888888888889
0.0452224838956,0.14444444444444443
0.0458229038785,0.15
0.0458229038785,0.15555555555555556
0.0458502118724,0.16111111111111112
0.0458502118724,0.16666666666666666
0.0459575803221,0.17222222222222222
0.0459575803221,0.17777777777777778
0.0461728898286,0.18333333333333332
0.0461728898286,0.18888888888888888
0.0462178854161,0.19444444444444445
0.0462178854161,0.2
0.0462248301929,0.20555555555555555
0.0462248301929,0.2111111111111111
0.0463027488086,0.21666666666666667
0.0463027488086,0.2222222222222222
0.0465118850111,0.22777777777777777
0.0465118850111,0.23333333333333334
0.046573007938,0.2388888888888889
0.046573007938,0.24444444444444444
0.046971153125,0.25
0.046971153125,0.25555555555555554
0.0470631881386,0.2611111111111111
0.0470631881386,0.26666666666666666
0.0474650022919,0.2722222222222222
0.0474650022919,0.2777777777777778
0.047484476493,0.2833333333333333
0.047484476493,0.28888888888888886
0.0475043862338,0.29444444444444445
0.0475043862338,0.3
0.0475584085425,0.3055555555555556
0.0475584085425,0.3111111111111111
0.0477219815434,0.31666666666666665
0.0477219815434,0.32222222222222224
0.0477299340621,0.3277777777777778
0.0477299340621,0.3333333333333333
0.0477448729188,0.3388888888888889
0.0477448729188,0.34444444444444444
0.0478923177986,0.35
0.0478923177986,0.35555555555555557
0.0481874773393,0.3611111111111111
0.0481874773393,0.36666666666666664
0.0482940123194,0.37222222222222223
0.0482940123194,0.37777777777777777
0.0484647994209,0.38333333333333336
0.0484647994209,0.3888888888888889
0.0485464548698,0.39444444444444443
0.0485464548698,0.4
0.0487321726059,0.40555555555555556
0.0487321726059,0.4111111111111111
0.0491908315639,0.4166666666666667
0.0491908315639,0.4222222222222222
0.0494168573815,0.42777777777777776
0.0494168573815,0.43333333333333335
0.0499084372963,0.4388888888888889
0.0499084372963,0.4444444444444444
1.3282114985,0.45
1.3282114985,0.45555555555555555
1.48780456424,0.46111111111111114
1.48780456424,0.4666666666666667
1.6991854725,0.4722222222222222
1.6991854725,0.4777777777777778
1.82421558025,0.48333333333333334
1.82421558025,0.4888888888888889
2.75295483645,0.49444444444444446
2.75295483645,0.5
3.5541840687,0.5055555555555555
3.5541840687,0.5111111111111111
3.94024680636,0.5166666666666667
3.94024680636,0.5222222222222223
4.04142577426,0.5277777777777778
4.04142577426,0.5333333333333333
4.99567389471,0.5388888888888889
4.99567389471,0.5444444444444444
5.263758745,0.55
5.263758745,0.5555555555555556
5.47121438469,0.5611111111111111
5.47121438469,0.5666666666666667
5.48335519434,0.5722222222222222
5.48335519434,0.5777777777777777
5.6021582141,0.5833333333333334
5.6021582141,0.5888888888888889
5.72749365306,0.5944444444444444
5.72749365306,0.6
5.85741801369,0.6055555555555555
5.85741801369,0.6111111111111112
6.26283500973,0.6166666666666667
6.26283500973,0.6222222222222222
6.2790216427,0.6277777777777778
6.2790216427,0.6333333333333333
6.43757110999,0.6388888888888888
6.43757110999,0.6444444444444445
6.5160491031,0.65
6.5160491031,0.6555555555555556
6.71268203601,0.6611111111111111
6.71268203601,0.6666666666666666
6.97817178175,0.6722222222222223
6.97817178175,0.6777777777777778
7.1474820479,0.6833333333333333
7.1474820479,0.6888888888888889
7.16155662729,0.6944444444444444
7.16155662729,0.7
7.26980927342,0.7055555555555556
7.26980927342,0.7111111111111111
7.71110318319,0.7166666666666667
7.71110318319,0.7222222222222222
8.21573724231,0.7277777777777777
8.21573724231,0.7333333333333333
8.22070617374,0.7388888888888889
8.22070617374,0.7444444444444445
9.76510503535,0.75
9.76510503535,0.7555555555555555
10.0065935946,0.7611111111111111
10.0065935946,0.7666666666666667
10.1268725421,0.7722222222222223
10.1268725421,0.7777777777777778
10.5378197092,0.7833333333333333
10.5378197092,0.7888888888888889
11.075445006,0.7944444444444444
11.075445006,0.8
11.1673712864,0.8055555555555556
11.1673712864,0.8111111111111111
11.6431130547,0.8166666666666667
11.6431130547,0.8222222222222222
12.2987184718,0.8277777777777777
12.2987184718,0.8333333333333334
12.6463875577,0.8388888888888889
12.6463875577,0.8444444444444444
13.4577557326,0.85
13.4577557326,0.8555555555555555
14.6185436141,0.8611111111111112
14.6185436141,0.8666666666666667
15.3188420114,0.8722222222222222
15.3188420114,0.8777777777777778
16.1311652235,0.8833333333333333
16.1311652235,0.8888888888888888
16.3686463316,0.8944444444444445
16.3686463316,0.9
17.6412706445,0.9055555555555556
17.6412706445,0.9111111111111111
18.5350314532,0.9166666666666666
18.5350314532,0.9222222222222223
19.1833580721,0.9277777777777778
19.1833580721,0.9333333333333333
21.1103748499,0.9388888888888889
21.1103748499,0.9444444444444444
21.5804106491,0.95
21.5804106491,0.9555555555555556
22.3387147245,0.9611111111111111
22.3387147245,0.9666666666666667
23.6580271777,0.9722222222222222
23.6580271777,0.9777777777777777
25.6788202711,0.9833333333333333
25.6788202711,0.9888888888888889
26.881670153,0.9944444444444445
26.881670153,1.0
