Congestion,CDF
0.0165757635868,0.005555555555555556
0.0165757635868,0.011111111111111112
0.0166746565915,0.016666666666666666
0.0166746565915,0.022222222222222223
0.016687386039,0.027777777777777776
0.016687386039,0.03333333333333333
0.0168391657047,0.03888888888888889
0.0168391657047,0.044444444444444446
0.0170405712794,0.05
0.0170405712794,0.05555555555555555
0.0171179127192,0.06111111111111111
0.0171179127192,0.06666666666666667
0.0171355389676,0.07222222222222222
0.0171355389676,0.07777777777777778
0.0172742222954,0.08333333333333333
0.0172742222954,0.08888888888888889
0.017375878356,0.09444444444444444
0.017375878356,0.1
0.0174828914385,0.10555555555555556
0.0174828914385,0.1111111111111111
0.0175044439253,0.11666666666666667
0.0175044439253,0.12222222222222222
0.0175329743265,0.12777777777777777
0.0175329743265,0.13333333333333333
0.0175679568944,0.1388888888888889
0.0175679568944,0.14444444444444443
0.0176236801251,0.15
0.0176236801251,0.15555555555555556
0.0176676533655,0.16111111111111112
0.0176676533655,0.16666666666666666
0.0177161054168,0.17222222222222222
0.0177161054168,0.17777777777777778
0.0178282792454,0.18333333333333332
0.0178282792454,0.18888888888888888
0.0178635749757,0.19444444444444445
0.0178635749757,0.2
0.0179611556912,0.20555555555555555
0.0179611556912,0.2111111111111111
0.0180415513267,0.21666666666666667
0.0180415513267,0.2222222222222222
0.018079831021,0.22777777777777777
0.018079831021,0.23333333333333334
0.018146307664,0.2388888888888889
0.018146307664,0.24444444444444444
0.0181748304313,0.25
0.0181748304313,0.25555555555555554
0.0183017065443,0.2611111111111111
0.0183017065443,0.26666666666666666
0.0184740852752,0.2722222222222222
0.0184740852752,0.2777777777777778
0.0184861384651,0.2833333333333333
0.0184861384651,0.28888888888888886
0.0185439358544,0.29444444444444445
0.0185439358544,0.3
0.0186592950344,0.3055555555555556
0.0186592950344,0.3111111111111111
0.0186941108051,0.31666666666666665
0.0186941108051,0.32222222222222224
0.0186971310456,0.3277777777777778
0.0186971310456,0.3333333333333333
0.0188169067786,0.3388888888888889
0.0188169067786,0.34444444444444444
0.0189063157048,0.35
0.0189063157048,0.35555555555555557
0.0189732830483,0.3611111111111111
0.0189732830483,0.36666666666666664
0.019086099298,0.37222222222222223
0.019086099298,0.37777777777777777
0.0191301470723,0.38333333333333336
0.0191301470723,0.3888888888888889
0.019131393933,0.39444444444444443
0.019131393933,0.4
0.0192025625162,0.40555555555555556
0.0192025625162,0.4111111111111111
0.0192224005267,0.4166666666666667
0.0192224005267,0.4222222222222222
0.0194190125909,0.42777777777777776
0.0194190125909,0.43333333333333335
0.0195375992922,0.4388888888888889
0.0195375992922,0.4444444444444444
0.548978728978,0.45
0.548978728978,0.45555555555555555
0.597054967143,0.46111111111111114
0.597054967143,0.4666666666666667
0.680147183916,0.4722222222222222
0.680147183916,0.4777777777777778
0.746896795599,0.48333333333333334
0.746896795599,0.4888888888888889
1.07394395256,0.49444444444444446
1.07394395256,0.5
1.36533739294,0.5055555555555555
1.36533739294,0.5111111111111111
1.476490845,0.5166666666666667
1.476490845,0.5222222222222223
1.51537206005,0.5277777777777778
1.51537206005,0.5333333333333333
1.81050038253,0.5388888888888889
1.81050038253,0.5444444444444444
1.99108733451,0.55
1.99108733451,0.5555555555555556
2.0599048231,0.5611111111111111
2.0599048231,0.5666666666666667
2.08118074169,0.5722222222222222
2.08118074169,0.5777777777777777
2.11312628827,0.5833333333333334
2.11312628827,0.5888888888888889
2.24755964083,0.5944444444444444
2.24755964083,0.6
2.26720399546,0.6055555555555555
2.26720399546,0.6111111111111112
2.33371562967,0.6166666666666667
2.33371562967,0.6222222222222222
2.43780711843,0.6277777777777778
2.43780711843,0.6333333333333333
2.4387644437,0.6388888888888888
2.4387644437,0.6444444444444445
2.5125745413,0.65
2.5125745413,0.6555555555555556
2.52546947586,0.6611111111111111
2.52546947586,0.6666666666666666
2.56422423475,0.6722222222222223
2.56422423475,0.6777777777777778
2.72317348508,0.6833333333333333
2.72317348508,0.6888888888888889
2.75951630031,0.6944444444444444
2.75951630031,0.7
2.76975921317,0.7055555555555556
2.76975921317,0.7111111111111111
2.86797312019,0.7166666666666667
2.86797312019,0.7222222222222222
2.97559158921,0.7277777777777777
2.97559158921,0.7333333333333333
3.16461166598,0.7388888888888889
3.16461166598,0.7444444444444445
3.77554477263,0.75
3.77554477263,0.7555555555555555
3.8742944388,0.7611111111111111
3.8742944388,0.7666666666666667
3.88224275685,0.7722222222222223
3.88224275685,0.7777777777777778
4.11838636984,0.7833333333333333
4.11838636984,0.7888888888888889
4.30105483983,0.7944444444444444
4.30105483983,0.8
4.33562237234,0.8055555555555556
4.33562237234,0.8111111111111111
4.54570914354,0.8166666666666667
4.54570914354,0.8222222222222222
4.78401524442,0.8277777777777777
4.78401524442,0.8333333333333334
4.89191490022,0.8388888888888889
4.89191490022,0.8444444444444444
5.26814514169,0.85
5.26814514169,0.8555555555555555
5.7400054915,0.8611111111111112
5.7400054915,0.8666666666666667
5.93112498667,0.8722222222222222
5.93112498667,0.8777777777777778
6.35713065163,0.8833333333333333
6.35713065163,0.8888888888888888
6.41020033618,0.8944444444444445
6.41020033618,0.9
6.92861702211,0.9055555555555556
6.92861702211,0.9111111111111111
7.23323002376,0.9166666666666666
7.23323002376,0.9222222222222223
7.55472936684,0.9277777777777778
7.55472936684,0.9333333333333333
8.29743870803,0.9388888888888889
8.29743870803,0.9444444444444444
8.41173064354,0.95
8.41173064354,0.9555555555555556
8.69848259901,0.9611111111111111
8.69848259901,0.9666666666666667
9.3632512229,0.9722222222222222
9.3632512229,0.9777777777777777
10.1538184741,0.9833333333333333
10.1538184741,0.9888888888888889
10.5970691858,0.9944444444444445
10.5970691858,1.0
