Congestion,CDF
0.0218953124454,0.005555555555555556
0.0218953124454,0.011111111111111112
0.0219731378057,0.016666666666666666
0.0219731378057,0.022222222222222223
0.0220346631389,0.027777777777777776
0.0220346631389,0.03333333333333333
0.0220491071349,0.03888888888888889
0.0220491071349,0.044444444444444446
0.0220835397187,0.05
0.0220835397187,0.05555555555555555
0.0222869458054,0.06111111111111111
0.0222869458054,0.06666666666666667
0.0223560131679,0.07222222222222222
0.0223560131679,0.07777777777777778
0.0227383911289,0.08333333333333333
0.0227383911289,0.08888888888888889
0.023052755701,0.09444444444444444
0.023052755701,0.1
0.0231536142298,0.10555555555555556
0.0231536142298,0.1111111111111111
0.0232759239511,0.11666666666666667
0.0232759239511,0.12222222222222222
0.0233183796556,0.12777777777777777
0.0233183796556,0.13333333333333333
0.02349450172,0.1388888888888889
0.02349450172,0.14444444444444443
0.023612464599,0.15
0.023612464599,0.15555555555555556
0.0236407857432,0.16111111111111112
0.0236407857432,0.16666666666666666
0.0237887475686,0.17222222222222222
0.0237887475686,0.17777777777777778
0.0237912321586,0.18333333333333332
0.0237912321586,0.18888888888888888
0.0241405156231,0.19444444444444445
0.0241405156231,0.2
0.0241567015113,0.20555555555555555
0.0241567015113,0.2111111111111111
0.0242494390926,0.21666666666666667
0.0242494390926,0.2222222222222222
0.0243894700393,0.22777777777777777
0.0243894700393,0.23333333333333334
0.024396142026,0.2388888888888889
0.024396142026,0.24444444444444444
0.0244606616382,0.25
0.0244606616382,0.25555555555555554
0.0245270341168,0.2611111111111111
0.0245270341168,0.26666666666666666
0.0248469565965,0.2722222222222222
0.0248469565965,0.2777777777777778
0.0254703735349,0.2833333333333333
0.0254703735349,0.28888888888888886
0.0258394075421,0.29444444444444445
0.0258394075421,0.3
0.0260076667799,0.3055555555555556
0.0260076667799,0.3111111111111111
0.0261316276103,0.31666666666666665
0.0261316276103,0.32222222222222224
0.0261470203497,0.3277777777777778
0.0261470203497,0.3333333333333333
0.0261797194459,0.3388888888888889
0.0261797194459,0.34444444444444444
0.0261846174402,0.35
0.0261846174402,0.35555555555555557
0.026280597428,0.3611111111111111
0.026280597428,0.36666666666666664
0.0267660463649,0.37222222222222223
0.0267660463649,0.37777777777777777
0.0268655379598,0.38333333333333336
0.0268655379598,0.3888888888888889
0.0269145304829,0.39444444444444443
0.0269145304829,0.4
0.0270330235951,0.40555555555555556
0.0270330235951,0.4111111111111111
0.0270818385812,0.4166666666666667
0.0270818385812,0.4222222222222222
0.0273254151696,0.42777777777777776
0.0273254151696,0.43333333333333335
0.0278840218486,0.4388888888888889
0.0278840218486,0.4444444444444444
0.655089350509,0.45
0.655089350509,0.45555555555555555
0.758189698546,0.46111111111111114
0.758189698546,0.4666666666666667
0.796658645702,0.4722222222222222
0.796658645702,0.4777777777777778
0.818780029586,0.48333333333333334
0.818780029586,0.4888888888888889
1.38212141625,0.49444444444444446
1.38212141625,0.5
1.68482841877,0.5055555555555555
1.68482841877,0.5111111111111111
2.07959046057,0.5166666666666667
2.07959046057,0.5222222222222223
2.13863383235,0.5277777777777778
2.13863383235,0.5333333333333333
2.58894147098,0.5388888888888889
2.58894147098,0.5444444444444444
2.88135088985,0.55
2.88135088985,0.5555555555555556
2.99676735485,0.5611111111111111
2.99676735485,0.5666666666666667
3.0011657863,0.5722222222222222
3.0011657863,0.5777777777777777
3.02517238363,0.5833333333333334
3.02517238363,0.5888888888888889
3.06403893183,0.5944444444444444
3.06403893183,0.6
3.11943615844,0.6055555555555555
3.11943615844,0.6111111111111112
3.28010950112,0.6166666666666667
3.28010950112,0.6222222222222222
3.32629676134,0.6277777777777778
3.32629676134,0.6333333333333333
3.43679917029,0.6388888888888888
3.43679917029,0.6444444444444445
3.48319127659,0.65
3.48319127659,0.6555555555555556
3.69429685893,0.6611111111111111
3.69429685893,0.6666666666666666
3.76597520479,0.6722222222222223
3.76597520479,0.6777777777777778
3.80595106499,0.6833333333333333
3.80595106499,0.6888888888888889
3.85332214164,0.6944444444444444
3.85332214164,0.7
3.99347934658,0.7055555555555556
3.99347934658,0.7111111111111111
4.27425884006,0.7166666666666667
4.27425884006,0.7222222222222222
4.38703299346,0.7277777777777777
4.38703299346,0.7333333333333333
4.61659822916,0.7388888888888889
4.61659822916,0.7444444444444445
5.53469808508,0.75
5.53469808508,0.7555555555555555
5.71756663069,0.7611111111111111
5.71756663069,0.7666666666666667
5.74655103433,0.7722222222222223
5.74655103433,0.7777777777777778
6.03887758499,0.7833333333333333
6.03887758499,0.7888888888888889
6.1335434601,0.7944444444444444
6.1335434601,0.8
6.15075511637,0.8055555555555556
6.15075511637,0.8111111111111111
6.66323032111,0.8166666666666667
6.66323032111,0.8222222222222222
6.99133499816,0.8277777777777777
6.99133499816,0.8333333333333334
7.1144301356,0.8388888888888889
7.1144301356,0.8444444444444444
7.67474942776,0.85
7.67474942776,0.8555555555555555
8.45851276611,0.8611111111111112
8.45851276611,0.8666666666666667
8.4590742231,0.8722222222222222
8.4590742231,0.8777777777777778
9.36182372856,0.8833333333333333
9.36182372856,0.8888888888888888
9.41841099356,0.8944444444444445
9.41841099356,0.9
10.2669032448,0.9055555555555556
10.2669032448,0.9111111111111111
10.6238105075,0.9166666666666666
10.6238105075,0.9222222222222223
11.2338916958,0.9277777777777778
11.2338916958,0.9333333333333333
12.2608903407,0.9388888888888889
12.2608903407,0.9444444444444444
12.366199084,0.95
12.366199084,0.9555555555555556
12.8091878063,0.9611111111111111
12.8091878063,0.9666666666666667
13.8271026616,0.9722222222222222
13.8271026616,0.9777777777777777
15.0352336908,0.9833333333333333
15.0352336908,0.9888888888888889
15.6585838247,0.9944444444444445
15.6585838247,1.0
