Congestion,CDF
0.0,0.005555555555555556
0.0,0.011111111111111112
0.0,0.016666666666666666
0.0,0.022222222222222223
0.0,0.027777777777777776
0.0,0.03333333333333333
0.0,0.03888888888888889
0.0,0.044444444444444446
0.0,0.05
0.0,0.05555555555555555
2.89274388971e-07,0.06111111111111111
3.32362360833e-07,0.06666666666666667
7.48120136921e-07,0.07222222222222222
1.09342109821e-06,0.07777777777777778
1.11883885871e-06,0.08333333333333333
1.47725244795e-06,0.08888888888888889
1.62517321085e-06,0.09444444444444444
2.23985927681e-06,0.1
2.25141482289e-06,0.10555555555555556
2.30340869969e-06,0.1111111111111111
2.35081549362e-06,0.11666666666666667
2.58776759335e-06,0.12222222222222222
2.64779024192e-06,0.12777777777777777
2.95677115228e-06,0.13333333333333333
3.02832767535e-06,0.1388888888888889
3.1888676157e-06,0.14444444444444443
3.68733110312e-06,0.15
4.03544201223e-06,0.15555555555555556
4.21381430609e-06,0.16111111111111112
4.3825401534e-06,0.16666666666666666
4.45188093629e-06,0.17222222222222222
4.48763543578e-06,0.17777777777777778
4.63631719915e-06,0.18333333333333332
4.79742038484e-06,0.18888888888888888
4.87840289176e-06,0.19444444444444445
4.93349564197e-06,0.2
4.96086669942e-06,0.20555555555555555
5.017834247e-06,0.2111111111111111
5.06686756552e-06,0.21666666666666667
5.07798627339e-06,0.2222222222222222
5.24765483896e-06,0.22777777777777777
5.29143536094e-06,0.23333333333333334
5.35217774478e-06,0.2388888888888889
5.79612142807e-06,0.24444444444444444
6.09903538312e-06,0.25
6.62177840195e-06,0.25555555555555554
6.72668201765e-06,0.2611111111111111
6.82348384807e-06,0.26666666666666666
7.05456069223e-06,0.2722222222222222
2.49373378974e-05,0.2777777777777778
4.98746757948e-05,0.2833333333333333
5.46710549105e-05,0.28888888888888886
5.46710549105e-05,0.29444444444444445
5.62853705723e-05,0.3
5.62853705723e-05,0.3055555555555556
8.52128094694e-05,0.3111111111111111
0.000111883885871,0.31666666666666665
0.000112570741145,0.32222222222222224
0.00014988022964,0.3277777777777778
0.000223985927681,0.3333333333333333
0.000232938054265,0.3388888888888889
0.000246674782099,0.34444444444444444
0.000246674782099,0.35
0.000315062129907,0.35555555555555557
0.000479742038484,0.3611111111111111
0.000487840289176,0.36666666666666664
0.000503434598488,0.37222222222222223
0.000542351897327,0.37777777777777777
0.000573813284641,0.38333333333333336
0.000573813284641,0.3888888888888889
0.000654319484874,0.39444444444444443
0.000691496028678,0.4
0.000743543669027,0.40555555555555556
0.000794919125952,0.4111111111111111
0.000987540665823,0.4166666666666667
0.00104413532203,0.4222222222222222
0.00109857876854,0.42777777777777776
0.00135059318975,0.43333333333333335
0.00158567473911,0.4388888888888889
0.00166019796913,0.4444444444444444
0.00205005077763,0.45
0.00232237580933,0.45555555555555555
0.00413181218668,0.46111111111111114
0.00502671999894,0.4666666666666667
0.0052615622307,0.4722222222222222
0.00573217606816,0.4777777777777778
0.00587146576901,0.48333333333333334
0.00617736416179,0.4888888888888889
0.00624502358549,0.49444444444444446
0.00661375669581,0.5
0.0071429002319,0.5055555555555555
0.00718748551683,0.5111111111111111
0.00730541755298,0.5166666666666667
0.0074178263868,0.5222222222222223
0.00768260541099,0.5277777777777778
0.0357741127999,0.5333333333333333
0.0360972401829,0.5388888888888889
0.0412644363503,0.5444444444444444
0.04133325191,0.55
0.0413363459142,0.5555555555555556
0.0413661579728,0.5611111111111111
0.0413840798034,0.5666666666666667
0.0413927181959,0.5722222222222222
0.041418437464,0.5777777777777777
0.0414731191157,0.5833333333333334
0.0414739527543,0.5888888888888889
0.0414810808342,0.5944444444444444
0.0414980728532,0.6
0.0415091035275,0.6055555555555555
0.0415244849862,0.6111111111111112
0.0415296630654,0.6166666666666667
0.0415399604207,0.6222222222222222
0.0415651181234,0.6277777777777778
0.0416018802892,0.6333333333333333
0.04161466628,0.6388888888888888
0.0416217139155,0.6444444444444445
0.0416267457876,0.65
0.0416298659059,0.6555555555555556
0.0416449651948,0.6611111111111111
0.0416564669232,0.6666666666666666
0.0416607803951,0.6722222222222223
0.041662324274,0.6777777777777778
0.0416662492373,0.6833333333333333
0.041668235098,0.6888888888888889
0.0416722759638,0.6944444444444444
0.0416765852329,0.7
0.0416888022325,0.7055555555555556
0.0416962920643,0.7111111111111111
0.041728108891,0.7166666666666667
0.0417496917495,0.7222222222222222
0.0417873196033,0.7277777777777777
0.0417948062067,0.7333333333333333
0.0418017998277,0.7388888888888889
0.0418180741061,0.7444444444444445
1.03684881886,0.75
1.03684881886,0.7555555555555555
1.37887193243,0.7611111111111111
1.61042898545,0.7666666666666667
2.06920399017,0.7722222222222223
2.06920399017,0.7777777777777778
2.07369763771,0.7833333333333333
2.08331246187,0.7888888888888889
2.08331246187,0.7944444444444444
2.75774386486,0.8
4.13927181959,0.8055555555555556
4.14731191157,0.8111111111111111
4.16564669232,0.8166666666666667
4.1662324274,0.8222222222222222
5.17017400986,0.8277777777777777
5.18665610418,0.8333333333333334
6.23137538172,0.8388888888888889
6.23576096048,0.8444444444444444
6.25387762048,0.85
6.58229389594,0.8555555555555555
6.58229389594,0.8611111111111112
8.31208270869,0.8666666666666667
8.33330521561,0.8722222222222222
9.31201775626,0.8777777777777778
10.4029885569,0.8833333333333333
10.7257160655,0.8888888888888888
10.7511741192,0.8944444444444445
13.4734843843,0.9
19.0819030661,0.9055555555555556
21.4416445529,0.9111111111111111
23.8737379641,0.9166666666666666
25.5897526363,0.9222222222222223
28.0524699245,0.9277777777777778
48.8384792122,0.9333333333333333
50.9682443176,0.9388888888888889
55.1500517282,0.9444444444444444
59.3130383188,0.95
61.3132364996,0.9555555555555556
65.4882056746,0.9611111111111111
69.71049174,0.9666666666666667
71.7114057068,0.9722222222222222
73.8369353751,0.9777777777777777
75.8679175192,0.9833333333333333
77.414346655,0.9888888888888889
80.0188278719,0.9944444444444445
83.6285518902,1.0
