Congestion,CDF
0.0,0.005555555555555556
0.0,0.011111111111111112
0.0,0.016666666666666666
0.0,0.022222222222222223
0.0,0.027777777777777776
0.0,0.03333333333333333
0.0,0.03888888888888889
0.0,0.044444444444444446
0.0,0.05
0.0,0.05555555555555555
3.41439283566e-07,0.06111111111111111
3.92297315952e-07,0.06666666666666667
8.83028755088e-07,0.07222222222222222
1.29059789129e-06,0.07777777777777778
1.32059924041e-06,0.08333333333333333
1.74364560675e-06,0.08888888888888889
1.91824094334e-06,0.09444444444444444
2.64377344114e-06,0.1
2.6574128006e-06,0.10555555555555556
2.71878274112e-06,0.1111111111111111
2.77473840942e-06,0.11666666666666667
3.05442011735e-06,0.12222222222222222
3.12526665928e-06,0.12777777777777777
3.48996614424e-06,0.13333333333333333
3.574426466e-06,0.1388888888888889
3.76391659824e-06,0.14444444444444443
4.35226808221e-06,0.15
4.76315388455e-06,0.15555555555555556
4.97369208132e-06,0.16111111111111112
5.17284428636e-06,0.16666666666666666
5.25468930318e-06,0.17222222222222222
5.296891417e-06,0.17777777777777778
5.47238498539e-06,0.18333333333333332
5.66253993308e-06,0.18888888888888888
5.7581260278e-06,0.19444444444444445
5.82315366205e-06,0.2
5.85546054645e-06,0.20555555555555555
5.92270106055e-06,0.2111111111111111
5.98057656486e-06,0.21666666666666667
5.99370031102e-06,0.2222222222222222
6.19396523485e-06,0.22777777777777777
6.24564070502e-06,0.23333333333333334
6.31733677218e-06,0.2388888888888889
6.84133688745e-06,0.24444444444444444
7.19887536212e-06,0.25
7.81588470911e-06,0.25555555555555554
7.9397056098e-06,0.2611111111111111
8.05396372903e-06,0.26666666666666666
8.32671069567e-06,0.2722222222222222
2.94342918363e-05,0.2777777777777778
5.88685836725e-05,0.2833333333333333
6.45298945643e-05,0.28888888888888886
6.45298945643e-05,0.29444444444444445
6.64353200151e-05,0.3
6.64353200151e-05,0.3055555555555556
0.000100579248372,0.3111111111111111
0.000132059924041,0.31666666666666665
0.00013287064003,0.32222222222222224
0.000176908154265,0.3277777777777778
0.000264377344114,0.3333333333333333
0.000274943809047,0.3388888888888889
0.000291157683102,0.34444444444444444
0.000291157683102,0.35
0.00037187733175,0.35555555555555557
0.000566253993308,0.3611111111111111
0.00057581260278,0.36666666666666664
0.000594219036264,0.37222222222222223
0.000640154297527,0.37777777777777777
0.000677289121603,0.38333333333333336
0.000677289121603,0.3888888888888889
0.000772313017179,0.39444444444444443
0.000816193612786,0.4
0.000877627012042,0.40555555555555556
0.000938267012934,0.4111111111111111
0.00116562402441,0.4166666666666667
0.00123242440358,0.4222222222222222
0.00129668564509,0.42777777777777776
0.00159414586524,0.43333333333333335
0.00187161970618,0.4388888888888889
0.00195958172161,0.4444444444444444
0.00241973674641,0.45
0.00274117019252,0.45555555555555555
0.00338430946807,0.46111111111111114
0.00390433475793,0.4666666666666667
0.00487690250723,0.4722222222222222
0.0059331891815,0.4777777777777778
0.00621038054866,0.48333333333333334
0.00676586025106,0.4888888888888889
0.00693026808487,0.49444444444444446
0.00729132918138,0.5
0.00737118963926,0.5055555555555555
0.00780641644748,0.5111111111111111
0.00843098051798,0.5166666666666667
0.00848360587413,0.5222222222222223
0.00862280461231,0.5277777777777778
0.00875548414824,0.5333333333333333
0.00906801081417,0.5388888888888889
0.0150065755637,0.5444444444444444
0.015093700654,0.55
0.0151010429694,0.5555555555555556
0.0151718471734,0.5611111111111111
0.0152230810543,0.5666666666666667
0.0152349588477,0.5722222222222222
0.0152960163545,0.5777777777777777
0.0154258881566,0.5833333333333334
0.015427861129,0.5888888888888889
0.015444789739,0.5944444444444444
0.0154851443399,0.6
0.0155479388136,0.6055555555555555
0.0155601721111,0.6111111111111112
0.0155736343487,0.6166666666666667
0.0155861900011,0.6222222222222222
0.0156563350812,0.6277777777777778
0.015731687002,0.6333333333333333
0.0157620598265,0.6388888888888888
0.0157907749599,0.6444444444444445
0.0157945130746,0.65
0.0158005654868,0.6555555555555556
0.0158340159295,0.6611111111111111
0.0158614017945,0.6666666666666666
0.0158752437432,0.6722222222222223
0.0158846006354,0.6777777777777778
0.0158868249907,0.6833333333333333
0.0158892851827,0.6888888888888889
0.0158989427921,0.6944444444444444
0.0159091828126,0.7
0.0159381285482,0.7055555555555556
0.015955923942,0.7111111111111111
0.0160315119128,0.7166666666666667
0.0160829577252,0.7222222222222222
0.0161721292916,0.7277777777777777
0.0161899587803,0.7333333333333333
0.0162064969279,0.7388888888888889
0.0162455486143,0.7444444444444445
0.385696528226,0.75
0.385696528226,0.7555555555555555
0.505728239113,0.7611111111111111
0.587865574536,0.7666666666666667
0.761154052713,0.7722222222222223
0.761154052713,0.7777777777777778
0.771393056452,0.7833333333333333
0.794230031772,0.7888888888888889
0.794230031772,0.7944444444444444
1.01145647823,0.8
1.52349588477,0.8055555555555556
1.54258881566,0.8111111111111111
1.58614017945,0.8166666666666667
1.58752437432,0.8222222222222222
1.89506659363,0.8277777777777777
1.93421096222,0.8333333333333334
2.34060536017,0.8388888888888889
2.34902391313,0.8444444444444444
2.39204274924,0.85
2.47975821929,0.8555555555555555
2.47975821929,0.8611111111111112
3.12664707604,0.8666666666666667
3.17705846071,0.8722222222222222
3.42466822908,0.8777777777777778
3.93891819234,0.8833333333333333
4.01310790153,0.8888888888888888
4.07357107411,0.8944444444444445
5.00087421174,0.9
7.24449704138,0.9055555555555556
8.00297041775,0.9111111111111111
8.93328545337,0.9166666666666666
9.54744939165,0.9222222222222223
10.5504983825,0.9277777777777778
18.3808749513,0.9333333333333333
19.2854709136,0.9388888888888889
20.910025775,0.9444444444444444
22.4900823237,0.95
23.0865995233,0.9555555555555556
24.6948952959,0.9611111111111111
26.419370183,0.9666666666666667
27.0146683487,0.9722222222222222
27.9200277393,0.9777777777777777
28.2584586861,0.9833333333333333
28.5803018568,0.9888888888888889
30.1376652917,0.9944444444444445
30.5280987675,1.0
