Congestion,CDF
0.0,0.005555555555555556
0.0,0.011111111111111112
0.0,0.016666666666666666
0.0,0.022222222222222223
0.0,0.027777777777777776
0.0,0.03333333333333333
0.0,0.03888888888888889
0.0,0.044444444444444446
0.0,0.05
0.0,0.05555555555555555
3.0730648446e-07,0.06111111111111111
3.53080371331e-07,0.06666666666666667
7.94754661997e-07,0.07222222222222222
1.16158016934e-06,0.07777777777777778
1.18858236144e-06,0.08333333333333333
1.5693378804e-06,0.08888888888888889
1.72647937428e-06,0.09444444444444444
2.37948227111e-06,0.1
2.3917581392e-06,0.10555555555555556
2.44699308603e-06,0.1111111111111111
2.49735501138e-06,0.11666666666666667
2.74907766477e-06,0.12222222222222222
2.81284186176e-06,0.12777777777777777
3.14108328564e-06,0.13333333333333333
3.21710032822e-06,0.1388888888888889
3.38764762368e-06,0.14444444444444443
3.91718313664e-06,0.15
4.28699375161e-06,0.15555555555555556
4.47648499122e-06,0.16111111111111112
4.65572846714e-06,0.16666666666666666
4.72939165003e-06,0.17222222222222222
4.76737492805e-06,0.17777777777777778
4.92532485984e-06,0.18333333333333332
5.09647051087e-06,0.18888888888888888
5.18250111176e-06,0.19444444444444445
5.24102810217e-06,0.2
5.27010535118e-06,0.20555555555555555
5.33062400558e-06,0.2111111111111111
5.38271384592e-06,0.21666666666666667
5.39452564523e-06,0.2222222222222222
5.57477060433e-06,0.22777777777777777
5.62128021186e-06,0.23333333333333334
5.68580900924e-06,0.2388888888888889
6.15742619282e-06,0.24444444444444444
6.47922247404e-06,0.25
7.03455099781e-06,0.25555555555555554
7.14599384439e-06,0.2611111111111111
7.24882987595e-06,0.26666666666666666
7.49431103614e-06,0.2722222222222222
2.64918220666e-05,0.2777777777777778
5.29836441332e-05,0.2833333333333333
5.80790084668e-05,0.28888888888888886
5.80790084668e-05,0.29444444444444445
5.979395348e-05,0.3
5.979395348e-05,0.3055555555555556
9.05246019261e-05,0.3111111111111111
0.000118858236144,0.31666666666666665
0.00011958790696,0.32222222222222224
0.000159223105179,0.3277777777777778
0.000237948227111,0.3333333333333333
0.000247458389966,0.3388888888888889
0.000262051405108,0.34444444444444444
0.000262051405108,0.35
0.000334701719957,0.35555555555555557
0.000509647051087,0.3611111111111111
0.000518250111176,0.36666666666666664
0.000534816501272,0.37222222222222223
0.000576159733673,0.37777777777777777
0.000609582285755,0.38333333333333336
0.000609582285755,0.3888888888888889
0.000695106889088,0.39444444444444443
0.000734600855427,0.4
0.000789892917185,0.40555555555555556
0.000844470894555,0.4111111111111111
0.00104909961561,0.4166666666666667
0.00110922213423,0.4222222222222222
0.00116705934619,0.42777777777777776
0.00143478324007,0.43333333333333335
0.00168451874121,0.4388888888888889
0.00176368742223,0.4444444444444444
0.00217784194335,0.45
0.00246714252201,0.45555555555555555
0.00438937121968,0.46111111111111114
0.00534006365629,0.4666666666666667
0.00558954492182,0.4722222222222222
0.00608949475991,0.4777777777777778
0.00623746716922,0.48333333333333334
0.00656243392491,0.4888888888888889
0.00663431094006,0.49444444444444446
0.00702602925372,0.5
0.00758815727491,0.5055555555555555
0.00763552181077,0.5111111111111111
0.00776080521234,0.5166666666666667
0.00788022111938,0.5222222222222223
0.00816150530555,0.5277777777777778
0.0163256802774,0.5333333333333333
0.016829697158,0.5388888888888889
0.0257872144582,0.5444444444444444
0.0258280625315,0.55
0.0258336669013,0.5555555555555556
0.0258877015914,0.5611111111111111
0.0259256268679,0.5666666666666667
0.0259358604067,0.5722222222222222
0.0259824613539,0.5777777777777777
0.0260815735494,0.5833333333333334
0.0260830804303,0.5888888888888889
0.0260959997327,0.5944444444444444
0.0261267969135,0.6
0.0261747077109,0.6055555555555555
0.0261840547742,0.6111111111111112
0.0262036822337,0.6166666666666667
0.0262181306274,0.6222222222222222
0.0262566124305,0.6277777777777778
0.0263149478922,0.6333333333333333
0.0263381261031,0.6388888888888888
0.0263600358052,0.6444444444444445
0.0263607861279,0.65
0.0263671600739,0.6555555555555556
0.0263930406292,0.6611111111111111
0.0264139284541,0.6666666666666666
0.0264245039605,0.6722222222222223
0.0264316387045,0.6777777777777778
0.0264322897121,0.6833333333333333
0.0264352192413,0.6888888888888889
0.0264425791139,0.6944444444444444
0.0264503929237,0.7
0.0264724950555,0.7055555555555556
0.0264860745384,0.7111111111111111
0.0265437561454,0.7166666666666667
0.0265829867298,0.7222222222222222
0.0266510707919,0.7277777777777777
0.0266646692059,0.7333333333333333
0.0266773026596,0.7388888888888889
0.0267070389445,0.7444444444444445
0.652077010757,0.75
0.652077010757,0.7555555555555555
0.862923386379,0.7611111111111111
1.00571065276,0.7666666666666667
1.29628134339,0.7722222222222223
1.29628134339,0.7777777777777778
1.30415402151,0.7833333333333333
1.32158193523,0.7888888888888889
1.32158193523,0.7944444444444444
1.72584677276,0.8
2.59358604067,0.8055555555555556
2.60815735494,0.8111111111111111
2.64139284541,0.8166666666666667
2.64245039605,0.8222222222222222
3.23488326391,0.8277777777777777
3.26475670211,0.8333333333333334
3.93235995618,0.8388888888888889
3.93905270632,0.8444444444444444
3.97188428748,0.85
4.15806826883,0.8555555555555555
4.15806826883,0.8611111111111112
5.24796165521,0.8666666666666667
5.28643213778,0.8722222222222222
5.8331293993,0.8777777777777778
6.58331061771,0.8833333333333333
6.75917487771,0.8888888888888888
6.80531777438,0.8944444444444445
8.4669420096,0.9
12.0870722333,0.9055555555555556
13.5006098367,0.9111111111111111
15.0452887536,0.9166666666666666
16.1102098099,0.9222222222222223
17.7103958328,0.9277777777777778
30.8408039674,0.9333333333333333
32.2466055089,0.9388888888888889
34.9173094033,0.9444444444444444
37.5540254107,0.95
38.7247692032,0.9555555555555556
41.3830678761,0.9611111111111111
44.1296143381,0.9666666666666667
45.2997174429,0.9722222222222222
46.7083357839,0.9777777777777777
47.925378686,0.9833333333333333
48.3409038117,0.9888888888888889
50.5471917487,0.9944444444444445
52.2301614645,1.0
