Congestion,CDF
0.0,0.005555555555555556
0.0,0.011111111111111112
0.0,0.016666666666666666
0.0,0.022222222222222223
0.0,0.027777777777777776
0.0,0.03333333333333333
0.0,0.03888888888888889
0.0,0.044444444444444446
0.0,0.05
0.0,0.05555555555555555
2.86886635859e-07,0.06111111111111111
3.29618947342e-07,0.06666666666666667
7.41944940454e-07,0.07222222222222222
1.08439568936e-06,0.07777777777777778
1.10960364443e-06,0.08333333333333333
1.46505878594e-06,0.08888888888888889
1.61175856877e-06,0.09444444444444444
2.22137084105e-06,0.1
2.23283100436e-06,0.10555555555555556
2.28439570891e-06,0.1111111111111111
2.33141119368e-06,0.11666666666666667
2.56640742335e-06,0.12222222222222222
2.6259346279e-06,0.12777777777777777
2.93236512193e-06,0.13333333333333333
3.00333099709e-06,0.1388888888888889
3.1625457951e-06,0.14444444444444443
3.65689482306e-06,0.15
4.00213232568e-06,0.15555555555555556
4.17903228388e-06,0.16111111111111112
4.34636542005e-06,0.16666666666666666
4.41513384438e-06,0.17222222222222222
4.45059321606e-06,0.17777777777777778
4.59804771785e-06,0.18333333333333332
4.75782111201e-06,0.18888888888888888
4.83813516627e-06,0.19444444444444445
4.89277316525e-06,0.2
4.91991829421e-06,0.20555555555555555
4.97641561544e-06,0.2111111111111111
5.02504419899e-06,0.21666666666666667
5.03607112989e-06,0.2222222222222222
5.20433920285e-06,0.22777777777777777
5.24775834794e-06,0.23333333333333334
5.30799934686e-06,0.2388888888888889
5.74827859267e-06,0.24444444444444444
6.04869220975e-06,0.25
6.56712035898e-06,0.25555555555555554
6.67115807039e-06,0.2611111111111111
6.76716087095e-06,0.26666666666666666
6.99633034109e-06,0.2722222222222222
2.47314980151e-05,0.2777777777777778
4.94629960303e-05,0.2833333333333333
5.42197844681e-05,0.28888888888888886
5.42197844681e-05,0.29444444444444445
5.58207751091e-05,0.3
5.58207751091e-05,0.3055555555555556
8.4509438695e-05,0.3111111111111111
0.000110960364443,0.31666666666666665
0.000111641550218,0.32222222222222224
0.00014864307558,0.3277777777777778
0.000222137084105,0.3333333333333333
0.000231015317289,0.3388888888888889
0.000244638658263,0.34444444444444444
0.000244638658263,0.35
0.000312461517444,0.35555555555555557
0.000475782111201,0.3611111111111111
0.000483813516627,0.36666666666666664
0.000499279106074,0.37222222222222223
0.000537875170455,0.37777777777777777
0.000569076866526,0.38333333333333336
0.000569076866526,0.3888888888888889
0.000648918545677,0.39444444444444443
0.000685788223711,0.4
0.000737406248028,0.40555555555555556
0.000788357637313,0.4111111111111111
0.000979389224189,0.4166666666666667
0.001035516732,0.4222222222222222
0.00108951078681,0.42777777777777776
0.00133944500929,0.43333333333333335
0.00157258612866,0.4388888888888889
0.00164649422273,0.4444444444444444
0.00203312907522,0.45
0.00230320625863,0.45555555555555555
0.0040977070333,0.46111111111111114
0.00498522802185,0.4666666666666667
0.00521813179902,0.4722222222222222
0.00568486105596,0.4777777777777778
0.00582300101999,0.48333333333333334
0.0061263744404,0.4888888888888889
0.00619347538397,0.49444444444444446
0.00655916486627,0.5
0.00708394070107,0.5055555555555555
0.00712815796637,0.5111111111111111
0.00724511655795,0.5166666666666667
0.00735659753727,0.5222222222222223
0.00761919100006,0.5277777777777778
0.040153003004,0.5333333333333333
0.0404339170798,0.5388888888888889
0.0448275279841,0.5444444444444444
0.0449113725358,0.55
0.0449138872248,0.5555555555555556
0.0449381094455,0.5611111111111111
0.0449513948434,0.5666666666666667
0.0449596853779,0.5722222222222222
0.0449805857971,0.5777777777777777
0.0450250142464,0.5833333333333334
0.0450256925213,0.5888888888888889
0.0450303141606,0.5944444444444444
0.0450314841653,0.6
0.0450452903778,0.6055555555555555
0.0450667412803,0.6111111111111112
0.0450709572865,0.6166666666666667
0.0450790979022,0.6222222222222222
0.0450976814858,0.6277777777777778
0.0451296339193,0.6333333333333333
0.0451400217054,0.6388888888888888
0.0451434129549,0.6444444444444445
0.0451498327047,0.65
0.0451520231805,0.6555555555555556
0.0451646400945,0.6611111111111111
0.0451739758005,0.6666666666666666
0.0451748318122,0.6722222222222223
0.0451787443464,0.6777777777777778
0.045181928591,0.6833333333333333
0.0451835464494,0.6888888888888889
0.0451868213902,0.6944444444444444
0.0451903219189,0.7
0.0452002577348,0.7055555555555556
0.0452063422626,0.7111111111111111
0.0452321902935,0.7166666666666667
0.0452497005171,0.7222222222222222
0.045280300098,0.7277777777777777
0.0452863762795,0.7333333333333333
0.045292068405,0.7388888888888889
0.0453052359149,0.7444444444444445
1.12564231303,0.75
1.12564231303,0.7555555555555555
1.49793698152,0.7611111111111111
1.74974396309,0.7666666666666667
2.24756974217,0.7722222222222223
2.24756974217,0.7777777777777778
2.25128462607,0.7833333333333333
2.25909642955,0.7888888888888889
2.25909642955,0.7944444444444444
2.99587396303,0.8
4.49596853779,0.8055555555555556
4.50250142464,0.8111111111111111
4.51739758005,0.8166666666666667
4.51787443464,0.8222222222222222
5.61677956662,0.8277777777777777
5.63017135081,0.8333333333333334
6.76191103766,0.8388888888888889
6.76577055758,0.8444444444444444
6.78049146656,0.85
7.14173057912,0.8555555555555555
7.14173057912,0.8611111111111112
9.01918756715,0.8666666666666667
9.03642977194,0.8722222222222222
10.1148381463,0.8777777777777778
11.2844526966,0.8833333333333333
11.6410717243,0.8888888888888888
11.6617563526,0.8944444444444445
14.6288403169,0.9
20.6960947967,0.9055555555555556
23.2741910259,0.9111111111111111
25.9110723973,0.9166666666666666
27.7773394424,0.9222222222222223
30.4391024071,0.9277777777777778
52.991788884,0.9333333333333333
55.2886225036,0.9388888888888889
59.8191460951,0.9444444444444444
64.3343484131,0.95
66.5259597216,0.9555555555555556
71.0509297734,0.9611111111111111
75.613742632,0.9666666666666667
77.8064093058,0.9722222222222222
80.0964954304,0.9777777777777777
82.3161774543,0.9833333333333333
84.1117957308,0.9888888888888889
86.8192088704,0.9944444444444445
90.8626005784,1.0
