Congestion,CDF
0.0,0.005555555555555556
0.0,0.011111111111111112
0.0,0.016666666666666666
0.0,0.022222222222222223
0.0,0.027777777777777776
0.0,0.03333333333333333
0.0,0.03888888888888889
0.0,0.044444444444444446
0.0,0.05
0.0,0.05555555555555555
2.95338737296e-07,0.06111111111111111
3.39330005405e-07,0.06666666666666667
7.63803727562e-07,0.07222222222222222
1.11634357824e-06,0.07777777777777778
1.14229419668e-06,0.08333333333333333
1.50822156845e-06,0.08888888888888889
1.65924334224e-06,0.09444444444444444
2.28681568696e-06,0.1
2.29861348351e-06,0.10555555555555556
2.35169735995e-06,0.1111111111111111
2.40009798991e-06,0.11666666666666667
2.64201755348e-06,0.12222222222222222
2.70329851687e-06,0.12777777777777777
3.01875690308e-06,0.13333333333333333
3.0918135371e-06,0.1388888888888889
3.25571903678e-06,0.14444444444444443
3.76463231281e-06,0.15
4.12004101906e-06,0.15555555555555556
4.30215270971e-06,0.16111111111111112
4.47441572571e-06,0.16666666666666666
4.54521016877e-06,0.17222222222222222
4.58171422559e-06,0.17777777777777778
4.73351295347e-06,0.18333333333333332
4.89799350636e-06,0.18888888888888888
4.98067373057e-06,0.19444444444444445
5.0369214452e-06,0.2
5.0648663095e-06,0.20555555555555555
5.12302812475e-06,0.2111111111111111
5.17308937777e-06,0.21666666666666667
5.18444117824e-06,0.2222222222222222
5.35766667564e-06,0.22777777777777777
5.40236501249e-06,0.23333333333333334
5.46438079967e-06,0.2388888888888889
5.91763131838e-06,0.24444444444444444
6.22689556162e-06,0.25
6.76059736517e-06,0.25555555555555554
6.86770018028e-06,0.2611111111111111
6.96653136428e-06,0.26666666666666666
7.20245250343e-06,0.2722222222222222
2.54601242521e-05,0.2777777777777778
5.09202485041e-05,0.2833333333333333
5.58171789122e-05,0.28888888888888886
5.58171789122e-05,0.29444444444444445
5.74653370877e-05,0.3
5.74653370877e-05,0.3055555555555556
8.69992108173e-05,0.3111111111111111
0.000114229419668,0.31666666666666665
0.000114930674175,0.32222222222222224
0.000153022318792,0.3277777777777778
0.000228681568696,0.3333333333333333
0.000237821367662,0.3388888888888889
0.00025184607226,0.34444444444444444
0.00025184607226,0.35
0.000321667092436,0.35555555555555557
0.000489799350636,0.3611111111111111
0.000498067373057,0.36666666666666664
0.000513988601472,0.37222222222222223
0.000553721762568,0.37777777777777777
0.000585842706409,0.38333333333333336
0.000585842706409,0.3888888888888889
0.000668036638633,0.39444444444444443
0.000705992551506,0.4
0.000759131318594,0.40555555555555556
0.000811583810603,0.4111111111111111
0.00100824346846,0.4166666666666667
0.00106602457504,0.4222222222222222
0.00112160937397,0.42777777777777776
0.00137890702554,0.43333333333333335
0.00161891682453,0.4388888888888889
0.00169500235956,0.4444444444444444
0.00209302804238,0.45
0.00237106209607,0.45555555555555555
0.00421843149786,0.46111111111111114
0.0051321001576,0.4666666666666667
0.00537186562194,0.4722222222222222
0.00585234540795,0.4777777777777778
0.0059945551781,0.48333333333333334
0.00630686642482,0.4888888888888889
0.00637594426069,0.49444444444444446
0.00675240749197,0.5
0.00729264399322,0.5055555555555555
0.00733816396407,0.5111111111111111
0.00745856832744,0.5166666666666667
0.00757333370007,0.5222222222222223
0.00784366355175,0.5277777777777778
0.031089249419,0.5333333333333333
0.0312900825366,0.5388888888888889
0.034291492758,0.5444444444444444
0.0343976613613,0.55
0.034399210525,0.5555555555555556
0.034414116349,0.5611111111111111
0.0344196797974,0.5666666666666667
0.0344240650036,0.5722222222222222
0.0344273851304,0.5777777777777777
0.0344402541347,0.5833333333333334
0.0344675939134,0.5888888888888889
0.0344680132489,0.5944444444444444
0.0344715774996,0.6
0.0344800740345,0.6055555555555555
0.0344932562197,0.6111111111111112
0.0344958687707,0.6166666666666667
0.0345004158668,0.6222222222222222
0.0345080925086,0.6277777777777778
0.0345319777519,0.6333333333333333
0.0345356811644,0.6388888888888888
0.0345383685302,0.6444444444444445
0.0345443986827,0.65
0.0345450413711,0.6555555555555556
0.0345535193766,0.6611111111111111
0.0345544036873,0.6666666666666666
0.034559245045,0.6722222222222223
0.0345621989161,0.6777777777777778
0.0345641486296,0.6833333333333333
0.034565153151,0.6888888888888889
0.03456715155,0.6944444444444444
0.0345693041782,0.7
0.0345754380213,0.7055555555555556
0.0345791803755,0.7111111111111111
0.0345950804136,0.7166666666666667
0.0346058029344,0.7222222222222222
0.0346246887051,0.7277777777777777
0.0346284141843,0.7333333333333333
0.0346319371495,0.7388888888888889
0.0346399267523,0.7444444444444445
0.861700331223,0.75
0.861700331223,0.7555555555555555
1.14713721163,0.7611111111111111
1.33954914965,0.7666666666666667
1.72098398987,0.7722222222222223
1.72098398987,0.7777777777777778
1.72340066245,0.7833333333333333
1.72820743148,0.7888888888888889
1.72820743148,0.7944444444444444
2.29427442327,0.8
3.44273851304,0.8055555555555556
3.44675939134,0.8111111111111111
3.4559245045,0.8166666666666667
3.45621989161,0.8222222222222222
4.30146646735,0.8277777777777777
4.30970773467,0.8333333333333334
5.17455210631,0.8388888888888889
5.17753305345,0.8444444444444444
5.18659437739,0.85
5.46522783886,0.8555555555555555
5.46522783886,0.8611111111111112
6.9022465544,0.8666666666666667
6.91285492233,0.8722222222222222
7.74549188082,0.8777777777777778
8.63424820845,0.8833333333333333
8.91004272149,0.8888888888888888
8.92277164099,0.8944444444444445
11.1993287338,0.9
15.8343434703,0.9055555555555556
17.8151916129,0.9111111111111111
19.8322135942,0.9166666666666666
21.2623493628,0.9222222222222223
23.2946824647,0.9277777777777778
40.5532081482,0.9333333333333333
42.3046270139,0.9388888888888889
45.7686196892,0.9444444444444444
49.2231238263,0.95
50.9098945708,0.9555555555555556
54.3704748643,0.9611111111111111
57.8531163013,0.9666666666666667
59.5415004408,0.9722222222222222
61.2822655771,0.9777777777777777
62.9923096917,0.9833333333333333
64.391190519,0.9888888888888889
66.434716192,0.9944444444444445
69.5637244457,1.0
