Congestion,CDF
0.0,0.005555555555555556
0.0,0.011111111111111112
0.0,0.016666666666666666
0.0,0.022222222222222223
0.0,0.027777777777777776
0.0,0.03333333333333333
0.0,0.03888888888888889
0.0,0.044444444444444446
0.0,0.05
0.0,0.05555555555555555
3.15048668761e-07,0.06111111111111111
3.61975768747e-07,0.06666666666666667
8.14777464568e-07,0.07222222222222222
1.19084466002e-06,0.07777777777777778
1.21852713698e-06,0.08333333333333333
1.60887529244e-06,0.08888888888888889
1.76997576041e-06,0.09444444444444444
2.43943020978e-06,0.1
2.45201535229e-06,0.10555555555555556
2.50864187124e-06,0.1111111111111111
2.56027259932e-06,0.11666666666666667
2.81833707521e-06,0.12222222222222222
2.88370772761e-06,0.12777777777777777
3.22021876417e-06,0.13333333333333333
3.29815095655e-06,0.1388888888888889
3.4729949677e-06,0.14444444444444443
4.01587143421e-06,0.15
4.39499894317e-06,0.15555555555555556
4.58926416632e-06,0.16111111111111112
4.77302344681e-06,0.16666666666666666
4.84854247709e-06,0.17222222222222222
4.88748269405e-06,0.17777777777777778
5.04941196745e-06,0.18333333333333332
5.22486940896e-06,0.18888888888888888
5.31306743813e-06,0.19444444444444445
5.37306893939e-06,0.2
5.4028787516e-06,0.20555555555555555
5.46492209422e-06,0.2111111111111111
5.51832426985e-06,0.21666666666666667
5.53043365197e-06,0.2222222222222222
5.71521964669e-06,0.22777777777777777
5.76290100285e-06,0.23333333333333334
5.82905551875e-06,0.2388888888888889
6.31255447945e-06,0.24444444444444444
6.64245799641e-06,0.25
7.21177729486e-06,0.25555555555555554
7.32602779796e-06,0.2611111111111111
7.43145464862e-06,0.26666666666666666
7.68312038506e-06,0.2722222222222222
2.71592488189e-05,0.2777777777777778
5.43184976379e-05,0.2833333333333333
5.95422330009e-05,0.28888888888888886
5.95422330009e-05,0.29444444444444445
6.13003838072e-05,0.3
6.13003838072e-05,0.3055555555555556
9.28052506833e-05,0.3111111111111111
0.000121852713698,0.31666666666666665
0.000122600767614,0.32222222222222224
0.00016323452273,0.3277777777777778
0.000243943020978,0.3333333333333333
0.000253692779927,0.3388888888888889
0.00026865344697,0.34444444444444444
0.00026865344697,0.35
0.000343134091328,0.35555555555555557
0.000522486940896,0.3611111111111111
0.000531306743813,0.36666666666666664
0.000548290502405,0.37222222222222223
0.000590675323386,0.37777777777777777
0.000624939912885,0.38333333333333336
0.000624939912885,0.3888888888888889
0.00071261919656,0.39444444444444443
0.000753108161643,0.4
0.000809793234465,0.40555555555555556
0.000865746232477,0.4111111111111111
0.00107553030609,0.4166666666666667
0.00113716753281,0.4222222222222222
0.00119646187755,0.42777777777777776
0.00147093072422,0.43333333333333335
0.00172695798416,0.4388888888888889
0.00180812121638,0.4444444444444444
0.00223270981811,0.45
0.00252929894587,0.45555555555555555
0.00449995567743,0.46111111111111114
0.00547459956457,0.4666666666666667
0.00573036618375,0.4722222222222222
0.00624291160307,0.4777777777777778
0.00639461198339,0.48333333333333334
0.00672776585078,0.4888888888888889
0.00680145371316,0.49444444444444446
0.00720304085659,0.5
0.00777933095687,0.5055555555555555
0.00782788878017,0.5111111111111111
0.00795632853291,0.5166666666666667
0.00807875296729,0.5222222222222223
0.00836712374005,0.5277777777777778
0.0118189618035,0.5333333333333333
0.0123497712822,0.5388888888888889
0.0222003227939,0.5444444444444444
0.0222499419057,0.55
0.0222561255907,0.5555555555555556
0.0223157501187,0.5611111111111111
0.0223582182219,0.5666666666666667
0.0223688932239,0.5722222222222222
0.0224203130208,0.5777777777777777
0.0225296784187,0.5833333333333334
0.0225313406632,0.5888888888888889
0.0225455964016,0.5944444444444444
0.022579579389,0.6
0.0226324514157,0.6055555555555555
0.0226427605532,0.6111111111111112
0.0226645305852,0.6166666666666667
0.022676038248,0.6222222222222222
0.0227234930959,0.6277777777777778
0.0227871942622,0.6333333333333333
0.0228127706776,0.6388888888888888
0.0228369488775,0.6444444444444445
0.022838878511,0.65
0.0228449809743,0.6555555555555556
0.0228733657294,0.6611111111111111
0.0228964195749,0.6666666666666666
0.0229080838882,0.6722222222222223
0.0229159593504,0.6777777777777778
0.0229175272855,0.6833333333333333
0.0229199078895,0.6888888888888889
0.0229280336837,0.6944444444444444
0.0229366562329,0.7
0.0229610395531,0.7055555555555556
0.02297602434,0.7111111111111111
0.0230396747407,0.7166666666666667
0.0230829775765,0.7222222222222222
0.0231580902958,0.7277777777777777
0.0231730991095,0.7333333333333333
0.0231870340824,0.7388888888888889
0.0232198764332,0.7444444444444445
0.56328351658,0.75
0.56328351658,0.7555555555555555
0.74385833729,0.7611111111111111
0.8660783098,0.7666666666666667
1.1179109111,0.7722222222222223
1.1179109111,0.7777777777777778
1.12656703316,0.7833333333333333
1.14579796752,0.7888888888888889
1.14579796752,0.7944444444444444
1.48771667458,0.8
2.23688932239,0.8055555555555556
2.25296784187,0.8111111111111111
2.28964195749,0.8166666666666667
2.29080838882,0.8222222222222222
2.78827770715,0.8277777777777777
2.82124145548,0.8333333333333334
3.4017987622,0.8388888888888889
3.4090431091,0.8444444444444444
3.4452704414,0.85
3.59863158565,0.8555555555555555
3.59863158565,0.8611111111111112
4.54085679645,0.8666666666666667
4.58330758079,0.8722222222222222
5.03030900923,0.8777777777777778
5.70184647747,0.8833333333333333
5.84381921899,0.8888888888888888
5.89473554096,0.8944444444444445
7.31158607699,0.9
10.4728805027,0.9055555555555556
11.6680633637,0.9111111111111111
13.0079543204,0.9166666666666666
13.9226230039,0.9222222222222223
15.32376335,0.9277777777777778
26.6874942955,0.9333333333333333
27.9262273192,0.9388888888888889
30.2482149625,0.9444444444444444
32.5327130599,0.95
33.5120459797,0.9555555555555556
35.8203437374,0.9611111111111111
38.2262645507,0.9666666666666667
39.204707707,0.9722222222222222
40.4462968301,0.9777777777777777
41.4770570166,0.9833333333333333
41.6281930104,0.9888888888888889
43.7446608414,0.9944444444444445
44.9796379696,1.0
