Congestion,CDF
0.0,0.009433962264150943
0.0,0.018867924528301886
0.0,0.02830188679245283
0.0,0.03773584905660377
0.0,0.04716981132075472
0.0,0.05660377358490566
0.0,0.0660377358490566
0.0,0.07547169811320754
0.0,0.08490566037735849
0.0,0.09433962264150944
0.0,0.10377358490566038
0.0,0.11320754716981132
0.0,0.12264150943396226
0.0,0.1320754716981132
0.0,0.14150943396226415
0.0,0.1509433962264151
0.0,0.16037735849056603
0.0,0.16981132075471697
0.0,0.1792452830188679
0.0,0.18867924528301888
0.0,0.19811320754716982
0.0,0.20754716981132076
0.0,0.2169811320754717
0.0,0.22641509433962265
0.0,0.2358490566037736
0.0,0.24528301886792453
0.0,0.25471698113207547
0.0,0.2641509433962264
0.0,0.27358490566037735
0.0,0.2830188679245283
1.58871364806e-07,0.29245283018867924
4.09290967036e-06,0.3018867924528302
4.60254807569e-06,0.3113207547169811
6.23950931866e-06,0.32075471698113206
7.0432802603e-06,0.330188679245283
9.37195844507e-06,0.33962264150943394
1.42923806738e-05,0.3490566037735849
1.8295002274e-05,0.3584905660377358
1.93618661895e-05,0.36792452830188677
2.25823416142e-05,0.37735849056603776
2.78042705737e-05,0.3867924528301887
2.84413704647e-05,0.39622641509433965
3.00084447655e-05,0.4056603773584906
0.00019229475369,0.41509433962264153
0.000263586331267,0.42452830188679247
0.000263586331267,0.4339622641509434
0.000686062585276,0.44339622641509435
0.000686062585276,0.4528301886792453
0.000686062585276,0.46226415094339623
0.00070289688338,0.4716981132075472
0.00070289688338,0.4811320754716981
0.00070289688338,0.49056603773584906
0.00108517243641,0.5
0.00129591992874,0.5094339622641509
0.00129591992874,0.5188679245283019
0.00137212517055,0.5283018867924528
0.00137212517055,0.5377358490566038
0.0018718527956,0.5471698113207547
0.00238602609603,0.5566037735849056
0.00238602609603,0.5660377358490566
0.00295634321654,0.5754716981132075
0.00295634321654,0.5849056603773585
0.00373352647961,0.5943396226415094
0.0045410812751,0.6037735849056604
0.00613713426747,0.6132075471698113
0.00780822877915,0.6226415094339622
0.00956992216638,0.6320754716981132
0.00970824328877,0.6415094339622641
0.0110448817224,0.6509433962264151
0.0133174245613,0.660377358490566
0.0135746297755,0.6698113207547169
0.0136666981923,0.6792452830188679
0.0154685042629,0.6886792452830188
0.0166785208018,0.6981132075471698
0.0167129771746,0.7075471698113207
0.0169191804225,0.7169811320754716
0.0187787725767,0.7264150943396226
0.0187952166604,0.7358490566037735
0.0202472965814,0.7452830188679245
0.020384243925,0.7547169811320755
0.0207242690132,0.7641509433962265
0.203396575436,0.7735849056603774
0.469083397552,0.7830188679245284
0.469083397552,0.7924528301886793
0.626736644046,0.8018867924528302
0.626736644046,0.8113207547169812
0.626736644046,0.8207547169811321
1.25088906014,0.8301886792452831
1.25088906014,0.839622641509434
1.25088906014,0.8490566037735849
1.25347328809,0.8584905660377359
1.25347328809,0.8679245283018868
2.09709880952,0.8773584905660378
2.43734614373,0.8867924528301887
2.43734614373,0.8962264150943396
2.67934261017,0.9056603773584906
2.67934261017,0.9150943396226415
3.05174779547,0.9245283018867925
3.05174779547,0.9339622641509434
3.31346451672,0.9433962264150944
5.73363430966,0.9528301886792453
5.75434970342,0.9622641509433962
7.32637014853,0.9716981132075472
7.36745435162,0.9811320754716981
12.3945460457,0.9905660377358491
24.4013865589,1.0
