Congestion,CDF
0.0,0.007352941176470588
0.0,0.014705882352941176
0.0,0.022058823529411766
0.0,0.029411764705882353
0.0,0.03676470588235294
0.0,0.04411764705882353
0.0,0.051470588235294115
0.0,0.058823529411764705
0.0,0.0661764705882353
0.0,0.07352941176470588
0.0,0.08088235294117647
0.0,0.08823529411764706
0.0,0.09558823529411764
0.0,0.10294117647058823
4.79398493147e-06,0.11029411764705882
4.79398493147e-06,0.11764705882352941
4.79398493147e-06,0.125
4.79398493147e-06,0.1323529411764706
4.79398493147e-06,0.13970588235294118
4.79398493147e-06,0.14705882352941177
4.79398493147e-06,0.15441176470588236
4.79398493147e-06,0.16176470588235295
4.79398493147e-06,0.16911764705882354
4.79398493147e-06,0.17647058823529413
4.79398493147e-06,0.18382352941176472
4.79398493147e-06,0.19117647058823528
4.79398493147e-06,0.19852941176470587
4.79398493147e-06,0.20588235294117646
4.79398493147e-06,0.21323529411764705
4.79398493147e-06,0.22058823529411764
4.79398493147e-06,0.22794117647058823
4.79398493147e-06,0.23529411764705882
4.79398493147e-06,0.2426470588235294
4.79398493147e-06,0.25
4.79398493147e-06,0.25735294117647056
4.79398493147e-06,0.2647058823529412
4.79398493147e-06,0.27205882352941174
4.79398493147e-06,0.27941176470588236
4.79398493147e-06,0.2867647058823529
4.79398493147e-06,0.29411764705882354
4.79398493147e-06,0.3014705882352941
0.000119849623287,0.3088235294117647
0.000119849623287,0.3161764705882353
0.00012943759315,0.3235294117647059
0.000239699246574,0.33088235294117646
0.000239699246574,0.3382352941176471
0.000239699246574,0.34558823529411764
0.000239699246574,0.35294117647058826
0.00035954886986,0.3602941176470588
0.000399498744289,0.36764705882352944
0.000399498744289,0.375
0.000399498744289,0.38235294117647056
0.000479398493147,0.3897058823529412
0.000479398493147,0.39705882352941174
0.000479398493147,0.40441176470588236
0.000479398493147,0.4117647058823529
0.000479398493147,0.41911764705882354
0.000479398493147,0.4264705882352941
0.000479398493147,0.4338235294117647
0.000599248116434,0.4411764705882353
0.000719097739721,0.4485294117647059
0.000719097739721,0.45588235294117646
0.000878897237436,0.4632352941176471
0.000958796986294,0.47058823529411764
0.000958796986294,0.47794117647058826
0.00143819547944,0.4852941176470588
0.00195754384702,0.49264705882352944
0.00347563907532,0.5
0.00355553882417,0.5073529411764706
0.00459423555933,0.5147058823529411
0.00571283204334,0.5220588235294118
0.00579273179219,0.5294117647058824
0.00619223053648,0.5367647058823529
0.00627213028534,0.5441176470588235
0.00675152877849,0.5514705882352942
0.0122550185952,0.5588235294117647
0.0131483004205,0.5661764705882353
0.0243882905453,0.5735294117647058
0.0245049327994,0.5808823529411765
0.0247143935487,0.5882352941176471
0.0247629314261,0.5955882352941176
0.0248085068205,0.6029411764705882
0.024859675331,0.6102941176470589
0.0249779308919,0.6176470588235294
0.0250006404709,0.625
0.0250243432358,0.6323529411764706
0.0250311460461,0.6397058823529411
0.0250323944426,0.6470588235294118
0.0250327738177,0.6544117647058824
0.0250327778126,0.6617647058823529
0.0250330750097,0.6691176470588235
0.0250339725302,0.6764705882352942
0.0250426462253,0.6838235294117647
0.0250490445983,0.6911764705882353
0.0250635616711,0.6985294117647058
0.0250698019634,0.7058823529411765
0.025069819843,0.7132352941176471
0.0250698997086,0.7205882352941176
0.0250699047443,0.7279411764705882
0.0250703593698,0.7352941176470589
0.0250703627273,0.7426470588235294
0.0250703627273,0.75
0.625826875243,0.7573529411764706
0.626066155633,0.7647058823529411
0.649286867323,0.7720588235294118
1.24298376655,0.7794117647058824
1.24298376655,0.7867647058823529
1.25245222992,0.7941176470588235
1.25245222992,0.8014705882352942
1.87748062573,0.8088235294117647
2.0863188248,0.8161764705882353
2.0863188248,0.8235294117647058
2.0863188248,0.8308823529411765
2.48085068205,0.8382352941176471
2.50323944426,0.8455882352941176
2.50426462253,0.8529411764705882
2.5069819843,0.8602941176470589
2.50699047443,0.8676470588235294
2.50703627273,0.875
2.50703627273,0.8823529411764706
3.1291046565,0.8897058823529411
3.71442312142,0.8970588235294118
3.75584948294,0.9044117647058824
4.58638287189,0.9117647058823529
4.95714382466,0.9191176470588235
5.0139804453,0.9264705882352942
7.52110848244,0.9338235294117647
10.2217775302,0.9411764705882353
18.175117264,0.9485294117647058
18.5489372578,0.9558823529411765
24.0202444858,0.9632352941176471
29.6593332584,0.9705882352941176
30.2785282923,0.9779411764705882
30.8848351179,0.9852941176470589
32.7290215723,0.9926470588235294
34.0438516143,1.0
