Congestion,CDF
0.0,0.007352941176470588
0.0,0.014705882352941176
0.0,0.022058823529411766
0.0,0.029411764705882353
0.0,0.03676470588235294
0.0,0.04411764705882353
0.0,0.051470588235294115
0.0,0.058823529411764705
0.0,0.0661764705882353
0.0,0.07352941176470588
0.0,0.08088235294117647
0.0,0.08823529411764706
0.0,0.09558823529411764
0.0,0.10294117647058823
5.39525588401e-06,0.11029411764705882
5.39525588401e-06,0.11764705882352941
5.39525588401e-06,0.125
5.39525588401e-06,0.1323529411764706
5.39525588401e-06,0.13970588235294118
5.39525588401e-06,0.14705882352941177
5.39525588401e-06,0.15441176470588236
5.39525588401e-06,0.16176470588235295
5.39525588401e-06,0.16911764705882354
5.39525588401e-06,0.17647058823529413
5.39525588401e-06,0.18382352941176472
5.39525588401e-06,0.19117647058823528
5.39525588401e-06,0.19852941176470587
5.39525588401e-06,0.20588235294117646
5.39525588401e-06,0.21323529411764705
5.39525588401e-06,0.22058823529411764
5.39525588401e-06,0.22794117647058823
5.39525588401e-06,0.23529411764705882
5.39525588401e-06,0.2426470588235294
5.39525588401e-06,0.25
5.39525588401e-06,0.25735294117647056
5.39525588401e-06,0.2647058823529412
5.39525588401e-06,0.27205882352941174
5.39525588401e-06,0.27941176470588236
5.39525588401e-06,0.2867647058823529
5.39525588401e-06,0.29411764705882354
5.39525588401e-06,0.3014705882352941
0.0001348813971,0.3088235294117647
0.0001348813971,0.3161764705882353
0.000145671908868,0.3235294117647059
0.0002697627942,0.33088235294117646
0.0002697627942,0.3382352941176471
0.0002697627942,0.34558823529411764
0.0002697627942,0.35294117647058826
0.000404644191301,0.3602941176470588
0.000449604657001,0.36764705882352944
0.000449604657001,0.375
0.000449604657001,0.38235294117647056
0.000539525588401,0.3897058823529412
0.000539525588401,0.39705882352941174
0.000539525588401,0.40441176470588236
0.000539525588401,0.4117647058823529
0.000539525588401,0.41911764705882354
0.000539525588401,0.4264705882352941
0.000539525588401,0.4338235294117647
0.000674406985501,0.4411764705882353
0.000809288382601,0.4485294117647059
0.000809288382601,0.45588235294117646
0.000989130245402,0.4632352941176471
0.0010790511768,0.47058823529411764
0.0010790511768,0.47794117647058826
0.0016185767652,0.4852941176470588
0.0022030628193,0.49264705882352944
0.00222715148124,0.5
0.00310537838316,0.5073529411764706
0.00391156051591,0.5147058823529411
0.00400148144731,0.5220588235294118
0.00517045355551,0.5294117647058824
0.00642934659511,0.5367647058823529
0.00651926752651,0.5441176470588235
0.00696887218351,0.5514705882352942
0.00705879311491,0.5588235294117647
0.00759831870331,0.5661764705882353
0.0157010649818,0.5735294117647058
0.0158453424634,0.5808823529411765
0.0161328495808,0.5882352941176471
0.0161941710524,0.5955882352941176
0.0162594871825,0.6029411764705882
0.0163003812025,0.6102941176470589
0.0164373178807,0.6176470588235294
0.0164676848997,0.625
0.0164888994873,0.6323529411764706
0.0164996942611,0.6397058823529411
0.0165015721975,0.6470588235294118
0.0165017265823,0.6544117647058824
0.016502074508,0.6617647058823529
0.0165020750349,0.6691176470588235
0.0165023256134,0.6764705882352942
0.0165121131668,0.6838235294117647
0.0165179085144,0.6911764705882353
0.0165330748271,0.6985294117647058
0.0165395594924,0.7058823529411765
0.0165395863002,0.7132352941176471
0.0165396704798,0.7205882352941176
0.016539677686,0.7279411764705882
0.0165401315789,0.7352941176470589
0.0165401363835,0.7426470588235294
0.0165401363835,0.75
0.412558140335,0.7573529411764706
0.412802829169,0.7647058823529411
0.415511191605,0.7720588235294118
0.815019060125,0.7794117647058824
0.815019060125,0.7867647058823529
0.825895425722,0.7941176470588235
0.825895425722,0.8014705882352942
1.237674421,0.8088235294117647
1.37541852225,0.8161764705882353
1.37541852225,0.8235294117647058
1.37541852225,0.8308823529411765
1.62594871825,0.8382352941176471
1.65015721975,0.8455882352941176
1.65121131668,0.8529411764705882
1.65395863002,0.8602941176470589
1.6539677686,0.8676470588235294
1.65401363835,0.875
1.65401363835,0.8823529411764706
2.06276564382,0.8897058823529411
2.42830401821,0.8970588235294118
2.47610287652,0.9044117647058824
3.02218701222,0.9117647058823529
3.2453658235,0.9191176470588235
3.30793481657,0.9264705882352942
4.96204043458,0.9338235294117647
6.73831081193,0.9411764705882353
11.9906926596,0.9485294117647058
12.2192486723,0.9558823529411765
15.8453140903,0.9632352941176471
19.4630250122,0.9705882352941176
19.6857401604,0.9779411764705882
19.9703069155,0.9852941176470589
21.5548411619,0.9926470588235294
21.8653790002,1.0
