Congestion,CDF
0.0,0.007352941176470588
0.0,0.014705882352941176
0.0,0.022058823529411766
0.0,0.029411764705882353
0.0,0.03676470588235294
0.0,0.04411764705882353
0.0,0.051470588235294115
0.0,0.058823529411764705
0.0,0.0661764705882353
0.0,0.07352941176470588
0.0,0.08088235294117647
0.0,0.08823529411764706
0.0,0.09558823529411764
0.0,0.10294117647058823
5.22694546877e-06,0.11029411764705882
5.22694546877e-06,0.11764705882352941
5.22694546877e-06,0.125
5.22694546877e-06,0.1323529411764706
5.22694546877e-06,0.13970588235294118
5.22694546877e-06,0.14705882352941177
5.22694546877e-06,0.15441176470588236
5.22694546877e-06,0.16176470588235295
5.22694546877e-06,0.16911764705882354
5.22694546877e-06,0.17647058823529413
5.22694546877e-06,0.18382352941176472
5.22694546877e-06,0.19117647058823528
5.22694546877e-06,0.19852941176470587
5.22694546877e-06,0.20588235294117646
5.22694546877e-06,0.21323529411764705
5.22694546877e-06,0.22058823529411764
5.22694546877e-06,0.22794117647058823
5.22694546877e-06,0.23529411764705882
5.22694546877e-06,0.2426470588235294
5.22694546877e-06,0.25
5.22694546877e-06,0.25735294117647056
5.22694546877e-06,0.2647058823529412
5.22694546877e-06,0.27205882352941174
5.22694546877e-06,0.27941176470588236
5.22694546877e-06,0.2867647058823529
5.22694546877e-06,0.29411764705882354
5.22694546877e-06,0.3014705882352941
0.000130673636719,0.3088235294117647
0.000130673636719,0.3161764705882353
0.000141127527657,0.3235294117647059
0.000261347273439,0.33088235294117646
0.000261347273439,0.3382352941176471
0.000261347273439,0.34558823529411764
0.000261347273439,0.35294117647058826
0.000392020910158,0.3602941176470588
0.000435578789065,0.36764705882352944
0.000435578789065,0.375
0.000435578789065,0.38235294117647056
0.000522694546877,0.3897058823529412
0.000522694546877,0.39705882352941174
0.000522694546877,0.40441176470588236
0.000522694546877,0.4117647058823529
0.000522694546877,0.41911764705882354
0.000522694546877,0.4264705882352941
0.000522694546877,0.4338235294117647
0.000653368183597,0.4411764705882353
0.000784041820316,0.4485294117647059
0.000784041820316,0.45588235294117646
0.000958273335942,0.4632352941176471
0.00104538909375,0.47058823529411764
0.00104538909375,0.47794117647058826
0.00156808364063,0.4852941176470588
0.00213433606642,0.49264705882352944
0.00378953546486,0.5
0.00387665122267,0.5073529411764706
0.0041212411161,0.5147058823529411
0.00500915607424,0.5220588235294118
0.00501799302127,0.5294117647058824
0.00622877668362,0.5367647058823529
0.00631589244144,0.5441176470588235
0.0067514712305,0.5514705882352942
0.00683858698831,0.5588235294117647
0.00736128153519,0.5661764705882353
0.0174441234101,0.5735294117647058
0.0175818104225,0.5808823529411765
0.017852997443,0.5882352941176471
0.0179108072513,0.5955882352941176
0.0179714454757,0.6029411764705882
0.0180149588478,0.6102941176470589
0.0181462180211,0.6176470588235294
0.0181745873235,0.625
0.0181963735892,0.6323529411764706
0.0182061245253,0.6397058823529411
0.0182078288022,0.6470588235294118
0.0182080628461,0.6544117647058824
0.0182082893148,0.6617647058823529
0.018208572895,0.6691176470588235
0.0182086429325,0.6764705882352942
0.0182182796771,0.6838235294117647
0.0182242563832,0.6911764705882353
0.0182392017583,0.6985294117647058
0.0182456106728,0.7058823529411765
0.0182456346798,0.7132352941176471
0.0182457171611,0.7205882352941176
0.0182457235998,0.7279411764705882
0.0182461776941,0.7352941176470589
0.018246181987,0.7426470588235294
0.018246181987,0.75
0.455214322374,0.7573529411764706
0.455456991927,0.7647058823529411
0.462083042837,0.7720588235294118
0.900747942389,0.7794117647058824
0.900747942389,0.7867647058823529
0.911212819158,0.7941176470588235
0.911212819158,0.8014705882352942
1.36564296712,0.8088235294117647
1.5176067425,0.8161764705882353
1.5176067425,0.8235294117647058
1.5176067425,0.8308823529411765
1.79714454757,0.8382352941176471
1.82078288022,0.8455882352941176
1.82182796771,0.8529411764705882
1.82456346798,0.8602941176470589
1.82457235998,0.8676470588235294
1.8246181987,0.875
1.8246181987,0.8823529411764706
2.27604325385,0.8897058823529411
2.68604768669,0.8970588235294118
2.73207711241,0.9044117647058824
3.33506547485,0.9117647058823529
3.5882252727,0.9191176470588235
3.64914407609,0.9264705882352942
5.47385416681,0.9338235294117647
7.43504532911,0.9411764705882353
13.2275797701,0.9485294117647058
13.4854805485,0.9558823529411765
17.4803195076,0.9632352941176471
21.5041658489,0.9705882352941176
21.9162899605,0.9779411764705882
22.0320339789,0.9852941176470589
23.7902150212,0.9926470588235294
24.2920143233,1.0
