Congestion,CDF
0.0,0.007352941176470588
0.0,0.014705882352941176
0.0,0.022058823529411766
0.0,0.029411764705882353
0.0,0.03676470588235294
0.0,0.04411764705882353
0.0,0.051470588235294115
0.0,0.058823529411764705
0.0,0.0661764705882353
0.0,0.07352941176470588
0.0,0.08088235294117647
0.0,0.08823529411764706
0.0,0.09558823529411764
0.0,0.10294117647058823
4.50960111307e-06,0.11029411764705882
4.50960111307e-06,0.11764705882352941
4.50960111307e-06,0.125
4.50960111307e-06,0.1323529411764706
4.50960111307e-06,0.13970588235294118
4.50960111307e-06,0.14705882352941177
4.50960111307e-06,0.15441176470588236
4.50960111307e-06,0.16176470588235295
4.50960111307e-06,0.16911764705882354
4.50960111307e-06,0.17647058823529413
4.50960111307e-06,0.18382352941176472
4.50960111307e-06,0.19117647058823528
4.50960111307e-06,0.19852941176470587
4.50960111307e-06,0.20588235294117646
4.50960111307e-06,0.21323529411764705
4.50960111307e-06,0.22058823529411764
4.50960111307e-06,0.22794117647058823
4.50960111307e-06,0.23529411764705882
4.50960111307e-06,0.2426470588235294
4.50960111307e-06,0.25
4.50960111307e-06,0.25735294117647056
4.50960111307e-06,0.2647058823529412
4.50960111307e-06,0.27205882352941174
4.50960111307e-06,0.27941176470588236
4.50960111307e-06,0.2867647058823529
4.50960111307e-06,0.29411764705882354
4.50960111307e-06,0.3014705882352941
0.000112740027827,0.3088235294117647
0.000112740027827,0.3161764705882353
0.000121759230053,0.3235294117647059
0.000225480055654,0.33088235294117646
0.000225480055654,0.3382352941176471
0.000225480055654,0.34558823529411764
0.000225480055654,0.35294117647058826
0.00033822008348,0.3602941176470588
0.000375800092756,0.36764705882352944
0.000375800092756,0.375
0.000375800092756,0.38235294117647056
0.000450960111307,0.3897058823529412
0.000450960111307,0.39705882352941174
0.000450960111307,0.40441176470588236
0.000450960111307,0.4117647058823529
0.000450960111307,0.41911764705882354
0.000450960111307,0.4264705882352941
0.000450960111307,0.4338235294117647
0.000563700139134,0.4411764705882353
0.000676440166961,0.4485294117647059
0.000676440166961,0.45588235294117646
0.000826760204063,0.4632352941176471
0.000901920222615,0.47058823529411764
0.000901920222615,0.47794117647058826
0.00135288033392,0.4852941176470588
0.0018414204545,0.49264705882352944
0.00326946080698,0.5
0.00334462082553,0.5073529411764706
0.0043217010667,0.5147058823529411
0.00537394132641,0.5220588235294118
0.00544910134496,0.5294117647058824
0.00582490143772,0.5367647058823529
0.00590006145627,0.5441176470588235
0.00635102156758,0.5514705882352942
0.0232646662898,0.5588235294117647
0.0240347570637,0.5661764705882353
0.0330290804757,0.5735294117647058
0.0331266925019,0.5808823529411765
0.0332698479258,0.5882352941176471
0.0333120955143,0.5955882352941176
0.033345195691,0.6029411764705882
0.0334002545278,0.6102941176470589
0.0335132611838,0.6176470588235294
0.0335318085982,0.625
0.0335571525561,0.6323529411764706
0.033561794648,0.6397058823529411
0.0335627636056,0.6470588235294118
0.0335631181257,0.6544117647058824
0.0335631974037,0.6617647058823529
0.0335633968301,0.6691176470588235
0.0335647802688,0.6764705882352942
0.0335729232507,0.6838235294117647
0.0335794989208,0.6911764705882353
0.0335938778228,0.6985294117647058
0.0336000311576,0.7058823529411765
0.0336000462218,0.7132352941176471
0.0336001253555,0.7205882352941176
0.0336001299111,0.7279411764705882
0.0336005847727,0.7352941176470589
0.0336005878101,0.7426470588235294
0.0336005878101,0.75
0.839084920752,0.7573529411764706
0.839323081269,0.7647058823529411
0.884712256243,0.7720588235294118
1.67001272639,0.7794117647058824
1.67001272639,0.7867647058823529
1.67897494604,0.7941176470588235
1.67897494604,0.8014705882352942
2.51725476225,0.8088235294117647
2.79718124881,0.8161764705882353
2.79718124881,0.8235294117647058
2.79718124881,0.8308823529411765
3.3345195691,0.8382352941176471
3.35627636056,0.8455882352941176
3.35729232507,0.8529411764705882
3.36000462218,0.8602941176470589
3.36001299111,0.8676470588235294
3.36005878101,0.875
3.36005878101,0.8823529411764706
4.19539673333,0.8897058823529411
4.99699751897,0.8970588235294118
5.03545297292,0.9044117647058824
6.15036210863,0.9117647058823529
6.66572912053,0.9191176470588235
6.72002552666,0.9264705882352942
10.0801760393,0.9338235294117647
13.7050338075,0.9411764705882353
24.3595323852,0.9485294117647058
24.8767347609,0.9558823529411765
32.1950763623,0.9632352941176471
39.842369448,0.9705882352941176
40.5862445908,0.9779411764705882
42.1688360769,0.9852941176470589
43.898913841,0.9926470588235294
46.3023895474,1.0
