Congestion,CDF
0.0,0.009433962264150943
0.0,0.018867924528301886
0.0,0.02830188679245283
0.0,0.03773584905660377
0.0,0.04716981132075472
0.0,0.05660377358490566
0.0,0.0660377358490566
0.0,0.07547169811320754
0.0,0.08490566037735849
0.0,0.09433962264150944
0.0,0.10377358490566038
0.0,0.11320754716981132
0.0,0.12264150943396226
0.0,0.1320754716981132
0.0,0.14150943396226415
0.0,0.1509433962264151
0.0,0.16037735849056603
0.0,0.16981132075471697
0.0,0.1792452830188679
0.0,0.18867924528301888
0.0,0.19811320754716982
0.0,0.20754716981132076
0.0,0.2169811320754717
0.0,0.22641509433962265
0.0,0.2358490566037736
0.0,0.24528301886792453
0.0,0.25471698113207547
0.0,0.2641509433962264
0.0,0.27358490566037735
0.0,0.2830188679245283
4.71117873837e-08,0.29245283018867924
1.2137133108e-06,0.3018867924528302
1.36484171726e-06,0.3113207547169811
1.85026695502e-06,0.32075471698113206
2.08861755869e-06,0.330188679245283
2.77916485562e-06,0.33962264150943394
4.23826912002e-06,0.3490566037735849
5.42520836508e-06,0.3584905660377358
5.74157667987e-06,0.36792452830188677
6.69657793935e-06,0.37735849056603776
8.24509114797e-06,0.3867924528301887
8.43401704184e-06,0.39622641509433965
8.89871797371e-06,0.4056603773584906
5.70231744526e-05,0.41509433962264153
7.81640115642e-05,0.42452830188679247
7.81640115642e-05,0.4339622641509434
0.000203445313691,0.44339622641509435
0.000203445313691,0.4528301886792453
0.000203445313691,0.46226415094339623
0.000208437364171,0.4716981132075472
0.000208437364171,0.4811320754716981
0.000208437364171,0.49056603773584906
0.000321797531991,0.5
0.000384292690024,0.5094339622641509
0.000384292690024,0.5188679245283019
0.000406890627381,0.5283018867924528
0.000406890627381,0.5377358490566038
0.000555080086505,0.5471698113207547
0.000707553272834,0.5566037735849056
0.000707553272834,0.5660377358490566
0.000876675373317,0.5754716981132075
0.000876675373317,0.5849056603773585
0.00110714165459,0.5943396226415094
0.00134661432402,0.6037735849056604
0.00181990861039,0.6132075471698113
0.00283786910833,0.6226415094339622
0.0028788869174,0.6320754716981132
0.00614558423808,0.6415094339622641
0.012090919417,0.6509433962264151
0.0149531013649,0.660377358490566
0.0227720145317,0.6698113207547169
0.02295594787,0.6792452830188679
0.0264765151366,0.6886792452830188
0.0307135741335,0.6981132075471698
0.0311330048188,0.7075471698113207
0.033690191656,0.7169811320754716
0.0339227059077,0.7264150943396226
0.0356940627408,0.7358490566037735
0.0375487768245,0.7452830188679245
0.0402033505283,0.7547169811320755
0.0405117982365,0.7641509433962265
0.382665963166,0.7735849056603774
0.954076103653,0.7830188679245284
0.954076103653,0.7924528301886793
1.2633821871,0.8018867924528302
1.2633821871,0.8113207547169812
1.2633821871,0.8207547169811321
2.5267643742,0.8301886792452831
2.5267643742,0.839622641509434
2.54420294308,0.8490566037735849
2.54420294308,0.8584905660377359
2.54420294308,0.8679245283018868
3.80033878283,0.8773584905660378
4.48593040947,0.8867924528301887
4.88022069684,0.8962264150943396
4.88022069684,0.9056603773584906
5.4040757861,0.9150943396226415
5.4040757861,0.9245283018867925
6.12585013674,0.9339622641509434
6.12585013674,0.9433962264150944
10.5277790557,0.9528301886792453
10.5691640568,0.9622641509433962
14.5964888171,0.9716981132075472
14.6890231296,0.9811320754716981
23.8888333515,0.9905660377358491
48.1615309513,1.0
