Congestion,CDF
0.0,0.009433962264150943
0.0,0.018867924528301886
0.0,0.02830188679245283
0.0,0.03773584905660377
0.0,0.04716981132075472
0.0,0.05660377358490566
0.0,0.0660377358490566
0.0,0.07547169811320754
0.0,0.08490566037735849
0.0,0.09433962264150944
0.0,0.10377358490566038
0.0,0.11320754716981132
0.0,0.12264150943396226
0.0,0.1320754716981132
0.0,0.14150943396226415
0.0,0.1509433962264151
0.0,0.16037735849056603
0.0,0.16981132075471697
0.0,0.1792452830188679
0.0,0.18867924528301888
0.0,0.19811320754716982
0.0,0.20754716981132076
0.0,0.2169811320754717
0.0,0.22641509433962265
0.0,0.2358490566037736
0.0,0.24528301886792453
0.0,0.25471698113207547
0.0,0.2641509433962264
0.0,0.27358490566037735
0.0,0.2830188679245283
1.25077933919e-07,0.29245283018867924
3.22230935644e-06,0.3018867924528302
3.62354288812e-06,0.3113207547169811
4.91230710579e-06,0.32075471698113206
5.54510842179e-06,0.330188679245283
7.37845489344e-06,0.33962264150943394
7.60590712598e-06,0.3490566037735849
8.5856968531e-06,0.3584905660377358
1.12522571179e-05,0.36792452830188677
1.44034835243e-05,0.37735849056603776
1.52434154685e-05,0.3867924528301887
1.77788655344e-05,0.39622641509433965
2.18900411772e-05,0.4056603773584906
2.23916239398e-05,0.41509433962264153
2.36019450412e-05,0.42452830188679247
2.3625366824e-05,0.4339622641509434
2.42570947516e-05,0.44339622641509435
2.75276763337e-05,0.4528301886792453
3.65800309327e-05,0.46226415094339623
0.000151391854186,0.4716981132075472
0.000172332041121,0.4811320754716981
0.000207519043878,0.49056603773584906
0.000207519043878,0.5
0.000332507691503,0.5094339622641509
0.000417145178606,0.5188679245283019
0.000540130632162,0.5283018867924528
0.000540130632162,0.5377358490566038
0.000540130632162,0.5471698113207547
0.000553384117008,0.5566037735849056
0.000553384117008,0.5660377358490566
0.000553384117008,0.5754716981132075
0.000854346070842,0.5849056603773585
0.00102026559291,0.5943396226415094
0.00102026559291,0.6037735849056604
0.00108026126432,0.6132075471698113
0.00108026126432,0.6226415094339622
0.00147369213174,0.6320754716981132
0.00187849594376,0.6415094339622641
0.00187849594376,0.6509433962264151
0.0022817721378,0.660377358490566
0.00232750125821,0.6698113207547169
0.00232750125821,0.6792452830188679
0.0029393703445,0.6886792452830188
0.00357515065311,0.6981132075471698
0.00456680373949,0.7075471698113207
0.00483170818916,0.7169811320754716
0.00671478646596,0.7264150943396226
0.00753430987261,0.7358490566037735
0.00764320879362,0.7452830188679245
0.0117322081483,0.7547169811320755
0.0117322081483,0.7641509433962265
0.0124690384314,0.7735849056603774
0.0124690384314,0.7830188679245284
0.0124690384314,0.7924528301886793
0.0150033186532,0.8018867924528302
0.0163160224205,0.8113207547169812
0.0190682974189,0.8207547169811321
0.0200631205099,0.8301886792452831
0.023739205789,0.839622641509434
0.023739205789,0.8490566037735849
0.0238129101314,0.8584905660377359
0.0238129101314,0.8679245283018868
0.0249380768627,0.8773584905660378
0.0249380768627,0.8867924528301887
0.0256709875809,0.8962264150943396
0.0312858883955,0.9056603773584906
0.0312858883955,0.9150943396226415
0.0312858883955,0.9245283018867925
0.0319697127488,0.9339622641509434
0.0514631513966,0.9433962264150944
0.776497464393,0.9528301886792453
0.776497464393,0.9622641509433962
1.1187801117,0.9716981132075472
5.74860120831,0.9811320754716981
6.04704813559,0.9905660377358491
14.2010204183,1.0
