Congestion,CDF
0.0,0.009433962264150943
0.0,0.018867924528301886
0.0,0.02830188679245283
0.0,0.03773584905660377
0.0,0.04716981132075472
0.0,0.05660377358490566
0.0,0.0660377358490566
0.0,0.07547169811320754
0.0,0.08490566037735849
0.0,0.09433962264150944
0.0,0.10377358490566038
0.0,0.11320754716981132
0.0,0.12264150943396226
0.0,0.1320754716981132
0.0,0.14150943396226415
0.0,0.1509433962264151
0.0,0.16037735849056603
0.0,0.16981132075471697
0.0,0.1792452830188679
0.0,0.18867924528301888
0.0,0.19811320754716982
0.0,0.20754716981132076
0.0,0.2169811320754717
0.0,0.22641509433962265
0.0,0.2358490566037736
0.0,0.24528301886792453
0.0,0.25471698113207547
0.0,0.2641509433962264
0.0,0.27358490566037735
0.0,0.2830188679245283
9.19489413875e-08,0.29245283018867924
2.36882657768e-06,0.3018867924528302
2.66378666641e-06,0.3113207547169811
3.61120002543e-06,0.32075471698113206
4.07639327969e-06,0.330188679245283
5.42414713189e-06,0.33962264150943394
8.27190774417e-06,0.3490566037735849
1.05884788856e-05,0.3584905660377358
1.12059407407e-05,0.36792452830188677
1.30698342525e-05,0.37735849056603776
1.60920959446e-05,0.3867924528301887
1.64608260843e-05,0.39622641509433965
1.73677914345e-05,0.4056603773584906
0.000111293177709,0.41509433962264153
0.000152554138084,0.42452830188679247
0.000152554138084,0.4339622641509434
0.000397067958211,0.44339622641509435
0.000397067958211,0.4528301886792453
0.000397067958211,0.46226415094339623
0.000406811034892,0.4716981132075472
0.000406811034892,0.4811320754716981
0.000406811034892,0.49056603773584906
0.000628058158073,0.5
0.000750031106714,0.5094339622641509
0.000750031106714,0.5188679245283019
0.000794135916421,0.5283018867924528
0.000794135916421,0.5377358490566038
0.00108336000763,0.5471698113207547
0.00138094472796,0.5566037735849056
0.00138094472796,0.5660377358490566
0.00171102344007,0.5754716981132075
0.00171102344007,0.5849056603773585
0.00216082871738,0.5943396226415094
0.002628211928,0.6037735849056604
0.0035519490862,0.6132075471698113
0.00461700642585,0.6226415094339622
0.00462180198404,0.6320754716981132
0.00462242322878,0.6415094339622641
0.00462441867018,0.6509433962264151
0.0046253984599,0.660377358490566
0.00462823709818,0.6698113207547169
0.00463423504972,0.6792452830188679
0.00463911421034,0.6886792452830188
0.00464041470809,0.6981132075471698
0.00464434043938,0.7075471698113207
0.00465070592498,0.7169811320754716
0.00465148254416,0.7264150943396226
0.00465339279398,0.7358490566037735
0.00553872130093,0.7452830188679245
0.00561877651284,0.7547169811320755
0.011994449718,0.7641509433962265
0.0602529715376,0.7735849056603774
0.130169168386,0.7830188679245284
0.130169168386,0.7924528301886793
0.173966782888,0.8018867924528302
0.173966782888,0.8113207547169812
0.173966782888,0.8207547169811321
0.347117782364,0.8301886792452831
0.347117782364,0.839622641509434
0.347117782364,0.8490566037735849
0.347933565775,0.8584905660377359
0.347933565775,0.8679245283018868
0.78066686879,0.8773584905660378
0.78066686879,0.8867924528301887
0.781995698646,0.8962264150943396
0.781995698646,0.9056603773584906
0.782690910213,0.9150943396226415
0.782690910213,0.9245283018867925
0.913486148754,0.9339622641509434
1.38732560105,0.9433962264150944
1.73262760182,0.9528301886792453
1.74297043732,0.9622641509433962
1.82340556369,0.9716981132075472
1.82970428886,0.9811320754716981
3.47009068512,0.9905660377358491
5.91169897502,1.0
