Congestion,CDF
0.0,0.007352941176470588
0.0,0.014705882352941176
0.0,0.022058823529411766
0.0,0.029411764705882353
0.0,0.03676470588235294
0.0,0.04411764705882353
0.0,0.051470588235294115
0.0,0.058823529411764705
0.0,0.0661764705882353
0.0,0.07352941176470588
0.0,0.08088235294117647
0.0,0.08823529411764706
0.0,0.09558823529411764
0.0,0.10294117647058823
5.40488267094e-06,0.11029411764705882
5.40488267094e-06,0.11764705882352941
5.40488267094e-06,0.125
5.40488267094e-06,0.1323529411764706
5.40488267094e-06,0.13970588235294118
5.40488267094e-06,0.14705882352941177
5.40488267094e-06,0.15441176470588236
5.40488267094e-06,0.16176470588235295
5.40488267094e-06,0.16911764705882354
5.40488267094e-06,0.17647058823529413
5.40488267094e-06,0.18382352941176472
5.40488267094e-06,0.19117647058823528
5.40488267094e-06,0.19852941176470587
5.40488267094e-06,0.20588235294117646
5.40488267094e-06,0.21323529411764705
5.40488267094e-06,0.22058823529411764
5.40488267094e-06,0.22794117647058823
5.40488267094e-06,0.23529411764705882
5.40488267094e-06,0.2426470588235294
5.40488267094e-06,0.25
5.40488267094e-06,0.25735294117647056
5.40488267094e-06,0.2647058823529412
5.40488267094e-06,0.27205882352941174
5.40488267094e-06,0.27941176470588236
5.40488267094e-06,0.2867647058823529
5.40488267094e-06,0.29411764705882354
5.40488267094e-06,0.3014705882352941
0.000135122066774,0.3088235294117647
0.000135122066774,0.3161764705882353
0.000145931832115,0.3235294117647059
0.000270244133547,0.33088235294117646
0.000270244133547,0.3382352941176471
0.000270244133547,0.34558823529411764
0.000270244133547,0.35294117647058826
0.000405366200321,0.3602941176470588
0.000450406889245,0.36764705882352944
0.000450406889245,0.375
0.000450406889245,0.38235294117647056
0.000540488267094,0.3897058823529412
0.000540488267094,0.39705882352941174
0.000540488267094,0.40441176470588236
0.000540488267094,0.4117647058823529
0.000540488267094,0.41911764705882354
0.000540488267094,0.4264705882352941
0.000540488267094,0.4338235294117647
0.000675610333868,0.4411764705882353
0.000810732400642,0.4485294117647059
0.000810732400642,0.45588235294117646
0.00099089515634,0.4632352941176471
0.00108097653419,0.47058823529411764
0.00108097653419,0.47794117647058826
0.00162146480128,0.4852941176470588
0.0022069937573,0.49264705882352944
0.00391853993643,0.5
0.00400862131428,0.5073529411764706
0.00517967922632,0.5147058823529411
0.00644081851621,0.5220588235294118
0.00653089989406,0.5294117647058824
0.0069813067833,0.5367647058823529
0.00707138816115,0.5441176470588235
0.00761187642825,0.5514705882352942
0.0128118708511,0.5588235294117647
0.0130434893939,0.5661764705882353
0.0151786873309,0.5735294117647058
0.0152211697578,0.5808823529411765
0.0152548524617,0.5882352941176471
0.0152592105324,0.5955882352941176
0.015263068496,0.6029411764705882
0.0153526152254,0.6102941176470589
0.0154855508361,0.6176470588235294
0.0154958616612,0.625
0.0155314771541,0.6323529411764706
0.0155317020155,0.6397058823529411
0.0155322725307,0.6470588235294118
0.0155391501901,0.6544117647058824
0.0155414418323,0.6617647058823529
0.0155493322987,0.6691176470588235
0.0155521669722,0.6764705882352942
0.0155582068519,0.6838235294117647
0.0155745652948,0.6911764705882353
0.0155969967593,0.6985294117647058
0.0156078316299,0.7058823529411765
0.015607837031,0.7132352941176471
0.0156079742998,0.7205882352941176
0.0156079764629,0.7279411764705882
0.0156081093915,0.7352941176470589
0.0156081108336,0.7426470588235294
0.0156081108336,0.75
0.388478754753,0.7573529411764706
0.388955171299,0.7647058823529411
0.413129638929,0.7720588235294118
0.767630761272,0.7794117647058824
0.767630761272,0.7867647058823529
0.778728264738,0.7941176470588235
0.778728264738,0.8014705882352942
1.16543626426,0.8088235294117647
1.29548198713,0.8161764705882353
1.29548198713,0.8235294117647058
1.29548198713,0.8308823529411765
1.5263068496,0.8382352941176471
1.55317020155,0.8455882352941176
1.55582068519,0.8529411764705882
1.5607837031,0.8602941176470589
1.56079764629,0.8676470588235294
1.56081108336,0.875
1.56081108336,0.8823529411764706
1.94170600782,0.8897058823529411
2.28974773705,0.8970588235294118
2.33394496196,0.9044117647058824
2.84506815325,0.9117647058823529
3.05222790284,0.9191176470588235
3.12159507627,0.9264705882352942
4.68243310587,0.9338235294117647
6.3435059119,0.9411764705882353
11.3145502195,0.9485294117647058
11.50475991,0.9558823529411765
14.9484601473,0.9632352941176471
18.364604283,0.9705882352941176
18.8373383392,0.9779411764705882
19.6457913681,0.9852941176470589
20.3628235853,0.9926470588235294
21.6671725247,1.0
