Congestion,CDF
0.0,0.007352941176470588
0.0,0.014705882352941176
0.0,0.022058823529411766
0.0,0.029411764705882353
0.0,0.03676470588235294
0.0,0.04411764705882353
0.0,0.051470588235294115
0.0,0.058823529411764705
0.0,0.0661764705882353
0.0,0.07352941176470588
0.0,0.08088235294117647
0.0,0.08823529411764706
0.0,0.09558823529411764
0.0,0.10294117647058823
6.52801932932e-06,0.11029411764705882
6.52801932932e-06,0.11764705882352941
6.52801932932e-06,0.125
6.52801932932e-06,0.1323529411764706
6.52801932932e-06,0.13970588235294118
6.52801932932e-06,0.14705882352941177
6.52801932932e-06,0.15441176470588236
6.52801932932e-06,0.16176470588235295
6.52801932932e-06,0.16911764705882354
6.52801932932e-06,0.17647058823529413
6.52801932932e-06,0.18382352941176472
6.52801932932e-06,0.19117647058823528
6.52801932932e-06,0.19852941176470587
6.52801932932e-06,0.20588235294117646
6.52801932932e-06,0.21323529411764705
6.52801932932e-06,0.22058823529411764
6.52801932932e-06,0.22794117647058823
6.52801932932e-06,0.23529411764705882
6.52801932932e-06,0.2426470588235294
6.52801932932e-06,0.25
6.52801932932e-06,0.25735294117647056
6.52801932932e-06,0.2647058823529412
6.52801932932e-06,0.27205882352941174
6.52801932932e-06,0.27941176470588236
6.52801932932e-06,0.2867647058823529
6.52801932932e-06,0.29411764705882354
6.52801932932e-06,0.3014705882352941
0.000163200483233,0.3088235294117647
0.000163200483233,0.3161764705882353
0.000176256521892,0.3235294117647059
0.000326400966466,0.33088235294117646
0.000326400966466,0.3382352941176471
0.000326400966466,0.34558823529411764
0.000326400966466,0.35294117647058826
0.000489601449699,0.3602941176470588
0.000544001610777,0.36764705882352944
0.000544001610777,0.375
0.000544001610777,0.38235294117647056
0.000652801932932,0.3897058823529412
0.000652801932932,0.39705882352941174
0.000652801932932,0.40441176470588236
0.000652801932932,0.4117647058823529
0.000652801932932,0.41911764705882354
0.000652801932932,0.4264705882352941
0.000652801932932,0.4338235294117647
0.000816002416165,0.4411764705882353
0.000979202899398,0.4485294117647059
0.000979202899398,0.45588235294117646
0.00119680354371,0.4632352941176471
0.00130560386586,0.47058823529411764
0.00130560386586,0.47794117647058826
0.0019584057988,0.4852941176470588
0.00266560789281,0.49264705882352944
0.00473281401376,0.5
0.00484161433591,0.5073529411764706
0.00625601852393,0.5147058823529411
0.00777922303411,0.5220588235294118
0.00788802335627,0.5294117647058824
0.00789718453837,0.5367647058823529
0.00802153705178,0.5441176470588235
0.00843202496704,0.5514705882352942
0.0085408252892,0.5588235294117647
0.00905554173646,0.5661764705882353
0.00905554173646,0.5735294117647058
0.00907368540708,0.5808823529411765
0.00907368540708,0.5882352941176471
0.00910931713653,0.5955882352941176
0.00915525447211,0.6029411764705882
0.00919362722213,0.6102941176470589
0.00925577451686,0.6176470588235294
0.00925850787879,0.625
0.00928932735523,0.6323529411764706
0.00928932735523,0.6397058823529411
0.00928932735523,0.6470588235294118
0.00929720221437,0.6544117647058824
0.00929982657952,0.6617647058823529
0.00931138126212,0.6691176470588235
0.00931138126212,0.6764705882352942
0.00931532236831,0.6838235294117647
0.00933155574717,0.6911764705882353
0.00935175426538,0.6985294117647058
0.00936187458063,0.7058823529411765
0.00936187458063,0.7132352941176471
0.00936196096793,0.7205882352941176
0.00936196096793,0.7279411764705882
0.00936207714786,0.7352941176470589
0.00936207714786,0.7426470588235294
0.00936207714786,0.75
0.232430055359,0.7573529411764706
0.232883059208,0.7647058823529411
0.247576338187,0.7720588235294118
0.457762723605,0.7794117647058824
0.457762723605,0.7867647058823529
0.466577787358,0.7941176470588235
0.466577787358,0.8014705882352942
0.697290166078,0.8088235294117647
0.775307333884,0.8161764705882353
0.775307333884,0.8235294117647058
0.775307333884,0.8308823529411765
0.907368540708,0.8382352941176471
0.928932735523,0.8455882352941176
0.931532236831,0.8529411764705882
0.936187458063,0.8602941176470589
0.936196096793,0.8676470588235294
0.936207714786,0.875
0.936207714786,0.8823529411764706
1.16136279088,0.8897058823529411
1.36331689725,0.8970588235294118
1.39771591357,0.9044117647058824
1.70115812176,0.9117647058823529
1.81473708142,0.9191176470588235
1.87239219359,0.9264705882352942
2.80862314436,0.9338235294117647
3.79453559581,0.9411764705882353
6.78627331328,0.9485294117647058
6.87903389287,0.9558823529411765
8.96333386106,0.9632352941176471
10.9626420452,0.9705882352941176
11.2921879008,0.9779411764705882
11.752360499,0.9852941176470589
12.2031196145,0.9926470588235294
13.0052733197,1.0
