Congestion,CDF
0.0,0.007352941176470588
0.0,0.014705882352941176
0.0,0.022058823529411766
0.0,0.029411764705882353
0.0,0.03676470588235294
0.0,0.04411764705882353
0.0,0.051470588235294115
0.0,0.058823529411764705
0.0,0.0661764705882353
0.0,0.07352941176470588
0.0,0.08088235294117647
0.0,0.08823529411764706
0.0,0.09558823529411764
0.0,0.10294117647058823
4.67688577675e-07,0.11029411764705882
4.67688577675e-07,0.11764705882352941
4.67688577675e-07,0.125
4.67688577675e-07,0.1323529411764706
4.67688577675e-07,0.13970588235294118
4.67688577675e-07,0.14705882352941177
4.67688577675e-07,0.15441176470588236
4.67688577675e-07,0.16176470588235295
4.67688577675e-07,0.16911764705882354
4.67688577675e-07,0.17647058823529413
4.67688577675e-07,0.18382352941176472
4.67688577675e-07,0.19117647058823528
4.67688577675e-07,0.19852941176470587
4.67688577675e-07,0.20588235294117646
4.67688577675e-07,0.21323529411764705
4.67688577675e-07,0.22058823529411764
4.67688577675e-07,0.22794117647058823
4.67688577675e-07,0.23529411764705882
4.67688577675e-07,0.2426470588235294
4.67688577675e-07,0.25
4.67688577675e-07,0.25735294117647056
4.67688577675e-07,0.2647058823529412
4.67688577675e-07,0.27205882352941174
4.67688577675e-07,0.27941176470588236
4.67688577675e-07,0.2867647058823529
4.67688577675e-07,0.29411764705882354
4.67688577675e-07,0.3014705882352941
1.16922144419e-05,0.3088235294117647
1.16922144419e-05,0.3161764705882353
1.26275915972e-05,0.3235294117647059
2.33844288838e-05,0.33088235294117646
2.33844288838e-05,0.3382352941176471
2.33844288838e-05,0.34558823529411764
2.33844288838e-05,0.35294117647058826
3.50766433257e-05,0.3602941176470588
3.89740481396e-05,0.36764705882352944
3.89740481396e-05,0.375
3.89740481396e-05,0.38235294117647056
4.67688577675e-05,0.3897058823529412
4.67688577675e-05,0.39705882352941174
4.67688577675e-05,0.40441176470588236
4.67688577675e-05,0.4117647058823529
4.67688577675e-05,0.41911764705882354
4.67688577675e-05,0.4264705882352941
4.67688577675e-05,0.4338235294117647
5.84610722094e-05,0.4411764705882353
7.01532866513e-05,0.4485294117647059
7.01532866513e-05,0.45588235294117646
8.57429059072e-05,0.4632352941176471
9.35377155351e-05,0.47058823529411764
9.35377155351e-05,0.47794117647058826
0.000140306573303,0.4852941176470588
0.000190972835884,0.49264705882352944
0.000339074218815,0.5
0.000346869028443,0.5073529411764706
0.000448201553606,0.5147058823529411
0.000557328888397,0.5220588235294118
0.000565123698024,0.5294117647058824
0.000604097746164,0.5367647058823529
0.000611892555792,0.5441176470588235
0.00065866141356,0.5514705882352942
0.0616820333726,0.5588235294117647
0.0622781083889,0.5661764705882353
0.068989533878,0.5735294117647058
0.0690354896219,0.5808823529411765
0.0691259064383,0.5882352941176471
0.0691609696087,0.5955882352941176
0.0691788158969,0.6029411764705882
0.0691867064323,0.6102941176470589
0.0692378657586,0.6176470588235294
0.0692489537739,0.625
0.069251719007,0.6323529411764706
0.0692554207377,0.6397058823529411
0.0692577417186,0.6470588235294118
0.0692581999326,0.6544117647058824
0.0692584863509,0.6617647058823529
0.0692589977411,0.6691176470588235
0.0692591527663,0.6764705882352942
0.0692600711678,0.6838235294117647
0.0692600724575,0.6911764705882353
0.0692645584665,0.6985294117647058
0.0692659485712,0.7058823529411765
0.0692659566712,0.7132352941176471
0.0692660424972,0.7205882352941176
0.0692660449211,0.7279411764705882
0.0692661130486,0.7352941176470589
0.0692661146645,0.7426470588235294
0.0692661146645,0.75
1.73145499832,0.7573529411764706
1.73150181144,0.7647058823529411
1.85457113855,0.7720588235294118
3.45933532161,0.7794117647058824
3.45933532161,0.7867647058823529
3.46300355839,0.7941176470588235
3.46300355839,0.8014705882352942
5.19436499495,0.8088235294117647
5.77154820037,0.8161764705882353
5.77154820037,0.8235294117647058
5.77154820037,0.8308823529411765
6.91788158969,0.8382352941176471
6.92589977411,0.8455882352941176
6.92600724575,0.8529411764705882
6.92659566712,0.8602941176470589
6.92660449211,0.8676470588235294
6.92661146645,0.875
6.92661146645,0.8823529411764706
8.65737027494,0.8897058823529411
10.3719259654,0.8970588235294118
10.3885456322,0.9044117647058824
12.6964435778,0.9117647058823529
13.8339785506,0.9191176470588235
13.8532087418,0.9264705882352942
20.7798342378,0.9338235294117647
28.2806668845,0.9411764705882353
50.2177353153,0.9485294117647058
51.3602323598,0.9558823529411765
66.3787429207,0.9632352941176471
82.4650902636,0.9705882352941176
83.6924604535,0.9779411764705882
88.6332936008,0.9852941176470589
90.5960094157,0.9926470588235294
96.8238202546,1.0
