Congestion,CDF
0.0,0.007352941176470588
0.0,0.014705882352941176
0.0,0.022058823529411766
0.0,0.029411764705882353
0.0,0.03676470588235294
0.0,0.04411764705882353
0.0,0.051470588235294115
0.0,0.058823529411764705
0.0,0.0661764705882353
0.0,0.07352941176470588
0.0,0.08088235294117647
0.0,0.08823529411764706
0.0,0.09558823529411764
0.0,0.10294117647058823
5.86125821296e-07,0.11029411764705882
5.86125821296e-07,0.11764705882352941
5.86125821296e-07,0.125
5.86125821296e-07,0.1323529411764706
5.86125821296e-07,0.13970588235294118
5.86125821296e-07,0.14705882352941177
5.86125821296e-07,0.15441176470588236
5.86125821296e-07,0.16176470588235295
5.86125821296e-07,0.16911764705882354
5.86125821296e-07,0.17647058823529413
5.86125821296e-07,0.18382352941176472
5.86125821296e-07,0.19117647058823528
5.86125821296e-07,0.19852941176470587
5.86125821296e-07,0.20588235294117646
5.86125821296e-07,0.21323529411764705
5.86125821296e-07,0.22058823529411764
5.86125821296e-07,0.22794117647058823
5.86125821296e-07,0.23529411764705882
5.86125821296e-07,0.2426470588235294
5.86125821296e-07,0.25
5.86125821296e-07,0.25735294117647056
5.86125821296e-07,0.2647058823529412
5.86125821296e-07,0.27205882352941174
5.86125821296e-07,0.27941176470588236
5.86125821296e-07,0.2867647058823529
5.86125821296e-07,0.29411764705882354
5.86125821296e-07,0.3014705882352941
1.46531455324e-05,0.3088235294117647
1.46531455324e-05,0.3161764705882353
1.5825397175e-05,0.3235294117647059
2.93062910648e-05,0.33088235294117646
2.93062910648e-05,0.3382352941176471
2.93062910648e-05,0.34558823529411764
2.93062910648e-05,0.35294117647058826
4.39594365972e-05,0.3602941176470588
4.88438184413e-05,0.36764705882352944
4.88438184413e-05,0.375
4.88438184413e-05,0.38235294117647056
5.86125821296e-05,0.3897058823529412
5.86125821296e-05,0.39705882352941174
5.86125821296e-05,0.40441176470588236
5.86125821296e-05,0.4117647058823529
5.86125821296e-05,0.41911764705882354
5.86125821296e-05,0.4264705882352941
5.86125821296e-05,0.4338235294117647
7.3265727662e-05,0.4411764705882353
8.79188731943e-05,0.4485294117647059
8.79188731943e-05,0.45588235294117646
0.000107456400571,0.4632352941176471
0.000117225164259,0.47058823529411764
0.000117225164259,0.47794117647058826
0.000175837746389,0.4852941176470588
0.000239334710362,0.49264705882352944
0.000424941220439,0.5
0.000434709984128,0.5073529411764706
0.000561703912075,0.5147058823529411
0.000698466603711,0.5220588235294118
0.000708235367399,0.5294117647058824
0.00075707918584,0.5367647058823529
0.000766847949528,0.5441176470588235
0.000825460531658,0.5514705882352942
0.0448473495294,0.5588235294117647
0.0456761000022,0.5661764705882353
0.0552916023413,0.5735294117647058
0.0553458157392,0.5808823529411765
0.0554722401225,0.5882352941176471
0.0555086291866,0.5955882352941176
0.0555298161957,0.6029411764705882
0.0555373207996,0.6102941176470589
0.0555884325301,0.6176470588235294
0.0556004999263,0.625
0.0556028105082,0.6323529411764706
0.0556070021722,0.6397058823529411
0.0556093724871,0.6470588235294118
0.0556098376749,0.6544117647058824
0.0556100842875,0.6617647058823529
0.0556106310795,0.6691176470588235
0.0556107874642,0.6764705882352942
0.0556117003677,0.6838235294117647
0.0556117114247,0.6911764705882353
0.0556161894144,0.6985294117647058
0.0556175885032,0.7058823529411765
0.0556175967744,0.7132352941176471
0.0556176826169,0.7205882352941176
0.0556176850546,0.7279411764705882
0.0556177531738,0.7352941176470589
0.0556177547989,0.7426470588235294
0.0556177547989,0.75
1.39024594187,0.7573529411764706
1.39029278562,0.7647058823529411
1.47982174897,0.7720588235294118
2.77686603998,0.7794117647058824
2.77686603998,0.7867647058823529
2.78058501839,0.7941176470588235
2.78058501839,0.8014705882352942
4.17073782562,0.8088235294117647
4.63418447706,0.8161764705882353
4.63418447706,0.8235294117647058
4.63418447706,0.8308823529411765
5.55298161957,0.8382352941176471
5.56106310795,0.8455882352941176
5.56117114247,0.8529411764705882
5.56175967744,0.8602941176470589
5.56176850546,0.8676470588235294
5.56177547989,0.875
5.56177547989,0.8823529411764706
6.95132468829,0.8897058823529411
8.32409005223,0.8970588235294118
8.3412852356,0.9044117647058824
10.1942344697,0.9117647058823529
11.1038445382,0.9191176470588235
11.1235367671,0.9264705882352942
16.6853262772,0.9338235294117647
22.707580702,0.9411764705882353
40.3226743577,0.9485294117647058
41.2375244647,0.9558823529411765
53.2990627946,0.9632352941176471
66.1946192893,0.9705882352941176
67.200629081,0.9779411764705882
70.6793542423,0.9852941176470589
72.7352106549,0.9926470588235294
77.3028206551,1.0
