Congestion,CDF
0.0,0.007352941176470588
0.0,0.014705882352941176
0.0,0.022058823529411766
0.0,0.029411764705882353
0.0,0.03676470588235294
0.0,0.04411764705882353
0.0,0.051470588235294115
0.0,0.058823529411764705
0.0,0.0661764705882353
0.0,0.07352941176470588
0.0,0.08088235294117647
0.0,0.08823529411764706
0.0,0.09558823529411764
0.0,0.10294117647058823
8.58689806144e-07,0.11029411764705882
8.58689806144e-07,0.11764705882352941
8.58689806144e-07,0.125
8.58689806144e-07,0.1323529411764706
8.58689806144e-07,0.13970588235294118
8.58689806144e-07,0.14705882352941177
8.58689806144e-07,0.15441176470588236
8.58689806144e-07,0.16176470588235295
8.58689806144e-07,0.16911764705882354
8.58689806144e-07,0.17647058823529413
8.58689806144e-07,0.18382352941176472
8.58689806144e-07,0.19117647058823528
8.58689806144e-07,0.19852941176470587
8.58689806144e-07,0.20588235294117646
8.58689806144e-07,0.21323529411764705
8.58689806144e-07,0.22058823529411764
8.58689806144e-07,0.22794117647058823
8.58689806144e-07,0.23529411764705882
8.58689806144e-07,0.2426470588235294
8.58689806144e-07,0.25
8.58689806144e-07,0.25735294117647056
8.58689806144e-07,0.2647058823529412
8.58689806144e-07,0.27205882352941174
8.58689806144e-07,0.27941176470588236
8.58689806144e-07,0.2867647058823529
8.58689806144e-07,0.29411764705882354
8.58689806144e-07,0.3014705882352941
2.14672451536e-05,0.3088235294117647
2.14672451536e-05,0.3161764705882353
2.31846247659e-05,0.3235294117647059
4.29344903072e-05,0.33088235294117646
4.29344903072e-05,0.3382352941176471
4.29344903072e-05,0.34558823529411764
4.29344903072e-05,0.35294117647058826
6.44017354608e-05,0.3602941176470588
7.15574838453e-05,0.36764705882352944
7.15574838453e-05,0.375
7.15574838453e-05,0.38235294117647056
8.58689806144e-05,0.3897058823529412
8.58689806144e-05,0.39705882352941174
8.58689806144e-05,0.40441176470588236
8.58689806144e-05,0.4117647058823529
8.58689806144e-05,0.41911764705882354
8.58689806144e-05,0.4264705882352941
8.58689806144e-05,0.4338235294117647
0.000107336225768,0.4411764705882353
0.000128803470922,0.4485294117647059
0.000128803470922,0.45588235294117646
0.00015742646446,0.4632352941176471
0.000171737961229,0.47058823529411764
0.000171737961229,0.47794117647058826
0.000257606941843,0.4852941176470588
0.000350631670842,0.49264705882352944
0.000622550109454,0.5
0.000636861606223,0.5073529411764706
0.000822911064221,0.5147058823529411
0.00102327201899,0.5220588235294118
0.00103758351576,0.5294117647058824
0.0011091409996,0.5367647058823529
0.00112345249637,0.5441176470588235
0.00120932147699,0.5514705882352942
0.0232275517991,0.5588235294117647
0.0243316792363,0.5661764705882353
0.038118806695,0.5735294117647058
0.0381918945072,0.5808823529411765
0.0383955223374,0.5882352941176471
0.0384359755251,0.5955882352941176
0.038466701889,0.6029411764705882
0.0384725989997,0.6102941176470589
0.0385246918503,0.6176470588235294
0.0385396589551,0.625
0.0385406825306,0.6323529411764706
0.0385463086462,0.6397058823529411
0.0385488694172,0.6470588235294118
0.038549369153,0.6544117647058824
0.0385494588272,0.6617647058823529
0.0385501426097,0.6691176470588235
0.0385503067222,0.6764705882352942
0.0385511885339,0.6838235294117647
0.0385512524684,0.6911764705882353
0.0385557014397,0.6985294117647058
0.0385571375162,0.7058823529411765
0.0385571466876,0.7132352941176471
0.0385572326586,0.7205882352941176
0.038557235196,0.7279411764705882
0.0385573032583,0.7352941176470589
0.0385573049499,0.7426470588235294
0.0385573049499,0.75
0.963734228826,0.7573529411764706
0.963781311711,0.7647058823529411
1.01009902736,0.7720588235294118
1.92362994998,0.7794117647058824
1.92362994998,0.7867647058823529
1.9275594267,0.7941176470588235
1.9275594267,0.8014705882352942
2.89120268648,0.8088235294117647
3.21247785444,0.8161764705882353
3.21247785444,0.8235294117647058
3.21247785444,0.8308823529411765
3.8466701889,0.8382352941176471
3.85501426097,0.8455882352941176
3.85512524684,0.8529411764705882
3.85571466876,0.8602941176470589
3.8557235196,0.8676470588235294
3.85573049499,0.875
3.85573049499,0.8823529411764706
4.81876490105,0.8897058823529411
5.76318218372,0.8970588235294118
5.78219029132,0.9044117647058824
7.06644374995,0.9117647058823529
7.6902677414,0.9191176470588235
7.71144678546,0.9264705882352942
11.5671913158,0.9338235294117647
15.7412028992,0.9411764705882353
27.9538478333,0.9485294117647058
28.5837457841,0.9558823529411765
36.9494552584,0.9632352941176471
45.8490763788,0.9705882352941176
46.5857138028,0.9779411764705882
48.1718315587,0.9852941176470589
50.4049032536,0.9926470588235294
52.8380711772,1.0
