Congestion,CDF
0.0,0.007352941176470588
0.0,0.014705882352941176
0.0,0.022058823529411766
0.0,0.029411764705882353
0.0,0.03676470588235294
0.0,0.04411764705882353
0.0,0.051470588235294115
0.0,0.058823529411764705
0.0,0.0661764705882353
0.0,0.07352941176470588
0.0,0.08088235294117647
0.0,0.08823529411764706
0.0,0.09558823529411764
0.0,0.10294117647058823
4.34793273917e-07,0.11029411764705882
4.34793273917e-07,0.11764705882352941
4.34793273917e-07,0.125
4.34793273917e-07,0.1323529411764706
4.34793273917e-07,0.13970588235294118
4.34793273917e-07,0.14705882352941177
4.34793273917e-07,0.15441176470588236
4.34793273917e-07,0.16176470588235295
4.34793273917e-07,0.16911764705882354
4.34793273917e-07,0.17647058823529413
4.34793273917e-07,0.18382352941176472
4.34793273917e-07,0.19117647058823528
4.34793273917e-07,0.19852941176470587
4.34793273917e-07,0.20588235294117646
4.34793273917e-07,0.21323529411764705
4.34793273917e-07,0.22058823529411764
4.34793273917e-07,0.22794117647058823
4.34793273917e-07,0.23529411764705882
4.34793273917e-07,0.2426470588235294
4.34793273917e-07,0.25
4.34793273917e-07,0.25735294117647056
4.34793273917e-07,0.2647058823529412
4.34793273917e-07,0.27205882352941174
4.34793273917e-07,0.27941176470588236
4.34793273917e-07,0.2867647058823529
4.34793273917e-07,0.29411764705882354
4.34793273917e-07,0.3014705882352941
1.08698318479e-05,0.3088235294117647
1.08698318479e-05,0.3161764705882353
1.17394183958e-05,0.3235294117647059
2.17396636959e-05,0.33088235294117646
2.17396636959e-05,0.3382352941176471
2.17396636959e-05,0.34558823529411764
2.17396636959e-05,0.35294117647058826
3.26094955438e-05,0.3602941176470588
3.62327728264e-05,0.36764705882352944
3.62327728264e-05,0.375
3.62327728264e-05,0.38235294117647056
4.34793273917e-05,0.3897058823529412
4.34793273917e-05,0.39705882352941174
4.34793273917e-05,0.40441176470588236
4.34793273917e-05,0.4117647058823529
4.34793273917e-05,0.41911764705882354
4.34793273917e-05,0.4264705882352941
4.34793273917e-05,0.4338235294117647
5.43491592397e-05,0.4411764705882353
6.52189910876e-05,0.4485294117647059
6.52189910876e-05,0.45588235294117646
7.97121002182e-05,0.4632352941176471
8.69586547835e-05,0.47058823529411764
8.69586547835e-05,0.47794117647058826
0.000130437982175,0.4852941176470588
0.00017754058685,0.49264705882352944
0.00031522512359,0.5
0.000322471678155,0.5073529411764706
0.000416676887504,0.5147058823529411
0.000518128651418,0.5220588235294118
0.000525375205983,0.5294117647058824
0.00056160797881,0.5367647058823529
0.000568854533375,0.5441176470588235
0.000612333860767,0.5514705882352942
0.0678889387201,0.5588235294117647
0.0684013264206,0.5661764705882353
0.0741215240273,0.5735294117647058
0.0741651793508,0.5808823529411765
0.0742453180801,0.5882352941176471
0.0742800622278,0.5955882352941176
0.0742970830008,0.6029411764705882
0.0743050532433,0.6102941176470589
0.0743562589447,0.6176470588235294
0.0743671081389,0.625
0.0743699860633,0.6323529411764706
0.0743735678248,0.6397058823529411
0.0743758783239,0.6470588235294118
0.0743763352426,0.6544117647058824
0.0743766300178,0.6617647058823529
0.074377133892,0.6691176470588235
0.0743772886767,0.6764705882352942
0.0743782075827,0.6838235294117647
0.0743782080521,0.6911764705882353
0.0743826953154,0.6985294117647058
0.0743840835563,0.7058823529411765
0.0743840916251,0.7132352941176471
0.0743841774487,0.7205882352941176
0.0743841798704,0.7279411764705882
0.0743842479992,0.7352941176470589
0.0743842496137,0.7426470588235294
0.0743842496137,0.75
1.85940838107,0.7573529411764706
1.85945518957,0.7647058823529411
1.99488306287,0.7720588235294118
3.71525266216,0.7794117647058824
3.71525266216,0.7867647058823529
3.71891040261,0.7941176470588235
3.71891040261,0.8014705882352942
5.5782251432,0.8088235294117647
6.19805951476,0.8161764705882353
6.19805951476,0.8235294117647058
6.19805951476,0.8308823529411765
7.42970830008,0.8382352941176471
7.4377133892,0.8455882352941176
7.43782075827,0.8529411764705882
7.43840916251,0.8602941176470589
7.43841798704,0.8676470588235294
7.43842496137,0.875
7.43842496137,0.8823529411764706
9.29713724874,0.8897058823529411
11.1397844702,0.8970588235294118
11.1562671851,0.9044117647058824
13.6347703287,0.9117647058823529
14.8577145229,0.9191176470588235
14.8768357319,0.9264705882352942
22.3152747227,0.9338235294117647
30.3705731545,0.9411764705882353
53.9283831623,0.9485294117647058
55.1562220398,0.9558823529411765
71.2836226112,0.9632352941176471
88.5658734355,0.9705882352941176
89.8768884026,0.9779411764705882
95.3547673075,0.9852941176470589
97.2934063377,0.9926470588235294
104.13353898,1.0
