Congestion,CDF
0.0,0.007352941176470588
0.0,0.014705882352941176
0.0,0.022058823529411766
0.0,0.029411764705882353
0.0,0.03676470588235294
0.0,0.04411764705882353
0.0,0.051470588235294115
0.0,0.058823529411764705
0.0,0.0661764705882353
0.0,0.07352941176470588
0.0,0.08088235294117647
0.0,0.08823529411764706
0.0,0.09558823529411764
0.0,0.10294117647058823
1.55807919129e-06,0.11029411764705882
1.55807919129e-06,0.11764705882352941
1.55807919129e-06,0.125
1.55807919129e-06,0.1323529411764706
1.55807919129e-06,0.13970588235294118
1.55807919129e-06,0.14705882352941177
1.55807919129e-06,0.15441176470588236
1.55807919129e-06,0.16176470588235295
1.55807919129e-06,0.16911764705882354
1.55807919129e-06,0.17647058823529413
1.55807919129e-06,0.18382352941176472
1.55807919129e-06,0.19117647058823528
1.55807919129e-06,0.19852941176470587
1.55807919129e-06,0.20588235294117646
1.55807919129e-06,0.21323529411764705
1.55807919129e-06,0.22058823529411764
1.55807919129e-06,0.22794117647058823
1.55807919129e-06,0.23529411764705882
1.55807919129e-06,0.2426470588235294
1.55807919129e-06,0.25
1.55807919129e-06,0.25735294117647056
1.55807919129e-06,0.2647058823529412
1.55807919129e-06,0.27205882352941174
1.55807919129e-06,0.27941176470588236
1.55807919129e-06,0.2867647058823529
1.55807919129e-06,0.29411764705882354
1.55807919129e-06,0.3014705882352941
3.89519797823e-05,0.3088235294117647
3.89519797823e-05,0.3161764705882353
4.20681381649e-05,0.3235294117647059
7.79039595646e-05,0.33088235294117646
7.79039595646e-05,0.3382352941176471
7.79039595646e-05,0.34558823529411764
7.79039595646e-05,0.35294117647058826
0.000116855939347,0.3602941176470588
0.000129839932608,0.36764705882352944
0.000129839932608,0.375
0.000129839932608,0.38235294117647056
0.000155807919129,0.3897058823529412
0.000155807919129,0.39705882352941174
0.000155807919129,0.40441176470588236
0.000155807919129,0.4117647058823529
0.000155807919129,0.41911764705882354
0.000155807919129,0.4264705882352941
0.000155807919129,0.4338235294117647
0.000194759898911,0.4411764705882353
0.000233711878694,0.4485294117647059
0.000233711878694,0.45588235294117646
0.000285647851737,0.4632352941176471
0.000311615838258,0.47058823529411764
0.000311615838258,0.47794117647058826
0.000467423757387,0.4852941176470588
0.000636215669777,0.49264705882352944
0.00112960741369,0.5
0.00115557540021,0.5073529411764706
0.00149315922499,0.5147058823529411
0.00185671103629,0.5220588235294118
0.00188267902281,0.5294117647058824
0.00201251895542,0.5367647058823529
0.00203848694194,0.5441176470588235
0.00219429486107,0.5514705882352942
0.0192418737726,0.5588235294117647
0.0193654075984,0.5661764705882353
0.0206109308476,0.5735294117647058
0.0206342820892,0.5808823529411765
0.02063859489,0.5882352941176471
0.0206669153196,0.5955882352941176
0.0206716033012,0.6029411764705882
0.0206837792177,0.6102941176470589
0.0207290114365,0.6176470588235294
0.0207356782124,0.625
0.0207401928712,0.6323529411764706
0.0207417535105,0.6397058823529411
0.020743676531,0.6470588235294118
0.0207440246777,0.6544117647058824
0.0207446366867,0.6617647058823529
0.0207448633132,0.6691176470588235
0.0207449817085,0.6764705882352942
0.0207458358642,0.6838235294117647
0.0207460479646,0.6911764705882353
0.0207503426833,0.6985294117647058
0.0207516364819,0.7058823529411765
0.0207516413982,0.7132352941176471
0.0207517260691,0.7205882352941176
0.020751727846,0.7279411764705882
0.0207517962355,0.7352941176470589
0.0207517974201,0.7426470588235294
0.0207517974201,0.75
0.518600616942,0.7573529411764706
0.518645896604,0.7647058823529411
0.556686555367,0.7720588235294118
1.03418896089,0.7794117647058824
1.03418896089,0.7867647058823529
1.03730239823,0.7941176470588235
1.03730239823,0.8014705882352942
1.55580185083,0.8088235294117647
1.72870239791,0.8161764705882353
1.72870239791,0.8235294117647058
1.72870239791,0.8308823529411765
2.06716033012,0.8382352941176471
2.07448633132,0.8455882352941176
2.07458358642,0.8529411764705882
2.07516413982,0.8602941176470589
2.0751727846,0.8676470588235294
2.07517974201,0.875
2.07517974201,0.8823529411764706
2.59309878779,0.8897058823529411
3.09804844989,0.8970588235294118
3.11147774928,0.9044117647058824
3.80227021915,0.9117647058823529
4.13385186208,0.9191176470588235
4.15034539151,0.9264705882352942
6.22553910756,0.9338235294117647
8.4707511857,0.9411764705882353
15.0448581837,0.9485294117647058
15.3801115094,0.9558823529411765
19.8858972482,0.9632352941176471
24.6731049061,0.9705882352941176
25.0713942846,0.9779411764705882
26.5972922834,0.9852941176470589
27.1348224935,0.9926470588235294
29.0713632533,1.0
