Congestion,CDF
0.0,0.007352941176470588
0.0,0.014705882352941176
0.0,0.022058823529411766
0.0,0.029411764705882353
0.0,0.03676470588235294
0.0,0.04411764705882353
0.0,0.051470588235294115
0.0,0.058823529411764705
0.0,0.0661764705882353
0.0,0.07352941176470588
0.0,0.08088235294117647
0.0,0.08823529411764706
0.0,0.09558823529411764
0.0,0.10294117647058823
4.24898641903e-06,0.11029411764705882
4.24898641903e-06,0.11764705882352941
4.24898641903e-06,0.125
4.24898641903e-06,0.1323529411764706
4.24898641903e-06,0.13970588235294118
4.24898641903e-06,0.14705882352941177
4.24898641903e-06,0.15441176470588236
4.24898641903e-06,0.16176470588235295
4.24898641903e-06,0.16911764705882354
4.24898641903e-06,0.17647058823529413
4.24898641903e-06,0.18382352941176472
4.24898641903e-06,0.19117647058823528
4.24898641903e-06,0.19852941176470587
4.24898641903e-06,0.20588235294117646
4.24898641903e-06,0.21323529411764705
4.24898641903e-06,0.22058823529411764
4.24898641903e-06,0.22794117647058823
4.24898641903e-06,0.23529411764705882
4.24898641903e-06,0.2426470588235294
4.24898641903e-06,0.25
4.24898641903e-06,0.25735294117647056
4.24898641903e-06,0.2647058823529412
4.24898641903e-06,0.27205882352941174
4.24898641903e-06,0.27941176470588236
4.24898641903e-06,0.2867647058823529
4.24898641903e-06,0.29411764705882354
4.24898641903e-06,0.3014705882352941
0.000106224660476,0.3088235294117647
0.000106224660476,0.3161764705882353
0.000114722633314,0.3235294117647059
0.000212449320952,0.33088235294117646
0.000212449320952,0.3382352941176471
0.000212449320952,0.34558823529411764
0.000212449320952,0.35294117647058826
0.000318673981428,0.3602941176470588
0.000354082201586,0.36764705882352944
0.000354082201586,0.375
0.000354082201586,0.38235294117647056
0.000424898641903,0.3897058823529412
0.000424898641903,0.39705882352941174
0.000424898641903,0.40441176470588236
0.000424898641903,0.4117647058823529
0.000424898641903,0.41911764705882354
0.000424898641903,0.4264705882352941
0.000424898641903,0.4338235294117647
0.000531123302379,0.4411764705882353
0.000637347962855,0.4485294117647059
0.000637347962855,0.45588235294117646
0.00077898084349,0.4632352941176471
0.000849797283807,0.47058823529411764
0.000849797283807,0.47794117647058826
0.00127469592571,0.4852941176470588
0.00173500278777,0.49264705882352944
0.0030805151538,0.5
0.00315133159412,0.5073529411764706
0.00407194531824,0.5147058823529411
0.00506337548268,0.5220588235294118
0.005134191923,0.5294117647058824
0.00548827412459,0.5367647058823529
0.0055590905649,0.5441176470588235
0.00598398920681,0.5514705882352942
0.0386422979825,0.5588235294117647
0.0395016624814,0.5661764705882353
0.0495615456666,0.5735294117647058
0.049622302859,0.5808823529411765
0.0497588387759,0.5882352941176471
0.0497975399877,0.5955882352941176
0.0498213604495,0.6029411764705882
0.049833160907,0.6102941176470589
0.0498917128827,0.6176470588235294
0.0499044724665,0.625
0.0499086854103,0.6323529411764706
0.0499131582485,0.6397058823529411
0.0499156008299,0.6470588235294118
0.0499161726884,0.6544117647058824
0.0499165977724,0.6617647058823529
0.0499172222194,0.6691176470588235
0.0499174367357,0.6764705882352942
0.0499185502538,0.6838235294117647
0.0499188591048,0.6911764705882353
0.0499243220615,0.6985294117647058
0.0499260611114,0.7058823529411765
0.0499260708126,0.7132352941176471
0.0499261663033,0.7205882352941176
0.0499261692959,0.7279411764705882
0.0499262703868,0.7352941176470589
0.0499262723819,0.7426470588235294
0.0499262723819,0.75
1.24790431721,0.7573529411764706
1.24796375634,0.7647058823529411
1.32498478246,0.7720588235294118
2.49165804535,0.7794117647058824
2.49165804535,0.7867647058823529
2.49594295524,0.7941176470588235
2.49594295524,0.8014705882352942
3.74371295163,0.8088235294117647
4.15972143455,0.8161764705882353
4.15972143455,0.8235294117647058
4.15972143455,0.8308823529411765
4.98213604495,0.8382352941176471
4.99172222194,0.8455882352941176
4.99185502538,0.8529411764705882
4.99260708126,0.8602941176470589
4.99261692959,0.8676470588235294
4.99262723819,0.875
4.99262723819,0.8823529411764706
6.23964799078,0.8897058823529411
7.46754192294,0.8970588235294118
7.48725878009,0.9044117647058824
9.1501686812,0.9117647058823529
9.96189004372,0.9191176470588235
9.98523355992,0.9264705882352942
14.977881515,0.9338235294117647
20.3827514245,0.9411764705882353
36.1962920237,0.9485294117647058
37.0137494393,0.9558823529411765
47.8443886196,0.9632352941176471
59.3993359726,0.9705882352941176
60.3225159408,0.9779411764705882
63.2635657709,0.9852941176470589
65.2847462267,0.9926470588235294
69.2349124748,1.0
