Congestion,CDF
0.0,0.007352941176470588
0.0,0.014705882352941176
0.0,0.022058823529411766
0.0,0.029411764705882353
0.0,0.03676470588235294
0.0,0.04411764705882353
0.0,0.051470588235294115
0.0,0.058823529411764705
0.0,0.0661764705882353
0.0,0.07352941176470588
0.0,0.08088235294117647
0.0,0.08823529411764706
0.0,0.09558823529411764
0.0,0.10294117647058823
4.39063508611e-06,0.11029411764705882
4.39063508611e-06,0.11764705882352941
4.39063508611e-06,0.125
4.39063508611e-06,0.1323529411764706
4.39063508611e-06,0.13970588235294118
4.39063508611e-06,0.14705882352941177
4.39063508611e-06,0.15441176470588236
4.39063508611e-06,0.16176470588235295
4.39063508611e-06,0.16911764705882354
4.39063508611e-06,0.17647058823529413
4.39063508611e-06,0.18382352941176472
4.39063508611e-06,0.19117647058823528
4.39063508611e-06,0.19852941176470587
4.39063508611e-06,0.20588235294117646
4.39063508611e-06,0.21323529411764705
4.39063508611e-06,0.22058823529411764
4.39063508611e-06,0.22794117647058823
4.39063508611e-06,0.23529411764705882
4.39063508611e-06,0.2426470588235294
4.39063508611e-06,0.25
4.39063508611e-06,0.25735294117647056
4.39063508611e-06,0.2647058823529412
4.39063508611e-06,0.27205882352941174
4.39063508611e-06,0.27941176470588236
4.39063508611e-06,0.2867647058823529
4.39063508611e-06,0.29411764705882354
4.39063508611e-06,0.3014705882352941
0.000109765877153,0.3088235294117647
0.000109765877153,0.3161764705882353
0.000118547147325,0.3235294117647059
0.000219531754305,0.33088235294117646
0.000219531754305,0.3382352941176471
0.000219531754305,0.34558823529411764
0.000219531754305,0.35294117647058826
0.000329297631458,0.3602941176470588
0.000365886257176,0.36764705882352944
0.000365886257176,0.375
0.000365886257176,0.38235294117647056
0.000439063508611,0.3897058823529412
0.000439063508611,0.39705882352941174
0.000439063508611,0.40441176470588236
0.000439063508611,0.4117647058823529
0.000439063508611,0.41911764705882354
0.000439063508611,0.4264705882352941
0.000439063508611,0.4338235294117647
0.000548829385763,0.4411764705882353
0.000658595262916,0.4485294117647059
0.000658595262916,0.45588235294117646
0.000804949765786,0.4632352941176471
0.000878127017221,0.47058823529411764
0.000878127017221,0.47794117647058826
0.00131719052583,0.4852941176470588
0.00179284266016,0.49264705882352944
0.00318321043743,0.5
0.00325638768886,0.5073529411764706
0.00420769195752,0.5147058823529411
0.00523217347761,0.5220588235294118
0.00530535072905,0.5294117647058824
0.00567123698622,0.5367647058823529
0.00574441423766,0.5441176470588235
0.00618347774627,0.5514705882352942
0.0255481821222,0.5588235294117647
0.0265808832295,0.5661764705882353
0.0392524584539,0.5735294117647058
0.039325460945,0.5808823529411765
0.0395117127996,0.5882352941176471
0.0395531257282,0.5955882352941176
0.039583271483,0.6029411764705882
0.0395939746475,0.6102941176470589
0.0396532468435,0.6176470588235294
0.0396679356279,0.625
0.0396712958833,0.6323529411764706
0.0396767220751,0.6397058823529411
0.0396792939978,0.6470588235294118
0.0396798896837,0.6544117647058824
0.0396802080097,0.6617647058823529
0.0396809255158,0.6691176470588235
0.0396811453932,0.6764705882352942
0.0396822739565,0.6838235294117647
0.0396825462017,0.6911764705882353
0.0396880261369,0.6985294117647058
0.0396897904108,0.7058823529411765
0.0396898007346,0.7132352941176471
0.0396898963154,0.7205882352941176
0.0396898993777,0.7279411764705882
0.0396900004288,0.7352941176470589
0.0396900024704,0.7426470588235294
0.0396900024704,0.75
0.991997242093,0.7573529411764706
0.992056848913,0.7647058823529411
1.04290197094,0.7720588235294118
1.97969873238,0.7794117647058824
1.97969873238,0.7867647058823529
1.98412731008,0.7941176470588235
1.98412731008,0.8014705882352942
2.97599172628,0.8088235294117647
3.30669722427,0.8161764705882353
3.30669722427,0.8235294117647058
3.30669722427,0.8308823529411765
3.9583271483,0.8382352941176471
3.96809255158,0.8455882352941176
3.96822739565,0.8529411764705882
3.96898007346,0.8602941176470589
3.96898993777,0.8676470588235294
3.96900024704,0.875
3.96900024704,0.8823529411764706
4.96011178141,0.8897058823529411
5.93087001234,0.8970588235294118
5.9517995176,0.9044117647058824
7.27349078706,0.9117647058823529
7.91363972112,0.9191176470588235
7.93797956931,0.9264705882352942
11.907000537,0.9338235294117647
16.2029223582,0.9411764705882353
28.7749960697,0.9485294117647058
29.421436562,0.9558823529411765
38.0346232178,0.9632352941176471
47.1911921408,0.9705882352941176
47.9535523237,0.9779411764705882
49.7460103531,0.9852941176470589
51.8860984182,0.9926470588235294
54.5441867411,1.0
