Congestion,CDF
0.0,0.007352941176470588
0.0,0.014705882352941176
0.0,0.022058823529411766
0.0,0.029411764705882353
0.0,0.03676470588235294
0.0,0.04411764705882353
0.0,0.051470588235294115
0.0,0.058823529411764705
0.0,0.0661764705882353
0.0,0.07352941176470588
0.0,0.08088235294117647
0.0,0.08823529411764706
0.0,0.09558823529411764
0.0,0.10294117647058823
5.74545755843e-06,0.11029411764705882
5.74545755843e-06,0.11764705882352941
5.74545755843e-06,0.125
5.74545755843e-06,0.1323529411764706
5.74545755843e-06,0.13970588235294118
5.74545755843e-06,0.14705882352941177
5.74545755843e-06,0.15441176470588236
5.74545755843e-06,0.16176470588235295
5.74545755843e-06,0.16911764705882354
5.74545755843e-06,0.17647058823529413
5.74545755843e-06,0.18382352941176472
5.74545755843e-06,0.19117647058823528
5.74545755843e-06,0.19852941176470587
5.74545755843e-06,0.20588235294117646
5.74545755843e-06,0.21323529411764705
5.74545755843e-06,0.22058823529411764
5.74545755843e-06,0.22794117647058823
5.74545755843e-06,0.23529411764705882
5.74545755843e-06,0.2426470588235294
5.74545755843e-06,0.25
5.74545755843e-06,0.25735294117647056
5.74545755843e-06,0.2647058823529412
5.74545755843e-06,0.27205882352941174
5.74545755843e-06,0.27941176470588236
5.74545755843e-06,0.2867647058823529
5.74545755843e-06,0.29411764705882354
5.74545755843e-06,0.3014705882352941
0.000143636438961,0.3088235294117647
0.000143636438961,0.3161764705882353
0.000155127354078,0.3235294117647059
0.000287272877921,0.33088235294117646
0.000287272877921,0.3382352941176471
0.000287272877921,0.34558823529411764
0.000287272877921,0.35294117647058826
0.000430909316882,0.3602941176470588
0.000478788129869,0.36764705882352944
0.000478788129869,0.375
0.000478788129869,0.38235294117647056
0.000574545755843,0.3897058823529412
0.000574545755843,0.39705882352941174
0.000574545755843,0.40441176470588236
0.000574545755843,0.4117647058823529
0.000574545755843,0.41911764705882354
0.000574545755843,0.4264705882352941
0.000574545755843,0.4338235294117647
0.000718182194803,0.4411764705882353
0.000861818633764,0.4485294117647059
0.000861818633764,0.45588235294117646
0.00105333388571,0.4632352941176471
0.00114909151169,0.47058823529411764
0.00114909151169,0.47794117647058826
0.00172363726753,0.4852941176470588
0.00234606183636,0.49264705882352944
0.00416545672986,0.5
0.00426121435583,0.5073529411764706
0.00550606349349,0.5147058823529411
0.00684667025712,0.5220588235294118
0.0069424278831,0.5294117647058824
0.00742121601297,0.5367647058823529
0.00751697363894,0.5441176470588235
0.00809151939478,0.5514705882352942
0.0120256279697,0.5588235294117647
0.0120897623465,0.5661764705882353
0.0126983087108,0.5735294117647058
0.0126983087108,0.5808823529411765
0.0127150202753,0.5882352941176471
0.0127205135315,0.5955882352941176
0.0127205135315,0.6029411764705882
0.0127383719028,0.6102941176470589
0.0127784350947,0.6176470588235294
0.0127815941986,0.625
0.0127888556872,0.6323529411764706
0.0127888556872,0.6397058823529411
0.0127904218788,0.6470588235294118
0.0127907258579,0.6544117647058824
0.0127916378236,0.6617647058823529
0.0127916378236,0.6691176470588235
0.0127916378236,0.6764705882352942
0.0127926754477,0.6838235294117647
0.0127934446366,0.6911764705882353
0.012798033586,0.6985294117647058
0.0127994361825,0.7058823529411765
0.0127994361825,0.7132352941176471
0.0127995204705,0.7205882352941176
0.0127995204705,0.7279411764705882
0.0127996208197,0.7352941176470589
0.0127996208197,0.7426470588235294
0.0127996208197,0.75
0.319768146448,0.7573529411764706
0.319816886192,0.7647058823529411
0.343481158289,0.7720588235294118
0.636918595138,0.7794117647058824
0.636918595138,0.7867647058823529
0.63967223183,0.7941176470588235
0.63967223183,0.8014705882352942
0.959304439345,0.8088235294117647
1.0659324286,0.8161764705882353
1.0659324286,0.8235294117647058
1.0659324286,0.8308823529411765
1.27205135315,0.8382352941176471
1.27916378236,0.8455882352941176
1.27926754477,0.8529411764705882
1.27994361825,0.8602941176470589
1.27995204705,0.8676470588235294
1.27996208197,0.875
1.27996208197,0.8823529411764706
1.59893192881,0.8897058823529411
1.90674946621,0.8970588235294118
1.91855780055,0.9044117647058824
2.34409184846,0.9117647058823529
2.5441027063,0.9191176470588235
2.55990409409,0.9264705882352942
3.8398862459,0.9338235294117647
5.22319192213,0.9411764705882353
9.27949446269,0.9485294117647058
9.4820458752,0.9558823529411765
12.2649024817,0.9632352941176471
15.2027289188,0.9705882352941176
15.462345851,0.9779411764705882
16.4052917158,0.9852941176470589
16.7338478785,0.9926470588235294
17.9428241132,1.0
