Congestion,CDF
0.0,0.007352941176470588
0.0,0.014705882352941176
0.0,0.022058823529411766
0.0,0.029411764705882353
0.0,0.03676470588235294
0.0,0.04411764705882353
0.0,0.051470588235294115
0.0,0.058823529411764705
0.0,0.0661764705882353
0.0,0.07352941176470588
0.0,0.08088235294117647
0.0,0.08823529411764706
0.0,0.09558823529411764
0.0,0.10294117647058823
4.12977044649e-06,0.11029411764705882
4.12977044649e-06,0.11764705882352941
4.12977044649e-06,0.125
4.12977044649e-06,0.1323529411764706
4.12977044649e-06,0.13970588235294118
4.12977044649e-06,0.14705882352941177
4.12977044649e-06,0.15441176470588236
4.12977044649e-06,0.16176470588235295
4.12977044649e-06,0.16911764705882354
4.12977044649e-06,0.17647058823529413
4.12977044649e-06,0.18382352941176472
4.12977044649e-06,0.19117647058823528
4.12977044649e-06,0.19852941176470587
4.12977044649e-06,0.20588235294117646
4.12977044649e-06,0.21323529411764705
4.12977044649e-06,0.22058823529411764
4.12977044649e-06,0.22794117647058823
4.12977044649e-06,0.23529411764705882
4.12977044649e-06,0.2426470588235294
4.12977044649e-06,0.25
4.12977044649e-06,0.25735294117647056
4.12977044649e-06,0.2647058823529412
4.12977044649e-06,0.27205882352941174
4.12977044649e-06,0.27941176470588236
4.12977044649e-06,0.2867647058823529
4.12977044649e-06,0.29411764705882354
4.12977044649e-06,0.3014705882352941
0.000103244261162,0.3088235294117647
0.000103244261162,0.3161764705882353
0.000111503802055,0.3235294117647059
0.000206488522325,0.33088235294117646
0.000206488522325,0.3382352941176471
0.000206488522325,0.34558823529411764
0.000206488522325,0.35294117647058826
0.000309732783487,0.3602941176470588
0.000344147537208,0.36764705882352944
0.000344147537208,0.375
0.000344147537208,0.38235294117647056
0.000412977044649,0.3897058823529412
0.000412977044649,0.39705882352941174
0.000412977044649,0.40441176470588236
0.000412977044649,0.4117647058823529
0.000412977044649,0.41911764705882354
0.000412977044649,0.4264705882352941
0.000412977044649,0.4338235294117647
0.000516221305811,0.4411764705882353
0.000619465566974,0.4485294117647059
0.000619465566974,0.45588235294117646
0.000757124581857,0.4632352941176471
0.000825954089298,0.47058823529411764
0.000825954089298,0.47794117647058826
0.00123893113395,0.4852941176470588
0.00168632293232,0.49264705882352944
0.00299408357371,0.5
0.00306291308115,0.5073529411764706
0.00395769667789,0.5147058823529411
0.00492130978207,0.5220588235294118
0.00499013928951,0.5294117647058824
0.00533428682672,0.5367647058823529
0.00540311633416,0.5441176470588235
0.00581609337881,0.5514705882352942
0.058101952931,0.5588235294117647
0.0585665321454,0.5661764705882353
0.0637215459523,0.5735294117647058
0.063767734125,0.5808823529411765
0.0638412938459,0.5882352941176471
0.0638775401895,0.5955882352941176
0.0638952407031,0.6029411764705882
0.0639077957903,0.6102941176470589
0.0639663295379,0.6176470588235294
0.0639772852277,0.625
0.0639823300384,0.6323529411764706
0.0639859019897,0.6397058823529411
0.0639882492978,0.6470588235294118
0.0639888070203,0.6544117647058824
0.063989309305,0.6617647058823529
0.0639898653568,0.6691176470588235
0.0639900770531,0.6764705882352942
0.0639911818762,0.6838235294117647
0.0639915108157,0.6911764705882353
0.0639969690525,0.6985294117647058
0.0639986905713,0.7058823529411765
0.0639986999223,0.7132352941176471
0.0639987953765,0.7205882352941176
0.0639987983389,0.7279411764705882
0.0639988994478,0.7352941176470589
0.0639989014228,0.7426470588235294
0.0639989014228,0.75
1.59972017551,0.7573529411764706
1.5997795469,0.7647058823529411
1.71550913876,0.7720588235294118
3.19538978952,0.7794117647058824
3.19538978952,0.7867647058823529
3.19957554078,0.7941176470588235
3.19957554078,0.8014705882352942
4.79916052652,0.8088235294117647
5.33244136567,0.8161764705882353
5.33244136567,0.8235294117647058
5.33244136567,0.8308823529411765
6.38952407031,0.8382352941176471
6.39898653568,0.8455882352941176
6.39911818762,0.8529411764705882
6.39986999223,0.8602941176470589
6.39987983389,0.8676470588235294
6.39989014228,0.875
6.39989014228,0.8823529411764706
7.99872788082,0.8897058823529411
9.5795191741,0.8970588235294118
9.59816573976,0.9044117647058824
11.7301698884,0.9117647058823529
12.7772780893,0.9191176470588235
12.7997593715,0.9264705882352942
19.1996702293,0.9338235294117647
26.1290867127,0.9411764705882353
46.3989481972,0.9485294117647058
47.4512793444,0.9558823529411765
61.3306620089,0.9632352941176471
76.180231203,0.9705882352941176
77.3270607525,0.9779411764705882
81.9904264961,0.9852941176470589
83.703834165,0.9926470588235294
89.5604873795,1.0
