Congestion,CDF
0.0,0.007352941176470588
0.0,0.014705882352941176
0.0,0.022058823529411766
0.0,0.029411764705882353
0.0,0.03676470588235294
0.0,0.04411764705882353
0.0,0.051470588235294115
0.0,0.058823529411764705
0.0,0.0661764705882353
0.0,0.07352941176470588
0.0,0.08088235294117647
0.0,0.08823529411764706
0.0,0.09558823529411764
0.0,0.10294117647058823
4.21432710925e-06,0.11029411764705882
4.21432710925e-06,0.11764705882352941
4.21432710925e-06,0.125
4.21432710925e-06,0.1323529411764706
4.21432710925e-06,0.13970588235294118
4.21432710925e-06,0.14705882352941177
4.21432710925e-06,0.15441176470588236
4.21432710925e-06,0.16176470588235295
4.21432710925e-06,0.16911764705882354
4.21432710925e-06,0.17647058823529413
4.21432710925e-06,0.18382352941176472
4.21432710925e-06,0.19117647058823528
4.21432710925e-06,0.19852941176470587
4.21432710925e-06,0.20588235294117646
4.21432710925e-06,0.21323529411764705
4.21432710925e-06,0.22058823529411764
4.21432710925e-06,0.22794117647058823
4.21432710925e-06,0.23529411764705882
4.21432710925e-06,0.2426470588235294
4.21432710925e-06,0.25
4.21432710925e-06,0.25735294117647056
4.21432710925e-06,0.2647058823529412
4.21432710925e-06,0.27205882352941174
4.21432710925e-06,0.27941176470588236
4.21432710925e-06,0.2867647058823529
4.21432710925e-06,0.29411764705882354
4.21432710925e-06,0.3014705882352941
0.000105358177731,0.3088235294117647
0.000105358177731,0.3161764705882353
0.00011378683195,0.3235294117647059
0.000210716355462,0.33088235294117646
0.000210716355462,0.3382352941176471
0.000210716355462,0.34558823529411764
0.000210716355462,0.35294117647058826
0.000316074533193,0.3602941176470588
0.000351193925771,0.36764705882352944
0.000351193925771,0.375
0.000351193925771,0.38235294117647056
0.000421432710925,0.3897058823529412
0.000421432710925,0.39705882352941174
0.000421432710925,0.40441176470588236
0.000421432710925,0.4117647058823529
0.000421432710925,0.41911764705882354
0.000421432710925,0.4264705882352941
0.000421432710925,0.4338235294117647
0.000526790888656,0.4411764705882353
0.000632149066387,0.4485294117647059
0.000632149066387,0.45588235294117646
0.000772626636695,0.4632352941176471
0.000842865421849,0.47058823529411764
0.000842865421849,0.47794117647058826
0.00126429813277,0.4852941176470588
0.00172085023628,0.49264705882352944
0.0030553871542,0.5
0.00312562593936,0.5073529411764706
0.00403873014636,0.5147058823529411
0.00502207313852,0.5220588235294118
0.00509231192367,0.5294117647058824
0.00544350584944,0.5367647058823529
0.0055137446346,0.5441176470588235
0.00593517734552,0.5514705882352942
0.0429551026017,0.5588235294117647
0.0437530792461,0.5661764705882353
0.0529916058262,0.5735294117647058
0.0530493556611,0.5808823529411765
0.0531732274993,0.5882352941176471
0.0532113544489,0.5955882352941176
0.0532337801379,0.6029411764705882
0.0532457794667,0.6102941176470589
0.0533042678564,0.6176470588235294
0.0533166108369,0.625
0.0533210127665,0.6323529411764706
0.053325278409,0.6397058823529411
0.0533276965109,0.6470588235294118
0.0533282643785,0.6544117647058824
0.0533287094732,0.6617647058823529
0.0533293163327,0.6691176470588235
0.0533295300197,0.6764705882352942
0.0533306410616,0.6838235294117647
0.0533309557346,0.6911764705882353
0.0533364167537,0.6985294117647058
0.0533381512017,0.7058823529411765
0.0533381608023,0.7132352941176471
0.0533382562812,0.7205882352941176
0.0533382592641,0.7279411764705882
0.0533383603607,0.7352941176470589
0.0533383623493,0.7426470588235294
0.0533383623493,0.75
1.33320660946,0.7573529411764706
1.33326602654,0.7647058823529411
1.41888989763,0.7720588235294118
2.66228897334,0.7794117647058824
2.66228897334,0.7867647058823529
2.66654778673,0.7941176470588235
2.66654778673,0.8014705882352942
3.99961982838,0.8088235294117647
4.4440625197,0.8161764705882353
4.4440625197,0.8235294117647058
4.4440625197,0.8308823529411765
5.32337801379,0.8382352941176471
5.33293163327,0.8455882352941176
5.33306410616,0.8529411764705882
5.33381608023,0.8602941176470589
5.33382592641,0.8676470588235294
5.33383623493,0.875
5.33383623493,0.8823529411764706
6.66615961143,0.8897058823529411
7.97961172327,0.8970588235294118
7.99907562763,0.9044117647058824
9.77572360339,0.9117647058823529
10.6445134587,0.9191176470588235
10.6676515545,0.9264705882352942
16.0015085059,0.9338235294117647
21.7760247117,0.9411764705882353
38.6700572874,0.9485294117647058
39.5444640741,0.9558823529411765
51.1143092692,0.9632352941176471
63.4677498386,0.9705882352941176
64.4454861735,0.9779411764705882
67.7632600988,0.9852941176470589
69.7504217396,0.9926470588235294
74.1257296642,1.0
