Congestion,CDF
0.0,0.007352941176470588
0.0,0.014705882352941176
0.0,0.022058823529411766
0.0,0.029411764705882353
0.0,0.03676470588235294
0.0,0.04411764705882353
0.0,0.051470588235294115
0.0,0.058823529411764705
0.0,0.0661764705882353
0.0,0.07352941176470588
0.0,0.08088235294117647
0.0,0.08823529411764706
0.0,0.09558823529411764
0.0,0.10294117647058823
2.5025086177e-06,0.11029411764705882
2.5025086177e-06,0.11764705882352941
2.5025086177e-06,0.125
2.5025086177e-06,0.1323529411764706
2.5025086177e-06,0.13970588235294118
2.5025086177e-06,0.14705882352941177
2.5025086177e-06,0.15441176470588236
2.5025086177e-06,0.16176470588235295
2.5025086177e-06,0.16911764705882354
2.5025086177e-06,0.17647058823529413
2.5025086177e-06,0.18382352941176472
2.5025086177e-06,0.19117647058823528
2.5025086177e-06,0.19852941176470587
2.5025086177e-06,0.20588235294117646
2.5025086177e-06,0.21323529411764705
2.5025086177e-06,0.22058823529411764
2.5025086177e-06,0.22794117647058823
2.5025086177e-06,0.23529411764705882
2.5025086177e-06,0.2426470588235294
2.5025086177e-06,0.25
2.5025086177e-06,0.25735294117647056
2.5025086177e-06,0.2647058823529412
2.5025086177e-06,0.27205882352941174
2.5025086177e-06,0.27941176470588236
2.5025086177e-06,0.2867647058823529
2.5025086177e-06,0.29411764705882354
2.5025086177e-06,0.3014705882352941
6.25627154425e-05,0.3088235294117647
6.25627154425e-05,0.3161764705882353
6.75677326779e-05,0.3235294117647059
0.000125125430885,0.33088235294117646
0.000125125430885,0.3382352941176471
0.000125125430885,0.34558823529411764
0.000125125430885,0.35294117647058826
0.000187688146327,0.3602941176470588
0.000208542384808,0.36764705882352944
0.000208542384808,0.375
0.000208542384808,0.38235294117647056
0.00025025086177,0.3897058823529412
0.00025025086177,0.39705882352941174
0.00025025086177,0.40441176470588236
0.00025025086177,0.4117647058823529
0.00025025086177,0.41911764705882354
0.00025025086177,0.4264705882352941
0.00025025086177,0.4338235294117647
0.000312813577212,0.4411764705882353
0.000375376292655,0.4485294117647059
0.000375376292655,0.45588235294117646
0.000458793246578,0.4632352941176471
0.00050050172354,0.47058823529411764
0.00050050172354,0.47794117647058826
0.00075075258531,0.4852941176470588
0.00102185768556,0.49264705882352944
0.00169102088191,0.5
0.00181431874783,0.5073529411764706
0.00185602722479,0.5147058823529411
0.00239823742529,0.5220588235294118
0.00245450453175,0.5294117647058824
0.00298215610276,0.5367647058823529
0.00302386457972,0.5441176470588235
0.00323240696453,0.5514705882352942
0.00327411544149,0.5588235294117647
0.00352436630326,0.5661764705882353
0.0129269364283,0.5735294117647058
0.0130946125894,0.5808823529411765
0.0133223813932,0.5882352941176471
0.0134012955461,0.5955882352941176
0.0134667887292,0.6029411764705882
0.0135291194393,0.6102941176470589
0.0137179254915,0.6176470588235294
0.0137525680629,0.625
0.0137931187676,0.6323529411764706
0.0137952813318,0.6397058823529411
0.0137962701876,0.6470588235294118
0.0137983090004,0.6544117647058824
0.0138028430634,0.6617647058823529
0.0138042347784,0.6691176470588235
0.0138123670674,0.6764705882352942
0.0138226926489,0.6838235294117647
0.0138373224125,0.6911764705882353
0.0138618106634,0.6985294117647058
0.0138734410115,0.7058823529411765
0.0138734745316,0.7132352941176471
0.0138736282528,0.7205882352941176
0.0138736376791,0.7279411764705882
0.0138737688287,0.7352941176470589
0.013873775113,0.7426470588235294
0.013873775113,0.75
0.345071076584,0.7573529411764706
0.345567316223,0.7647058823529411
0.346596903545,0.7720588235294118
0.676455971965,0.7794117647058824
0.676455971965,0.7867647058823529
0.691866120626,0.7941176470588235
0.691866120626,0.8014705882352942
1.03521322975,0.8088235294117647
1.15077955209,0.8161764705882353
1.15077955209,0.8235294117647058
1.15077955209,0.8308823529411765
1.34667887292,0.8382352941176471
1.37952813318,0.8455882352941176
1.38226926489,0.8529411764705882
1.38734745316,0.8602941176470589
1.38736376791,0.8676470588235294
1.3873775113,0.875
1.3873775113,0.8823529411764706
1.72469809535,0.8897058823529411
2.00869411128,0.8970588235294118
2.07310282737,0.9044117647058824
2.52603635838,0.9117647058823529
2.68680842753,0.9191176470588235
2.7747265932,0.9264705882352942
4.16213190546,0.9338235294117647
5.63431765738,0.9411764705882353
10.0571173692,0.9485294117647058
10.2086025369,0.9558823529411765
13.2859441083,0.9632352941176471
16.1967987185,0.9705882352941176
16.3659008067,0.9779411764705882
16.7388778357,0.9852941176470589
18.0483390946,0.9926470588235294
18.2937895478,1.0
