Congestion,CDF
0.0,0.009433962264150943
0.0,0.018867924528301886
0.0,0.02830188679245283
0.0,0.03773584905660377
0.0,0.04716981132075472
0.0,0.05660377358490566
0.0,0.0660377358490566
0.0,0.07547169811320754
0.0,0.08490566037735849
0.0,0.09433962264150944
0.0,0.10377358490566038
0.0,0.11320754716981132
0.0,0.12264150943396226
0.0,0.1320754716981132
0.0,0.14150943396226415
0.0,0.1509433962264151
0.0,0.16037735849056603
0.0,0.16981132075471697
0.0,0.1792452830188679
0.0,0.18867924528301888
0.0,0.19811320754716982
0.0,0.20754716981132076
0.0,0.2169811320754717
0.0,0.22641509433962265
0.0,0.2358490566037736
0.0,0.24528301886792453
0.0,0.25471698113207547
0.0,0.2641509433962264
0.0,0.27358490566037735
0.0,0.2830188679245283
1.93374267744e-07,0.29245283018867924
4.98178769608e-06,0.3018867924528302
5.60210686792e-06,0.3113207547169811
7.59457531603e-06,0.32075471698113206
8.5729052842e-06,0.330188679245283
1.14073143632e-05,0.33962264150943394
1.73963297319e-05,0.3490566037735849
2.22682210381e-05,0.3584905660377358
2.35667812203e-05,0.36792452830188677
2.7486663685e-05,0.37735849056603776
3.38426655359e-05,0.3867924528301887
3.4618127653e-05,0.39622641509433965
3.6525531456e-05,0.4056603773584906
0.000234056384115,0.41509433962264153
0.000320830716464,0.42452830188679247
0.000320830716464,0.4339622641509434
0.000835058288928,0.44339622641509435
0.000835058288928,0.4528301886792453
0.000835058288928,0.46226415094339623
0.000855548577237,0.4716981132075472
0.000855548577237,0.4811320754716981
0.000855548577237,0.49056603773584906
0.00128120942797,0.5
0.00128218921769,0.5094339622641509
0.00129720546588,0.5188679245283019
0.00130113119718,0.5283018867924528
0.0013092296744,0.5377358490566038
0.00131018355177,0.5471698113207547
0.0013146498554,0.5566037735849056
0.00132084485787,0.5660377358490566
0.0015773614558,0.5754716981132075
0.0015773614558,0.5849056603773585
0.00159580794366,0.5943396226415094
0.00160931565238,0.6037735849056604
0.00167011657786,0.6132075471698113
0.00167011657786,0.6226415094339622
0.00171659352096,0.6320754716981132
0.00223802937007,0.6415094339622641
0.00227837259481,0.6509433962264151
0.002297238536,0.660377358490566
0.00229860303621,0.6698113207547169
0.002904211528,0.6792452830188679
0.002904211528,0.6886792452830188
0.00359838732044,0.6981132075471698
0.00359838732044,0.7075471698113207
0.00454435542857,0.7169811320754716
0.00552729100939,0.7264150943396226
0.0074699669539,0.7358490566037735
0.0116482708735,0.7452830188679245
0.011816631898,0.7547169811320755
0.0208513864496,0.7641509433962265
0.0252250639998,0.7735849056603774
0.0448820984153,0.7830188679245284
0.0448820984153,0.7924528301886793
0.0603493369642,0.8018867924528302
0.0603493369642,0.8113207547169812
0.0603493369642,0.8207547169811321
0.119685595774,0.8301886792452831
0.119685595774,0.839622641509434
0.119685595774,0.8490566037735849
0.120698673928,0.8584905660377359
0.120698673928,0.8679245283018868
0.23607971605,0.8773584905660378
0.23607971605,0.8867924528301887
0.237432439509,0.8962264150943396
0.237432439509,0.9056603773584906
0.265093479437,0.9150943396226415
0.283260872247,0.9245283018867925
0.283260872247,0.9339622641509434
0.38436282839,0.9433962264150944
0.524572290032,0.9528301886792453
0.5308710152,0.9622641509433962
0.791600945872,0.9716981132075472
0.809773045714,0.9811320754716981
1.08865270563,0.9905660377358491
2.66822671538,1.0
