Congestion,CDF
0.0,0.009433962264150943
0.0,0.018867924528301886
0.0,0.02830188679245283
0.0,0.03773584905660377
0.0,0.04716981132075472
0.0,0.05660377358490566
0.0,0.0660377358490566
0.0,0.07547169811320754
0.0,0.08490566037735849
0.0,0.09433962264150944
0.0,0.10377358490566038
0.0,0.11320754716981132
0.0,0.12264150943396226
0.0,0.1320754716981132
0.0,0.14150943396226415
0.0,0.1509433962264151
0.0,0.16037735849056603
0.0,0.16981132075471697
0.0,0.1792452830188679
0.0,0.18867924528301888
0.0,0.19811320754716982
0.0,0.20754716981132076
0.0,0.2169811320754717
0.0,0.22641509433962265
0.0,0.2358490566037736
0.0,0.24528301886792453
0.0,0.25471698113207547
0.0,0.2641509433962264
0.0,0.27358490566037735
0.0,0.2830188679245283
1.57963959215e-07,0.29245283018867924
4.06953271303e-06,0.3018867924528302
4.57626028078e-06,0.3113207547169811
6.20387189812e-06,0.32075471698113206
7.00305204238e-06,0.330188679245283
9.31842980887e-06,0.33962264150943394
1.42107486809e-05,0.3490566037735849
1.81905090108e-05,0.3584905660377358
1.92512794538e-05,0.36792452830188677
2.24533608941e-05,0.37735849056603776
2.76454644189e-05,0.3867924528301887
2.82789254665e-05,0.39622641509433965
2.98370493062e-05,0.4056603773584906
0.000191196447934,0.41509433962264153
0.000262080838375,0.42452830188679247
0.000262080838375,0.4339622641509434
0.000682144087904,0.44339622641509435
0.000682144087904,0.4528301886792453
0.000682144087904,0.46226415094339623
0.000698882235665,0.4716981132075472
0.000698882235665,0.4811320754716981
0.000698882235665,0.49056603773584906
0.0010789743935,0.5
0.00128851818589,0.5094339622641509
0.00128851818589,0.5188679245283019
0.00136428817581,0.5283018867924528
0.00136428817581,0.5377358490566038
0.00186116156944,0.5471698113207547
0.00237239813091,0.5566037735849056
0.00237239813091,0.5660377358490566
0.00293945784285,0.5754716981132075
0.00293945784285,0.5849056603773585
0.00371220216604,0.5943396226415094
0.00451514455239,0.6037735849056604
0.00610208156964,0.6132075471698113
0.00875168806794,0.6226415094339622
0.0095152628457,0.6320754716981132
0.00965279393674,0.6415094339622641
0.012035047995,0.6509433962264151
0.0165427757026,0.660377358490566
0.0166714298845,0.6698113207547169
0.0172254033452,0.6792452830188679
0.0206059008127,0.6886792452830188
0.0206239395662,0.6981132075471698
0.0218008372303,0.7075471698113207
0.0223586868242,0.7169811320754716
0.0223977248375,0.7264150943396226
0.0249597176378,0.7358490566037735
0.0255069553174,0.7452830188679245
0.0275771122195,0.7547169811320755
0.0277825261143,0.7641509433962265
0.264233844743,0.7735849056603774
0.629936011054,0.7830188679245284
0.629936011054,0.7924528301886793
0.838450755908,0.8018867924528302
0.838450755908,0.8113207547169812
0.838450755908,0.8207547169811321
1.67690151182,0.8301886792452831
1.67690151182,0.839622641509434
1.67982936281,0.8490566037735849
1.67982936281,0.8584905660377359
1.67982936281,0.8679245283018868
2.5828808848,0.8773584905660378
3.19663195432,0.8867924528301887
3.19663195432,0.8962264150943396
3.57896727918,0.9056603773584906
3.57896727918,0.9150943396226415
3.61051439851,0.9245283018867925
4.12830655119,0.9339622641509434
4.12830655119,0.9433962264150944
7.30109181227,0.9528301886792453
7.3300390032,0.9622641509433962
9.95149910317,0.9716981132075472
10.0131232716,0.9811320754716981
16.3068358431,0.9905660377358491
32.9569464011,1.0
