Congestion,CDF
0.0,0.007352941176470588
0.0,0.014705882352941176
0.0,0.022058823529411766
0.0,0.029411764705882353
0.0,0.03676470588235294
0.0,0.04411764705882353
0.0,0.051470588235294115
0.0,0.058823529411764705
0.0,0.0661764705882353
0.0,0.07352941176470588
0.0,0.08088235294117647
0.0,0.08823529411764706
0.0,0.09558823529411764
0.0,0.10294117647058823
4.22883319894e-06,0.11029411764705882
4.22883319894e-06,0.11764705882352941
4.22883319894e-06,0.125
4.22883319894e-06,0.1323529411764706
4.22883319894e-06,0.13970588235294118
4.22883319894e-06,0.14705882352941177
4.22883319894e-06,0.15441176470588236
4.22883319894e-06,0.16176470588235295
4.22883319894e-06,0.16911764705882354
4.22883319894e-06,0.17647058823529413
4.22883319894e-06,0.18382352941176472
4.22883319894e-06,0.19117647058823528
4.22883319894e-06,0.19852941176470587
4.22883319894e-06,0.20588235294117646
4.22883319894e-06,0.21323529411764705
4.22883319894e-06,0.22058823529411764
4.22883319894e-06,0.22794117647058823
4.22883319894e-06,0.23529411764705882
4.22883319894e-06,0.2426470588235294
4.22883319894e-06,0.25
4.22883319894e-06,0.25735294117647056
4.22883319894e-06,0.2647058823529412
4.22883319894e-06,0.27205882352941174
4.22883319894e-06,0.27941176470588236
4.22883319894e-06,0.2867647058823529
4.22883319894e-06,0.29411764705882354
4.22883319894e-06,0.3014705882352941
0.000105720829973,0.3088235294117647
0.000105720829973,0.3161764705882353
0.000114178496371,0.3235294117647059
0.000211441659947,0.33088235294117646
0.000211441659947,0.3382352941176471
0.000211441659947,0.34558823529411764
0.000211441659947,0.35294117647058826
0.00031716248992,0.3602941176470588
0.000352402766578,0.36764705882352944
0.000352402766578,0.375
0.000352402766578,0.38235294117647056
0.000422883319894,0.3897058823529412
0.000422883319894,0.39705882352941174
0.000422883319894,0.40441176470588236
0.000422883319894,0.4117647058823529
0.000422883319894,0.41911764705882354
0.000422883319894,0.4264705882352941
0.000422883319894,0.4338235294117647
0.000528604149867,0.4411764705882353
0.000634324979841,0.4485294117647059
0.000634324979841,0.45588235294117646
0.000775286086472,0.4632352941176471
0.000845766639788,0.47058823529411764
0.000845766639788,0.47794117647058826
0.00126864995968,0.4852941176470588
0.00172677355623,0.49264705882352944
0.00306590406923,0.5
0.00313638462255,0.5073529411764706
0.00405263181565,0.5147058823529411
0.00503935956207,0.5220588235294118
0.00510984011539,0.5294117647058824
0.00546224288196,0.5367647058823529
0.00553272343528,0.5441176470588235
0.00595560675517,0.5514705882352942
0.0444056214465,0.5588235294117647
0.0449659601916,0.5661764705882353
0.0512218623376,0.5735294117647058
0.0512886081379,0.5808823529411765
0.0513814043166,0.5882352941176471
0.0514071239887,0.5955882352941176
0.0514281908411,0.6029411764705882
0.0514758518006,0.6102941176470589
0.0515605455306,0.6176470588235294
0.0515729908449,0.625
0.0515889991587,0.6323529411764706
0.0515943736131,0.6397058823529411
0.0515948210098,0.6470588235294118
0.0515955992791,0.6544117647058824
0.0515960940886,0.6617647058823529
0.0515967130228,0.6691176470588235
0.0515972851405,0.6764705882352942
0.0516008012953,0.6838235294117647
0.0516041790227,0.6911764705882353
0.0516137918216,0.6985294117647058
0.0516174586774,0.7058823529411765
0.0516174679772,0.7132352941176471
0.0516175106324,0.7205882352941176
0.0516175132128,0.7279411764705882
0.0516178912943,0.7352941176470589
0.0516178930147,0.7426470588235294
0.0516178930147,0.75
1.28988998198,0.7573529411764706
1.29002003238,0.7647058823529411
1.37801444471,0.7720588235294118
2.57379259003,0.7794117647058824
2.57379259003,0.7867647058823529
2.58020895113,0.7941176470588235
2.58020895113,0.8014705882352942
3.86966994593,0.8088235294117647
4.29973738135,0.8161764705882353
4.29973738135,0.8235294117647058
4.29973738135,0.8308823529411765
5.14281908411,0.8382352941176471
5.15967130228,0.8455882352941176
5.16008012953,0.8529411764705882
5.16174679772,0.8602941176470589
5.16175132128,0.8676470588235294
5.16178930147,0.875
5.16178930147,0.8823529411764706
6.44961849602,0.8897058823529411
7.71193302169,0.8970588235294118
7.73964631244,0.9044117647058824
9.45703646584,0.9117647058823529
10.283531483,0.9191176470588235
10.3235023845,0.9264705882352942
15.4853677324,0.9338235294117647
21.0686365885,0.9411764705882353
37.4223828147,0.9485294117647058
38.2555201975,0.9558823529411765
49.4637083294,0.9632352941176471
61.3731709359,0.9705882352941176
62.3622545577,0.9779411764705882
65.8137330805,0.9852941176470589
67.4911153715,0.9926470588235294
71.9877113906,1.0
