Congestion,CDF
0.0,0.007352941176470588
0.0,0.014705882352941176
0.0,0.022058823529411766
0.0,0.029411764705882353
0.0,0.03676470588235294
0.0,0.04411764705882353
0.0,0.051470588235294115
0.0,0.058823529411764705
0.0,0.0661764705882353
0.0,0.07352941176470588
0.0,0.08088235294117647
0.0,0.08823529411764706
0.0,0.09558823529411764
0.0,0.10294117647058823
4.26104153721e-06,0.11029411764705882
4.26104153721e-06,0.11764705882352941
4.26104153721e-06,0.125
4.26104153721e-06,0.1323529411764706
4.26104153721e-06,0.13970588235294118
4.26104153721e-06,0.14705882352941177
4.26104153721e-06,0.15441176470588236
4.26104153721e-06,0.16176470588235295
4.26104153721e-06,0.16911764705882354
4.26104153721e-06,0.17647058823529413
4.26104153721e-06,0.18382352941176472
4.26104153721e-06,0.19117647058823528
4.26104153721e-06,0.19852941176470587
4.26104153721e-06,0.20588235294117646
4.26104153721e-06,0.21323529411764705
4.26104153721e-06,0.22058823529411764
4.26104153721e-06,0.22794117647058823
4.26104153721e-06,0.23529411764705882
4.26104153721e-06,0.2426470588235294
4.26104153721e-06,0.25
4.26104153721e-06,0.25735294117647056
4.26104153721e-06,0.2647058823529412
4.26104153721e-06,0.27205882352941174
4.26104153721e-06,0.27941176470588236
4.26104153721e-06,0.2867647058823529
4.26104153721e-06,0.29411764705882354
4.26104153721e-06,0.3014705882352941
0.00010652603843,0.3088235294117647
0.00010652603843,0.3161764705882353
0.000115048121505,0.3235294117647059
0.000213052076861,0.33088235294117646
0.000213052076861,0.3382352941176471
0.000213052076861,0.34558823529411764
0.000213052076861,0.35294117647058826
0.000319578115291,0.3602941176470588
0.000355086794768,0.36764705882352944
0.000355086794768,0.375
0.000355086794768,0.38235294117647056
0.000426104153721,0.3897058823529412
0.000426104153721,0.39705882352941174
0.000426104153721,0.40441176470588236
0.000426104153721,0.4117647058823529
0.000426104153721,0.41911764705882354
0.000426104153721,0.4264705882352941
0.000426104153721,0.4338235294117647
0.000532630192152,0.4411764705882353
0.000639156230582,0.4485294117647059
0.000639156230582,0.45588235294117646
0.000781190948489,0.4632352941176471
0.000852208307443,0.47058823529411764
0.000852208307443,0.47794117647058826
0.00127831246116,0.4852941176470588
0.00173992529436,0.49264705882352944
0.00308925511448,0.5
0.00316027247343,0.5073529411764706
0.00408349813983,0.5147058823529411
0.00507774116518,0.5220588235294118
0.00514875852413,0.5294117647058824
0.0055038453189,0.5367647058823529
0.00557486267786,0.5441176470588235
0.00600096683158,0.5514705882352942
0.042271929398,0.5588235294117647
0.0427564156551,0.5661764705882353
0.0480992250967,0.5735294117647058
0.0481627847055,0.5808823529411765
0.0482422690647,0.5882352941176471
0.0482673579725,0.5955882352941176
0.0482869066918,0.6029411764705882
0.0483347948975,0.6102941176470589
0.0484193950853,0.6176470588235294
0.048431384671,0.625
0.0484475984693,0.6323529411764706
0.0484527466128,0.6397058823529411
0.0484531663279,0.6470588235294118
0.048453939936,0.6544117647058824
0.0484544574423,0.6617647058823529
0.0484550564749,0.6691176470588235
0.0484556276051,0.6764705882352942
0.0484591408561,0.6838235294117647
0.0484625254647,0.6911764705882353
0.0484721357345,0.6985294117647058
0.0484757973403,0.7058823529411765
0.0484758065217,0.7132352941176471
0.0484758491621,0.7205882352941176
0.0484758517307,0.7279411764705882
0.0484762298191,0.7352941176470589
0.0484762315316,0.7426470588235294
0.0484762315316,0.75
1.2113484984,0.7573529411764706
1.2114785214,0.7647058823529411
1.2951708558,0.7720588235294118
2.41673974487,0.7794117647058824
2.41673974487,0.7867647058823529
2.42312627324,0.7941176470588235
2.42312627324,0.8014705882352942
3.6340454952,0.8088235294117647
4.03793256407,0.8161764705882353
4.03793256407,0.8235294117647058
4.03793256407,0.8308823529411765
4.82869066918,0.8382352941176471
4.84550564749,0.8455882352941176
4.84591408561,0.8529411764705882
4.84758065217,0.8602941176470589
4.84758517307,0.8676470588235294
4.84762315316,0.875
4.84762315316,0.8823529411764706
6.05691125891,0.8897058823529411
7.24096665134,0.8970588235294118
7.26840093451,0.9044117647058824
8.88107103116,0.9117647058823529
9.65542646643,0.9191176470588235
9.69517008928,0.9264705882352942
14.5428692882,0.9338235294117647
19.7857952147,0.9411764705882353
35.1446782851,0.9485294117647058
35.9255454993,0.9558823529411765
46.4529506959,0.9632352941176471
57.6318611267,0.9705882352941176
58.5661114773,0.9779411764705882
61.8590540665,0.9852941176470589
63.3823899478,0.9926470588235294
67.6580315134,1.0
