Congestion,CDF
0.0,0.007352941176470588
0.0,0.014705882352941176
0.0,0.022058823529411766
0.0,0.029411764705882353
0.0,0.03676470588235294
0.0,0.04411764705882353
0.0,0.051470588235294115
0.0,0.058823529411764705
0.0,0.0661764705882353
0.0,0.07352941176470588
0.0,0.08088235294117647
0.0,0.08823529411764706
0.0,0.09558823529411764
0.0,0.10294117647058823
1.15632918208e-05,0.11029411764705882
1.15632918208e-05,0.11764705882352941
1.15632918208e-05,0.125
1.15632918208e-05,0.1323529411764706
1.15632918208e-05,0.13970588235294118
1.15632918208e-05,0.14705882352941177
1.15632918208e-05,0.15441176470588236
1.15632918208e-05,0.16176470588235295
1.15632918208e-05,0.16911764705882354
1.15632918208e-05,0.17647058823529413
1.15632918208e-05,0.18382352941176472
1.15632918208e-05,0.19117647058823528
1.15632918208e-05,0.19852941176470587
1.15632918208e-05,0.20588235294117646
1.15632918208e-05,0.21323529411764705
1.15632918208e-05,0.22058823529411764
1.15632918208e-05,0.22794117647058823
1.15632918208e-05,0.23529411764705882
1.15632918208e-05,0.2426470588235294
1.15632918208e-05,0.25
1.15632918208e-05,0.25735294117647056
1.15632918208e-05,0.2647058823529412
1.15632918208e-05,0.27205882352941174
1.15632918208e-05,0.27941176470588236
1.15632918208e-05,0.2867647058823529
1.15632918208e-05,0.29411764705882354
1.15632918208e-05,0.3014705882352941
0.000289082295519,0.3088235294117647
0.000289082295519,0.3161764705882353
0.00031220887916,0.3235294117647059
0.000439278591823,0.33088235294117646
0.000578164591038,0.3382352941176471
0.000578164591038,0.34558823529411764
0.000578164591038,0.35294117647058826
0.000578164591038,0.3602941176470588
0.000825328213156,0.36764705882352944
0.000867246886556,0.375
0.000963607651729,0.38235294117647056
0.000963607651729,0.3897058823529412
0.000963607651729,0.39705882352941174
0.00115632918208,0.40441176470588236
0.00115632918208,0.4117647058823529
0.00115632918208,0.41911764705882354
0.00115632918208,0.4264705882352941
0.00115632918208,0.4338235294117647
0.00115632918208,0.4411764705882353
0.00115632918208,0.4485294117647059
0.00144541147759,0.45588235294117646
0.00173449377311,0.4632352941176471
0.00173449377311,0.47058823529411764
0.0021199368338,0.47794117647058826
0.00231265836415,0.4852941176470588
0.00231265836415,0.49264705882352944
0.00254737571022,0.5
0.00277254578372,0.5073529411764706
0.0031109546132,0.5147058823529411
0.00322993248391,0.5220588235294118
0.00331044000658,0.5294117647058824
0.00340979506842,0.5367647058823529
0.00346898754623,0.5441176470588235
0.00368137789304,0.5514705882352942
0.00373307618443,0.5588235294117647
0.00376568044482,0.5661764705882353
0.00378670280071,0.5735294117647058
0.00379064124587,0.5808823529411765
0.00379349292256,0.5882352941176471
0.00379503693391,0.5955882352941176
0.00379768134985,0.6029411764705882
0.00379956228139,0.6102941176470589
0.0038061480542,0.6176470588235294
0.00381268803809,0.625
0.00383799315588,0.6323529411764706
0.00384694070255,0.6397058823529411
0.00384698329806,0.6470588235294118
0.00384728257839,0.6544117647058824
0.00384729551317,0.6617647058823529
0.00384798608378,0.6691176470588235
0.00384799470842,0.6764705882352942
0.00384799470842,0.6838235294117647
0.00472167749347,0.6911764705882353
0.00838338657005,0.6985294117647058
0.00857610810039,0.7058823529411765
0.0110814879949,0.7132352941176471
0.0137795894197,0.7205882352941176
0.0139723109501,0.7279411764705882
0.0149359186018,0.7352941176470589
0.0151286401322,0.7426470588235294
0.0162849693142,0.75
0.0919782093686,0.7573529411764706
0.0948373230641,0.7647058823529411
0.0951537013551,0.7720588235294118
0.170489753421,0.7794117647058824
0.170489753421,0.7867647058823529
0.190634401905,0.7941176470588235
0.190634401905,0.8014705882352942
0.284511969192,0.8088235294117647
0.316345732615,0.8161764705882353
0.316345732615,0.8235294117647058
0.316345732615,0.8308823529411765
0.331044000658,0.8382352941176471
0.379768134985,0.8455882352941176
0.38061480542,0.8529411764705882
0.384698329806,0.8602941176470589
0.384729551317,0.8676470588235294
0.384799470842,0.875
0.384799470842,0.8823529411764706
0.474793551203,0.8897058823529411
0.481585214741,0.8970588235294118
0.569304681976,0.9044117647058824
0.654037249048,0.9117647058823529
0.689653351058,0.9191176470588235
0.769457809156,0.9264705882352942
1.15439755006,0.9338235294117647
1.55041111219,0.9411764705882353
2.77869200598,0.9485294117647058
2.78840146063,0.9558823529411765
3.67918091074,0.9632352941176471
4.16905204079,0.9705882352941176
4.2515848621,0.9779411764705882
4.6250536372,0.9852941176470589
4.90230821557,0.9926470588235294
4.94623607475,1.0
