Congestion,CDF
0.0,0.007352941176470588
0.0,0.014705882352941176
0.0,0.022058823529411766
0.0,0.029411764705882353
0.0,0.03676470588235294
0.0,0.04411764705882353
0.0,0.051470588235294115
0.0,0.058823529411764705
0.0,0.0661764705882353
0.0,0.07352941176470588
0.0,0.08088235294117647
0.0,0.08823529411764706
0.0,0.09558823529411764
0.0,0.10294117647058823
4.92517469655e-06,0.11029411764705882
4.92517469655e-06,0.11764705882352941
4.92517469655e-06,0.125
4.92517469655e-06,0.1323529411764706
4.92517469655e-06,0.13970588235294118
4.92517469655e-06,0.14705882352941177
4.92517469655e-06,0.15441176470588236
4.92517469655e-06,0.16176470588235295
4.92517469655e-06,0.16911764705882354
4.92517469655e-06,0.17647058823529413
4.92517469655e-06,0.18382352941176472
4.92517469655e-06,0.19117647058823528
4.92517469655e-06,0.19852941176470587
4.92517469655e-06,0.20588235294117646
4.92517469655e-06,0.21323529411764705
4.92517469655e-06,0.22058823529411764
4.92517469655e-06,0.22794117647058823
4.92517469655e-06,0.23529411764705882
4.92517469655e-06,0.2426470588235294
4.92517469655e-06,0.25
4.92517469655e-06,0.25735294117647056
4.92517469655e-06,0.2647058823529412
4.92517469655e-06,0.27205882352941174
4.92517469655e-06,0.27941176470588236
4.92517469655e-06,0.2867647058823529
4.92517469655e-06,0.29411764705882354
4.92517469655e-06,0.3014705882352941
0.000123129367414,0.3088235294117647
0.000123129367414,0.3161764705882353
0.000132979716807,0.3235294117647059
0.000246258734827,0.33088235294117646
0.000246258734827,0.3382352941176471
0.000246258734827,0.34558823529411764
0.000246258734827,0.35294117647058826
0.000369388102241,0.3602941176470588
0.000410431224712,0.36764705882352944
0.000410431224712,0.375
0.000410431224712,0.38235294117647056
0.000492517469655,0.3897058823529412
0.000492517469655,0.39705882352941174
0.000492517469655,0.40441176470588236
0.000492517469655,0.4117647058823529
0.000492517469655,0.41911764705882354
0.000492517469655,0.4264705882352941
0.000492517469655,0.4338235294117647
0.000615646837069,0.4411764705882353
0.000738776204482,0.4485294117647059
0.000738776204482,0.45588235294117646
0.000902948694367,0.4632352941176471
0.00098503493931,0.47058823529411764
0.00098503493931,0.47794117647058826
0.00147755240896,0.4852941176470588
0.00201111300109,0.49264705882352944
0.003570751655,0.5
0.00365283789994,0.5073529411764706
0.00471995908419,0.5147058823529411
0.00586916651339,0.5220588235294118
0.00595125275833,0.5294117647058824
0.00636168398304,0.5367647058823529
0.00644377022799,0.5441176470588235
0.00693628769764,0.5514705882352942
0.00721111404644,0.5588235294117647
0.00821428061274,0.5661764705882353
0.0219253822165,0.5735294117647058
0.0220421965861,0.5808823529411765
0.0223192538105,0.5882352941176471
0.0223597925429,0.5955882352941176
0.0224113528368,0.6029411764705882
0.0224505404655,0.6102941176470589
0.0225457648527,0.6176470588235294
0.0225681688862,0.625
0.0225801380145,0.6323529411764706
0.0225903350444,0.6397058823529411
0.0225916395002,0.6470588235294118
0.0225924053997,0.6544117647058824
0.022592632995,0.6617647058823529
0.0225936457197,0.6691176470588235
0.0225942783531,0.6764705882352942
0.0225979280877,0.6838235294117647
0.0226009321635,0.6911764705882353
0.022610827706,0.6985294117647058
0.0226146849707,0.7058823529411765
0.0226147002124,0.7132352941176471
0.0226147443946,0.7205882352941176
0.0226147479672,0.7279411764705882
0.0226151255656,0.7352941176470589
0.0226151279474,0.7426470588235294
0.0226151279474,0.75
0.564815824875,0.7573529411764706
0.564948202193,0.7647058823529411
0.578296868846,0.7720588235294118
1.12252702328,0.7794117647058824
1.12252702328,0.7867647058823529
1.13004660818,0.7941176470588235
1.13004660818,0.8014705882352942
1.69444747462,0.8088235294117647
1.88281867707,0.8161764705882353
1.88281867707,0.8235294117647058
1.88281867707,0.8308823529411765
2.24113528368,0.8382352941176471
2.25936457197,0.8455882352941176
2.25979280877,0.8529411764705882
2.26147002124,0.8602941176470589
2.26147479672,0.8676470588235294
2.26151279474,0.875
2.26151279474,0.8823529411764706
2.82424366018,0.8897058823529411
3.35445240432,0.8970588235294118
3.38908011262,0.9044117647058824
4.13963556569,0.9117647058823529
4.47711453797,0.9191176470588235
4.52294923618,0.9264705882352942
6.78453814604,0.9338235294117647
9.2256674492,0.9411764705882353
16.3953741027,0.9485294117647058
16.7424065234,0.9558823529411765
21.6693221586,0.9632352941176471
26.7665116874,0.9705882352941176
27.3164160726,0.9779411764705882
27.487623092,0.9852941176470589
29.5206357313,0.9926470588235294
30.3420637925,1.0
