Congestion,CDF
0.0,0.007352941176470588
0.0,0.014705882352941176
0.0,0.022058823529411766
0.0,0.029411764705882353
0.0,0.03676470588235294
0.0,0.04411764705882353
0.0,0.051470588235294115
0.0,0.058823529411764705
0.0,0.0661764705882353
0.0,0.07352941176470588
0.0,0.08088235294117647
0.0,0.08823529411764706
0.0,0.09558823529411764
0.0,0.10294117647058823
5.49457804137e-06,0.11029411764705882
5.49457804137e-06,0.11764705882352941
5.49457804137e-06,0.125
5.49457804137e-06,0.1323529411764706
5.49457804137e-06,0.13970588235294118
5.49457804137e-06,0.14705882352941177
5.49457804137e-06,0.15441176470588236
5.49457804137e-06,0.16176470588235295
5.49457804137e-06,0.16911764705882354
5.49457804137e-06,0.17647058823529413
5.49457804137e-06,0.18382352941176472
5.49457804137e-06,0.19117647058823528
5.49457804137e-06,0.19852941176470587
5.49457804137e-06,0.20588235294117646
5.49457804137e-06,0.21323529411764705
5.49457804137e-06,0.22058823529411764
5.49457804137e-06,0.22794117647058823
5.49457804137e-06,0.23529411764705882
5.49457804137e-06,0.2426470588235294
5.49457804137e-06,0.25
5.49457804137e-06,0.25735294117647056
5.49457804137e-06,0.2647058823529412
5.49457804137e-06,0.27205882352941174
5.49457804137e-06,0.27941176470588236
5.49457804137e-06,0.2867647058823529
5.49457804137e-06,0.29411764705882354
5.49457804137e-06,0.3014705882352941
0.000137364451034,0.3088235294117647
0.000137364451034,0.3161764705882353
0.000148353607117,0.3235294117647059
0.000274728902068,0.33088235294117646
0.000274728902068,0.3382352941176471
0.000274728902068,0.34558823529411764
0.000274728902068,0.35294117647058826
0.000412093353103,0.3602941176470588
0.000457881503447,0.36764705882352944
0.000457881503447,0.375
0.000457881503447,0.38235294117647056
0.000549457804137,0.3897058823529412
0.000549457804137,0.39705882352941174
0.000549457804137,0.40441176470588236
0.000549457804137,0.4117647058823529
0.000549457804137,0.41911764705882354
0.000549457804137,0.4264705882352941
0.000549457804137,0.4338235294117647
0.00062132230876,0.4411764705882353
0.000686822255171,0.4485294117647059
0.000824186706205,0.45588235294117646
0.000824186706205,0.4632352941176471
0.00100733930758,0.47058823529411764
0.00109891560827,0.47794117647058826
0.00109891560827,0.4852941176470588
0.00142594900113,0.49264705882352944
0.00164837341241,0.5
0.00224361936689,0.5073529411764706
0.00398356907999,0.5147058823529411
0.00407514538068,0.5220588235294118
0.00526563728964,0.5294117647058824
0.0065477054993,0.5367647058823529
0.00663928179998,0.5441176470588235
0.00709716330343,0.5514705882352942
0.00718873960412,0.5588235294117647
0.00773819740826,0.5661764705882353
0.0149648281947,0.5735294117647058
0.0151056166605,0.5808823529411765
0.0154471627773,0.5882352941176471
0.0154996473419,0.5955882352941176
0.0155684651467,0.6029411764705882
0.0155982326971,0.6102941176470589
0.0157118868097,0.6176470588235294
0.0157412672038,0.625
0.0157510850094,0.6323529411764706
0.0157644863809,0.6397058823529411
0.0157665874342,0.6470588235294118
0.0157670027744,0.6544117647058824
0.015767870636,0.6617647058823529
0.0157688323173,0.6691176470588235
0.015769591636,0.6764705882352942
0.0157734016922,0.6838235294117647
0.0157758135683,0.6911764705882353
0.0157863865415,0.6985294117647058
0.0157904863932,0.7058823529411765
0.0157905105512,0.7132352941176471
0.0157905595981,0.7205882352941176
0.0157905654762,0.7279411764705882
0.0157909423906,0.7352941176470589
0.0157909463094,0.7426470588235294
0.0157909463094,0.75
0.39391039316,0.7573529411764706
0.3941967659,0.7647058823529411
0.394335042304,0.7720588235294118
0.779911634853,0.7794117647058824
0.779911634853,0.7867647058823529
0.788790678414,0.7941176470588235
0.788790678414,0.8014705882352942
1.1825902977,0.8088235294117647
1.31408472268,0.8161764705882353
1.31408472268,0.8235294117647058
1.31408472268,0.8308823529411765
1.55684651467,0.8382352941176471
1.57688323173,0.8455882352941176
1.57734016922,0.8529411764705882
1.57905105512,0.8602941176470589
1.57905654762,0.8676470588235294
1.57909463094,0.875
1.57909463094,0.8823529411764706
1.9711559295,0.8897058823529411
2.32462791259,0.8970588235294118
2.36523931651,0.9044117647058824
2.88821144306,0.9117647058823529
3.10681124886,0.9191176470588235
3.15811250742,0.9264705882352942
4.73728350095,0.9338235294117647
6.43882416134,0.9411764705882353
11.4478307451,0.9485294117647058
11.6781359202,0.9558823529411765
15.1293448004,0.9632352941176471
18.6060579011,0.9705882352941176
18.7486528012,0.9779411764705882
19.0696926178,0.9852941176470589
20.5802542839,0.9926470588235294
20.6423865147,1.0
