Congestion,CDF
0.0,0.007352941176470588
0.0,0.014705882352941176
0.0,0.022058823529411766
0.0,0.029411764705882353
0.0,0.03676470588235294
0.0,0.04411764705882353
0.0,0.051470588235294115
0.0,0.058823529411764705
0.0,0.0661764705882353
0.0,0.07352941176470588
0.0,0.08088235294117647
0.0,0.08823529411764706
0.0,0.09558823529411764
0.0,0.10294117647058823
5.03053037962e-06,0.11029411764705882
5.03053037962e-06,0.11764705882352941
5.03053037962e-06,0.125
5.03053037962e-06,0.1323529411764706
5.03053037962e-06,0.13970588235294118
5.03053037962e-06,0.14705882352941177
5.03053037962e-06,0.15441176470588236
5.03053037962e-06,0.16176470588235295
5.03053037962e-06,0.16911764705882354
5.03053037962e-06,0.17647058823529413
5.03053037962e-06,0.18382352941176472
5.03053037962e-06,0.19117647058823528
5.03053037962e-06,0.19852941176470587
5.03053037962e-06,0.20588235294117646
5.03053037962e-06,0.21323529411764705
5.03053037962e-06,0.22058823529411764
5.03053037962e-06,0.22794117647058823
5.03053037962e-06,0.23529411764705882
5.03053037962e-06,0.2426470588235294
5.03053037962e-06,0.25
5.03053037962e-06,0.25735294117647056
5.03053037962e-06,0.2647058823529412
5.03053037962e-06,0.27205882352941174
5.03053037962e-06,0.27941176470588236
5.03053037962e-06,0.2867647058823529
5.03053037962e-06,0.29411764705882354
5.03053037962e-06,0.3014705882352941
0.000125763259491,0.3088235294117647
0.000125763259491,0.3161764705882353
0.00013582432025,0.3235294117647059
0.000251526518981,0.33088235294117646
0.000251526518981,0.3382352941176471
0.000251526518981,0.34558823529411764
0.000251526518981,0.35294117647058826
0.000377289778472,0.3602941176470588
0.000419210864969,0.36764705882352944
0.000419210864969,0.375
0.000419210864969,0.38235294117647056
0.000503053037962,0.3897058823529412
0.000503053037962,0.39705882352941174
0.000503053037962,0.40441176470588236
0.000503053037962,0.4117647058823529
0.000503053037962,0.41911764705882354
0.000503053037962,0.4264705882352941
0.000503053037962,0.4338235294117647
0.000628816297453,0.4411764705882353
0.000754579556943,0.4485294117647059
0.000754579556943,0.45588235294117646
0.000922263902931,0.4632352941176471
0.00100610607592,0.47058823529411764
0.00100610607592,0.47794117647058826
0.00150915911389,0.4852941176470588
0.00205413323835,0.49264705882352944
0.00364713452523,0.5
0.00373097669822,0.5073529411764706
0.00482092494714,0.5147058823529411
0.00524272866311,0.5220588235294118
0.00599471536905,0.5294117647058824
0.00607855754204,0.5367647058823529
0.00623751308864,0.5441176470588235
0.00649776840701,0.5514705882352942
0.00658161058001,0.5588235294117647
0.00708466361797,0.5661764705882353
0.0201895371,0.5735294117647058
0.0203115431651,0.5808823529411765
0.020604165483,0.5882352941176471
0.0206469595792,0.5955882352941176
0.0207022720561,0.6029411764705882
0.0207396318618,0.6102941176470589
0.0208378895872,0.6176470588235294
0.0208616813277,0.625
0.0208731701796,0.6323529411764706
0.0208840176368,0.6397058823529411
0.0208854733445,0.6470588235294118
0.0208861616161,0.6544117647058824
0.020886516778,0.6617647058823529
0.0208875127423,0.6691176470588235
0.0208881629735,0.6764705882352942
0.0208918422277,0.6838235294117647
0.0208947477263,0.6911764705882353
0.0209047400772,0.6985294117647058
0.0209086373862,0.7058823529411765
0.020908654079,0.7132352941176471
0.0209086988364,0.7205882352941176
0.0209087027299,0.7279411764705882
0.0209090801992,0.7352941176470589
0.0209090827949,0.7426470588235294
0.0209090827949,0.75
0.52216291945,0.7573529411764706
0.522296055693,0.7647058823529411
0.531618206034,0.7720588235294118
1.03698159309,0.7794117647058824
1.03698159309,0.7867647058823529
1.04473738632,0.7941176470588235
1.04473738632,0.8014705882352942
1.56648875835,0.8088235294117647
1.74064141996,0.8161764705882353
1.74064141996,0.8235294117647058
1.74064141996,0.8308823529411765
2.07022720561,0.8382352941176471
2.08875127423,0.8455882352941176
2.08918422277,0.8529411764705882
2.0908654079,0.8602941176470589
2.09087027299,0.8676470588235294
2.09090827949,0.875
2.09090827949,0.8823529411764706
2.6109792168,0.8897058823529411
3.09739814139,0.8970588235294118
3.13313915,0.9044117647058824
3.82680955273,0.9117647058823529
4.13492316353,0.9191176470588235
4.18174015663,0.9264705882352942
6.27272457889,0.9338235294117647
8.5289880726,0.9411764705882353
15.1584899377,0.9485294117647058
15.4765681771,0.9558823529411765
20.0343427517,0.9632352941176471
24.7278431921,0.9705882352941176
25.2521160584,0.9779411764705882
25.2547989197,0.9852941176470589
27.2859532362,0.9926470588235294
27.9097045451,1.0
