Congestion,CDF
0.0,0.007352941176470588
0.0,0.014705882352941176
0.0,0.022058823529411766
0.0,0.029411764705882353
0.0,0.03676470588235294
0.0,0.04411764705882353
0.0,0.051470588235294115
0.0,0.058823529411764705
0.0,0.0661764705882353
0.0,0.07352941176470588
0.0,0.08088235294117647
0.0,0.08823529411764706
0.0,0.09558823529411764
0.0,0.10294117647058823
6.89789469781e-06,0.11029411764705882
6.89789469781e-06,0.11764705882352941
6.89789469781e-06,0.125
6.89789469781e-06,0.1323529411764706
6.89789469781e-06,0.13970588235294118
6.89789469781e-06,0.14705882352941177
6.89789469781e-06,0.15441176470588236
6.89789469781e-06,0.16176470588235295
6.89789469781e-06,0.16911764705882354
6.89789469781e-06,0.17647058823529413
6.89789469781e-06,0.18382352941176472
6.89789469781e-06,0.19117647058823528
6.89789469781e-06,0.19852941176470587
6.89789469781e-06,0.20588235294117646
6.89789469781e-06,0.21323529411764705
6.89789469781e-06,0.22058823529411764
6.89789469781e-06,0.22794117647058823
6.89789469781e-06,0.23529411764705882
6.89789469781e-06,0.2426470588235294
6.89789469781e-06,0.25
6.89789469781e-06,0.25735294117647056
6.89789469781e-06,0.2647058823529412
6.89789469781e-06,0.27205882352941174
6.89789469781e-06,0.27941176470588236
6.89789469781e-06,0.2867647058823529
6.89789469781e-06,0.29411764705882354
6.89789469781e-06,0.3014705882352941
0.000172447367445,0.3088235294117647
0.000172447367445,0.3161764705882353
0.000186243156841,0.3235294117647059
0.000344894734891,0.33088235294117646
0.000344894734891,0.3382352941176471
0.000344894734891,0.34558823529411764
0.000344894734891,0.35294117647058826
0.000517342102336,0.3602941176470588
0.000554332928451,0.36764705882352944
0.000574824558151,0.375
0.000574824558151,0.38235294117647056
0.000574824558151,0.3897058823529412
0.000689789469781,0.39705882352941174
0.000689789469781,0.40441176470588236
0.000689789469781,0.4117647058823529
0.000689789469781,0.41911764705882354
0.000689789469781,0.4264705882352941
0.000689789469781,0.4338235294117647
0.000689789469781,0.4411764705882353
0.000862236837227,0.4485294117647059
0.00103468420467,0.45588235294117646
0.00103468420467,0.4632352941176471
0.00115527815498,0.47058823529411764
0.00126461402793,0.47794117647058826
0.00137957893956,0.4852941176470588
0.00137957893956,0.49264705882352944
0.00206936840934,0.5
0.00281664033494,0.5073529411764706
0.00500097365592,0.5147058823529411
0.00511593856755,0.5220588235294118
0.00661048241874,0.5294117647058824
0.00793425730262,0.5367647058823529
0.00811060487812,0.5441176470588235
0.00821999118156,0.5514705882352942
0.00833495609319,0.5588235294117647
0.00850649525312,0.5661764705882353
0.00858797483256,0.5735294117647058
0.00867180871317,0.5808823529411765
0.00870331617242,0.5882352941176471
0.00886411112063,0.5955882352941176
0.00890664952786,0.6029411764705882
0.00890978065134,0.6102941176470589
0.00891507719562,0.6176470588235294
0.0089339334015,0.625
0.0089373744005,0.6323529411764706
0.00893813193264,0.6397058823529411
0.00893923556406,0.6470588235294118
0.00894078698879,0.6544117647058824
0.00894231927073,0.6617647058823529
0.00894604691098,0.6691176470588235
0.00894794545277,0.6764705882352942
0.00896120882137,0.6838235294117647
0.00896619331914,0.6911764705882353
0.00896623592244,0.6985294117647058
0.00896633231774,0.7058823529411765
0.0089663452545,0.7132352941176471
0.00896673089307,0.7205882352941176
0.00896673951859,0.7279411764705882
0.00896673951859,0.7352941176470589
0.00902474556297,0.7426470588235294
0.00971453503276,0.75
0.222162205567,0.7573529411764706
0.223480889101,0.7647058823529411
0.223651172775,0.7720588235294118
0.435165808621,0.7794117647058824
0.435165808621,0.7867647058823529
0.447397272639,0.7941176470588235
0.447397272639,0.8014705882352942
0.670442667304,0.8088235294117647
0.745044541893,0.8161764705882353
0.745044541893,0.8235294117647058
0.745044541893,0.8308823529411765
0.867180871317,0.8382352941176471
0.894078698879,0.8455882352941176
0.894604691098,0.8529411764705882
0.896623592244,0.8602941176470589
0.89663452545,0.8676470588235294
0.896673951859,0.875
0.896673951859,0.8823529411764706
1.11771281617,0.8897058823529411
1.28581533393,0.8970588235294118
1.34079061279,0.9044117647058824
1.63570949468,0.9117647058823529
1.72597835457,0.9191176470588235
1.79326775722,0.9264705882352942
2.69002099302,0.9338235294117647
3.65064925021,0.9411764705882353
6.50018284718,0.9485294117647058
6.60793566557,0.9558823529411765
8.58874554385,0.9632352941176471
10.4131550843,0.9705882352941176
10.5286828998,0.9779411764705882
10.8210438762,0.9852941176470589
11.632104364,0.9926470588235294
11.6875376569,1.0
