Congestion,CDF
0.0,0.007352941176470588
0.0,0.014705882352941176
0.0,0.022058823529411766
0.0,0.029411764705882353
0.0,0.03676470588235294
0.0,0.04411764705882353
0.0,0.051470588235294115
0.0,0.058823529411764705
0.0,0.0661764705882353
0.0,0.07352941176470588
0.0,0.08088235294117647
0.0,0.08823529411764706
0.0,0.09558823529411764
0.0,0.10294117647058823
4.26572683614e-06,0.11029411764705882
4.26572683614e-06,0.11764705882352941
4.26572683614e-06,0.125
4.26572683614e-06,0.1323529411764706
4.26572683614e-06,0.13970588235294118
4.26572683614e-06,0.14705882352941177
4.26572683614e-06,0.15441176470588236
4.26572683614e-06,0.16176470588235295
4.26572683614e-06,0.16911764705882354
4.26572683614e-06,0.17647058823529413
4.26572683614e-06,0.18382352941176472
4.26572683614e-06,0.19117647058823528
4.26572683614e-06,0.19852941176470587
4.26572683614e-06,0.20588235294117646
4.26572683614e-06,0.21323529411764705
4.26572683614e-06,0.22058823529411764
4.26572683614e-06,0.22794117647058823
4.26572683614e-06,0.23529411764705882
4.26572683614e-06,0.2426470588235294
4.26572683614e-06,0.25
4.26572683614e-06,0.25735294117647056
4.26572683614e-06,0.2647058823529412
4.26572683614e-06,0.27205882352941174
4.26572683614e-06,0.27941176470588236
4.26572683614e-06,0.2867647058823529
4.26572683614e-06,0.29411764705882354
4.26572683614e-06,0.3014705882352941
0.000106643170903,0.3088235294117647
0.000106643170903,0.3161764705882353
0.000115174624576,0.3235294117647059
0.000213286341807,0.33088235294117646
0.000213286341807,0.3382352941176471
0.000213286341807,0.34558823529411764
0.000213286341807,0.35294117647058826
0.00031992951271,0.3602941176470588
0.000355477236345,0.36764705882352944
0.000355477236345,0.375
0.000355477236345,0.38235294117647056
0.000426572683614,0.3897058823529412
0.000426572683614,0.39705882352941174
0.000426572683614,0.40441176470588236
0.000426572683614,0.4117647058823529
0.000426572683614,0.41911764705882354
0.000426572683614,0.4264705882352941
0.000426572683614,0.4338235294117647
0.000533215854517,0.4411764705882353
0.000639859025421,0.4485294117647059
0.000639859025421,0.45588235294117646
0.000782049919959,0.4632352941176471
0.000853145367228,0.47058823529411764
0.000853145367228,0.47794117647058826
0.00127971805084,0.4852941176470588
0.00174183845809,0.49264705882352944
0.0030926519562,0.5
0.00316374740347,0.5073529411764706
0.00408798821797,0.5147058823529411
0.00508332447973,0.5220588235294118
0.005154419927,0.5294117647058824
0.00550989716334,0.5367647058823529
0.00558099261061,0.5441176470588235
0.00600756529423,0.5514705882352942
0.0400049517623,0.5588235294117647
0.0406380879604,0.5661764705882353
0.0477907078378,0.5735294117647058
0.0478606498325,0.5808823529411765
0.0479667901601,0.5882352941176471
0.0479931400951,0.5955882352941176
0.0480157258049,0.6029411764705882
0.0480631608748,0.6102941176470589
0.048147944936,0.6176470588235294
0.0481608458996,0.625
0.0481766486741,0.6323529411764706
0.048182249378,0.6397058823529411
0.0481827243296,0.6470588235294118
0.0481835072182,0.6544117647058824
0.0481839794331,0.6617647058823529
0.0481846181843,0.6691176470588235
0.0481851912764,0.6764705882352942
0.0481887103064,0.6838235294117647
0.0481920812351,0.6911764705882353
0.0482016964915,0.6985294117647058
0.0482053685654,0.7058823529411765
0.0482053779825,0.7132352941176471
0.048205420652,0.7205882352941176
0.048205423244,0.7279411764705882
0.0482058013188,0.7352941176470589
0.0482058030468,0.7426470588235294
0.0482058030468,0.75
1.20458768045,0.7573529411764706
1.20471775766,0.7647058823529411
1.28394240955,0.7720588235294118
2.40315804374,0.7794117647058824
2.40315804374,0.7867647058823529
2.40960406176,0.7941176470588235
2.40960406176,0.8014705882352942
3.61376304136,0.8088235294117647
4.0153962491,0.8161764705882353
4.0153962491,0.8235294117647058
4.0153962491,0.8308823529411765
4.80157258049,0.8382352941176471
4.81846181843,0.8455882352941176
4.81887103064,0.8529411764705882
4.82053779825,0.8602941176470589
4.8205423244,0.8676470588235294
4.82058030468,0.875
4.82058030468,0.8823529411764706
6.0231068081,0.8897058823529411
7.19983705975,0.8970588235294118
7.22782899956,0.9044117647058824
8.83148083906,0.9117647058823529
9.60088659,0.9191176470588235
9.6410843896,0.9264705882352942
14.4617407412,0.9338235294117647
19.6753628189,0.9411764705882353
34.9486175433,0.9485294117647058
35.7247961953,0.9558823529411765
46.1937875033,0.9632352941176471
57.3045906289,0.9705882352941176
58.2392813703,0.9779411764705882
61.3050858051,0.9852941176470589
63.0253463535,0.9926470588235294
67.0891551496,1.0
