Congestion,CDF
0.00186399084598,0.005555555555555556
0.00186399084598,0.011111111111111112
0.00186419086187,0.016666666666666666
0.00186419086187,0.022222222222222223
0.00186611511984,0.027777777777777776
0.00186611511984,0.03333333333333333
0.00186770542352,0.03888888888888889
0.00186770542352,0.044444444444444446
0.00186782220474,0.05
0.00186782220474,0.05555555555555555
0.0018694648128,0.06111111111111111
0.0018694648128,0.06666666666666667
0.00187014049353,0.07222222222222222
0.00187014049353,0.07777777777777778
0.00187293427414,0.08333333333333333
0.00187293427414,0.08888888888888889
0.00187298657832,0.09444444444444444
0.00187298657832,0.1
0.00187322182082,0.10555555555555556
0.00187322182082,0.1111111111111111
0.00187343616849,0.11666666666666667
0.00187343616849,0.12222222222222222
0.00187450552194,0.12777777777777777
0.00187450552194,0.13333333333333333
0.00187477586827,0.1388888888888889
0.00187477586827,0.14444444444444443
0.00187616413131,0.15
0.00187616413131,0.15555555555555556
0.00187648482329,0.16111111111111112
0.00187648482329,0.16666666666666666
0.0018772031945,0.17222222222222222
0.0018772031945,0.17777777777777778
0.00187942385648,0.18333333333333332
0.00187942385648,0.18888888888888888
0.00188096588354,0.19444444444444445
0.00188096588354,0.2
0.00188175321132,0.20555555555555555
0.00188175321132,0.2111111111111111
0.00188249620893,0.21666666666666667
0.00188249620893,0.2222222222222222
0.00188280106294,0.22777777777777777
0.00188280106294,0.23333333333333334
0.00188295814383,0.2388888888888889
0.00188295814383,0.24444444444444444
0.00188361053013,0.25
0.00188361053013,0.25555555555555554
0.00188431592688,0.2611111111111111
0.00188431592688,0.26666666666666666
0.00188466992581,0.2722222222222222
0.00188466992581,0.2777777777777778
0.00188491052866,0.2833333333333333
0.00188491052866,0.28888888888888886
0.00188502999694,0.29444444444444445
0.00188502999694,0.3
0.00188527850333,0.3055555555555556
0.00188527850333,0.3111111111111111
0.00188549224325,0.31666666666666665
0.00188549224325,0.32222222222222224
0.00188554069054,0.3277777777777778
0.00188554069054,0.3333333333333333
0.00188627906621,0.3388888888888889
0.00188627906621,0.34444444444444444
0.00188646931396,0.35
0.00188646931396,0.35555555555555557
0.00188673307943,0.3611111111111111
0.00188673307943,0.36666666666666664
0.00188865414452,0.37222222222222223
0.00188865414452,0.37777777777777777
0.00188947022263,0.38333333333333336
0.00188947022263,0.3888888888888889
0.00188995817088,0.39444444444444443
0.00188995817088,0.4
0.00189219564246,0.40555555555555556
0.00189219564246,0.4111111111111111
0.00189264268753,0.4166666666666667
0.00189264268753,0.4222222222222222
0.00189305462313,0.42777777777777776
0.00189305462313,0.43333333333333335
0.00189403569419,0.4388888888888889
0.00189403569419,0.4444444444444444
0.0644888304833,0.45
0.0644888304833,0.45555555555555555
0.0692557942777,0.46111111111111114
0.0692557942777,0.4666666666666667
0.0904442007659,0.4722222222222222
0.0904442007659,0.4777777777777778
0.106391253132,0.48333333333333334
0.106391253132,0.4888888888888889
0.122835871859,0.49444444444444446
0.122835871859,0.5
0.161486408241,0.5055555555555555
0.161486408241,0.5111111111111111
0.164568406569,0.5166666666666667
0.164568406569,0.5222222222222223
0.167186795759,0.5277777777777778
0.167186795759,0.5333333333333333
0.204033413689,0.5388888888888889
0.204033413689,0.5444444444444444
0.20679069806,0.55
0.20679069806,0.5555555555555556
0.213649345466,0.5611111111111111
0.213649345466,0.5666666666666667
0.213887210016,0.5722222222222222
0.213887210016,0.5777777777777777
0.219481200964,0.5833333333333334
0.219481200964,0.5888888888888889
0.229490418448,0.5944444444444444
0.229490418448,0.6
0.238033101982,0.6055555555555555
0.238033101982,0.6111111111111112
0.247215779639,0.6166666666666667
0.247215779639,0.6222222222222222
0.250306597658,0.6277777777777778
0.250306597658,0.6333333333333333
0.252674503562,0.6388888888888888
0.252674503562,0.6444444444444445
0.256967089277,0.65
0.256967089277,0.6555555555555556
0.257900966341,0.6611111111111111
0.257900966341,0.6666666666666666
0.271303164837,0.6722222222222223
0.271303164837,0.6777777777777778
0.275814311823,0.6833333333333333
0.275814311823,0.6888888888888889
0.277131337364,0.6944444444444444
0.277131337364,0.7
0.285348630979,0.7055555555555556
0.285348630979,0.7111111111111111
0.297343718753,0.7166666666666667
0.297343718753,0.7222222222222222
0.310131822616,0.7277777777777777
0.310131822616,0.7333333333333333
0.325914483918,0.7388888888888889
0.325914483918,0.7444444444444445
0.364121387036,0.75
0.364121387036,0.7555555555555555
0.371207557716,0.7611111111111111
0.371207557716,0.7666666666666667
0.379261271183,0.7722222222222223
0.379261271183,0.7777777777777778
0.388939708397,0.7833333333333333
0.388939708397,0.7888888888888889
0.411397129584,0.7944444444444444
0.411397129584,0.8
0.417161300129,0.8055555555555556
0.417161300129,0.8111111111111111
0.428596186604,0.8166666666666667
0.428596186604,0.8222222222222222
0.454230287521,0.8277777777777777
0.454230287521,0.8333333333333334
0.469850887951,0.8388888888888889
0.469850887951,0.8444444444444444
0.492998372455,0.85
0.492998372455,0.8555555555555555
0.533529681281,0.8611111111111112
0.533529681281,0.8666666666666667
0.571333036093,0.8722222222222222
0.571333036093,0.8777777777777778
0.587320637796,0.8833333333333333
0.587320637796,0.8888888888888888
0.598584158807,0.8944444444444445
0.598584158807,0.9
0.641596682428,0.9055555555555556
0.641596682428,0.9111111111111111
0.678562275186,0.9166666666666666
0.678562275186,0.9222222222222223
0.694732822862,0.9277777777777778
0.694732822862,0.9333333333333333
0.767574429585,0.9388888888888889
0.767574429585,0.9444444444444444
0.790912786007,0.95
0.790912786007,0.9555555555555556
0.81724810183,0.9611111111111111
0.81724810183,0.9666666666666667
0.852444174774,0.9722222222222222
0.852444174774,0.9777777777777777
0.925105627281,0.9833333333333333
0.925105627281,0.9888888888888889
0.970754420278,0.9944444444444445
0.970754420278,1.0
