Congestion,CDF
0.0,0.007352941176470588
0.0,0.014705882352941176
0.0,0.022058823529411766
0.0,0.029411764705882353
0.0,0.03676470588235294
0.0,0.04411764705882353
0.0,0.051470588235294115
0.0,0.058823529411764705
0.0,0.0661764705882353
0.0,0.07352941176470588
0.0,0.08088235294117647
0.0,0.08823529411764706
0.0,0.09558823529411764
0.0,0.10294117647058823
6.30146485126e-06,0.11029411764705882
6.30146485126e-06,0.11764705882352941
6.30146485126e-06,0.125
6.30146485126e-06,0.1323529411764706
6.30146485126e-06,0.13970588235294118
6.30146485126e-06,0.14705882352941177
6.30146485126e-06,0.15441176470588236
6.30146485126e-06,0.16176470588235295
6.30146485126e-06,0.16911764705882354
6.30146485126e-06,0.17647058823529413
6.30146485126e-06,0.18382352941176472
6.30146485126e-06,0.19117647058823528
6.30146485126e-06,0.19852941176470587
6.30146485126e-06,0.20588235294117646
6.30146485126e-06,0.21323529411764705
6.30146485126e-06,0.22058823529411764
6.30146485126e-06,0.22794117647058823
6.30146485126e-06,0.23529411764705882
6.30146485126e-06,0.2426470588235294
6.30146485126e-06,0.25
6.30146485126e-06,0.25735294117647056
6.30146485126e-06,0.2647058823529412
6.30146485126e-06,0.27205882352941174
6.30146485126e-06,0.27941176470588236
6.30146485126e-06,0.2867647058823529
6.30146485126e-06,0.29411764705882354
6.30146485126e-06,0.3014705882352941
0.000157536621282,0.3088235294117647
0.000157536621282,0.3161764705882353
0.000170139550984,0.3235294117647059
0.000315073242563,0.33088235294117646
0.000315073242563,0.3382352941176471
0.000315073242563,0.34558823529411764
0.000315073242563,0.35294117647058826
0.000472609863845,0.3602941176470588
0.000525122070938,0.36764705882352944
0.000525122070938,0.375
0.000525122070938,0.38235294117647056
0.000630146485126,0.3897058823529412
0.000630146485126,0.39705882352941174
0.000630146485126,0.40441176470588236
0.000630146485126,0.4117647058823529
0.000630146485126,0.41911764705882354
0.000630146485126,0.4264705882352941
0.000630146485126,0.4338235294117647
0.000787683106408,0.4411764705882353
0.000945219727689,0.4485294117647059
0.000945219727689,0.45588235294117646
0.00115526855606,0.4632352941176471
0.00126029297025,0.47058823529411764
0.00126029297025,0.47794117647058826
0.00189043945538,0.4852941176470588
0.0025730981476,0.49264705882352944
0.00456856201716,0.5
0.00467358643135,0.5073529411764706
0.00603890381579,0.5147058823529411
0.00630559171601,0.5220588235294118
0.00681441709763,0.5294117647058824
0.00750924561442,0.5367647058823529
0.00761427002861,0.5441176470588235
0.00813939209954,0.5514705882352942
0.00824441651373,0.5588235294117647
0.00887456299886,0.5661764705882353
0.00940372402845,0.5735294117647058
0.0094246299249,0.5808823529411765
0.00947440291583,0.5882352941176471
0.00947440291583,0.5955882352941176
0.00971794850958,0.6029411764705882
0.00981276152152,0.6102941176470589
0.0100257944608,0.6176470588235294
0.0100387183647,0.625
0.0101173062016,0.6323529411764706
0.0101173062016,0.6397058823529411
0.010117644356,0.6470588235294118
0.0102362810159,0.6544117647058824
0.0102767957588,0.6617647058823529
0.0103879724079,0.6691176470588235
0.0105391487037,0.6764705882352942
0.0105421897269,0.6838235294117647
0.010624188703,0.6911764705882353
0.0107076290414,0.6985294117647058
0.0107408725681,0.7058823529411765
0.0107408725681,0.7132352941176471
0.010741140924,0.7205882352941176
0.010741140924,0.7279411764705882
0.0107419558101,0.7352941176470589
0.0107419558101,0.7426470588235294
0.0107419558101,0.75
0.255907025398,0.7573529411764706
0.259699310198,0.7647058823529411
0.269348747986,0.7720588235294118
0.485897425479,0.7794117647058824
0.485897425479,0.7867647058823529
0.53120943515,0.7941176470588235
0.53120943515,0.8014705882352942
0.767721076193,0.8088235294117647
0.858166194224,0.8161764705882353
0.858166194224,0.8235294117647058
0.858166194224,0.8308823529411765
0.947440291583,0.8382352941176471
1.01173062016,0.8455882352941176
1.03879724079,0.8529411764705882
1.07408725681,0.8602941176470589
1.0741140924,0.8676470588235294
1.07419558101,0.875
1.07419558101,0.8823529411764706
1.267671461,0.8897058823529411
1.42836041797,0.8970588235294118
1.58542840784,0.9044117647058824
1.86203803069,0.9117647058823529
1.89488058317,0.9191176470588235
2.1482281848,0.9264705882352942
3.22258674303,0.9338235294117647
4.14929889554,0.9411764705882353
7.4998137978,0.9485294117647058
7.77868875163,0.9558823529411765
10.2388272851,0.9632352941176471
11.7634272018,0.9705882352941176
12.3939863734,0.9779411764705882
12.8781705634,0.9852941176470589
13.8594467155,0.9926470588235294
14.5408884253,1.0
