Congestion,CDF
0.0,0.007352941176470588
0.0,0.014705882352941176
0.0,0.022058823529411766
0.0,0.029411764705882353
0.0,0.03676470588235294
0.0,0.04411764705882353
0.0,0.051470588235294115
0.0,0.058823529411764705
0.0,0.0661764705882353
0.0,0.07352941176470588
0.0,0.08088235294117647
0.0,0.08823529411764706
0.0,0.09558823529411764
0.0,0.10294117647058823
7.09432077434e-06,0.11029411764705882
7.09432077434e-06,0.11764705882352941
7.09432077434e-06,0.125
7.09432077434e-06,0.1323529411764706
7.09432077434e-06,0.13970588235294118
7.09432077434e-06,0.14705882352941177
7.09432077434e-06,0.15441176470588236
7.09432077434e-06,0.16176470588235295
7.09432077434e-06,0.16911764705882354
7.09432077434e-06,0.17647058823529413
7.09432077434e-06,0.18382352941176472
7.09432077434e-06,0.19117647058823528
7.09432077434e-06,0.19852941176470587
7.09432077434e-06,0.20588235294117646
7.09432077434e-06,0.21323529411764705
7.09432077434e-06,0.22058823529411764
7.09432077434e-06,0.22794117647058823
7.09432077434e-06,0.23529411764705882
7.09432077434e-06,0.2426470588235294
7.09432077434e-06,0.25
7.09432077434e-06,0.25735294117647056
7.09432077434e-06,0.2647058823529412
7.09432077434e-06,0.27205882352941174
7.09432077434e-06,0.27941176470588236
7.09432077434e-06,0.2867647058823529
7.09432077434e-06,0.29411764705882354
7.09432077434e-06,0.3014705882352941
0.000177358019358,0.3088235294117647
0.000177358019358,0.3161764705882353
0.000191546660907,0.3235294117647059
0.000354716038717,0.33088235294117646
0.000354716038717,0.3382352941176471
0.000354716038717,0.34558823529411764
0.000354716038717,0.35294117647058826
0.000532074058075,0.3602941176470588
0.000591193397861,0.36764705882352944
0.000591193397861,0.375
0.000591193397861,0.38235294117647056
0.000709432077434,0.3897058823529412
0.000709432077434,0.39705882352941174
0.000709432077434,0.40441176470588236
0.000709432077434,0.4117647058823529
0.000709432077434,0.41911764705882354
0.000709432077434,0.4264705882352941
0.000709432077434,0.4338235294117647
0.000886790096792,0.4411764705882353
0.00106414811615,0.4485294117647059
0.00106414811615,0.45588235294117646
0.0013006254753,0.4632352941176471
0.00141886415487,0.47058823529411764
0.00141886415487,0.47794117647058826
0.0021282962323,0.4852941176470588
0.00289684764952,0.49264705882352944
0.00488740221862,0.5
0.00514338256139,0.5073529411764706
0.00526162124097,0.5147058823529411
0.00530745699968,0.5220588235294118
0.00679872407541,0.5294117647058824
0.0071101755515,0.5367647058823529
0.0071101755515,0.5441176470588235
0.00712675975021,0.5514705882352942
0.00712675975021,0.5588235294117647
0.00735056983538,0.5661764705882353
0.00747833647854,0.5735294117647058
0.00760181731218,0.5808823529411765
0.00760545075732,0.5882352941176471
0.00767390334413,0.5955882352941176
0.00767390334413,0.6029411764705882
0.00767390334413,0.6102941176470589
0.00779374691239,0.6176470588235294
0.00783467196462,0.625
0.00794358305797,0.6323529411764706
0.00809937196778,0.6397058823529411
0.0080997009138,0.6470588235294118
0.00817781645217,0.6544117647058824
0.00825730088349,0.6617647058823529
0.00828931208846,0.6691176470588235
0.00828931208846,0.6764705882352942
0.00828948163079,0.6838235294117647
0.00828948163079,0.6911764705882353
0.00829025197754,0.6985294117647058
0.00829025197754,0.7058823529411765
0.00829025197754,0.7132352941176471
0.00845406558942,0.7205882352941176
0.00857230426899,0.7279411764705882
0.00916349766685,0.7352941176470589
0.00928173634642,0.7426470588235294
0.00999116842386,0.75
0.19484367281,0.7573529411764706
0.198589576449,0.7647058823529411
0.205961149761,0.7720588235294118
0.367528491769,0.7794117647058824
0.367528491769,0.7867647058823529
0.408890822608,0.7941176470588235
0.408890822608,0.8014705882352942
0.584531018429,0.8088235294117647
0.654588981413,0.8161764705882353
0.654588981413,0.8235294117647058
0.654588981413,0.8308823529411765
0.712675975021,0.8382352941176471
0.767390334413,0.8455882352941176
0.794358305797,0.8529411764705882
0.828931208846,0.8602941176470589
0.828948163079,0.8676470588235294
0.829025197754,0.875
0.829025197754,0.8823529411764706
0.962234007223,0.8897058823529411
1.07854604692,0.8970588235294118
1.21886091399,0.9044117647058824
1.41513405715,0.9117647058823529
1.42535195004,0.9191176470588235
1.65789632616,0.9264705882352942
2.48707559326,0.9338235294117647
3.15160365746,0.9411764705882353
5.6944479376,0.9485294117647058
6.00142391356,0.9558823529411765
7.89063380593,0.9632352941176471
8.90936348971,0.9705882352941176
9.39810371157,0.9779411764705882
9.9194319167,0.9852941176470589
10.6672655646,0.9926470588235294
11.1980112645,1.0
