Congestion,CDF
0.0,0.007352941176470588
0.0,0.014705882352941176
0.0,0.022058823529411766
0.0,0.029411764705882353
0.0,0.03676470588235294
0.0,0.04411764705882353
0.0,0.051470588235294115
0.0,0.058823529411764705
0.0,0.0661764705882353
0.0,0.07352941176470588
0.0,0.08088235294117647
0.0,0.08823529411764706
0.0,0.09558823529411764
0.0,0.10294117647058823
9.89373580213e-06,0.11029411764705882
9.89373580213e-06,0.11764705882352941
9.89373580213e-06,0.125
9.89373580213e-06,0.1323529411764706
9.89373580213e-06,0.13970588235294118
9.89373580213e-06,0.14705882352941177
9.89373580213e-06,0.15441176470588236
9.89373580213e-06,0.16176470588235295
9.89373580213e-06,0.16911764705882354
9.89373580213e-06,0.17647058823529413
9.89373580213e-06,0.18382352941176472
9.89373580213e-06,0.19117647058823528
9.89373580213e-06,0.19852941176470587
9.89373580213e-06,0.20588235294117646
9.89373580213e-06,0.21323529411764705
9.89373580213e-06,0.22058823529411764
9.89373580213e-06,0.22794117647058823
9.89373580213e-06,0.23529411764705882
9.89373580213e-06,0.2426470588235294
9.89373580213e-06,0.25
9.89373580213e-06,0.25735294117647056
9.89373580213e-06,0.2647058823529412
9.89373580213e-06,0.27205882352941174
9.89373580213e-06,0.27941176470588236
9.89373580213e-06,0.2867647058823529
9.89373580213e-06,0.29411764705882354
9.89373580213e-06,0.3014705882352941
0.000247343395053,0.3088235294117647
0.000247343395053,0.3161764705882353
0.000267130866657,0.3235294117647059
0.000494686790106,0.33088235294117646
0.000494686790106,0.3382352941176471
0.000494686790106,0.34558823529411764
0.000494686790106,0.35294117647058826
0.000742030185159,0.3602941176470588
0.000824477983511,0.36764705882352944
0.000824477983511,0.375
0.000824477983511,0.38235294117647056
0.000989373580213,0.3897058823529412
0.000989373580213,0.39705882352941174
0.000989373580213,0.40441176470588236
0.000989373580213,0.4117647058823529
0.000989373580213,0.41911764705882354
0.000989373580213,0.4264705882352941
0.000989373580213,0.4338235294117647
0.00123671697527,0.4411764705882353
0.00148406037032,0.4485294117647059
0.00148406037032,0.45588235294117646
0.00181385156372,0.4632352941176471
0.00197874716043,0.47058823529411764
0.00197874716043,0.47794117647058826
0.00284684510336,0.4852941176470588
0.00296812074064,0.49264705882352944
0.00309142471047,0.5
0.00381630993146,0.5073529411764706
0.00381630993146,0.5147058823529411
0.00381630993146,0.5220588235294118
0.00381630993146,0.5294117647058824
0.00392504379314,0.5367647058823529
0.00403598377394,0.5441176470588235
0.00403598377394,0.5514705882352942
0.0040399421192,0.5588235294117647
0.00405389621388,0.5661764705882353
0.00405389621388,0.5735294117647058
0.00405389621388,0.5808823529411765
0.00407296584824,0.5882352941176471
0.00417570570942,0.5955882352941176
0.00421729659906,0.6029411764705882
0.0043126316128,0.6102941176470589
0.0044671023338,0.6176470588235294
0.0044671023338,0.625
0.00452749347652,0.6323529411764706
0.00458880363609,0.6397058823529411
0.00461407971614,0.6470588235294118
0.00461407971614,0.6544117647058824
0.00461407971614,0.6617647058823529
0.00461407971614,0.6691176470588235
0.00461417499814,0.6764705882352942
0.00461417499814,0.6838235294117647
0.00461417499814,0.6911764705882353
0.00717295845654,0.6985294117647058
0.00733785405324,0.7058823529411765
0.00948149681037,0.7132352941176471
0.0117900351642,0.7205882352941176
0.0119549307609,0.7279411764705882
0.0127794087444,0.7352941176470589
0.0129443043411,0.7426470588235294
0.0139336779213,0.75
0.104392642735,0.7573529411764706
0.10781579032,0.7647058823529411
0.112490154931,0.7720588235294118
0.196252189657,0.7794117647058824
0.196252189657,0.7867647058823529
0.226374673826,0.7941176470588235
0.226374673826,0.8014705882352942
0.313177928206,0.8088235294117647
0.352784986357,0.8161764705882353
0.352784986357,0.8235294117647058
0.352784986357,0.8308823529411765
0.381630993146,0.8382352941176471
0.405389621388,0.8455882352941176
0.43126316128,0.8529411764705882
0.461407971614,0.8602941176470589
0.461407971614,0.8676470588235294
0.461417499814,0.875
0.461417499814,0.8823529411764706
0.509782264123,0.8897058823529411
0.577883182803,0.8970588235294118
0.673084907206,0.9044117647058824
0.756383363751,0.9117647058823529
0.763261986292,0.9191176470588235
0.922815943228,0.9264705882352942
1.38425249944,0.9338235294117647
1.67334649326,0.9411764705882353
3.02958042406,0.9485294117647058
3.33770017622,0.9558823529411765
4.37574020001,0.9632352941176471
4.7523565863,0.9705882352941176
5.03704109664,0.9779411764705882
5.49553534059,0.9852941176470589
5.90283192542,0.9926470588235294
6.21197439647,1.0
