Congestion,CDF
0.0,0.007352941176470588
0.0,0.014705882352941176
0.0,0.022058823529411766
0.0,0.029411764705882353
0.00526681445543,0.03676470588235294
0.00526681445543,0.04411764705882353
0.0056549652917,0.051470588235294115
0.0056549652917,0.058823529411764705
0.00581840679233,0.0661764705882353
0.00581840679233,0.07352941176470588
0.00644624468404,0.08088235294117647
0.00644624468404,0.08823529411764706
0.00696069305635,0.09558823529411764
0.00696069305635,0.10294117647058823
0.00727121086422,0.11029411764705882
0.00727121086422,0.11764705882352941
0.00731234211812,0.125
0.00731234211812,0.1323529411764706
0.00753451168095,0.13970588235294118
0.00753451168095,0.14705882352941177
0.00777496831311,0.15441176470588236
0.00777496831311,0.16176470588235295
0.00821669878021,0.16911764705882354
0.00821669878021,0.17647058823529413
0.00828518623286,0.18382352941176472
0.00828518623286,0.19117647058823528
0.00840966134205,0.19852941176470587
0.00840966134205,0.20588235294117646
0.00862462370159,0.21323529411764705
0.00862462370159,0.22058823529411764
0.00868686430729,0.22794117647058823
0.00868686430729,0.23529411764705882
0.00878716289692,0.2426470588235294
0.00878716289692,0.25
0.00879307253241,0.25735294117647056
0.00879307253241,0.2647058823529412
0.00978310191992,0.27205882352941174
0.00978310191992,0.27941176470588236
0.0099688494927,0.2867647058823529
0.0099688494927,0.29411764705882354
0.0101301215901,0.3014705882352941
0.0101301215901,0.3088235294117647
0.0105438764232,0.3161764705882353
0.0105438764232,0.3235294117647059
0.0109692302118,0.33088235294117646
0.0109692302118,0.3382352941176471
0.0123975014713,0.34558823529411764
0.0123975014713,0.35294117647058826
0.013726816925,0.3602941176470588
0.013726816925,0.36764705882352944
0.0154994402214,0.375
0.0154994402214,0.38235294117647056
0.0171094665666,0.3897058823529412
0.0171094665666,0.39705882352941174
0.0194118349629,0.40441176470588236
0.0194118349629,0.4117647058823529
0.0204954086715,0.41911764705882354
0.0204954086715,0.4264705882352941
0.0210624113157,0.4338235294117647
0.0210624113157,0.4411764705882353
0.0494758872072,0.4485294117647059
0.0494758872072,0.45588235294117646
0.0577793594142,0.4632352941176471
0.0577793594142,0.47058823529411764
0.190801201141,0.47794117647058826
0.190801201141,0.4852941176470588
0.317049122195,0.49264705882352944
0.317049122195,0.5
0.330924546648,0.5073529411764706
0.330924546648,0.5147058823529411
0.362334621896,0.5220588235294118
0.362334621896,0.5294117647058824
0.374593436306,0.5367647058823529
0.374593436306,0.5441176470588235
0.411557397894,0.5514705882352942
0.411557397894,0.5588235294117647
0.48375059513,0.5661764705882353
0.48375059513,0.5735294117647058
0.528649737461,0.5808823529411765
0.528649737461,0.5882352941176471
0.638009643925,0.5955882352941176
0.638009643925,0.6029411764705882
0.733468741651,0.6102941176470589
0.733468741651,0.6176470588235294
0.779121199353,0.625
0.779121199353,0.6323529411764706
0.780631635745,0.6397058823529411
0.780631635745,0.6470588235294118
0.879307253241,0.6544117647058824
0.879307253241,0.6617647058823529
0.893626056764,0.6691176470588235
0.893626056764,0.6764705882352942
0.93491468041,0.6838235294117647
0.93491468041,0.6911764705882353
0.936495649106,0.6985294117647058
0.936495649106,0.7058823529411765
0.9552327996,0.7132352941176471
0.9552327996,0.7205882352941176
1.04082100818,0.7279411764705882
1.04082100818,0.7352941176470589
1.1257748222,0.7426470588235294
1.1257748222,0.75
1.17644584157,0.7573529411764706
1.17644584157,0.7647058823529411
1.20249906343,0.7720588235294118
1.20249906343,0.7794117647058824
1.71094665666,0.7867647058823529
1.71094665666,0.7941176470588235
1.82080790426,0.8014705882352942
1.82080790426,0.8088235294117647
2.04177909045,0.8161764705882353
2.04177909045,0.8235294117647058
2.04954086715,0.8308823529411765
2.04954086715,0.8382352941176471
2.10624113157,0.8455882352941176
2.10624113157,0.8529411764705882
2.19498294673,0.8602941176470589
2.19498294673,0.8676470588235294
2.25050085518,0.875
2.25050085518,0.8823529411764706
2.80496340516,0.8897058823529411
2.80496340516,0.8970588235294118
2.88629724249,0.9044117647058824
2.88629724249,0.9117647058823529
3.45288490851,0.9191176470588235
3.45288490851,0.9264705882352942
4.30904269754,0.9338235294117647
4.30904269754,0.9411764705882353
4.36968725805,0.9485294117647058
4.36968725805,0.9558823529411765
6.09696549502,0.9632352941176471
6.09696549502,0.9705882352941176
7.70862276992,0.9779411764705882
7.70862276992,0.9852941176470589
9.14760783729,0.9926470588235294
9.14760783729,1.0
