Congestion,CDF
0.0,0.007352941176470588
0.0,0.014705882352941176
0.013528334061,0.022058823529411766
0.013528334061,0.029411764705882353
0.0198520960017,0.03676470588235294
0.0198520960017,0.04411764705882353
0.0207966196678,0.051470588235294115
0.0207966196678,0.058823529411764705
0.0211543285297,0.0661764705882353
0.0211543285297,0.07352941176470588
0.0216324766459,0.08088235294117647
0.0216324766459,0.08823529411764706
0.0219198297188,0.09558823529411764
0.0219198297188,0.10294117647058823
0.0219744806881,0.11029411764705882
0.0219744806881,0.11764705882352941
0.0227529025008,0.125
0.0227529025008,0.1323529411764706
0.0230894166471,0.13970588235294118
0.0230894166471,0.14705882352941177
0.0244924362634,0.15441176470588236
0.0244924362634,0.16176470588235295
0.0253491211943,0.16911764705882354
0.0253491211943,0.17647058823529413
0.0258286543675,0.18382352941176472
0.0258286543675,0.19117647058823528
0.0258408728546,0.19852941176470587
0.0258408728546,0.20588235294117646
0.026527206452,0.21323529411764705
0.026527206452,0.22058823529411764
0.0267859253449,0.22794117647058823
0.0267859253449,0.23529411764705882
0.0271225199299,0.2426470588235294
0.0271225199299,0.25
0.027150384678,0.25735294117647056
0.027150384678,0.2647058823529412
0.0278951319066,0.27205882352941174
0.0278951319066,0.27941176470588236
0.0284958566701,0.2867647058823529
0.0284958566701,0.29411764705882354
0.0286953840752,0.3014705882352941
0.0286953840752,0.3088235294117647
0.0289443656585,0.3161764705882353
0.0289443656585,0.3235294117647059
0.0299220200646,0.33088235294117646
0.0299220200646,0.3382352941176471
0.0302951739682,0.34558823529411764
0.0302951739682,0.35294117647058826
0.0318529867426,0.3602941176470588
0.0318529867426,0.36764705882352944
0.0319806687871,0.375
0.0319806687871,0.38235294117647056
0.0325137913139,0.3897058823529412
0.0325137913139,0.39705882352941174
0.0348135847059,0.40441176470588236
0.0348135847059,0.4117647058823529
0.0351808711689,0.41911764705882354
0.0351808711689,0.4264705882352941
0.0376713876758,0.4338235294117647
0.0376713876758,0.4411764705882353
0.547812815788,0.4485294117647059
0.547812815788,0.45588235294117646
0.815587146307,0.4632352941176471
0.815587146307,0.47058823529411764
0.836965307511,0.47794117647058826
0.836965307511,0.4852941176470588
0.853615755601,0.49264705882352944
0.853615755601,0.5
1.07128505262,0.5073529411764706
1.07128505262,0.5147058823529411
1.4233266564,0.5220588235294118
1.4233266564,0.5294117647058824
1.46230435728,0.5367647058823529
1.46230435728,0.5441176470588235
1.5018071808,0.5514705882352942
1.5018071808,0.5588235294117647
1.86300538818,0.5661764705882353
1.86300538818,0.5735294117647058
1.90162713233,0.5808823529411765
1.90162713233,0.5882352941176471
2.18082458898,0.5955882352941176
2.18082458898,0.6029411764705882
2.18286758565,0.6102941176470589
2.18286758565,0.6176470588235294
2.30771772907,0.625
2.30771772907,0.6323529411764706
2.40136432914,0.6397058823529411
2.40136432914,0.6470588235294118
2.86953840752,0.6544117647058824
2.86953840752,0.6617647058823529
2.99332275348,0.6691176470588235
2.99332275348,0.6764705882352942
3.14808113306,0.6838235294117647
3.14808113306,0.6911764705882353
3.1717703402,0.6985294117647058
3.1717703402,0.7058823529411765
3.33395894961,0.7132352941176471
3.33395894961,0.7205882352941176
3.39967443177,0.7279411764705882
3.39967443177,0.7352941176470589
3.53161545095,0.7426470588235294
3.53161545095,0.75
3.5340699444,0.7573529411764706
3.5340699444,0.7647058823529411
3.76713876758,0.7720588235294118
3.76713876758,0.7794117647058824
4.00347433185,0.7867647058823529
4.00347433185,0.7941176470588235
4.4603864492,0.8014705882352942
4.4603864492,0.8088235294117647
4.47341831332,0.8161764705882353
4.47341831332,0.8235294117647058
4.67768166528,0.8308823529411765
4.67768166528,0.8382352941176471
5.02614595767,0.8455882352941176
5.02614595767,0.8529411764705882
5.06107226689,0.8602941176470589
5.06107226689,0.8676470588235294
5.24063603167,0.875
5.24063603167,0.8823529411764706
5.56953371599,0.8897058823529411
5.56953371599,0.8970588235294118
6.91724601871,0.9044117647058824
6.91724601871,0.9117647058823529
8.16623298873,0.9191176470588235
8.16623298873,0.9264705882352942
8.63662340275,0.9338235294117647
8.63662340275,0.9411764705882353
10.3363959048,0.9485294117647058
10.3363959048,0.9558823529411765
10.7259993529,0.9632352941176471
10.7259993529,0.9705882352941176
14.0797035284,0.9779411764705882
14.0797035284,0.9852941176470589
16.3324816691,0.9926470588235294
16.3324816691,1.0
