Congestion,CDF
0.0,0.007352941176470588
0.0,0.014705882352941176
0.0,0.022058823529411766
0.0,0.029411764705882353
0.00256267248295,0.03676470588235294
0.00256267248295,0.04411764705882353
0.00274550491163,0.051470588235294115
0.00274550491163,0.058823529411764705
0.00294645840208,0.0661764705882353
0.00294645840208,0.07352941176470588
0.0030133545456,0.08088235294117647
0.0030133545456,0.08823529411764706
0.00303270922377,0.09558823529411764
0.00303270922377,0.10294117647058823
0.00305871984209,0.11029411764705882
0.00305871984209,0.11764705882352941
0.00325889630746,0.125
0.00325889630746,0.1323529411764706
0.003264690632,0.13970588235294118
0.003264690632,0.14705882352941177
0.00355849060562,0.15441176470588236
0.00355849060562,0.16176470588235295
0.00368611606248,0.16911764705882354
0.00368611606248,0.17647058823529413
0.00373813023872,0.18382352941176472
0.00373813023872,0.19117647058823528
0.00375805373473,0.19852941176470587
0.00375805373473,0.20588235294117646
0.003892364888,0.21323529411764705
0.003892364888,0.22058823529411764
0.00395002121528,0.22794117647058823
0.00395002121528,0.23529411764705882
0.00413756039955,0.2426470588235294
0.00413756039955,0.25
0.00525156806836,0.25735294117647056
0.00525156806836,0.2647058823529412
0.00528392709877,0.27205882352941174
0.00528392709877,0.27941176470588236
0.00543995202622,0.2867647058823529
0.00543995202622,0.29411764705882354
0.00549115323613,0.3014705882352941
0.00549115323613,0.3088235294117647
0.00672688008464,0.3161764705882353
0.00672688008464,0.3235294117647059
0.0070247505703,0.33088235294117646
0.0070247505703,0.3382352941176471
0.00760124228167,0.34558823529411764
0.00760124228167,0.35294117647058826
0.00784782595889,0.3602941176470588
0.00784782595889,0.36764705882352944
0.0085844507688,0.375
0.0085844507688,0.38235294117647056
0.00866158744292,0.3897058823529412
0.00866158744292,0.39705882352941174
0.0101596702826,0.40441176470588236
0.0101596702826,0.4117647058823529
0.0114610210083,0.41911764705882354
0.0114610210083,0.4264705882352941
0.0140002529041,0.4338235294117647
0.0140002529041,0.4411764705882353
0.0152653270754,0.4485294117647059
0.0152653270754,0.45588235294117646
0.0155016599677,0.4632352941176471
0.0155016599677,0.47058823529411764
0.0392278756336,0.47794117647058826
0.0392278756336,0.4852941176470588
0.101086836911,0.49264705882352944
0.101086836911,0.5
0.122338080851,0.5073529411764706
0.122338080851,0.5147058823529411
0.147322920104,0.5220588235294118
0.147322920104,0.5294117647058824
0.147322920104,0.5367647058823529
0.147322920104,0.5441176470588235
0.153179186343,0.5514705882352942
0.153179186343,0.5588235294117647
0.203875501925,0.5661764705882353
0.203875501925,0.5735294117647058
0.203875501925,0.5808823529411765
0.203875501925,0.5882352941176471
0.211205635171,0.5955882352941176
0.211205635171,0.6029411764705882
0.309610114447,0.6102941176470589
0.309610114447,0.6176470588235294
0.32508672232,0.625
0.32508672232,0.6323529411764706
0.32508672232,0.6397058823529411
0.32508672232,0.6470588235294118
0.382914934463,0.6544117647058824
0.382914934463,0.6617647058823529
0.395002121528,0.6691176470588235
0.395002121528,0.6764705882352942
0.459911478038,0.6838235294117647
0.459911478038,0.6911764705882353
0.521418676597,0.6985294117647058
0.521418676597,0.7058823529411765
0.523128293577,0.7132352941176471
0.523128293577,0.7205882352941176
0.55545622363,0.7279411764705882
0.55545622363,0.7352941176470589
0.661226987456,0.7426470588235294
0.661226987456,0.75
0.783019867236,0.7573529411764706
0.783019867236,0.7647058823529411
0.783019867236,0.7720588235294118
0.783019867236,0.7794117647058824
0.792559605787,0.7867647058823529
0.792559605787,0.7941176470588235
1.01596702826,0.8014705882352942
1.01596702826,0.8088235294117647
1.2360233702,0.8161764705882353
1.2360233702,0.8235294117647058
1.28157625299,0.8308823529411765
1.28157625299,0.8382352941176471
1.42420047805,0.8455882352941176
1.42420047805,0.8529411764705882
1.52653270754,0.8602941176470589
1.52653270754,0.8676470588235294
1.52738573175,0.875
1.52738573175,0.8823529411764706
1.55016599677,0.8897058823529411
1.55016599677,0.8970588235294118
1.73091701529,0.9044117647058824
1.73091701529,0.9117647058823529
1.75207402429,0.9191176470588235
1.75207402429,0.9264705882352942
1.91287168507,0.9338235294117647
1.91287168507,0.9411764705882353
3.09518819487,0.9485294117647058
3.09518819487,0.9558823529411765
4.47672399471,0.9632352941176471
4.47672399471,0.9705882352941176
5.40722471683,0.9779411764705882
5.40722471683,0.9852941176470589
6.34078580525,0.9926470588235294
6.34078580525,1.0
