Congestion,CDF
0.0,0.007352941176470588
0.0,0.014705882352941176
0.0,0.022058823529411766
0.0,0.029411764705882353
0.0162886206341,0.03676470588235294
0.0162886206341,0.04411764705882353
0.017399507889,0.051470588235294115
0.017399507889,0.058823529411764705
0.0175944682808,0.0661764705882353
0.0175944682808,0.07352941176470588
0.0183120543915,0.08088235294117647
0.0183120543915,0.08823529411764706
0.0184436996423,0.09558823529411764
0.0184436996423,0.10294117647058823
0.0190171477885,0.11029411764705882
0.0190171477885,0.11764705882352941
0.0190947043092,0.125
0.0190947043092,0.1323529411764706
0.0199276456838,0.13970588235294118
0.0199276456838,0.14705882352941177
0.0209730511901,0.15441176470588236
0.0209730511901,0.16176470588235295
0.021899668384,0.16911764705882354
0.021899668384,0.17647058823529413
0.0222145742983,0.18382352941176472
0.0222145742983,0.19117647058823528
0.0224261356505,0.19852941176470587
0.0224261356505,0.20588235294117646
0.022822502857,0.21323529411764705
0.022822502857,0.22058823529411764
0.0233034882577,0.22794117647058823
0.0233034882577,0.23529411764705882
0.0233603420765,0.2426470588235294
0.0233603420765,0.25
0.0237837477299,0.25735294117647056
0.0237837477299,0.2647058823529412
0.0245882379354,0.27205882352941174
0.0245882379354,0.27941176470588236
0.0248759648372,0.2867647058823529
0.0248759648372,0.29411764705882354
0.0251554858449,0.3014705882352941
0.0251554858449,0.3088235294117647
0.0254490352318,0.3161764705882353
0.0254490352318,0.3235294117647059
0.0262052556578,0.33088235294117646
0.0262052556578,0.3382352941176471
0.0269795798498,0.34558823529411764
0.0269795798498,0.35294117647058826
0.0285369228896,0.3602941176470588
0.0285369228896,0.36764705882352944
0.0288797596976,0.375
0.0288797596976,0.38235294117647056
0.0295087898625,0.3897058823529412
0.0295087898625,0.39705882352941174
0.0317801031713,0.40441176470588236
0.0317801031713,0.4117647058823529
0.0322669563843,0.41911764705882354
0.0322669563843,0.4264705882352941
0.0342918796153,0.4338235294117647
0.0342918796153,0.4411764705882353
0.418464073009,0.4485294117647059
0.418464073009,0.45588235294117646
0.629741766764,0.4632352941176471
0.629741766764,0.47058823529411764
0.63775072775,0.47794117647058826
0.63775072775,0.4852941176470588
0.767479219423,0.49264705882352944
0.767479219423,0.5
0.936363462093,0.5073529411764706
0.936363462093,0.5147058823529411
1.25421301261,0.5220588235294118
1.25421301261,0.5294117647058824
1.26278189231,0.5367647058823529
1.26278189231,0.5441176470588235
1.29281227996,0.5514705882352942
1.29281227996,0.5588235294117647
1.60879779418,0.5661764705882353
1.60879779418,0.5735294117647058
1.70629244089,0.5808823529411765
1.70629244089,0.5882352941176471
1.8697273631,0.5955882352941176
1.8697273631,0.6029411764705882
1.93349073301,0.6102941176470589
1.93349073301,0.6176470588235294
1.97859499002,0.625
1.97859499002,0.6323529411764706
2.0325076362,0.6397058823529411
2.0325076362,0.6470588235294118
2.51554858449,0.6544117647058824
2.51554858449,0.6617647058823529
2.57560238909,0.6691176470588235
2.57560238909,0.6764705882352942
2.69670789167,0.6838235294117647
2.69670789167,0.6911764705882353
2.87235533181,0.6985294117647058
2.87235533181,0.7058823529411765
2.88797596976,0.7132352941176471
2.88797596976,0.7205882352941176
2.89490992135,0.7279411764705882
2.89490992135,0.7352941176470589
3.12952705948,0.7426470588235294
3.12952705948,0.75
3.22669563843,0.7573529411764706
3.22669563843,0.7647058823529411
3.42918796153,0.7720588235294118
3.42918796153,0.7794117647058824
3.46734627262,0.7867647058823529
3.46734627262,0.7941176470588235
3.71477747876,0.8014705882352942
3.71477747876,0.8088235294117647
4.05809572927,0.8161764705882353
4.05809572927,0.8235294117647058
4.1422725905,0.8308823529411765
4.1422725905,0.8382352941176471
4.27001230092,0.8455882352941176
4.27001230092,0.8529411764705882
4.55998472985,0.8602941176470589
4.55998472985,0.8676470588235294
4.59021591612,0.875
4.59021591612,0.8823529411764706
5.07137573659,0.8897058823529411
5.07137573659,0.8970588235294118
6.19276859271,0.9044117647058824
6.19276859271,0.9117647058823529
7.31419952318,0.9191176470588235
7.31419952318,0.9264705882352942
7.83309187053,0.9338235294117647
7.83309187053,0.9411764705882353
9.30768201586,0.9485294117647058
9.30768201586,0.9558823529411765
9.83389391709,0.9632352941176471
9.83389391709,0.9705882352941176
12.8986759211,0.9779411764705882
12.8986759211,0.9852941176470589
14.9974102424,0.9926470588235294
14.9974102424,1.0
