Congestion,CDF
0.0,0.007352941176470588
0.0,0.014705882352941176
0.0,0.022058823529411766
0.0,0.029411764705882353
0.0110890793746,0.03676470588235294
0.0110890793746,0.04411764705882353
0.0115475798333,0.051470588235294115
0.0115475798333,0.058823529411764705
0.0127470004114,0.0661764705882353
0.0127470004114,0.07352941176470588
0.0130429052853,0.08088235294117647
0.0130429052853,0.08823529411764706
0.0135745772572,0.09558823529411764
0.0135745772572,0.10294117647058823
0.0139794365391,0.11029411764705882
0.0139794365391,0.11764705882352941
0.0140736818879,0.125
0.0140736818879,0.1323529411764706
0.0148077027962,0.13970588235294118
0.0148077027962,0.14705882352941177
0.0150258387977,0.15441176470588236
0.0150258387977,0.16176470588235295
0.0154245987524,0.16911764705882354
0.0154245987524,0.17647058823529413
0.0161598974415,0.18382352941176472
0.0161598974415,0.19117647058823528
0.0166690596828,0.19852941176470587
0.0166690596828,0.20588235294117646
0.0169935532243,0.21323529411764705
0.0169935532243,0.22058823529411764
0.0172512386322,0.22794117647058823
0.0172512386322,0.23529411764705882
0.0181308285552,0.2426470588235294
0.0181308285552,0.25
0.0182098871189,0.25735294117647056
0.0182098871189,0.2647058823529412
0.0185511365719,0.27205882352941174
0.0185511365719,0.27941176470588236
0.0188126629005,0.2867647058823529
0.0188126629005,0.29411764705882354
0.018814345217,0.3014705882352941
0.018814345217,0.3088235294117647
0.0192909205211,0.3161764705882353
0.0192909205211,0.3235294117647059
0.0193819921662,0.33088235294117646
0.0193819921662,0.3382352941176471
0.0215179532477,0.34558823529411764
0.0215179532477,0.35294117647058826
0.0223383886801,0.3602941176470588
0.0223383886801,0.36764705882352944
0.0240951881772,0.375
0.0240951881772,0.38235294117647056
0.0242606755572,0.3897058823529412
0.0242606755572,0.39705882352941174
0.0266631342614,0.40441176470588236
0.0266631342614,0.4117647058823529
0.0274013342175,0.41911764705882354
0.0274013342175,0.4264705882352941
0.0288236767046,0.4338235294117647
0.0288236767046,0.4411764705882353
0.244461330597,0.4485294117647059
0.244461330597,0.45588235294117646
0.390931510491,0.4632352941176471
0.390931510491,0.47058823529411764
0.400905239194,0.47794117647058826
0.400905239194,0.4852941176470588
0.62327127657,0.49264705882352944
0.62327127657,0.5
0.682502110835,0.5073529411764706
0.682502110835,0.5147058823529411
0.839449283792,0.5220588235294118
0.839449283792,0.5294117647058824
0.958109743744,0.5367647058823529
0.958109743744,0.5441176470588235
1.01325505972,0.5514705882352942
1.01325505972,0.5588235294117647
1.05239613255,0.5661764705882353
1.05239613255,0.5735294117647058
1.39734710829,0.5808823529411765
1.39734710829,0.5882352941176471
1.40484344891,0.5955882352941176
1.40484344891,0.6029411764705882
1.42215134503,0.6102941176470589
1.42215134503,0.6176470588235294
1.48136682523,0.625
1.48136682523,0.6323529411764706
1.4912825069,0.6397058823529411
1.4912825069,0.6470588235294118
1.8814345217,0.6544117647058824
1.8814345217,0.6617647058823529
1.88382366479,0.6691176470588235
1.88382366479,0.6764705882352942
2.04433971874,0.6838235294117647
2.04433971874,0.6911764705882353
2.10605348684,0.6985294117647058
2.10605348684,0.7058823529411765
2.11605537371,0.7132352941176471
2.11605537371,0.7205882352941176
2.37936226039,0.7279411764705882
2.37936226039,0.7352941176470589
2.40686557048,0.7426470588235294
2.40686557048,0.75
2.42606755572,0.7573529411764706
2.42606755572,0.7647058823529411
2.55778875215,0.7720588235294118
2.55778875215,0.7794117647058824
2.74013342175,0.7867647058823529
2.74013342175,0.7941176470588235
2.88236767046,0.8014705882352942
2.88236767046,0.8088235294117647
2.90205625056,0.8161764705882353
2.90205625056,0.8235294117647058
3.24329056969,0.8308823529411765
3.24329056969,0.8382352941176471
3.35108427835,0.8455882352941176
3.35108427835,0.8529411764705882
3.43575261848,0.8602941176470589
3.43575261848,0.8676470588235294
3.65599021303,0.875
3.65599021303,0.8823529411764706
4.21231509687,0.8897058823529411
4.21231509687,0.8970588235294118
4.88227190151,0.9044117647058824
4.88227190151,0.9117647058823529
5.78661381239,0.9191176470588235
5.78661381239,0.9264705882352942
6.40327673632,0.9338235294117647
6.40327673632,0.9411764705882353
7.43756620581,0.9485294117647058
7.43756620581,0.9558823529411765
8.28881451835,0.9632352941176471
8.28881451835,0.9705882352941176
10.8211091886,0.9779411764705882
10.8211091886,0.9852941176470589
12.650223983,0.9926470588235294
12.650223983,1.0
