Congestion,CDF
0.0,0.007352941176470588
0.0,0.014705882352941176
0.0,0.022058823529411766
0.0,0.029411764705882353
0.0,0.03676470588235294
0.0,0.04411764705882353
0.0,0.051470588235294115
0.0,0.058823529411764705
0.0,0.0661764705882353
0.0,0.07352941176470588
0.0,0.08088235294117647
0.0,0.08823529411764706
0.0,0.09558823529411764
0.0,0.10294117647058823
1.61443890154e-06,0.11029411764705882
1.61443890154e-06,0.11764705882352941
1.61443890154e-06,0.125
1.61443890154e-06,0.1323529411764706
1.61443890154e-06,0.13970588235294118
1.61443890154e-06,0.14705882352941177
1.61443890154e-06,0.15441176470588236
1.61443890154e-06,0.16176470588235295
1.61443890154e-06,0.16911764705882354
1.61443890154e-06,0.17647058823529413
1.61443890154e-06,0.18382352941176472
1.61443890154e-06,0.19117647058823528
1.61443890154e-06,0.19852941176470587
1.61443890154e-06,0.20588235294117646
1.61443890154e-06,0.21323529411764705
1.61443890154e-06,0.22058823529411764
1.61443890154e-06,0.22794117647058823
1.61443890154e-06,0.23529411764705882
1.61443890154e-06,0.2426470588235294
1.61443890154e-06,0.25
1.61443890154e-06,0.25735294117647056
1.61443890154e-06,0.2647058823529412
1.61443890154e-06,0.27205882352941174
1.61443890154e-06,0.27941176470588236
1.61443890154e-06,0.2867647058823529
1.61443890154e-06,0.29411764705882354
1.61443890154e-06,0.3014705882352941
4.03609725384e-05,0.3088235294117647
4.03609725384e-05,0.3161764705882353
4.35898503414e-05,0.3235294117647059
8.07219450768e-05,0.33088235294117646
8.07219450768e-05,0.3382352941176471
8.07219450768e-05,0.34558823529411764
8.07219450768e-05,0.35294117647058826
0.000121082917615,0.3602941176470588
0.000134536575128,0.36764705882352944
0.000134536575128,0.375
0.000134536575128,0.38235294117647056
0.000161443890154,0.3897058823529412
0.000161443890154,0.39705882352941174
0.000161443890154,0.40441176470588236
0.000161443890154,0.4117647058823529
0.000161443890154,0.41911764705882354
0.000161443890154,0.4264705882352941
0.000161443890154,0.4338235294117647
0.000201804862692,0.4411764705882353
0.00024216583523,0.4485294117647059
0.00024216583523,0.45588235294117646
0.000295980465281,0.4632352941176471
0.000322887780307,0.47058823529411764
0.000322887780307,0.47794117647058826
0.000484331670461,0.4852941176470588
0.000659229218127,0.49264705882352944
0.00117046820361,0.5
0.00119737551864,0.5073529411764706
0.00154717061397,0.5147058823529411
0.00192387302433,0.5220588235294118
0.00195078033935,0.5294117647058824
0.00208531691448,0.5367647058823529
0.00211222422951,0.5441176470588235
0.00227366811966,0.5514705882352942
0.00274298197907,0.5588235294117647
0.0038608972134,0.5661764705882353
0.0206375355876,0.5735294117647058
0.0207499413606,0.5808823529411765
0.0210841504127,0.5882352941176471
0.021139543293,0.5955882352941176
0.0211940798475,0.6029411764705882
0.0211960380477,0.6102941176470589
0.0212610427986,0.6176470588235294
0.0212829962721,0.625
0.0212846944736,0.6323529411764706
0.0212926383882,0.6397058823529411
0.0212961643384,0.6470588235294118
0.021296379206,0.6544117647058824
0.0212969098473,0.6617647058823529
0.0212976711058,0.6691176470588235
0.0212979188302,0.6764705882352942
0.021298616028,0.6838235294117647
0.0212990600611,0.6911764705882353
0.0213038251039,0.6985294117647058
0.0213055516424,0.7058823529411765
0.0213055675236,0.7132352941176471
0.0213056589051,0.7205882352941176
0.0213056627684,0.7279411764705882
0.0213057396144,0.7352941176470589
0.0213057421899,0.7426470588235294
0.0213057421899,0.75
0.532422746183,0.7573529411764706
0.532476501527,0.7647058823529411
0.537252749029,0.7720588235294118
1.05970399237,0.7794117647058824
1.05970399237,0.7867647058823529
1.0649308014,0.7941176470588235
1.0649308014,0.8014705882352942
1.59726823855,0.8088235294117647
1.77477139232,0.8161764705882353
1.77477139232,0.8235294117647058
1.77477139232,0.8308823529411765
2.11960380477,0.8382352941176471
2.12976711058,0.8455882352941176
2.12990600611,0.8529411764705882
2.13055675236,0.8602941176470589
2.13056627684,0.8676470588235294
2.13057421899,0.875
2.13057421899,0.8823529411764706
2.66221462921,0.8897058823529411
3.16811903364,0.8970588235294118
3.19419464022,0.9044117647058824
3.90324083968,0.9117647058823529
4.23355813407,0.9191176470588235
4.26113216735,0.9264705882352942
6.39172239943,0.9338235294117647
8.69639105271,0.9411764705882353
15.4464429849,0.9485294117647058
15.7854401646,0.9558823529411765
20.416527689,0.9632352941176471
25.2508708911,0.9705882352941176
25.525169089,0.9779411764705882
25.7390219565,0.9852941176470589
27.8140160925,0.9926470588235294
28.2001058139,1.0
