Congestion,CDF
0.0140867618308,0.005555555555555556
0.0140867618308,0.011111111111111112
0.0142245817866,0.016666666666666666
0.0142245817866,0.022222222222222223
0.0142721918887,0.027777777777777776
0.0142721918887,0.03333333333333333
0.0144786055488,0.03888888888888889
0.0144786055488,0.044444444444444446
0.0145270879704,0.05
0.0145270879704,0.05555555555555555
0.0146557908927,0.06111111111111111
0.0146557908927,0.06666666666666667
0.0147118586557,0.07222222222222222
0.0147118586557,0.07777777777777778
0.014715533271,0.08333333333333333
0.014715533271,0.08888888888888889
0.0147163421064,0.09444444444444444
0.0147163421064,0.1
0.0147774644522,0.10555555555555556
0.0147774644522,0.1111111111111111
0.0148272463143,0.11666666666666667
0.0148272463143,0.12222222222222222
0.0149106064213,0.12777777777777777
0.0149106064213,0.13333333333333333
0.0149714479728,0.1388888888888889
0.0149714479728,0.14444444444444443
0.0150338114874,0.15
0.0150338114874,0.15555555555555556
0.0150595941336,0.16111111111111112
0.0150595941336,0.16666666666666666
0.0150806511338,0.17222222222222222
0.0150806511338,0.17777777777777778
0.0153481353028,0.18333333333333332
0.0153481353028,0.18888888888888888
0.0153769850224,0.19444444444444445
0.0153769850224,0.2
0.0153916091015,0.20555555555555555
0.0153916091015,0.2111111111111111
0.0154678112593,0.21666666666666667
0.0154678112593,0.2222222222222222
0.0154873235745,0.22777777777777777
0.0154873235745,0.23333333333333334
0.0156226663949,0.2388888888888889
0.0156226663949,0.24444444444444444
0.015743477738,0.25
0.015743477738,0.25555555555555554
0.0159405446889,0.2611111111111111
0.0159405446889,0.26666666666666666
0.0160729614943,0.2722222222222222
0.0160729614943,0.2777777777777778
0.0165204821255,0.2833333333333333
0.0165204821255,0.28888888888888886
0.0168256131245,0.29444444444444445
0.0168256131245,0.3
0.017266150522,0.3055555555555556
0.017266150522,0.3111111111111111
0.0175502802631,0.31666666666666665
0.0175502802631,0.32222222222222224
0.0175895051362,0.3277777777777778
0.0175895051362,0.3333333333333333
0.0176237944029,0.3388888888888889
0.0176237944029,0.34444444444444444
0.0176381228375,0.35
0.0176381228375,0.35555555555555557
0.0176527493295,0.3611111111111111
0.0176527493295,0.36666666666666664
0.0176544722537,0.37222222222222223
0.0176544722537,0.37777777777777777
0.0180383073357,0.38333333333333336
0.0180383073357,0.3888888888888889
0.0180708139937,0.39444444444444443
0.0180708139937,0.4
0.0182148356038,0.40555555555555556
0.0182148356038,0.4111111111111111
0.0184732297369,0.4166666666666667
0.0184732297369,0.4222222222222222
0.0184839133088,0.42777777777777776
0.0184839133088,0.43333333333333335
0.0187381744687,0.4388888888888889
0.0187381744687,0.4444444444444444
0.410000406723,0.45
0.410000406723,0.45555555555555555
0.469710604283,0.46111111111111114
0.469710604283,0.4666666666666667
0.528724174967,0.4722222222222222
0.528724174967,0.4777777777777778
0.529729215987,0.48333333333333334
0.529729215987,0.4888888888888889
0.913380991612,0.49444444444444446
0.913380991612,0.5
1.09198016311,0.5055555555555555
1.09198016311,0.5111111111111111
1.30405289529,0.5166666666666667
1.30405289529,0.5222222222222223
1.32690411448,0.5277777777777778
1.32690411448,0.5333333333333333
1.57349644178,0.5388888888888889
1.57349644178,0.5444444444444444
1.89113279431,0.55
1.89113279431,0.5555555555555556
1.89867503582,0.5611111111111111
1.89867503582,0.5666666666666667
1.95681970679,0.5722222222222222
1.95681970679,0.5777777777777777
1.98979630662,0.5833333333333334
1.98979630662,0.5888888888888889
1.99378382237,0.5944444444444444
1.99378382237,0.6
2.04699156944,0.6055555555555555
2.04699156944,0.6111111111111112
2.07700675371,0.6166666666666667
2.07700675371,0.6222222222222222
2.12191502197,0.6277777777777778
2.12191502197,0.6333333333333333
2.20248198374,0.6388888888888888
2.20248198374,0.6444444444444445
2.31959776981,0.65
2.31959776981,0.6555555555555556
2.33596443334,0.6611111111111111
2.33596443334,0.6666666666666666
2.391190371,0.6722222222222223
2.391190371,0.6777777777777778
2.40034211905,0.6833333333333333
2.40034211905,0.6888888888888889
2.54280582019,0.6944444444444444
2.54280582019,0.7
2.68558756212,0.7055555555555556
2.68558756212,0.7111111111111111
2.71075991511,0.7166666666666667
2.71075991511,0.7222222222222222
2.75050367418,0.7277777777777777
2.75050367418,0.7333333333333333
3.10068480259,0.7388888888888889
3.10068480259,0.7444444444444445
3.74123821201,0.75
3.74123821201,0.7555555555555555
3.830238527,0.7611111111111111
3.830238527,0.7666666666666667
3.8966477532,0.7722222222222223
3.8966477532,0.7777777777777778
4.08196673033,0.7833333333333333
4.08196673033,0.7888888888888889
4.11726253533,0.7944444444444444
4.11726253533,0.8
4.16357900035,0.8055555555555556
4.16357900035,0.8111111111111111
4.55953397124,0.8166666666666667
4.55953397124,0.8222222222222222
4.71793848112,0.8277777777777777
4.71793848112,0.8333333333333334
4.75186211727,0.8388888888888889
4.75186211727,0.8444444444444444
5.22231959805,0.85
5.22231959805,0.8555555555555555
5.62312087183,0.8611111111111112
5.62312087183,0.8666666666666667
5.86583190856,0.8722222222222222
5.86583190856,0.8777777777777778
6.46610411667,0.8833333333333333
6.46610411667,0.8888888888888888
6.52139427819,0.8944444444444445
6.52139427819,0.9
7.11962535702,0.9055555555555556
7.11962535702,0.9111111111111111
7.23075298717,0.9166666666666666
7.23075298717,0.9222222222222223
7.83814337579,0.9277777777777778
7.83814337579,0.9333333333333333
8.42458492238,0.9388888888888889
8.42458492238,0.9444444444444444
8.49943444657,0.95
8.49943444657,0.9555555555555556
8.69823714661,0.9611111111111111
8.69823714661,0.9666666666666667
9.73492074643,0.9722222222222222
9.73492074643,0.9777777777777777
10.5887616974,0.9833333333333333
10.5887616974,0.9888888888888889
10.939215143,0.9944444444444445
10.939215143,1.0
