Congestion,CDF
0.0300599250839,0.005555555555555556
0.0300599250839,0.011111111111111112
0.0301048131091,0.016666666666666666
0.0301048131091,0.022222222222222223
0.0305958045063,0.027777777777777776
0.0305958045063,0.03333333333333333
0.0306294458338,0.03888888888888889
0.0306294458338,0.044444444444444446
0.0307750578065,0.05
0.0307750578065,0.05555555555555555
0.0308267290574,0.06111111111111111
0.0308267290574,0.06666666666666667
0.0313202553079,0.07222222222222222
0.0313202553079,0.07777777777777778
0.0315552654096,0.08333333333333333
0.0315552654096,0.08888888888888889
0.032103452959,0.09444444444444444
0.032103452959,0.1
0.0324457107507,0.10555555555555556
0.0324457107507,0.1111111111111111
0.0325190582976,0.11666666666666667
0.0325190582976,0.12222222222222222
0.0325780196113,0.12777777777777777
0.0325780196113,0.13333333333333333
0.0328540293047,0.1388888888888889
0.0328540293047,0.14444444444444443
0.0329378711938,0.15
0.0329378711938,0.15555555555555556
0.0331244609562,0.16111111111111112
0.0331244609562,0.16666666666666666
0.0332669137403,0.17222222222222222
0.0332669137403,0.17777777777777778
0.0333473556237,0.18333333333333332
0.0333473556237,0.18888888888888888
0.0334566888229,0.19444444444444445
0.0334566888229,0.2
0.033462476956,0.20555555555555555
0.033462476956,0.2111111111111111
0.0335593918151,0.21666666666666667
0.0335593918151,0.2222222222222222
0.0337852928516,0.22777777777777777
0.0337852928516,0.23333333333333334
0.0338368701168,0.2388888888888889
0.0338368701168,0.24444444444444444
0.0340298197964,0.25
0.0340298197964,0.25555555555555554
0.0342154199929,0.2611111111111111
0.0342154199929,0.26666666666666666
0.0345491491284,0.2722222222222222
0.0345491491284,0.2777777777777778
0.0347007627985,0.2833333333333333
0.0347007627985,0.28888888888888886
0.0348982470103,0.29444444444444445
0.0348982470103,0.3
0.0352593282234,0.3055555555555556
0.0352593282234,0.3111111111111111
0.0352959494579,0.31666666666666665
0.0352959494579,0.32222222222222224
0.0353577273417,0.3277777777777778
0.0353577273417,0.3333333333333333
0.035398742387,0.3388888888888889
0.035398742387,0.34444444444444444
0.0355734863509,0.35
0.0355734863509,0.35555555555555557
0.0357387808493,0.3611111111111111
0.0357387808493,0.36666666666666664
0.035941723469,0.37222222222222223
0.035941723469,0.37777777777777777
0.0359912515089,0.38333333333333336
0.0359912515089,0.3888888888888889
0.0360900660964,0.39444444444444443
0.0360900660964,0.4
0.036254141916,0.40555555555555556
0.036254141916,0.4111111111111111
0.0363287104003,0.4166666666666667
0.0363287104003,0.4222222222222222
0.0367264428906,0.42777777777777776
0.0367264428906,0.43333333333333335
0.0371500079234,0.4388888888888889
0.0371500079234,0.4444444444444444
0.936047688156,0.45
0.936047688156,0.45555555555555555
1.08030264266,0.46111111111111114
1.08030264266,0.4666666666666667
1.14432059657,0.4722222222222222
1.14432059657,0.4777777777777778
1.22683678382,0.48333333333333334
1.22683678382,0.4888888888888889
1.95486284795,0.49444444444444446
1.95486284795,0.5
2.44824902656,0.5055555555555555
2.44824902656,0.5111111111111111
2.84111199207,0.5166666666666667
2.84111199207,0.5222222222222223
2.91140585907,0.5277777777777778
2.91140585907,0.5333333333333333
3.56933358682,0.5388888888888889
3.56933358682,0.5444444444444444
3.86657564374,0.55
3.86657564374,0.5555555555555556
4.01453291115,0.5611111111111111
4.01453291115,0.5666666666666667
4.03583329901,0.5722222222222222
4.03583329901,0.5777777777777777
4.10033122738,0.5833333333333334
4.10033122738,0.5888888888888889
4.17999916689,0.5944444444444444
4.17999916689,0.6
4.24363896743,0.6055555555555555
4.24363896743,0.6111111111111112
4.52186141761,0.6166666666666667
4.52186141761,0.6222222222222222
4.58950968879,0.6277777777777778
4.58950968879,0.6333333333333333
4.72493818739,0.6388888888888888
4.72493818739,0.6444444444444445
4.72907314953,0.65
4.72907314953,0.6555555555555556
4.94132256471,0.6611111111111111
4.94132256471,0.6666666666666666
5.03715652016,0.6722222222222223
5.03715652016,0.6777777777777778
5.22647804364,0.6833333333333333
5.22647804364,0.6888888888888889
5.266142234,0.6944444444444444
5.266142234,0.7
5.34613723441,0.7055555555555556
5.34613723441,0.7111111111111111
5.64391382433,0.7166666666666667
5.64391382433,0.7222222222222222
5.91277717285,0.7277777777777777
5.91277717285,0.7333333333333333
6.11895079441,0.7388888888888889
6.11895079441,0.7444444444444445
7.30040271531,0.75
7.30040271531,0.7555555555555555
7.50103987058,0.7611111111111111
7.50103987058,0.7666666666666667
7.52487540103,0.7722222222222223
7.52487540103,0.7777777777777778
7.94333768794,0.7833333333333333
7.94333768794,0.7888888888888889
8.24815818574,0.7944444444444444
8.24815818574,0.8
8.31501392867,0.8055555555555556
8.31501392867,0.8111111111111111
8.75494955222,0.8166666666666667
8.75494955222,0.8222222222222222
9.22362066247,0.8277777777777777
9.22362066247,0.8333333333333334
9.42477264398,0.8388888888888889
9.42477264398,0.8444444444444444
10.1176640397,0.85
10.1176640397,0.8555555555555555
11.0583710924,0.8611111111111112
11.0583710924,0.8666666666666667
11.3790611044,0.8722222222222222
11.3790611044,0.8777777777777778
12.2242935946,0.8833333333333333
12.2242935946,0.8888888888888888
12.3413087708,0.8944444444444445
12.3413087708,0.9
13.3347368896,0.9055555555555556
13.3347368896,0.9111111111111111
13.9356190666,0.9166666666666666
13.9356190666,0.9222222222222223
14.5409681454,0.9277777777777778
14.5409681454,0.9333333333333333
15.9717879123,0.9388888888888889
15.9717879123,0.9444444444444444
16.2445186711,0.95
16.2445186711,0.9555555555555556
16.7966151093,0.9611111111111111
16.7966151093,0.9666666666666667
18.013040599,0.9722222222222222
18.013040599,0.9777777777777777
19.5536396166,0.9833333333333333
19.5536396166,0.9888888888888889
20.407123645,0.9944444444444445
20.407123645,1.0
