Congestion,CDF
0.0332706704083,0.005555555555555556
0.0332706704083,0.011111111111111112
0.0333323851987,0.016666666666666666
0.0333323851987,0.022222222222222223
0.0341478388018,0.027777777777777776
0.0341478388018,0.03333333333333333
0.0341837141019,0.03888888888888889
0.0341837141019,0.044444444444444446
0.0342025444178,0.05
0.0342025444178,0.05555555555555555
0.0347747803349,0.06111111111111111
0.0347747803349,0.06666666666666667
0.0348820634245,0.07222222222222222
0.0348820634245,0.07777777777777778
0.0348824506079,0.08333333333333333
0.0348824506079,0.08888888888888889
0.0353712974665,0.09444444444444444
0.0353712974665,0.1
0.0354459929598,0.10555555555555556
0.0354459929598,0.1111111111111111
0.0356224547258,0.11666666666666667
0.0356224547258,0.12222222222222222
0.0360755892322,0.12777777777777777
0.0360755892322,0.13333333333333333
0.0361364556022,0.1388888888888889
0.0361364556022,0.14444444444444443
0.036147367672,0.15
0.036147367672,0.15555555555555556
0.0361776247561,0.16111111111111112
0.0361776247561,0.16666666666666666
0.0361912585479,0.17222222222222222
0.0361912585479,0.17777777777777778
0.0363161012563,0.18333333333333332
0.0363161012563,0.18888888888888888
0.0363651239656,0.19444444444444445
0.0363651239656,0.2
0.036513204529,0.20555555555555555
0.036513204529,0.2111111111111111
0.0366608617503,0.21666666666666667
0.0366608617503,0.2222222222222222
0.0368649252817,0.22777777777777777
0.0368649252817,0.23333333333333334
0.0368937578166,0.2388888888888889
0.0368937578166,0.24444444444444444
0.0370386739647,0.25
0.0370386739647,0.25555555555555554
0.0371583211551,0.2611111111111111
0.0371583211551,0.26666666666666666
0.0373976022217,0.2722222222222222
0.0373976022217,0.2777777777777778
0.0374630535515,0.2833333333333333
0.0374630535515,0.28888888888888886
0.0376406385714,0.29444444444444445
0.0376406385714,0.3
0.0379179493813,0.3055555555555556
0.0379179493813,0.3111111111111111
0.0379260139166,0.31666666666666665
0.0379260139166,0.32222222222222224
0.0379815810329,0.3277777777777778
0.0379815810329,0.3333333333333333
0.0381419320993,0.3388888888888889
0.0381419320993,0.34444444444444444
0.0382156085859,0.35
0.0382156085859,0.35555555555555557
0.0384520337791,0.3611111111111111
0.0384520337791,0.36666666666666664
0.0385613189751,0.37222222222222223
0.0385613189751,0.37777777777777777
0.0386034926048,0.38333333333333336
0.0386034926048,0.3888888888888889
0.0386287917653,0.39444444444444443
0.0386287917653,0.4
0.0387310824689,0.40555555555555556
0.0387310824689,0.4111111111111111
0.0388010287215,0.4166666666666667
0.0388010287215,0.4222222222222222
0.0390974755253,0.42777777777777776
0.0390974755253,0.43333333333333335
0.0393453452825,0.4388888888888889
0.0393453452825,0.4444444444444444
1.08302296164,0.45
1.08302296164,0.45555555555555555
1.19039422595,0.46111111111111114
1.19039422595,0.4666666666666667
1.37854133678,0.4722222222222222
1.37854133678,0.4777777777777778
1.50414670312,0.48333333333333334
1.50414670312,0.4888888888888889
2.19398625748,0.49444444444444446
2.19398625748,0.5
2.82842473932,0.5055555555555555
2.82842473932,0.5111111111111111
3.07066467069,0.5166666666666667
3.07066467069,0.5222222222222223
3.14017194441,0.5277777777777778
3.14017194441,0.5333333333333333
3.83445680828,0.5388888888888889
3.83445680828,0.5444444444444444
4.11583807251,0.55
4.11583807251,0.5555555555555556
4.25150078775,0.5611111111111111
4.25150078775,0.5666666666666667
4.294517966,0.5722222222222222
4.294517966,0.5777777777777777
4.35851333425,0.5833333333333334
4.35851333425,0.5888888888888889
4.54371597988,0.5944444444444444
4.54371597988,0.6
4.61915581833,0.6055555555555555
4.61915581833,0.6111111111111112
4.85228810101,0.6166666666666667
4.85228810101,0.6222222222222222
4.94999255297,0.6277777777777778
4.94999255297,0.6333333333333333
5.0452126337,0.6388888888888888
5.0452126337,0.6444444444444445
5.08818041696,0.65
5.08818041696,0.6555555555555556
5.23197901144,0.6611111111111111
5.23197901144,0.6666666666666666
5.33457456356,0.6722222222222223
5.33457456356,0.6777777777777778
5.60794255255,0.6833333333333333
5.60794255255,0.6888888888888889
5.61802981088,0.6944444444444444
5.61802981088,0.7
5.64491881528,0.7055555555555556
5.64491881528,0.7111111111111111
5.94825723089,0.7166666666666667
5.94825723089,0.7222222222222222
6.2830561715,0.7277777777777777
6.2830561715,0.7333333333333333
6.44225196744,0.7388888888888889
6.44225196744,0.7444444444444445
7.65525193162,0.75
7.65525193162,0.7555555555555555
7.85363654169,0.7611111111111111
7.85363654169,0.7666666666666667
7.8834584256,0.7722222222222223
7.8834584256,0.7777777777777778
8.3118651335,0.7833333333333333
8.3118651335,0.7888888888888889
8.6807391974,0.7944444444444444
8.6807391974,0.8
8.76344744146,0.8055555555555556
8.76344744146,0.8111111111111111
9.15693377172,0.8166666666666667
9.15693377172,0.8222222222222222
9.65599093992,0.8277777777777777
9.65599093992,0.8333333333333334
9.87981345537,0.8388888888888889
9.87981345537,0.8444444444444444
10.5803181486,0.85
10.5803181486,0.8555555555555555
11.5312974219,0.8611111111111112
11.5312974219,0.8666666666666667
11.9707915718,0.8722222222222222
11.9707915718,0.8777777777777778
12.7371339983,0.8833333333333333
12.7371339983,0.8888888888888888
12.8759384717,0.8944444444444445
12.8759384717,0.9
13.8810775334,0.9055555555555556
13.8810775334,0.9111111111111111
14.5396414068,0.9166666666666666
14.5396414068,0.9222222222222223
15.1149221245,0.9277777777777778
15.1149221245,0.9333333333333333
16.6239590498,0.9388888888888889
16.6239590498,0.9444444444444444
16.941191244,0.95
16.941191244,0.9555555555555556
17.511356387,0.9611111111111111
17.511356387,0.9666666666666667
18.7234060504,0.9722222222222222
18.7234060504,0.9777777777777777
20.3129732008,0.9833333333333333
20.3129732008,0.9888888888888889
21.2154004512,0.9944444444444445
21.2154004512,1.0
