Congestion,CDF
0.0260747252123,0.005555555555555556
0.0260747252123,0.011111111111111112
0.0261712983589,0.016666666666666666
0.0261712983589,0.022222222222222223
0.0267631830631,0.027777777777777776
0.0267631830631,0.03333333333333333
0.0268601199231,0.03888888888888889
0.0268601199231,0.044444444444444446
0.0269254534943,0.05
0.0269254534943,0.05555555555555555
0.0270346648073,0.06111111111111111
0.0270346648073,0.06666666666666667
0.027322218282,0.07222222222222222
0.027322218282,0.07777777777777778
0.0275389613119,0.08333333333333333
0.0275389613119,0.08888888888888889
0.0275870887379,0.09444444444444444
0.0275870887379,0.1
0.0277896963375,0.10555555555555556
0.0277896963375,0.1111111111111111
0.0278510758646,0.11666666666666667
0.0278510758646,0.12222222222222222
0.0281718212695,0.12777777777777777
0.0281718212695,0.13333333333333333
0.0281824314686,0.1388888888888889
0.0281824314686,0.14444444444444443
0.0282876600895,0.15
0.0282876600895,0.15555555555555556
0.0283567015939,0.16111111111111112
0.0283567015939,0.16666666666666666
0.0283738094978,0.17222222222222222
0.0283738094978,0.17777777777777778
0.0284167977623,0.18333333333333332
0.0284167977623,0.18888888888888888
0.02851156534,0.19444444444444445
0.02851156534,0.2
0.0285347874472,0.20555555555555555
0.0285347874472,0.2111111111111111
0.0287347962549,0.21666666666666667
0.0287347962549,0.2222222222222222
0.0289611806718,0.22777777777777777
0.0289611806718,0.23333333333333334
0.028997859338,0.2388888888888889
0.028997859338,0.24444444444444444
0.0290383542722,0.25
0.0290383542722,0.25555555555555554
0.029071034822,0.2611111111111111
0.029071034822,0.26666666666666666
0.0294198410347,0.2722222222222222
0.0294198410347,0.2777777777777778
0.029427339202,0.2833333333333333
0.029427339202,0.28888888888888886
0.0295595247006,0.29444444444444445
0.0295595247006,0.3
0.0299171045839,0.3055555555555556
0.0299171045839,0.3111111111111111
0.0299403058306,0.31666666666666665
0.0299403058306,0.32222222222222224
0.0299755419735,0.3277777777777778
0.0299755419735,0.3333333333333333
0.0300965148223,0.3388888888888889
0.0300965148223,0.34444444444444444
0.0301946638464,0.35
0.0301946638464,0.35555555555555557
0.0303794574972,0.3611111111111111
0.0303794574972,0.36666666666666664
0.0305022800566,0.37222222222222223
0.0305022800566,0.37777777777777777
0.0305043911424,0.38333333333333336
0.0305043911424,0.3888888888888889
0.0305405067396,0.39444444444444443
0.0305405067396,0.4
0.0305556512206,0.40555555555555556
0.0305556512206,0.4111111111111111
0.0306855451806,0.4166666666666667
0.0306855451806,0.4222222222222222
0.0309117344224,0.42777777777777776
0.0309117344224,0.43333333333333335
0.0311086760287,0.4388888888888889
0.0311086760287,0.4444444444444444
0.84693654799,0.45
0.84693654799,0.45555555555555555
0.939013786596,0.46111111111111114
0.939013786596,0.4666666666666667
1.06253615394,0.4722222222222222
1.06253615394,0.4777777777777778
1.1526316503,0.48333333333333334
1.1526316503,0.4888888888888889
1.70802158941,0.49444444444444446
1.70802158941,0.5
2.18390645507,0.5055555555555555
2.18390645507,0.5111111111111111
2.38858389943,0.5166666666666667
2.38858389943,0.5222222222222223
2.44223970778,0.5277777777777778
2.44223970778,0.5333333333333333
2.96205215641,0.5388888888888889
2.96205215641,0.5444444444444444
3.22351727325,0.55
3.22351727325,0.5555555555555556
3.32335045904,0.5611111111111111
3.32335045904,0.5666666666666667
3.37032549344,0.5722222222222222
3.37032549344,0.5777777777777777
3.40902856962,0.5833333333333334
3.40902856962,0.5888888888888889
3.57633160399,0.5944444444444444
3.57633160399,0.6
3.62348647355,0.6055555555555555
3.62348647355,0.6111111111111112
3.77668509111,0.6166666666666667
3.77668509111,0.6222222222222222
3.89269022999,0.6277777777777778
3.89269022999,0.6333333333333333
3.93392139244,0.6388888888888888
3.93392139244,0.6444444444444445
4.00792294435,0.65
4.00792294435,0.6555555555555556
4.10777212981,0.6611111111111111
4.10777212981,0.6666666666666666
4.13095614627,0.6722222222222223
4.13095614627,0.6777777777777778
4.38068335683,0.6833333333333333
4.38068335683,0.6888888888888889
4.40838427836,0.6944444444444444
4.40838427836,0.7
4.45682936003,0.7055555555555556
4.45682936003,0.7111111111111111
4.64329301335,0.7166666666666667
4.64329301335,0.7222222222222222
4.8641720556,0.7277777777777777
4.8641720556,0.7333333333333333
5.07935072517,0.7388888888888889
5.07935072517,0.7444444444444445
6.04733231417,0.75
6.04733231417,0.7555555555555555
6.20713845033,0.7611111111111111
6.20713845033,0.7666666666666667
6.21133931523,0.7722222222222223
6.21133931523,0.7777777777777778
6.59078639465,0.7833333333333333
6.59078639465,0.7888888888888889
6.85767494721,0.7944444444444444
6.85767494721,0.8
6.92292679789,0.8055555555555556
6.92292679789,0.8111111111111111
7.25562493311,0.8166666666666667
7.25562493311,0.8222222222222222
7.64199876933,0.8277777777777777
7.64199876933,0.8333333333333334
7.80060642912,0.8388888888888889
7.80060642912,0.8444444444444444
8.38733590681,0.85
8.38733590681,0.8555555555555555
9.15953129123,0.8611111111111112
9.15953129123,0.8666666666666667
9.45042976954,0.8722222222222222
9.45042976954,0.8777777777777778
10.1283438773,0.8833333333333333
10.1283438773,0.8888888888888888
10.2157506367,0.8944444444444445
10.2157506367,0.9
11.0247938935,0.9055555555555556
11.0247938935,0.9111111111111111
11.5225490546,0.9166666666666666
11.5225490546,0.9222222222222223
12.0181241327,0.9277777777777778
12.0181241327,0.9333333333333333
13.209099116,0.9388888888888889
13.209099116,0.9444444444444444
13.4270683504,0.95
13.4270683504,0.9555555555555556
13.8722918559,0.9611111111111111
13.8722918559,0.9666666666666667
14.9164769974,0.9722222222222222
14.9164769974,0.9777777777777777
16.1809494606,0.9833333333333333
16.1809494606,0.9888888888888889
16.8792543433,0.9944444444444445
16.8792543433,1.0
