Congestion,CDF
0.0119214014801,0.005555555555555556
0.0119214014801,0.011111111111111112
0.0123790226625,0.016666666666666666
0.0123790226625,0.022222222222222223
0.0124509880656,0.027777777777777776
0.0124509880656,0.03333333333333333
0.0124742042905,0.03888888888888889
0.0124742042905,0.044444444444444446
0.0126072055359,0.05
0.0126072055359,0.05555555555555555
0.0126651773605,0.06111111111111111
0.0126651773605,0.06666666666666667
0.0126933625605,0.07222222222222222
0.0126933625605,0.07777777777777778
0.0127164431816,0.08333333333333333
0.0127164431816,0.08888888888888889
0.0127729881673,0.09444444444444444
0.0127729881673,0.1
0.0128072411623,0.10555555555555556
0.0128072411623,0.1111111111111111
0.0128820306413,0.11666666666666667
0.0128820306413,0.12222222222222222
0.0128996559928,0.12777777777777777
0.0128996559928,0.13333333333333333
0.0129033576126,0.1388888888888889
0.0129033576126,0.14444444444444443
0.0129100494828,0.15
0.0129100494828,0.15555555555555556
0.013013420472,0.16111111111111112
0.013013420472,0.16666666666666666
0.0132093655084,0.17222222222222222
0.0132093655084,0.17777777777777778
0.0133588602321,0.18333333333333332
0.0133588602321,0.18888888888888888
0.0133717071221,0.19444444444444445
0.0133717071221,0.2
0.0133733091193,0.20555555555555555
0.0133733091193,0.2111111111111111
0.0133857841648,0.21666666666666667
0.0133857841648,0.2222222222222222
0.0133974934858,0.22777777777777777
0.0133974934858,0.23333333333333334
0.0135909400375,0.2388888888888889
0.0135909400375,0.24444444444444444
0.0136829741463,0.25
0.0136829741463,0.25555555555555554
0.0140439259778,0.2611111111111111
0.0140439259778,0.26666666666666666
0.0142896856378,0.2722222222222222
0.0142896856378,0.2777777777777778
0.014300238497,0.2833333333333333
0.014300238497,0.28888888888888886
0.0145522515966,0.29444444444444445
0.0145522515966,0.3
0.0151963346528,0.3055555555555556
0.0151963346528,0.3111111111111111
0.0153336733622,0.31666666666666665
0.0153336733622,0.32222222222222224
0.0154626793132,0.3277777777777778
0.0154626793132,0.3333333333333333
0.0154716796494,0.3388888888888889
0.0154716796494,0.34444444444444444
0.0155639866567,0.35
0.0155639866567,0.35555555555555557
0.0155740438286,0.3611111111111111
0.0155740438286,0.36666666666666664
0.015591540547,0.37222222222222223
0.015591540547,0.37777777777777777
0.0158980993342,0.38333333333333336
0.0158980993342,0.3888888888888889
0.0159210732724,0.39444444444444443
0.0159210732724,0.4
0.0159289038142,0.40555555555555556
0.0159289038142,0.4111111111111111
0.0164104839692,0.4166666666666667
0.0164104839692,0.4222222222222222
0.0164213079481,0.42777777777777776
0.0164213079481,0.43333333333333335
0.0164884794296,0.4388888888888889
0.0164884794296,0.4444444444444444
0.351573256485,0.45
0.351573256485,0.45555555555555555
0.405428169864,0.46111111111111114
0.405428169864,0.4666666666666667
0.462376539823,0.4722222222222222
0.462376539823,0.4777777777777778
0.467072853288,0.48333333333333334
0.467072853288,0.4888888888888889
0.805006959923,0.49444444444444446
0.805006959923,0.5
0.951929778831,0.5055555555555555
0.951929778831,0.5111111111111111
1.12013820044,0.5166666666666667
1.12013820044,0.5222222222222223
1.13425591182,0.5277777777777778
1.13425591182,0.5333333333333333
1.34593797509,0.5388888888888889
1.34593797509,0.5444444444444444
1.63679601358,0.55
1.63679601358,0.5555555555555556
1.65980359054,0.5611111111111111
1.65980359054,0.5666666666666667
1.68788021244,0.5722222222222222
1.68788021244,0.5777777777777777
1.7419584922,0.5833333333333334
1.7419584922,0.5888888888888889
1.75105885368,0.5944444444444444
1.75105885368,0.6
1.76561463767,0.6055555555555555
1.76561463767,0.6111111111111112
1.81222375709,0.6166666666666667
1.81222375709,0.6222222222222222
1.83439673365,0.6277777777777778
1.83439673365,0.6333333333333333
1.93434155709,0.6388888888888888
1.93434155709,0.6444444444444445
1.98252126825,0.65
1.98252126825,0.6555555555555556
2.04582804305,0.6611111111111111
2.04582804305,0.6666666666666666
2.06472067625,0.6722222222222223
2.06472067625,0.6777777777777778
2.08450767891,0.6833333333333333
2.08450767891,0.6888888888888889
2.22922859556,0.6944444444444444
2.22922859556,0.7
2.29281463831,0.7055555555555556
2.29281463831,0.7111111111111111
2.38238218903,0.7166666666666667
2.38238218903,0.7222222222222222
2.39483284022,0.7277777777777777
2.39483284022,0.7333333333333333
2.73552126633,0.7388888888888889
2.73552126633,0.7444444444444445
3.30646793743,0.75
3.30646793743,0.7555555555555555
3.36397114604,0.7611111111111111
3.36397114604,0.7666666666666667
3.45522410877,0.7722222222222223
3.45522410877,0.7777777777777778
3.56511461877,0.7833333333333333
3.56511461877,0.7888888888888889
3.63051059815,0.7944444444444444
3.63051059815,0.8
3.69704934503,0.8055555555555556
3.69704934503,0.8111111111111111
4.04114576169,0.8166666666666667
4.04114576169,0.8222222222222222
4.11917536254,0.8277777777777777
4.11917536254,0.8333333333333334
4.20249317826,0.8388888888888889
4.20249317826,0.8444444444444444
4.60858457314,0.85
4.60858457314,0.8555555555555555
4.93249101127,0.8611111111111112
4.93249101127,0.8666666666666667
5.21905718703,0.8722222222222222
5.21905718703,0.8777777777777778
5.73091825861,0.8833333333333333
5.73091825861,0.8888888888888888
5.81703080482,0.8944444444444445
5.81703080482,0.9
6.34219899408,0.9055555555555556
6.34219899408,0.9111111111111111
6.37979202559,0.9166666666666666
6.37979202559,0.9222222222222223
6.99579240748,0.9277777777777778
6.99579240748,0.9333333333333333
7.44958602871,0.9388888888888889
7.44958602871,0.9444444444444444
7.57140702566,0.95
7.57140702566,0.9555555555555556
7.669206144,0.9611111111111111
7.669206144,0.9666666666666667
8.70118547818,0.9722222222222222
8.70118547818,0.9777777777777777
9.46796606369,0.9833333333333333
9.46796606369,0.9888888888888889
9.75109149422,0.9944444444444445
9.75109149422,1.0
