Congestion,CDF
0.0295182771531,0.005555555555555556
0.0295182771531,0.011111111111111112
0.0295666613777,0.016666666666666666
0.0295666613777,0.022222222222222223
0.0300368947125,0.027777777777777776
0.0300368947125,0.03333333333333333
0.0300638668601,0.03888888888888889
0.0300638668601,0.044444444444444446
0.0302047228173,0.05
0.0302047228173,0.05555555555555555
0.0302550619834,0.06111111111111111
0.0302550619834,0.06666666666666667
0.0306708196865,0.07222222222222222
0.0306708196865,0.07777777777777778
0.0309796134646,0.08333333333333333
0.0309796134646,0.08888888888888889
0.0314982611711,0.09444444444444444
0.0314982611711,0.1
0.0318442761254,0.10555555555555556
0.0318442761254,0.1111111111111111
0.0318787116306,0.11666666666666667
0.0318787116306,0.12222222222222222
0.0319815705669,0.12777777777777777
0.0319815705669,0.13333333333333333
0.032237843113,0.1388888888888889
0.032237843113,0.14444444444444443
0.0322719527893,0.15
0.0322719527893,0.15555555555555556
0.0325110235666,0.16111111111111112
0.0325110235666,0.16666666666666666
0.0325588934235,0.17222222222222222
0.0325588934235,0.17777777777777778
0.0327536445358,0.18333333333333332
0.0327536445358,0.18888888888888888
0.0328509735212,0.19444444444444445
0.0328509735212,0.2
0.0328719706294,0.20555555555555555
0.0328719706294,0.2111111111111111
0.0329282788,0.21666666666666667
0.0329282788,0.2222222222222222
0.0331950060229,0.22777777777777777
0.0331950060229,0.23333333333333334
0.0331953041737,0.2388888888888889
0.0331953041737,0.24444444444444444
0.0333650071656,0.25
0.0333650071656,0.25555555555555554
0.0335397074357,0.2611111111111111
0.0335397074357,0.26666666666666666
0.033894723468,0.2722222222222222
0.033894723468,0.2777777777777778
0.0341174137037,0.2833333333333333
0.0341174137037,0.28888888888888886
0.0342596780715,0.29444444444444445
0.0342596780715,0.3
0.0346770684198,0.3055555555555556
0.0346770684198,0.3111111111111111
0.0347052941449,0.31666666666666665
0.0347052941449,0.32222222222222224
0.0347295636957,0.3277777777777778
0.0347295636957,0.3333333333333333
0.0347763564535,0.3388888888888889
0.0347763564535,0.34444444444444444
0.0350071272764,0.35
0.0350071272764,0.35555555555555557
0.0351014159227,0.3611111111111111
0.0351014159227,0.36666666666666664
0.035354894643,0.37222222222222223
0.035354894643,0.37777777777777777
0.0353683385675,0.38333333333333336
0.0353683385675,0.3888888888888889
0.0354819637396,0.39444444444444443
0.0354819637396,0.4
0.0356337711124,0.40555555555555556
0.0356337711124,0.4111111111111111
0.0357008746353,0.4166666666666667
0.0357008746353,0.4222222222222222
0.0361050908538,0.42777777777777776
0.0361050908538,0.43333333333333335
0.036535392835,0.4388888888888889
0.036535392835,0.4444444444444444
0.918429442591,0.45
0.918429442591,0.45555555555555555
1.05994889797,0.46111111111111114
1.05994889797,0.4666666666666667
1.11561337432,0.4722222222222222
1.11561337432,0.4777777777777778
1.19629368964,0.48333333333333334
1.19629368964,0.4888888888888889
1.91403350529,0.49444444444444446
1.91403350529,0.5
2.39142930637,0.5055555555555555
2.39142930637,0.5111111111111111
2.78878729143,0.5166666666666667
2.78878729143,0.5222222222222223
2.85820708211,0.5277777777777778
2.85820708211,0.5333333333333333
3.50282044037,0.5388888888888889
3.50282044037,0.5444444444444444
3.80112216825,0.55
3.80112216825,0.5555555555555556
3.9478591694,0.5611111111111111
3.9478591694,0.5666666666666667
3.96800507026,0.5722222222222222
3.96800507026,0.5777777777777777
4.03102737648,0.5833333333333334
4.03102737648,0.5888888888888889
4.10472200573,0.5944444444444444
4.10472200573,0.6
4.16548827283,0.6055555555555555
4.16548827283,0.6111111111111112
4.43966453763,0.6166666666666667
4.43966453763,0.6222222222222222
4.50670546429,0.6277777777777778
4.50670546429,0.6333333333333333
4.64125720478,0.6388888888888888
4.64125720478,0.6444444444444445
4.64623028118,0.65
4.64623028118,0.6555555555555556
4.86022747526,0.6611111111111111
4.86022747526,0.6666666666666666
4.95108633701,0.6722222222222223
4.95108633701,0.6777777777777778
5.1330144601,0.6833333333333333
5.1330144601,0.6888888888888889
5.17343970432,0.6944444444444444
5.17343970432,0.7
5.26126895064,0.7055555555555556
5.26126895064,0.7111111111111111
5.55251194041,0.7166666666666667
5.55251194041,0.7222222222222222
5.80820539994,0.7277777777777777
5.80820539994,0.7333333333333333
6.02173531394,0.7388888888888889
6.02173531394,0.7444444444444445
7.18684275197,0.75
7.18684275197,0.7555555555555555
7.38600236,0.7611111111111111
7.38600236,0.7666666666666667
7.40744243233,0.7722222222222223
7.40744243233,0.7777777777777778
7.822657295,0.7833333333333333
7.822657295,0.7888888888888889
8.11546285047,0.7944444444444444
8.11546285047,0.8
8.17978536651,0.8055555555555556
8.17978536651,0.8111111111111111
8.62169589352,0.8166666666666667
8.62169589352,0.8222222222222222
9.08152570505,0.8277777777777777
9.08152570505,0.8333333333333334
9.2767688303,0.8388888888888889
9.2767688303,0.8444444444444444
9.96334113522,0.85
9.96334113522,0.8555555555555555
10.8940517416,0.8611111111111112
10.8940517416,0.8666666666666667
11.1944318479,0.8722222222222222
11.1944318479,0.8777777777777778
12.0438001888,0.8833333333333333
12.0438001888,0.8888888888888888
12.1560505995,0.8944444444444445
12.1560505995,0.9
13.1385278865,0.9055555555555556
13.1385278865,0.9111111111111111
13.7250061818,0.9166666666666666
13.7250061818,0.9222222222222223
14.3298473649,0.9277777777777778
14.3298473649,0.9333333333333333
15.7366107775,0.9388888888888889
15.7366107775,0.9444444444444444
15.9995374757,0.95
15.9995374757,0.9555555555555556
16.5436485789,0.9611111111111111
16.5436485789,0.9666666666666667
17.7525017979,0.9722222222222222
17.7525017979,0.9777777777777777
19.2718374418,0.9833333333333333
19.2718374418,0.9888888888888889
20.1100742073,0.9944444444444445
20.1100742073,1.0
