Congestion,CDF
0.0,0.007352941176470588
0.0,0.014705882352941176
0.0,0.022058823529411766
0.0,0.029411764705882353
0.0,0.03676470588235294
0.0,0.04411764705882353
0.0,0.051470588235294115
0.0,0.058823529411764705
0.0,0.0661764705882353
0.0,0.07352941176470588
0.0,0.08088235294117647
0.0,0.08823529411764706
0.0,0.09558823529411764
0.0,0.10294117647058823
1.61201586602e-05,0.11029411764705882
1.61201586602e-05,0.11764705882352941
1.61201586602e-05,0.125
1.61201586602e-05,0.1323529411764706
1.61201586602e-05,0.13970588235294118
1.61201586602e-05,0.14705882352941177
1.61201586602e-05,0.15441176470588236
1.61201586602e-05,0.16176470588235295
1.61201586602e-05,0.16911764705882354
1.61201586602e-05,0.17647058823529413
1.61201586602e-05,0.18382352941176472
1.61201586602e-05,0.19117647058823528
1.61201586602e-05,0.19852941176470587
1.61201586602e-05,0.20588235294117646
1.61201586602e-05,0.21323529411764705
1.61201586602e-05,0.22058823529411764
1.61201586602e-05,0.22794117647058823
1.61201586602e-05,0.23529411764705882
1.61201586602e-05,0.2426470588235294
1.61201586602e-05,0.25
1.61201586602e-05,0.25735294117647056
1.61201586602e-05,0.2647058823529412
1.61201586602e-05,0.27205882352941174
1.61201586602e-05,0.27941176470588236
1.61201586602e-05,0.2867647058823529
1.61201586602e-05,0.29411764705882354
1.61201586602e-05,0.3014705882352941
0.000249146733733,0.3088235294117647
0.000403003966506,0.3161764705882353
0.000403003966506,0.3235294117647059
0.000435244283826,0.33088235294117646
0.000639084273033,0.3382352941176471
0.000806007933012,0.34558823529411764
0.000806007933012,0.35294117647058826
0.000806007933012,0.3602941176470588
0.000806007933012,0.36764705882352944
0.00120901189952,0.375
0.00134334655502,0.38235294117647056
0.00134334655502,0.3897058823529412
0.00134334655502,0.39705882352941174
0.00161201586602,0.40441176470588236
0.00161201586602,0.4117647058823529
0.00161201586602,0.41911764705882354
0.00161201586602,0.4264705882352941
0.00161201586602,0.4338235294117647
0.00161201586602,0.4411764705882353
0.00161201586602,0.4485294117647059
0.00201501983253,0.45588235294117646
0.00241802379903,0.4632352941176471
0.00241802379903,0.47058823529411764
0.00295536242104,0.47794117647058826
0.00322403173205,0.4852941176470588
0.00322403173205,0.49264705882352944
0.00482456020772,0.5
0.00483604759807,0.5073529411764706
0.00501534371999,0.5147058823529411
0.00544521418167,0.5220588235294118
0.0055714410415,0.5294117647058824
0.00565704918729,0.5367647058823529
0.00566693757542,0.5441176470588235
0.00584898251427,0.5514705882352942
0.00589973056036,0.5588235294117647
0.00590004805695,0.5661764705882353
0.00591983648089,0.5735294117647058
0.00592698122951,0.5808823529411765
0.00592838595297,0.5882352941176471
0.00592891647704,0.5955882352941176
0.00593100393802,0.6029411764705882
0.00593244859049,0.6102941176470589
0.00593357648895,0.6176470588235294
0.00593436201766,0.625
0.00594653998418,0.6323529411764706
0.00595073469839,0.6397058823529411
0.00595077674175,0.6470588235294118
0.00595102643029,0.6544117647058824
0.00595103932867,0.6617647058823529
0.00595118301554,0.6691176470588235
0.00595119161472,0.6764705882352942
0.00595119161472,0.6838235294117647
0.00658239811959,0.6911764705882353
0.0116871150287,0.6985294117647058
0.0119557843397,0.7058823529411765
0.0154484853827,0.7132352941176471
0.0192098557368,0.7205882352941176
0.0194785250478,0.7279411764705882
0.0208218716028,0.7352941176470589
0.0210905409138,0.7426470588235294
0.0227025567798,0.75
0.145756732656,0.7573529411764706
0.148222911926,0.7647058823529411
0.148359050441,0.7720588235294118
0.283346878771,0.7794117647058824
0.283346878771,0.7867647058823529
0.296678824448,0.7941176470588235
0.296678824448,0.8014705882352942
0.444668735778,0.8088235294117647
0.494148003351,0.8161764705882353
0.494148003351,0.8235294117647058
0.494148003351,0.8308823529411765
0.565704918729,0.8382352941176471
0.593100393802,0.8455882352941176
0.593436201766,0.8529411764705882
0.595077674175,0.8602941176470589
0.595103932867,0.8676470588235294
0.595119161472,0.875
0.595119161472,0.8823529411764706
0.741467770975,0.8897058823529411
0.827868296938,0.8970588235294118
0.888662472537,0.9044117647058824
1.08415280905,0.9117647058823529
1.12284902288,0.9191176470588235
1.1902065759,0.9264705882352942
1.7853566245,0.9338235294117647
2.42155476343,0.9411764705882353
4.31407339485,0.9485294117647058
4.37395270267,0.9558823529411765
5.69955422107,0.9632352941176471
6.80712604326,0.9705882352941176
6.87103447056,0.9779411764705882
7.17818974964,0.9852941176470589
7.67972412164,0.9926470588235294
7.70463879501,1.0
