Congestion,CDF
0.0,0.007352941176470588
0.0,0.014705882352941176
0.0,0.022058823529411766
0.0,0.029411764705882353
0.0,0.03676470588235294
0.0,0.04411764705882353
0.0,0.051470588235294115
0.0,0.058823529411764705
0.0,0.0661764705882353
0.0,0.07352941176470588
0.0,0.08088235294117647
0.0,0.08823529411764706
0.0,0.09558823529411764
0.0,0.10294117647058823
1.51983295073e-05,0.11029411764705882
1.51983295073e-05,0.11764705882352941
1.51983295073e-05,0.125
1.51983295073e-05,0.1323529411764706
1.51983295073e-05,0.13970588235294118
1.51983295073e-05,0.14705882352941177
1.51983295073e-05,0.15441176470588236
1.51983295073e-05,0.16176470588235295
1.51983295073e-05,0.16911764705882354
1.51983295073e-05,0.17647058823529413
1.51983295073e-05,0.18382352941176472
1.51983295073e-05,0.19117647058823528
1.51983295073e-05,0.19852941176470587
1.51983295073e-05,0.20588235294117646
1.51983295073e-05,0.21323529411764705
1.51983295073e-05,0.22058823529411764
1.51983295073e-05,0.22794117647058823
1.51983295073e-05,0.23529411764705882
1.51983295073e-05,0.2426470588235294
1.51983295073e-05,0.25
1.51983295073e-05,0.25735294117647056
1.51983295073e-05,0.2647058823529412
1.51983295073e-05,0.27205882352941174
1.51983295073e-05,0.27941176470588236
1.51983295073e-05,0.2867647058823529
1.51983295073e-05,0.29411764705882354
1.51983295073e-05,0.3014705882352941
0.000379958237683,0.3088235294117647
0.000379958237683,0.3161764705882353
0.000410354896698,0.3235294117647059
0.000759916475366,0.33088235294117646
0.000759916475366,0.3382352941176471
0.000759916475366,0.34558823529411764
0.000759916475366,0.35294117647058826
0.00113987471305,0.3602941176470588
0.00126652745894,0.36764705882352944
0.00126652745894,0.375
0.00126652745894,0.38235294117647056
0.00151983295073,0.3897058823529412
0.00151983295073,0.39705882352941174
0.00151983295073,0.40441176470588236
0.00151983295073,0.4117647058823529
0.00151983295073,0.41911764705882354
0.00151983295073,0.4264705882352941
0.00151983295073,0.4338235294117647
0.00189979118841,0.4411764705882353
0.0022797494261,0.4485294117647059
0.0022797494261,0.45588235294117646
0.00278636040967,0.4632352941176471
0.00303966590146,0.47058823529411764
0.00303966590146,0.47794117647058826
0.0045594988522,0.4852941176470588
0.00461533979336,0.49264705882352944
0.00575486117526,0.5
0.00620598454882,0.5073529411764706
0.0110187888928,0.5147058823529411
0.0112720943846,0.5220588235294118
0.0145650657778,0.5294117647058824
0.0181113426629,0.5367647058823529
0.0183646481547,0.5441176470588235
0.0196311756136,0.5514705882352942
0.0198844811054,0.5588235294117647
0.0214043140561,0.5661764705882353
0.0223731235564,0.5735294117647058
0.0224804158561,0.5808823529411765
0.0227989849212,0.5882352941176471
0.0228521829977,0.5955882352941176
0.0229047544678,0.6029411764705882
0.0229049688477,0.6102941176470589
0.0229688665153,0.6176470588235294
0.0229899399113,0.625
0.0229911617605,0.6323529411764706
0.0229989439432,0.6397058823529411
0.0230023228569,0.6470588235294118
0.0230026138338,0.6544117647058824
0.023003020677,0.6617647058823529
0.0230037985337,0.6691176470588235
0.0230040297697,0.6764705882352942
0.0230047920346,0.6838235294117647
0.0230051426739,0.6911764705882353
0.0230099108749,0.6985294117647058
0.0230115990704,0.7058823529411765
0.0230116135691,0.7132352941176471
0.0230117044194,0.7205882352941176
0.0230117079823,0.7279411764705882
0.0230117849515,0.7352941176470589
0.0230117873268,0.7426470588235294
0.0230117873268,0.75
0.575075516926,0.7573529411764706
0.575128566847,0.7647058823529411
0.583751159647,0.7720588235294118
1.14523772339,0.7794117647058824
1.14523772339,0.7867647058823529
1.15023960173,0.7941176470588235
1.15023960173,0.8014705882352942
1.72522655078,0.8088235294117647
1.916948179,0.8161764705882353
1.916948179,0.8235294117647058
1.916948179,0.8308823529411765
2.29049688477,0.8382352941176471
2.30037985337,0.8455882352941176
2.30051426739,0.8529411764705882
2.30116135691,0.8602941176470589
2.30117079823,0.8676470588235294
2.30117873268,0.875
2.30117873268,0.8823529411764706
2.8754784939,0.8897058823529411
3.42513621551,0.8970588235294118
3.45013399605,0.9044117647058824
4.21606435505,0.9117647058823529
4.57571518453,0.9191176470588235
4.60234124016,0.9264705882352942
6.90353596052,0.9338235294117647
9.39306790966,0.9411764705882353
16.6833270315,0.9485294117647058
17.0512566396,0.9558823529411765
22.0515058997,0.9632352941176471
27.2894203953,0.9705882352941176
27.7509543746,0.9779411764705882
27.8006338869,0.9852941176470589
30.0486754725,0.9926470588235294
30.62416159,1.0
