Congestion,CDF
0.0,0.007352941176470588
0.0,0.014705882352941176
0.0,0.022058823529411766
0.0,0.029411764705882353
0.0,0.03676470588235294
0.0,0.04411764705882353
0.0,0.051470588235294115
0.0,0.058823529411764705
0.0,0.0661764705882353
0.0,0.07352941176470588
0.0,0.08088235294117647
0.0,0.08823529411764706
0.0,0.09558823529411764
0.0,0.10294117647058823
1.50311662782e-05,0.11029411764705882
1.50311662782e-05,0.11764705882352941
1.50311662782e-05,0.125
1.50311662782e-05,0.1323529411764706
1.50311662782e-05,0.13970588235294118
1.50311662782e-05,0.14705882352941177
1.50311662782e-05,0.15441176470588236
1.50311662782e-05,0.16176470588235295
1.50311662782e-05,0.16911764705882354
1.50311662782e-05,0.17647058823529413
1.50311662782e-05,0.18382352941176472
1.50311662782e-05,0.19117647058823528
1.50311662782e-05,0.19852941176470587
1.50311662782e-05,0.20588235294117646
1.50311662782e-05,0.21323529411764705
1.50311662782e-05,0.22058823529411764
1.50311662782e-05,0.22794117647058823
1.50311662782e-05,0.23529411764705882
1.50311662782e-05,0.2426470588235294
1.50311662782e-05,0.25
1.50311662782e-05,0.25735294117647056
1.50311662782e-05,0.2647058823529412
1.50311662782e-05,0.27205882352941174
1.50311662782e-05,0.27941176470588236
1.50311662782e-05,0.2867647058823529
1.50311662782e-05,0.29411764705882354
1.50311662782e-05,0.3014705882352941
0.000375779156954,0.3088235294117647
0.000375779156954,0.3161764705882353
0.00040584148951,0.3235294117647059
0.000751558313908,0.33088235294117646
0.000751558313908,0.3382352941176471
0.000751558313908,0.34558823529411764
0.000751558313908,0.35294117647058826
0.00112733747086,0.3602941176470588
0.00125259718985,0.36764705882352944
0.00125259718985,0.375
0.00125259718985,0.38235294117647056
0.00150311662782,0.3897058823529412
0.00150311662782,0.39705882352941174
0.00150311662782,0.40441176470588236
0.00150311662782,0.4117647058823529
0.00150311662782,0.41911764705882354
0.00150311662782,0.4264705882352941
0.00150311662782,0.4338235294117647
0.00187889578477,0.4411764705882353
0.00225467494172,0.4485294117647059
0.00225467494172,0.45588235294117646
0.00275571381766,0.4632352941176471
0.00300623325563,0.47058823529411764
0.00300623325563,0.47794117647058826
0.00450934988345,0.4852941176470588
0.00613772623025,0.49264705882352944
0.0108975955517,0.5
0.0111481149896,0.5073529411764706
0.0144048676832,0.5147058823529411
0.0179121398148,0.5220588235294118
0.0181626592528,0.5294117647058824
0.0194152564426,0.5367647058823529
0.0196657758806,0.5441176470588235
0.0211688925084,0.5514705882352942
0.038488851941,0.5588235294117647
0.0393871119289,0.5661764705882353
0.0499526681528,0.5735294117647058
0.0500118744344,0.5808823529411765
0.0501527380244,0.5882352941176471
0.0501916915636,0.5955882352941176
0.050215078933,0.6029411764705882
0.0502229485265,0.6102941176470589
0.0502771254972,0.6176470588235294
0.0502898442845,0.625
0.0502925202072,0.6323529411764706
0.0502968807985,0.6397058823529411
0.0502994362567,0.6470588235294118
0.0502999291581,0.6544117647058824
0.0503002149479,0.6617647058823529
0.0503008040593,0.6691176470588235
0.0503009781373,0.6764705882352942
0.0503019636304,0.6838235294117647
0.0503019679975,0.6911764705882353
0.050306821119,0.6985294117647058
0.0503083273126,0.7058823529411765
0.0503083361531,0.7132352941176471
0.0503084255752,0.7205882352941176
0.0503084282034,0.7279411764705882
0.0503085056313,0.7352941176470589
0.0503085073835,0.7426470588235294
0.0503085073835,0.75
1.25749822895,0.7573529411764706
1.25754909076,0.7647058823529411
1.33435048724,0.7720588235294118
2.51114742633,0.7794117647058824
2.51114742633,0.7867647058823529
2.51509839988,0.7941176470588235
2.51509839988,0.8014705882352942
3.77249468686,0.8088235294117647
4.19169519494,0.8161764705882353
4.19169519494,0.8235294117647058
4.19169519494,0.8308823529411765
5.0215078933,0.8382352941176471
5.03008040593,0.8455882352941176
5.03019636304,0.8529411764705882
5.03083361531,0.8602941176470589
5.03084282034,0.8676470588235294
5.03085073835,0.875
5.03085073835,0.8823529411764706
6.28759604268,0.8897058823529411
7.52642122876,0.8970588235294118
7.54478647972,0.9044117647058824
9.22067962338,0.9117647058823529
10.0406770497,0.9191176470588235
10.0616853779,0.9264705882352942
15.0925520398,0.9338235294117647
20.5393931383,0.9411764705882353
36.473452855,0.9485294117647058
37.2989327378,0.9558823529411765
48.2109285617,0.9632352941176471
59.8612978315,0.9705882352941176
60.7849670622,0.9779411764705882
63.7101830256,0.9852941176470589
65.7861545056,0.9926470588235294
69.7248656985,1.0
