Congestion,CDF
0.0,0.007352941176470588
0.0,0.014705882352941176
0.0,0.022058823529411766
0.0,0.029411764705882353
0.0,0.03676470588235294
0.0,0.04411764705882353
0.0,0.051470588235294115
0.0,0.058823529411764705
0.0,0.0661764705882353
0.0,0.07352941176470588
0.0,0.08088235294117647
0.0,0.08823529411764706
0.0,0.09558823529411764
0.0,0.10294117647058823
1.50085215229e-05,0.11029411764705882
1.50085215229e-05,0.11764705882352941
1.50085215229e-05,0.125
1.50085215229e-05,0.1323529411764706
1.50085215229e-05,0.13970588235294118
1.50085215229e-05,0.14705882352941177
1.50085215229e-05,0.15441176470588236
1.50085215229e-05,0.16176470588235295
1.50085215229e-05,0.16911764705882354
1.50085215229e-05,0.17647058823529413
1.50085215229e-05,0.18382352941176472
1.50085215229e-05,0.19117647058823528
1.50085215229e-05,0.19852941176470587
1.50085215229e-05,0.20588235294117646
1.50085215229e-05,0.21323529411764705
1.50085215229e-05,0.22058823529411764
1.50085215229e-05,0.22794117647058823
1.50085215229e-05,0.23529411764705882
1.50085215229e-05,0.2426470588235294
1.50085215229e-05,0.25
1.50085215229e-05,0.25735294117647056
1.50085215229e-05,0.2647058823529412
1.50085215229e-05,0.27205882352941174
1.50085215229e-05,0.27941176470588236
1.50085215229e-05,0.2867647058823529
1.50085215229e-05,0.29411764705882354
1.50085215229e-05,0.3014705882352941
0.000375213038074,0.3088235294117647
0.000375213038074,0.3161764705882353
0.000405230081119,0.3235294117647059
0.000750426076147,0.33088235294117646
0.000750426076147,0.3382352941176471
0.000750426076147,0.34558823529411764
0.000750426076147,0.35294117647058826
0.00112563911422,0.3602941176470588
0.00125071012691,0.36764705882352944
0.00125071012691,0.375
0.00125071012691,0.38235294117647056
0.00150085215229,0.3897058823529412
0.00150085215229,0.39705882352941174
0.00150085215229,0.40441176470588236
0.00150085215229,0.4117647058823529
0.00150085215229,0.41911764705882354
0.00150085215229,0.4264705882352941
0.00150085215229,0.4338235294117647
0.00187606519037,0.4411764705882353
0.00225127822844,0.4485294117647059
0.00225127822844,0.45588235294117646
0.00275156227921,0.4632352941176471
0.00300170430459,0.47058823529411764
0.00300170430459,0.47794117647058826
0.00450255645688,0.4852941176470588
0.00612847962187,0.49264705882352944
0.0108811781041,0.5
0.0111313201295,0.5073529411764706
0.0143831664595,0.5147058823529411
0.0178851548148,0.5220588235294118
0.0181352968402,0.5294117647058824
0.0193860069671,0.5367647058823529
0.0196361489925,0.5441176470588235
0.0211370011448,0.5514705882352942
0.0512973724006,0.5588235294117647
0.0520166583665,0.5661764705882353
0.060236066142,0.5735294117647058
0.0602873989427,0.5808823529411765
0.0603946678863,0.5882352941176471
0.0604322073418,0.5955882352941176
0.0604521131199,0.6029411764705882
0.0604604437412,0.6102941176470589
0.0605145403033,0.6176470588235294
0.0605262264169,0.625
0.0605293748621,0.6323529411764706
0.0605332207416,0.6397058823529411
0.0605357186642,0.6470588235294118
0.0605362026271,0.6544117647058824
0.0605365352408,0.6617647058823529
0.0605370830353,0.6691176470588235
0.0605372552977,0.6764705882352942
0.060538235272,0.6838235294117647
0.0605382524886,0.6911764705882353
0.0605431019808,0.6985294117647058
0.0605445974829,0.7058823529411765
0.0605446061002,0.7132352941176471
0.0605446954977,0.7205882352941176
0.0605446981057,0.7279411764705882
0.0605447755456,0.7352941176470589
0.0605447772843,0.7426470588235294
0.0605447772843,0.75
1.51340506568,0.7573529411764706
1.5134558818,0.7647058823529411
1.61579560217,0.7720588235294118
3.02302218706,0.7794117647058824
3.02302218706,0.7867647058823529
3.02691262443,0.7941176470588235
3.02691262443,0.8014705882352942
4.54021519703,0.8088235294117647
5.04471823628,0.8161764705882353
5.04471823628,0.8235294117647058
5.04471823628,0.8308823529411765
6.04521131199,0.8382352941176471
6.05370830353,0.8455882352941176
6.0538235272,0.8529411764705882
6.05446061002,0.8602941176470589
6.05446981057,0.8676470588235294
6.05447772843,0.875
6.05447772843,0.8823529411764706
7.56713059545,0.8897058823529411
9.06248897569,0.8970588235294118
9.08023469859,0.9044117647058824
11.097340878,0.9117647058823529
12.0884320462,0.9191176470588235
12.1089393603,0.9264705882352942
18.1634330114,0.9338235294117647
24.7192106593,0.9411764705882353
43.8947486119,0.9485294117647058
44.8910277547,0.9558823529411765
58.0206896707,0.9632352941176471
72.0655553908,0.9705882352941176
73.1538618555,0.9779411764705882
77.1952926308,0.9852941176470589
79.1826017497,0.9926470588235294
84.3842675864,1.0
