Congestion,CDF
0.0,0.007352941176470588
0.0,0.014705882352941176
0.0,0.022058823529411766
0.0,0.029411764705882353
0.0,0.03676470588235294
0.0,0.04411764705882353
0.0,0.051470588235294115
0.0,0.058823529411764705
0.0,0.0661764705882353
0.0,0.07352941176470588
0.0,0.08088235294117647
0.0,0.08823529411764706
0.0,0.09558823529411764
0.0,0.10294117647058823
1.50930578607e-05,0.11029411764705882
1.50930578607e-05,0.11764705882352941
1.50930578607e-05,0.125
1.50930578607e-05,0.1323529411764706
1.50930578607e-05,0.13970588235294118
1.50930578607e-05,0.14705882352941177
1.50930578607e-05,0.15441176470588236
1.50930578607e-05,0.16176470588235295
1.50930578607e-05,0.16911764705882354
1.50930578607e-05,0.17647058823529413
1.50930578607e-05,0.18382352941176472
1.50930578607e-05,0.19117647058823528
1.50930578607e-05,0.19852941176470587
1.50930578607e-05,0.20588235294117646
1.50930578607e-05,0.21323529411764705
1.50930578607e-05,0.22058823529411764
1.50930578607e-05,0.22794117647058823
1.50930578607e-05,0.23529411764705882
1.50930578607e-05,0.2426470588235294
1.50930578607e-05,0.25
1.50930578607e-05,0.25735294117647056
1.50930578607e-05,0.2647058823529412
1.50930578607e-05,0.27205882352941174
1.50930578607e-05,0.27941176470588236
1.50930578607e-05,0.2867647058823529
1.50930578607e-05,0.29411764705882354
1.50930578607e-05,0.3014705882352941
0.000377326446517,0.3088235294117647
0.000377326446517,0.3161764705882353
0.000407512562238,0.3235294117647059
0.000754652893033,0.33088235294117646
0.000754652893033,0.3382352941176471
0.000754652893033,0.34558823529411764
0.000754652893033,0.35294117647058826
0.00113197933955,0.3602941176470588
0.00125775482172,0.36764705882352944
0.00125775482172,0.375
0.00125775482172,0.38235294117647056
0.00150930578607,0.3897058823529412
0.00150930578607,0.39705882352941174
0.00150930578607,0.40441176470588236
0.00150930578607,0.4117647058823529
0.00150930578607,0.41911764705882354
0.00150930578607,0.4264705882352941
0.00150930578607,0.4338235294117647
0.00188663223258,0.4411764705882353
0.0022639586791,0.4485294117647059
0.0022639586791,0.45588235294117646
0.00276706060779,0.4632352941176471
0.00301861157213,0.47058823529411764
0.00301861157213,0.47794117647058826
0.0045279173582,0.4852941176470588
0.00616299862644,0.49264705882352944
0.010942466949,0.5
0.0111940179133,0.5073529411764706
0.0144641804498,0.5147058823529411
0.0179858939506,0.5220588235294118
0.018237444915,0.5294117647058824
0.0194951997367,0.5367647058823529
0.019746750701,0.5441176470588235
0.0212560564871,0.5514705882352942
0.0307767124833,0.5588235294117647
0.0310135168991,0.5661764705882353
0.0335232205874,0.5735294117647058
0.0335566078814,0.5808823529411765
0.0335883125669,0.5882352941176471
0.033622266138,0.5955882352941176
0.0336337278553,0.6029411764705882
0.0336434609739,0.6102941176470589
0.0336967336904,0.6176470588235294
0.0337058573294,0.625
0.0337101489322,0.6323529411764706
0.0337127235229,0.6397058823529411
0.0337150573119,0.6470588235294118
0.0337155107763,0.6544117647058824
0.0337159780923,0.6617647058823529
0.0337164082236,0.6691176470588235
0.0337165733661,0.6764705882352942
0.0337175342056,0.6838235294117647
0.0337175993451,0.6911764705882353
0.0337224249395,0.6985294117647058
0.03372388814,0.7058823529411765
0.0337238959528,0.7132352941176471
0.0337239852181,0.7205882352941176
0.0337239877283,0.7279411764705882
0.033724065222,0.7352941176470589
0.0337240668954,0.7426470588235294
0.0337240668954,0.75
0.842887769407,0.7573529411764706
0.842938355139,0.7647058823529411
0.903988331173,0.7720588235294118
1.68217304869,0.7794117647058824
1.68217304869,0.7867647058823529
1.68587996725,0.7941176470588235
1.68587996725,0.8014705882352942
2.52866330822,0.8088235294117647
2.80966136828,0.8161764705882353
2.80966136828,0.8235294117647058
2.80966136828,0.8308823529411765
3.36337278553,0.8382352941176471
3.37164082236,0.8455882352941176
3.37175342056,0.8529411764705882
3.37238959528,0.8602941176470589
3.37239877283,0.8676470588235294
3.37240668954,0.875
3.37240668954,0.8823529411764706
4.21454510602,0.8897058823529411
5.04100430538,0.8970588235294118
5.05715231955,0.9044117647058824
6.18024710122,0.9117647058823529
6.72559939934,0.9191176470588235
6.74479729464,0.9264705882352942
10.1172199013,0.9338235294117647
13.7674451059,0.9411764705882353
24.4497339603,0.9485294117647058
24.9995386248,0.9558823529411765
32.3175177898,0.9632352941176471
40.1184643883,0.9705882352941176
40.7456850026,0.9779411764705882
43.1961356366,0.9852941176470589
44.1013457907,0.9926470588235294
47.2026974806,1.0
