Congestion,CDF
0.0,0.007352941176470588
0.0,0.014705882352941176
0.0,0.022058823529411766
0.0,0.029411764705882353
0.0,0.03676470588235294
0.0,0.04411764705882353
0.0,0.051470588235294115
0.0,0.058823529411764705
0.0,0.0661764705882353
0.0,0.07352941176470588
0.0,0.08088235294117647
0.0,0.08823529411764706
0.0,0.09558823529411764
0.0,0.10294117647058823
1.49926202304e-05,0.11029411764705882
1.49926202304e-05,0.11764705882352941
1.49926202304e-05,0.125
1.49926202304e-05,0.1323529411764706
1.49926202304e-05,0.13970588235294118
1.49926202304e-05,0.14705882352941177
1.49926202304e-05,0.15441176470588236
1.49926202304e-05,0.16176470588235295
1.49926202304e-05,0.16911764705882354
1.49926202304e-05,0.17647058823529413
1.49926202304e-05,0.18382352941176472
1.49926202304e-05,0.19117647058823528
1.49926202304e-05,0.19852941176470587
1.49926202304e-05,0.20588235294117646
1.49926202304e-05,0.21323529411764705
1.49926202304e-05,0.22058823529411764
1.49926202304e-05,0.22794117647058823
1.49926202304e-05,0.23529411764705882
1.49926202304e-05,0.2426470588235294
1.49926202304e-05,0.25
1.49926202304e-05,0.25735294117647056
1.49926202304e-05,0.2647058823529412
1.49926202304e-05,0.27205882352941174
1.49926202304e-05,0.27941176470588236
1.49926202304e-05,0.2867647058823529
1.49926202304e-05,0.29411764705882354
1.49926202304e-05,0.3014705882352941
0.000374815505761,0.3088235294117647
0.000374815505761,0.3161764705882353
0.000404800746222,0.3235294117647059
0.000749631011521,0.33088235294117646
0.000749631011521,0.3382352941176471
0.000749631011521,0.34558823529411764
0.000749631011521,0.35294117647058826
0.00112444651728,0.3602941176470588
0.0012493850192,0.36764705882352944
0.0012493850192,0.375
0.0012493850192,0.38235294117647056
0.00149926202304,0.3897058823529412
0.00149926202304,0.39705882352941174
0.00149926202304,0.40441176470588236
0.00149926202304,0.4117647058823529
0.00149926202304,0.41911764705882354
0.00149926202304,0.4264705882352941
0.00149926202304,0.4338235294117647
0.0018740775288,0.4411764705882353
0.00224889303456,0.4485294117647059
0.00224889303456,0.45588235294117646
0.00274864704225,0.4632352941176471
0.00299852404609,0.47058823529411764
0.00299852404609,0.47794117647058826
0.00449778606913,0.4852941176470588
0.00612198659409,0.49264705882352944
0.0108696496671,0.5
0.0111195266709,0.5073529411764706
0.0143679277208,0.5147058823529411
0.0178662057746,0.5220588235294118
0.0181160827784,0.5294117647058824
0.0193654677976,0.5367647058823529
0.0196153448015,0.5441176470588235
0.0211146068245,0.5514705882352942
0.0638597061128,0.5588235294117647
0.0644045178293,0.5661764705882353
0.0705056915641,0.5735294117647058
0.0705514753892,0.5808823529411765
0.070634314296,0.5882352941176471
0.0706710100875,0.5955882352941176
0.0706887674324,0.6029411764705882
0.0706973299165,0.6102941176470589
0.070751493185,0.6176470588235294
0.0707625527814,0.625
0.0707659939764,0.6323529411764706
0.0707695259209,0.6397058823529411
0.0707719938668,0.6470588235294118
0.0707724738003,0.6544117647058824
0.0707728304928,0.6617647058823529
0.0707733567825,0.6691176470588235
0.0707735282751,0.6764705882352942
0.0707745057927,0.6838235294117647
0.0707745285816,0.6911764705882353
0.0707793774011,0.6985294117647058
0.0707808674964,0.7058823529411765
0.0707808760156,0.7132352941176471
0.0707809654044,0.7205882352941176
0.0707809680049,0.7279411764705882
0.0707810454494,0.7352941176470589
0.0707810471831,0.7426470588235294
0.0707810471831,0.75
1.76931184501,0.7573529411764706
1.76936264482,0.7647058823529411
1.89672179022,0.7720588235294118
3.53486649583,0.7794117647058824
3.53486649583,0.7867647058823529
3.53872642908,0.7941176470588235
3.53872642908,0.8014705882352942
5.30793553502,0.8088235294117647
5.89774095205,0.8161764705882353
5.89774095205,0.8235294117647058
5.89774095205,0.8308823529411765
7.06887674324,0.8382352941176471
7.07733567825,0.8455882352941176
7.07745057927,0.8529411764705882
7.07808760156,0.8602941176470589
7.07809680049,0.8676470588235294
7.07810471831,0.875
7.07810471831,0.8823529411764706
8.84666467251,0.8897058823529411
10.5982979254,0.8970588235294118
10.6156790212,0.9044117647058824
12.9739962302,0.9117647058823529
14.135977752,0.9191176470588235
14.1561933409,0.9264705882352942
21.2343139816,0.9338235294117647
28.8990243521,0.9411764705882353
51.3160443185,0.9485294117647058
52.4830363966,0.9558823529411765
67.8304494397,0.9632352941176471
84.2678812304,0.9705882352941176
85.5227278586,0.9779411764705882
90.6538518417,0.9852941176470589
92.5778753975,0.9926470588235294
99.0183271804,1.0
