Congestion,CDF
0.0,0.007352941176470588
0.0,0.014705882352941176
0.0,0.022058823529411766
0.0,0.029411764705882353
0.0,0.03676470588235294
0.0,0.04411764705882353
0.0,0.051470588235294115
0.0,0.058823529411764705
0.0,0.0661764705882353
0.0,0.07352941176470588
0.0,0.08088235294117647
0.0,0.08823529411764706
0.0,0.09558823529411764
0.0,0.10294117647058823
1.5540049925e-05,0.11029411764705882
1.5540049925e-05,0.11764705882352941
1.5540049925e-05,0.125
1.5540049925e-05,0.1323529411764706
1.5540049925e-05,0.13970588235294118
1.5540049925e-05,0.14705882352941177
1.5540049925e-05,0.15441176470588236
1.5540049925e-05,0.16176470588235295
1.5540049925e-05,0.16911764705882354
1.5540049925e-05,0.17647058823529413
1.5540049925e-05,0.18382352941176472
1.5540049925e-05,0.19117647058823528
1.5540049925e-05,0.19852941176470587
1.5540049925e-05,0.20588235294117646
1.5540049925e-05,0.21323529411764705
1.5540049925e-05,0.22058823529411764
1.5540049925e-05,0.22794117647058823
1.5540049925e-05,0.23529411764705882
1.5540049925e-05,0.2426470588235294
1.5540049925e-05,0.25
1.5540049925e-05,0.25735294117647056
1.5540049925e-05,0.2647058823529412
1.5540049925e-05,0.27205882352941174
1.5540049925e-05,0.27941176470588236
1.5540049925e-05,0.2867647058823529
1.5540049925e-05,0.29411764705882354
1.5540049925e-05,0.3014705882352941
0.000258174680512,0.3088235294117647
0.000388501248125,0.3161764705882353
0.000388501248125,0.3235294117647059
0.000419581347975,0.33088235294117646
0.000777002496251,0.3382352941176471
0.000777002496251,0.34558823529411764
0.000777002496251,0.35294117647058826
0.000777002496251,0.3602941176470588
0.000789531533878,0.36764705882352944
0.00116550374438,0.375
0.00129500416042,0.38235294117647056
0.00129500416042,0.3897058823529412
0.00129500416042,0.39705882352941174
0.0015540049925,0.40441176470588236
0.0015540049925,0.4117647058823529
0.0015540049925,0.41911764705882354
0.0015540049925,0.4264705882352941
0.0015540049925,0.4338235294117647
0.0015540049925,0.4411764705882353
0.0015540049925,0.4485294117647059
0.00194250624063,0.45588235294117646
0.00233100748875,0.4632352941176471
0.00233100748875,0.47058823529411764
0.00284900915292,0.47794117647058826
0.003108009985,0.4852941176470588
0.003108009985,0.49264705882352944
0.0046620149775,0.5
0.00634552038605,0.5073529411764706
0.0101553160929,0.5147058823529411
0.0103096363934,0.5220588235294118
0.0107405465236,0.5294117647058824
0.0108227347519,0.5367647058823529
0.0108932346518,0.5441176470588235
0.0109072436818,0.5514705882352942
0.0110030431579,0.5588235294117647
0.0110357535716,0.5661764705882353
0.01104077517,0.5735294117647058
0.0110516549425,0.5808823529411765
0.0110566736534,0.5882352941176471
0.0110567612733,0.5955882352941176
0.0110580974959,0.6029411764705882
0.0110591260358,0.6102941176470589
0.0110596311502,0.6176470588235294
0.0110598287648,0.625
0.0110611769965,0.6323529411764706
0.0110668173465,0.6397058823529411
0.0110692143995,0.6470588235294118
0.0110692519202,0.6544117647058824
0.0110693661545,0.6617647058823529
0.0110693770093,0.6691176470588235
0.0110694544813,0.6764705882352942
0.011069461718,0.6838235294117647
0.011069461718,0.6911764705882353
0.0112665361956,0.6985294117647058
0.0115255370277,0.7058823529411765
0.0148925478448,0.7132352941176471
0.018518559494,0.7205882352941176
0.0187775603261,0.7279411764705882
0.0200725644865,0.7352941176470589
0.0203315653186,0.7426470588235294
0.0218855703111,0.75
0.274971345269,0.7573529411764706
0.276452437396,0.7647058823529411
0.276529424913,0.7720588235294118
0.544661732588,0.7794117647058824
0.544661732588,0.7867647058823529
0.552981557511,0.7941176470588235
0.552981557511,0.8014705882352942
0.829357312189,0.8088235294117647
0.921540571419,0.8161764705882353
0.921540571419,0.8235294117647058
0.921540571419,0.8308823529411765
1.09072436818,0.8382352941176471
1.10591260358,0.8455882352941176
1.10611769965,0.8529411764705882
1.10692519202,0.8602941176470589
1.10693770093,0.8676470588235294
1.1069461718,0.875
1.1069461718,0.8823529411764706
1.38243531388,0.8897058823529411
1.61871638495,0.8970588235294118
1.65814705176,0.9044117647058824
2.02561808841,0.9117647058823529
2.17299784336,0.9191176470588235
2.21387431638,0.9264705882352942
3.32083779173,0.9338235294117647
4.51555585422,0.9411764705882353
8.02508816499,0.9485294117647058
8.18613999101,0.9558823529411765
10.6062920286,0.9632352941176471
12.9933858286,0.9705882352941176
13.072338982,0.9779411764705882
13.3680144375,0.9852941176470589
14.3989780768,0.9926470588235294
14.4247955449,1.0
