Congestion,CDF
0.0,0.005555555555555556
0.0,0.011111111111111112
0.0,0.016666666666666666
0.0,0.022222222222222223
0.0,0.027777777777777776
0.0,0.03333333333333333
0.0,0.03888888888888889
0.0,0.044444444444444446
0.0,0.05
0.0,0.05555555555555555
9.33660965543e-07,0.06111111111111111
1.07273154678e-06,0.06666666666666667
2.41462983247e-06,0.07222222222222222
3.52912195902e-06,0.07777777777777778
3.61116023035e-06,0.08333333333333333
4.76797462718e-06,0.08888888888888889
5.24540314342e-06,0.09444444444444444
7.22936165384e-06,0.1
7.26665829234e-06,0.10555555555555556
7.43447353995e-06,0.1111111111111111
7.5874835356e-06,0.11666666666666667
8.35226927071e-06,0.12222222222222222
8.54599815289e-06,0.12777777777777777
9.5432638152e-06,0.13333333333333333
9.77421938874e-06,0.1388888888888889
1.02923775162e-05,0.14444444444444443
1.19012164549e-05,0.15
1.30247779588e-05,0.15555555555555556
1.36004917257e-05,0.16111111111111112
1.41450706567e-05,0.16666666666666666
1.43688747153e-05,0.17222222222222222
1.44842758077e-05,0.17777777777777778
1.49641605263e-05,0.18333333333333332
1.54841365824e-05,0.18888888888888888
1.57455154272e-05,0.19444444444444445
1.59233325873e-05,0.2
1.60116753128e-05,0.20555555555555555
1.61955435621e-05,0.2111111111111111
1.63538033226e-05,0.21666666666666667
1.63896900237e-05,0.2222222222222222
1.69373116687e-05,0.22777777777777777
1.70786175222e-05,0.23333333333333334
1.72746694193e-05,0.2388888888888889
1.87075404365e-05,0.24444444444444444
1.9685224416e-05,0.25
2.13724278819e-05,0.25555555555555554
2.17110144104e-05,0.2611111111111111
2.20234516461e-05,0.26666666666666666
2.27692744277e-05,0.2722222222222222
8.04876610825e-05,0.2777777777777778
0.000160975322165,0.2833333333333333
0.000176456097951,0.28888888888888886
0.000176456097951,0.29444444444444445
0.000181666457308,0.3
0.000181666457308,0.3055555555555556
0.000275032553863,0.3111111111111111
0.000320788054172,0.31666666666666665
0.000361116023035,0.32222222222222224
0.000363332914617,0.3277777777777778
0.000483752883963,0.3333333333333333
0.000514182489785,0.3388888888888889
0.000722936165384,0.34444444444444444
0.000751830016581,0.35
0.000796166629367,0.35555555555555557
0.000796166629367,0.3611111111111111
0.0008952835198,0.36666666666666664
0.00101689338438,0.37222222222222223
0.00143591812789,0.37777777777777777
0.00147660548295,0.38333333333333336
0.00148339835467,0.3888888888888889
0.00154673538008,0.39444444444444443
0.00154841365824,0.4
0.00155469182112,0.40555555555555556
0.00157455154272,0.4111111111111111
0.00160287304365,0.4166666666666667
0.00162488367873,0.4222222222222222
0.00165762075379,0.42777777777777776
0.00175049301089,0.43333333333333335
0.00177381753768,0.4388888888888889
0.00177574559612,0.4444444444444444
0.00179093926165,0.45
0.00182706671002,0.45555555555555555
0.00185203767013,0.46111111111111114
0.00185203767013,0.4666666666666667
0.00188245544168,0.4722222222222222
0.00189417499167,0.4777777777777778
0.00190829004578,0.48333333333333334
0.00192007205814,0.4888888888888889
0.00203198212765,0.49444444444444446
0.00204765662975,0.5
0.00207459736121,0.5055555555555555
0.00209526282561,0.5111111111111111
0.00210015608607,0.5166666666666667
0.00210950890332,0.5222222222222223
0.00211187918915,0.5277777777777778
0.0021391692862,0.5333333333333333
0.00216288814099,0.5388888888888889
0.0021760570415,0.5444444444444444
0.00218394393967,0.55
0.00218859105301,0.5555555555555556
0.00219648335213,0.5611111111111111
0.00220563564338,0.5666666666666667
0.00223187006669,0.5722222222222222
0.00223232242754,0.5777777777777777
0.00224804925183,0.5833333333333334
0.00231554573874,0.5888888888888889
0.00236009099084,0.5944444444444444
0.00239985884135,0.6
0.00244131476748,0.6055555555555555
0.00245682582668,0.6111111111111112
0.00247246221179,0.6166666666666667
0.0025040812457,0.6222222222222222
0.00256567807923,0.6277777777777778
0.00318738266061,0.6333333333333333
0.0033700473671,0.6388888888888888
0.00354576883701,0.6444444444444445
0.00435916966616,0.65
0.00511791801972,0.6555555555555556
0.00535844892583,0.6611111111111111
0.00661673643236,0.6666666666666666
0.00749569171402,0.6722222222222223
0.0133358219834,0.6777777777777778
0.0162242231828,0.6833333333333333
0.0169821991157,0.6888888888888889
0.0185011506255,0.6944444444444444
0.0189507215573,0.7
0.0199380380971,0.7055555555555556
0.0201564154069,0.7111111111111111
0.0213465370524,0.7166666666666667
0.0230543988046,0.7222222222222222
0.0231983021081,0.7277777777777777
0.0235789391189,0.7333333333333333
0.0239417494621,0.7388888888888889
0.0247963492773,0.7444444444444445
0.044393639903,0.75
0.044393639903,0.7555555555555555
0.0515578460026,0.7611111111111111
0.0740032835217,0.7666666666666667
0.0777345910561,0.7722222222222223
0.0777345910561,0.7777777777777778
0.088787279806,0.7833333333333333
0.103115692005,0.7888888888888889
0.109197196983,0.7944444444444444
0.109197196983,0.8
0.160287304365,0.8055555555555556
0.177381753768,0.8111111111111111
0.192054188198,0.8166666666666667
0.216288814099,0.8222222222222222
0.21760570415,0.8277777777777777
0.227100310905,0.8333333333333334
0.280932803821,0.8388888888888889
0.297442741151,0.8444444444444444
0.314283346079,0.85
0.314283346079,0.8555555555555555
0.336033500985,0.8611111111111112
0.357816263577,0.8666666666666667
0.391841878239,0.8722222222222222
0.436852378437,0.8777777777777778
0.483423819882,0.8833333333333333
0.517091076364,0.8888888888888888
0.537515588833,0.8944444444444445
0.565275999698,0.9
0.946047001429,0.9055555555555556
0.969038221603,0.9111111111111111
1.07665987563,0.9166666666666666
1.12514092759,0.9222222222222223
1.32079135238,0.9277777777777778
2.3130382545,0.9333333333333333
2.52041738985,0.9388888888888889
2.77082551442,0.9444444444444444
2.91489574134,0.95
2.98035179698,0.9555555555555556
3.15090484043,0.9611111111111111
3.41946843606,0.9666666666666667
3.47223549113,0.9722222222222222
3.56176384311,0.9777777777777777
3.59384264853,0.9833333333333333
3.61147564188,0.9888888888888889
3.75506745466,0.9944444444444445
3.80648570364,1.0
