Congestion,CDF
0.0,0.005555555555555556
0.0,0.011111111111111112
0.0,0.016666666666666666
0.0,0.022222222222222223
0.0,0.027777777777777776
0.0,0.03333333333333333
0.0,0.03888888888888889
0.0,0.044444444444444446
0.0,0.05
0.0,0.05555555555555555
3.04093140351e-07,0.06111111111111111
3.49388393488e-07,0.06666666666666667
7.86444325767e-07,0.07222222222222222
1.14943412952e-06,0.07777777777777778
1.17615397375e-06,0.08333333333333333
1.55292813023e-06,0.08888888888888889
1.70842647723e-06,0.09444444444444444
2.35460126232e-06,0.1
2.36674876805e-06,0.10555555555555556
2.42140615175e-06,0.1111111111111111
2.47124146864e-06,0.11666666666666667
2.72033198915e-06,0.12222222222222222
2.78342943708e-06,0.12777777777777777
3.10823861108e-06,0.13333333333333333
3.18346078297e-06,0.1388888888888889
3.35222475405e-06,0.14444444444444443
3.8762231895e-06,0.15
4.24216688718e-06,0.15555555555555556
4.42967671542e-06,0.16111111111111112
4.60704593553e-06,0.16666666666666666
4.67993886081e-06,0.17222222222222222
4.71752496745e-06,0.17777777777777778
4.87382329893e-06,0.18333333333333332
5.04317936889e-06,0.18888888888888888
5.12831039252e-06,0.19444444444444445
5.18622539662e-06,0.2
5.21499859996e-06,0.20555555555555555
5.27488444226e-06,0.2111111111111111
5.32642960623e-06,0.21666666666666667
5.33811789569e-06,0.2222222222222222
5.51647812699e-06,0.22777777777777777
5.56250140773e-06,0.23333333333333334
5.62635546104e-06,0.2388888888888889
6.09304118897e-06,0.24444444444444444
6.4114726138e-06,0.25
6.96099435597e-06,0.25555555555555554
7.07127190265e-06,0.2611111111111111
7.17303263131e-06,0.26666666666666666
7.41594692266e-06,0.2722222222222222
2.62148108589e-05,0.2777777777777778
5.24296217178e-05,0.2833333333333333
5.74717064762e-05,0.28888888888888886
5.74717064762e-05,0.29444444444444445
5.91687192012e-05,0.3
5.91687192012e-05,0.3055555555555556
8.95780332362e-05,0.3111111111111111
0.000117615397375,0.31666666666666665
0.000118337438402,0.32222222222222224
0.000157558191964,0.3277777777777778
0.000235460126232,0.3333333333333333
0.000244870846259,0.3388888888888889
0.000259311269831,0.34444444444444444
0.000259311269831,0.35
0.000331201918116,0.35555555555555557
0.000504317936889,0.3611111111111111
0.000512831039252,0.36666666666666664
0.000529224203221,0.37222222222222223
0.000570135130939,0.37777777777777777
0.000603208200774,0.38333333333333336
0.000603208200774,0.3888888888888889
0.000687838517802,0.39444444444444443
0.000726919516271,0.4
0.000781633417692,0.40555555555555556
0.000835640701533,0.4111111111111111
0.00103812972646,0.4166666666666667
0.00109762357517,0.4222222222222222
0.00115485601347,0.42777777777777776
0.00141978045781,0.43333333333333335
0.00166690460468,0.4388888888888889
0.00174524545997,0.4444444444444444
0.00215506938262,0.45
0.00244134489557,0.45555555555555555
0.00434347384729,0.46111111111111114
0.00528422538745,0.4666666666666667
0.00553109795712,0.4722222222222222
0.00602582007972,0.4777777777777778
0.0061722452185,0.48333333333333334
0.0064938139658,0.4888888888888889
0.00656493940038,0.49444444444444446
0.00695256171933,0.5
0.0075088118601,0.5055555555555555
0.00755568112964,0.5111111111111111
0.00767965450782,0.5166666666666667
0.00779782174482,0.5222222222222223
0.00807616468853,0.5277777777777778
0.0227855262178,0.5333333333333333
0.0230675649694,0.5388888888888889
0.0274860380045,0.5444444444444444
0.0276941823901,0.55
0.0277162132809,0.5555555555555556
0.0277187115226,0.5611111111111111
0.0277387316154,0.5666666666666667
0.0277410599261,0.5722222222222222
0.027760767782,0.5777777777777777
0.0277801020047,0.5833333333333334
0.0278211135527,0.5888888888888889
0.0278218639599,0.5944444444444444
0.0278272487048,0.6
0.0278400065604,0.6055555555555555
0.0278592785435,0.6111111111111112
0.0278636832327,0.6166666666666667
0.027867083054,0.6222222222222222
0.0278677951091,0.6277777777777778
0.0279053482053,0.6333333333333333
0.027917862041,0.6388888888888888
0.0279272724282,0.6444444444444445
0.0279321375097,0.65
0.0279333133909,0.6555555555555556
0.0279362861422,0.6611111111111111
0.0279501436734,0.6666666666666666
0.0279582620751,0.6722222222222223
0.0279631629538,0.6777777777777778
0.027965779946,0.6833333333333333
0.0279675814812,0.6888888888888889
0.0279701195395,0.6944444444444444
0.0279733504948,0.7
0.0279830213613,0.7055555555555556
0.0279884921055,0.7111111111111111
0.02801230865,0.7166666666666667
0.028027728807,0.7222222222222222
0.0280566515003,0.7277777777777777
0.0280620126888,0.7333333333333333
0.0280677854485,0.7388888888888889
0.0280781596875,0.7444444444444445
0.695546598998,0.75
0.695546598998,0.7555555555555555
0.924701997535,0.7611111111111111
1.07783375056,0.7666666666666667
1.38693658077,0.7722222222222223
1.38693658077,0.7777777777777778
1.391093198,0.7833333333333333
1.3982889973,0.7888888888888889
1.3982889973,0.7944444444444444
1.84940399507,0.8
2.7760767782,0.8055555555555556
2.78211135527,0.8111111111111111
2.79582620751,0.8166666666666667
2.79631629538,0.8222222222222222
3.46716792709,0.8277777777777777
3.47954725504,0.8333333333333334
4.1774714013,0.8388888888888889
4.18421685165,0.8444444444444444
4.19787174284,0.85
4.41682203059,0.8555555555555555
4.41682203059,0.8611111111111112
5.5773076432,0.8666666666666667
5.59316125699,0.8722222222222222
6.24517812756,0.8777777777777778
6.9812288056,0.8833333333333333
7.19603545668,0.8888888888888888
7.21512416672,0.8944444444444445
9.03790537038,0.9
12.8064548294,0.9055555555555556
14.3847286395,0.9111111111111111
16.0171549335,0.9166666666666666
17.16745351,0.9222222222222223
18.8228200835,0.9277777777777778
32.7706664876,0.9333333333333333
34.203411415,0.9388888888888889
37.0112273838,0.9444444444444444
39.8044411347,0.95
41.141602745,0.9555555555555556
43.9443756257,0.9611111111111111
46.7752438751,0.9666666666666667
48.1180205119,0.9722222222222222
49.5238476756,0.9777777777777777
50.9048000228,0.9833333333333333
51.8024002973,0.9888888888888889
53.6742182618,0.9944444444444445
55.9809747587,1.0
