Congestion,CDF
0.0,0.005555555555555556
0.0,0.011111111111111112
0.0,0.016666666666666666
0.0,0.022222222222222223
0.0,0.027777777777777776
0.0,0.03333333333333333
0.0,0.03888888888888889
0.0,0.044444444444444446
0.0,0.05
0.0,0.05555555555555555
3.72595513215e-07,0.06111111111111111
4.2809432542e-07,0.06666666666666667
9.636048575e-07,0.07222222222222222
1.40836455207e-06,0.07777777777777778
1.44110351507e-06,0.08333333333333333
1.90275273228e-06,0.08888888888888889
2.09327983965e-06,0.09444444444444444
2.88501695481e-06,0.1
2.89990090163e-06,0.10555555555555556
2.96687083035e-06,0.1111111111111111
3.02793243618e-06,0.11666666666666667
3.33313501397e-06,0.12222222222222222
3.41044628106e-06,0.12777777777777777
3.80842448191e-06,0.13333333333333333
3.90059178206e-06,0.1388888888888889
4.1073728306e-06,0.14444444444444443
4.7494112066e-06,0.15
5.19779021207e-06,0.15555555555555556
5.42753995456e-06,0.16111111111111112
5.64486473708e-06,0.16666666666666666
5.73417808652e-06,0.17222222222222222
5.78023113026e-06,0.17777777777777778
5.97173843281e-06,0.18333333333333332
6.17924496101e-06,0.18888888888888888
6.28355325748e-06,0.19444444444444445
6.35451464336e-06,0.2
6.38976952104e-06,0.20555555555555555
6.46314571138e-06,0.2111111111111111
6.52630233766e-06,0.21666666666666667
6.54062362162e-06,0.2222222222222222
6.75916265818e-06,0.22777777777777777
6.81555349911e-06,0.23333333333333334
6.89379181036e-06,0.2388888888888889
7.46560677504e-06,0.24444444444444444
7.8557705256e-06,0.25
8.52908178581e-06,0.25555555555555554
8.66420130561e-06,0.2611111111111111
8.78888544309e-06,0.26666666666666666
9.08652048658e-06,0.2722222222222222
3.21201619167e-05,0.2777777777777778
6.42403238333e-05,0.2833333333333333
7.04182276034e-05,0.28888888888888886
7.04182276034e-05,0.29444444444444445
7.24975225407e-05,0.3
7.24975225407e-05,0.3055555555555556
0.000109757073862,0.3111111111111111
0.000144110351507,0.31666666666666665
0.000144995045081,0.32222222222222224
0.000193050968951,0.3277777777777778
0.000288501695481,0.3333333333333333
0.00030003234709,0.3388888888888889
0.000317725732168,0.34444444444444444
0.000317725732168,0.35
0.000405811023938,0.35555555555555557
0.000617924496101,0.3611111111111111
0.000628355325748,0.36666666666666664
0.000648441340629,0.37222222222222223
0.000698568180359,0.37777777777777777
0.000739091545715,0.38333333333333336
0.000739091545715,0.3888888888888889
0.000842786342547,0.39444444444444443
0.000890671029011,0.4
0.000957710207062,0.40555555555555556
0.00102388358939,0.4111111111111111
0.00127198685826,0.4166666666666667
0.0013448827515,0.4222222222222222
0.00141500781153,0.42777777777777776
0.00173961118532,0.43333333333333335
0.00181025652711,0.4388888888888889
0.00204240442894,0.4444444444444444
0.00213839295123,0.45
0.00221579235044,0.45555555555555555
0.00264053698056,0.46111111111111114
0.00299130112981,0.4666666666666667
0.0053219183616,0.4722222222222222
0.00647459087013,0.4777777777777778
0.00677707586432,0.48333333333333334
0.00738324291879,0.4888888888888889
0.00756265291688,0.49444444444444446
0.00795666072744,0.5
0.00804380842755,0.5055555555555555
0.00851874954821,0.5111111111111111
0.00920030489812,0.5166666666666667
0.00925773230184,0.5222222222222223
0.00940963288208,0.5277777777777778
0.00955441938487,0.5333333333333333
0.00989546401298,0.5388888888888889
0.010697299043,0.5444444444444444
0.0110183170267,0.55
0.0110235187392,0.5555555555555556
0.0110719530535,0.5611111111111111
0.0110897777395,0.5666666666666667
0.0111149208484,0.5722222222222222
0.0111209089017,0.5777777777777777
0.0111567431163,0.5833333333333334
0.0112456029361,0.5888888888888889
0.0112470783801,0.5944444444444444
0.011258699824,0.6
0.0112863247792,0.6055555555555555
0.0113287490744,0.6111111111111112
0.0113376435342,0.6166666666666667
0.0113509143151,0.6222222222222222
0.0113772299107,0.6277777777777778
0.0114550117672,0.6333333333333333
0.0114678946291,0.6388888888888888
0.0114756137741,0.6444444444444445
0.0114951046908,0.65
0.0114952135063,0.6555555555555556
0.0115249941381,0.6611111111111111
0.0115276621506,0.6666666666666666
0.0115432204674,0.6722222222222223
0.011553202614,0.6777777777777778
0.011559276242,0.6833333333333333
0.0115627951536,0.6888888888888889
0.0115689073396,0.6944444444444444
0.0115759123652,0.7
0.011596229016,0.7055555555555556
0.0116082578373,0.7111111111111111
0.011659928649,0.7166666666666667
0.0116943465104,0.7222222222222222
0.0117560757791,0.7277777777777777
0.01176801823,0.7333333333333333
0.0117798654212,0.7388888888888889
0.0118047232544,0.7444444444444445
0.281176959502,0.75
0.281176959502,0.7555555555555555
0.369065101783,0.7611111111111111
0.426223983635,0.7666666666666667
0.554488886974,0.7722222222222223
0.554488886974,0.7777777777777778
0.562353919004,0.7833333333333333
0.577963812102,0.7888888888888889
0.577963812102,0.7944444444444444
0.738130203566,0.8
1.11149208484,0.8055555555555556
1.12456029361,0.8111111111111111
1.15432204674,0.8166666666666667
1.1553202614,0.8222222222222222
1.38300866217,0.8277777777777777
1.40980943742,0.8333333333333334
1.70127834988,0.8388888888888889
1.71083871954,0.8444444444444444
1.74034046112,0.85
1.80611750905,0.8555555555555555
1.80611750905,0.8611111111111112
2.27748494974,0.8666666666666667
2.31191328326,0.8722222222222222
2.4986829738,0.8777777777777778
2.86772945351,0.8833333333333333
2.92437571592,0.8888888888888888
2.96574041065,0.8944444444444445
3.64624435121,0.9
5.27356008586,0.9055555555555556
5.8328450989,0.9111111111111111
6.50959424064,0.9166666666666666
6.95871508129,0.9222222222222223
7.68520181855,0.9277777777777778
13.3885546825,0.9333333333333333
14.0416463783,0.9388888888888889
15.2221187038,0.9444444444444444
16.3716291728,0.95
16.8155609829,0.9555555555555556
17.9849956339,0.9611111111111111
19.2256737378,0.9666666666666667
19.6745759524,0.9722222222222222
20.2954036421,0.9777777777777777
20.4764292948,0.9833333333333333
20.8122989435,0.9888888888888889
21.9243898336,0.9944444444444445
22.1459690687,1.0
