Congestion,CDF
0.0,0.005555555555555556
0.0,0.011111111111111112
0.0,0.016666666666666666
0.0,0.022222222222222223
0.0,0.027777777777777776
0.0,0.03333333333333333
0.0,0.03888888888888889
0.0,0.044444444444444446
0.0,0.05
0.0,0.05555555555555555
3.06122665577e-07,0.06111111111111111
3.51720220368e-07,0.06666666666666667
7.91693074872e-07,0.07222222222222222
1.15710548166e-06,0.07777777777777778
1.18400365479e-06,0.08333333333333333
1.56329241142e-06,0.08888888888888889
1.71982855828e-06,0.09444444444444444
2.37031593005e-06,0.1
2.38254450854e-06,0.10555555555555556
2.43756667699e-06,0.1111111111111111
2.48773459603e-06,0.11666666666666667
2.7384875529e-06,0.12222222222222222
2.80200611478e-06,0.12777777777777777
3.12898307333e-06,0.13333333333333333
3.20470727988e-06,0.1388888888888889
3.37459758592e-06,0.14444444444444443
3.90209320005e-06,0.15
4.27047921511e-06,0.15555555555555556
4.45924048864e-06,0.16111111111111112
4.63779347536e-06,0.16666666666666666
4.71117288985e-06,0.17222222222222222
4.7490098471e-06,0.17777777777777778
4.90635131756e-06,0.18333333333333332
5.07683767417e-06,0.18888888888888888
5.16253686438e-06,0.19444444444444445
5.22083839467e-06,0.2
5.24980363108e-06,0.20555555555555555
5.310089153e-06,0.2111111111111111
5.36197833067e-06,0.21666666666666667
5.37374462808e-06,0.2222222222222222
5.55329524002e-06,0.22777777777777777
5.59962568129e-06,0.23333333333333334
5.66390589814e-06,0.2388888888888889
6.1337062983e-06,0.24444444444444444
6.45426294243e-06,0.25
7.00745220645e-06,0.25555555555555554
7.11846574824e-06,0.2611111111111111
7.22090563054e-06,0.26666666666666666
7.46544113795e-06,0.2722222222222222
2.63897691624e-05,0.2777777777777778
5.27795383248e-05,0.2833333333333333
5.7855274083e-05,0.28888888888888886
5.7855274083e-05,0.29444444444444445
5.95636127134e-05,0.3
5.95636127134e-05,0.3055555555555556
9.01758792711e-05,0.3111111111111111
0.000118400365479,0.31666666666666665
0.000119127225427,0.32222222222222224
0.000158609739278,0.3277777777777778
0.000237031593005,0.3333333333333333
0.000246505120413,0.3388888888888889
0.000261041919733,0.34444444444444444
0.000261041919733,0.35
0.000333412368003,0.35555555555555557
0.000507683767417,0.3611111111111111
0.000516253686438,0.36666666666666664
0.000532756258793,0.37222222222222223
0.000573940227066,0.37777777777777777
0.000607234027397,0.38333333333333336
0.000607234027397,0.3888888888888889
0.000692429169278,0.39444444444444443
0.000731770995309,0.4
0.000786850058677,0.40555555555555556
0.000841217788481,0.4111111111111111
0.00104505823022,0.4166666666666667
0.00110494914237,0.4222222222222222
0.0011625635514,0.42777777777777776
0.00142925610811,0.43333333333333335
0.00167802956771,0.4388888888888889
0.00175689327183,0.4444444444444444
0.00216945236959,0.45
0.00245763849248,0.45555555555555555
0.00437246230041,0.46111111111111114
0.00531949243989,0.4666666666666667
0.00556801264326,0.4722222222222222
0.00606603655369,0.4777777777777778
0.0062134389375,0.48333333333333334
0.00653715384267,0.4888888888888889
0.00660875397018,0.49444444444444446
0.00699896329018,0.5
0.00755892585831,0.5055555555555555
0.00760610793453,0.5111111111111111
0.00773090871414,0.5166666666666667
0.00784986460223,0.5222222222222223
0.00813006521371,0.5277777777777778
0.0211952980161,0.5333333333333333
0.0214985405256,0.5388888888888889
0.0262924175446,0.5444444444444444
0.0265153421621,0.55
0.0265235064056,0.5555555555555556
0.0265261977523,0.5611111111111111
0.0265496088729,0.5666666666666667
0.0265504094352,0.5722222222222222
0.0265717787212,0.5777777777777777
0.026592719227,0.5833333333333334
0.0266371485091,0.5888888888888889
0.0266379507042,0.5944444444444444
0.0266437809278,0.6
0.0266576007189,0.6055555555555555
0.0266785264453,0.6111111111111112
0.0266832518257,0.6166666666666667
0.0266873676173,0.6222222222222222
0.0266901480838,0.6277777777777778
0.026731405253,0.6333333333333333
0.0267419441643,0.6388888888888888
0.0267521539531,0.6444444444444445
0.0267580805395,0.65
0.0267618020304,0.6555555555555556
0.0267619238347,0.6611111111111111
0.0267769187068,0.6666666666666666
0.0267857591157,0.6722222222222223
0.0267910229297,0.6777777777777778
0.026793886828,0.6833333333333333
0.0267958110307,0.6888888888888889
0.0267986043968,0.6944444444444444
0.0268021049321,0.7
0.0268125361939,0.7055555555555556
0.0268184753727,0.7111111111111111
0.0268442815155,0.7166666666666667
0.0268610591457,0.7222222222222222
0.0268923246685,0.7277777777777777
0.0268981559938,0.7333333333333333
0.0269043625894,0.7388888888888889
0.0269157722857,0.7444444444444445
0.665948767606,0.75
0.665948767606,0.7555555555555555
0.885013647839,0.7611111111111111
1.03112997897,0.7666666666666667
1.32748044365,0.7722222222222223
1.32748044365,0.7777777777777778
1.33189753521,0.7833333333333333
1.3396943414,0.7888888888888889
1.3396943414,0.7944444444444444
1.77002729568,0.8
2.65717787212,0.8055555555555556
2.66371485091,0.8111111111111111
2.67857591157,0.8166666666666667
2.67910229297,0.8222222222222222
3.31829940817,0.8277777777777777
3.3317088395,0.8333333333333334
4.00062096895,0.8388888888888889
4.00754698593,0.8444444444444444
4.02233379415,0.85
4.2303431362,0.8555555555555555
4.2303431362,0.8611111111111112
5.34160602367,0.8666666666666667
5.35878640478,0.8722222222222222
5.97757133087,0.8777777777777778
6.68740742561,0.8833333333333333
6.89091690377,0.8888888888888888
6.91159675558,0.8944444444444445
8.65278672618,0.9
12.2683909192,0.9055555555555556
13.7738798152,0.9111111111111111
15.3380434558,0.9166666666666666
16.438257908,0.9222222222222223
18.0272759226,0.9277777777777778
31.3862299303,0.9333333333333333
32.7632853524,0.9388888888888889
35.454862581,0.9444444444444444
38.1306706349,0.95
39.4040283374,0.9555555555555556
42.090134252,0.9611111111111111
44.8074718069,0.9666666666666667
46.0863514574,0.9722222222222222
47.4367135614,0.9777777777777777
48.7553662657,0.9833333333333333
49.556243363,0.9888888888888889
51.4069004819,0.9944444444444445
53.5567545345,1.0
