Congestion,CDF
0.0,0.005555555555555556
0.0,0.011111111111111112
0.0,0.016666666666666666
0.0,0.022222222222222223
0.0,0.027777777777777776
0.0,0.03333333333333333
0.0,0.03888888888888889
0.0,0.044444444444444446
0.0,0.05
0.0,0.05555555555555555
9.58286078528e-07,0.06111111111111111
1.1010246173e-06,0.06666666666666667
2.47831519005e-06,0.07222222222222222
3.62220181369e-06,0.07777777777777778
3.70640382728e-06,0.08333333333333333
4.89372896225e-06,0.08888888888888889
5.3837495559e-06,0.09444444444444444
7.42003455772e-06,0.1
7.45831488727e-06,0.10555555555555556
7.63055622699e-06,0.1111111111111111
7.78760182932e-06,0.11666666666666667
8.57255862847e-06,0.12222222222222222
8.77139706947e-06,0.12777777777777777
9.79496540536e-06,0.13333333333333333
1.00320123839e-05,0.1388888888888889
1.05638368238e-05,0.14444444444444443
1.22151085535e-05,0.15
1.33683037575e-05,0.15555555555555556
1.39592018547e-05,0.16111111111111112
1.45181439412e-05,0.16666666666666666
1.47478507851e-05,0.17222222222222222
1.48662955574e-05,0.17777777777777778
1.53588371352e-05,0.18333333333333332
1.58925274511e-05,0.18888888888888888
1.61608001083e-05,0.19444444444444445
1.6343307159e-05,0.2
1.64339799054e-05,0.20555555555555555
1.66226976414e-05,0.2111111111111111
1.678513147e-05,0.21666666666666667
1.68219646753e-05,0.2222222222222222
1.73840297269e-05,0.22777777777777777
1.75290624927e-05,0.23333333333333334
1.77302852177e-05,0.2388888888888889
1.92009479088e-05,0.24444444444444444
2.0204418099e-05,0.25
2.1936121204e-05,0.25555555555555554
2.22836378814e-05,0.2611111111111111
2.2604315584e-05,0.26666666666666666
2.33698092857e-05,0.2722222222222222
8.26105063349e-05,0.2777777777777778
0.00016522101267,0.2833333333333333
0.000181110090684,0.28888888888888886
0.000181110090684,0.29444444444444445
0.000186457872182,0.3
0.000186457872182,0.3055555555555556
0.000282286480034,0.3111111111111111
0.000370640382728,0.31666666666666665
0.000372915744363,0.32222222222222224
0.000496511765253,0.3277777777777778
0.000742003455772,0.3333333333333333
0.00077165937626,0.3388888888888889
0.000817165357949,0.34444444444444444
0.000817165357949,0.35
0.00101733228909,0.35555555555555557
0.00104371373503,0.3611111111111111
0.00118470608847,0.36666666666666664
0.00131811173018,0.37222222222222223
0.00153353228409,0.37777777777777777
0.00153998314984,0.38333333333333336
0.00158925274511,0.3888888888888889
0.00160872539071,0.39444444444444443
0.00160894052773,0.4
0.00161608001083,0.40555555555555556
0.00162005503706,0.4111111111111111
0.0016230410158,0.4166666666666667
0.0016322307423,0.4222222222222222
0.00164086982578,0.42777777777777776
0.00165601771372,0.43333333333333335
0.00166305040743,0.4388888888888889
0.00166469017034,0.4444444444444444
0.00166570648528,0.45
0.00166643134198,0.45555555555555555
0.00166773964642,0.46111111111111114
0.00166973546219,0.4666666666666667
0.00167270995306,0.4722222222222222
0.00168503467321,0.4777777777777778
0.00168584188688,0.48333333333333334
0.00168629880501,0.4888888888888889
0.00179666189849,0.49444444444444446
0.00182651325343,0.5
0.00190088477691,0.5055555555555555
0.00190088477691,0.5111111111111111
0.00190323832999,0.5166666666666667
0.00193725687706,0.5222222222222223
0.00197714019188,0.5277777777777778
0.00198329600102,0.5333333333333333
0.00198456606586,0.5388888888888889
0.0020070240018,0.5444444444444444
0.0020105321494,0.55
0.00201705477484,0.5555555555555556
0.00203012842693,0.5611111111111111
0.00203196540761,0.5666666666666667
0.00203278366657,0.5722222222222222
0.00204086154673,0.5777777777777777
0.00204444569872,0.5833333333333334
0.00204566660037,0.5888888888888889
0.00204991258563,0.5944444444444444
0.00205366777677,0.6
0.00207324321136,0.6055555555555555
0.00216757956173,0.6111111111111112
0.00229073517361,0.6166666666666667
0.00246315461711,0.6222222222222222
0.00263334730276,0.6277777777777778
0.00327144921265,0.6333333333333333
0.00345893166262,0.6388888888888888
0.0036392877496,0.6444444444444445
0.00447414185575,0.65
0.00525290203869,0.6555555555555556
0.00549977689722,0.6611111111111111
0.00679125147395,0.6666666666666666
0.00769338901762,0.6722222222222223
0.0136875515032,0.6777777777777778
0.016652133681,0.6833333333333333
0.0174301010709,0.6888888888888889
0.0189891146096,0.6944444444444444
0.0194505428808,0.7
0.0204638996881,0.7055555555555556
0.0206880366539,0.7111111111111111
0.0219095475092,0.7166666666666667
0.0236624537585,0.7222222222222222
0.0238101524815,0.7277777777777777
0.0242008287141,0.7333333333333333
0.0245732081042,0.7388888888888889
0.0254503478112,0.7444444444444445
0.0475809582498,0.75
0.0475809582498,0.7555555555555555
0.0661098667008,0.7611111111111111
0.0690923415461,0.7666666666666667
0.0832345085171,0.7722222222222223
0.0832345085171,0.7777777777777778
0.0842920943441,0.7833333333333333
0.0842920943441,0.7888888888888889
0.0951619164996,0.7944444444444444
0.132219733402,0.8
0.16322307423,0.8055555555555556
0.166305040743,0.8111111111111111
0.198456606586,0.8166666666666667
0.204444569872,0.8222222222222222
0.208453497321,0.8277777777777777
0.237645322753,0.8333333333333334
0.247321491095,0.8388888888888889
0.24863417319,0.8444444444444444
0.302486237635,0.85
0.31820572426,0.8555555555555555
0.31820572426,0.8611111111111112
0.332948174941,0.8666666666666667
0.3707575989,0.8722222222222222
0.403823384263,0.8777777777777778
0.413892139624,0.8833333333333333
0.517940580652,0.8888888888888888
0.523196982823,0.8944444444444445
0.536359370272,0.9
0.931727707368,0.9055555555555556
0.949790499238,0.9111111111111111
1.0338603241,0.9166666666666666
1.11829396656,0.9222222222222223
1.23456272428,0.9277777777777778
2.03376416162,0.9333333333333333
2.20103515693,0.9388888888888889
2.3619292097,0.9444444444444444
2.37085709169,0.95
2.75357284744,0.9555555555555556
2.88538402046,0.9611111111111111
2.97795884261,0.9666666666666667
2.98711724937,0.9722222222222222
3.1809716853,0.9777777777777777
3.45898946735,0.9833333333333333
3.64164079269,0.9888888888888889
3.8036462964,0.9944444444444445
3.92211690524,1.0
