Congestion,CDF
0.0,0.007352941176470588
0.0,0.014705882352941176
0.0,0.022058823529411766
0.0,0.029411764705882353
0.0,0.03676470588235294
0.0,0.04411764705882353
0.0,0.051470588235294115
0.0,0.058823529411764705
0.0,0.0661764705882353
0.0,0.07352941176470588
0.0,0.08088235294117647
0.0,0.08823529411764706
0.0,0.09558823529411764
0.0,0.10294117647058823
4.08307581673e-06,0.11029411764705882
4.08307581673e-06,0.11764705882352941
4.08307581673e-06,0.125
4.08307581673e-06,0.1323529411764706
4.08307581673e-06,0.13970588235294118
4.08307581673e-06,0.14705882352941177
4.08307581673e-06,0.15441176470588236
4.08307581673e-06,0.16176470588235295
4.08307581673e-06,0.16911764705882354
4.08307581673e-06,0.17647058823529413
4.08307581673e-06,0.18382352941176472
4.08307581673e-06,0.19117647058823528
4.08307581673e-06,0.19852941176470587
4.08307581673e-06,0.20588235294117646
4.08307581673e-06,0.21323529411764705
4.08307581673e-06,0.22058823529411764
4.08307581673e-06,0.22794117647058823
4.08307581673e-06,0.23529411764705882
4.08307581673e-06,0.2426470588235294
4.08307581673e-06,0.25
4.08307581673e-06,0.25735294117647056
4.08307581673e-06,0.2647058823529412
4.08307581673e-06,0.27205882352941174
4.08307581673e-06,0.27941176470588236
4.08307581673e-06,0.2867647058823529
4.08307581673e-06,0.29411764705882354
4.08307581673e-06,0.3014705882352941
0.000102076895418,0.3088235294117647
0.000102076895418,0.3161764705882353
0.000110243047052,0.3235294117647059
0.000204153790837,0.33088235294117646
0.000204153790837,0.3382352941176471
0.000204153790837,0.34558823529411764
0.000204153790837,0.35294117647058826
0.000306230686255,0.3602941176470588
0.000340256318061,0.36764705882352944
0.000340256318061,0.375
0.000340256318061,0.38235294117647056
0.000408307581673,0.3897058823529412
0.000408307581673,0.39705882352941174
0.000408307581673,0.40441176470588236
0.000408307581673,0.4117647058823529
0.000408307581673,0.41911764705882354
0.000408307581673,0.4264705882352941
0.000408307581673,0.4338235294117647
0.000510384477092,0.4411764705882353
0.00061246137251,0.4485294117647059
0.00061246137251,0.45588235294117646
0.000748563899735,0.4632352941176471
0.000816615163347,0.47058823529411764
0.000816615163347,0.47794117647058826
0.00122492274502,0.4852941176470588
0.0016672559585,0.49264705882352944
0.00296022996713,0.5
0.00302828123074,0.5073529411764706
0.0039129476577,0.5147058823529411
0.00486566534827,0.5220588235294118
0.00493371661189,0.5294117647058824
0.00527397292995,0.5367647058823529
0.00534202419356,0.5441176470588235
0.00575033177523,0.5514705882352942
0.00719654795317,0.5588235294117647
0.00726068232996,0.5661764705882353
0.00780772707998,0.5735294117647058
0.00780772707998,0.5808823529411765
0.00780772707998,0.5882352941176471
0.00780772707998,0.5955882352941176
0.00783456335908,0.6029411764705882
0.00786165909896,0.6102941176470589
0.00791559111795,0.6176470588235294
0.00791559111795,0.625
0.00793685201614,0.6323529411764706
0.00793685201614,0.6397058823529411
0.00793685201614,0.6470588235294118
0.00793815816215,0.6544117647058824
0.0079385935763,0.6617647058823529
0.00794246329122,0.6691176470588235
0.00794246329122,0.6764705882352942
0.00794598991443,0.6838235294117647
0.00795290039479,0.6911764705882353
0.00796333749837,0.6985294117647058
0.00796817902524,0.7058823529411765
0.00796817902524,0.7132352941176471
0.00796817902524,0.7205882352941176
0.00796817902524,0.7279411764705882
0.00796859826614,0.7352941176470589
0.00796859826614,0.7426470588235294
0.00796859826614,0.75
0.198453954054,0.7573529411764706
0.198649747861,0.7647058823529411
0.212428516373,0.7720588235294118
0.393082954948,0.7794117647058824
0.393082954948,0.7867647058823529
0.39764501974,0.7941176470588235
0.39764501974,0.8014705882352942
0.595361862161,0.8088235294117647
0.661723487791,0.8161764705882353
0.661723487791,0.8235294117647058
0.661723487791,0.8308823529411765
0.780772707998,0.8382352941176471
0.793685201614,0.8455882352941176
0.794598991443,0.8529411764705882
0.796817902524,0.8602941176470589
0.796817902524,0.8676470588235294
0.796859826614,0.875
0.796859826614,0.8823529411764706
0.992139155668,0.8897058823529411
1.17385566295,0.8970588235294118
1.19189134886,0.9044117647058824
1.45328259959,0.9117647058823529
1.561545416,0.9191176470588235
1.59363580505,0.9264705882352942
2.39057947984,0.9338235294117647
3.24123304669,0.9411764705882353
5.7765008378,0.9485294117647058
5.87915771302,0.9558823529411765
7.63220309517,0.9632352941176471
9.39533149996,0.9705882352941176
9.61834077315,0.9779411764705882
10.1149862953,0.9852941176470589
10.4017971091,0.9926470588235294
11.1278653421,1.0
