Congestion,CDF
0.0,0.007352941176470588
0.0,0.014705882352941176
0.0,0.022058823529411766
0.0,0.029411764705882353
0.0,0.03676470588235294
0.0,0.04411764705882353
0.0,0.051470588235294115
0.0,0.058823529411764705
0.0,0.0661764705882353
0.0,0.07352941176470588
0.0,0.08088235294117647
0.0,0.08823529411764706
0.0,0.09558823529411764
0.0,0.10294117647058823
8.06060736209e-06,0.11029411764705882
8.06060736209e-06,0.11764705882352941
8.06060736209e-06,0.125
8.06060736209e-06,0.1323529411764706
8.06060736209e-06,0.13970588235294118
8.06060736209e-06,0.14705882352941177
8.06060736209e-06,0.15441176470588236
8.06060736209e-06,0.16176470588235295
8.06060736209e-06,0.16911764705882354
8.06060736209e-06,0.17647058823529413
8.06060736209e-06,0.18382352941176472
8.06060736209e-06,0.19117647058823528
8.06060736209e-06,0.19852941176470587
8.06060736209e-06,0.20588235294117646
8.06060736209e-06,0.21323529411764705
8.06060736209e-06,0.22058823529411764
8.06060736209e-06,0.22794117647058823
8.06060736209e-06,0.23529411764705882
8.06060736209e-06,0.2426470588235294
8.06060736209e-06,0.25
8.06060736209e-06,0.25735294117647056
8.06060736209e-06,0.2647058823529412
8.06060736209e-06,0.27205882352941174
8.06060736209e-06,0.27941176470588236
8.06060736209e-06,0.2867647058823529
8.06060736209e-06,0.29411764705882354
8.06060736209e-06,0.3014705882352941
0.000201515184052,0.3088235294117647
0.000201515184052,0.3161764705882353
0.000217636398776,0.3235294117647059
0.000403030368104,0.33088235294117646
0.000403030368104,0.3382352941176471
0.000403030368104,0.34558823529411764
0.000403030368104,0.35294117647058826
0.000604545552156,0.3602941176470588
0.000671717280174,0.36764705882352944
0.000671717280174,0.375
0.000671717280174,0.38235294117647056
0.000806060736209,0.3897058823529412
0.000806060736209,0.39705882352941174
0.000806060736209,0.40441176470588236
0.000806060736209,0.4117647058823529
0.000806060736209,0.41911764705882354
0.000806060736209,0.4264705882352941
0.000806060736209,0.4338235294117647
0.00100757592026,0.4411764705882353
0.00120909110431,0.4485294117647059
0.00120909110431,0.45588235294117646
0.00147777801638,0.4632352941176471
0.00161212147242,0.47058823529411764
0.00161212147242,0.47794117647058826
0.00241818220863,0.4852941176470588
0.00329141467285,0.49264705882352944
0.00398537075078,0.5
0.00398537075078,0.5073529411764706
0.00398537075078,0.5147058823529411
0.00398537075078,0.5220588235294118
0.00398537075078,0.5294117647058824
0.00398537075078,0.5367647058823529
0.00398537075078,0.5441176470588235
0.00398537075078,0.5514705882352942
0.00398537075078,0.5588235294117647
0.00398537075078,0.5661764705882353
0.00398537075078,0.5735294117647058
0.00398537075078,0.5808823529411765
0.00398537075078,0.5882352941176471
0.00398537075078,0.5955882352941176
0.00398537075078,0.6029411764705882
0.00398537075078,0.6102941176470589
0.00398537075078,0.6176470588235294
0.00398537075078,0.625
0.00398537075078,0.6323529411764706
0.00398537075078,0.6397058823529411
0.00398537075078,0.6470588235294118
0.00398537075078,0.6544117647058824
0.00398537075078,0.6617647058823529
0.00398537075078,0.6691176470588235
0.00398537075078,0.6764705882352942
0.00398537075078,0.6838235294117647
0.00398537075078,0.6911764705882353
0.00584394033751,0.6985294117647058
0.00597828379355,0.7058823529411765
0.007724748722,0.7132352941176471
0.00960555710649,0.7205882352941176
0.00973990056252,0.7279411764705882
0.0104116178427,0.7352941176470589
0.0105459612987,0.7426470588235294
0.0113520220349,0.75
0.0996342687695,0.7573529411764706
0.0996342687695,0.7647058823529411
0.107605010271,0.7720588235294118
0.199268537539,0.7794117647058824
0.199268537539,0.7867647058823529
0.199268537539,0.7941176470588235
0.199268537539,0.8014705882352942
0.298902806309,0.8088235294117647
0.332114229232,0.8161764705882353
0.332114229232,0.8235294117647058
0.332114229232,0.8308823529411765
0.398537075078,0.8382352941176471
0.398537075078,0.8455882352941176
0.398537075078,0.8529411764705882
0.398537075078,0.8602941176470589
0.398537075078,0.8676470588235294
0.398537075078,0.875
0.398537075078,0.8823529411764706
0.498171343848,0.8897058823529411
0.597805612617,0.8970588235294118
0.597805612617,0.9044117647058824
0.73065130431,0.9117647058823529
0.797074150156,0.9191176470588235
0.797074150156,0.9264705882352942
1.19561122523,0.9338235294117647
1.62735972324,0.9411764705882353
2.88939379432,0.9485294117647058
2.95581664016,0.9558823529411765
3.81931363616,0.9632352941176471
4.74923347801,0.9705882352941176
4.81565632386,0.9779411764705882
5.14777055309,0.9852941176470589
5.21419339894,0.9926470588235294
5.61273047402,1.0
