Congestion,CDF
0.0,0.007352941176470588
0.0,0.014705882352941176
0.0,0.022058823529411766
0.0,0.029411764705882353
0.0,0.03676470588235294
0.0,0.04411764705882353
0.0,0.051470588235294115
0.0,0.058823529411764705
0.0,0.0661764705882353
0.0,0.07352941176470588
0.0,0.08088235294117647
0.0,0.08823529411764706
0.0,0.09558823529411764
0.0,0.10294117647058823
2.68741977222e-06,0.11029411764705882
2.68741977222e-06,0.11764705882352941
2.68741977222e-06,0.125
2.68741977222e-06,0.1323529411764706
2.68741977222e-06,0.13970588235294118
2.68741977222e-06,0.14705882352941177
2.68741977222e-06,0.15441176470588236
2.68741977222e-06,0.16176470588235295
2.68741977222e-06,0.16911764705882354
2.68741977222e-06,0.17647058823529413
2.68741977222e-06,0.18382352941176472
2.68741977222e-06,0.19117647058823528
2.68741977222e-06,0.19852941176470587
2.68741977222e-06,0.20588235294117646
2.68741977222e-06,0.21323529411764705
2.68741977222e-06,0.22058823529411764
2.68741977222e-06,0.22794117647058823
2.68741977222e-06,0.23529411764705882
2.68741977222e-06,0.2426470588235294
2.68741977222e-06,0.25
2.68741977222e-06,0.25735294117647056
2.68741977222e-06,0.2647058823529412
2.68741977222e-06,0.27205882352941174
2.68741977222e-06,0.27941176470588236
2.68741977222e-06,0.2867647058823529
2.68741977222e-06,0.29411764705882354
2.68741977222e-06,0.3014705882352941
6.71854943054e-05,0.3088235294117647
6.71854943054e-05,0.3161764705882353
7.25603338499e-05,0.3235294117647059
0.000134370988611,0.33088235294117646
0.000134370988611,0.3382352941176471
0.000134370988611,0.34558823529411764
0.000134370988611,0.35294117647058826
0.000201556482916,0.3602941176470588
0.000223951647685,0.36764705882352944
0.000223951647685,0.375
0.000223951647685,0.38235294117647056
0.000268741977222,0.3897058823529412
0.000268741977222,0.39705882352941174
0.000268741977222,0.40441176470588236
0.000268741977222,0.4117647058823529
0.000268741977222,0.41911764705882354
0.000268741977222,0.4264705882352941
0.000268741977222,0.4338235294117647
0.000335927471527,0.4411764705882353
0.000403112965833,0.4485294117647059
0.000403112965833,0.45588235294117646
0.000403233179277,0.4632352941176471
0.000492693624906,0.47058823529411764
0.000537483954443,0.47794117647058826
0.000537483954443,0.4852941176470588
0.000806225931665,0.49264705882352944
0.00109736307366,0.5
0.00121127672317,0.5073529411764706
0.00194837933486,0.5147058823529411
0.00199316966439,0.5220588235294118
0.00257544394837,0.5294117647058824
0.00320250856189,0.5367647058823529
0.00324729889143,0.5441176470588235
0.00347125053911,0.5514705882352942
0.00351604086865,0.5588235294117647
0.00378478284587,0.5661764705882353
0.0122021211354,0.5735294117647058
0.0123620828322,0.5808823529411765
0.0126815909161,0.5882352941176471
0.0127526595894,0.5955882352941176
0.0128280267218,0.6029411764705882
0.0128645552202,0.6102941176470589
0.0130172963505,0.6176470588235294
0.0130527957745,0.625
0.0130728604979,0.6323529411764706
0.013086346323,0.6397058823529411
0.0130882858523,0.6470588235294118
0.0130885168186,0.6544117647058824
0.0130886684238,0.6617647058823529
0.0130893340245,0.6691176470588235
0.0130893465109,0.6764705882352942
0.013099472512,0.6838235294117647
0.013104835479,0.6911764705882353
0.0131207189079,0.6985294117647058
0.0131274458487,0.7058823529411765
0.0131274810151,0.7132352941176471
0.0131275728542,0.7205882352941176
0.0131275827508,0.7279411764705882
0.0131280365066,0.7352941176470589
0.0131280431048,0.7426470588235294
0.0131280431048,0.75
0.326198228977,0.7573529411764706
0.327233662773,0.7647058823529411
0.3274868128,0.7720588235294118
0.643227761009,0.7794117647058824
0.643227761009,0.7867647058823529
0.655241773948,0.7941176470588235
0.655241773948,0.8014705882352942
0.98170098832,0.8088235294117647
1.09100436953,0.8161764705882353
1.09100436953,0.8235294117647058
1.09100436953,0.8308823529411765
1.28280267218,0.8382352941176471
1.30886684238,0.8455882352941176
1.3099472512,0.8529411764705882
1.31274810151,0.8602941176470589
1.31275827508,0.8676470588235294
1.31280431048,0.875
1.31280431048,0.8823529411764706
1.63616706522,0.8897058823529411
1.91138685262,0.8970588235294118
1.96407035918,0.9044117647058824
2.39628394697,0.9117647058823529
2.55806863112,0.9191176470588235
2.6255155605,0.9264705882352942
3.93841227161,0.9338235294117647
5.34467290943,0.9411764705882353
9.51690733129,0.9485294117647058
9.68591425246,0.9558823529411765
12.5752253655,0.9632352941176471
15.3755818497,0.9705882352941176
15.4159051677,0.9779411764705882
15.8465817745,0.9852941176470589
17.0827900577,0.9926470588235294
17.2039177301,1.0
