Congestion,CDF
0.0,0.007352941176470588
0.0,0.014705882352941176
0.0,0.022058823529411766
0.0,0.029411764705882353
0.0,0.03676470588235294
0.0,0.04411764705882353
0.0,0.051470588235294115
0.0,0.058823529411764705
0.0,0.0661764705882353
0.0,0.07352941176470588
0.0,0.08088235294117647
0.0,0.08823529411764706
0.0,0.09558823529411764
0.0,0.10294117647058823
3.48054126056e-06,0.11029411764705882
3.48054126056e-06,0.11764705882352941
3.48054126056e-06,0.125
3.48054126056e-06,0.1323529411764706
3.48054126056e-06,0.13970588235294118
3.48054126056e-06,0.14705882352941177
3.48054126056e-06,0.15441176470588236
3.48054126056e-06,0.16176470588235295
3.48054126056e-06,0.16911764705882354
3.48054126056e-06,0.17647058823529413
3.48054126056e-06,0.18382352941176472
3.48054126056e-06,0.19117647058823528
3.48054126056e-06,0.19852941176470587
3.48054126056e-06,0.20588235294117646
3.48054126056e-06,0.21323529411764705
3.48054126056e-06,0.22058823529411764
3.48054126056e-06,0.22794117647058823
3.48054126056e-06,0.23529411764705882
3.48054126056e-06,0.2426470588235294
3.48054126056e-06,0.25
3.48054126056e-06,0.25735294117647056
3.48054126056e-06,0.2647058823529412
3.48054126056e-06,0.27205882352941174
3.48054126056e-06,0.27941176470588236
3.48054126056e-06,0.2867647058823529
3.48054126056e-06,0.29411764705882354
3.48054126056e-06,0.3014705882352941
8.70135315139e-05,0.3088235294117647
8.70135315139e-05,0.3161764705882353
9.3974614035e-05,0.3235294117647059
0.000172814876729,0.33088235294117646
0.000174027063028,0.3382352941176471
0.000174027063028,0.34558823529411764
0.000174027063028,0.35294117647058826
0.000174027063028,0.3602941176470588
0.000261040594542,0.36764705882352944
0.000290045105046,0.375
0.000290045105046,0.38235294117647056
0.000290045105046,0.3897058823529412
0.000348054126056,0.39705882352941174
0.000348054126056,0.40441176470588236
0.000348054126056,0.4117647058823529
0.000348054126056,0.41911764705882354
0.000348054126056,0.4264705882352941
0.000348054126056,0.4338235294117647
0.000348054126056,0.4411764705882353
0.000435067657569,0.4485294117647059
0.000522081189083,0.45588235294117646
0.000522081189083,0.4632352941176471
0.000638099231102,0.47058823529411764
0.000696108252111,0.47794117647058826
0.000696108252111,0.4852941176470588
0.000845550291649,0.49264705882352944
0.00104416237817,0.5
0.00142122101473,0.5073529411764706
0.0025233924139,0.5147058823529411
0.00258140143491,0.5220588235294118
0.00333551870803,0.5294117647058824
0.00414764500216,0.5367647058823529
0.00420565402317,0.5441176470588235
0.00449569912822,0.5514705882352942
0.00455370814923,0.5588235294117647
0.00490176227528,0.5661764705882353
0.00919752677076,0.5735294117647058
0.00939029960147,0.5808823529411765
0.00962491284884,0.5882352941176471
0.00971778732523,0.5955882352941176
0.00978976071159,0.6029411764705882
0.00986199448131,0.6102941176470589
0.0100855876099,0.6176470588235294
0.0101268053591,0.625
0.0101715515392,0.6323529411764706
0.0101742267528,0.6397058823529411
0.0101755993798,0.6470588235294118
0.0101807048989,0.6544117647058824
0.0101841284146,0.6617647058823529
0.0101861473089,0.6691176470588235
0.0101976688829,0.6764705882352942
0.0102082790647,0.6838235294117647
0.010226371689,0.6911764705882353
0.0102546838877,0.6985294117647058
0.0102683204588,0.7058823529411765
0.0102683665987,0.7132352941176471
0.0102685516336,0.7205882352941176
0.010268566146,0.7279411764705882
0.0102687453335,0.7352941176470589
0.0102687550088,0.7426470588235294
0.0102687550088,0.75
0.252652461883,0.7573529411764706
0.254603210365,0.7647058823529411
0.255206976618,0.7720588235294118
0.493099724065,0.7794117647058824
0.493099724065,0.7867647058823529
0.511318584451,0.7941176470588235
0.511318584451,0.8014705882352942
0.763809631095,0.8088235294117647
0.849348430613,0.8161764705882353
0.849348430613,0.8235294117647058
0.849348430613,0.8308823529411765
0.978976071159,0.8382352941176471
1.01742267528,0.8455882352941176
1.02082790647,0.8529411764705882
1.02683665987,0.8602941176470589
1.0268566146,0.8676470588235294
1.02687550088,0.875
1.02687550088,0.8823529411764706
1.27216314835,0.8897058823529411
1.45559100895,0.8970588235294118
1.53108547274,0.9044117647058824
1.86202896653,0.9117647058823529
1.95075480368,0.9191176470588235
2.05371177797,0.9264705882352942
3.0806255351,0.9338235294117647
4.15608940816,0.9411764705882353
7.44321299543,0.9485294117647058
7.51977685974,0.9558823529411765
9.82934839927,0.9632352941176471
11.8458753494,0.9705882352941176
11.8631568371,0.9779411764705882
12.3785043619,0.9852941176470589
13.317534322,0.9926470588235294
13.4020893512,1.0
