Congestion,CDF
0.0,0.007352941176470588
0.0,0.014705882352941176
0.0,0.022058823529411766
0.0,0.029411764705882353
0.0,0.03676470588235294
0.0,0.04411764705882353
0.0,0.051470588235294115
0.0,0.058823529411764705
0.0,0.0661764705882353
0.0,0.07352941176470588
0.0,0.08088235294117647
0.0,0.08823529411764706
0.0,0.09558823529411764
0.0,0.10294117647058823
2.22650937742e-06,0.11029411764705882
2.22650937742e-06,0.11764705882352941
2.22650937742e-06,0.125
2.22650937742e-06,0.1323529411764706
2.22650937742e-06,0.13970588235294118
2.22650937742e-06,0.14705882352941177
2.22650937742e-06,0.15441176470588236
2.22650937742e-06,0.16176470588235295
2.22650937742e-06,0.16911764705882354
2.22650937742e-06,0.17647058823529413
2.22650937742e-06,0.18382352941176472
2.22650937742e-06,0.19117647058823528
2.22650937742e-06,0.19852941176470587
2.22650937742e-06,0.20588235294117646
2.22650937742e-06,0.21323529411764705
2.22650937742e-06,0.22058823529411764
2.22650937742e-06,0.22794117647058823
2.22650937742e-06,0.23529411764705882
2.22650937742e-06,0.2426470588235294
2.22650937742e-06,0.25
2.22650937742e-06,0.25735294117647056
2.22650937742e-06,0.2647058823529412
2.22650937742e-06,0.27205882352941174
2.22650937742e-06,0.27941176470588236
2.22650937742e-06,0.2867647058823529
2.22650937742e-06,0.29411764705882354
2.22650937742e-06,0.3014705882352941
5.56627344354e-05,0.3088235294117647
5.56627344354e-05,0.3161764705882353
6.01157531902e-05,0.3235294117647059
0.000111325468871,0.33088235294117646
0.000111325468871,0.3382352941176471
0.000111325468871,0.34558823529411764
0.000111325468871,0.35294117647058826
0.000166988203306,0.3602941176470588
0.000185542448118,0.36764705882352944
0.000185542448118,0.375
0.000185542448118,0.38235294117647056
0.000222650937742,0.3897058823529412
0.000222650937742,0.39705882352941174
0.000222650937742,0.40441176470588236
0.000222650937742,0.4117647058823529
0.000222650937742,0.41911764705882354
0.000222650937742,0.4264705882352941
0.000222650937742,0.4338235294117647
0.000278313672177,0.4411764705882353
0.000333976406612,0.4485294117647059
0.000333976406612,0.45588235294117646
0.000408193385859,0.4632352941176471
0.000445301875483,0.47058823529411764
0.000445301875483,0.47794117647058826
0.000667952813225,0.4852941176470588
0.000909157995778,0.49264705882352944
0.00161421929863,0.5
0.00165132778825,0.5073529411764706
0.00213373815336,0.5147058823529411
0.00265325700809,0.5220588235294118
0.00269036549771,0.5294117647058824
0.00287590794583,0.5367647058823529
0.00291301643545,0.5441176470588235
0.00313566737319,0.5514705882352942
0.0119629715535,0.5588235294117647
0.0121953466158,0.5661764705882353
0.0142902839946,0.5735294117647058
0.014330011876,0.5808823529411765
0.0143658347602,0.5882352941176471
0.0143689168911,0.5955882352941176
0.0143716951509,0.6029411764705882
0.0144677980638,0.6102941176470589
0.0146073314949,0.6176470588235294
0.0146169310374,0.625
0.0146534496433,0.6323529411764706
0.0146536510606,0.6397058823529411
0.0146541738883,0.6470588235294118
0.0146639070105,0.6544117647058824
0.0146671498471,0.6617647058823529
0.0146790388973,0.6691176470588235
0.0146818665832,0.6764705882352942
0.0146864130542,0.6838235294117647
0.0147065485666,0.6911764705882353
0.0147312738218,0.6985294117647058
0.0147436199811,0.7058823529411765
0.014743625174,0.7132352941176471
0.0147437696404,0.7205882352941176
0.0147437718422,0.7279411764705882
0.0147439498173,0.7352941176470589
0.0147439512853,0.7426470588235294
0.0147439512853,0.75
0.366597675262,0.7573529411764706
0.367160326355,0.7647058823529411
0.389561232837,0.7720588235294118
0.723389903189,0.7794117647058824
0.723389903189,0.7867647058823529
0.735327428329,0.7941176470588235
0.735327428329,0.8014705882352942
1.09979302579,0.8088235294117647
1.22266299652,0.8161764705882353
1.22266299652,0.8235294117647058
1.22266299652,0.8308823529411765
1.43689168911,0.8382352941176471
1.46536510606,0.8455882352941176
1.46864130542,0.8529411764705882
1.4743625174,0.8602941176470589
1.47437718422,0.8676470588235294
1.47439512853,0.875
1.47439512853,0.8823529411764706
1.83201506409,0.8897058823529411
2.15639109079,0.8970588235294118
2.20351408665,0.9044117647058824
2.68435610026,0.9117647058823529
2.87347516512,0.9191176470588235
2.94875414826,0.9264705882352942
4.4231852388,0.9338235294117647
5.985388131,0.9411764705882353
10.6878242289,0.9485294117647058
10.8538672839,0.9558823529411765
14.1189420359,0.9632352941176471
17.3127619393,0.9705882352941176
17.7903600123,0.9779411764705882
18.5090590947,0.9852941176470589
19.2275295274,0.9926470588235294
20.447064189,1.0
