Congestion,CDF
0.0,0.009433962264150943
0.0,0.018867924528301886
0.0,0.02830188679245283
0.0,0.03773584905660377
0.0,0.04716981132075472
0.0,0.05660377358490566
0.0,0.0660377358490566
0.0,0.07547169811320754
0.0,0.08490566037735849
0.0,0.09433962264150944
0.0,0.10377358490566038
0.0,0.11320754716981132
0.0,0.12264150943396226
0.0,0.1320754716981132
0.0,0.14150943396226415
0.0,0.1509433962264151
0.0,0.16037735849056603
0.0,0.16981132075471697
0.0,0.1792452830188679
0.0,0.18867924528301888
0.0,0.19811320754716982
0.0,0.20754716981132076
0.0,0.2169811320754717
0.0,0.22641509433962265
0.0,0.2358490566037736
0.0,0.24528301886792453
0.0,0.25471698113207547
0.0,0.2641509433962264
0.0,0.27358490566037735
0.0,0.2830188679245283
9.14123702041e-08,0.29245283018867924
2.3550032094e-06,0.3018867924528302
2.64824204847e-06,0.3113207547169811
3.59012674453e-06,0.32075471698113206
4.05260534768e-06,0.330188679245283
5.39249433631e-06,0.33962264150943394
8.22363674442e-06,0.3490566037735849
1.0526689456e-05,0.3584905660377358
1.11405480913e-05,0.36792452830188677
1.29935647889e-05,0.37735849056603776
1.59981899699e-05,0.3867924528301887
1.63647683723e-05,0.39622641509433965
1.72664410953e-05,0.4056603773584906
6.74061792039e-05,0.41509433962264153
6.74061792039e-05,0.42452830188679247
0.000110643722575,0.4339622641509434
0.0001315836182,0.44339622641509435
0.0001315836182,0.4528301886792453
0.000134812358408,0.46226415094339623
0.000134812358408,0.4716981132075472
0.000134812358408,0.4811320754716981
0.000208131034424,0.49056603773584906
0.000263167236399,0.5
0.000263167236399,0.5094339622641509
0.000263167236399,0.5188679245283019
0.000331401899827,0.5283018867924528
0.000331401899827,0.5377358490566038
0.000359012674453,0.5471698113207547
0.000610171634624,0.5566037735849056
0.000610171634624,0.5660377358490566
0.000756017201969,0.5754716981132075
0.000756017201969,0.5849056603773585
0.00116127773674,0.5943396226415094
0.00117707385539,0.6037735849056604
0.00183546663463,0.6132075471698113
0.00190952811352,0.6226415094339622
0.0024826613115,0.6320754716981132
0.00397481856587,0.6415094339622641
0.0115262859962,0.6509433962264151
0.0158229380933,0.660377358490566
0.0158821264782,0.6698113207547169
0.0158963963453,0.6792452830188679
0.015934626077,0.6886792452830188
0.0167135949039,0.6981132075471698
0.0175186777357,0.7075471698113207
0.0176760314475,0.7169811320754716
0.0177161915906,0.7264150943396226
0.0183461439845,0.7358490566037735
0.0192847298544,0.7452830188679245
0.0197497117559,0.7547169811320755
0.0199023451286,0.7641509433962265
0.220950393094,0.7735849056603774
0.220950393094,0.7830188679245284
0.221452394883,0.7924528301886793
0.221452394883,0.8018867924528302
0.221969799391,0.8113207547169812
0.441900786189,0.8207547169811321
0.441900786189,0.8301886792452831
0.441900786189,0.839622641509434
0.442904789765,0.8490566037735849
0.442904789765,0.8584905660377359
0.442904789765,0.8679245283018868
1.15262859962,0.8773584905660378
1.23650911189,0.8867924528301887
1.23650911189,0.8962264150943396
1.27808253317,0.9056603773584906
1.27808253317,0.9150943396226415
1.3597099872,0.9245283018867925
1.3597099872,0.9339622641509434
2.41737396357,0.9433962264150944
2.43263730084,0.9528301886792453
2.81880292122,0.9622641509433962
2.82997171959,0.9716981132075472
2.8677221677,0.9811320754716981
4.38966029395,0.9905660377358491
8.13819423705,1.0
