Congestion,CDF
0.00139832955868,0.005555555555555556
0.00139832955868,0.011111111111111112
0.0013985296104,0.016666666666666666
0.0013985296104,0.022222222222222223
0.00140045426344,0.027777777777777776
0.00140045426344,0.03333333333333333
0.00140204420796,0.03888888888888889
0.00140204420796,0.044444444444444446
0.00140216095328,0.05
0.00140216095328,0.05555555555555555
0.0014038035255,0.06111111111111111
0.0014038035255,0.06666666666666667
0.00140447927801,0.07222222222222222
0.00140447927801,0.07777777777777778
0.00140727305867,0.08333333333333333
0.00140727305867,0.08888888888888889
0.00140732561583,0.09444444444444444
0.00140732561583,0.1
0.00140756056951,0.10555555555555556
0.00140756056951,0.1111111111111111
0.00140777506204,0.11666666666666667
0.00140777506204,0.12222222222222222
0.00140884437903,0.12777777777777777
0.00140884437903,0.13333333333333333
0.00140911458097,0.1388888888888889
0.00140911458097,0.14444444444444443
0.0014105029526,0.15
0.0014105029526,0.15555555555555556
0.00141082353598,0.16111111111111112
0.00141082353598,0.16666666666666666
0.00141154197911,0.17222222222222222
0.00141154197911,0.17777777777777778
0.00141376264114,0.18333333333333332
0.00141376264114,0.18888888888888888
0.00141530470566,0.19444444444444445
0.00141530470566,0.2
0.00141609192401,0.20555555555555555
0.00141609192401,0.2111111111111111
0.00141683502986,0.21666666666666667
0.00141683502986,0.2222222222222222
0.00141713977563,0.22777777777777777
0.00141713977563,0.23333333333333334
0.00141729689244,0.2388888888888889
0.00141729689244,0.24444444444444444
0.0014179492792,0.25
0.0014179492792,0.25555555555555554
0.00141865467576,0.2611111111111111
0.00141865467576,0.26666666666666666
0.00141900867492,0.2722222222222222
0.00141900867492,0.2777777777777778
0.00141924927752,0.2833333333333333
0.00141924927752,0.28888888888888886
0.0014193688554,0.29444444444444445
0.0014193688554,0.3
0.00141961725219,0.3055555555555556
0.00141961725219,0.3111111111111111
0.00141983099216,0.31666666666666665
0.00141983099216,0.32222222222222224
0.00141987940323,0.3277777777777778
0.00141987940323,0.3333333333333333
0.0014206177789,0.3388888888888889
0.0014206177789,0.34444444444444444
0.00142080813563,0.35
0.00142080813563,0.35555555555555557
0.00142107182832,0.3611111111111111
0.00142107182832,0.36666666666666664
0.00142299292937,0.37222222222222223
0.00142299292937,0.37777777777777777
0.00142380897127,0.38333333333333336
0.00142380897127,0.3888888888888889
0.00142429699212,0.39444444444444443
0.00142429699212,0.4
0.0014265344283,0.40555555555555556
0.0014265344283,0.4111111111111111
0.00142698143704,0.4166666666666667
0.00142698143704,0.4222222222222222
0.00142739337246,0.42777777777777776
0.00142739337246,0.43333333333333335
0.00142837444374,0.4388888888888889
0.00142837444374,0.4444444444444444
0.048489204264,0.45
0.048489204264,0.45555555555555555
0.0520422527043,0.46111111111111114
0.0520422527043,0.4666666666666667
0.0679571614767,0.4722222222222222
0.0679571614767,0.4777777777777778
0.079924196826,0.48333333333333334
0.079924196826,0.4888888888888889
0.0922893030758,0.49444444444444446
0.0922893030758,0.5
0.121492987363,0.5055555555555555
0.121492987363,0.5111111111111111
0.123778989513,0.5166666666666667
0.123778989513,0.5222222222222223
0.125595685594,0.5277777777777778
0.125595685594,0.5333333333333333
0.153674908437,0.5388888888888889
0.153674908437,0.5444444444444444
0.155647557905,0.55
0.155647557905,0.5555555555555556
0.160814703048,0.5611111111111111
0.160814703048,0.5666666666666667
0.160953068505,0.5722222222222222
0.160953068505,0.5777777777777777
0.165210922398,0.5833333333333334
0.165210922398,0.5888888888888889
0.172397199003,0.5944444444444444
0.172397199003,0.6
0.17932796379,0.6055555555555555
0.17932796379,0.6111111111111112
0.185801404088,0.6166666666666667
0.185801404088,0.6222222222222222
0.188411745323,0.6277777777777778
0.188411745323,0.6333333333333333
0.189969465093,0.6388888888888888
0.189969465093,0.6444444444444445
0.193383584971,0.65
0.193383584971,0.6555555555555556
0.19407866501,0.6611111111111111
0.19407866501,0.6666666666666666
0.204040990895,0.6722222222222223
0.204040990895,0.6777777777777778
0.20764525977,0.6833333333333333
0.20764525977,0.6888888888888889
0.208078151282,0.6944444444444444
0.208078151282,0.7
0.21470913502,0.7055555555555556
0.21470913502,0.7111111111111111
0.223801655431,0.7166666666666667
0.223801655431,0.7222222222222222
0.233317611494,0.7277777777777777
0.233317611494,0.7333333333333333
0.245407398963,0.7388888888888889
0.245407398963,0.7444444444444445
0.273974141463,0.75
0.273974141463,0.7555555555555555
0.279269310783,0.7611111111111111
0.279269310783,0.7666666666666667
0.285421158963,0.7722222222222223
0.285421158963,0.7777777777777778
0.292623462577,0.7833333333333333
0.292623462577,0.7888888888888889
0.308911851079,0.7944444444444444
0.308911851079,0.8
0.313499134173,0.8055555555555556
0.313499134173,0.8111111111111111
0.322329907236,0.8166666666666667
0.322329907236,0.8222222222222222
0.341595980975,0.8277777777777777
0.341595980975,0.8333333333333334
0.353432766428,0.8388888888888889
0.353432766428,0.8444444444444444
0.370516446558,0.85
0.370516446558,0.8555555555555555
0.401393343634,0.8611111111111112
0.401393343634,0.8666666666666667
0.429741346111,0.8722222222222222
0.429741346111,0.8777777777777778
0.442055935665,0.8833333333333333
0.442055935665,0.8888888888888888
0.450343013558,0.8944444444444445
0.450343013558,0.9
0.482794250695,0.9055555555555556
0.482794250695,0.9111111111111111
0.510460847356,0.9166666666666666
0.510460847356,0.9222222222222223
0.52279635482,0.9277777777777778
0.52279635482,0.9333333333333333
0.577727915718,0.9388888888888889
0.577727915718,0.9444444444444444
0.595201448001,0.95
0.595201448001,0.9555555555555556
0.614719583639,0.9611111111111111
0.614719583639,0.9666666666666667
0.641105637312,0.9722222222222222
0.641105637312,0.9777777777777777
0.695857051162,0.9833333333333333
0.695857051162,0.9888888888888889
0.730051963222,0.9944444444444445
0.730051963222,1.0
