Congestion,CDF
0.0,0.007352941176470588
0.0,0.014705882352941176
0.0,0.022058823529411766
0.0,0.029411764705882353
0.0,0.03676470588235294
0.0,0.04411764705882353
0.0,0.051470588235294115
0.0,0.058823529411764705
0.0,0.0661764705882353
0.0,0.07352941176470588
0.0,0.08088235294117647
0.0,0.08823529411764706
0.0,0.09558823529411764
0.0,0.10294117647058823
4.3984893988e-06,0.11029411764705882
4.3984893988e-06,0.11764705882352941
4.3984893988e-06,0.125
4.3984893988e-06,0.1323529411764706
4.3984893988e-06,0.13970588235294118
4.3984893988e-06,0.14705882352941177
4.3984893988e-06,0.15441176470588236
4.3984893988e-06,0.16176470588235295
4.3984893988e-06,0.16911764705882354
4.3984893988e-06,0.17647058823529413
4.3984893988e-06,0.18382352941176472
4.3984893988e-06,0.19117647058823528
4.3984893988e-06,0.19852941176470587
4.3984893988e-06,0.20588235294117646
4.3984893988e-06,0.21323529411764705
4.3984893988e-06,0.22058823529411764
4.3984893988e-06,0.22794117647058823
4.3984893988e-06,0.23529411764705882
4.3984893988e-06,0.2426470588235294
4.3984893988e-06,0.25
4.3984893988e-06,0.25735294117647056
4.3984893988e-06,0.2647058823529412
4.3984893988e-06,0.27205882352941174
4.3984893988e-06,0.27941176470588236
4.3984893988e-06,0.2867647058823529
4.3984893988e-06,0.29411764705882354
4.3984893988e-06,0.3014705882352941
0.00010996223497,0.3088235294117647
0.00010996223497,0.3161764705882353
0.000118759213768,0.3235294117647059
0.00021992446994,0.33088235294117646
0.00021992446994,0.3382352941176471
0.00021992446994,0.34558823529411764
0.00021992446994,0.35294117647058826
0.00032988670491,0.3602941176470588
0.000366540783233,0.36764705882352944
0.000366540783233,0.375
0.000366540783233,0.38235294117647056
0.00043984893988,0.3897058823529412
0.00043984893988,0.39705882352941174
0.00043984893988,0.40441176470588236
0.00043984893988,0.4117647058823529
0.00043984893988,0.41911764705882354
0.00043984893988,0.4264705882352941
0.00043984893988,0.4338235294117647
0.00054981117485,0.4411764705882353
0.00065977340982,0.4485294117647059
0.00065977340982,0.45588235294117646
0.000806389723114,0.4632352941176471
0.00087969787976,0.47058823529411764
0.00087969787976,0.47794117647058826
0.00131954681964,0.4852941176470588
0.00179604983784,0.49264705882352944
0.00318890481413,0.5
0.00326221297078,0.5073529411764706
0.00421521900718,0.5147058823529411
0.00524153320024,0.5220588235294118
0.00531484135689,0.5294117647058824
0.00568138214012,0.5367647058823529
0.00575469029677,0.5441176470588235
0.00619453923665,0.5514705882352942
0.0298228180174,0.5588235294117647
0.0305139434254,0.5661764705882353
0.0384005284706,0.5735294117647058
0.0384872840573,0.5808823529411765
0.0386067562706,0.5882352941176471
0.0386438148276,0.5955882352941176
0.0386720710221,0.6029411764705882
0.0387258433636,0.6102941176470589
0.0388312048154,0.6176470588235294
0.0388476459656,0.625
0.0388707997677,0.6323529411764706
0.0388760251566,0.6397058823529411
0.0388765855063,0.6470588235294118
0.0388768761455,0.6544117647058824
0.0388769509612,0.6617647058823529
0.0388773025502,0.6691176470588235
0.0388776008998,0.6764705882352942
0.0388853275259,0.6838235294117647
0.0388910321397,0.6911764705882353
0.0389041927911,0.6985294117647058
0.0389096935119,0.7058823529411765
0.0389097070047,0.7132352941176471
0.0389097765509,0.7205882352941176
0.0389097806381,0.7279411764705882
0.0389102379224,0.7352941176470589
0.0389102406474,0.7426470588235294
0.0389102406474,0.75
0.971923774029,0.7573529411764706
0.972133188147,0.7647058823529411
1.0307342806,0.7720588235294118
1.93629216818,0.7794117647058824
1.93629216818,0.7867647058823529
1.94455160699,0.7941176470588235
1.94455160699,0.8014705882352942
2.91577132209,0.8088235294117647
3.23994314572,0.8161764705882353
3.23994314572,0.8235294117647058
3.23994314572,0.8308823529411765
3.86720710221,0.8382352941176471
3.88768761455,0.8455882352941176
3.88853275259,0.8529411764705882
3.89097070047,0.8602941176470589
3.89097806381,0.8676470588235294
3.89102406474,0.875
3.89102406474,0.8823529411764706
4.85965402905,0.8897058823529411
5.79696779524,0.8970588235294118
5.83231169696,0.9044117647058824
7.12470774228,0.9117647058823529
7.73158858497,0.9191176470588235
7.7819557189,0.9264705882352942
11.6730719217,0.9338235294117647
15.874887305,0.9411764705882353
28.2091008804,0.9485294117647058
28.819007697,0.9558823529411765
37.2840149122,0.9632352941176471
46.1876169243,0.9705882352941176
47.003406586,0.9779411764705882
49.169898726,0.9852941176470589
50.8521349917,0.9926470588235294
53.9035293342,1.0
