Congestion,CDF
0.0,0.007352941176470588
0.0,0.014705882352941176
0.0,0.022058823529411766
0.0,0.029411764705882353
0.0,0.03676470588235294
0.0,0.04411764705882353
0.0,0.051470588235294115
0.0,0.058823529411764705
0.0,0.0661764705882353
0.0,0.07352941176470588
0.0,0.08088235294117647
0.0,0.08823529411764706
0.0,0.09558823529411764
0.0,0.10294117647058823
5.58246308545e-06,0.11029411764705882
5.58246308545e-06,0.11764705882352941
5.58246308545e-06,0.125
5.58246308545e-06,0.1323529411764706
5.58246308545e-06,0.13970588235294118
5.58246308545e-06,0.14705882352941177
5.58246308545e-06,0.15441176470588236
5.58246308545e-06,0.16176470588235295
5.58246308545e-06,0.16911764705882354
5.58246308545e-06,0.17647058823529413
5.58246308545e-06,0.18382352941176472
5.58246308545e-06,0.19117647058823528
5.58246308545e-06,0.19852941176470587
5.58246308545e-06,0.20588235294117646
5.58246308545e-06,0.21323529411764705
5.58246308545e-06,0.22058823529411764
5.58246308545e-06,0.22794117647058823
5.58246308545e-06,0.23529411764705882
5.58246308545e-06,0.2426470588235294
5.58246308545e-06,0.25
5.58246308545e-06,0.25735294117647056
5.58246308545e-06,0.2647058823529412
5.58246308545e-06,0.27205882352941174
5.58246308545e-06,0.27941176470588236
5.58246308545e-06,0.2867647058823529
5.58246308545e-06,0.29411764705882354
5.58246308545e-06,0.3014705882352941
0.000139561577136,0.3088235294117647
0.000139561577136,0.3161764705882353
0.000150726503307,0.3235294117647059
0.000224347643405,0.33088235294117646
0.000279123154272,0.3382352941176471
0.000279123154272,0.34558823529411764
0.000279123154272,0.35294117647058826
0.000279123154272,0.3602941176470588
0.000418684731409,0.36764705882352944
0.000465205257121,0.375
0.000465205257121,0.38235294117647056
0.000465205257121,0.3897058823529412
0.000558246308545,0.39705882352941174
0.000558246308545,0.40441176470588236
0.000558246308545,0.4117647058823529
0.000558246308545,0.41911764705882354
0.000558246308545,0.4264705882352941
0.000558246308545,0.4338235294117647
0.000558246308545,0.4411764705882353
0.000697807885681,0.4485294117647059
0.000837369462817,0.45588235294117646
0.000837369462817,0.4632352941176471
0.00102345156567,0.47058823529411764
0.00108888791519,0.47794117647058826
0.00111649261709,0.4852941176470588
0.00111649261709,0.49264705882352944
0.00167473892563,0.5
0.00227950575989,0.5073529411764706
0.00404728573695,0.5147058823529411
0.00414032678838,0.5220588235294118
0.00534986045689,0.5294117647058824
0.00665243517683,0.5367647058823529
0.00674547622825,0.5441176470588235
0.00721068148537,0.5514705882352942
0.0073037225368,0.5588235294117647
0.00786196884534,0.5661764705882353
0.014156945258,0.5735294117647058
0.0143061722628,0.5808823529411765
0.0146202631328,0.5882352941176471
0.0146827086849,0.5955882352941176
0.014753119494,0.6029411764705882
0.0147892419545,0.6102941176470589
0.0149259578771,0.6176470588235294
0.0149580250023,0.625
0.0149757870428,0.6323529411764706
0.0149891530196,0.6397058823529411
0.0149899082388,0.6470588235294118
0.0149905061284,0.6544117647058824
0.0149911934338,0.6617647058823529
0.0149913963932,0.6691176470588235
0.0149918304257,0.6764705882352942
0.0150001543664,0.6838235294117647
0.0150048448079,0.6911764705882353
0.0150190835347,0.6985294117647058
0.0150250327793,0.7058823529411765
0.0150250620272,0.7132352941176471
0.0150251391813,0.7205882352941176
0.0150251469921,0.7279411764705882
0.0150256030887,0.7352941176470589
0.0150256082962,0.7426470588235294
0.0150256082962,0.75
0.373626727277,0.7573529411764706
0.374784909829,0.7647058823529411
0.375003859161,0.7720588235294118
0.739462097724,0.7794117647058824
0.739462097724,0.7867647058823529
0.750242240393,0.7941176470588235
0.750242240393,0.8014705882352942
1.12435472949,0.8088235294117647
1.2494723066,0.8161764705882353
1.2494723066,0.8235294117647058
1.2494723066,0.8308823529411765
1.4753119494,0.8382352941176471
1.49911934338,0.8455882352941176
1.50001543664,0.8529411764705882
1.50250620272,0.8602941176470589
1.50251469921,0.8676470588235294
1.50256082962,0.875
1.50256082962,0.8823529411764706
1.8739679524,0.8897058823529411
2.201488411,0.8970588235294118
2.24923306428,0.9044117647058824
2.74527480684,0.9117647058823529
2.94358281789,0.9191176470588235
3.00502861734,0.9264705882352942
4.50768196812,0.9338235294117647
6.12147490434,0.9411764705882353
10.8927239253,0.9485294117647058
11.0988075966,0.9558823529411765
14.3943468257,0.9632352941176471
17.6595733513,0.9705882352941176
17.6820081156,0.9779411764705882
18.1411585943,0.9852941176470589
19.5717758206,0.9926470588235294
19.6806646121,1.0
