Congestion,CDF
0.0,0.009433962264150943
0.0,0.018867924528301886
0.0,0.02830188679245283
0.0,0.03773584905660377
0.0,0.04716981132075472
0.0,0.05660377358490566
0.0,0.0660377358490566
0.0,0.07547169811320754
0.0,0.08490566037735849
0.0,0.09433962264150944
0.0,0.10377358490566038
0.0,0.11320754716981132
0.0,0.12264150943396226
0.0,0.1320754716981132
0.0,0.14150943396226415
0.0,0.1509433962264151
0.0,0.16037735849056603
0.0,0.16981132075471697
0.0,0.1792452830188679
0.0,0.18867924528301888
0.0,0.19811320754716982
0.0,0.20754716981132076
0.0,0.2169811320754717
0.0,0.22641509433962265
0.0,0.2358490566037736
0.0,0.24528301886792453
0.0,0.25471698113207547
0.0,0.2641509433962264
0.0,0.27358490566037735
0.0,0.2830188679245283
1.57169663377e-07,0.29245283018867924
4.04906973581e-06,0.3018867924528302
4.55324930717e-06,0.3113207547169811
6.17267674667e-06,0.32075471698113206
6.96783834476e-06,0.330188679245283
7.60590712598e-06,0.33962264150943394
9.27157361424e-06,0.3490566037735849
1.41392922639e-05,0.3584905660377358
1.80990410223e-05,0.36792452830188677
1.91544775552e-05,0.37735849056603776
2.23404578547e-05,0.3867924528301887
2.75064537392e-05,0.39622641509433965
2.81367295319e-05,0.4056603773584906
2.96870186016e-05,0.41509433962264153
0.000190235047981,0.42452830188679247
0.0002607630079,0.4339622641509434
0.0002607630079,0.44339622641509435
0.000678714038335,0.4528301886792453
0.000678714038335,0.46226415094339623
0.000678714038335,0.4716981132075472
0.000695368021068,0.4811320754716981
0.000695368021068,0.49056603773584906
0.000695368021068,0.5
0.00107354894788,0.5094339622641509
0.00128203908371,0.5188679245283019
0.00128203908371,0.5283018867924528
0.00135742807667,0.5377358490566038
0.00135742807667,0.5471698113207547
0.00140010723872,0.5566037735849056
0.001851803024,0.5660377358490566
0.0022817721378,0.5754716981132075
0.00236046891634,0.5849056603773585
0.00236046891634,0.5943396226415094
0.00292467726162,0.6037735849056604
0.00292467726162,0.6132075471698113
0.00369353596683,0.6226415094339622
0.00449244088919,0.6320754716981132
0.00607139825414,0.6415094339622641
0.00946741690845,0.6509433962264151
0.00960425644697,0.660377358490566
0.013667501347,0.6698113207547169
0.0139733978326,0.6792452830188679
0.020502287423,0.6886792452830188
0.0270645789258,0.6981132075471698
0.0272466130101,0.7075471698113207
0.0335716623949,0.7169811320754716
0.0356835109471,0.7264150943396226
0.038251361451,0.7358490566037735
0.0386944709739,0.7452830188679245
0.0415265796704,0.7547169811320755
0.0447507219821,0.7641509433962265
0.045300228315,0.7735849056603774
0.361138339996,0.7830188679245284
1.08828199614,0.7924528301886793
1.08828199614,0.8018867924528302
1.43442605441,0.8113207547169812
1.43442605441,0.8207547169811321
1.43442605441,0.8301886792452831
2.77218481465,0.839622641509434
2.86885210882,0.8490566037735849
2.86885210882,0.8584905660377359
2.90208532304,0.8679245283018868
2.90208532304,0.8773584905660378
2.90208532304,0.8867924528301887
5.22934550058,0.8962264150943396
5.22934550058,0.9056603773584906
5.94091355638,0.9150943396226415
5.94091355638,0.9245283018867925
6.83584174987,0.9339622641509434
6.83584174987,0.9433962264150944
9.01610135945,0.9528301886792453
9.08492806872,0.9622641509433962
16.3106853106,0.9716981132075472
16.4755372104,0.9811320754716981
24.2062900117,0.9905660377358491
52.6057314716,1.0
