Congestion,CDF
0.0,0.009433962264150943
0.0,0.018867924528301886
0.0,0.02830188679245283
0.0,0.03773584905660377
0.0,0.04716981132075472
0.0,0.05660377358490566
0.0,0.0660377358490566
0.0,0.07547169811320754
0.0,0.08490566037735849
0.0,0.09433962264150944
0.0,0.10377358490566038
0.0,0.11320754716981132
0.0,0.12264150943396226
0.0,0.1320754716981132
0.0,0.14150943396226415
0.0,0.1509433962264151
0.0,0.16037735849056603
0.0,0.16981132075471697
0.0,0.1792452830188679
0.0,0.18867924528301888
0.0,0.19811320754716982
0.0,0.20754716981132076
0.0,0.2169811320754717
0.0,0.22641509433962265
0.0,0.2358490566037736
0.0,0.24528301886792453
0.0,0.25471698113207547
0.0,0.2641509433962264
0.0,0.27358490566037735
0.0,0.2830188679245283
1.59692659438e-07,0.29245283018867924
4.11406820163e-06,0.3018867924528302
4.62634121193e-06,0.3113207547169811
6.27176481992e-06,0.32075471698113206
7.07969090154e-06,0.330188679245283
7.60590712598e-06,0.33962264150943394
9.42040732174e-06,0.3490566037735849
1.43662659554e-05,0.3584905660377358
1.83895793375e-05,0.36792452830188677
1.94619584671e-05,0.37735849056603776
2.26990823243e-05,0.3867924528301887
2.7948006345e-05,0.39622641509433965
2.85883997605e-05,0.4056603773584906
3.01635751417e-05,0.41509433962264153
3.06684649056e-05,0.42452830188679247
0.000193288832448,0.4339622641509434
0.000196145345082,0.44339622641509435
0.000264948955924,0.4528301886792453
0.000264948955924,0.46226415094339623
0.00036507206998,0.4716981132075472
0.000689609225157,0.4811320754716981
0.000689609225157,0.49056603773584906
0.000689609225157,0.5
0.00070653054913,0.5094339622641509
0.00070653054913,0.5188679245283019
0.00070653054913,0.5283018867924528
0.00109078229755,0.5377358490566038
0.00130261926113,0.5471698113207547
0.00130261926113,0.5566037735849056
0.00137921845031,0.5660377358490566
0.00137921845031,0.5754716981132075
0.00188152944598,0.5849056603773585
0.0022817721378,0.5943396226415094
0.00239836079477,0.6037735849056604
0.00239836079477,0.6132075471698113
0.00297162620234,0.6226415094339622
0.00297162620234,0.6320754716981132
0.00375282715887,0.6415094339622641
0.00379955065706,0.6509433962264151
0.00456455665519,0.660377358490566
0.00616886053503,0.6698113207547169
0.00663245600195,0.6792452830188679
0.00961939442786,0.6886792452830188
0.00975843060923,0.6981132075471698
0.0126572567903,0.7075471698113207
0.0182136931892,0.7169811320754716
0.0203054958721,0.7264150943396226
0.0208314043104,0.7358490566037735
0.0218166263815,0.7452830188679245
0.0268245694561,0.7547169811320755
0.0315076159111,0.7641509433962265
0.0323314394656,0.7735849056603774
0.174688195512,0.7830188679245284
0.613592616981,0.7924528301886793
0.613592616981,0.8018867924528302
0.761456095204,0.8113207547169812
0.761456095204,0.8207547169811321
0.761456095204,0.8301886792452831
0.809517270953,0.839622641509434
1.52291219041,0.8490566037735849
1.52291219041,0.8584905660377359
1.6121341373,0.8679245283018868
1.6121341373,0.8773584905660378
1.63624697862,0.8867924528301887
1.63624697862,0.8962264150943396
1.63624697862,0.9056603773584906
2.60862607729,0.9150943396226415
2.60862607729,0.9245283018867925
2.65275877994,0.9339622641509434
2.69076729304,0.9433962264150944
4.20244875219,0.9528301886792453
4.20244875219,0.9622641509433962
9.74251398658,0.9716981132075472
11.0318643578,0.9811320754716981
11.2790114242,0.9905660377358491
33.3782487417,1.0
