Congestion,CDF
0.0,0.009433962264150943
0.0,0.018867924528301886
0.0,0.02830188679245283
0.0,0.03773584905660377
0.0,0.04716981132075472
0.0,0.05660377358490566
0.0,0.0660377358490566
0.0,0.07547169811320754
0.0,0.08490566037735849
0.0,0.09433962264150944
0.0,0.10377358490566038
0.0,0.11320754716981132
0.0,0.12264150943396226
0.0,0.1320754716981132
0.0,0.14150943396226415
0.0,0.1509433962264151
0.0,0.16037735849056603
0.0,0.16981132075471697
0.0,0.1792452830188679
0.0,0.18867924528301888
0.0,0.19811320754716982
0.0,0.20754716981132076
0.0,0.2169811320754717
0.0,0.22641509433962265
0.0,0.2358490566037736
0.0,0.24528301886792453
0.0,0.25471698113207547
0.0,0.2641509433962264
0.0,0.27358490566037735
0.0,0.2830188679245283
1.58718759548e-07,0.29245283018867924
4.08897819071e-06,0.3018867924528302
4.59812705848e-06,0.3113207547169811
6.23351590422e-06,0.32075471698113206
7.03651477676e-06,0.330188679245283
7.60590712598e-06,0.33962264150943394
9.36295612964e-06,0.3490566037735849
1.42786520044e-05,0.3584905660377358
1.8277428852e-05,0.36792452830188677
1.93432679821e-05,0.37735849056603776
2.25606499514e-05,0.3867924528301887
2.77775629421e-05,0.39622641509433965
2.84140508613e-05,0.4056603773584906
2.99796198953e-05,0.41509433962264153
7.13408792897e-05,0.42452830188679247
0.000192110043308,0.4339622641509434
0.000263333141146,0.44339622641509435
0.000263333141146,0.4528301886792453
0.000363499739877,0.46226415094339623
0.000599668531147,0.4716981132075472
0.000685403581949,0.4811320754716981
0.000685403581949,0.49056603773584906
0.000685403581949,0.5
0.000702221709723,0.5094339622641509
0.000702221709723,0.5188679245283019
0.000702221709723,0.5283018867924528
0.00108413006467,0.5377358490566038
0.00129467512169,0.5471698113207547
0.00129467512169,0.5566037735849056
0.0013708071639,0.5660377358490566
0.0013708071639,0.5754716981132075
0.00187005477127,0.5849056603773585
0.0022817721378,0.5943396226415094
0.00238373417811,0.6037735849056604
0.00238373417811,0.6132075471698113
0.00295350347559,0.6226415094339622
0.00295350347559,0.6320754716981132
0.00372994020859,0.6415094339622641
0.00453671930036,0.6509433962264151
0.00613123919027,0.660377358490566
0.00956072969519,0.6698113207547169
0.00969891795204,0.6792452830188679
0.010225751207,0.6886792452830188
0.0114218260208,0.6981132075471698
0.0187767162267,0.7075471698113207
0.0207043621381,0.7169811320754716
0.0224806973242,0.7264150943396226
0.0259279048531,0.7358490566037735
0.0269776279254,0.7452830188679245
0.0306641650707,0.7547169811320755
0.034842701324,0.7641509433962265
0.0355981003551,0.7735849056603774
0.217957605364,0.7830188679245284
0.758745785402,0.7924528301886793
0.758745785402,0.8018867924528302
0.972296431992,0.8113207547169812
0.972296431992,0.8207547169811321
0.972296431992,0.8301886792452831
1.32720840901,0.839622641509434
1.94459286398,0.8490566037735849
1.94459286398,0.8584905660377359
2.02332209441,0.8679245283018868
2.02332209441,0.8773584905660378
2.02332209441,0.8867924528301887
2.63836512019,0.8962264150943396
2.63836512019,0.9056603773584906
3.6003486849,0.9150943396226415
3.6003486849,0.9245283018867925
3.68213612637,0.9339622641509434
3.73527410441,0.9433962264150944
4.93768667985,0.9528301886792453
4.93768667985,0.9622641509433962
12.4367678764,0.9716981132075472
12.6633875857,0.9811320754716981
13.5279502063,0.9905660377358491
38.4279468991,1.0
