Congestion,CDF
0.0170292246824,0.007352941176470588
0.0170292246824,0.014705882352941176
0.0173311082399,0.022058823529411766
0.0173311082399,0.029411764705882353
0.0173750829805,0.03676470588235294
0.0173750829805,0.04411764705882353
0.0173930414599,0.051470588235294115
0.0173930414599,0.058823529411764705
0.0181303653775,0.0661764705882353
0.0181303653775,0.07352941176470588
0.0184461207227,0.08088235294117647
0.0184461207227,0.08823529411764706
0.0184618701075,0.09558823529411764
0.0184618701075,0.10294117647058823
0.0189649428525,0.11029411764705882
0.0189649428525,0.11764705882352941
0.0190078746148,0.125
0.0190078746148,0.1323529411764706
0.0192256826367,0.13970588235294118
0.0192256826367,0.14705882352941177
0.019339928436,0.15441176470588236
0.019339928436,0.16176470588235295
0.0196069329234,0.16911764705882354
0.0196069329234,0.17647058823529413
0.0197444588526,0.18382352941176472
0.0197444588526,0.19117647058823528
0.0201069442718,0.19852941176470587
0.0201069442718,0.20588235294117646
0.0213765045984,0.21323529411764705
0.0213765045984,0.22058823529411764
0.0214869556931,0.22794117647058823
0.0214869556931,0.23529411764705882
0.0218939522565,0.2426470588235294
0.0218939522565,0.25
0.0220296801921,0.25735294117647056
0.0220296801921,0.2647058823529412
0.0227729198127,0.27205882352941174
0.0227729198127,0.27941176470588236
0.0230415847989,0.2867647058823529
0.0230415847989,0.29411764705882354
0.0231207152473,0.3014705882352941
0.0231207152473,0.3088235294117647
0.0234288196378,0.3161764705882353
0.0234288196378,0.3235294117647059
0.0244324718497,0.33088235294117646
0.0244324718497,0.3382352941176471
0.0248599061789,0.34558823529411764
0.0248599061789,0.35294117647058826
0.0250474951506,0.3602941176470588
0.0250474951506,0.36764705882352944
0.0271284904656,0.375
0.0271284904656,0.38235294117647056
0.027608154828,0.3897058823529412
0.027608154828,0.39705882352941174
0.0284376253878,0.40441176470588236
0.0284376253878,0.4117647058823529
0.0370952187392,0.41911764705882354
0.0370952187392,0.4264705882352941
0.160492417043,0.4338235294117647
0.160492417043,0.4411764705882353
0.45754343096,0.4485294117647059
0.45754343096,0.45588235294117646
0.652460709033,0.4632352941176471
0.652460709033,0.47058823529411764
0.68593679251,0.47794117647058826
0.68593679251,0.4852941176470588
0.79452685391,0.49264705882352944
0.79452685391,0.5
0.853951591025,0.5073529411764706
0.853951591025,0.5147058823529411
1.05481532674,0.5220588235294118
1.05481532674,0.5294117647058824
1.1921608459,0.5367647058823529
1.1921608459,0.5441176470588235
1.19637513195,0.5514705882352942
1.19637513195,0.5588235294117647
1.28071612957,0.5661764705882353
1.28071612957,0.5735294117647058
1.40077370846,0.5808823529411765
1.40077370846,0.5882352941176471
1.5492383656,0.5955882352941176
1.5492383656,0.6029411764705882
1.73430612503,0.6102941176470589
1.73430612503,0.6176470588235294
1.7671946665,0.625
1.7671946665,0.6323529411764706
1.7812012715,0.6397058823529411
1.7812012715,0.6470588235294118
1.89689762486,0.6544117647058824
1.89689762486,0.6617647058823529
2.09636200474,0.6691176470588235
2.09636200474,0.6764705882352942
2.3931651494,0.6838235294117647
2.3931651494,0.6911764705882353
2.41882326305,0.6985294117647058
2.41882326305,0.7058823529411765
2.4609867989,0.7132352941176471
2.4609867989,0.7205882352941176
2.49539376365,0.7279411764705882
2.49539376365,0.7352941176470589
2.55564434172,0.7426470588235294
2.55564434172,0.75
2.72583586339,0.7573529411764706
2.72583586339,0.7647058823529411
2.84376253878,0.7720588235294118
2.84376253878,0.7794117647058824
2.85035102506,0.7867647058823529
2.85035102506,0.7941176470588235
2.85148735952,0.8014705882352942
2.85148735952,0.8088235294117647
3.20991713695,0.8161764705882353
3.20991713695,0.8235294117647058
3.23385097782,0.8308823529411765
3.23385097782,0.8382352941176471
3.54735178294,0.8455882352941176
3.54735178294,0.8529411764705882
3.62776525257,0.8602941176470589
3.62776525257,0.8676470588235294
3.73222378747,0.875
3.73222378747,0.8823529411764706
4.06561588233,0.8897058823529411
4.06561588233,0.8970588235294118
4.80603672788,0.9044117647058824
4.80603672788,0.9117647058823529
5.80502437996,0.9191176470588235
5.80502437996,0.9264705882352942
6.28787613402,0.9338235294117647
6.28787613402,0.9411764705882353
7.27398960194,0.9485294117647058
7.27398960194,0.9558823529411765
7.91069434311,0.9632352941176471
7.91069434311,0.9705882352941176
10.2513545258,0.9779411764705882
10.2513545258,0.9852941176470589
11.8362773858,0.9926470588235294
11.8362773858,1.0
