Congestion,CDF
0.0,0.007352941176470588
0.0,0.014705882352941176
0.0,0.022058823529411766
0.0,0.029411764705882353
0.00535377297904,0.03676470588235294
0.00535377297904,0.04411764705882353
0.0057830997253,0.051470588235294115
0.0057830997253,0.058823529411764705
0.00607716948767,0.0661764705882353
0.00607716948767,0.07352941176470588
0.00645629629099,0.08088235294117647
0.00645629629099,0.08823529411764706
0.00678797261553,0.09558823529411764
0.00678797261553,0.10294117647058823
0.00707727819373,0.11029411764705882
0.00707727819373,0.11764705882352941
0.00738956080598,0.125
0.00738956080598,0.1323529411764706
0.00765258837915,0.13970588235294118
0.00765258837915,0.14705882352941177
0.0081697261875,0.15441176470588236
0.0081697261875,0.16176470588235295
0.00838298989519,0.16911764705882354
0.00838298989519,0.17647058823529413
0.00843644094175,0.18382352941176472
0.00843644094175,0.19117647058823528
0.00861376293238,0.19852941176470587
0.00861376293238,0.20588235294117646
0.00883486064679,0.21323529411764705
0.00883486064679,0.22058823529411764
0.00898910296184,0.22794117647058823
0.00898910296184,0.23529411764705882
0.0090415990076,0.2426470588235294
0.0090415990076,0.25
0.00914608179549,0.25735294117647056
0.00914608179549,0.2647058823529412
0.0100223772355,0.27205882352941174
0.0100223772355,0.27941176470588236
0.010141310995,0.2867647058823529
0.010141310995,0.29411764705882354
0.0103436095876,0.3014705882352941
0.0103436095876,0.3088235294117647
0.0109902608864,0.3161764705882353
0.0109902608864,0.3235294117647059
0.0115456176584,0.33088235294117646
0.0115456176584,0.3382352941176471
0.0126600764033,0.34558823529411764
0.0126600764033,0.35294117647058826
0.0143087269678,0.3602941176470588
0.0143087269678,0.36764705882352944
0.016069976293,0.375
0.016069976293,0.38235294117647056
0.0173588029887,0.3897058823529412
0.0173588029887,0.39705882352941174
0.0202035136705,0.40441176470588236
0.0202035136705,0.4117647058823529
0.0210991996344,0.41911764705882354
0.0210991996344,0.4264705882352941
0.0218170515535,0.4338235294117647
0.0218170515535,0.4411764705882353
0.0451876091107,0.4485294117647059
0.0451876091107,0.45588235294117646
0.0468633416124,0.4632352941176471
0.0468633416124,0.47058823529411764
0.196971909319,0.47794117647058826
0.196971909319,0.4852941176470588
0.301939580058,0.49264705882352944
0.301939580058,0.5
0.319096817349,0.5073529411764706
0.319096817349,0.5147058823529411
0.327242494502,0.5220588235294118
0.327242494502,0.5294117647058824
0.370411971823,0.5367647058823529
0.370411971823,0.5441176470588235
0.419032029534,0.5514705882352942
0.419032029534,0.5588235294117647
0.502492873093,0.5661764705882353
0.502492873093,0.5735294117647058
0.553381772758,0.5808823529411765
0.553381772758,0.5882352941176471
0.672180096406,0.5955882352941176
0.672180096406,0.6029411764705882
0.712362974917,0.6102941176470589
0.712362974917,0.6176470588235294
0.751232577539,0.625
0.751232577539,0.6323529411764706
0.800139336009,0.6397058823529411
0.800139336009,0.6470588235294118
0.850193324251,0.6544117647058824
0.850193324251,0.6617647058823529
0.861376293238,0.6691176470588235
0.861376293238,0.6764705882352942
0.875114211956,0.6838235294117647
0.875114211956,0.6911764705882353
0.930349406291,0.6985294117647058
0.930349406291,0.7058823529411765
0.987497617148,0.7132352941176471
0.987497617148,0.7205882352941176
1.0573432152,0.7279411764705882
1.0573432152,0.7352941176470589
1.16155905933,0.7426470588235294
1.16155905933,0.75
1.1915224653,0.7573529411764706
1.1915224653,0.7647058823529411
1.24968842419,0.7720588235294118
1.24968842419,0.7794117647058824
1.73588029887,0.7867647058823529
1.73588029887,0.7941176470588235
1.79920529204,0.8014705882352942
1.79920529204,0.8088235294117647
2.10991996344,0.8161764705882353
2.10991996344,0.8235294117647058
2.1181649431,0.8308823529411765
2.1181649431,0.8382352941176471
2.18170515535,0.8455882352941176
2.18170515535,0.8529411764705882
2.25350525748,0.8602941176470589
2.25350525748,0.8676470588235294
2.29630301845,0.875
2.29630301845,0.8823529411764706
2.77375270256,0.8897058823529411
2.77375270256,0.8970588235294118
2.97246595635,0.9044117647058824
2.97246595635,0.9117647058823529
3.49464718378,0.9191176470588235
3.49464718378,0.9264705882352942
4.35904529303,0.9338235294117647
4.35904529303,0.9411764705882353
4.4644823215,0.9485294117647058
4.4644823215,0.9558823529411765
6.31197648584,0.9632352941176471
6.31197648584,0.9705882352941176
7.98500212189,0.9779411764705882
7.98500212189,0.9852941176470589
9.4651253892,0.9926470588235294
9.4651253892,1.0
