Congestion,CDF
0.0,0.007352941176470588
0.0,0.014705882352941176
0.0,0.022058823529411766
0.0,0.029411764705882353
0.00582711405009,0.03676470588235294
0.00582711405009,0.04411764705882353
0.0062306446793,0.051470588235294115
0.0062306446793,0.058823529411764705
0.0066268106758,0.0661764705882353
0.0066268106758,0.07352941176470588
0.00707262134285,0.08088235294117647
0.00707262134285,0.08823529411764706
0.00738976464108,0.09558823529411764
0.00738976464108,0.10294117647058823
0.0076892777455,0.11029411764705882
0.0076892777455,0.11764705882352941
0.0080239428547,0.125
0.0080239428547,0.1323529411764706
0.00826227618838,0.13970588235294118
0.00826227618838,0.14705882352941177
0.00854627479197,0.15441176470588236
0.00854627479197,0.16176470588235295
0.00882067153278,0.16911764705882354
0.00882067153278,0.17647058823529413
0.00891473742557,0.18382352941176472
0.00891473742557,0.19117647058823528
0.00930158024753,0.19852941176470587
0.00930158024753,0.20588235294117646
0.00944976275499,0.21323529411764705
0.00944976275499,0.22058823529411764
0.00994472532821,0.22794117647058823
0.00994472532821,0.23529411764705882
0.0100094556563,0.2426470588235294
0.0100094556563,0.25
0.0101255896503,0.25735294117647056
0.0101255896503,0.2647058823529412
0.0109764571295,0.27205882352941174
0.0109764571295,0.27941176470588236
0.0111351187869,0.2867647058823529
0.0111351187869,0.29411764705882354
0.0111587972755,0.3014705882352941
0.0111587972755,0.3088235294117647
0.011392315948,0.3161764705882353
0.011392315948,0.3235294117647059
0.0121702843218,0.33088235294117646
0.0121702843218,0.3382352941176471
0.0135759337675,0.34558823529411764
0.0135759337675,0.35294117647058826
0.0151834980282,0.3602941176470588
0.0151834980282,0.36764705882352944
0.0170261590814,0.375
0.0170261590814,0.38235294117647056
0.0181580654884,0.3897058823529412
0.0181580654884,0.39705882352941174
0.0209584490823,0.40441176470588236
0.0209584490823,0.4117647058823529
0.0218157356445,0.41911764705882354
0.0218157356445,0.4264705882352941
0.022616351782,0.4338235294117647
0.022616351782,0.4411764705882353
0.0542129630797,0.4485294117647059
0.0542129630797,0.45588235294117646
0.0607542335598,0.4632352941176471
0.0607542335598,0.47058823529411764
0.213579931059,0.47794117647058826
0.213579931059,0.4852941176470588
0.347637494475,0.49264705882352944
0.347637494475,0.5
0.364133442574,0.5073529411764706
0.364133442574,0.5147058823529411
0.394018627027,0.5220588235294118
0.394018627027,0.5294117647058824
0.400246053508,0.5367647058823529
0.400246053508,0.5441176470588235
0.450751195824,0.5514705882352942
0.450751195824,0.5588235294117647
0.550857885006,0.5661764705882353
0.550857885006,0.5735294117647058
0.629674871546,0.5808823529411765
0.629674871546,0.5882352941176471
0.712831037481,0.5955882352941176
0.712831037481,0.6029411764705882
0.803294743576,0.6102941176470589
0.803294743576,0.6176470588235294
0.816159841772,0.625
0.816159841772,0.6323529411764706
0.844241675336,0.6397058823529411
0.844241675336,0.6470588235294118
0.930158024753,0.6544117647058824
0.930158024753,0.6617647058823529
0.937919307604,0.6691176470588235
0.937919307604,0.6764705882352942
0.985400568733,0.6838235294117647
0.985400568733,0.6911764705882353
1.00573050906,0.6985294117647058
1.00573050906,0.7058823529411765
1.03689147939,0.7132352941176471
1.03689147939,0.7205882352941176
1.14552297718,0.7279411764705882
1.14552297718,0.7352941176470589
1.22811461263,0.7426470588235294
1.22811461263,0.75
1.2902255029,0.7573529411764706
1.2902255029,0.7647058823529411
1.37735662631,0.7720588235294118
1.37735662631,0.7794117647058824
1.81580654884,0.7867647058823529
1.81580654884,0.7941176470588235
1.95449787791,0.8014705882352942
1.95449787791,0.8088235294117647
2.18157356445,0.8161764705882353
2.18157356445,0.8235294117647058
2.22479279617,0.8308823529411765
2.22479279617,0.8382352941176471
2.2616351782,0.8455882352941176
2.2616351782,0.8529411764705882
2.39448485614,0.8602941176470589
2.39448485614,0.8676470588235294
2.41874977737,0.875
2.41874977737,0.8823529411764706
2.99407310211,0.8897058823529411
2.99407310211,0.8970588235294118
3.11817640348,0.9044117647058824
3.11817640348,0.9117647058823529
3.74584702816,0.9191176470588235
3.74584702816,0.9264705882352942
4.66945760553,0.9338235294117647
4.66945760553,0.9411764705882353
4.71671371539,0.9485294117647058
4.71671371539,0.9558823529411765
6.53905365088,0.9632352941176471
6.53905365088,0.9705882352941176
8.30948071514,0.9779411764705882
8.30948071514,0.9852941176470589
9.83689067866,0.9926470588235294
9.83689067866,1.0
