Congestion,CDF
0.0,0.007352941176470588
0.0,0.014705882352941176
0.00470588164172,0.022058823529411766
0.00470588164172,0.029411764705882353
0.0137318322922,0.03676470588235294
0.0137318322922,0.04411764705882353
0.0145656959306,0.051470588235294115
0.0145656959306,0.058823529411764705
0.0149853668003,0.0661764705882353
0.0149853668003,0.07352941176470588
0.0159712356315,0.08088235294117647
0.0159712356315,0.08823529411764706
0.0160216955677,0.09558823529411764
0.0160216955677,0.10294117647058823
0.0162320941858,0.11029411764705882
0.0162320941858,0.11764705882352941
0.0165670426067,0.125
0.0165670426067,0.1323529411764706
0.0172811422423,0.13970588235294118
0.0172811422423,0.14705882352941177
0.0177620141045,0.15441176470588236
0.0177620141045,0.16176470588235295
0.0181182786004,0.16911764705882354
0.0181182786004,0.17647058823529413
0.0192121623051,0.18382352941176472
0.0192121623051,0.19117647058823528
0.0193985177714,0.19852941176470587
0.0193985177714,0.20588235294117646
0.0196460034713,0.21323529411764705
0.0196460034713,0.22058823529411764
0.020182010222,0.22794117647058823
0.020182010222,0.23529411764705882
0.0210224326865,0.2426470588235294
0.0210224326865,0.25
0.0214327090642,0.25735294117647056
0.0214327090642,0.2647058823529412
0.0218093661857,0.27205882352941174
0.0218093661857,0.27941176470588236
0.0219206982488,0.2867647058823529
0.0219206982488,0.29411764705882354
0.0221282641937,0.3014705882352941
0.0221282641937,0.3088235294117647
0.0227574424744,0.3161764705882353
0.0227574424744,0.3235294117647059
0.0230751464715,0.33088235294117646
0.0230751464715,0.3382352941176471
0.025152398273,0.34558823529411764
0.025152398273,0.35294117647058826
0.0255653523753,0.3602941176470588
0.0255653523753,0.36764705882352944
0.0266459380073,0.375
0.0266459380073,0.38235294117647056
0.0271235463884,0.3897058823529412
0.0271235463884,0.39705882352941174
0.0298897194715,0.40441176470588236
0.0298897194715,0.4117647058823529
0.0303093489622,0.41911764705882354
0.0303093489622,0.4264705882352941
0.0322086352351,0.4338235294117647
0.0322086352351,0.4411764705882353
0.314757349774,0.4485294117647059
0.314757349774,0.45588235294117646
0.44245375047,0.4632352941176471
0.44245375047,0.47058823529411764
0.531560831446,0.47794117647058826
0.531560831446,0.4852941176470588
0.684472848293,0.49264705882352944
0.684472848293,0.5
0.792642624703,0.5073529411764706
0.792642624703,0.5147058823529411
1.05012331032,0.5220588235294118
1.05012331032,0.5294117647058824
1.12111440478,0.5367647058823529
1.12111440478,0.5441176470588235
1.20796609625,0.5514705882352942
1.20796609625,0.5588235294117647
1.25101924138,0.5661764705882353
1.25101924138,0.5735294117647058
1.57574727173,0.5808823529411765
1.57574727173,0.5882352941176471
1.63632981767,0.5955882352941176
1.63632981767,0.6029411764705882
1.68933317141,0.6102941176470589
1.68933317141,0.6176470588235294
1.69395396333,0.625
1.69395396333,0.6323529411764706
1.71460333697,0.6397058823529411
1.71460333697,0.6470588235294118
2.10224326865,0.6544117647058824
2.10224326865,0.6617647058823529
2.13499303555,0.6691176470588235
2.13499303555,0.6764705882352942
2.36366998098,0.6838235294117647
2.36366998098,0.6911764705882353
2.36603599831,0.6985294117647058
2.36603599831,0.7058823529411765
2.5006603958,0.7132352941176471
2.5006603958,0.7205882352941176
2.65988791908,0.7279411764705882
2.65988791908,0.7352941176470589
2.78429105208,0.7426470588235294
2.78429105208,0.75
2.78498113506,0.7573529411764706
2.78498113506,0.7647058823529411
2.99182363933,0.7720588235294118
2.99182363933,0.7794117647058824
3.03564077786,0.7867647058823529
3.03564077786,0.7941176470588235
3.22086352351,0.8014705882352942
3.22086352351,0.8088235294117647
3.33595987512,0.8161764705882353
3.33595987512,0.8235294117647058
3.71694310022,0.8308823529411765
3.71694310022,0.8382352941176471
3.76677941051,0.8455882352941176
3.76677941051,0.8529411764705882
3.97248278898,0.8602941176470589
3.97248278898,0.8676470588235294
4.13228250926,0.875
4.13228250926,0.8823529411764706
4.68776970963,0.8897058823529411
4.68776970963,0.8970588235294118
5.44645808574,0.9044117647058824
5.44645808574,0.9117647058823529
6.56208355962,0.9191176470588235
6.56208355962,0.9264705882352942
7.23943416918,0.9338235294117647
7.23943416918,0.9411764705882353
8.32801202597,0.9485294117647058
8.32801202597,0.9558823529411765
9.22665272195,0.9632352941176471
9.22665272195,0.9705882352941176
12.0247052176,0.9779411764705882
12.0247052176,0.9852941176470589
14.0253096091,0.9926470588235294
14.0253096091,1.0
