Congestion,CDF
0.0,0.009433962264150943
0.0,0.018867924528301886
0.0,0.02830188679245283
0.0,0.03773584905660377
0.0,0.04716981132075472
0.0,0.05660377358490566
0.0,0.0660377358490566
0.0,0.07547169811320754
0.0,0.08490566037735849
0.0,0.09433962264150944
0.0,0.10377358490566038
0.0,0.11320754716981132
0.0,0.12264150943396226
0.0,0.1320754716981132
0.0,0.14150943396226415
0.0,0.1509433962264151
0.0,0.16037735849056603
0.0,0.16981132075471697
0.0,0.1792452830188679
0.0,0.18867924528301888
0.0,0.19811320754716982
0.0,0.20754716981132076
0.0,0.2169811320754717
0.0,0.22641509433962265
0.0,0.2358490566037736
0.0,0.24528301886792453
0.0,0.25471698113207547
0.0,0.2641509433962264
0.0,0.27358490566037735
0.0,0.2830188679245283
1.12991417133e-07,0.29245283018867924
2.9109315226e-06,0.3018867924528302
3.27339310096e-06,0.3113207547169811
4.4376216003e-06,0.32075471698113206
5.009274131e-06,0.330188679245283
6.66546087343e-06,0.33962264150943394
1.01649302788e-05,0.3490566037735849
1.3011647731e-05,0.3584905660377358
1.37704154664e-05,0.36792452830188677
1.60608602079e-05,0.37735849056603776
1.71132910335e-05,0.3867924528301887
1.97747651902e-05,0.39622641509433965
2.0227879064e-05,0.4056603773584906
2.13424030451e-05,0.41509433962264153
2.84223905244e-05,0.42452830188679247
5.33984424884e-05,0.4339622641509434
8.33182609179e-05,0.44339622641509435
8.33182609179e-05,0.4528301886792453
0.00011242827443,0.46226415094339623
0.000136762573629,0.4716981132075472
0.000162645596638,0.4811320754716981
0.000162645596638,0.49056603773584906
0.000166636521836,0.5
0.000166636521836,0.5094339622641509
0.000166636521836,0.5188679245283019
0.000226717409014,0.5283018867924528
0.000257262999269,0.5377358490566038
0.000325291193275,0.5471698113207547
0.000325291193275,0.5566037735849056
0.000325291193275,0.5660377358490566
0.000409633512604,0.5754716981132075
0.000409633512604,0.5849056603773585
0.00044376216003,0.5943396226415094
0.000754210371494,0.6037735849056604
0.000754210371494,0.6132075471698113
0.000934484630876,0.6226415094339622
0.000934484630876,0.6320754716981132
0.00104811935089,0.6415094339622641
0.00143541204398,0.6509433962264151
0.00145493703636,0.660377358490566
0.00171132910335,0.6698113207547169
0.00226875176395,0.6792452830188679
0.00236029639228,0.6886792452830188
0.00306872493539,0.6981132075471698
0.00491312479485,0.7075471698113207
0.00533829826954,0.7169811320754716
0.0118768982973,0.7264150943396226
0.0215403807335,0.7358490566037735
0.0221975875676,0.7452830188679245
0.034494487528,0.7547169811320755
0.0506485994533,0.7641509433962265
0.0534877214249,0.7735849056603774
0.201070172433,0.7830188679245284
0.269254759169,0.7924528301886793
0.269254759169,0.8018867924528302
0.277469844595,0.8113207547169812
0.277469844595,0.8207547169811321
0.538509518339,0.8301886792452831
0.538509518339,0.839622641509434
0.538509518339,0.8490566037735849
0.554939689189,0.8584905660377359
0.554939689189,0.8679245283018868
0.554939689189,0.8773584905660378
0.599130571309,0.8867924528301887
0.599130571309,0.8962264150943396
0.601972810361,0.9056603773584906
0.610373398752,0.9150943396226415
1.14056951863,0.9245283018867925
1.14056951863,0.9339622641509434
1.16324125953,0.9433962264150944
2.27144898016,0.9528301886792453
2.27144898016,0.9622641509433962
3.41735834304,0.9716981132075472
5.61158454909,0.9811320754716981
5.89549674626,0.9905660377358491
14.3123601025,1.0
