Congestion,CDF
0.000467006984062,0.005555555555555556
0.000467006984062,0.011111111111111112
0.000467207011907,0.016666666666666666
0.000467207011907,0.022222222222222223
0.000469131402264,0.027777777777777776
0.000469131402264,0.03333333333333333
0.00047072158558,0.03888888888888889
0.00047072158558,0.044444444444444446
0.000470838354785,0.05
0.000470838354785,0.05555555555555555
0.000472480950881,0.06111111111111111
0.000472480950881,0.06666666666666667
0.000473156655633,0.07222222222222222
0.000473156655633,0.07777777777777778
0.000475950436293,0.08333333333333333
0.000475950436293,0.08888888888888889
0.000476002826292,0.09444444444444444
0.000476002826292,0.1
0.000476237971016,0.10555555555555556
0.000476237971016,0.1111111111111111
0.000476452368021,0.11666666666666667
0.000476452368021,0.12222222222222222
0.000477521708895,0.12777777777777777
0.000477521708895,0.13333333333333333
0.00047779200635,0.1388888888888889
0.00047779200635,0.14444444444444443
0.000479180306344,0.15
0.000479180306344,0.15555555555555556
0.000479500961366,0.16111111111111112
0.000479500961366,0.16666666666666666
0.000480219356739,0.17222222222222222
0.000480219356739,0.17777777777777778
0.000482440018765,0.18333333333333332
0.000482440018765,0.18888888888888888
0.000483982059405,0.19444444444444445
0.000483982059405,0.2
0.000484769349396,0.20555555555555555
0.000484769349396,0.2111111111111111
0.000485512383605,0.21666666666666667
0.000485512383605,0.2222222222222222
0.000485817201019,0.22777777777777777
0.000485817201019,0.23333333333333334
0.000485974293945,0.2388888888888889
0.000485974293945,0.24444444444444444
0.000486626680703,0.25
0.000486626680703,0.25555555555555554
0.000487332077264,0.2611111111111111
0.000487332077264,0.26666666666666666
0.00048768607642,0.2722222222222222
0.00048768607642,0.2777777777777778
0.000487926679025,0.2833333333333333
0.000487926679025,0.28888888888888886
0.000488046185266,0.29444444444444445
0.000488046185266,0.3
0.000488294653698,0.3055555555555556
0.000488294653698,0.3111111111111111
0.000488508393661,0.31666666666666665
0.000488508393661,0.32222222222222224
0.000488556828615,0.3277777777777778
0.000488556828615,0.3333333333333333
0.000489295204286,0.3388888888888889
0.000489295204286,0.34444444444444444
0.000489485489375,0.35
0.000489485489375,0.35555555555555557
0.000489749229824,0.3611111111111111
0.000489749229824,0.36666666666666664
0.000491670306998,0.37222222222222223
0.000491670306998,0.37777777777777777
0.000492486372777,0.38333333333333336
0.000492486372777,0.3888888888888889
0.000492974345866,0.39444444444444443
0.000492974345866,0.4
0.000495211805928,0.40555555555555556
0.000495211805928,0.4111111111111111
0.000495658838541,0.4166666666666667
0.000495658838541,0.4222222222222222
0.000496070773965,0.42777777777777776
0.000496070773965,0.43333333333333335
0.000497051845249,0.4388888888888889
0.000497051845249,0.4444444444444444
0.0164899038628,0.45
0.0164899038628,0.45555555555555555
0.0176151535515,0.46111111111111114
0.0176151535515,0.4666666666666667
0.0229830220229,0.4722222222222222
0.0229830220229,0.4777777777777778
0.026990039347,0.48333333333333334
0.026990039347,0.4888888888888889
0.0311961238374,0.49444444444444446
0.0311961238374,0.5
0.0415061350552,0.5055555555555555
0.0415061350552,0.5111111111111111
0.0422001288233,0.5166666666666667
0.0422001288233,0.5222222222222223
0.0424134524553,0.5277777777777778
0.0424134524553,0.5333333333333333
0.0529578836255,0.5388888888888889
0.0529578836255,0.5444444444444444
0.0533612743417,0.55
0.0533612743417,0.5555555555555556
0.0550847726509,0.5611111111111111
0.0550847726509,0.5666666666666667
0.05514540854,0.5722222222222222
0.05514540854,0.5777777777777777
0.0566703271882,0.5833333333333334
0.0566703271882,0.5888888888888889
0.0582106578653,0.5944444444444444
0.0582106578653,0.6
0.0619176232925,0.6055555555555555
0.0619176232925,0.6111111111111112
0.0629725542544,0.6166666666666667
0.0629725542544,0.6222222222222222
0.0645592953165,0.6277777777777778
0.0645592953165,0.6333333333333333
0.0646220287245,0.6388888888888888
0.0646220287245,0.6444444444444445
0.0662165382682,0.65
0.0662165382682,0.6555555555555556
0.0664340145994,0.6611111111111111
0.0664340145994,0.6666666666666666
0.0695166110463,0.6722222222222223
0.0695166110463,0.6777777777777778
0.0699717663065,0.6833333333333333
0.0699717663065,0.6888888888888889
0.0713071348931,0.6944444444444444
0.0713071348931,0.7
0.0734301069029,0.7055555555555556
0.0734301069029,0.7111111111111111
0.0767174984587,0.7166666666666667
0.0767174984587,0.7222222222222222
0.0796891859965,0.7277777777777777
0.0796891859965,0.7333333333333333
0.0843932050737,0.7388888888888889
0.0843932050737,0.7444444444444445
0.0936796406556,0.75
0.0936796406556,0.7555555555555555
0.0953927976858,0.7611111111111111
0.0953927976858,0.7666666666666667
0.0977408849882,0.7722222222222223
0.0977408849882,0.7777777777777778
0.0999909165178,0.7833333333333333
0.0999909165178,0.7888888888888889
0.10394128126,0.7944444444444444
0.10394128126,0.8
0.106174633241,0.8055555555555556
0.106174633241,0.8111111111111111
0.109797310143,0.8166666666666667
0.109797310143,0.8222222222222222
0.116327355042,0.8277777777777777
0.116327355042,0.8333333333333334
0.120596408501,0.8388888888888889
0.120596408501,0.8444444444444444
0.125552408795,0.85
0.125552408795,0.8555555555555555
0.137120594752,0.8611111111111112
0.137120594752,0.8666666666666667
0.146557848205,0.8722222222222222
0.146557848205,0.8777777777777778
0.151526494949,0.8833333333333333
0.151526494949,0.8888888888888888
0.153860589307,0.8944444444444445
0.153860589307,0.9
0.165189367909,0.9055555555555556
0.165189367909,0.9111111111111111
0.174257931607,0.9166666666666666
0.174257931607,0.9222222222222223
0.178923399417,0.9277777777777778
0.178923399417,0.9333333333333333
0.198034858903,0.9388888888888889
0.198034858903,0.9444444444444444
0.20377872598,0.95
0.20377872598,0.9555555555555556
0.209662474361,0.9611111111111111
0.209662474361,0.9666666666666667
0.218428437788,0.9722222222222222
0.218428437788,0.9777777777777777
0.23735974545,0.9833333333333333
0.23735974545,0.9888888888888889
0.248646836657,0.9944444444444445
0.248646836657,1.0
