Congestion,CDF
0.00931367011201,0.009433962264150943
0.00931367011201,0.018867924528301886
0.0093232333169,0.02830188679245283
0.0093232333169,0.03773584905660377
0.00932442628304,0.04716981132075472
0.00932442628304,0.05660377358490566
0.00932578739834,0.0660377358490566
0.00932578739834,0.07547169811320754
0.00933011062569,0.08490566037735849
0.00933011062569,0.09433962264150944
0.00933220183131,0.10377358490566038
0.00933220183131,0.11320754716981132
0.00933816689667,0.12264150943396226
0.00933816689667,0.1320754716981132
0.00935025757575,0.14150943396226415
0.00935025757575,0.1509433962264151
0.00935958358862,0.16037735849056603
0.00935958358862,0.16981132075471697
0.00936199149497,0.1792452830188679
0.00936199149497,0.18867924528301888
0.00936906459751,0.19811320754716982
0.00936906459751,0.20754716981132076
0.0093799087394,0.2169811320754717
0.0093799087394,0.22641509433962265
0.00938117457742,0.2358490566037736
0.00938117457742,0.24528301886792453
0.00938424920037,0.25471698113207547
0.00938424920037,0.2641509433962264
0.0718847541388,0.27358490566037735
0.0718847541388,0.2830188679245283
0.0955736540756,0.29245283018867924
0.0955736540756,0.3018867924528302
0.13168330254,0.3113207547169811
0.13168330254,0.32075471698113206
0.13873483214,0.330188679245283
0.13873483214,0.33962264150943394
0.138871959088,0.3490566037735849
0.138871959088,0.3584905660377358
0.143486067948,0.36792452830188677
0.143486067948,0.37735849056603776
0.158721263304,0.3867924528301887
0.158721263304,0.39622641509433965
0.158978869923,0.4056603773584906
0.158978869923,0.41509433962264153
0.161239093174,0.42452830188679247
0.161239093174,0.4339622641509434
0.170072680623,0.44339622641509435
0.170072680623,0.4528301886792453
0.178425176329,0.46226415094339623
0.178425176329,0.4716981132075472
0.178922256835,0.4811320754716981
0.178922256835,0.49056603773584906
0.205298809573,0.5
0.205298809573,0.5094339622641509
0.211835970244,0.5188679245283019
0.211835970244,0.5283018867924528
0.21207284676,0.5377358490566038
0.21207284676,0.5471698113207547
0.221508544732,0.5566037735849056
0.221508544732,0.5660377358490566
0.22628574732,0.5754716981132075
0.22628574732,0.5849056603773585
0.233164412104,0.5943396226415094
0.233164412104,0.6037735849056604
0.242627415095,0.6132075471698113
0.242627415095,0.6226415094339622
0.251452971091,0.6320754716981132
0.251452971091,0.6415094339622641
0.256924819638,0.6509433962264151
0.256924819638,0.660377358490566
0.26361875596,0.6698113207547169
0.26361875596,0.6792452830188679
0.270491043277,0.6886792452830188
0.270491043277,0.6981132075471698
0.29637412404,0.7075471698113207
0.29637412404,0.7169811320754716
0.301845474349,0.7264150943396226
0.301845474349,0.7358490566037735
0.302375125507,0.7452830188679245
0.302375125507,0.7547169811320755
0.325097351506,0.7641509433962265
0.325097351506,0.7735849056603774
0.325838285573,0.7830188679245284
0.325838285573,0.7924528301886793
0.369682519674,0.8018867924528302
0.369682519674,0.8113207547169812
0.370092780455,0.8207547169811321
0.370092780455,0.8301886792452831
0.379936554004,0.839622641509434
0.379936554004,0.8490566037735849
0.409336259649,0.8584905660377359
0.409336259649,0.8679245283018868
0.410095911769,0.8773584905660378
0.410095911769,0.8867924528301887
0.412511209155,0.8962264150943396
0.412511209155,0.9056603773584906
0.444642631182,0.9150943396226415
0.444642631182,0.9245283018867925
0.444774444054,0.9339622641509434
0.444774444054,0.9433962264150944
0.484614606019,0.9528301886792453
0.484614606019,0.9622641509433962
0.545774157227,0.9716981132075472
0.545774157227,0.9811320754716981
0.569944061937,0.9905660377358491
0.569944061937,1.0
