Congestion,CDF
0.00931366939557,0.009433962264150943
0.00931366939557,0.018867924528301886
0.0093232333169,0.02830188679245283
0.0093232333169,0.03773584905660377
0.00932442556502,0.04716981132075472
0.00932442556502,0.05660377358490566
0.009325786681,0.0660377358490566
0.009325786681,0.07547169811320754
0.00933010847339,0.08490566037735849
0.00933010847339,0.09433962264150944
0.00933220255279,0.10377358490566038
0.00933220255279,0.11320754716981132
0.00933816545931,0.12264150943396226
0.00933816545931,0.1320754716981132
0.00935025614198,0.14150943396226415
0.00935025614198,0.1509433962264151
0.00935958214693,0.16037735849056603
0.00935958214693,0.16981132075471697
0.00936199077071,0.1792452830188679
0.00936199077071,0.18867924528301888
0.00936906459751,0.19811320754716982
0.00936906459751,0.20754716981132076
0.0093799058493,0.2169811320754717
0.0093799058493,0.22641509433962265
0.00938117529168,0.2358490566037736
0.00938117529168,0.24528301886792453
0.00938424847206,0.25471698113207547
0.00938424847206,0.2641509433962264
0.0718847541388,0.27358490566037735
0.0718847541388,0.2830188679245283
0.0955736301746,0.29245283018867924
0.0955736301746,0.3018867924528302
0.131683278639,0.3113207547169811
0.131683278639,0.32075471698113206
0.138734774008,0.330188679245283
0.138734774008,0.33962264150943394
0.138871900827,0.3490566037735849
0.138871900827,0.3584905660377358
0.143486067948,0.36792452830188677
0.143486067948,0.37735849056603776
0.158721239256,0.3867924528301887
0.158721239256,0.39622641509433965
0.158978845647,0.4056603773584906
0.158978845647,0.41509433962264153
0.161239093174,0.42452830188679247
0.161239093174,0.4339622641509434
0.170072636218,0.44339622641509435
0.170072636218,0.4528301886792453
0.178425141912,0.46226415094339623
0.178425141912,0.4716981132075472
0.178922222289,0.4811320754716981
0.178922222289,0.49056603773584906
0.205298785296,0.5
0.205298785296,0.5094339622641509
0.211835901837,0.5188679245283019
0.211835901837,0.5283018867924528
0.212072778211,0.5377358490566038
0.212072778211,0.5471698113207547
0.221508476051,0.5566037735849056
0.221508476051,0.5660377358490566
0.226285682378,0.5754716981132075
0.226285682378,0.5849056603773585
0.233164412179,0.5943396226415094
0.233164412179,0.6037735849056604
0.242627415095,0.6132075471698113
0.242627415095,0.6226415094339622
0.251452971091,0.6320754716981132
0.251452971091,0.6415094339622641
0.256924795704,0.6509433962264151
0.256924795704,0.660377358490566
0.26361878001,0.6698113207547169
0.26361878001,0.6792452830188679
0.270491043371,0.6886792452830188
0.270491043371,0.6981132075471698
0.296374123874,0.7075471698113207
0.296374123874,0.7169811320754716
0.301845406064,0.7264150943396226
0.301845406064,0.7358490566037735
0.302375057199,0.7452830188679245
0.302375057199,0.7547169811320755
0.325097341093,0.7641509433962265
0.325097341093,0.7735849056603774
0.325838275149,0.7830188679245284
0.325838275149,0.7924528301886793
0.369682519373,0.8018867924528302
0.369682519373,0.8113207547169812
0.370092670732,0.8207547169811321
0.370092670732,0.8301886792452831
0.37993646144,0.839622641509434
0.37993646144,0.8490566037735849
0.409336191019,0.8584905660377359
0.409336191019,0.8679245283018868
0.410095887533,0.8773584905660378
0.410095887533,0.8867924528301887
0.41251116474,0.8962264150943396
0.41251116474,0.9056603773584906
0.444642610502,0.9150943396226415
0.444642610502,0.9245283018867925
0.444774375704,0.9339622641509434
0.444774375704,0.9433962264150944
0.484614677945,0.9528301886792453
0.484614677945,0.9622641509433962
0.545774160699,0.9716981132075472
0.545774160699,0.9811320754716981
0.569944041433,0.9905660377358491
0.569944041433,1.0
