Congestion,CDF
0.00765059395798,0.009433962264150943
0.00765059395798,0.018867924528301886
0.0076601572908,0.02830188679245283
0.0076601572908,0.03773584905660377
0.00766135012902,0.04716981132075472
0.00766135012902,0.05660377358490566
0.00766271124431,0.0660377358490566
0.00766271124431,0.07547169811320754
0.00766703421581,0.08490566037735849
0.00766703421581,0.09433962264150944
0.00766912593314,0.10377358490566038
0.00766912593314,0.11320754716981132
0.00767509061471,0.12264150943396226
0.00767509061471,0.1320754716981132
0.0076871812938,0.14150943396226415
0.0076871812938,0.1509433962264151
0.00769650730666,0.16037735849056603
0.00769650730666,0.16981132075471697
0.00769891534094,0.1792452830188679
0.00769891534094,0.18867924528301888
0.00770598857141,0.19811320754716982
0.00770598857141,0.20754716981132076
0.00771683220159,0.2169811320754717
0.00771683220159,0.22641509433962265
0.00771809867925,0.2358490566037736
0.00771809867925,0.24528301886792453
0.00772117304634,0.25471698113207547
0.00772117304634,0.2641509433962264
0.0590918616304,0.27358490566037735
0.0590918616304,0.2830188679245283
0.0785164598,0.29245283018867924
0.0785164598,0.3018867924528302
0.10822966201,0.3113207547169811
0.10822966201,0.32075471698113206
0.113986666633,0.330188679245283
0.113986666633,0.33962264150943394
0.114123793581,0.3490566037735849
0.114123793581,0.3584905660377358
0.117900282932,0.36792452830188677
0.117900282932,0.37735849056603776
0.130470288083,0.3867924528301887
0.130470288083,0.39622641509433965
0.130727894703,0.4056603773584906
0.130727894703,0.41509433962264153
0.13245508503,0.42452830188679247
0.13245508503,0.4339622641509434
0.139765701166,0.44339622641509435
0.139765701166,0.4528301886792453
0.146747531645,0.46226415094339623
0.146747531645,0.4716981132075472
0.147244612151,0.4811320754716981
0.147244612151,0.49056603773584906
0.169052276534,0.5
0.169052276534,0.5094339622641509
0.174066465893,0.5188679245283019
0.174066465893,0.5283018867924528
0.174303342408,0.5377358490566038
0.174303342408,0.5471698113207547
0.182139928817,0.5566037735849056
0.182139928817,0.5660377358490566
0.185927205808,0.5754716981132075
0.185927205808,0.5849056603773585
0.191587511452,0.5943396226415094
0.191587511452,0.6037735849056604
0.199451402879,0.6132075471698113
0.199451402879,0.6226415094339622
0.206677847312,0.6320754716981132
0.206677847312,0.6415094339622641
0.211083617218,0.6509433962264151
0.211083617218,0.660377358490566
0.216711487693,0.6698113207547169
0.216711487693,0.6792452830188679
0.222517696371,0.6886792452830188
0.222517696371,0.6981132075471698
0.243603442443,0.7075471698113207
0.243603442443,0.7169811320754716
0.248084854362,0.7264150943396226
0.248084854362,0.7358490566037735
0.24861450552,0.7452830188679245
0.24861450552,0.7547169811320755
0.267300888881,0.7641509433962265
0.267300888881,0.7735849056603774
0.268041822949,0.7830188679245284
0.268041822949,0.7924528301886793
0.304118945568,0.8018867924528302
0.304118945568,0.8113207547169812
0.304224594176,0.8207547169811321
0.304224594176,0.8301886792452831
0.312316962869,0.839622641509434
0.312316962869,0.8490566037735849
0.336386300899,0.8584905660377359
0.336386300899,0.8679245283018868
0.337069812769,0.8773584905660378
0.337069812769,0.8867924528301887
0.339028217481,0.8962264150943396
0.339028217481,0.9056603773584906
0.36542803905,0.9150943396226415
0.36542803905,0.9245283018867925
0.365829271894,0.9339622641509434
0.365829271894,0.9433962264150944
0.39826259438,0.9528301886792453
0.39826259438,0.9622641509433962
0.448837537817,0.9716981132075472
0.448837537817,0.9811320754716981
0.46874314076,0.9905660377358491
0.46874314076,1.0
