Congestion,CDF
0.00354358836111,0.007352941176470588
0.00354358836111,0.014705882352941176
0.00354358836111,0.022058823529411766
0.00354358836111,0.029411764705882353
0.00356864314997,0.03676470588235294
0.00356864314997,0.04411764705882353
0.00368624163192,0.051470588235294115
0.00368624163192,0.058823529411764705
0.00368624222203,0.0661764705882353
0.00368624222203,0.07352941176470588
0.00368624222203,0.08088235294117647
0.00368624222203,0.08823529411764706
0.00388897325329,0.09558823529411764
0.00388897325329,0.10294117647058823
0.00417464847049,0.11029411764705882
0.00417464847049,0.11764705882352941
0.00418571529228,0.125
0.00418571529228,0.1323529411764706
0.00450725840818,0.13970588235294118
0.00450725840818,0.14705882352941177
0.00504849029834,0.15441176470588236
0.00504849029834,0.16176470588235295
0.00547206510259,0.16911764705882354
0.00547206510259,0.17647058823529413
0.00547939253266,0.18382352941176472
0.00547939253266,0.19117647058823528
0.00550856350238,0.19852941176470587
0.00550856350238,0.20588235294117646
0.00550856350238,0.21323529411764705
0.00550856350238,0.22058823529411764
0.00575657761782,0.22794117647058823
0.00575657761782,0.23529411764705882
0.00578069137488,0.2426470588235294
0.00578069137488,0.25
0.00586505131174,0.25735294117647056
0.00586505131174,0.2647058823529412
0.00615762400244,0.27205882352941174
0.00615762400244,0.27941176470588236
0.00664583658659,0.2867647058823529
0.00664583658659,0.29411764705882354
0.0067504092387,0.3014705882352941
0.0067504092387,0.3088235294117647
0.0067504092387,0.3161764705882353
0.0067504092387,0.3235294117647059
0.00681081457223,0.33088235294117646
0.00681081457223,0.3382352941176471
0.00684346565376,0.34558823529411764
0.00684346565376,0.35294117647058826
0.00709089467265,0.3602941176470588
0.00709089467265,0.36764705882352944
0.00849715835091,0.375
0.00849715835091,0.38235294117647056
0.00862900186103,0.3897058823529412
0.00862900186103,0.39705882352941174
0.00862900186103,0.40441176470588236
0.00862900186103,0.4117647058823529
0.0210804125619,0.41911764705882354
0.0210804125619,0.4264705882352941
0.0490876520406,0.4338235294117647
0.0490876520406,0.4411764705882353
0.103799175227,0.4485294117647059
0.103799175227,0.45588235294117646
0.127441541892,0.4632352941176471
0.127441541892,0.47058823529411764
0.155514747706,0.47794117647058826
0.155514747706,0.4852941176470588
0.164757296201,0.49264705882352944
0.164757296201,0.5
0.209797058329,0.5073529411764706
0.209797058329,0.5147058823529411
0.249508167991,0.5220588235294118
0.249508167991,0.5294117647058824
0.256105757663,0.5367647058823529
0.256105757663,0.5441176470588235
0.270004849651,0.5514705882352942
0.270004849651,0.5588235294117647
0.283654871441,0.5661764705882353
0.283654871441,0.5735294117647058
0.347398132038,0.5808823529411765
0.347398132038,0.5882352941176471
0.347543809641,0.5955882352941176
0.347543809641,0.6029411764705882
0.393774788506,0.6102941176470589
0.393774788506,0.6176470588235294
0.397576656726,0.625
0.397576656726,0.6323529411764706
0.425750911858,0.6397058823529411
0.425750911858,0.6470588235294118
0.4813280651,0.6544117647058824
0.4813280651,0.6617647058823529
0.487822427455,0.6691176470588235
0.487822427455,0.6764705882352942
0.53308680177,0.6838235294117647
0.53308680177,0.6911764705882353
0.540810235619,0.6985294117647058
0.540810235619,0.7058823529411765
0.593807637478,0.7132352941176471
0.593807637478,0.7205882352941176
0.605956958681,0.7279411764705882
0.605956958681,0.7352941176470589
0.650430073013,0.7426470588235294
0.650430073013,0.75
0.66421027282,0.7573529411764706
0.66421027282,0.7647058823529411
0.677669247094,0.7720588235294118
0.677669247094,0.7794117647058824
0.687024103495,0.7867647058823529
0.687024103495,0.7941176470588235
0.743548611201,0.8014705882352942
0.743548611201,0.8088235294117647
0.785709436325,0.8161764705882353
0.785709436325,0.8235294117647058
0.842789008174,0.8308823529411765
0.842789008174,0.8382352941176471
0.846296124465,0.8455882352941176
0.846296124465,0.8529411764705882
0.862900186103,0.8602941176470589
0.862900186103,0.8676470588235294
1.11420816385,0.875
1.11420816385,0.8823529411764706
1.11694844176,0.8897058823529411
1.11694844176,0.8970588235294118
1.15236659046,0.9044117647058824
1.15236659046,0.9117647058823529
1.16190916322,0.9191176470588235
1.16190916322,0.9264705882352942
1.32006268349,0.9338235294117647
1.32006268349,0.9411764705882353
2.12155422726,0.9485294117647058
2.12155422726,0.9558823529411765
2.46318731757,0.9632352941176471
2.46318731757,0.9705882352941176
3.53836483846,0.9779411764705882
3.53836483846,0.9852941176470589
3.90475094794,0.9926470588235294
3.90475094794,1.0
