Congestion,CDF
0.00306272430153,0.007352941176470588
0.00306272430153,0.014705882352941176
0.00306272430153,0.022058823529411766
0.00306272430153,0.029411764705882353
0.00310230024921,0.03676470588235294
0.00310230024921,0.04411764705882353
0.00314910644303,0.051470588235294115
0.00314910644303,0.058823529411764705
0.00314910695773,0.0661764705882353
0.00314910695773,0.07352941176470588
0.00314910695773,0.08088235294117647
0.00314910695773,0.08823529411764706
0.00326247257023,0.09558823529411764
0.00326247257023,0.10294117647058823
0.0033206147987,0.11029411764705882
0.0033206147987,0.11764705882352941
0.00332531980619,0.125
0.00332531980619,0.1323529411764706
0.00341927862359,0.13970588235294118
0.00341927862359,0.14705882352941177
0.00373048326784,0.15441176470588236
0.00373048326784,0.16176470588235295
0.00392471740332,0.16911764705882354
0.00392471740332,0.17647058823529413
0.00392942152058,0.18382352941176472
0.00392942152058,0.19117647058823528
0.00394583139987,0.19852941176470587
0.00394583139987,0.20588235294117646
0.00394583139987,0.21323529411764705
0.00394583139987,0.22058823529411764
0.00406076729695,0.22794117647058823
0.00406076729695,0.23529411764705882
0.00406097023469,0.2426470588235294
0.00406097023469,0.25
0.0041292559412,0.25735294117647056
0.0041292559412,0.2647058823529412
0.00414520087977,0.27205882352941174
0.00414520087977,0.27941176470588236
0.00429919118431,0.2867647058823529
0.00429919118431,0.29411764705882354
0.00429919118431,0.3014705882352941
0.00429919118431,0.3088235294117647
0.00449625324226,0.3161764705882353
0.00449625324226,0.3235294117647059
0.00454282556319,0.33088235294117646
0.00454282556319,0.3382352941176471
0.00457490605543,0.34558823529411764
0.00457490605543,0.35294117647058826
0.00470717713605,0.3602941176470588
0.00470717713605,0.36764705882352944
0.0049746274318,0.375
0.0049746274318,0.38235294117647056
0.00499883011793,0.3897058823529412
0.00499883011793,0.39705882352941174
0.00499883011793,0.40441176470588236
0.00499883011793,0.4117647058823529
0.0210804125619,0.41911764705882354
0.0210804125619,0.4264705882352941
0.0478248185694,0.4338235294117647
0.0478248185694,0.4411764705882353
0.0995716173796,0.4485294117647059
0.0995716173796,0.45588235294117646
0.111257686165,0.4632352941176471
0.111257686165,0.47058823529411764
0.137569131125,0.47794117647058826
0.137569131125,0.4852941176470588
0.150735850419,0.49264705882352944
0.150735850419,0.5
0.180646085784,0.5073529411764706
0.180646085784,0.5147058823529411
0.198306261657,0.5220588235294118
0.198306261657,0.5294117647058824
0.214718374309,0.5367647058823529
0.214718374309,0.5441176470588235
0.225078447113,0.5514705882352942
0.225078447113,0.5588235294117647
0.228917592587,0.5661764705882353
0.228917592587,0.5735294117647058
0.249127229535,0.5808823529411765
0.249127229535,0.5882352941176471
0.283270156263,0.5955882352941176
0.283270156263,0.6029411764705882
0.293830283211,0.6102941176470589
0.293830283211,0.6176470588235294
0.300099107264,0.625
0.300099107264,0.6323529411764706
0.309660872602,0.6397058823529411
0.309660872602,0.6470588235294118
0.343035908243,0.6544117647058824
0.343035908243,0.6617647058823529
0.375893706463,0.6691176470588235
0.375893706463,0.6764705882352942
0.377564650659,0.6838235294117647
0.377564650659,0.6911764705882353
0.435249193678,0.6985294117647058
0.435249193678,0.7058823529411765
0.438866137203,0.7132352941176471
0.438866137203,0.7205882352941176
0.455644590768,0.7279411764705882
0.455644590768,0.7352941176470589
0.491798749734,0.7426470588235294
0.491798749734,0.75
0.499883011793,0.7573529411764706
0.499883011793,0.7647058823529411
0.503158165282,0.7720588235294118
0.503158165282,0.7794117647058824
0.505321805433,0.7867647058823529
0.505321805433,0.7941176470588235
0.5193416831,0.8014705882352942
0.5193416831,0.8088235294117647
0.542737351583,0.8161764705882353
0.542737351583,0.8235294117647058
0.547482630557,0.8308823529411765
0.547482630557,0.8382352941176471
0.547850891856,0.8455882352941176
0.547850891856,0.8529411764705882
0.661273431898,0.8602941176470589
0.661273431898,0.8676470588235294
0.67102844957,0.875
0.67102844957,0.8823529411764706
0.704352437536,0.8897058823529411
0.704352437536,0.8970588235294118
0.742938231457,0.9044117647058824
0.742938231457,0.9117647058823529
0.831340562683,0.9191176470588235
0.831340562683,0.9264705882352942
0.974440643262,0.9338235294117647
0.974440643262,0.9411764705882353
1.20505577984,0.9485294117647058
1.20505577984,0.9558823529411765
1.38616271051,0.9632352941176471
1.38616271051,0.9705882352941176
2.03927679394,0.9779411764705882
2.03927679394,0.9852941176470589
2.27298614665,0.9926470588235294
2.27298614665,1.0
