Congestion,CDF
0.00332635706149,0.007352941176470588
0.00332635706149,0.014705882352941176
0.00332635706149,0.022058823529411766
0.00332635706149,0.029411764705882353
0.00335656688427,0.03676470588235294
0.00335656688427,0.04411764705882353
0.00344510297961,0.051470588235294115
0.00344510297961,0.058823529411764705
0.00344510353469,0.0661764705882353
0.00344510353469,0.07352941176470588
0.00344510353469,0.08088235294117647
0.00344510353469,0.08823529411764706
0.0036250246626,0.09558823529411764
0.0036250246626,0.10294117647058823
0.00380692297611,0.11029411764705882
0.00380692297611,0.11764705882352941
0.00381592461164,0.125
0.00381592461164,0.1323529411764706
0.00400547478563,0.13970588235294118
0.00400547478563,0.14705882352941177
0.00452459995626,0.15441176470588236
0.00452459995626,0.16176470588235295
0.00487672486026,0.16911764705882354
0.00487672486026,0.17647058823529413
0.00488467244713,0.18382352941176472
0.00488467244713,0.19117647058823528
0.00490858878866,0.19852941176470587
0.00490858878866,0.20588235294117646
0.00490858878866,0.21323529411764705
0.00490858878866,0.22058823529411764
0.00505580448377,0.22794117647058823
0.00505580448377,0.23529411764705882
0.00514306708325,0.2426470588235294
0.00514306708325,0.25
0.0051594313986,0.25735294117647056
0.0051594313986,0.2647058823529412
0.0053775147192,0.27205882352941174
0.0053775147192,0.27941176470588236
0.00579743299488,0.2867647058823529
0.00579743299488,0.29411764705882354
0.00579743299488,0.3014705882352941
0.00579743299488,0.3088235294117647
0.00580495549251,0.3161764705882353
0.00580495549251,0.3235294117647059
0.00591753395567,0.33088235294117646
0.00591753395567,0.3382352941176471
0.00594247792137,0.34558823529411764
0.00594247792137,0.35294117647058826
0.00614637439366,0.3602941176470588
0.00614637439366,0.36764705882352944
0.00711925916403,0.375
0.00711925916403,0.38235294117647056
0.00720734220785,0.3897058823529412
0.00720734220785,0.39705882352941174
0.00720734220785,0.40441176470588236
0.00720734220785,0.4117647058823529
0.0210804125619,0.41911764705882354
0.0210804125619,0.4264705882352941
0.0486556992316,0.4338235294117647
0.0486556992316,0.4411764705882353
0.101913797718,0.4485294117647059
0.101913797718,0.45588235294117646
0.119102749081,0.4632352941176471
0.119102749081,0.47058823529411764
0.152606413067,0.47794117647058826
0.152606413067,0.4852941176470588
0.153777368872,0.49264705882352944
0.153777368872,0.5
0.198353974252,0.5073529411764706
0.198353974252,0.5147058823529411
0.229387221704,0.5220588235294118
0.229387221704,0.5294117647058824
0.243954874529,0.5367647058823529
0.243954874529,0.5441176470588235
0.25076217323,0.5514705882352942
0.25076217323,0.5588235294117647
0.250856102245,0.5661764705882353
0.250856102245,0.5735294117647058
0.323429940908,0.5808823529411765
0.323429940908,0.5882352941176471
0.325558029511,0.5955882352941176
0.325558029511,0.6029411764705882
0.340145402415,0.6102941176470589
0.340145402415,0.6176470588235294
0.370004273398,0.625
0.370004273398,0.6323529411764706
0.381228305626,0.6397058823529411
0.381228305626,0.6470588235294118
0.40505451561,0.6544117647058824
0.40505451561,0.6617647058823529
0.439086895919,0.6691176470588235
0.439086895919,0.6764705882352942
0.473669750103,0.6838235294117647
0.473669750103,0.6911764705882353
0.531433272547,0.6985294117647058
0.531433272547,0.7058823529411765
0.538618522152,0.7132352941176471
0.538618522152,0.7205882352941176
0.565910010797,0.7279411764705882
0.565910010797,0.7352941176470589
0.569943171852,0.7426470588235294
0.569943171852,0.75
0.582370933541,0.7573529411764706
0.582370933541,0.7647058823529411
0.602475422614,0.7720588235294118
0.602475422614,0.7794117647058824
0.623896972505,0.7867647058823529
0.623896972505,0.7941176470588235
0.653241393758,0.8014705882352942
0.653241393758,0.8088235294117647
0.695402218882,0.8161764705882353
0.695402218882,0.8235294117647058
0.705431042295,0.8308823529411765
0.705431042295,0.8382352941176471
0.720734220785,0.8455882352941176
0.720734220785,0.8529411764705882
0.762240939275,0.8602941176470589
0.762240939275,0.8676470588235294
0.942636989975,0.875
0.942636989975,0.8823529411764706
0.959806166818,0.8897058823529411
0.959806166818,0.8970588235294118
0.996399832159,0.9044117647058824
0.996399832159,0.9117647058823529
1.01609846091,0.9191176470588235
1.01609846091,0.9264705882352942
1.15752682252,0.9338235294117647
1.15752682252,0.9411764705882353
1.76791502145,0.9485294117647058
1.76791502145,0.9558823529411765
2.04149742105,0.9632352941176471
2.04149742105,0.9705882352941176
2.96170034649,0.9779411764705882
2.96170034649,0.9852941176470589
3.27053445344,0.9926470588235294
3.27053445344,1.0
