Congestion,CDF
0.0298628744615,0.005555555555555556
0.0298628744615,0.011111111111111112
0.0299097502259,0.016666666666666666
0.0299097502259,0.022222222222222223
0.0302662455789,0.027777777777777776
0.0302662455789,0.03333333333333333
0.0303600419656,0.03888888888888889
0.0303600419656,0.044444444444444446
0.0304828924269,0.05
0.0304828924269,0.05555555555555555
0.03054907555,0.06111111111111111
0.03054907555,0.06666666666666667
0.0307284314091,0.07222222222222222
0.0307284314091,0.07777777777777778
0.0312777551452,0.08333333333333333
0.0312777551452,0.08888888888888889
0.0319978260869,0.09444444444444444
0.0319978260869,0.1
0.032035602365,0.10555555555555556
0.032035602365,0.1111111111111111
0.0322626893449,0.11666666666666667
0.0322626893449,0.12222222222222222
0.0324477328235,0.12777777777777777
0.0324477328235,0.13333333333333333
0.0324821292855,0.1388888888888889
0.0324821292855,0.14444444444444443
0.0325118750153,0.15
0.0325118750153,0.15555555555555556
0.0325193419982,0.16111111111111112
0.0325193419982,0.16666666666666666
0.0329044050124,0.17222222222222222
0.0329044050124,0.17777777777777778
0.0332487075648,0.18333333333333332
0.0332487075648,0.18888888888888888
0.0332590084501,0.19444444444444445
0.0332590084501,0.2
0.0333548765241,0.20555555555555555
0.0333548765241,0.2111111111111111
0.0334122275296,0.21666666666666667
0.0334122275296,0.2222222222222222
0.033466008305,0.22777777777777777
0.033466008305,0.23333333333333334
0.0336002051102,0.2388888888888889
0.0336002051102,0.24444444444444444
0.0337036338344,0.25
0.0337036338344,0.25555555555555554
0.0337215003015,0.2611111111111111
0.0337215003015,0.26666666666666666
0.0341493918444,0.2722222222222222
0.0341493918444,0.2777777777777778
0.0346235962717,0.2833333333333333
0.0346235962717,0.28888888888888886
0.0347614681514,0.29444444444444445
0.0347614681514,0.3
0.0350246166488,0.3055555555555556
0.0350246166488,0.3111111111111111
0.0350879893978,0.31666666666666665
0.0350879893978,0.32222222222222224
0.035131822179,0.3277777777777778
0.035131822179,0.3333333333333333
0.0351566026876,0.3388888888888889
0.0351566026876,0.34444444444444444
0.035309785277,0.35
0.035309785277,0.35555555555555557
0.0355266410184,0.3611111111111111
0.0355266410184,0.36666666666666664
0.0357090787995,0.37222222222222223
0.0357090787995,0.37777777777777777
0.0358201382933,0.38333333333333336
0.0358201382933,0.3888888888888889
0.0359384277582,0.39444444444444443
0.0359384277582,0.4
0.0359760090485,0.40555555555555556
0.0359760090485,0.4111111111111111
0.036118987891,0.4166666666666667
0.036118987891,0.4222222222222222
0.0364918665419,0.42777777777777776
0.0364918665419,0.43333333333333335
0.0369668423663,0.4388888888888889
0.0369668423663,0.4444444444444444
0.931653145872,0.45
0.931653145872,0.45555555555555555
1.06986311888,0.46111111111111114
1.06986311888,0.4666666666666667
1.11528924203,0.4722222222222222
1.11528924203,0.4777777777777778
1.20044436675,0.48333333333333334
1.20044436675,0.4888888888888889
1.92629601084,0.49444444444444446
1.92629601084,0.5
2.40177011981,0.5055555555555555
2.40177011981,0.5111111111111111
2.83146722458,0.5166666666666667
2.83146722458,0.5222222222222223
2.90559252658,0.5277777777777778
2.90559252658,0.5333333333333333
3.56811061241,0.5388888888888889
3.56811061241,0.5444444444444444
3.86364699457,0.55
3.86364699457,0.5555555555555556
4.02484883371,0.5611111111111111
4.02484883371,0.5666666666666667
4.02597457461,0.5722222222222222
4.02597457461,0.5777777777777777
4.0984892427,0.5833333333333334
4.0984892427,0.5888888888888889
4.14884553426,0.5944444444444444
4.14884553426,0.6
4.2091019421,0.6055555555555555
4.2091019421,0.6111111111111112
4.50919421187,0.6166666666666667
4.50919421187,0.6222222222222222
4.55277074884,0.6277777777777778
4.55277074884,0.6333333333333333
4.69647425302,0.6388888888888888
4.69647425302,0.6444444444444445
4.715223821,0.65
4.715223821,0.6555555555555556
4.9417640732,0.6611111111111111
4.9417640732,0.6666666666666666
5.06301583694,0.6722222222222223
5.06301583694,0.6777777777777778
5.18921907461,0.6833333333333333
5.18921907461,0.6888888888888889
5.26470217037,0.6944444444444444
5.26470217037,0.7
5.33363979444,0.7055555555555556
5.33363979444,0.7111111111111111
5.67026412607,0.7166666666666667
5.67026412607,0.7222222222222222
5.93367104149,0.7277777777777777
5.93367104149,0.7333333333333333
6.12487469341,0.7388888888888889
6.12487469341,0.7444444444444445
7.30368275353,0.75
7.30368275353,0.7555555555555555
7.5047462708,0.7611111111111111
7.5047462708,0.7666666666666667
7.5459883774,0.7722222222222223
7.5459883774,0.7777777777777778
7.93465999862,0.7833333333333333
7.93465999862,0.7888888888888889
8.23051476216,0.7944444444444444
8.23051476216,0.8
8.28616146583,0.8055555555555556
8.28616146583,0.8111111111111111
8.74992009478,0.8166666666666667
8.74992009478,0.8222222222222222
9.22541374527,0.8277777777777777
9.22541374527,0.8333333333333334
9.42734119652,0.8388888888888889
9.42734119652,0.8444444444444444
10.1094158695,0.85
10.1094158695,0.8555555555555555
11.050456083,0.8611111111111112
11.050456083,0.8666666666666667
11.3609282769,0.8722222222222222
11.3609282769,0.8777777777777778
12.2195655675,0.8833333333333333
12.2195655675,0.8888888888888888
12.3399464331,0.8944444444444445
12.3399464331,0.9
13.3525079097,0.9055555555555556
13.3525079097,0.9111111111111111
13.9446236527,0.9166666666666666
13.9446236527,0.9222222222222223
14.5617302622,0.9277777777777778
14.5617302622,0.9333333333333333
15.9845187302,0.9388888888888889
15.9845187302,0.9444444444444444
16.2513565367,0.95
16.2513565367,0.9555555555555556
16.8106558948,0.9611111111111111
16.8106558948,0.9666666666666667
17.9979247065,0.9722222222222222
17.9979247065,0.9777777777777777
19.5446763946,0.9833333333333333
19.5446763946,0.9888888888888889
20.4045437649,0.9944444444444445
20.4045437649,1.0
