Congestion,CDF
0.0282840285169,0.005555555555555556
0.0282840285169,0.011111111111111112
0.0283826721019,0.016666666666666666
0.0283826721019,0.022222222222222223
0.0287136069048,0.027777777777777776
0.0287136069048,0.03333333333333333
0.0287763107895,0.03888888888888889
0.0287763107895,0.044444444444444446
0.0288715130362,0.05
0.0288715130362,0.05555555555555555
0.02903886999,0.06111111111111111
0.02903886999,0.06666666666666667
0.0290485359834,0.07222222222222222
0.0290485359834,0.07777777777777778
0.0296815247289,0.08333333333333333
0.0296815247289,0.08888888888888889
0.0302160784852,0.09444444444444444
0.0302160784852,0.1
0.0302333787313,0.10555555555555556
0.0302333787313,0.1111111111111111
0.030527181245,0.11666666666666667
0.030527181245,0.12222222222222222
0.0305656986491,0.12777777777777777
0.0305656986491,0.13333333333333333
0.0305936190569,0.1388888888888889
0.0305936190569,0.14444444444444443
0.0307723025223,0.15
0.0307723025223,0.15555555555555556
0.03078778806,0.16111111111111112
0.03078778806,0.16666666666666666
0.031096679522,0.17222222222222222
0.031096679522,0.17777777777777778
0.031482407802,0.18333333333333332
0.031482407802,0.18888888888888888
0.0315619727906,0.19444444444444445
0.0315619727906,0.2
0.0316056618546,0.20555555555555555
0.0316056618546,0.2111111111111111
0.0316262943052,0.21666666666666667
0.0316262943052,0.2222222222222222
0.0316637954071,0.22777777777777777
0.0316637954071,0.23333333333333334
0.031757778957,0.2388888888888889
0.031757778957,0.24444444444444444
0.0318174176526,0.25
0.0318174176526,0.25555555555555554
0.0319658779342,0.2611111111111111
0.0319658779342,0.26666666666666666
0.032317241911,0.2722222222222222
0.032317241911,0.2777777777777778
0.0328276687255,0.2833333333333333
0.0328276687255,0.28888888888888886
0.033086627508,0.29444444444444445
0.033086627508,0.3
0.0333233985264,0.3055555555555556
0.0333233985264,0.3111111111111111
0.0333703038171,0.31666666666666665
0.0333703038171,0.32222222222222224
0.0333974399652,0.3277777777777778
0.0333974399652,0.3333333333333333
0.0334483709723,0.3388888888888889
0.0334483709723,0.34444444444444444
0.0335543569979,0.35
0.0335543569979,0.35555555555555557
0.0338565101876,0.3611111111111111
0.0338565101876,0.36666666666666664
0.0339859625506,0.37222222222222223
0.0339859625506,0.37777777777777777
0.0341459343122,0.38333333333333336
0.0341459343122,0.3888888888888889
0.0342408195797,0.39444444444444443
0.0342408195797,0.4
0.0342482261053,0.40555555555555556
0.0342482261053,0.4111111111111111
0.0343024026981,0.4166666666666667
0.0343024026981,0.4222222222222222
0.0346965654707,0.42777777777777776
0.0346965654707,0.43333333333333335
0.0351762229484,0.4388888888888889
0.0351762229484,0.4444444444444444
0.879246140651,0.45
0.879246140651,0.45555555555555555
1.01842966076,0.46111111111111114
1.01842966076,0.4666666666666667
1.03696035021,0.4722222222222222
1.03696035021,0.4777777777777778
1.12038024977,0.48333333333333334
1.12038024977,0.4888888888888889
1.82023235192,0.49444444444444446
1.82023235192,0.5
2.24691678832,0.5055555555555555
2.24691678832,0.5111111111111111
2.68427618902,0.5166666666666667
2.68427618902,0.5222222222222223
2.75519557671,0.5277777777777778
2.75519557671,0.5333333333333333
3.37262477257,0.5388888888888889
3.37262477257,0.5444444444444444
3.67097655765,0.55
3.67097655765,0.5555555555555556
3.82625982487,0.5611111111111111
3.82625982487,0.5666666666666667
3.82636054852,0.5722222222222222
3.82636054852,0.5777777777777777
3.89386583815,0.5833333333333334
3.89386583815,0.5888888888888889
3.93552232401,0.5944444444444444
3.93552232401,0.6
3.98695118631,0.6055555555555555
3.98695118631,0.6111111111111112
4.26803883401,0.6166666666666667
4.26803883401,0.6222222222222222
4.31770710968,0.6277777777777778
4.31770710968,0.6333333333333333
4.46585659836,0.6388888888888888
4.46585659836,0.6444444444444445
4.46738361579,0.65
4.46738361579,0.6555555555555556
4.70076748133,0.6611111111111111
4.70076748133,0.6666666666666666
4.80668061705,0.6722222222222223
4.80668061705,0.6777777777777778
4.91612840699,0.6833333333333333
4.91612840699,0.6888888888888889
4.99027512417,0.6944444444444444
4.99027512417,0.7
5.08115213834,0.7055555555555556
5.08115213834,0.7111111111111111
5.39754136598,0.7166666666666667
5.39754136598,0.7222222222222222
5.62659737948,0.7277777777777777
5.62659737948,0.7333333333333333
5.83860434873,0.7388888888888889
5.83860434873,0.7444444444444445
6.96999365529,0.75
6.96999365529,0.7555555555555555
7.16673068749,0.7611111111111111
7.16673068749,0.7666666666666667
7.2007795787,0.7722222222222223
7.2007795787,0.7777777777777778
7.58018036767,0.7833333333333333
7.58018036767,0.7888888888888889
7.84023181769,0.7944444444444444
7.84023181769,0.8
7.88898378956,0.8055555555555556
7.88898378956,0.8111111111111111
8.35806791692,0.8166666666666667
8.35806791692,0.8222222222222222
8.80752454821,0.8277777777777777
8.80752454821,0.8333333333333334
8.99103221555,0.8388888888888889
8.99103221555,0.8444444444444444
9.6531952432,0.85
9.6531952432,0.8555555555555555
10.5627138309,0.8611111111111112
10.5627138309,0.8666666666666667
10.8126307959,0.8722222222222222
10.8126307959,0.8777777777777778
11.6820189351,0.8833333333333333
11.6820189351,0.8888888888888888
11.788087347,0.8944444444444445
11.788087347,0.9
12.7675036999,0.9055555555555556
12.7675036999,0.9111111111111111
13.3162144617,0.9166666666666666
13.3162144617,0.9222222222222223
13.9315989146,0.9277777777777778
13.9315989146,0.9333333333333333
15.2823705205,0.9388888888888889
15.2823705205,0.9444444444444444
15.5197257453,0.95
15.5197257453,0.9555555555555556
16.0547433872,0.9611111111111111
16.0547433872,0.9666666666666667
17.2190779947,0.9722222222222222
17.2190779947,0.9777777777777777
18.7017935559,0.9833333333333333
18.7017935559,0.9888888888888889
19.5157881994,0.9944444444444445
19.5157881994,1.0
