Congestion,CDF
0.0325327493356,0.005555555555555556
0.0325327493356,0.011111111111111112
0.0325590843364,0.016666666666666666
0.0325590843364,0.022222222222222223
0.0330031386669,0.027777777777777776
0.0330031386669,0.03333333333333333
0.0330864673255,0.03888888888888889
0.0330864673255,0.044444444444444446
0.0332794948917,0.05
0.0332794948917,0.05555555555555555
0.0332850559472,0.06111111111111111
0.0332850559472,0.06666666666666667
0.0338301424188,0.07222222222222222
0.0338301424188,0.07777777777777778
0.0340962024278,0.08333333333333333
0.0340962024278,0.08888888888888889
0.0349782435777,0.09444444444444444
0.0349782435777,0.1
0.0351579044254,0.10555555555555556
0.0351579044254,0.1111111111111111
0.0351832443238,0.11666666666666667
0.0351832443238,0.12222222222222222
0.0354099974972,0.12777777777777777
0.0354099974972,0.13333333333333333
0.0355105225376,0.1388888888888889
0.0355105225376,0.14444444444444443
0.0356676328436,0.15
0.0356676328436,0.15555555555555556
0.0359368787149,0.16111111111111112
0.0359368787149,0.16666666666666666
0.0359434004748,0.17222222222222222
0.0359434004748,0.17777777777777778
0.0361792846425,0.18333333333333332
0.0361792846425,0.18888888888888888
0.0362993958763,0.19444444444444445
0.0362993958763,0.2
0.0363242497703,0.20555555555555555
0.0363242497703,0.2111111111111111
0.0363365180363,0.21666666666666667
0.0363365180363,0.2222222222222222
0.0366011258895,0.22777777777777777
0.0366011258895,0.23333333333333334
0.0366530110649,0.2388888888888889
0.0366530110649,0.24444444444444444
0.0368123122483,0.25
0.0368123122483,0.25555555555555554
0.0369614901636,0.2611111111111111
0.0369614901636,0.26666666666666666
0.0373346725794,0.2722222222222222
0.0373346725794,0.2777777777777778
0.0376018061113,0.2833333333333333
0.0376018061113,0.28888888888888886
0.0377099794634,0.29444444444444445
0.0377099794634,0.3
0.0379768054724,0.3055555555555556
0.0379768054724,0.3111111111111111
0.0380273306101,0.31666666666666665
0.0380273306101,0.32222222222222224
0.0380298407372,0.3277777777777778
0.0380298407372,0.3333333333333333
0.0381324513164,0.3388888888888889
0.0381324513164,0.34444444444444444
0.0383358206453,0.35
0.0383358206453,0.35555555555555557
0.0383951787829,0.3611111111111111
0.0383951787829,0.36666666666666664
0.0386803950416,0.37222222222222223
0.0386803950416,0.37777777777777777
0.0387007101153,0.38333333333333336
0.0387007101153,0.3888888888888889
0.0388342149526,0.39444444444444443
0.0388342149526,0.4
0.0389811461416,0.40555555555555556
0.0389811461416,0.4111111111111111
0.0392011818303,0.4166666666666667
0.0392011818303,0.4222222222222222
0.0395435187619,0.42777777777777776
0.0395435187619,0.43333333333333335
0.0399979417652,0.4388888888888889
0.0399979417652,0.4444444444444444
1.01893151841,0.45
1.01893151841,0.45555555555555555
1.16692484861,0.46111111111111114
1.16692484861,0.4666666666666667
1.25422762311,0.4722222222222222
1.25422762311,0.4777777777777778
1.3453313683,0.48333333333333334
1.3453313683,0.4888888888888889
2.12159229872,0.49444444444444446
2.12159229872,0.5
2.67461059634,0.5055555555555555
2.67461059634,0.5111111111111111
3.08759125189,0.5166666666666667
3.08759125189,0.5222222222222223
3.16645096955,0.5277777777777778
3.16645096955,0.5333333333333333
3.89649712852,0.5388888888888889
3.89649712852,0.5444444444444444
4.18774507122,0.55
4.18774507122,0.5555555555555556
4.35619700457,0.5611111111111111
4.35619700457,0.5666666666666667
4.36185064392,0.5722222222222222
4.36185064392,0.5777777777777777
4.44180007447,0.5833333333333334
4.44180007447,0.5888888888888889
4.51785257668,0.5944444444444444
4.51785257668,0.6
4.59268371258,0.6055555555555555
4.59268371258,0.6111111111111112
4.91494754656,0.6166666666666667
4.91494754656,0.6222222222222222
4.95854377846,0.6277777777777778
4.95854377846,0.6333333333333333
5.10178246716,0.6388888888888888
5.10178246716,0.6444444444444445
5.12956641071,0.65
5.12956641071,0.6555555555555556
5.34469242247,0.6611111111111111
5.34469242247,0.6666666666666666
5.49061862023,0.6722222222222223
5.49061862023,0.6777777777777778
5.65082058674,0.6833333333333333
5.65082058674,0.6888888888888889
5.72382851771,0.6944444444444444
5.72382851771,0.7
5.75582051283,0.7055555555555556
5.75582051283,0.7111111111111111
6.12532743989,0.7166666666666667
6.12532743989,0.7222222222222222
6.44717767949,0.7277777777777777
6.44717767949,0.7333333333333333
6.60293097682,0.7388888888888889
6.60293097682,0.7444444444444445
7.86357960339,0.75
7.86357960339,0.7555555555555555
8.07211000727,0.7611111111111111
8.07211000727,0.7666666666666667
8.12574597964,0.7722222222222223
8.12574597964,0.7777777777777778
8.53118992066,0.7833333333333333
8.53118992066,0.7888888888888889
8.88669746926,0.7944444444444444
8.88669746926,0.8
8.95390718537,0.8055555555555556
8.95390718537,0.8111111111111111
9.41070397672,0.8166666666666667
9.41070397672,0.8222222222222222
9.93132644342,0.8277777777777777
9.93132644342,0.8333333333333334
10.1624742968,0.8388888888888889
10.1624742968,0.8444444444444444
10.8771239215,0.85
10.8771239215,0.8555555555555555
11.8684316815,0.8611111111111112
11.8684316815,0.8666666666666667
12.2773846729,0.8722222222222222
12.2773846729,0.8777777777777778
13.1181924068,0.8833333333333333
13.1181924068,0.8888888888888888
13.2623613135,0.8944444444444445
13.2623613135,0.9
14.3303920753,0.9055555555555556
14.3303920753,0.9111111111111111
14.9936215664,0.9166666666666666
14.9936215664,0.9222222222222223
15.6145875598,0.9277777777777778
15.6145875598,0.9333333333333333
17.1569175565,0.9388888888888889
17.1569175565,0.9444444444444444
17.4718748603,0.95
17.4718748603,0.9555555555555556
18.0716946961,0.9611111111111111
18.0716946961,0.9666666666666667
19.2983093828,0.9722222222222222
19.2983093828,0.9777777777777777
20.9515541127,0.9833333333333333
20.9515541127,0.9888888888888889
21.8874964398,0.9944444444444445
21.8874964398,1.0
