Congestion,CDF
0.0151962917616,0.005555555555555556
0.0151962917616,0.011111111111111112
0.0152296286006,0.016666666666666666
0.0152296286006,0.022222222222222223
0.0153447403031,0.027777777777777776
0.0153447403031,0.03333333333333333
0.0154461580288,0.03888888888888889
0.0154461580288,0.044444444444444446
0.0155951794476,0.05
0.0155951794476,0.05555555555555555
0.0156141588618,0.06111111111111111
0.0156141588618,0.06666666666666667
0.0156196757809,0.07222222222222222
0.0156196757809,0.07777777777777778
0.0156890857736,0.08333333333333333
0.0156890857736,0.08888888888888889
0.0157792910805,0.09444444444444444
0.0157792910805,0.1
0.0159036220234,0.10555555555555556
0.0159036220234,0.1111111111111111
0.0159763525938,0.11666666666666667
0.0159763525938,0.12222222222222222
0.0159984863953,0.12777777777777777
0.0159984863953,0.13333333333333333
0.0160318791066,0.1388888888888889
0.0160318791066,0.14444444444444443
0.0160940390379,0.15
0.0160940390379,0.15555555555555556
0.0162575973949,0.16111111111111112
0.0162575973949,0.16666666666666666
0.0163347246952,0.17222222222222222
0.0163347246952,0.17777777777777778
0.0163432775799,0.18333333333333332
0.0163432775799,0.18888888888888888
0.0163812759357,0.19444444444444445
0.0163812759357,0.2
0.0165319471194,0.20555555555555555
0.0165319471194,0.2111111111111111
0.0166645538452,0.21666666666666667
0.0166645538452,0.2222222222222222
0.0166672494349,0.22777777777777777
0.0166672494349,0.23333333333333334
0.0168324760256,0.2388888888888889
0.0168324760256,0.24444444444444444
0.0169599368595,0.25
0.0169599368595,0.25555555555555554
0.0170361822108,0.2611111111111111
0.0170361822108,0.26666666666666666
0.0171165489253,0.2722222222222222
0.0171165489253,0.2777777777777778
0.0177622817616,0.2833333333333333
0.0177622817616,0.28888888888888886
0.0181659999264,0.29444444444444445
0.0181659999264,0.3
0.018328039173,0.3055555555555556
0.018328039173,0.3111111111111111
0.0186103876058,0.31666666666666665
0.0186103876058,0.32222222222222224
0.0186587908792,0.3277777777777778
0.0186587908792,0.3333333333333333
0.0186914594568,0.3388888888888889
0.0186914594568,0.34444444444444444
0.0187328609543,0.35
0.0187328609543,0.35555555555555557
0.0187351197028,0.3611111111111111
0.0187351197028,0.36666666666666664
0.0189225385959,0.37222222222222223
0.0189225385959,0.37777777777777777
0.0191608086284,0.38333333333333336
0.0191608086284,0.3888888888888889
0.0191786259657,0.39444444444444443
0.0191786259657,0.4
0.0194251065128,0.40555555555555556
0.0194251065128,0.4111111111111111
0.0195927707273,0.4166666666666667
0.0195927707273,0.4222222222222222
0.0196654404066,0.42777777777777776
0.0196654404066,0.43333333333333335
0.0199792527327,0.4388888888888889
0.0199792527327,0.4444444444444444
0.44247453851,0.45
0.44247453851,0.45555555555555555
0.505330581865,0.46111111111111114
0.505330581865,0.4666666666666667
0.562936710665,0.4722222222222222
0.562936710665,0.4777777777777778
0.566996567548,0.48333333333333334
0.566996567548,0.4888888888888889
0.970432029292,0.49444444444444446
0.970432029292,0.5
1.16925433307,0.5055555555555555
1.16925433307,0.5111111111111111
1.41052334068,0.5166666666666667
1.41052334068,0.5222222222222223
1.43845289988,0.5277777777777778
1.43845289988,0.5333333333333333
1.71659039285,0.5388888888888889
1.71659039285,0.5444444444444444
2.02713353184,0.55
2.02713353184,0.5555555555555556
2.05426878937,0.5611111111111111
2.05426878937,0.5666666666666667
2.10953442181,0.5722222222222222
2.10953442181,0.5777777777777777
2.12343134274,0.5833333333333334
2.12343134274,0.5888888888888889
2.12651242893,0.5944444444444444
2.12651242893,0.6
2.21293647406,0.6055555555555555
2.21293647406,0.6111111111111112
2.2169854744,0.6166666666666667
2.2169854744,0.6222222222222222
2.29869111711,0.6277777777777778
2.29869111711,0.6333333333333333
2.34705574442,0.6388888888888888
2.34705574442,0.6444444444444445
2.48128249458,0.65
2.48128249458,0.6555555555555556
2.53258533259,0.6611111111111111
2.53258533259,0.6666666666666666
2.57789103239,0.6722222222222223
2.57789103239,0.6777777777777778
2.59118085143,0.6833333333333333
2.59118085143,0.6888888888888889
2.70552577413,0.6944444444444444
2.70552577413,0.7
2.87561361814,0.7055555555555556
2.87561361814,0.7111111111111111
2.93382956304,0.7166666666666667
2.93382956304,0.7222222222222222
2.9740537455,0.7277777777777777
2.9740537455,0.7333333333333333
3.30672859856,0.7388888888888889
3.30672859856,0.7444444444444445
3.97924955782,0.75
3.97924955782,0.7555555555555555
4.09730658102,0.7611111111111111
4.09730658102,0.7666666666666667
4.13704965111,0.7722222222222223
4.13704965111,0.7777777777777778
4.3436533677,0.7833333333333333
4.3436533677,0.7888888888888889
4.37136332132,0.7944444444444444
4.37136332132,0.8
4.40535112508,0.8055555555555556
4.40535112508,0.8111111111111111
4.83047017821,0.8166666666666667
4.83047017821,0.8222222222222222
5.03777960938,0.8277777777777777
5.03777960938,0.8333333333333334
5.05022240173,0.8388888888888889
5.05022240173,0.8444444444444444
5.53724254,0.85
5.53724254,0.8555555555555555
5.99737602952,0.8611111111111112
5.99737602952,0.8666666666666667
6.19872001171,0.8722222222222222
6.19872001171,0.8777777777777778
6.85157745295,0.8833333333333333
6.85157745295,0.8888888888888888
6.88909840398,0.8944444444444445
6.88909840398,0.9
7.54222893557,0.9055555555555556
7.54222893557,0.9111111111111111
7.68220371281,0.9166666666666666
7.68220371281,0.9222222222222223
8.29348045992,0.9277777777777778
8.29348045992,0.9333333333333333
8.94499335369,0.9388888888888889
8.94499335369,0.9444444444444444
8.99984079436,0.95
8.99984079436,0.9555555555555556
9.24571565161,0.9611111111111111
9.24571565161,0.9666666666666667
10.2517890404,0.9722222222222222
10.2517890404,0.9777777777777777
11.1547249899,0.9833333333333333
11.1547249899,0.9888888888888889
11.5449691891,0.9944444444444445
11.5449691891,1.0
