Congestion,CDF
0.00174757552416,0.005555555555555556
0.00174757552416,0.011111111111111112
0.00174777558484,0.016666666666666666
0.00174777558484,0.022222222222222223
0.00174970033638,0.027777777777777776
0.00174970033638,0.03333333333333333
0.00175129019135,0.03888888888888889
0.00175129019135,0.044444444444444446
0.00175140692772,0.05
0.00175140692772,0.05555555555555555
0.00175304949098,0.06111111111111111
0.00175304949098,0.06666666666666667
0.0017537252614,0.07222222222222222
0.0017537252614,0.07777777777777778
0.00175651904206,0.08333333333333333
0.00175651904206,0.08888888888888889
0.0017565716619,0.09444444444444444
0.0017565716619,0.1
0.00175680654395,0.10555555555555556
0.00175680654395,0.1111111111111111
0.00175702107229,0.11666666666666667
0.00175702107229,0.12222222222222222
0.00175809038033,0.12777777777777777
0.00175809038033,0.13333333333333333
0.00175836054645,0.1388888888888889
0.00175836054645,0.14444444444444443
0.00175974894495,0.15
0.00175974894495,0.15555555555555556
0.00176006950146,0.16111111111111112
0.00176006950146,0.16666666666666666
0.00176078796251,0.17222222222222222
0.00176078796251,0.17777777777777778
0.00176300862453,0.18333333333333332
0.00176300862453,0.18888888888888888
0.00176455069801,0.19444444444444445
0.00176455069801,0.2
0.00176533788949,0.20555555555555555
0.00176533788949,0.2111111111111111
0.00176608102221,0.21666666666666667
0.00176608102221,0.2222222222222222
0.00176638574111,0.22777777777777777
0.00176638574111,0.23333333333333334
0.00176654286688,0.2388888888888889
0.00176654286688,0.24444444444444444
0.00176719525363,0.25
0.00176719525363,0.25555555555555554
0.0017679006502,0.2611111111111111
0.0017679006502,0.26666666666666666
0.00176825464935,0.2722222222222222
0.00176825464935,0.2777777777777778
0.00176849525196,0.2833333333333333
0.00176849525196,0.28888888888888886
0.0017686148567,0.29444444444444445
0.0017686148567,0.3
0.00176886322663,0.3055555555555556
0.00176886322663,0.3111111111111111
0.00176907696659,0.31666666666666665
0.00176907696659,0.32222222222222224
0.00176912536871,0.3277777777777778
0.00176912536871,0.3333333333333333
0.00176986374438,0.3388888888888889
0.00176986374438,0.34444444444444444
0.00177005412798,0.35
0.00177005412798,0.35555555555555557
0.00177031780276,0.3611111111111111
0.00177031780276,0.36666666666666664
0.00177223891276,0.37222222222222223
0.00177223891276,0.37777777777777777
0.00177305494571,0.38333333333333336
0.00177305494571,0.3888888888888889
0.00177354298447,0.39444444444444443
0.00177354298447,0.4
0.00177578041169,0.40555555555555556
0.00177578041169,0.4111111111111111
0.00177622741147,0.4166666666666667
0.00177622741147,0.4222222222222222
0.0017766393469,0.42777777777777776
0.0017766393469,0.43333333333333335
0.00177762041818,0.4388888888888889
0.00177762041818,0.4444444444444444
0.0604889419145,0.45
0.0604889419145,0.45555555555555555
0.0649524148866,0.46111111111111114
0.0649524148866,0.4666666666666667
0.0848224637718,0.4722222222222222
0.0848224637718,0.4777777777777778
0.0997745058806,0.48333333333333334
0.0997745058806,0.4888888888888889
0.11519924529,0.49444444444444446
0.11519924529,0.5
0.151488056979,0.5055555555555555
0.151488056979,0.5111111111111111
0.154371062271,0.5166666666666667
0.154371062271,0.5222222222222223
0.156789023021,0.5277777777777778
0.156789023021,0.5333333333333333
0.191443792742,0.5388888888888889
0.191443792742,0.5444444444444444
0.194004914242,0.55
0.194004914242,0.5555555555555556
0.200440688488,0.5611111111111111
0.200440688488,0.5666666666666667
0.20065367945,0.5722222222222222
0.20065367945,0.5777777777777777
0.205913645602,0.5833333333333334
0.205913645602,0.5888888888888889
0.215217151929,0.5944444444444444
0.215217151929,0.6
0.223356841477,0.6055555555555555
0.223356841477,0.6111111111111112
0.231862222775,0.6166666666666667
0.231862222775,0.6222222222222222
0.234832889047,0.6277777777777778
0.234832889047,0.6333333333333333
0.23699827876,0.6388888888888888
0.23699827876,0.6444444444444445
0.241071227484,0.65
0.241071227484,0.6555555555555556
0.241945408914,0.6611111111111111
0.241945408914,0.6666666666666666
0.254487633339,0.6722222222222223
0.254487633339,0.6777777777777778
0.258772056599,0.6833333333333333
0.258772056599,0.6888888888888889
0.259868045648,0.6944444444444444
0.259868045648,0.7
0.267688770563,0.7055555555555556
0.267688770563,0.7111111111111111
0.278958214296,0.7166666666666667
0.278958214296,0.7222222222222222
0.290928271056,0.7277777777777777
0.290928271056,0.7333333333333333
0.305787721672,0.7388888888888889
0.305787721672,0.7444444444444445
0.341584579265,0.75
0.341584579265,0.7555555555555555
0.348223003195,0.7611111111111111
0.348223003195,0.7666666666666667
0.355801261704,0.7722222222222223
0.355801261704,0.7777777777777778
0.364860667349,0.7833333333333333
0.364860667349,0.7888888888888889
0.385775814761,0.7944444444444444
0.385775814761,0.8
0.391245822022,0.8055555555555556
0.391245822022,0.8111111111111111
0.402029631146,0.8166666666666667
0.402029631146,0.8222222222222222
0.4260717157,0.8277777777777777
0.4260717157,0.8333333333333334
0.44074640065,0.8388888888888889
0.44074640065,0.8444444444444444
0.46237796072,0.85
0.46237796072,0.8555555555555555
0.500495624465,0.8611111111111112
0.500495624465,0.8666666666666667
0.535935157825,0.8722222222222222
0.535935157825,0.8777777777777778
0.551004475933,0.8833333333333333
0.551004475933,0.8888888888888888
0.561523922652,0.8944444444444445
0.561523922652,0.9
0.601896081739,0.9055555555555556
0.601896081739,0.9111111111111111
0.636536940761,0.9166666666666666
0.636536940761,0.9222222222222223
0.651748713096,0.9277777777777778
0.651748713096,0.9333333333333333
0.720112812024,0.9388888888888889
0.720112812024,0.9444444444444444
0.741984968758,0.95
0.741984968758,0.9555555555555556
0.766615999619,0.9611111111111111
0.766615999619,0.9666666666666667
0.799609587133,0.9722222222222222
0.799609587133,0.9777777777777777
0.867793540803,0.9833333333333333
0.867793540803,0.9888888888888889
0.910578885684,0.9944444444444445
0.910578885684,1.0
