Congestion,CDF
0.0,0.007352941176470588
0.0,0.014705882352941176
0.0,0.022058823529411766
0.0,0.029411764705882353
0.0,0.03676470588235294
0.0,0.04411764705882353
0.0,0.051470588235294115
0.0,0.058823529411764705
0.0,0.0661764705882353
0.0,0.07352941176470588
0.0,0.08088235294117647
0.0,0.08823529411764706
0.0,0.09558823529411764
0.0,0.10294117647058823
3.99816808263e-06,0.11029411764705882
3.99816808263e-06,0.11764705882352941
3.99816808263e-06,0.125
3.99816808263e-06,0.1323529411764706
3.99816808263e-06,0.13970588235294118
3.99816808263e-06,0.14705882352941177
3.99816808263e-06,0.15441176470588236
3.99816808263e-06,0.16176470588235295
3.99816808263e-06,0.16911764705882354
3.99816808263e-06,0.17647058823529413
3.99816808263e-06,0.18382352941176472
3.99816808263e-06,0.19117647058823528
3.99816808263e-06,0.19852941176470587
3.99816808263e-06,0.20588235294117646
3.99816808263e-06,0.21323529411764705
3.99816808263e-06,0.22058823529411764
3.99816808263e-06,0.22794117647058823
3.99816808263e-06,0.23529411764705882
3.99816808263e-06,0.2426470588235294
3.99816808263e-06,0.25
3.99816808263e-06,0.25735294117647056
3.99816808263e-06,0.2647058823529412
3.99816808263e-06,0.27205882352941174
3.99816808263e-06,0.27941176470588236
3.99816808263e-06,0.2867647058823529
3.99816808263e-06,0.29411764705882354
3.99816808263e-06,0.3014705882352941
9.99542020658e-05,0.3088235294117647
9.99542020658e-05,0.3161764705882353
0.000107950538231,0.3235294117647059
0.000199908404132,0.33088235294117646
0.000199908404132,0.3382352941176471
0.000199908404132,0.34558823529411764
0.000199908404132,0.35294117647058826
0.000299862606198,0.3602941176470588
0.000333180673553,0.36764705882352944
0.000333180673553,0.375
0.000333180673553,0.38235294117647056
0.000340584969346,0.3897058823529412
0.000399816808263,0.39705882352941174
0.000399816808263,0.40441176470588236
0.000399816808263,0.4117647058823529
0.000399816808263,0.41911764705882354
0.000399816808263,0.4264705882352941
0.000399816808263,0.4338235294117647
0.000399816808263,0.4411764705882353
0.000499771010329,0.4485294117647059
0.000599725212395,0.45588235294117646
0.000599725212395,0.4632352941176471
0.000732997481816,0.47058823529411764
0.000799633616527,0.47794117647058826
0.000799633616527,0.4852941176470588
0.00117189253659,0.49264705882352944
0.00119945042479,0.5
0.00163258530041,0.5073529411764706
0.00289867185991,0.5147058823529411
0.00296530799462,0.5220588235294118
0.00383157774586,0.5294117647058824
0.0047644836318,0.5367647058823529
0.00483111976652,0.5441176470588235
0.00516430044007,0.5514705882352942
0.00523093657478,0.5588235294117647
0.00563075338304,0.5661764705882353
0.00785206770425,0.5735294117647058
0.00804565764754,0.5808823529411765
0.00832618522442,0.5882352941176471
0.00842999218449,0.5955882352941176
0.00850561080399,0.6029411764705882
0.0085653698905,0.6102941176470589
0.00878516955722,0.6176470588235294
0.00883051039212,0.625
0.00886853341192,0.6323529411764706
0.00887469241835,0.6397058823529411
0.00887740447259,0.6470588235294118
0.00887908291705,0.6544117647058824
0.00888231312017,0.6617647058823529
0.00888256642865,0.6691176470588235
0.00888676229817,0.6764705882352942
0.00890043639374,0.6838235294117647
0.00891196553965,0.6911764705882353
0.00893665880743,0.6985294117647058
0.008947724313,0.7058823529411765
0.00894777032936,0.7132352941176471
0.00894795575719,0.7205882352941176
0.00894797013751,0.7279411764705882
0.00894807829264,0.7352941176470589
0.00894808787983,0.7426470588235294
0.00894808787983,0.75
0.220389131308,0.7573529411764706
0.222057828004,0.7647058823529411
0.222510909843,0.7720588235294118
0.428268494525,0.7794117647058824
0.428268494525,0.7867647058823529
0.445598276982,0.7941176470588235
0.445598276982,0.8014705882352942
0.666173484012,0.8088235294117647
0.740654285469,0.8161764705882353
0.740654285469,0.8235294117647058
0.740654285469,0.8308823529411765
0.850561080399,0.8382352941176471
0.887740447259,0.8455882352941176
0.890043639374,0.8529411764705882
0.894777032936,0.8602941176470589
0.894797013751,0.8676470588235294
0.894808787983,0.875
0.894808787983,0.8823529411764706
1.10996611971,0.8897058823529411
1.26088701697,0.8970588235294118
1.3342745068,0.9044117647058824
1.62370532468,0.9117647058823529
1.69356029885,0.9191176470588235
1.78959258947,0.9264705882352942
2.68442540523,0.9338235294117647
3.62583009427,0.9411764705882353
6.48607836878,0.9485294117647058
6.5563208692,0.9558823529411765
8.56599681197,0.9632352941176471
10.2959749554,0.9705882352941176
10.4131642091,0.9779411764705882
10.78712466,0.9852941176470589
11.5916904247,0.9926470588235294
11.6257489217,1.0
