Congestion,CDF
0.0,0.007352941176470588
0.0,0.014705882352941176
0.0,0.022058823529411766
0.0,0.029411764705882353
0.0,0.03676470588235294
0.0,0.04411764705882353
0.0,0.051470588235294115
0.0,0.058823529411764705
0.0,0.0661764705882353
0.0,0.07352941176470588
0.0,0.08088235294117647
0.0,0.08823529411764706
0.0,0.09558823529411764
0.0,0.10294117647058823
1.41758080894e-06,0.11029411764705882
1.41758080894e-06,0.11764705882352941
1.41758080894e-06,0.125
1.41758080894e-06,0.1323529411764706
1.41758080894e-06,0.13970588235294118
1.41758080894e-06,0.14705882352941177
1.41758080894e-06,0.15441176470588236
1.41758080894e-06,0.16176470588235295
1.41758080894e-06,0.16911764705882354
1.41758080894e-06,0.17647058823529413
1.41758080894e-06,0.18382352941176472
1.41758080894e-06,0.19117647058823528
1.41758080894e-06,0.19852941176470587
1.41758080894e-06,0.20588235294117646
1.41758080894e-06,0.21323529411764705
1.41758080894e-06,0.22058823529411764
1.41758080894e-06,0.22794117647058823
1.41758080894e-06,0.23529411764705882
1.41758080894e-06,0.2426470588235294
1.41758080894e-06,0.25
1.41758080894e-06,0.25735294117647056
1.41758080894e-06,0.2647058823529412
1.41758080894e-06,0.27205882352941174
1.41758080894e-06,0.27941176470588236
1.41758080894e-06,0.2867647058823529
1.41758080894e-06,0.29411764705882354
1.41758080894e-06,0.3014705882352941
3.54395202235e-05,0.3088235294117647
3.54395202235e-05,0.3161764705882353
3.82746818414e-05,0.3235294117647059
7.0879040447e-05,0.33088235294117646
7.0879040447e-05,0.3382352941176471
7.0879040447e-05,0.34558823529411764
7.0879040447e-05,0.35294117647058826
0.00010631856067,0.3602941176470588
0.000118131734078,0.36764705882352944
0.000118131734078,0.375
0.000118131734078,0.38235294117647056
0.000141758080894,0.3897058823529412
0.000141758080894,0.39705882352941174
0.000141758080894,0.40441176470588236
0.000141758080894,0.4117647058823529
0.000141758080894,0.41911764705882354
0.000141758080894,0.4264705882352941
0.000141758080894,0.4338235294117647
0.000177197601117,0.4411764705882353
0.000212637121341,0.4485294117647059
0.000212637121341,0.45588235294117646
0.000259889814972,0.4632352941176471
0.000283516161788,0.47058823529411764
0.000283516161788,0.47794117647058826
0.000425274242682,0.4852941176470588
0.000578845496984,0.49264705882352944
0.00102774608648,0.5
0.0010513724333,0.5073529411764706
0.0013585149419,0.5147058823529411
0.00168928379732,0.5220588235294118
0.00171291014414,0.5294117647058824
0.00183104187821,0.5367647058823529
0.00185466822503,0.5441176470588235
0.00199642630592,0.5514705882352942
0.0189422319837,0.5588235294117647
0.0192731288036,0.5661764705882353
0.0225822492432,0.5735294117647058
0.022666687406,0.5808823529411765
0.0226717520378,0.5882352941176471
0.0227182410939,0.5955882352941176
0.0227314618298,0.6029411764705882
0.0228084725052,0.6102941176470589
0.022946638708,0.6176470588235294
0.0229611731893,0.625
0.0229965753032,0.6323529411764706
0.0229971447158,0.6397058823529411
0.0229978170595,0.6470588235294118
0.0230024772499,0.6544117647058824
0.0230038863892,0.6617647058823529
0.0230065626678,0.6691176470588235
0.0230111255368,0.6764705882352942
0.0230189263115,0.6838235294117647
0.0230319900024,0.6911764705882353
0.0230528812521,0.6985294117647058
0.0230625804505,0.7058823529411765
0.0230625913546,0.7132352941176471
0.0230627217797,0.7205882352941176
0.0230627253817,0.7279411764705882
0.0230628259809,0.7352941176470589
0.0230628283823,0.7426470588235294
0.0230628283823,0.75
0.575061931248,0.7573529411764706
0.575473157786,0.7647058823529411
0.611860525,0.7720588235294118
1.14042362526,0.7794117647058824
1.14042362526,0.7867647058823529
1.15159950012,0.7941176470588235
1.15159950012,0.8014705882352942
1.72518579374,0.8088235294117647
1.91733130201,0.8161764705882353
1.91733130201,0.8235294117647058
1.91733130201,0.8308823529411765
2.27314618298,0.8382352941176471
2.29971447158,0.8455882352941176
2.30189263115,0.8529411764705882
2.30625913546,0.8602941176470589
2.30627253817,0.8676470588235294
2.30628283823,0.875
2.30628283823,0.8823529411764706
2.8748436372,0.8897058823529411
3.40759882904,0.8970588235294118
3.4527120538,0.9044117647058824
4.21344862094,0.9117647058823529
4.54497029237,0.9191176470588235
4.61254471614,0.9264705882352942
6.91884827454,0.9338235294117647
9.39154694111,0.9411764705882353
16.719383329,0.9485294117647058
17.0400830581,0.9558823529411765
22.0936022563,0.9632352941176471
27.2508771038,0.9705882352941176
27.8469705769,0.9779411764705882
29.1451003022,0.9852941176470589
30.1136393175,0.9926470588235294
32.0409521978,1.0
