Congestion,CDF
0.0,0.007352941176470588
0.0,0.014705882352941176
0.0,0.022058823529411766
0.0,0.029411764705882353
0.0,0.03676470588235294
0.0,0.04411764705882353
0.0,0.051470588235294115
0.0,0.058823529411764705
0.0,0.0661764705882353
0.0,0.07352941176470588
0.0,0.08088235294117647
0.0,0.08823529411764706
0.0,0.09558823529411764
0.0,0.10294117647058823
1.05696550839e-06,0.11029411764705882
1.05696550839e-06,0.11764705882352941
1.05696550839e-06,0.125
1.05696550839e-06,0.1323529411764706
1.05696550839e-06,0.13970588235294118
1.05696550839e-06,0.14705882352941177
1.05696550839e-06,0.15441176470588236
1.05696550839e-06,0.16176470588235295
1.05696550839e-06,0.16911764705882354
1.05696550839e-06,0.17647058823529413
1.05696550839e-06,0.18382352941176472
1.05696550839e-06,0.19117647058823528
1.05696550839e-06,0.19852941176470587
1.05696550839e-06,0.20588235294117646
1.05696550839e-06,0.21323529411764705
1.05696550839e-06,0.22058823529411764
1.05696550839e-06,0.22794117647058823
1.05696550839e-06,0.23529411764705882
1.05696550839e-06,0.2426470588235294
1.05696550839e-06,0.25
1.05696550839e-06,0.25735294117647056
1.05696550839e-06,0.2647058823529412
1.05696550839e-06,0.27205882352941174
1.05696550839e-06,0.27941176470588236
1.05696550839e-06,0.2867647058823529
1.05696550839e-06,0.29411764705882354
1.05696550839e-06,0.3014705882352941
2.64241377098e-05,0.3088235294117647
2.64241377098e-05,0.3161764705882353
2.85380687266e-05,0.3235294117647059
5.28482754196e-05,0.33088235294117646
5.28482754196e-05,0.3382352941176471
5.28482754196e-05,0.34558823529411764
5.28482754196e-05,0.35294117647058826
7.92724131295e-05,0.3602941176470588
8.80804590327e-05,0.36764705882352944
8.80804590327e-05,0.375
8.80804590327e-05,0.38235294117647056
0.000105696550839,0.3897058823529412
0.000105696550839,0.39705882352941174
0.000105696550839,0.40441176470588236
0.000105696550839,0.4117647058823529
0.000105696550839,0.41911764705882354
0.000105696550839,0.4264705882352941
0.000105696550839,0.4338235294117647
0.000132120688549,0.4411764705882353
0.000158544826259,0.4485294117647059
0.000158544826259,0.45588235294117646
0.000193777009872,0.4632352941176471
0.000211393101679,0.47058823529411764
0.000211393101679,0.47794117647058826
0.000317089652518,0.4852941176470588
0.00043159424926,0.49264705882352944
0.000766299993585,0.5
0.000783916085391,0.5073529411764706
0.00101292527888,0.5147058823529411
0.00125955056417,0.5220588235294118
0.00127716665597,0.5294117647058824
0.00136524711501,0.5367647058823529
0.00138286320681,0.5441176470588235
0.00148855975765,0.5514705882352942
0.0225502062684,0.5588235294117647
0.0232023344894,0.5661764705882353
0.0304936324785,0.5735294117647058
0.0306043444255,0.5808823529411765
0.030700451001,0.5882352941176471
0.0307556979761,0.5955882352941176
0.0307859936945,0.6029411764705882
0.030857389458,0.6102941176470589
0.0310033940007,0.6176470588235294
0.0310236865496,0.625
0.0310598378704,0.6323529411764706
0.0310607988254,0.6397058823529411
0.0310615151051,0.6470588235294118
0.031066195546,0.6544117647058824
0.0310668337958,0.6617647058823529
0.0310674576644,0.6691176470588235
0.0310741594101,0.6764705882352942
0.0310827148021,0.6838235294117647
0.0310955150308,0.6911764705882353
0.0311166235239,0.6985294117647058
0.0311264477068,0.7058823529411765
0.0311264627221,0.7132352941176471
0.0311265943429,0.7205882352941176
0.0311265986901,0.7279411764705882
0.0311266989427,0.7352941176470589
0.0311267018409,0.7426470588235294
0.0311267018409,0.75
0.776654888649,0.7573529411764706
0.777067870053,0.7647058823529411
0.820614988002,0.7720588235294118
1.5428694729,0.7794117647058824
1.5428694729,0.7867647058823529
1.55477575154,0.7941176470588235
1.55477575154,0.8014705882352942
2.32996466595,0.8088235294117647
2.58930468085,0.8161764705882353
2.58930468085,0.8235294117647058
2.58930468085,0.8308823529411765
3.07859936945,0.8382352941176471
3.10607988254,0.8455882352941176
3.10827148021,0.8529411764705882
3.11264627221,0.8602941176470589
3.11265986901,0.8676470588235294
3.11267018409,0.875
3.11267018409,0.8823529411764706
3.88280639916,0.8897058823529411
4.612914573,0.8970588235294118
4.66219169255,0.9044117647058824
5.69167333581,0.9117647058823529
6.15416916705,0.9191176470588235
6.22531930331,0.9264705882352942
9.33801026245,0.9338235294117647
12.6841747496,0.9411764705882353
22.5656884787,0.9485294117647058
23.0190569584,0.9558823529411765
29.8214312635,0.9632352941176471
36.8355039463,0.9705882352941176
37.5903063356,0.9779411764705882
39.0905245731,0.9852941176470589
40.6507407782,0.9926470588235294
42.9709742271,1.0
