Congestion,CDF
0.0,0.007352941176470588
0.0,0.014705882352941176
0.0,0.022058823529411766
0.0,0.029411764705882353
0.0,0.03676470588235294
0.0,0.04411764705882353
0.0,0.051470588235294115
0.0,0.058823529411764705
0.0,0.0661764705882353
0.0,0.07352941176470588
0.0,0.08088235294117647
0.0,0.08823529411764706
0.0,0.09558823529411764
0.0,0.10294117647058823
1.65452405818e-06,0.11029411764705882
1.65452405818e-06,0.11764705882352941
1.65452405818e-06,0.125
1.65452405818e-06,0.1323529411764706
1.65452405818e-06,0.13970588235294118
1.65452405818e-06,0.14705882352941177
1.65452405818e-06,0.15441176470588236
1.65452405818e-06,0.16176470588235295
1.65452405818e-06,0.16911764705882354
1.65452405818e-06,0.17647058823529413
1.65452405818e-06,0.18382352941176472
1.65452405818e-06,0.19117647058823528
1.65452405818e-06,0.19852941176470587
1.65452405818e-06,0.20588235294117646
1.65452405818e-06,0.21323529411764705
1.65452405818e-06,0.22058823529411764
1.65452405818e-06,0.22794117647058823
1.65452405818e-06,0.23529411764705882
1.65452405818e-06,0.2426470588235294
1.65452405818e-06,0.25
1.65452405818e-06,0.25735294117647056
1.65452405818e-06,0.2647058823529412
1.65452405818e-06,0.27205882352941174
1.65452405818e-06,0.27941176470588236
1.65452405818e-06,0.2867647058823529
1.65452405818e-06,0.29411764705882354
1.65452405818e-06,0.3014705882352941
4.13631014546e-05,0.3088235294117647
4.13631014546e-05,0.3161764705882353
4.4672149571e-05,0.3235294117647059
8.27262029092e-05,0.33088235294117646
8.27262029092e-05,0.3382352941176471
8.27262029092e-05,0.34558823529411764
8.27262029092e-05,0.35294117647058826
0.000124089304364,0.3602941176470588
0.000137877004849,0.36764705882352944
0.000137877004849,0.375
0.000137877004849,0.38235294117647056
0.000165452405818,0.3897058823529412
0.000165452405818,0.39705882352941174
0.000165452405818,0.40441176470588236
0.000165452405818,0.4117647058823529
0.000165452405818,0.41911764705882354
0.000165452405818,0.4264705882352941
0.000165452405818,0.4338235294117647
0.000206815507273,0.4411764705882353
0.000248178608728,0.4485294117647059
0.000248178608728,0.45588235294117646
0.000303329410667,0.4632352941176471
0.000330904811637,0.47058823529411764
0.000330904811637,0.47794117647058826
0.000496357217455,0.4852941176470588
0.000675597323759,0.49264705882352944
0.00119952994218,0.5
0.00122710534315,0.5073529411764706
0.00158558555576,0.5147058823529411
0.00197164116934,0.5220588235294118
0.00199921657031,0.5294117647058824
0.00213709357515,0.5367647058823529
0.00216466897612,0.5441176470588235
0.00233012138194,0.5514705882352942
0.0162997505717,0.5588235294117647
0.0165813966394,0.5661764705882353
0.0193199232313,0.5735294117647058
0.0193876718976,0.5808823529411765
0.0193985578679,0.5882352941176471
0.0194313229152,0.5955882352941176
0.0194403772615,0.6029411764705882
0.0195198684803,0.6102941176470589
0.019653448631,0.6176470588235294
0.019666312018,0.625
0.0197013611886,0.6323529411764706
0.0197017887533,0.6397058823529411
0.0197024318486,0.6470588235294118
0.0197071064653,0.6544117647058824
0.0197085855231,0.6617647058823529
0.0197122260103,0.6691176470588235
0.0197160174001,0.6764705882352942
0.0197235018168,0.6838235294117647
0.0197367158667,0.6911764705882353
0.0197574407685,0.6985294117647058
0.0197670825807,0.7058823529411765
0.0197670913566,0.7132352941176471
0.0197672206922,0.7205882352941176
0.0197672237559,0.7279411764705882
0.0197673245302,0.7352941176470589
0.0197673265727,0.7426470588235294
0.0197673265727,0.75
0.492677661632,0.7573529411764706
0.49308754542,0.7647058823529411
0.524236401216,0.7720588235294118
0.975993424013,0.7794117647058824
0.975993424013,0.7867647058823529
0.986835793337,0.7941176470588235
0.986835793337,0.8014705882352942
1.4780329849,0.8088235294117647
1.64271805782,0.8161764705882353
1.64271805782,0.8235294117647058
1.64271805782,0.8308823529411765
1.94403772615,0.8382352941176471
1.97017887533,0.8455882352941176
1.97235018168,0.8529411764705882
1.97670913566,0.8602941176470589
1.97672237559,0.8676470588235294
1.97673265727,0.875
1.97673265727,0.8823529411764706
2.46292084649,0.8897058823529411
2.91476061378,0.8970588235294118
2.95843753335,0.9044117647058824
3.60934925962,0.9117647058823529
3.88717001767,0.9191176470588235
3.9534444448,0.9264705882352942
5.93019776756,0.9338235294117647
8.0459538985,0.9411764705882353
14.3301471515,0.9485294117647058
14.5966414452,0.9558823529411765
18.9354450795,0.9632352941176471
23.3305643998,0.9705882352941176
23.8651052139,0.9779411764705882
24.960539457,0.9852941176470589
25.8049610007,0.9926470588235294
27.4631006646,1.0
