Congestion,CDF
0.0,0.007352941176470588
0.0,0.014705882352941176
0.0,0.022058823529411766
0.0,0.029411764705882353
0.0,0.03676470588235294
0.0,0.04411764705882353
0.0,0.051470588235294115
0.0,0.058823529411764705
0.0,0.0661764705882353
0.0,0.07352941176470588
0.0,0.08088235294117647
0.0,0.08823529411764706
0.0,0.09558823529411764
0.0,0.10294117647058823
1.40285684916e-06,0.11029411764705882
1.40285684916e-06,0.11764705882352941
1.40285684916e-06,0.125
1.40285684916e-06,0.1323529411764706
1.40285684916e-06,0.13970588235294118
1.40285684916e-06,0.14705882352941177
1.40285684916e-06,0.15441176470588236
1.40285684916e-06,0.16176470588235295
1.40285684916e-06,0.16911764705882354
1.40285684916e-06,0.17647058823529413
1.40285684916e-06,0.18382352941176472
1.40285684916e-06,0.19117647058823528
1.40285684916e-06,0.19852941176470587
1.40285684916e-06,0.20588235294117646
1.40285684916e-06,0.21323529411764705
1.40285684916e-06,0.22058823529411764
1.40285684916e-06,0.22794117647058823
1.40285684916e-06,0.23529411764705882
1.40285684916e-06,0.2426470588235294
1.40285684916e-06,0.25
1.40285684916e-06,0.25735294117647056
1.40285684916e-06,0.2647058823529412
1.40285684916e-06,0.27205882352941174
1.40285684916e-06,0.27941176470588236
1.40285684916e-06,0.2867647058823529
1.40285684916e-06,0.29411764705882354
1.40285684916e-06,0.3014705882352941
3.50714212289e-05,0.3088235294117647
3.50714212289e-05,0.3161764705882353
3.78771349273e-05,0.3235294117647059
7.01428424579e-05,0.33088235294117646
7.01428424579e-05,0.3382352941176471
7.01428424579e-05,0.34558823529411764
7.01428424579e-05,0.35294117647058826
0.000105214263687,0.3602941176470588
0.00011690473743,0.36764705882352944
0.00011690473743,0.375
0.00011690473743,0.38235294117647056
0.000140285684916,0.3897058823529412
0.000140285684916,0.39705882352941174
0.000140285684916,0.40441176470588236
0.000140285684916,0.4117647058823529
0.000140285684916,0.41911764705882354
0.000140285684916,0.4264705882352941
0.000140285684916,0.4338235294117647
0.000175357106145,0.4411764705882353
0.000210428527374,0.4485294117647059
0.000210428527374,0.45588235294117646
0.000257190422346,0.4632352941176471
0.000280571369832,0.47058823529411764
0.000280571369832,0.47794117647058826
0.000420857054747,0.4852941176470588
0.000572833213406,0.49264705882352944
0.00101707121564,0.5
0.00104045216313,0.5073529411764706
0.00134440448044,0.5147058823529411
0.00167173774525,0.5220588235294118
0.00169511869273,0.5294117647058824
0.00181202343016,0.5367647058823529
0.00183540437765,0.5441176470588235
0.00197569006256,0.5514705882352942
0.0181858627168,0.5588235294117647
0.0186108851815,0.5661764705882353
0.0227642543808,0.5735294117647058
0.0228857541169,0.5808823529411765
0.0228884548916,0.5882352941176471
0.0229321007154,0.5955882352941176
0.0229494518064,0.6029411764705882
0.0230659611017,0.6102941176470589
0.0232489486019,0.6176470588235294
0.0232664960445,0.625
0.0233035275054,0.6323529411764706
0.0233043248192,0.6397058823529411
0.0233050290728,0.6470588235294118
0.0233239115161,0.6544117647058824
0.0233299933654,0.6617647058823529
0.0233489300742,0.6691176470588235
0.0233554408705,0.6764705882352942
0.0233568459336,0.6838235294117647
0.0233871223486,0.6911764705882353
0.0234188715612,0.6985294117647058
0.0234354874112,0.7058823529411765
0.0234355035203,0.7132352941176471
0.0234356446712,0.7205882352941176
0.0234356502567,0.7279411764705882
0.0234359891549,0.7352941176470589
0.0234359928793,0.7426470588235294
0.0234359928793,0.75
0.583097787903,0.7573529411764706
0.583921148341,0.7647058823529411
0.618282427397,0.7720588235294118
1.15329805509,0.7794117647058824
1.15329805509,0.7867647058823529
1.16935611743,0.7941176470588235
1.16935611743,0.8014705882352942
1.74929336371,0.8088235294117647
1.94468538176,0.8161764705882353
1.94468538176,0.8235294117647058
1.94468538176,0.8308823529411765
2.29494518064,0.8382352941176471
2.33043248192,0.8455882352941176
2.33568459336,0.8529411764705882
2.34355035203,0.8602941176470589
2.34356502567,0.8676470588235294
2.34359928793,0.875
2.34359928793,0.8823529411764706
2.91360069518,0.8897058823529411
3.44187346677,0.8970588235294118
3.50490020448,0.9044117647058824
4.2713349862,0.9117647058823529
4.58815525218,0.9191176470588235
4.68712949279,0.9264705882352942
7.03079749136,0.9338235294117647
9.5190713094,0.9411764705882353
16.9889472256,0.9485294117647058
17.2685992109,0.9558823529411765
22.4448758809,0.9632352941176471
27.5750533679,0.9705882352941176
28.2846690928,0.9779411764705882
29.3936396396,0.9852941176470589
30.573514582,0.9926470588235294
32.4346031001,1.0
