Congestion,CDF
0.0,0.007352941176470588
0.0,0.014705882352941176
0.0,0.022058823529411766
0.0,0.029411764705882353
0.0,0.03676470588235294
0.0,0.04411764705882353
0.0,0.051470588235294115
0.0,0.058823529411764705
0.0,0.0661764705882353
0.0,0.07352941176470588
0.0,0.08088235294117647
0.0,0.08823529411764706
0.0,0.09558823529411764
0.0,0.10294117647058823
1.80633877552e-06,0.11029411764705882
1.80633877552e-06,0.11764705882352941
1.80633877552e-06,0.125
1.80633877552e-06,0.1323529411764706
1.80633877552e-06,0.13970588235294118
1.80633877552e-06,0.14705882352941177
1.80633877552e-06,0.15441176470588236
1.80633877552e-06,0.16176470588235295
1.80633877552e-06,0.16911764705882354
1.80633877552e-06,0.17647058823529413
1.80633877552e-06,0.18382352941176472
1.80633877552e-06,0.19117647058823528
1.80633877552e-06,0.19852941176470587
1.80633877552e-06,0.20588235294117646
1.80633877552e-06,0.21323529411764705
1.80633877552e-06,0.22058823529411764
1.80633877552e-06,0.22794117647058823
1.80633877552e-06,0.23529411764705882
1.80633877552e-06,0.2426470588235294
1.80633877552e-06,0.25
1.80633877552e-06,0.25735294117647056
1.80633877552e-06,0.2647058823529412
1.80633877552e-06,0.27205882352941174
1.80633877552e-06,0.27941176470588236
1.80633877552e-06,0.2867647058823529
1.80633877552e-06,0.29411764705882354
1.80633877552e-06,0.3014705882352941
4.51584693879e-05,0.3088235294117647
4.51584693879e-05,0.3161764705882353
4.8771146939e-05,0.3235294117647059
9.03169387759e-05,0.33088235294117646
9.03169387759e-05,0.3382352941176471
9.03169387759e-05,0.34558823529411764
9.03169387759e-05,0.35294117647058826
0.000135475408164,0.3602941176470588
0.000150528231293,0.36764705882352944
0.000150528231293,0.375
0.000150528231293,0.38235294117647056
0.000180633877552,0.3897058823529412
0.000180633877552,0.39705882352941174
0.000180633877552,0.40441176470588236
0.000180633877552,0.4117647058823529
0.000180633877552,0.41911764705882354
0.000180633877552,0.4264705882352941
0.000180633877552,0.4338235294117647
0.00022579234694,0.4411764705882353
0.000270950816328,0.4485294117647059
0.000270950816328,0.45588235294117646
0.000331162108845,0.4632352941176471
0.000361267755104,0.47058823529411764
0.000361267755104,0.47794117647058826
0.000541901632655,0.4852941176470588
0.000737588333336,0.49264705882352944
0.00130959561225,0.5
0.00133970125851,0.5073529411764706
0.00173107465987,0.5147058823529411
0.00215255370749,0.5220588235294118
0.00218265935375,0.5294117647058824
0.00233318758504,0.5367647058823529
0.0023632932313,0.5441176470588235
0.00254392710885,0.5514705882352942
0.0142190223648,0.5588235294117647
0.0145518991998,0.5661764705882353
0.0176207439298,0.5735294117647058
0.0176985262981,0.5808823529411765
0.0177327162177,0.5882352941176471
0.0177389133099,0.5955882352941176
0.0177478137224,0.6029411764705882
0.0178690928482,0.6102941176470589
0.0180425499757,0.6176470588235294
0.0180566180728,0.625
0.0180928847924,0.6323529411764706
0.018093385388,0.6397058823529411
0.0180940240343,0.6470588235294118
0.0181129471782,0.6544117647058824
0.0181191769322,0.6617647058823529
0.0181400935828,0.6691176470588235
0.0181450178921,0.6764705882352942
0.0181457590416,0.6838235294117647
0.0181763365699,0.6911764705882353
0.0182077365546,0.6985294117647058
0.018224229718,0.7058823529411765
0.0182242412929,0.7132352941176471
0.0182243799542,0.7205882352941176
0.0182243843584,0.7279411764705882
0.0182247236082,0.7352941176470589
0.018224726545,0.7426470588235294
0.018224726545,0.75
0.452823679454,0.7573529411764706
0.453643976041,0.7647058823529411
0.480176669927,0.7720588235294118
0.893454642408,0.7794117647058824
0.893454642408,0.7867647058823529
0.908816828496,0.7941176470588235
0.908816828496,0.8014705882352942
1.35847103836,0.8088235294117647
1.5104402199,0.8161764705882353
1.5104402199,0.8235294117647058
1.5104402199,0.8308823529411765
1.77478137224,0.8382352941176471
1.8093385388,0.8455882352941176
1.81457590416,0.8529411764705882
1.82242412929,0.8602941176470589
1.82243843584,0.8676470588235294
1.8224726545,0.875
1.8224726545,0.8823529411764706
2.26222608289,0.8897058823529411
2.66330727222,0.8970588235294118
2.7233186177,0.9044117647058824
3.31610202718,0.9117647058823529
3.54867270323,0.9191176470588235
3.64487643127,0.9264705882352942
5.46741766981,0.9338235294117647
7.39129332083,0.9411764705882353
13.2107851782,0.9485294117647058
13.405104988,0.9558823529411765
17.4508158821,0.9632352941176471
21.3791593564,0.9705882352941176
21.9881438581,0.9779411764705882
22.8010615929,0.9852941176470589
23.7614154798,0.9926470588235294
25.2166053998,1.0
