Congestion,CDF
0.0,0.009433962264150943
0.0,0.018867924528301886
0.0,0.02830188679245283
0.0,0.03773584905660377
0.0,0.04716981132075472
0.0,0.05660377358490566
0.0,0.0660377358490566
0.0,0.07547169811320754
0.0,0.08490566037735849
0.0,0.09433962264150944
0.0,0.10377358490566038
0.0,0.11320754716981132
0.0,0.12264150943396226
0.0,0.1320754716981132
0.0,0.14150943396226415
0.0,0.1509433962264151
0.0,0.16037735849056603
0.0,0.16981132075471697
0.0,0.1792452830188679
0.0,0.18867924528301888
0.0,0.19811320754716982
0.0,0.20754716981132076
0.0,0.2169811320754717
0.0,0.22641509433962265
0.0,0.2358490566037736
0.0,0.24528301886792453
0.0,0.25471698113207547
0.0,0.2641509433962264
0.0,0.27358490566037735
0.0,0.2830188679245283
3.73440671392e-08,0.29245283018867924
9.62073270481e-07,0.3018867924528302
1.08186811739e-06,0.3113207547169811
1.46664979681e-06,0.32075471698113206
1.65558300101e-06,0.330188679245283
2.2029586378e-06,0.33962264150943394
3.35954578167e-06,0.3490566037735849
4.30039607243e-06,0.3584905660377358
4.55117152045e-06,0.36792452830188677
5.30817169244e-06,0.37735849056603776
6.5356305608e-06,0.3867924528301887
6.68538631529e-06,0.39622641509433965
7.05374047384e-06,0.4056603773584906
2.75369829725e-05,0.41509433962264153
2.75369829725e-05,0.42452830188679247
4.52005193075e-05,0.4339622641509434
5.37549509054e-05,0.44339622641509435
5.37549509054e-05,0.4528301886792453
5.5073965945e-05,0.46226415094339623
5.5073965945e-05,0.4716981132075472
5.5073965945e-05,0.4811320754716981
8.50263405918e-05,0.49056603773584906
0.000107509901811,0.5
0.000107509901811,0.5094339622641509
0.000107509901811,0.5188679245283019
0.000135385339747,0.5283018867924528
0.000135385339747,0.5377358490566038
0.000146664979681,0.5471698113207547
0.000249269222962,0.5566037735849056
0.000249269222962,0.5660377358490566
0.0003088505099,0.5754716981132075
0.0003088505099,0.5849056603773585
0.000474408810002,0.5943396226415094
0.000480861889757,0.6037735849056604
0.000749830565407,0.6132075471698113
0.000780086392205,0.6226415094339622
0.00101422455728,0.6320754716981132
0.00162380530183,0.6415094339622641
0.0230821997192,0.6509433962264151
0.0362997946291,0.660377358490566
0.0365124583326,0.6698113207547169
0.0365713725916,0.6792452830188679
0.0411990187584,0.6886792452830188
0.0415503826261,0.6981132075471698
0.0433697313175,0.7075471698113207
0.045354351276,0.7169811320754716
0.0454379394983,0.7264150943396226
0.0463093924055,0.7358490566037735
0.0467928552709,0.7452830188679245
0.0502801584981,0.7547169811320755
0.0505873083426,0.7641509433962265
0.543346963266,0.7735849056603774
0.56692939095,0.7830188679245284
0.56692939095,0.7924528301886793
0.567974243729,0.8018867924528302
0.567974243729,0.8113207547169812
1.1338587819,0.8207547169811321
1.1338587819,0.8301886792452831
1.1338587819,0.839622641509434
1.13594848746,0.8490566037735849
1.13594848746,0.8584905660377359
1.13594848746,0.8679245283018868
2.30821997192,0.8773584905660378
3.21242276599,0.8867924528301887
3.21242276599,0.8962264150943396
3.30339020055,0.9056603773584906
3.30339020055,0.9150943396226415
3.47454639822,0.9245283018867925
3.47454639822,0.9339622641509434
6.16291948449,0.9433962264150944
6.19363446893,0.9528301886792453
6.8424022289,0.9622641509433962
6.86366859924,0.9716981132075472
6.96052745971,0.9811320754716981
10.8978384746,0.9905660377358491
20.4620395922,1.0
