Congestion,CDF
0.0,0.009433962264150943
0.0,0.018867924528301886
0.0,0.02830188679245283
0.0,0.03773584905660377
0.0,0.04716981132075472
0.0,0.05660377358490566
0.0,0.0660377358490566
0.0,0.07547169811320754
0.0,0.08490566037735849
0.0,0.09433962264150944
0.0,0.10377358490566038
0.0,0.11320754716981132
0.0,0.12264150943396226
0.0,0.1320754716981132
0.0,0.14150943396226415
0.0,0.1509433962264151
0.0,0.16037735849056603
0.0,0.16981132075471697
0.0,0.1792452830188679
0.0,0.18867924528301888
0.0,0.19811320754716982
0.0,0.20754716981132076
0.0,0.2169811320754717
0.0,0.22641509433962265
0.0,0.2358490566037736
0.0,0.24528301886792453
0.0,0.25471698113207547
0.0,0.2641509433962264
0.0,0.27358490566037735
0.0,0.2830188679245283
2.1363598055e-08,0.29245283018867924
5.50377830391e-07,0.3018867924528302
6.18909438073e-07,0.3113207547169811
8.39033323011e-07,0.32075471698113206
9.47117239495e-07,0.330188679245283
1.26025702274e-06,0.33962264150943394
1.92191132957e-06,0.3490566037735849
2.46014802904e-06,0.3584905660377358
2.60361033199e-06,0.36792452830188677
3.03667101983e-06,0.37735849056603776
3.73886925108e-06,0.3867924528301887
3.82454073762e-06,0.39622641509433965
4.03526685258e-06,0.4056603773584906
1.57532127842e-05,0.41509433962264153
1.57532127842e-05,0.42452830188679247
2.58580760035e-05,0.4339622641509434
3.0751850363e-05,0.44339622641509435
3.0751850363e-05,0.4528301886792453
3.15064255685e-05,0.46226415094339623
3.15064255685e-05,0.4716981132075472
3.15064255685e-05,0.4811320754716981
4.86414229527e-05,0.49056603773584906
6.1503700726e-05,0.5
6.1503700726e-05,0.5094339622641509
6.1503700726e-05,0.5188679245283019
7.74505350509e-05,0.5283018867924528
7.74505350509e-05,0.5377358490566038
8.39033323011e-05,0.5471698113207547
0.000142600629626,0.5566037735849056
0.000142600629626,0.5660377358490566
0.000176685579747,0.5754716981132075
0.000176685579747,0.5849056603773585
0.000271397303696,0.5943396226415094
0.000275088947716,0.6037735849056604
0.00042895913691,0.6132075471698113
0.000446267731609,0.6226415094339622
0.000580212265005,0.6320754716981132
0.000928938020021,0.6415094339622641
0.0328938495086,0.6509433962264151
0.0604956651098,0.660377358490566
0.0608533406325,0.6698113207547169
0.0610285297877,0.6792452830188679
0.0698448962117,0.6886792452830188
0.0767966201503,0.6981132075471698
0.0794317365996,0.7075471698113207
0.0795885900927,0.7169811320754716
0.0828811552241,0.7264150943396226
0.0830377496793,0.7358490566037735
0.0842654931883,0.7452830188679245
0.0890633805191,0.7547169811320755
0.0896021442349,0.7641509433962265
0.949783150939,0.7735849056603774
1.0360144403,0.7830188679245284
1.0360144403,0.7924528301886793
1.03797187099,0.8018867924528302
1.03797187099,0.8113207547169812
2.0720288806,0.8207547169811321
2.0720288806,0.8301886792452831
2.0720288806,0.839622641509434
2.07594374198,0.8490566037735849
2.07594374198,0.8584905660377359
2.07594374198,0.8679245283018868
3.28938495086,0.8773584905660378
5.91381731881,0.8867924528301887
5.91381731881,0.8962264150943396
6.04557314127,0.9056603773584906
6.04557314127,0.9150943396226415
6.28726097071,0.9245283018867925
6.28726097071,0.9339622641509434
10.9803243632,0.9433962264150944
11.0342007348,0.9528301886792453
11.9633838298,0.9622641509433962
11.9991513821,0.9716981132075472
12.14842612,0.9811320754716981
19.3173237331,0.9905660377358491
36.260645078,1.0
