Congestion,CDF
0.0,0.009433962264150943
0.0,0.018867924528301886
0.0,0.02830188679245283
0.0,0.03773584905660377
0.0,0.04716981132075472
0.0,0.05660377358490566
0.0,0.0660377358490566
0.0,0.07547169811320754
0.0,0.08490566037735849
0.0,0.09433962264150944
0.0,0.10377358490566038
0.0,0.11320754716981132
0.0,0.12264150943396226
0.0,0.1320754716981132
0.0,0.14150943396226415
0.0,0.1509433962264151
0.0,0.16037735849056603
0.0,0.16981132075471697
0.0,0.1792452830188679
0.0,0.18867924528301888
0.0,0.19811320754716982
0.0,0.20754716981132076
0.0,0.2169811320754717
0.0,0.22641509433962265
0.0,0.2358490566037736
0.0,0.24528301886792453
0.0,0.25471698113207547
0.0,0.2641509433962264
0.0,0.27358490566037735
0.0,0.2830188679245283
1.86501611257e-08,0.29245283018867924
4.80473148314e-07,0.3018867924528302
5.40300407851e-07,0.3113207547169811
7.32465880686e-07,0.32075471698113206
8.2682182449e-07,0.330188679245283
1.10018904462e-06,0.33962264150943394
1.67780520273e-06,0.3490566037735849
2.1476792915e-06,0.3584905660377358
2.27292013617e-06,0.36792452830188677
2.65097684668e-06,0.37735849056603776
3.26398735742e-06,0.3867924528301887
3.33877752263e-06,0.39622641509433965
3.52273885663e-06,0.4056603773584906
1.37523630578e-05,0.41509433962264153
1.37523630578e-05,0.42452830188679247
2.25737856809e-05,0.4339622641509434
2.68459911437e-05,0.44339622641509435
2.68459911437e-05,0.4528301886792453
2.75047261156e-05,0.46226415094339623
2.75047261156e-05,0.4716981132075472
2.75047261156e-05,0.4811320754716981
4.24633703141e-05,0.49056603773584906
5.36919822875e-05,0.5
5.36919822875e-05,0.5094339622641509
5.36919822875e-05,0.5188679245283019
6.76133745941e-05,0.5283018867924528
6.76133745941e-05,0.5377358490566038
7.32465880686e-05,0.5471698113207547
0.000124488614338,0.5566037735849056
0.000124488614338,0.5660377358490566
0.00015424436101,0.5754716981132075
0.00015424436101,0.5849056603773585
0.000236926543459,0.5943396226415094
0.000240149303764,0.6037735849056604
0.000374476106464,0.6132075471698113
0.000389586299006,0.6226415094339622
0.000506518246673,0.6320754716981132
0.000810951587114,0.6415094339622641
0.0361643994384,0.6509433962264151
0.068711684284,0.660377358490566
0.0691176119764,0.6698113207547169
0.0693203286947,0.6792452830188679
0.0794938974856,0.6886792452830188
0.0890193031307,0.6981132075471698
0.0907233835822,0.7075471698113207
0.0918435320353,0.7169811320754716
0.0957950610479,0.7264150943396226
0.0959761290055,0.7358490566037735
0.0969998389156,0.7452830188679245
0.102093561915,0.7547169811320755
0.102709642558,0.7641509433962265
1.08796837407,0.7735849056603774
1.1974382631,0.7830188679245284
1.1974382631,0.7924528301886793
1.19970161257,0.8018867924528302
1.19970161257,0.8113207547169812
2.3948765262,0.8207547169811321
2.3948765262,0.8301886792452831
2.3948765262,0.839622641509434
2.39940322514,0.8490566037735849
2.39940322514,0.8584905660377359
2.39940322514,0.8679245283018868
3.61643994384,0.8773584905660378
6.8481050322,0.8867924528301887
6.8481050322,0.8962264150943396
6.98931647743,0.9056603773584906
6.98931647743,0.9150943396226415
7.24713182145,0.9245283018867925
7.24713182145,0.9339622641509434
12.6064960672,0.9433962264150944
12.6681041315,0.9528301886792453
13.7192734606,0.9622641509433962
13.7598662298,0.9716981132075472
13.9213493469,0.9811320754716981
22.1858380474,0.9905660377358491
41.5940703784,1.0
