Congestion,CDF
0.0,0.009433962264150943
0.0,0.018867924528301886
0.0,0.02830188679245283
0.0,0.03773584905660377
0.0,0.04716981132075472
0.0,0.05660377358490566
0.0,0.0660377358490566
0.0,0.07547169811320754
0.0,0.08490566037735849
0.0,0.09433962264150944
0.0,0.10377358490566038
0.0,0.11320754716981132
0.0,0.12264150943396226
0.0,0.1320754716981132
0.0,0.14150943396226415
0.0,0.1509433962264151
0.0,0.16037735849056603
0.0,0.16981132075471697
0.0,0.1792452830188679
0.0,0.18867924528301888
0.0,0.19811320754716982
0.0,0.20754716981132076
0.0,0.2169811320754717
0.0,0.22641509433962265
0.0,0.2358490566037736
0.0,0.24528301886792453
0.0,0.25471698113207547
0.0,0.2641509433962264
0.0,0.27358490566037735
0.0,0.2830188679245283
4.66524262781e-08,0.29245283018867924
1.20187906041e-06,0.3018867924528302
1.35153389697e-06,0.3113207547169811
1.83222602044e-06,0.32075471698113206
2.06825259858e-06,0.330188679245283
2.75206674893e-06,0.33962264150943394
4.19694409083e-06,0.3490566037735849
5.37231014468e-06,0.3584905660377358
5.68559372618e-06,0.36792452830188677
6.63128329407e-06,0.37735849056603776
8.16469780279e-06,0.3867924528301887
8.35178158426e-06,0.39622641509433965
8.81195147315e-06,0.4056603773584906
5.64671728676e-05,0.41509433962264153
7.74018773137e-05,0.42452830188679247
7.74018773137e-05,0.4339622641509434
0.000201461630426,0.44339622641509435
0.000201461630426,0.4528301886792453
0.000201461630426,0.46226415094339623
0.00020640500617,0.4716981132075472
0.00020640500617,0.4811320754716981
0.00020640500617,0.49056603773584906
0.000318659861394,0.5
0.000380545663542,0.5094339622641509
0.000380545663542,0.5188679245283019
0.000402923260851,0.5283018867924528
0.000402923260851,0.5377358490566038
0.000549667806132,0.5471698113207547
0.000700654310351,0.5566037735849056
0.000700654310351,0.5660377358490566
0.000868127394328,0.5754716981132075
0.000868127394328,0.5849056603773585
0.00109634652576,0.5943396226415094
0.00133348422901,0.6037735849056604
0.00180216368331,0.6132075471698113
0.00281019860879,0.6226415094339622
0.00285081647579,0.6320754716981132
0.00608566202907,0.6415094339622641
0.0123373482467,0.6509433962264151
0.0146521823007,0.660377358490566
0.0236316783403,0.6698113207547169
0.0238310091435,0.6792452830188679
0.0279626149492,0.6886792452830188
0.0323884146818,0.6981132075471698
0.0331345655091,0.7075471698113207
0.0359308247675,0.7169811320754716
0.0362078934772,0.7264150943396226
0.0379991151737,0.7358490566037735
0.0402192072727,0.7452830188679245
0.0431117261463,0.7547169811320755
0.043454437219,0.7641509433962265
0.404861017228,0.7735849056603774
1.01834700405,0.7830188679245284
1.01834700405,0.7924528301886793
1.34740592878,0.8018867924528302
1.34740592878,0.8113207547169812
1.34740592878,0.8207547169811321
2.69481185756,0.8301886792452831
2.69481185756,0.839622641509434
2.71559201079,0.8490566037735849
2.71559201079,0.8584905660377359
2.71559201079,0.8679245283018868
3.97529949396,0.8773584905660378
4.39565469021,0.8867924528301887
5.17469563242,0.8962264150943396
5.17469563242,0.9056603773584906
5.7565400704,0.9150943396226415
5.7565400704,0.9245283018867925
6.55356226881,0.9339622641509434
6.55356226881,0.9433962264150944
11.073667697,0.9528301886792453
11.1185171277,0.9622641509433962
15.6387197781,0.9716981132075472
15.7415330999,0.9811320754716981
25.3542016062,0.9905660377358491
51.5180704551,1.0
