Congestion,CDF
0.0,0.007352941176470588
0.0,0.014705882352941176
0.0,0.022058823529411766
0.0,0.029411764705882353
0.0,0.03676470588235294
0.0,0.04411764705882353
0.0,0.051470588235294115
0.0,0.058823529411764705
0.0,0.0661764705882353
0.0,0.07352941176470588
0.0,0.08088235294117647
0.0,0.08823529411764706
0.0,0.09558823529411764
0.0,0.10294117647058823
5.90449499136e-06,0.11029411764705882
5.90449499136e-06,0.11764705882352941
5.90449499136e-06,0.125
5.90449499136e-06,0.1323529411764706
5.90449499136e-06,0.13970588235294118
5.90449499136e-06,0.14705882352941177
5.90449499136e-06,0.15441176470588236
5.90449499136e-06,0.16176470588235295
5.90449499136e-06,0.16911764705882354
5.90449499136e-06,0.17647058823529413
5.90449499136e-06,0.18382352941176472
5.90449499136e-06,0.19117647058823528
5.90449499136e-06,0.19852941176470587
5.90449499136e-06,0.20588235294117646
5.90449499136e-06,0.21323529411764705
5.90449499136e-06,0.22058823529411764
5.90449499136e-06,0.22794117647058823
5.90449499136e-06,0.23529411764705882
5.90449499136e-06,0.2426470588235294
5.90449499136e-06,0.25
5.90449499136e-06,0.25735294117647056
5.90449499136e-06,0.2647058823529412
5.90449499136e-06,0.27205882352941174
5.90449499136e-06,0.27941176470588236
5.90449499136e-06,0.2867647058823529
5.90449499136e-06,0.29411764705882354
5.90449499136e-06,0.3014705882352941
0.000147612374784,0.3088235294117647
0.000147612374784,0.3161764705882353
0.000159421364767,0.3235294117647059
0.000295224749568,0.33088235294117646
0.000295224749568,0.3382352941176471
0.000295224749568,0.34558823529411764
0.000295224749568,0.35294117647058826
0.000442837124352,0.3602941176470588
0.00049204124928,0.36764705882352944
0.00049204124928,0.375
0.00049204124928,0.38235294117647056
0.000590449499136,0.3897058823529412
0.000590449499136,0.39705882352941174
0.000590449499136,0.40441176470588236
0.000590449499136,0.4117647058823529
0.000590449499136,0.41911764705882354
0.000590449499136,0.4264705882352941
0.000590449499136,0.4338235294117647
0.000738061873921,0.4411764705882353
0.000885674248705,0.4485294117647059
0.000885674248705,0.45588235294117646
0.00108249074842,0.4632352941176471
0.00118089899827,0.47058823529411764
0.00118089899827,0.47794117647058826
0.00177134849741,0.4852941176470588
0.00241100212147,0.49264705882352944
0.00362933680278,0.5
0.00428075886874,0.5073529411764706
0.0042894390956,0.5147058823529411
0.0043791671186,0.5220588235294118
0.00565847436672,0.5294117647058824
0.00703618986471,0.5367647058823529
0.00713459811457,0.5441176470588235
0.00762663936385,0.5514705882352942
0.0077250476137,0.5588235294117647
0.00831549711284,0.5661764705882353
0.0115817873528,0.5735294117647058
0.011802517723,0.5808823529411765
0.0118603751852,0.5882352941176471
0.011946888786,0.5955882352941176
0.0119941737947,0.6029411764705882
0.0121238660019,0.6102941176470589
0.0123924399527,0.6176470588235294
0.0124273582376,0.625
0.0124763509703,0.6323529411764706
0.0124783529758,0.6397058823529411
0.0124795654559,0.6470588235294118
0.0125148735186,0.6544117647058824
0.0125259920118,0.6617647058823529
0.0125640389817,0.6691176470588235
0.012569861506,0.6764705882352942
0.0125771654835,0.6838235294117647
0.0126242629845,0.6911764705882353
0.0126715222486,0.6985294117647058
0.0126972503148,0.7058823529411765
0.0126972874746,0.7132352941176471
0.012697493409,0.7205882352941176
0.012697505404,0.7279411764705882
0.0126981091907,0.7352941176470589
0.0126981171891,0.7426470588235294
0.0126981171891,0.75
0.312871837964,0.7573529411764706
0.31424653765,0.7647058823529411
0.31841404924,0.7720588235294118
0.606193300096,0.7794117647058824
0.606193300096,0.7867647058823529
0.631213149225,0.7941176470588235
0.631213149225,0.8014705882352942
0.938615513892,0.8088235294117647
1.04465144267,0.8161764705882353
1.04465144267,0.8235294117647058
1.04465144267,0.8308823529411765
1.19941737947,0.8382352941176471
1.24783529758,0.8455882352941176
1.2569861506,0.8529411764705882
1.26972874746,0.8602941176470589
1.2697505404,0.8676470588235294
1.26981171891,0.875
1.26981171891,0.8823529411764706
1.56082838355,0.8897058823529411
1.79223081861,0.8970588235294118
1.88892969757,0.9044117647058824
2.28738726644,0.9117647058823529
2.39410625807,0.9191176470588235
2.53949988131,0.9264705882352942
3.80943435689,0.9338235294117647
5.10095022083,0.9411764705882353
9.20263455479,0.9485294117647058
9.23377478264,0.9558823529411765
12.1456513715,0.9632352941176471
14.5782905946,0.9705882352941176
14.9412242749,0.9779411764705882
15.2909849673,0.9852941176470589
16.4712367396,0.9926470588235294
16.9001806492,1.0
