Congestion,CDF
0.0,0.005555555555555556
0.0,0.011111111111111112
0.0,0.016666666666666666
0.0,0.022222222222222223
0.0,0.027777777777777776
0.0,0.03333333333333333
0.0,0.03888888888888889
0.0,0.044444444444444446
0.0,0.05
0.0,0.05555555555555555
1.17927664658e-06,0.06111111111111111
1.35493215188e-06,0.06666666666666667
3.0498400133e-06,0.07222222222222222
4.45751858843e-06,0.07777777777777778
4.56113844732e-06,0.08333333333333333
6.02227289864e-06,0.08888888888888889
6.62529725158e-06,0.09444444444444444
9.13117039554e-06,0.1
9.1782785605e-06,0.10555555555555556
9.39024051431e-06,0.1111111111111111
9.5835024383e-06,0.11666666666666667
1.05494783014e-05,0.12222222222222222
1.079417092e-05,0.12777777777777777
1.205378458e-05,0.13333333333333333
1.23454970156e-05,0.1388888888888889
1.29999656091e-05,0.14444444444444443
1.50320374838e-05,0.15
1.6451171293e-05,0.15555555555555556
1.71783365332e-05,0.16111111111111112
1.78661763801e-05,0.16666666666666666
1.81488559709e-05,0.17222222222222222
1.82946153187e-05,0.17777777777777778
1.89007420205e-05,0.18333333333333332
1.95575067803e-05,0.18888888888888888
1.98876458552e-05,0.19444444444444445
2.01122408979e-05,0.2
2.02238237067e-05,0.20555555555555555
2.04560616822e-05,0.2111111111111111
2.06559544126e-05,0.21666666666666667
2.07012817317e-05,0.2222222222222222
2.13929647312e-05,0.22777777777777777
2.15714435358e-05,0.23333333333333334
2.18190702786e-05,0.2388888888888889
2.36288828235e-05,0.24444444444444444
2.48637634999e-05,0.25
2.69948150474e-05,0.25555555555555554
2.7422472624e-05,0.2611111111111111
2.78171018836e-05,0.26666666666666666
2.875912626e-05,0.2722222222222222
0.000101661333777,0.2777777777777778
0.000203322667553,0.2833333333333333
0.000222875929421,0.28888888888888886
0.000222875929421,0.29444444444444445
0.000229456964012,0.3
0.000229456964012,0.3055555555555556
0.00034738462867,0.3111111111111111
0.000456113844732,0.31666666666666665
0.000458913928025,0.32222222222222224
0.000611012455083,0.3277777777777778
0.000689484366105,0.3333333333333333
0.000851543242038,0.3388888888888889
0.000913117039554,0.34444444444444444
0.000949611918534,0.35
0.00100561204489,0.35555555555555557
0.00100561204489,0.3611111111111111
0.00117703448348,0.36666666666666664
0.00128440479415,0.37222222222222223
0.00156721899559,0.37777777777777777
0.00195575067803,0.38333333333333336
0.00198876458552,0.3888888888888889
0.00201619541333,0.39444444444444443
0.00205233746129,0.4
0.00208282003657,0.40555555555555556
0.00214045959505,0.4111111111111111
0.00217388820476,0.4166666666666667
0.00217498204264,0.4222222222222222
0.0021781537761,0.42777777777777776
0.00218488525743,0.43333333333333335
0.00219763218504,0.4388888888888889
0.00221099050289,0.4444444444444444
0.00221744026884,0.45
0.00223934119593,0.45555555555555555
0.00228123843749,0.46111111111111114
0.00229536259922,0.4666666666666667
0.00229538911127,0.4722222222222222
0.00230293443622,0.4777777777777778
0.00232202667365,0.48333333333333334
0.00233502627168,0.4888888888888889
0.00233924824275,0.49444444444444446
0.00233924824275,0.5
0.00235743024227,0.5055555555555555
0.00239775886018,0.5111111111111111
0.00243856879846,0.5166666666666667
0.00244306324116,0.5222222222222223
0.00245475108018,0.5277777777777778
0.00246026785636,0.5333333333333333
0.00246076666537,0.5388888888888889
0.00246557564094,0.5444444444444444
0.00248681366656,0.55
0.00248910045513,0.5555555555555556
0.00250630212451,0.5611111111111111
0.00251291188841,0.5666666666666667
0.00253602856823,0.5722222222222222
0.00257402769003,0.5777777777777777
0.00257658377656,0.5833333333333334
0.00259063848607,0.5888888888888889
0.00259785532225,0.5944444444444444
0.00259954970568,0.6
0.00266295039863,0.6055555555555555
0.00266744557186,0.6111111111111112
0.00281900212709,0.6166666666666667
0.00303118325723,0.6222222222222222
0.00324062411639,0.6277777777777778
0.00402587885119,0.6333333333333333
0.00425659667112,0.6388888888888888
0.00447854471587,0.6444444444444445
0.00550592471517,0.65
0.006464274959,0.6555555555555556
0.00676808168416,0.6611111111111111
0.00835738350344,0.6666666666666666
0.00946756318891,0.6722222222222223
0.0168440408331,0.6777777777777778
0.0204922859736,0.6833333333333333
0.0214496605982,0.6888888888888889
0.0233681985996,0.6944444444444444
0.0239360369482,0.7
0.0251830841967,0.7055555555555556
0.0254589094385,0.7111111111111111
0.0269621131869,0.7166666666666667
0.0291192575405,0.7222222222222222
0.0293010170993,0.7277777777777777
0.0297817872656,0.7333333333333333
0.0302400411507,0.7388888888888889
0.0313194582427,0.7444444444444445
0.0570309609372,0.75
0.0570309609372,0.7555555555555555
0.0724629401587,0.7611111111111111
0.0873340010595,0.7666666666666667
0.100809770667,0.7722222222222223
0.100809770667,0.7777777777777778
0.114061921874,0.7833333333333333
0.122737554009,0.7888888888888889
0.122737554009,0.7944444444444444
0.144925880317,0.8
0.219763218504,0.8055555555555556
0.223934119593,0.8111111111111111
0.244306324116,0.8166666666666667
0.250630212451,0.8222222222222222
0.265312964594,0.8277777777777777
0.289233628303,0.8333333333333334
0.318307974931,0.8388888888888889
0.352276465136,0.8444444444444444
0.380356961737,0.85
0.380512933141,0.8555555555555555
0.380512933141,0.8611111111111112
0.477165987507,0.8666666666666667
0.483128342205,0.8722222222222222
0.490863888211,0.8777777777777778
0.598353131673,0.8833333333333333
0.605553448307,0.8888888888888888
0.634115789964,0.8944444444444445
0.722904228223,0.9
1.13342736907,0.9055555555555556
1.20011234095,0.9111111111111111
1.31848594734,0.9166666666666666
1.43040578457,0.9222222222222223
1.57754979595,0.9277777777777778
2.81512434249,0.9333333333333333
2.92655234805,0.9388888888888889
3.18650731862,0.9444444444444444
3.42000994579,0.95
3.53831711563,0.9555555555555556
3.79597549329,0.9611111111111111
3.96006194761,0.9666666666666667
4.07776539595,0.9722222222222222
4.12632152387,0.9777777777777777
4.14671383256,0.9833333333333333
4.34481004962,0.9888888888888889
4.50153194918,0.9944444444444445
4.58668627338,1.0
