Congestion,CDF
0.0,0.005555555555555556
0.0,0.011111111111111112
0.0,0.016666666666666666
0.0,0.022222222222222223
0.0,0.027777777777777776
0.0,0.03333333333333333
0.0,0.03888888888888889
0.0,0.044444444444444446
0.0,0.05
0.0,0.05555555555555555
1.20581511991e-06,0.06111111111111111
1.38542358142e-06,0.06666666666666667
3.11847369489e-06,0.07222222222222222
4.55783070649e-06,0.07777777777777778
4.66378242947e-06,0.08333333333333333
6.15779828974e-06,0.08888888888888889
6.77439311891e-06,0.09444444444444444
9.33665849943e-06,0.1
9.38482678779e-06,0.10555555555555556
9.60155873911e-06,0.1111111111111111
9.79916983463e-06,0.11666666666666667
1.07868840445e-05,0.12222222222222222
1.10370832324e-05,0.12777777777777777
1.2325043272e-05,0.13333333333333333
1.26233204121e-05,0.1388888888888889
1.32925171844e-05,0.14444444444444443
1.53703188591e-05,0.15
1.68213888937e-05,0.15555555555555556
1.75649182801e-05,0.16111111111111112
1.82682372933e-05,0.16666666666666666
1.85572783132e-05,0.17222222222222222
1.87063178333e-05,0.17777777777777778
1.93260848267e-05,0.18333333333333332
1.99976294382e-05,0.18888888888888888
2.03351979718e-05,0.19444444444444445
2.05648473074e-05,0.2
2.06789411787e-05,0.20555555555555555
2.09164054439e-05,0.2111111111111111
2.11207965656e-05,0.21666666666666667
2.11671439319e-05,0.2222222222222222
2.18743925842e-05,0.22777777777777777
2.20568878806e-05,0.23333333333333334
2.23100872223e-05,0.2388888888888889
2.41606278374e-05,0.24444444444444444
2.54232983017e-05,0.25
2.76023070905e-05,0.25555555555555554
2.80395886846e-05,0.2611111111111111
2.84430986917e-05,0.26666666666666666
2.940632241e-05,0.2722222222222222
0.000103949123163,0.2777777777777778
0.000207898246326,0.2833333333333333
0.000227891535325,0.28888888888888886
0.000227891535325,0.29444444444444445
0.000234620669695,0.3
0.000234620669695,0.3055555555555556
0.000355202181686,0.3111111111111111
0.000466378242947,0.31666666666666665
0.00046924133939,0.32222222222222224
0.000624762695787,0.3277777777777778
0.000933665849943,0.3333333333333333
0.00097098201066,0.3388888888888889
0.00102824236537,0.34444444444444444
0.00102824236537,0.35
0.00131330907415,0.35555555555555557
0.00140436379362,0.3611111111111111
0.00143566179121,0.36666666666666664
0.00162508732387,0.37222222222222223
0.00169181425873,0.37777777777777777
0.00176127098629,0.38333333333333336
0.0017659588143,0.3888888888888889
0.0017830922429,0.39444444444444443
0.00179450882867,0.4
0.00181398926595,0.40555555555555556
0.00182617858726,0.4111111111111111
0.0018363435245,0.4166666666666667
0.00184286877175,0.4222222222222222
0.00184900303001,0.42777777777777776
0.00185030655936,0.43333333333333335
0.00185975892291,0.4388888888888889
0.00186475254979,0.4444444444444444
0.00186591687807,0.45
0.00186663852155,0.45555555555555555
0.00186680969927,0.46111111111111114
0.00186715321252,0.4666666666666667
0.00186949933253,0.4722222222222222
0.00187840453743,0.4777777777777778
0.00188036267374,0.48333333333333334
0.00188037895588,0.4888888888888889
0.00188126028179,0.49444444444444446
0.00188206300354,0.5
0.00188221023929,0.5055555555555555
0.0018961657726,0.5111111111111111
0.0018982508158,0.5166666666666667
0.00190212749299,0.5222222222222223
0.00190636031545,0.5277777777777778
0.00190902232077,0.5333333333333333
0.00191098952416,0.5388888888888889
0.00191627688275,0.5444444444444444
0.00191840709863,0.55
0.00191913273305,0.5555555555555556
0.00192142839614,0.5611111111111111
0.00192165630495,0.5666666666666667
0.00193552270054,0.5722222222222222
0.00199976294382,0.5777777777777777
0.00203351979718,0.5833333333333334
0.00209852331865,0.5888888888888889
0.00226074669257,0.5944444444444444
0.00239189074805,0.6
0.00239189074805,0.6055555555555555
0.00272747383867,0.6111111111111112
0.00288244102669,0.6166666666666667
0.00309939708668,0.6222222222222222
0.00331355120856,0.6277777777777778
0.00411647733702,0.6333333333333333
0.00435238723696,0.6388888888888888
0.00457933000647,0.6444444444444445
0.00562983019287,0.65
0.00660974717633,0.6555555555555556
0.00692039077621,0.6611111111111111
0.00854545828632,0.6666666666666666
0.00968062148525,0.6722222222222223
0.0172230995805,0.6777777777777778
0.0209534449277,0.6833333333333333
0.0219323643365,0.6888888888888889
0.0238940771687,0.6944444444444444
0.0244746941667,0.7
0.025749805,0.7055555555555556
0.0260318374205,0.7111111111111111
0.0275688693064,0.7166666666666667
0.0297745580945,0.7222222222222222
0.0299604079752,0.7277777777777777
0.0304519974063,0.7333333333333333
0.0309205638491,0.7388888888888889
0.0320242721724,0.7444444444444445
0.0470552559823,0.75
0.0470552559823,0.7555555555555555
0.0627354334514,0.7611111111111111
0.0715809969445,0.7666666666666667
0.0891546121452,0.7722222222222223
0.0891546121452,0.7777777777777778
0.0932958439033,0.7833333333333333
0.0932958439033,0.7888888888888889
0.0941105119645,0.7944444444444444
0.125470866903,0.8
0.184286877175,0.8055555555555556
0.186475254979,0.8111111111111111
0.188037895588,0.8166666666666667
0.191840709863,0.8222222222222222
0.229673114708,0.8277777777777777
0.236880337562,0.8333333333333334
0.265281710774,0.8388888888888889
0.278196146904,0.8444444444444444
0.287662782018,0.85
0.30167319911,0.8555555555555555
0.30167319911,0.8611111111111112
0.37319057623,0.8666666666666667
0.380180735202,0.8722222222222222
0.413307467158,0.8777777777777778
0.464859999059,0.8833333333333333
0.49071472343,0.8888888888888888
0.493838829605,0.8944444444444445
0.599283359449,0.9
0.877307227742,0.9055555555555556
0.980228376283,0.9111111111111111
1.06381601378,0.9166666666666666
1.16984495354,0.9222222222222223
1.25185228115,0.9277777777777778
2.23906545459,0.9333333333333333
2.27802888462,0.9388888888888889
2.46470985455,0.9444444444444444
2.64610878114,0.95
2.81014842187,0.9555555555555556
3.00078445342,0.9611111111111111
3.08798637335,0.9666666666666667
3.25049510573,0.9722222222222222
3.2749697215,0.9777777777777777
3.3909314851,0.9833333333333333
3.45442060436,0.9888888888888889
3.62360203024,0.9944444444444445
3.76716820936,1.0
