Congestion,CDF
0.0,0.009433962264150943
0.0,0.018867924528301886
0.0,0.02830188679245283
0.0,0.03773584905660377
0.0,0.04716981132075472
0.0,0.05660377358490566
0.0,0.0660377358490566
0.0,0.07547169811320754
0.0,0.08490566037735849
0.0,0.09433962264150944
0.0,0.10377358490566038
0.0,0.11320754716981132
0.0,0.12264150943396226
0.0,0.1320754716981132
0.0,0.14150943396226415
0.0,0.1509433962264151
0.0,0.16037735849056603
0.0,0.16981132075471697
0.0,0.1792452830188679
0.0,0.18867924528301888
0.0,0.19811320754716982
0.0,0.20754716981132076
0.0,0.2169811320754717
0.0,0.22641509433962265
0.0,0.2358490566037736
0.0,0.24528301886792453
0.0,0.25471698113207547
0.0,0.2641509433962264
0.0,0.27358490566037735
0.0,0.2830188679245283
9.73099827289e-08,0.29245283018867924
2.50693993735e-06,0.3018867924528302
2.81909754034e-06,0.3113207547169811
3.82174940574e-06,0.32075471698113206
4.31406554178e-06,0.330188679245283
5.74039957131e-06,0.33962264150943394
8.75419757503e-06,0.3490566037735849
1.12058353466e-05,0.3584905660377358
1.18592980352e-05,0.36792452830188677
1.38318650132e-05,0.37735849056603776
1.70303383031e-05,0.3867924528301887
1.74205670864e-05,0.39622641509433965
1.83804126402e-05,0.4056603773584906
7.17549946414e-05,0.41509433962264153
7.17549946414e-05,0.42452830188679247
0.000117782075979,0.4339622641509434
0.000140072941833,0.44339622641509435
0.000140072941833,0.4528301886792453
0.000143509989283,0.46226415094339623
0.000143509989283,0.4716981132075472
0.000143509989283,0.4811320754716981
0.000221558934747,0.49056603773584906
0.000280145883666,0.5
0.000280145883666,0.5094339622641509
0.000280145883666,0.5188679245283019
0.000352782813491,0.5283018867924528
0.000352782813491,0.5377358490566038
0.000382174940574,0.5471698113207547
0.000649537815226,0.5566037735849056
0.000649537815226,0.5660377358490566
0.000804792838235,0.5754716981132075
0.000804792838235,0.5849056603773585
0.00123619939241,0.5943396226415094
0.00125301462245,0.6037735849056604
0.00195388464511,0.6132075471698113
0.00203272431655,0.6226415094339622
0.00264283410226,0.6320754716981132
0.00423126022366,0.6415094339622641
0.00718113309577,0.6509433962264151
0.0120210593942,0.660377358490566
0.0121086998194,0.6698113207547169
0.0121890381489,0.6792452830188679
0.0124611417849,0.6886792452830188
0.0143766320614,0.6981132075471698
0.0166330119858,0.7075471698113207
0.0166896300182,0.7169811320754716
0.0167056760995,0.7264150943396226
0.0192189653418,0.7358490566037735
0.0217310298466,0.7452830188679245
0.0234607125464,0.7547169811320755
0.0237402678779,0.7641509433962265
0.207912649823,0.7735849056603774
0.207912649823,0.7830188679245284
0.208516998021,0.7924528301886793
0.208620375227,0.8018867924528302
0.208620375227,0.8113207547169812
0.415825299645,0.8207547169811321
0.415825299645,0.8301886792452831
0.415825299645,0.839622641509434
0.417240750455,0.8490566037735849
0.417240750455,0.8584905660377359
0.417240750455,0.8679245283018868
0.718113309577,0.8773584905660378
1.02196801602,0.8867924528301887
1.02196801602,0.8962264150943396
1.13536462812,0.9056603773584906
1.13536462812,0.9150943396226415
1.37748129214,0.9245283018867925
1.37748129214,0.9339622641509434
2.22407395544,0.9433962264150944
2.24087183091,0.9528301886792453
2.38147880661,0.9622641509433962
2.76260427969,0.9716981132075472
2.79055981284,0.9811320754716981
4.18341353021,0.9905660377358491
9.10374836932,1.0
