Congestion,CDF
0.0,0.009433962264150943
0.0,0.018867924528301886
0.0,0.02830188679245283
0.0,0.03773584905660377
0.0,0.04716981132075472
0.0,0.05660377358490566
0.0,0.0660377358490566
0.0,0.07547169811320754
0.0,0.08490566037735849
0.0,0.09433962264150944
0.0,0.10377358490566038
0.0,0.11320754716981132
0.0,0.12264150943396226
0.0,0.1320754716981132
0.0,0.14150943396226415
0.0,0.1509433962264151
0.0,0.16037735849056603
0.0,0.16981132075471697
0.0,0.1792452830188679
0.0,0.18867924528301888
0.0,0.19811320754716982
0.0,0.20754716981132076
0.0,0.2169811320754717
0.0,0.22641509433962265
0.0,0.2358490566037736
0.0,0.24528301886792453
0.0,0.25471698113207547
0.0,0.2641509433962264
0.0,0.27358490566037735
0.0,0.2830188679245283
7.18591151159e-08,0.29245283018867924
1.85126418169e-06,0.3018867924528302
2.08177875479e-06,0.3113207547169811
2.82219277806e-06,0.32075471698113206
3.18574645366e-06,0.330188679245283
4.23903100215e-06,0.33962264150943394
6.46458743132e-06,0.3490566037735849
8.27501341139e-06,0.3584905660377358
8.75756668338e-06,0.36792452830188677
1.0214220087e-05,0.37735849056603776
1.25761510409e-05,0.3867924528301887
1.28643177251e-05,0.39622641509433965
1.3573121182e-05,0.4056603773584906
1.71132910335e-05,0.41509433962264153
5.29878875268e-05,0.42452830188679247
5.29878875268e-05,0.4339622641509434
8.69768498464e-05,0.44339622641509435
0.000103437667642,0.4528301886792453
0.000103437667642,0.46226415094339623
0.000105975775054,0.4716981132075472
0.000105975775054,0.4811320754716981
0.000105975775054,0.49056603773584906
0.000163611466681,0.5
0.000206875335285,0.5094339622641509
0.000206875335285,0.5188679245283019
0.000206875335285,0.5283018867924528
0.000260514492909,0.5377358490566038
0.000260514492909,0.5471698113207547
0.000282219277806,0.5566037735849056
0.000479654926735,0.5660377358490566
0.000479654926735,0.5754716981132075
0.000594303889338,0.5849056603773585
0.000594303889338,0.5943396226415094
0.000868799270893,0.6037735849056604
0.000912878534704,0.6132075471698113
0.000925295837813,0.6226415094339622
0.00144285732768,0.6320754716981132
0.00150107693543,0.6415094339622641
0.00171132910335,0.6509433962264151
0.00195161600753,0.660377358490566
0.00242448289376,0.6698113207547169
0.00274079610714,0.6792452830188679
0.00312459839135,0.6886792452830188
0.0112645946641,0.6981132075471698
0.014004308954,0.7075471698113207
0.0229316616376,0.7169811320754716
0.0278153780782,0.7264150943396226
0.0280640465801,0.7358490566037735
0.0343165625679,0.7452830188679245
0.0400606008382,0.7547169811320755
0.053741973825,0.7641509433962265
0.054864697082,0.7735849056603774
0.29311501579,0.7830188679245284
0.347692225978,0.7924528301886793
0.347692225978,0.8018867924528302
0.350800582251,0.8113207547169812
0.350800582251,0.8207547169811321
0.695384451955,0.8301886792452831
0.695384451955,0.839622641509434
0.695384451955,0.8490566037735849
0.701601164503,0.8584905660377359
0.701601164503,0.8679245283018868
0.701601164503,0.8773584905660378
1.26172254143,0.8867924528301887
1.26172254143,0.8962264150943396
1.50417083081,0.9056603773584906
1.53580215215,0.9150943396226415
1.84507589011,0.9245283018867925
1.84507589011,0.9339622641509434
1.9319558172,0.9433962264150944
2.70152285014,0.9528301886792453
2.70152285014,0.9622641509433962
5.94702963564,0.9716981132075472
6.07269019073,0.9811320754716981
6.18496251642,0.9905660377358491
18.3908318141,1.0
