Congestion,CDF
0.0,0.005555555555555556
0.0,0.011111111111111112
0.0,0.016666666666666666
0.0,0.022222222222222223
0.0,0.027777777777777776
0.0,0.03333333333333333
0.0,0.03888888888888889
0.0,0.044444444444444446
0.0,0.05
0.0,0.05555555555555555
1.08121960466e-06,0.06111111111111111
1.24226932658e-06,0.06666666666666667
2.79624532804e-06,0.07222222222222222
4.08687520435e-06,0.07777777777777778
4.18187905538e-06,0.08333333333333333
5.52151994322e-06,0.08888888888888889
6.07440272469e-06,0.09444444444444444
8.37191211565e-06,0.1
8.41510322915e-06,0.10555555555555556
8.60944051257e-06,0.1111111111111111
8.78663267665e-06,0.11666666666666667
9.67228749214e-06,0.12222222222222222
9.89663388032e-06,0.12777777777777777
1.10515104629e-05,0.13333333333333333
1.13189669628e-05,0.1388888888888889
1.1919016388e-05,0.14444444444444443
1.3782121161e-05,0.15
1.50832537669e-05,0.15555555555555556
1.5749955101e-05,0.16111111111111112
1.63806009545e-05,0.16666666666666666
1.66397756921e-05,0.17222222222222222
1.67734151268e-05,0.17777777777777778
1.73291422963e-05,0.18333333333333332
1.79312969612e-05,0.18888888888888888
1.82339849192e-05,0.19444444444444445
1.84399048481e-05,0.2
1.85422095285e-05,0.20555555555555555
1.87551368792e-05,0.2111111111111111
1.89384084971e-05,0.21666666666666667
1.89799668423e-05,0.2222222222222222
1.96141362897e-05,0.22777777777777777
1.97777745531e-05,0.23333333333333334
2.00048110926e-05,0.2388888888888889
2.16641374348e-05,0.24444444444444444
2.27963375853e-05,0.25
2.47501918556e-05,0.25555555555555554
2.51422896361e-05,0.2611111111111111
2.55041054097e-05,0.26666666666666666
2.63678003084e-05,0.2722222222222222
8.6200327325e-05,0.2777777777777778
9.32081776015e-05,0.2833333333333333
0.000186416355203,0.28888888888888886
0.000204343760217,0.29444444444444445
0.000204343760217,0.3
0.000210377580729,0.3055555555555556
0.000210377580729,0.3111111111111111
0.000318499541195,0.31666666666666665
0.000418187905538,0.32222222222222224
0.000420755161457,0.3277777777777778
0.000560206671647,0.3333333333333333
0.000680448228802,0.3388888888888889
0.000837191211565,0.34444444444444444
0.000870651535517,0.35
0.000921995242406,0.35555555555555557
0.000921995242406,0.3611111111111111
0.00117760632994,0.36666666666666664
0.00179312969612,0.37222222222222223
0.00182339849192,0.37777777777777777
0.00188168527289,0.38333333333333336
0.00202714628869,0.3888888888888889
0.00214473937695,0.39444444444444443
0.00214473937695,0.4
0.00244564704562,0.40555555555555556
0.00258460164902,0.4111111111111111
0.00277913988423,0.4166666666666667
0.00297116570243,0.4222222222222222
0.00369112638035,0.42777777777777776
0.00390265997662,0.43333333333333335
0.00410615300592,0.4388888888888889
0.00504810619384,0.4444444444444444
0.00592676946151,0.45
0.00620531460885,0.45555555555555555
0.00654639933443,0.46111111111111114
0.00674475251183,0.4666666666666667
0.00675344657261,0.4722222222222222
0.00683729373226,0.4777777777777778
0.00689623076149,0.48333333333333334
0.00691203459489,0.4888888888888889
0.00698433689383,0.49444444444444446
0.00713813275528,0.5
0.00714046833238,0.5055555555555555
0.00716051527384,0.5111111111111111
0.0072083034472,0.5166666666666667
0.00722183230532,0.5222222222222223
0.00728267311597,0.5277777777777778
0.00729715225532,0.5333333333333333
0.00732778295892,0.5388888888888889
0.00740607084823,0.5444444444444444
0.00750026186275,0.55
0.00753623046543,0.5555555555555556
0.00757023703356,0.5611111111111111
0.00757104450002,0.5666666666666667
0.00758156095566,0.5722222222222222
0.00762144112821,0.5777777777777777
0.00765387931252,0.5833333333333334
0.00766246572748,0.5888888888888889
0.00767026354036,0.5944444444444444
0.00767766624952,0.6
0.00768134823119,0.6055555555555555
0.00768689187151,0.6111111111111112
0.00769833528323,0.6166666666666667
0.00771046201199,0.6222222222222222
0.00774473236148,0.6277777777777778
0.00776580670697,0.6333333333333333
0.00785532103054,0.6388888888888888
0.00791624334988,0.6444444444444445
0.00802184088346,0.65
0.00804295807478,0.6555555555555556
0.00806253690926,0.6611111111111111
0.00810878943365,0.6666666666666666
0.00868033379441,0.6722222222222223
0.0154434561418,0.6777777777777778
0.018788349115,0.6833333333333333
0.0196661178863,0.6888888888888889
0.0214251291458,0.6944444444444444
0.0219457516448,0.7
0.023089106715,0.7055555555555556
0.0233419970439,0.7111111111111111
0.02472020916,0.7166666666666667
0.0266979866153,0.7222222222222222
0.0268646328376,0.7277777777777777
0.0273054268877,0.7333333333333333
0.0277255768889,0.7388888888888889
0.0287152402769,0.7444444444444445
0.17851170831,0.75
0.17851170831,0.7555555555555555
0.227909791075,0.7611111111111111
0.276301925446,0.7666666666666667
0.344811538075,0.7722222222222223
0.344811538075,0.7777777777777778
0.357023416619,0.7833333333333333
0.38406741156,0.7888888888888889
0.38406741156,0.7944444444444444
0.455819582151,0.8
0.691203459489,0.8055555555555556
0.713813275528,0.8111111111111111
0.765387931252,0.8166666666666667
0.767026354036,0.8222222222222222
0.852986959493,0.8277777777777777
0.89934205303,0.8333333333333334
1.10191598808,0.8388888888888889
1.11233472316,0.8444444444444444
1.16327710755,0.85
1.17440595761,0.8555555555555555
1.17440595761,0.8611111111111112
1.47673556254,0.8666666666666667
1.53643413245,0.8722222222222222
1.55142064888,0.8777777777777778
1.87727803038,0.8833333333333333
1.88216825148,0.8888888888888888
1.94887919376,0.8944444444444445
2.30504369542,0.9
3.47804966062,0.9055555555555556
3.72702864526,0.9111111111111111
4.1795050532,0.9166666666666666
4.44308017264,0.9222222222222223
4.98168914155,0.9277777777777778
8.68981902041,0.9333333333333333
9.20458733296,0.9388888888888889
10.0154662763,0.9444444444444444
10.7736223719,0.95
10.9235782863,0.9555555555555556
11.7152026213,0.9611111111111111
12.6433049849,0.9666666666666667
12.7927924553,0.9722222222222222
13.2979449184,0.9777777777777777
13.3659897412,0.9833333333333333
13.5333995401,0.9888888888888889
14.2555827706,0.9944444444444445
14.2642028034,1.0
