Congestion,CDF
0.0,0.009433962264150943
0.0,0.018867924528301886
0.0,0.02830188679245283
0.0,0.03773584905660377
0.0,0.04716981132075472
0.0,0.05660377358490566
0.0,0.0660377358490566
0.0,0.07547169811320754
0.0,0.08490566037735849
0.0,0.09433962264150944
0.0,0.10377358490566038
0.0,0.11320754716981132
0.0,0.12264150943396226
0.0,0.1320754716981132
0.0,0.14150943396226415
0.0,0.1509433962264151
0.0,0.16037735849056603
0.0,0.16981132075471697
0.0,0.1792452830188679
0.0,0.18867924528301888
0.0,0.19811320754716982
0.0,0.20754716981132076
0.0,0.2169811320754717
0.0,0.22641509433962265
0.0,0.2358490566037736
0.0,0.24528301886792453
0.0,0.25471698113207547
0.0,0.2641509433962264
0.0,0.27358490566037735
0.0,0.2830188679245283
4.3574130015e-07,0.29245283018867924
1.12257472159e-05,0.3018867924528302
1.26235478933e-05,0.3113207547169811
1.71132910335e-05,0.32075471698113206
1.93178179195e-05,0.330188679245283
2.57047540492e-05,0.33962264150943394
3.92001450019e-05,0.3490566037735849
5.01782563954e-05,0.3584905660377358
5.31043763426e-05,0.36792452830188677
6.19372717508e-05,0.37735849056603776
7.62596143383e-05,0.3867924528301887
7.80070074898e-05,0.39622641509433965
8.23050695986e-05,0.4056603773584906
0.000321309425615,0.41509433962264153
0.000321309425615,0.42452830188679247
0.000527412640329,0.4339622641509434
0.000627228204943,0.44339622641509435
0.000627228204943,0.4528301886792453
0.000642618851231,0.46226415094339623
0.000642618851231,0.4716981132075472
0.000642618851231,0.4811320754716981
0.000992111760573,0.49056603773584906
0.00107503871201,0.5
0.00108582871793,0.5094339622641509
0.0010872265186,0.5188679245283019
0.00109171626174,0.5283018867924528
0.00109392078863,0.5377358490566038
0.00110030772476,0.5471698113207547
0.00111380311571,0.5566037735849056
0.00112478122711,0.5660377358490566
0.00112770734705,0.5754716981132075
0.00113654024246,0.5849056603773585
0.00115086258505,0.5943396226415094
0.0011526099782,0.6037735849056604
0.00115690804031,0.6132075471698113
0.00125445640989,0.6226415094339622
0.00125445640989,0.6320754716981132
0.00125445640989,0.6415094339622641
0.00157971502522,0.6509433962264151
0.00157971502522,0.660377358490566
0.00171132910335,0.6698113207547169
0.00290854488066,0.6792452830188679
0.00290854488066,0.6886792452830188
0.00360375644769,0.6981132075471698
0.00360375644769,0.7075471698113207
0.00553553823964,0.7169811320754716
0.00561083462747,0.7264150943396226
0.00874923837954,0.7358490566037735
0.00910227205573,0.7452830188679245
0.0118342634076,0.7547169811320755
0.0137538465595,0.7641509433962265
0.0137538465595,0.7735849056603774
0.0140597653388,0.7830188679245284
0.0140597653388,0.7924528301886793
0.0144972512596,0.8018867924528302
0.0189470265992,0.8113207547169812
0.027507693119,0.8207547169811321
0.027507693119,0.8301886792452831
0.027507693119,0.839622641509434
0.0281195306776,0.8490566037735849
0.0281195306776,0.8584905660377359
0.0281195306776,0.8679245283018868
0.0821749378285,0.8773584905660378
0.0821749378285,0.8867924528301887
0.0835037676839,0.8962264150943396
0.0835037676839,0.9056603773584906
0.084198979251,0.9150943396226415
0.084198979251,0.9245283018867925
0.109171626174,0.9339622641509434
0.135317483099,0.9433962264150944
0.143074609718,0.9528301886792453
0.193591058114,0.9622641509433962
0.19715779193,0.9716981132075472
0.199889783282,0.9811320754716981
0.274261577305,0.9905660377358491
0.475653289151,1.0
