Congestion,CDF
0.0,0.007352941176470588
0.0,0.014705882352941176
0.0,0.022058823529411766
0.0,0.029411764705882353
0.0,0.03676470588235294
0.0,0.04411764705882353
0.0,0.051470588235294115
0.0,0.058823529411764705
0.0,0.0661764705882353
0.0,0.07352941176470588
0.0,0.08088235294117647
0.0,0.08823529411764706
0.0,0.09558823529411764
0.0,0.10294117647058823
1.6573416405e-05,0.11029411764705882
1.6573416405e-05,0.11764705882352941
1.6573416405e-05,0.125
1.6573416405e-05,0.1323529411764706
1.6573416405e-05,0.13970588235294118
1.6573416405e-05,0.14705882352941177
1.6573416405e-05,0.15441176470588236
1.6573416405e-05,0.16176470588235295
1.6573416405e-05,0.16911764705882354
1.6573416405e-05,0.17647058823529413
1.6573416405e-05,0.18382352941176472
1.6573416405e-05,0.19117647058823528
1.6573416405e-05,0.19852941176470587
1.6573416405e-05,0.20588235294117646
1.6573416405e-05,0.21323529411764705
1.6573416405e-05,0.22058823529411764
1.6573416405e-05,0.22794117647058823
1.6573416405e-05,0.23529411764705882
1.6573416405e-05,0.2426470588235294
1.6573416405e-05,0.25
1.6573416405e-05,0.25735294117647056
1.6573416405e-05,0.2647058823529412
1.6573416405e-05,0.27205882352941174
1.6573416405e-05,0.27941176470588236
1.6573416405e-05,0.2867647058823529
1.6573416405e-05,0.29411764705882354
1.6573416405e-05,0.3014705882352941
0.000241097239065,0.3088235294117647
0.000414335410125,0.3161764705882353
0.000414335410125,0.3235294117647059
0.000447482242935,0.33088235294117646
0.000570128191245,0.3382352941176471
0.00082867082025,0.34558823529411764
0.00082867082025,0.35294117647058826
0.00082867082025,0.3602941176470588
0.00082867082025,0.36764705882352944
0.00124300623038,0.375
0.00138111803375,0.38235294117647056
0.00138111803375,0.3897058823529412
0.00138111803375,0.39705882352941174
0.0016573416405,0.40441176470588236
0.0016573416405,0.4117647058823529
0.0016573416405,0.41911764705882354
0.0016573416405,0.4264705882352941
0.0016573416405,0.4338235294117647
0.0016573416405,0.4411764705882353
0.0016573416405,0.4485294117647059
0.00207167705063,0.45588235294117646
0.00248601246075,0.4632352941176471
0.00248601246075,0.47058823529411764
0.00303845967425,0.47794117647058826
0.00322218411515,0.4852941176470588
0.003314683281,0.49264705882352944
0.003314683281,0.5
0.00342836356204,0.5073529411764706
0.00383567159864,0.5147058823529411
0.00397117008285,0.5220588235294118
0.00405522312924,0.5294117647058824
0.00409182508987,0.5367647058823529
0.00431103371468,0.5441176470588235
0.00436421988278,0.5514705882352942
0.00437360068142,0.5588235294117647
0.00439375297439,0.5661764705882353
0.00440126841133,0.5735294117647058
0.00440353270682,0.5808823529411765
0.0044040437571,0.5882352941176471
0.00440663124189,0.5955882352941176
0.00440803200973,0.6029411764705882
0.00441119841382,0.6102941176470589
0.00441208729445,0.6176470588235294
0.00442966122142,0.625
0.0044353479061,0.6323529411764706
0.00443538924443,0.6397058823529411
0.00443571907386,0.6470588235294118
0.00443573165499,0.6544117647058824
0.00443599431521,0.6617647058823529
0.00443600270302,0.6691176470588235
0.00443600270302,0.6764705882352942
0.0049720249215,0.6838235294117647
0.00676747836538,0.6911764705882353
0.0120157268936,0.6985294117647058
0.0122919505004,0.7058823529411765
0.0158828573881,0.7132352941176471
0.0197499878826,0.7205882352941176
0.0200262114894,0.7279411764705882
0.0214073295231,0.7352941176470589
0.0216835531299,0.7426470588235294
0.0233408947704,0.75
0.107184912919,0.7573529411764706
0.110088317671,0.7647058823529411
0.110279960345,0.7720588235294118
0.204591254493,0.7794117647058824
0.204591254493,0.7867647058823529
0.220604364723,0.7941176470588235
0.220604364723,0.8014705882352942
0.330264953012,0.8088235294117647
0.36707722506,0.8161764705882353
0.36707722506,0.8235294117647058
0.36707722506,0.8308823529411765
0.405522312924,0.8382352941176471
0.440663124189,0.8455882352941176
0.441119841382,0.8529411764705882
0.443538924443,0.8602941176470589
0.443573165499,0.8676470588235294
0.443600270302,0.875
0.443600270302,0.8823529411764706
0.550891518644,0.8897058823529411
0.588158414357,0.8970588235294118
0.659979662161,0.9044117647058824
0.802639321209,0.9117647058823529
0.803499213338,0.9191176470588235
0.887145072886,0.9264705882352942
1.33079997213,0.9338235294117647
1.7990362436,0.9411764705882353
3.21529872041,0.9485294117647058
3.2382300829,0.9558823529411765
4.24594643234,0.9632352941176471
4.95124622998,0.9705882352941176
5.00825904911,0.9779411764705882
5.34328616264,0.9852941176470589
5.68612251884,0.9926470588235294
5.71023224275,1.0
