Congestion,CDF
0.0,0.007352941176470588
0.0,0.014705882352941176
0.0,0.022058823529411766
0.0,0.029411764705882353
0.0,0.03676470588235294
0.0,0.04411764705882353
0.0,0.051470588235294115
0.0,0.058823529411764705
0.0,0.0661764705882353
0.0,0.07352941176470588
0.0,0.08088235294117647
0.0,0.08823529411764706
0.0,0.09558823529411764
0.0,0.10294117647058823
1.5368114123e-05,0.11029411764705882
1.5368114123e-05,0.11764705882352941
1.5368114123e-05,0.125
1.5368114123e-05,0.1323529411764706
1.5368114123e-05,0.13970588235294118
1.5368114123e-05,0.14705882352941177
1.5368114123e-05,0.15441176470588236
1.5368114123e-05,0.16176470588235295
1.5368114123e-05,0.16911764705882354
1.5368114123e-05,0.17647058823529413
1.5368114123e-05,0.18382352941176472
1.5368114123e-05,0.19117647058823528
1.5368114123e-05,0.19852941176470587
1.5368114123e-05,0.20588235294117646
1.5368114123e-05,0.21323529411764705
1.5368114123e-05,0.22058823529411764
1.5368114123e-05,0.22794117647058823
1.5368114123e-05,0.23529411764705882
1.5368114123e-05,0.2426470588235294
1.5368114123e-05,0.25
1.5368114123e-05,0.25735294117647056
1.5368114123e-05,0.2647058823529412
1.5368114123e-05,0.27205882352941174
1.5368114123e-05,0.27941176470588236
1.5368114123e-05,0.2867647058823529
1.5368114123e-05,0.29411764705882354
1.5368114123e-05,0.3014705882352941
0.000384202853075,0.3088235294117647
0.000384202853075,0.3161764705882353
0.000414939081321,0.3235294117647059
0.00076840570615,0.33088235294117646
0.00076840570615,0.3382352941176471
0.00076840570615,0.34558823529411764
0.00076840570615,0.35294117647058826
0.00115260855922,0.3602941176470588
0.00128067617692,0.36764705882352944
0.00128067617692,0.375
0.00128067617692,0.38235294117647056
0.0015368114123,0.3897058823529412
0.0015368114123,0.39705882352941174
0.0015368114123,0.40441176470588236
0.0015368114123,0.4117647058823529
0.0015368114123,0.41911764705882354
0.0015368114123,0.4264705882352941
0.0015368114123,0.4338235294117647
0.00192101426537,0.4411764705882353
0.00230521711845,0.4485294117647059
0.00230521711845,0.45588235294117646
0.00281748758921,0.4632352941176471
0.0030736228246,0.47058823529411764
0.0030736228246,0.47794117647058826
0.0046104342369,0.4852941176470588
0.00627531326689,0.49264705882352944
0.0111418827392,0.5
0.0113980179746,0.5073529411764706
0.0130604308304,0.5147058823529411
0.0131245652072,0.5220588235294118
0.013740704531,0.5294117647058824
0.0137441076721,0.5367647058823529
0.0137561661032,0.5441176470588235
0.0137667368488,0.5514705882352942
0.0137667368488,0.5588235294117647
0.0137802126506,0.5661764705882353
0.0138163176291,0.5735294117647058
0.0138201888588,0.5808823529411765
0.0138252376423,0.5882352941176471
0.0138255777662,0.5955882352941176
0.0138271801311,0.6029411764705882
0.013827420874,0.6102941176470589
0.0138281431249,0.6176470588235294
0.0138281431249,0.625
0.0138281431249,0.6323529411764706
0.0138289706003,0.6397058823529411
0.0138293930767,0.6470588235294118
0.0138332083872,0.6544117647058824
0.0138343420304,0.6617647058823529
0.0138343420304,0.6691176470588235
0.0138344202906,0.6764705882352942
0.0138344202906,0.6838235294117647
0.01383448832,0.6911764705882353
0.01383448832,0.6985294117647058
0.01383448832,0.7058823529411765
0.0147277760345,0.7132352941176471
0.0183136693299,0.7205882352941176
0.0185698045653,0.7279411764705882
0.0198504807422,0.7352941176470589
0.0201066159776,0.7426470588235294
0.0216434273899,0.75
0.345685521849,0.7573529411764706
0.345724265009,0.7647058823529411
0.371498574634,0.7720588235294118
0.68901063253,0.7794117647058824
0.68901063253,0.7867647058823529
0.691469653837,0.7941176470588235
0.691469653837,0.8014705882352942
1.03705656555,0.8088235294117647
1.15231579123,0.8161764705882353
1.15231579123,0.8235294117647058
1.15231579123,0.8308823529411765
1.37667368488,0.8382352941176471
1.38281431249,0.8455882352941176
1.38289706003,0.8529411764705882
1.38343420304,0.8602941176470589
1.38344202906,0.8676470588235294
1.383448832,0.875
1.383448832,0.8823529411764706
1.72849983434,0.8897058823529411
2.06342139974,0.8970588235294118
2.07402743046,0.9044117647058824
2.53433467711,0.9117647058823529
2.75334736975,0.9191176470588235
2.76688405811,0.9264705882352942
4.15034649599,0.9338235294117647
5.64644425055,0.9411764705882353
10.0298232252,0.9485294117647058
10.2514213231,0.9558823529411765
13.256929509,0.9632352941176471
16.4422605457,0.9705882352941176
16.7134807037,0.9779411764705882
17.7483036287,0.9852941176470589
18.089097314,0.9926470588235294
19.4015538347,1.0
