Congestion,CDF
0.0,0.007352941176470588
0.0,0.014705882352941176
0.0,0.022058823529411766
0.0,0.029411764705882353
0.0,0.03676470588235294
0.0,0.04411764705882353
0.0,0.051470588235294115
0.0,0.058823529411764705
0.0,0.0661764705882353
0.0,0.07352941176470588
0.0,0.08088235294117647
0.0,0.08823529411764706
0.0,0.09558823529411764
0.0,0.10294117647058823
1.56443341039e-05,0.11029411764705882
1.56443341039e-05,0.11764705882352941
1.56443341039e-05,0.125
1.56443341039e-05,0.1323529411764706
1.56443341039e-05,0.13970588235294118
1.56443341039e-05,0.14705882352941177
1.56443341039e-05,0.15441176470588236
1.56443341039e-05,0.16176470588235295
1.56443341039e-05,0.16911764705882354
1.56443341039e-05,0.17647058823529413
1.56443341039e-05,0.18382352941176472
1.56443341039e-05,0.19117647058823528
1.56443341039e-05,0.19852941176470587
1.56443341039e-05,0.20588235294117646
1.56443341039e-05,0.21323529411764705
1.56443341039e-05,0.22058823529411764
1.56443341039e-05,0.22794117647058823
1.56443341039e-05,0.23529411764705882
1.56443341039e-05,0.2426470588235294
1.56443341039e-05,0.25
1.56443341039e-05,0.25735294117647056
1.56443341039e-05,0.2647058823529412
1.56443341039e-05,0.27205882352941174
1.56443341039e-05,0.27941176470588236
1.56443341039e-05,0.2867647058823529
1.56443341039e-05,0.29411764705882354
1.56443341039e-05,0.3014705882352941
0.000264060616316,0.3088235294117647
0.000391108352598,0.3161764705882353
0.000391108352598,0.3235294117647059
0.000422397020806,0.33088235294117646
0.000747109541454,0.3382352941176471
0.000782216705197,0.34558823529411764
0.000782216705197,0.35294117647058826
0.000782216705197,0.3602941176470588
0.000782216705197,0.36764705882352944
0.0011733250578,0.375
0.00130369450866,0.38235294117647056
0.00130369450866,0.3897058823529412
0.00130369450866,0.39705882352941174
0.00156443341039,0.40441176470588236
0.00156443341039,0.4117647058823529
0.00156443341039,0.41911764705882354
0.00156443341039,0.4264705882352941
0.00156443341039,0.4338235294117647
0.00156443341039,0.4411764705882353
0.00156443341039,0.4485294117647059
0.00195554176299,0.45588235294117646
0.00234665011559,0.4632352941176471
0.00234665011559,0.47058823529411764
0.00286812791906,0.47794117647058826
0.00312886682079,0.4852941176470588
0.00312886682079,0.49264705882352944
0.00469330023118,0.5
0.00638810309244,0.5073529411764706
0.00859054664217,0.5147058823529411
0.0087532346623,0.5220588235294118
0.00919848219114,0.5294117647058824
0.00928743868467,0.5367647058823529
0.00936200494618,0.5441176470588235
0.00937400751988,0.5514705882352942
0.00948259931864,0.5588235294117647
0.00951804990596,0.5661764705882353
0.00952380237056,0.5735294117647058
0.00953548077108,0.5808823529411765
0.00954076652739,0.5882352941176471
0.00954081403807,0.5955882352941176
0.00954224203049,0.6029411764705882
0.00954340853017,0.6102941176470589
0.00954397462053,0.6176470588235294
0.00954436645628,0.625
0.00954556338148,0.6323529411764706
0.00955167452114,0.6397058823529411
0.00955425546817,0.6470588235294118
0.00955429681122,0.6544117647058824
0.0095544253651,0.6617647058823529
0.00955443794731,0.6691176470588235
0.00955451015906,0.6764705882352942
0.00955451854735,0.6838235294117647
0.00955451854735,0.6911764705882353
0.0113421422254,0.6985294117647058
0.0116028811271,0.7058823529411765
0.0149924868496,0.7132352941176471
0.0186428314739,0.7205882352941176
0.0189035703756,0.7279411764705882
0.0202072648843,0.7352941176470589
0.020468003786,0.7426470588235294
0.0220324371964,0.75
0.236870590121,0.7573529411764706
0.238556050762,0.7647058823529411
0.238639084537,0.7720588235294118
0.468100247309,0.7794117647058824
0.468100247309,0.7867647058823529
0.477198731026,0.7941176470588235
0.477198731026,0.8014705882352942
0.715668152287,0.8088235294117647
0.795220686212,0.8161764705882353
0.795220686212,0.8235294117647058
0.795220686212,0.8308823529411765
0.937400751988,0.8382352941176471
0.954340853017,0.8455882352941176
0.954556338148,0.8529411764705882
0.955429681122,0.8602941176470589
0.955443794731,0.8676470588235294
0.955451854735,0.875
0.955451854735,0.8823529411764706
1.19299269639,0.8897058823529411
1.38794846642,0.8970588235294118
1.43074680813,0.9044117647058824
1.74760092327,0.9117647058823529
1.86614462045,0.9191176470588235
1.91088633124,0.9264705882352942
2.86635472538,0.9338235294117647
3.89663563943,0.9411764705882353
6.92673536909,0.9485294117647058
7.06059674187,0.9558823529411765
9.15432223844,0.9632352941176471
11.173744493,0.9705882352941176
11.2484554471,0.9779411764705882
11.5368740372,0.9852941176470589
12.4121975034,0.9926470588235294
12.438603565,1.0
