Congestion,CDF
0.0,0.007352941176470588
0.0,0.014705882352941176
0.0,0.022058823529411766
0.0,0.029411764705882353
0.0,0.03676470588235294
0.0,0.04411764705882353
0.0,0.051470588235294115
0.0,0.058823529411764705
0.0,0.0661764705882353
0.0,0.07352941176470588
0.0,0.08088235294117647
0.0,0.08823529411764706
0.0,0.09558823529411764
0.0,0.10294117647058823
1.58299759686e-05,0.11029411764705882
1.58299759686e-05,0.11764705882352941
1.58299759686e-05,0.125
1.58299759686e-05,0.1323529411764706
1.58299759686e-05,0.13970588235294118
1.58299759686e-05,0.14705882352941177
1.58299759686e-05,0.15441176470588236
1.58299759686e-05,0.16176470588235295
1.58299759686e-05,0.16911764705882354
1.58299759686e-05,0.17647058823529413
1.58299759686e-05,0.18382352941176472
1.58299759686e-05,0.19117647058823528
1.58299759686e-05,0.19852941176470587
1.58299759686e-05,0.20588235294117646
1.58299759686e-05,0.21323529411764705
1.58299759686e-05,0.22058823529411764
1.58299759686e-05,0.22794117647058823
1.58299759686e-05,0.23529411764705882
1.58299759686e-05,0.2426470588235294
1.58299759686e-05,0.25
1.58299759686e-05,0.25735294117647056
1.58299759686e-05,0.2647058823529412
1.58299759686e-05,0.27205882352941174
1.58299759686e-05,0.27941176470588236
1.58299759686e-05,0.2867647058823529
1.58299759686e-05,0.29411764705882354
1.58299759686e-05,0.3014705882352941
0.000395749399214,0.3088235294117647
0.000395749399214,0.3161764705882353
0.000427409351151,0.3235294117647059
0.000791498798429,0.33088235294117646
0.000791498798429,0.3382352941176471
0.000791498798429,0.34558823529411764
0.000791498798429,0.35294117647058826
0.00118724819764,0.3602941176470588
0.00131916466405,0.36764705882352944
0.00131916466405,0.375
0.00131916466405,0.38235294117647056
0.00158299759686,0.3897058823529412
0.00158299759686,0.39705882352941174
0.00158299759686,0.40441176470588236
0.00158299759686,0.4117647058823529
0.00158299759686,0.41911764705882354
0.00158299759686,0.4264705882352941
0.00158299759686,0.4338235294117647
0.00197874699607,0.4411764705882353
0.00237449639529,0.4485294117647059
0.00237449639529,0.45588235294117646
0.0029021622609,0.4632352941176471
0.00316599519371,0.47058823529411764
0.00316599519371,0.47794117647058826
0.00474899279057,0.4852941176470588
0.00646390685383,0.49264705882352944
0.00691731218938,0.5
0.00691731218938,0.5073529411764706
0.00691731218938,0.5147058823529411
0.00691731218938,0.5220588235294118
0.00691731218938,0.5294117647058824
0.00691731218938,0.5367647058823529
0.00691731218938,0.5441176470588235
0.00691731218938,0.5514705882352942
0.00691731218938,0.5588235294117647
0.00691731218938,0.5661764705882353
0.00691731218938,0.5735294117647058
0.00691731218938,0.5808823529411765
0.00691731218938,0.5882352941176471
0.00691731218938,0.5955882352941176
0.00691731218938,0.6029411764705882
0.00691731218938,0.6102941176470589
0.00691731218938,0.6176470588235294
0.00691731218938,0.625
0.00691731218938,0.6323529411764706
0.00691731218938,0.6397058823529411
0.00691731218938,0.6470588235294118
0.00691731218938,0.6544117647058824
0.00691731218938,0.6617647058823529
0.00691731218938,0.6691176470588235
0.00691731218938,0.6764705882352942
0.00691731218938,0.6838235294117647
0.00691731218938,0.6911764705882353
0.0114767325772,0.6985294117647058
0.01174056551,0.7058823529411765
0.0151703936365,0.7132352941176471
0.0188640546959,0.7205882352941176
0.0191278876287,0.7279411764705882
0.0204470522927,0.7352941176470589
0.0207108852255,0.7426470588235294
0.0222938828224,0.75
0.172932804735,0.7573529411764706
0.172932804735,0.7647058823529411
0.186767429113,0.7720588235294118
0.345865609469,0.7794117647058824
0.345865609469,0.7867647058823529
0.345865609469,0.7941176470588235
0.345865609469,0.8014705882352942
0.518798414204,0.8088235294117647
0.576442682449,0.8161764705882353
0.576442682449,0.8235294117647058
0.576442682449,0.8308823529411765
0.691731218938,0.8382352941176471
0.691731218938,0.8455882352941176
0.691731218938,0.8529411764705882
0.691731218938,0.8602941176470589
0.691731218938,0.8676470588235294
0.691731218938,0.875
0.691731218938,0.8823529411764706
0.864664023673,0.8897058823529411
1.03759682841,0.8970588235294118
1.03759682841,0.9044117647058824
1.26817390139,0.9117647058823529
1.38346243788,0.9191176470588235
1.38346243788,0.9264705882352942
2.07519365682,0.9338235294117647
2.824569144,0.9411764705882353
5.0150513373,0.9485294117647058
5.13033987379,0.9558823529411765
6.62909084816,0.9632352941176471
8.24313035902,0.9705882352941176
8.35841889551,0.9779411764705882
8.93486157796,0.9852941176470589
9.05015011445,0.9926470588235294
9.74188133338,1.0
