Congestion,CDF
0.0,0.007352941176470588
0.0,0.014705882352941176
0.0,0.022058823529411766
0.0,0.029411764705882353
0.0,0.03676470588235294
0.0,0.04411764705882353
0.0,0.051470588235294115
0.0,0.058823529411764705
0.0,0.0661764705882353
0.0,0.07352941176470588
0.0,0.08088235294117647
0.0,0.08823529411764706
0.0,0.09558823529411764
0.0,0.10294117647058823
1.51742820057e-05,0.11029411764705882
1.51742820057e-05,0.11764705882352941
1.51742820057e-05,0.125
1.51742820057e-05,0.1323529411764706
1.51742820057e-05,0.13970588235294118
1.51742820057e-05,0.14705882352941177
1.51742820057e-05,0.15441176470588236
1.51742820057e-05,0.16176470588235295
1.51742820057e-05,0.16911764705882354
1.51742820057e-05,0.17647058823529413
1.51742820057e-05,0.18382352941176472
1.51742820057e-05,0.19117647058823528
1.51742820057e-05,0.19852941176470587
1.51742820057e-05,0.20588235294117646
1.51742820057e-05,0.21323529411764705
1.51742820057e-05,0.22058823529411764
1.51742820057e-05,0.22794117647058823
1.51742820057e-05,0.23529411764705882
1.51742820057e-05,0.2426470588235294
1.51742820057e-05,0.25
1.51742820057e-05,0.25735294117647056
1.51742820057e-05,0.2647058823529412
1.51742820057e-05,0.27205882352941174
1.51742820057e-05,0.27941176470588236
1.51742820057e-05,0.2867647058823529
1.51742820057e-05,0.29411764705882354
1.51742820057e-05,0.3014705882352941
0.000379357050142,0.3088235294117647
0.000379357050142,0.3161764705882353
0.000409705614153,0.3235294117647059
0.000758714100284,0.33088235294117646
0.000758714100284,0.3382352941176471
0.000758714100284,0.34558823529411764
0.000758714100284,0.35294117647058826
0.00113807115043,0.3602941176470588
0.00126452350047,0.36764705882352944
0.00126452350047,0.375
0.00126452350047,0.38235294117647056
0.00151742820057,0.3897058823529412
0.00151742820057,0.39705882352941174
0.00151742820057,0.40441176470588236
0.00151742820057,0.4117647058823529
0.00151742820057,0.41911764705882354
0.00151742820057,0.4264705882352941
0.00151742820057,0.4338235294117647
0.00189678525071,0.4411764705882353
0.00227614230085,0.4485294117647059
0.00227614230085,0.45588235294117646
0.00278195170104,0.4632352941176471
0.00303485640113,0.47058823529411764
0.00303485640113,0.47794117647058826
0.0045522846017,0.4852941176470588
0.00619616515232,0.49264705882352944
0.00652870902359,0.5
0.00769453294858,0.5073529411764706
0.0110013544541,0.5147058823529411
0.0112542591542,0.5220588235294118
0.0145420202554,0.5294117647058824
0.0180826860568,0.5367647058823529
0.0183355907569,0.5441176470588235
0.0196001142573,0.5514705882352942
0.0198530189574,0.5588235294117647
0.021370447158,0.5661764705882353
0.0243035176596,0.5735294117647058
0.0244050628745,0.5808823529411765
0.0247113957533,0.5882352941176471
0.0247607823662,0.5955882352941176
0.0248096886063,0.6029411764705882
0.0248103616621,0.6102941176470589
0.0248690955172,0.6176470588235294
0.0248886487918,0.625
0.0248900304562,0.6323529411764706
0.024897162113,0.6397058823529411
0.024900253941,0.6470588235294118
0.0249005292934,0.6544117647058824
0.0249008877796,0.6617647058823529
0.0249015971787,0.6691176470588235
0.0249017984038,0.6764705882352942
0.0249025323459,0.6838235294117647
0.0249028279245,0.6911764705882353
0.0249072184393,0.6985294117647058
0.024908772122,0.7058823529411765
0.0249087849986,0.7132352941176471
0.0249088718822,0.7205882352941176
0.0249088750271,0.7279411764705882
0.0249089427861,0.7352941176470589
0.0249089448827,0.7426470588235294
0.0249089448827,0.75
0.62252219449,0.7573529411764706
0.622570698112,0.7647058823529411
0.63514876966,0.7720588235294118
1.24051808311,0.7794117647058824
1.24051808311,0.7867647058823529
1.24512661729,0.7941176470588235
1.24512661729,0.8014705882352942
1.86756658347,0.8088235294117647
2.0751013573,0.8161764705882353
2.0751013573,0.8235294117647058
2.0751013573,0.8308823529411765
2.48096886063,0.8382352941176471
2.49015971787,0.8455882352941176
2.49028279245,0.8529411764705882
2.49087849986,0.8602941176470589
2.49088750271,0.8676470588235294
2.49089448827,0.875
2.49089448827,0.8823529411764706
3.11270203487,0.8897058823529411
3.71165765843,0.8970588235294118
3.73484282859,0.9044117647058824
4.56410440292,0.9117647058823529
4.95704709725,0.9191176470588235
4.98177469093,0.9264705882352942
7.47268325514,0.9338235294117647
10.1680160394,0.9411764705882353
18.0587843562,0.9485294117647058
18.4595480771,0.9558823529411765
23.8697341748,0.9632352941176471
29.5586045988,0.9705882352941176
30.0934418825,0.9779411764705882
30.2114755011,0.9852941176470589
32.53394817,0.9926470588235294
33.3034014648,1.0
