Congestion,CDF
0.0,0.007352941176470588
0.0,0.014705882352941176
0.0,0.022058823529411766
0.0,0.029411764705882353
0.0,0.03676470588235294
0.0,0.04411764705882353
0.0,0.051470588235294115
0.0,0.058823529411764705
0.0,0.0661764705882353
0.0,0.07352941176470588
0.0,0.08088235294117647
0.0,0.08823529411764706
0.0,0.09558823529411764
0.0,0.10294117647058823
1.51210354591e-05,0.11029411764705882
1.51210354591e-05,0.11764705882352941
1.51210354591e-05,0.125
1.51210354591e-05,0.1323529411764706
1.51210354591e-05,0.13970588235294118
1.51210354591e-05,0.14705882352941177
1.51210354591e-05,0.15441176470588236
1.51210354591e-05,0.16176470588235295
1.51210354591e-05,0.16911764705882354
1.51210354591e-05,0.17647058823529413
1.51210354591e-05,0.18382352941176472
1.51210354591e-05,0.19117647058823528
1.51210354591e-05,0.19852941176470587
1.51210354591e-05,0.20588235294117646
1.51210354591e-05,0.21323529411764705
1.51210354591e-05,0.22058823529411764
1.51210354591e-05,0.22794117647058823
1.51210354591e-05,0.23529411764705882
1.51210354591e-05,0.2426470588235294
1.51210354591e-05,0.25
1.51210354591e-05,0.25735294117647056
1.51210354591e-05,0.2647058823529412
1.51210354591e-05,0.27205882352941174
1.51210354591e-05,0.27941176470588236
1.51210354591e-05,0.2867647058823529
1.51210354591e-05,0.29411764705882354
1.51210354591e-05,0.3014705882352941
0.000378025886479,0.3088235294117647
0.000378025886479,0.3161764705882353
0.000408267957397,0.3235294117647059
0.000756051772957,0.33088235294117646
0.000756051772957,0.3382352941176471
0.000756051772957,0.34558823529411764
0.000756051772957,0.35294117647058826
0.00113407765944,0.3602941176470588
0.00126008628826,0.36764705882352944
0.00126008628826,0.375
0.00126008628826,0.38235294117647056
0.00151210354591,0.3897058823529412
0.00151210354591,0.39705882352941174
0.00151210354591,0.40441176470588236
0.00151210354591,0.4117647058823529
0.00151210354591,0.41911764705882354
0.00151210354591,0.4264705882352941
0.00151210354591,0.4338235294117647
0.00189012943239,0.4411764705882353
0.00226815531887,0.4485294117647059
0.00226815531887,0.45588235294117646
0.00277218983418,0.4632352941176471
0.00302420709183,0.47058823529411764
0.00302420709183,0.47794117647058826
0.00453631063774,0.4852941176470588
0.00617442281249,0.49264705882352944
0.0109627507079,0.5
0.0112147679655,0.5073529411764706
0.014490992315,0.5147058823529411
0.0149533621701,0.5220588235294118
0.0160211736544,0.5294117647058824
0.0180192339222,0.5367647058823529
0.0182712511798,0.5441176470588235
0.0195313374681,0.5514705882352942
0.0197833547257,0.5588235294117647
0.0212954582716,0.5661764705882353
0.0298420013161,0.5735294117647058
0.0299348204098,0.5808823529411765
0.0301725767374,0.5882352941176471
0.0302139744434,0.5955882352941176
0.0302541675911,0.6029411764705882
0.03027533146,0.6102941176470589
0.0303466368355,0.6176470588235294
0.0303638331276,0.625
0.0303705748357,0.6323529411764706
0.0303780330999,0.6397058823529411
0.03037998965,0.6470588235294118
0.0303808647958,0.6544117647058824
0.0303813412997,0.6617647058823529
0.0303822925636,0.6691176470588235
0.0303826513589,0.6764705882352942
0.0303841730386,0.6838235294117647
0.0303855305801,0.6911764705882353
0.0303924969912,0.6985294117647058
0.030394947685,0.7058823529411765
0.0303949607935,0.7132352941176471
0.0303950566431,0.7205882352941176
0.030395060469,0.7279411764705882
0.0303952408824,0.7352941176470589
0.0303952434332,0.7426470588235294
0.0303952434332,0.75
0.759521619896,0.7573529411764706
0.759604325965,0.7647058823529411
0.788961579298,0.7720588235294118
1.513766573,0.7794117647058824
1.513766573,0.7867647058823529
1.51927652901,0.7941176470588235
1.51927652901,0.8014705882352942
2.27856485969,0.8088235294117647
2.53179226753,0.8161764705882353
2.53179226753,0.8235294117647058
2.53179226753,0.8308823529411765
3.02541675911,0.8382352941176471
3.03822925636,0.8455882352941176
3.03841730386,0.8529411764705882
3.03949607935,0.8602941176470589
3.0395060469,0.8676470588235294
3.03952434332,0.875
3.03952434332,0.8823529411764706
3.79778675579,0.8897058823529411
4.53102424673,0.8970588235294118
4.55707983899,0.9044117647058824
5.56817558029,0.9117647058823529
6.04681420345,0.9191176470588235
6.07901171121,0.9264705882352942
9.11857277489,0.9338235294117647
12.4059424096,0.9411764705882353
22.0361796599,0.9485294117647058
22.5225482465,0.9558823529411765
29.1264981556,0.9632352941176471
36.0845868283,0.9705882352941176
36.7206354781,0.9779411764705882
37.5799230453,0.9852941176470589
39.7141175191,0.9926470588235294
41.3162348845,1.0
