Congestion,CDF
0.0,0.007352941176470588
0.0,0.014705882352941176
0.0,0.022058823529411766
0.0,0.029411764705882353
0.0,0.03676470588235294
0.0,0.04411764705882353
0.0,0.051470588235294115
0.0,0.058823529411764705
0.0,0.0661764705882353
0.0,0.07352941176470588
0.0,0.08088235294117647
0.0,0.08823529411764706
0.0,0.09558823529411764
0.0,0.10294117647058823
1.50630921257e-05,0.11029411764705882
1.50630921257e-05,0.11764705882352941
1.50630921257e-05,0.125
1.50630921257e-05,0.1323529411764706
1.50630921257e-05,0.13970588235294118
1.50630921257e-05,0.14705882352941177
1.50630921257e-05,0.15441176470588236
1.50630921257e-05,0.16176470588235295
1.50630921257e-05,0.16911764705882354
1.50630921257e-05,0.17647058823529413
1.50630921257e-05,0.18382352941176472
1.50630921257e-05,0.19117647058823528
1.50630921257e-05,0.19852941176470587
1.50630921257e-05,0.20588235294117646
1.50630921257e-05,0.21323529411764705
1.50630921257e-05,0.22058823529411764
1.50630921257e-05,0.22794117647058823
1.50630921257e-05,0.23529411764705882
1.50630921257e-05,0.2426470588235294
1.50630921257e-05,0.25
1.50630921257e-05,0.25735294117647056
1.50630921257e-05,0.2647058823529412
1.50630921257e-05,0.27205882352941174
1.50630921257e-05,0.27941176470588236
1.50630921257e-05,0.2867647058823529
1.50630921257e-05,0.29411764705882354
1.50630921257e-05,0.3014705882352941
0.000376577303143,0.3088235294117647
0.000376577303143,0.3161764705882353
0.000406703487394,0.3235294117647059
0.000753154606286,0.33088235294117646
0.000753154606286,0.3382352941176471
0.000753154606286,0.34558823529411764
0.000753154606286,0.35294117647058826
0.00112973190943,0.3602941176470588
0.00125525767714,0.36764705882352944
0.00125525767714,0.375
0.00125525767714,0.38235294117647056
0.00150630921257,0.3897058823529412
0.00150630921257,0.39705882352941174
0.00150630921257,0.40441176470588236
0.00150630921257,0.4117647058823529
0.00150630921257,0.41911764705882354
0.00150630921257,0.4264705882352941
0.00150630921257,0.4338235294117647
0.00188288651571,0.4411764705882353
0.00225946381886,0.4485294117647059
0.00225946381886,0.45588235294117646
0.00276156688971,0.4632352941176471
0.00301261842514,0.47058823529411764
0.00301261842514,0.47794117647058826
0.00451892763771,0.4852941176470588
0.006150762618,0.49264705882352944
0.0109207417911,0.5
0.0111717933266,0.5073529411764706
0.0144354632871,0.5147058823529411
0.0179501847831,0.5220588235294118
0.0182012363186,0.5294117647058824
0.0194564939957,0.5367647058823529
0.0197075455311,0.5441176470588235
0.0212138547437,0.5514705882352942
0.0280978787706,0.5588235294117647
0.0290274580122,0.5661764705882353
0.0401871298649,0.5735294117647058
0.0402614735115,0.5808823529411765
0.0404293639462,0.5882352941176471
0.0404656387329,0.5955882352941176
0.0404947824211,0.6029411764705882
0.0405185659387,0.6102941176470589
0.0405870577853,0.6176470588235294
0.0406007396489,0.625
0.0406089551737,0.6323529411764706
0.0406146983632,0.6397058823529411
0.0406163709081,0.6470588235294118
0.0406171825177,0.6544117647058824
0.0406178970885,0.6617647058823529
0.0406186432947,0.6691176470588235
0.040618985924,0.6764705882352942
0.0406204672993,0.6838235294117647
0.0406219297561,0.6911764705882353
0.0406288287761,0.6985294117647058
0.0406312199954,0.7058823529411765
0.0406312313774,0.7132352941176471
0.040631326884,0.7205882352941176
0.040631330465,0.7279411764705882
0.040631511009,0.7352941176470589
0.0406315133965,0.7426470588235294
0.0406315133965,0.75
1.01542956294,0.7573529411764706
1.01551168248,0.7647058823529411
1.07127369426,0.7720588235294118
2.02592829693,0.7794117647058824
2.02592829693,0.7867647058823529
2.0310964878,0.7941176470588235
2.0310964878,0.8014705882352942
3.04628868882,0.8088235294117647
3.38482027569,0.8161764705882353
3.38482027569,0.8235294117647058
3.38482027569,0.8308823529411765
4.04947824211,0.8382352941176471
4.06186432947,0.8455882352941176
4.06204672993,0.8529411764705882
4.06312313774,0.8602941176470589
4.0631330465,0.8676470588235294
4.06315133965,0.875
4.06315133965,0.8823529411764706
5.07732815534,0.8897058823529411
6.06886469155,0.8970588235294118
6.09256632413,0.9044117647058824
7.44489424058,0.9117647058823529
8.0960421154,0.9191176470588235
8.1262657349,0.9264705882352942
12.1894537802,0.9338235294117647
16.5858024694,0.9411764705882353
29.4574763349,0.9485294117647058
30.1153307854,0.9558823529411765
38.936275976,0.9632352941176471
48.2989505789,0.9705882352941176
49.0897378175,0.9779411764705882
51.1087384559,0.9852941176470589
53.1158851686,0.9926470588235294
56.0186309698,1.0
