Congestion,CDF
0.0,0.007352941176470588
0.0,0.014705882352941176
0.0,0.022058823529411766
0.0,0.029411764705882353
0.0,0.03676470588235294
0.0,0.04411764705882353
0.0,0.051470588235294115
0.0,0.058823529411764705
0.0,0.0661764705882353
0.0,0.07352941176470588
0.0,0.08088235294117647
0.0,0.08823529411764706
0.0,0.09558823529411764
0.0,0.10294117647058823
1.51849264394e-05,0.11029411764705882
1.51849264394e-05,0.11764705882352941
1.51849264394e-05,0.125
1.51849264394e-05,0.1323529411764706
1.51849264394e-05,0.13970588235294118
1.51849264394e-05,0.14705882352941177
1.51849264394e-05,0.15441176470588236
1.51849264394e-05,0.16176470588235295
1.51849264394e-05,0.16911764705882354
1.51849264394e-05,0.17647058823529413
1.51849264394e-05,0.18382352941176472
1.51849264394e-05,0.19117647058823528
1.51849264394e-05,0.19852941176470587
1.51849264394e-05,0.20588235294117646
1.51849264394e-05,0.21323529411764705
1.51849264394e-05,0.22058823529411764
1.51849264394e-05,0.22794117647058823
1.51849264394e-05,0.23529411764705882
1.51849264394e-05,0.2426470588235294
1.51849264394e-05,0.25
1.51849264394e-05,0.25735294117647056
1.51849264394e-05,0.2647058823529412
1.51849264394e-05,0.27205882352941174
1.51849264394e-05,0.27941176470588236
1.51849264394e-05,0.2867647058823529
1.51849264394e-05,0.29411764705882354
1.51849264394e-05,0.3014705882352941
0.000379623160984,0.3088235294117647
0.000379623160984,0.3161764705882353
0.000409993013863,0.3235294117647059
0.000759246321968,0.33088235294117646
0.000759246321968,0.3382352941176471
0.000759246321968,0.34558823529411764
0.000759246321968,0.35294117647058826
0.00113886948295,0.3602941176470588
0.00126541053661,0.36764705882352944
0.00126541053661,0.375
0.00126541053661,0.38235294117647056
0.00151849264394,0.3897058823529412
0.00151849264394,0.39705882352941174
0.00151849264394,0.40441176470588236
0.00151849264394,0.4117647058823529
0.00151849264394,0.41911764705882354
0.00151849264394,0.4264705882352941
0.00151849264394,0.4338235294117647
0.00189811580492,0.4411764705882353
0.0022777389659,0.4485294117647059
0.0022777389659,0.45588235294117646
0.00278390318055,0.4632352941176471
0.00303698528787,0.47058823529411764
0.00303698528787,0.47794117647058826
0.00455547793181,0.4852941176470588
0.0062005116294,0.49264705882352944
0.0110090716685,0.5
0.0112621537759,0.5073529411764706
0.0145522211711,0.5147058823529411
0.0180953706736,0.5220588235294118
0.0183484527809,0.5294117647058824
0.0196138633175,0.5367647058823529
0.0198669454248,0.5441176470588235
0.0206237909836,0.5514705882352942
0.0208034292321,0.5588235294117647
0.0213854380688,0.5661764705882353
0.0226311966037,0.5735294117647058
0.0226660382876,0.5808823529411765
0.022677805788,0.5882352941176471
0.0227040565332,0.5955882352941176
0.0227116275675,0.6029411764705882
0.0227405663747,0.6102941176470589
0.022803470218,0.6176470588235294
0.0228102828146,0.625
0.0228213890177,0.6323529411764706
0.0228237691356,0.6397058823529411
0.0228249052084,0.6470588235294118
0.0228255910954,0.6544117647058824
0.0228267495777,0.6617647058823529
0.0228271104428,0.6691176470588235
0.0228274175407,0.6764705882352942
0.0228288217896,0.6838235294117647
0.022830504328,0.6911764705882353
0.0228372405548,0.6985294117647058
0.0228395147975,0.7058823529411765
0.0228395227046,0.7132352941176471
0.0228396172885,0.7205882352941176
0.022839620291,0.7279411764705882
0.022839801106,0.7352941176470589
0.0228398031079,0.7426470588235294
0.0228398031079,0.75
0.570639777384,0.7573529411764706
0.570720544739,0.7647058823529411
0.611323445497,0.7720588235294118
1.13702831873,0.7794117647058824
1.13702831873,0.7867647058823529
1.1415252164,0.7941176470588235
1.1415252164,0.8014705882352942
1.71191933215,0.8088235294117647
1.90219049574,0.8161764705882353
1.90219049574,0.8235294117647058
1.90219049574,0.8308823529411765
2.27116275675,0.8382352941176471
2.28271104428,0.8455882352941176
2.28288217896,0.8529411764705882
2.28395227046,0.8602941176470589
2.2839620291,0.8676470588235294
2.28398031079,0.875
2.28398031079,0.8823529411764706
2.85338153146,0.8897058823529411
3.40480889754,0.8970588235294118
3.42390212996,0.9044117647058824
4.18321877719,0.9117647058823529
4.54156841007,0.9191176470588235
4.56792375796,0.9264705882352942
6.85194073218,0.9338235294117647
9.32095802925,0.9411764705882353
16.5584887851,0.9485294117647058
16.921552147,0.9558823529411765
21.8859285527,0.9632352941176471
27.1310491149,0.9705882352941176
27.5919695844,0.9779411764705882
29.1934282133,0.9852941176470589
29.8585734132,0.9926470588235294
31.9389163364,1.0
