Congestion,CDF
0.0,0.007352941176470588
0.0,0.014705882352941176
0.0,0.022058823529411766
0.0,0.029411764705882353
0.0,0.03676470588235294
0.0,0.04411764705882353
0.0,0.051470588235294115
0.0,0.058823529411764705
0.0,0.0661764705882353
0.0,0.07352941176470588
0.0,0.08088235294117647
0.0,0.08823529411764706
0.0,0.09558823529411764
0.0,0.10294117647058823
1.54293285644e-05,0.11029411764705882
1.54293285644e-05,0.11764705882352941
1.54293285644e-05,0.125
1.54293285644e-05,0.1323529411764706
1.54293285644e-05,0.13970588235294118
1.54293285644e-05,0.14705882352941177
1.54293285644e-05,0.15441176470588236
1.54293285644e-05,0.16176470588235295
1.54293285644e-05,0.16911764705882354
1.54293285644e-05,0.17647058823529413
1.54293285644e-05,0.18382352941176472
1.54293285644e-05,0.19117647058823528
1.54293285644e-05,0.19852941176470587
1.54293285644e-05,0.20588235294117646
1.54293285644e-05,0.21323529411764705
1.54293285644e-05,0.22058823529411764
1.54293285644e-05,0.22794117647058823
1.54293285644e-05,0.23529411764705882
1.54293285644e-05,0.2426470588235294
1.54293285644e-05,0.25
1.54293285644e-05,0.25735294117647056
1.54293285644e-05,0.2647058823529412
1.54293285644e-05,0.27205882352941174
1.54293285644e-05,0.27941176470588236
1.54293285644e-05,0.2867647058823529
1.54293285644e-05,0.29411764705882354
1.54293285644e-05,0.3014705882352941
0.000331277392948,0.3088235294117647
0.000385733214109,0.3161764705882353
0.000385733214109,0.3235294117647059
0.000416591871238,0.33088235294117646
0.000771466428218,0.3382352941176471
0.000771466428218,0.34558823529411764
0.000771466428218,0.35294117647058826
0.000771466428218,0.3602941176470588
0.000994177753912,0.36764705882352944
0.00115719964233,0.375
0.00128577738036,0.38235294117647056
0.00128577738036,0.3897058823529412
0.00128577738036,0.39705882352941174
0.00154293285644,0.40441176470588236
0.00154293285644,0.4117647058823529
0.00154293285644,0.41911764705882354
0.00154293285644,0.4264705882352941
0.00154293285644,0.4338235294117647
0.00154293285644,0.4411764705882353
0.00154293285644,0.4485294117647059
0.00192866607054,0.45588235294117646
0.00231439928465,0.4632352941176471
0.00231439928465,0.47058823529411764
0.0028287102368,0.47794117647058826
0.00308586571287,0.4852941176470588
0.00308586571287,0.49264705882352944
0.00462879856931,0.5
0.00630030916378,0.5073529411764706
0.0111862632092,0.5147058823529411
0.0114434186852,0.5220588235294118
0.0124686077594,0.5294117647058824
0.0126153746577,0.5367647058823529
0.0130067734988,0.5441176470588235
0.0130744612353,0.5514705882352942
0.01315267601,0.5588235294117647
0.0131563139699,0.5661764705882353
0.0132648623478,0.5735294117647058
0.0132974014115,0.5808823529411765
0.0132993597558,0.5882352941176471
0.0133138978723,0.5955882352941176
0.0133175539684,0.6029411764705882
0.0133182045777,0.6102941176470589
0.013319019015,0.6176470588235294
0.013320400718,0.625
0.013321047893,0.6323529411764706
0.0133228818698,0.6397058823529411
0.0133230787638,0.6470588235294118
0.0133314702461,0.6544117647058824
0.0133344551869,0.6617647058823529
0.0133344871921,0.6691176470588235
0.0133345949275,0.6764705882352942
0.013334603802,0.6838235294117647
0.0133347831288,0.6911764705882353
0.0133347890453,0.6985294117647058
0.0133347890453,0.7058823529411765
0.0147864398742,0.7132352941176471
0.0183866165392,0.7205882352941176
0.0186437720153,0.7279411764705882
0.0199295493956,0.7352941176470589
0.0201867048717,0.7426470588235294
0.0217296377281,0.75
0.331891343045,0.7573529411764706
0.332975475375,0.7647058823529411
0.333072046745,0.7720588235294118
0.657815698496,0.7794117647058824
0.657815698496,0.7867647058823529
0.666153938189,0.7941176470588235
0.666153938189,0.8014705882352942
0.998926426126,0.8088235294117647
1.10996598773,0.8161764705882353
1.10996598773,0.8235294117647058
1.10996598773,0.8308823529411765
1.315267601,0.8382352941176471
1.3320400718,0.8455882352941176
1.33228818698,0.8529411764705882
1.33344871921,0.8602941176470589
1.3334603802,0.8676470588235294
1.33347890453,0.875
1.33347890453,0.8823529411764706
1.66508026467,0.8897058823529411
1.95849304837,0.8970588235294118
1.99754372542,0.9044117647058824
2.43970612889,0.9117647058823529
2.62271372453,0.9191176470588235
2.66691987294,0.9264705882352942
4.00043612194,0.9338235294117647
5.43890678198,0.9411764705882353
9.66732227952,0.9485294117647058
9.86291484415,0.9558823529411765
12.7765892301,0.9632352941176471
15.690982393,0.9705882352941176
15.7904001684,0.9779411764705882
16.1040689311,0.9852941176470589
17.3656063968,0.9926470588235294
17.3987341361,1.0
