Congestion,CDF
0.0,0.005555555555555556
0.0,0.011111111111111112
0.0,0.016666666666666666
0.0,0.022222222222222223
0.0,0.027777777777777776
0.0,0.03333333333333333
0.0,0.03888888888888889
0.0,0.044444444444444446
0.0,0.05
0.0,0.05555555555555555
3.30619879529e-07,0.06111111111111111
3.79866341052e-07,0.06666666666666667
8.55047660534e-07,0.07222222222222222
1.24970189394e-06,0.07777777777777778
1.2787525712e-06,0.08333333333333333
1.6883935979e-06,0.08888888888888889
1.85745642086e-06,0.09444444444444444
2.55999850832e-06,0.1
2.57320566871e-06,0.10555555555555556
2.63263094084e-06,0.1111111111111111
2.68681350624e-06,0.11666666666666667
2.95763276177e-06,0.12222222222222222
3.0262343442e-06,0.12777777777777777
3.37937736431e-06,0.13333333333333333
3.46116133806e-06,0.1388888888888889
3.64464697579e-06,0.14444444444444443
4.21435499158e-06,0.15
4.61222079381e-06,0.15555555555555556
4.81608753265e-06,0.16111111111111112
5.00892907493e-06,0.16666666666666666
5.08818061657e-06,0.17222222222222222
5.12904544514e-06,0.17777777777777778
5.29897803706e-06,0.18333333333333332
5.48310742381e-06,0.18888888888888888
5.57566462107e-06,0.19444444444444445
5.63863168326e-06,0.2
5.66991483884e-06,0.20555555555555555
5.73502465995e-06,0.2111111111111111
5.79106622629e-06,0.21666666666666667
5.80377411194e-06,0.2222222222222222
5.99769311359e-06,0.22777777777777777
6.04773111022e-06,0.23333333333333334
6.11715529844e-06,0.2388888888888889
6.62455108833e-06,0.24444444444444444
6.97076001364e-06,0.25
7.56821779249e-06,0.25555555555555554
7.68811510144e-06,0.2611111111111111
7.79875265087e-06,0.26666666666666666
8.06285691067e-06,0.2722222222222222
2.85015886845e-05,0.2777777777777778
5.7003177369e-05,0.2833333333333333
6.24850946969e-05,0.28888888888888886
6.24850946969e-05,0.29444444444444445
6.43301417179e-05,0.3
6.43301417179e-05,0.3055555555555556
9.73921296708e-05,0.3111111111111111
0.00012787525712,0.31666666666666665
0.000128660283436,0.32222222222222224
0.00017130235291,0.3277777777777778
0.000255999850832,0.3333333333333333
0.000266231489461,0.3388888888888889
0.000281931584163,0.34444444444444444
0.000281931584163,0.35
0.000360093417895,0.35555555555555557
0.000548310742381,0.3611111111111111
0.000557566462107,0.36666666666666664
0.000575389639211,0.37222222222222223
0.000619869320594,0.37777777777777777
0.000655827429849,0.38333333333333336
0.000655827429849,0.3888888888888889
0.000747840242726,0.39444444444444443
0.000790330365953,0.4
0.00084981708596,0.40555555555555556
0.000908535548523,0.4111111111111111
0.00112868815358,0.4166666666666667
0.00119337178659,0.4222222222222222
0.00125559674121,0.42777777777777776
0.00154363114991,0.43333333333333335
0.00181231250054,0.4388888888888889
0.00189748720756,0.4444444444444444
0.00234306100702,0.45
0.00265430898681,0.45555555555555555
0.00472236499144,0.46111111111111114
0.00574518043712,0.4666666666666667
0.00601358826489,0.4722222222222222
0.00655146612819,0.4777777777777778
0.00671066426625,0.48333333333333334
0.00706028418985,0.4888888888888889
0.00713761405853,0.49444444444444446
0.00755904955769,0.5
0.00816382266871,0.5055555555555555
0.00821478045169,0.5111111111111111
0.0083495683108,0.5166666666666667
0.00847804354577,0.5222222222222223
0.00878066698019,0.5277777777777778
0.0119265217557,0.5333333333333333
0.0122220640768,0.5388888888888889
0.017083657201,0.5444444444444444
0.0173389779658,0.55
0.0174485852529,0.5555555555555556
0.0174528108898,0.5611111111111111
0.0174583541771,0.5666666666666667
0.017478865011,0.5722222222222222
0.0175012867524,0.5777777777777777
0.017523117012,0.5833333333333334
0.0175709578368,0.5888888888888889
0.0175728100151,0.5944444444444444
0.0175794503591,0.6
0.0175943193274,0.6055555555555555
0.0176039315543,0.6111111111111112
0.0176149699016,0.6166666666666667
0.0176188416013,0.6222222222222222
0.0176219136399,0.6277777777777778
0.0176417496261,0.6333333333333333
0.0176739116708,0.6388888888888888
0.0176851491696,0.6444444444444445
0.0176906672358,0.65
0.0176948041927,0.6555555555555556
0.0177060492654,0.6611111111111111
0.0177227542316,0.6666666666666666
0.0177304420133,0.6722222222222223
0.0177379430952,0.6777777777777778
0.0177394669398,0.6833333333333333
0.0177431123174,0.6888888888888889
0.0177442724636,0.6944444444444444
0.017748043544,0.7
0.0177611107114,0.7055555555555556
0.0177662194709,0.7111111111111111
0.0177947388006,0.7166666666666667
0.0178110304137,0.7222222222222222
0.0178456346843,0.7277777777777777
0.0178514725564,0.7333333333333333
0.0178600285301,0.7388888888888889
0.0178675939059,0.7444444444444445
0.439320250378,0.75
0.439320250378,0.7555555555555555
0.582628833698,0.7611111111111111
0.677027629169,0.7666666666666667
0.872917708854,0.7722222222222223
0.872917708854,0.7777777777777778
0.878640500756,0.7833333333333333
0.886973346988,0.7888888888888889
0.886973346988,0.7944444444444444
1.1652576674,0.8
1.75012867524,0.8055555555555556
1.75709578368,0.8111111111111111
1.77304420133,0.8166666666666667
1.77379430952,0.8222222222222222
2.18417877567,0.8277777777777777
2.19875218311,0.8333333333333334
2.63709267146,0.8388888888888889
2.64847033715,0.8444444444444444
2.66464335377,0.85
2.79604619258,0.8555555555555555
2.79604619258,0.8611111111111112
3.5296025553,0.8666666666666667
3.54784855573,0.8722222222222222
3.93649047687,0.8777777777777778
4.42289758351,0.8833333333333333
4.54989593377,0.8888888888888888
4.57215726372,0.8944444444444445
5.70597089614,0.9
8.1182269964,0.9055555555555556
9.09122321532,0.9111111111111111
10.1266619739,0.9166666666666666
10.8491682512,0.9222222222222223
11.9112254423,0.9277777777777778
20.7417064794,0.9333333333333333
21.6671188372,0.9388888888888889
23.4538782278,0.9444444444444444
25.2229449514,0.95
26.0419139612,0.9555555555555556
27.8230170026,0.9611111111111111
29.6274287899,0.9666666666666667
30.4578188716,0.9722222222222222
31.33579451,0.9777777777777777
32.218212027,0.9833333333333333
32.5284466856,0.9888888888888889
33.9521098236,0.9944444444444445
35.1743162313,1.0
