Congestion,CDF
0.0,0.009433962264150943
0.0,0.018867924528301886
0.0,0.02830188679245283
0.0,0.03773584905660377
0.0,0.04716981132075472
0.0,0.05660377358490566
0.0,0.0660377358490566
0.0,0.07547169811320754
0.0,0.08490566037735849
0.0,0.09433962264150944
0.0,0.10377358490566038
0.0,0.11320754716981132
0.0,0.12264150943396226
0.0,0.1320754716981132
0.0,0.14150943396226415
0.0,0.1509433962264151
0.0,0.16037735849056603
0.0,0.16981132075471697
0.0,0.1792452830188679
0.0,0.18867924528301888
0.0,0.19811320754716982
0.0,0.20754716981132076
0.0,0.2169811320754717
0.0,0.22641509433962265
0.0,0.2358490566037736
0.0,0.24528301886792453
0.0,0.25471698113207547
0.0,0.2641509433962264
0.0,0.27358490566037735
0.0,0.2830188679245283
3.27797059078e-08,0.29245283018867924
8.4448431261e-07,0.3018867924528302
9.49637290092e-07,0.3113207547169811
1.28738920777e-06,0.32075471698113206
1.45323013899e-06,0.330188679245283
1.93370304324e-06,0.33962264150943394
2.94892686157e-06,0.3490566037735849
3.77478216327e-06,0.3584905660377358
3.99490669883e-06,0.36792452830188677
4.659382877e-06,0.37735849056603776
5.73681615627e-06,0.3867924528301887
5.86826808334e-06,0.39622641509433965
6.19160032624e-06,0.4056603773584906
2.41712880405e-05,0.41509433962264153
2.41712880405e-05,0.42452830188679247
3.96759068651e-05,0.4339622641509434
4.71847770409e-05,0.44339622641509435
4.71847770409e-05,0.4528301886792453
4.8342576081e-05,0.46226415094339623
4.8342576081e-05,0.4716981132075472
4.8342576081e-05,0.4811320754716981
7.46340356722e-05,0.49056603773584906
9.43695540819e-05,0.5
9.43695540819e-05,0.5094339622641509
9.43695540819e-05,0.5188679245283019
0.000118837929586,0.5283018867924528
0.000118837929586,0.5377358490566038
0.000128738920777,0.5471698113207547
0.00021880240816,0.5566037735849056
0.00021880240816,0.5660377358490566
0.000271101400023,0.5754716981132075
0.000271101400023,0.5849056603773585
0.000416424413922,0.5943396226415094
0.000422088769007,0.6037735849056604
0.000658182873415,0.6132075471698113
0.00068474069586,0.6226415094339622
0.000890261432647,0.6320754716981132
0.0014253364543,0.6415094339622641
0.00789753507624,0.6509433962264151
0.0317851661809,0.660377358490566
0.0321609664583,0.6698113207547169
0.0333472959754,0.6792452830188679
0.0445023637266,0.6886792452830188
0.0446108756134,0.6981132075471698
0.0509947907874,0.7075471698113207
0.0553702263686,0.7169811320754716
0.055549104633,0.7264150943396226
0.0588256906465,0.7358490566037735
0.0616744193697,0.7452830188679245
0.0707715116515,0.7547169811320755
0.0715145538327,0.7641509433962265
0.61900450032,0.7735849056603774
0.692127829607,0.7830188679245284
0.692127829607,0.7924528301886793
0.694363807913,0.8018867924528302
0.694363807913,0.8113207547169812
0.789753507624,0.8207547169811321
1.38425565921,0.8301886792452831
1.38425565921,0.839622641509434
1.38425565921,0.8490566037735849
1.38872761583,0.8584905660377359
1.38872761583,0.8679245283018868
1.38872761583,0.8773584905660378
3.61160982385,0.8867924528301887
3.61160982385,0.8962264150943396
3.93623117689,0.9056603773584906
3.93623117689,0.9150943396226415
4.470212606,0.9245283018867925
4.470212606,0.9339622641509434
6.79012644195,0.9433962264150944
6.82770646968,0.9528301886792453
7.27096077443,0.9622641509433962
8.46364280267,0.9716981132075472
8.53794702079,0.9811320754716981
12.8675313442,0.9905660377358491
27.3543714941,1.0
