Congestion,CDF
0.0,0.009433962264150943
0.0,0.018867924528301886
0.0,0.02830188679245283
0.0,0.03773584905660377
0.0,0.04716981132075472
0.0,0.05660377358490566
0.0,0.0660377358490566
0.0,0.07547169811320754
0.0,0.08490566037735849
0.0,0.09433962264150944
0.0,0.10377358490566038
0.0,0.11320754716981132
0.0,0.12264150943396226
0.0,0.1320754716981132
0.0,0.14150943396226415
0.0,0.1509433962264151
0.0,0.16037735849056603
0.0,0.16981132075471697
0.0,0.1792452830188679
0.0,0.18867924528301888
0.0,0.19811320754716982
0.0,0.20754716981132076
0.0,0.2169811320754717
0.0,0.22641509433962265
0.0,0.2358490566037736
0.0,0.24528301886792453
0.0,0.25471698113207547
0.0,0.2641509433962264
0.0,0.27358490566037735
0.0,0.2830188679245283
6.74568843087e-08,0.29245283018867924
1.73785209472e-06,0.3018867924528302
1.95424489143e-06,0.3113207547169811
2.64929969454e-06,0.32075471698113206
2.99058135651e-06,0.330188679245283
3.97933962075e-06,0.33962264150943394
6.06855408329e-06,0.3490566037735849
7.76806980498e-06,0.3584905660377358
8.22106091389e-06,0.36792452830188677
9.58847686334e-06,0.37735849056603776
1.18057112789e-05,0.3867924528301887
1.20762243049e-05,0.39622641509433965
1.27416050671e-05,0.4056603773584906
4.97417452593e-05,0.41509433962264153
4.97417452593e-05,0.42452830188679247
8.16484768586e-05,0.4339622641509434
9.71008725623e-05,0.44339622641509435
9.71008725623e-05,0.4528301886792453
9.94834905187e-05,0.46226415094339623
9.94834905187e-05,0.4716981132075472
9.94834905187e-05,0.4811320754716981
0.000153588306253,0.49056603773584906
0.000194201745125,0.5
0.000194201745125,0.5094339622641509
0.000194201745125,0.5188679245283019
0.000244554862393,0.5283018867924528
0.000244554862393,0.5377358490566038
0.000264929969454,0.5471698113207547
0.000450270321986,0.5566037735849056
0.000450270321986,0.5660377358490566
0.000557895663516,0.5754716981132075
0.000557895663516,0.5849056603773585
0.000856953799167,0.5943396226415094
0.000868610393851,0.6037735849056604
0.00135446504831,0.6132075471698113
0.00140911800832,0.6226415094339622
0.00183205617023,0.6320754716981132
0.00293317934484,0.6415094339622641
0.00789753507624,0.6509433962264151
0.0172993087892,0.660377358490566
0.0175108445779,0.6698113207547169
0.0179300149981,0.6792452830188679
0.0185643919024,0.6886792452830188
0.0220844431691,0.6981132075471698
0.0235220602537,0.7075471698113207
0.0247554636206,0.7169811320754716
0.0248320944326,0.7264150943396226
0.0283465246115,0.7358490566037735
0.0302260281009,0.7452830188679245
0.03373427835,0.7547169811320755
0.0340933753656,0.7641509433962265
0.300796363248,0.7735849056603774
0.309443295257,0.7830188679245284
0.309443295257,0.7924528301886793
0.310401180408,0.8018867924528302
0.310401180408,0.8113207547169812
0.618886590514,0.8207547169811321
0.618886590514,0.8301886792452831
0.618886590514,0.839622641509434
0.620802360815,0.8490566037735849
0.620802360815,0.8584905660377359
0.620802360815,0.8679245283018868
0.789753507624,0.8773584905660378
1.54806407079,0.8867924528301887
1.54806407079,0.8962264150943396
1.72406663412,0.9056603773584906
1.72406663412,0.9150943396226415
2.03717070624,0.9245283018867925
2.03717070624,0.9339622641509434
3.2779949497,0.9433962264150944
3.29914852858,0.9528301886792453
3.51706813393,0.9622641509433962
3.99327231067,0.9716981132075472
4.02918201222,0.9811320754716981
6.11344336573,0.9905660377358491
13.0822278392,1.0
