Congestion,CDF
0.0,0.009433962264150943
0.0,0.018867924528301886
0.0,0.02830188679245283
0.0,0.03773584905660377
0.0,0.04716981132075472
0.0,0.05660377358490566
0.0,0.0660377358490566
0.0,0.07547169811320754
0.0,0.08490566037735849
0.0,0.09433962264150944
0.0,0.10377358490566038
0.0,0.11320754716981132
0.0,0.12264150943396226
0.0,0.1320754716981132
0.0,0.14150943396226415
0.0,0.1509433962264151
0.0,0.16037735849056603
0.0,0.16981132075471697
0.0,0.1792452830188679
0.0,0.18867924528301888
0.0,0.19811320754716982
0.0,0.20754716981132076
0.0,0.2169811320754717
0.0,0.22641509433962265
0.0,0.2358490566037736
0.0,0.24528301886792453
0.0,0.25471698113207547
0.0,0.2641509433962264
0.0,0.27358490566037735
0.0,0.2830188679245283
3.73917874147e-08,0.29245283018867924
9.63302659915e-07,0.3018867924528302
1.08325058718e-06,0.3113207547169811
1.46852396151e-06,0.32075471698113206
1.65769859482e-06,0.330188679245283
2.2057736979e-06,0.33962264150943394
3.36383879159e-06,0.3490566037735849
4.3058913519e-06,0.3584905660377358
4.55698725439e-06,0.36792452830188677
5.31495476228e-06,0.37735849056603776
6.5439821442e-06,0.3867924528301887
6.69392926472e-06,0.39622641509433965
7.0627541262e-06,0.4056603773584906
1.71132910335e-05,0.41509433962264153
2.75721712237e-05,0.42452830188679247
2.75721712237e-05,0.4339622641509434
4.5258278984e-05,0.44339622641509435
5.38236418988e-05,0.4528301886792453
5.38236418988e-05,0.46226415094339623
5.51443424474e-05,0.4716981132075472
5.51443424474e-05,0.4811320754716981
5.51443424474e-05,0.49056603773584906
8.51349918639e-05,0.5
0.000107647283798,0.5094339622641509
0.000107647283798,0.5188679245283019
0.000107647283798,0.5283018867924528
0.000135558342482,0.5377358490566038
0.000135558342482,0.5471698113207547
0.000146852396151,0.5566037735849056
0.000249587752702,0.5660377358490566
0.000249587752702,0.5754716981132075
0.000309245175842,0.5849056603773585
0.000309245175842,0.5943396226415094
0.000475015035324,0.6037735849056604
0.000481476361175,0.6132075471698113
0.000750788739594,0.6226415094339622
0.00078108322893,0.6320754716981132
0.00101552058846,0.6415094339622641
0.00162588028836,0.6509433962264151
0.00171132910335,0.660377358490566
0.0190857263124,0.6698113207547169
0.0195523480459,0.6792452830188679
0.0210188616055,0.6886792452830188
0.035236102493,0.6981132075471698
0.0400504065943,0.7075471698113207
0.047761971975,0.7169811320754716
0.0534189624511,0.7264150943396226
0.0537380204361,0.7358490566037735
0.0539897264816,0.7452830188679245
0.0601619001096,0.7547169811320755
0.0706151066965,0.7641509433962265
0.0715892945459,0.7735849056603774
0.546235541038,0.7830188679245284
0.671725255451,0.7924528301886793
0.671725255451,0.8018867924528302
0.67487158102,0.8113207547169812
0.67487158102,0.8207547169811321
1.3434505109,0.8301886792452831
1.3434505109,0.839622641509434
1.3434505109,0.8490566037735849
1.34974316204,0.8584905660377359
1.34974316204,0.8679245283018868
1.34974316204,0.8773584905660378
3.34911716618,0.8867924528301887
3.34911716618,0.8962264150943396
3.73469543522,0.9056603773584906
3.73469543522,0.9150943396226415
4.35469184195,0.9245283018867925
4.35469184195,0.9339622641509434
5.25768979743,0.9433962264150944
5.30435197078,0.9528301886792453
5.83658159577,0.9622641509433962
8.40810750612,0.9716981132075472
8.50552629106,0.9811320754716981
11.6129975265,0.9905660377358491
26.6102218842,1.0
