Congestion,CDF
0.0,0.009433962264150943
0.0,0.018867924528301886
0.0,0.02830188679245283
0.0,0.03773584905660377
0.0,0.04716981132075472
0.0,0.05660377358490566
0.0,0.0660377358490566
0.0,0.07547169811320754
0.0,0.08490566037735849
0.0,0.09433962264150944
0.0,0.10377358490566038
0.0,0.11320754716981132
0.0,0.12264150943396226
0.0,0.1320754716981132
0.0,0.14150943396226415
0.0,0.1509433962264151
0.0,0.16037735849056603
0.0,0.16981132075471697
0.0,0.1792452830188679
0.0,0.18867924528301888
0.0,0.19811320754716982
0.0,0.20754716981132076
0.0,0.2169811320754717
0.0,0.22641509433962265
0.0,0.2358490566037736
0.0,0.24528301886792453
0.0,0.25471698113207547
0.0,0.2641509433962264
0.0,0.27358490566037735
0.0,0.2830188679245283
4.82297758485e-08,0.29245283018867924
1.24251539106e-06,0.3018867924528302
1.3972301572e-06,0.3113207547169811
1.89417480117e-06,0.32075471698113206
2.13818159495e-06,0.330188679245283
2.84511595667e-06,0.33962264150943394
4.33884556277e-06,0.3490566037735849
5.55395152488e-06,0.3584905660377358
5.87782743269e-06,0.36792452830188677
6.85549139405e-06,0.37735849056603776
8.44075166748e-06,0.3867924528301887
8.63416087608e-06,0.39622641509433965
9.10988941506e-06,0.4056603773584906
1.71132910335e-05,0.41509433962264153
3.55639494583e-05,0.42452830188679247
3.55639494583e-05,0.4339622641509434
5.83763655499e-05,0.44339622641509435
6.9424394061e-05,0.4528301886792453
6.9424394061e-05,0.46226415094339623
7.11278989167e-05,0.4716981132075472
7.11278989167e-05,0.4811320754716981
7.11278989167e-05,0.49056603773584906
0.000109811321104,0.5
0.000138848788122,0.5094339622641509
0.000138848788122,0.5188679245283019
0.000138848788122,0.5283018867924528
0.000174849851379,0.5377358490566038
0.000174849851379,0.5471698113207547
0.000189417480117,0.5566037735849056
0.000245880090909,0.5660377358490566
0.000321930621658,0.5754716981132075
0.000321930621658,0.5849056603773585
0.000398879715154,0.5943396226415094
0.000398879715154,0.6037735849056604
0.000612697874649,0.6132075471698113
0.000621032012143,0.6226415094339622
0.000685044665453,0.6320754716981132
0.000782474149419,0.6415094339622641
0.000968404431127,0.6509433962264151
0.00100747976106,0.660377358490566
0.00130986865666,0.6698113207547169
0.00171132910335,0.6792452830188679
0.00209714077036,0.6886792452830188
0.00310034666748,0.6981132075471698
0.0267466150609,0.7075471698113207
0.0344763250942,0.7169811320754716
0.044832320115,0.7264150943396226
0.0598915609266,0.7358490566037735
0.0612095814878,0.7452830188679245
0.0620024392927,0.7547169811320755
0.0710445597992,0.7641509433962265
0.0735865452269,0.7735849056603774
0.438620805868,0.7830188679245284
0.765119768597,0.7924528301886793
0.765119768597,0.8018867924528302
0.775030491159,0.8113207547169812
0.775030491159,0.8207547169811321
1.53023953719,0.8301886792452831
1.53023953719,0.839622641509434
1.53023953719,0.8490566037735849
1.55006098232,0.8584905660377359
1.55006098232,0.8679245283018868
1.55006098232,0.8773584905660378
3.26396651447,0.8867924528301887
3.26396651447,0.8962264150943396
3.28855452356,0.9056603773584906
3.33247098101,0.9150943396226415
3.7817662655,0.9245283018867925
3.7817662655,0.9339622641509434
3.86001368045,0.9433962264150944
4.53472830608,0.9528301886792453
4.53472830608,0.9622641509433962
8.62652923834,0.9716981132075472
8.64460623968,0.9811320754716981
8.89880478245,0.9905660377358491
24.7528008343,1.0
