Congestion,CDF
0.0,0.009433962264150943
0.0,0.018867924528301886
0.0,0.02830188679245283
0.0,0.03773584905660377
0.0,0.04716981132075472
0.0,0.05660377358490566
0.0,0.0660377358490566
0.0,0.07547169811320754
0.0,0.08490566037735849
0.0,0.09433962264150944
0.0,0.10377358490566038
0.0,0.11320754716981132
0.0,0.12264150943396226
0.0,0.1320754716981132
0.0,0.14150943396226415
0.0,0.1509433962264151
0.0,0.16037735849056603
0.0,0.16981132075471697
0.0,0.1792452830188679
0.0,0.18867924528301888
0.0,0.19811320754716982
0.0,0.20754716981132076
0.0,0.2169811320754717
0.0,0.22641509433962265
0.0,0.2358490566037736
0.0,0.24528301886792453
0.0,0.25471698113207547
0.0,0.2641509433962264
0.0,0.27358490566037735
0.0,0.2830188679245283
2.1899269508e-08,0.29245283018867924
5.64178019446e-07,0.3018867924528302
6.34427990569e-07,0.3113207547169811
8.60071267932e-07,0.32075471698113206
9.7086528355e-07,0.330188679245283
1.29185674244e-06,0.33962264150943394
1.9701013878e-06,0.3490566037735849
2.52183384927e-06,0.3584905660377358
2.66889333001e-06,0.36792452830188677
3.1128125936e-06,0.37735849056603776
3.83261776287e-06,0.3867924528301887
3.92043737865e-06,0.39622641509433965
4.13644724609e-06,0.4056603773584906
1.61482092806e-05,0.41509433962264153
1.61482092806e-05,0.42452830188679247
1.71132910335e-05,0.4339622641509434
2.65064421217e-05,0.44339622641509435
3.15229231159e-05,0.4528301886792453
3.15229231159e-05,0.46226415094339623
3.22964185611e-05,0.4716981132075472
3.22964185611e-05,0.4811320754716981
3.22964185611e-05,0.49056603773584906
4.98610593472e-05,0.5
6.30458462318e-05,0.5094339622641509
6.30458462318e-05,0.5188679245283019
6.30458462318e-05,0.5283018867924528
7.93925319249e-05,0.5377358490566038
7.93925319249e-05,0.5471698113207547
8.60071267932e-05,0.5566037735849056
0.000146176201787,0.5660377358490566
0.000146176201787,0.5754716981132075
0.000181115798897,0.5849056603773585
0.000181115798897,0.5943396226415094
0.000278202327252,0.6037735849056604
0.000281986535656,0.6132075471698113
0.000439714870262,0.6226415094339622
0.000457457461147,0.6320754716981132
0.000594760523506,0.6415094339622641
0.00095223023782,0.6509433962264151
0.00171132910335,0.660377358490566
0.0278366961592,0.6698113207547169
0.0288453928237,0.6792452830188679
0.0291050394907,0.6886792452830188
0.0512966025559,0.6981132075471698
0.0770520149545,0.7075471698113207
0.0904593024372,0.7169811320754716
0.0947919071052,0.7264150943396226
0.102282648429,0.7358490566037735
0.103802099082,0.7452830188679245
0.104352549292,0.7547169811320755
0.109257201102,0.7641509433962265
0.111034233776,0.7735849056603774
0.930132800499,0.7830188679245284
1.29752623853,0.7924528301886793
1.29752623853,0.8018867924528302
1.30440686614,0.8113207547169812
1.30440686614,0.8207547169811321
2.59505247706,0.8301886792452831
2.59505247706,0.839622641509434
2.59505247706,0.8490566037735849
2.60881373229,0.8584905660377359
2.60881373229,0.8679245283018868
2.60881373229,0.8773584905660378
7.12489822653,0.8867924528301887
7.12489822653,0.8962264150943396
7.34152845993,0.9056603773584906
7.34152845993,0.9150943396226415
7.71606552612,0.9245283018867925
7.71606552612,0.9339622641509434
9.90856784245,0.9433962264150944
10.0094375089,0.9528301886792453
10.252032409,0.9622641509433962
13.5276532149,0.9716981132075472
13.7053564823,0.9811320754716981
20.1872542416,0.9905660377358491
42.6542767188,1.0
