Congestion,CDF
0.0,0.009433962264150943
0.0,0.018867924528301886
0.0,0.02830188679245283
0.0,0.03773584905660377
0.0,0.04716981132075472
0.0,0.05660377358490566
0.0,0.0660377358490566
0.0,0.07547169811320754
0.0,0.08490566037735849
0.0,0.09433962264150944
0.0,0.10377358490566038
0.0,0.11320754716981132
0.0,0.12264150943396226
0.0,0.1320754716981132
0.0,0.14150943396226415
0.0,0.1509433962264151
0.0,0.16037735849056603
0.0,0.16981132075471697
0.0,0.1792452830188679
0.0,0.18867924528301888
0.0,0.19811320754716982
0.0,0.20754716981132076
0.0,0.2169811320754717
0.0,0.22641509433962265
0.0,0.2358490566037736
0.0,0.24528301886792453
0.0,0.25471698113207547
0.0,0.2641509433962264
0.0,0.27358490566037735
0.0,0.2830188679245283
4.68271099469e-08,0.29245283018867924
1.20637933318e-06,0.3018867924528302
1.35659453193e-06,0.3113207547169811
1.83908654172e-06,0.32075471698113206
2.0759968893e-06,0.330188679245283
2.76237148879e-06,0.33962264150943394
4.21265897749e-06,0.3490566037735849
5.39242602977e-06,0.3584905660377358
5.70688265905e-06,0.36792452830188677
6.65611323298e-06,0.37735849056603776
8.19526940389e-06,0.3867924528301887
8.38305369516e-06,0.39622641509433965
8.84494662764e-06,0.4056603773584906
5.66786065208e-05,0.41509433962264153
7.76916981222e-05,0.42452830188679247
7.76916981222e-05,0.4339622641509434
0.000202215976116,0.44339622641509435
0.000202215976116,0.4528301886792453
0.000202215976116,0.46226415094339623
0.000207177861659,0.4716981132075472
0.000207177861659,0.4811320754716981
0.000207177861659,0.49056603773584906
0.00031985303993,0.5
0.000381970565052,0.5094339622641509
0.000381970565052,0.5188679245283019
0.000404431952232,0.5283018867924528
0.000404431952232,0.5377358490566038
0.000551725962516,0.5471698113207547
0.000703277815177,0.5566037735849056
0.000703277815177,0.5660377358490566
0.000871377979352,0.5754716981132075
0.000871377979352,0.5849056603773585
0.0011004516463,0.5943396226415094
0.00133847727944,0.6037735849056604
0.00180891164026,0.6132075471698113
0.00282072101549,0.6226415094339622
0.00286149097057,0.6320754716981132
0.0039485800275,0.6415094339622641
0.00453328139798,0.6509433962264151
0.00610844896333,0.660377358490566
0.0186372981013,0.6698113207547169
0.0189152834863,0.6792452830188679
0.0297547406027,0.6886792452830188
0.0307604888486,0.6981132075471698
0.0355334505236,0.7075471698113207
0.0384355665558,0.7169811320754716
0.0395837610724,0.7264150943396226
0.0399756244492,0.7358490566037735
0.0431188782657,0.7452830188679245
0.0462231960621,0.7547169811320755
0.0467038029675,0.7641509433962265
0.396123952361,0.7735849056603774
1.12431443763,0.7830188679245284
1.12431443763,0.7924528301886793
1.3599844194,0.8018867924528302
1.48439104022,0.8113207547169812
1.48439104022,0.8207547169811321
1.48439104022,0.8301886792452831
2.96878208043,0.839622641509434
2.96878208043,0.8490566037735849
2.99817183369,0.8584905660377359
2.99817183369,0.8679245283018868
2.99817183369,0.8773584905660378
3.23672327089,0.8867924528301887
5.5850160356,0.8962264150943396
5.5850160356,0.9056603773584906
6.2351209017,0.9150943396226415
6.2351209017,0.9245283018867925
7.08848152269,0.9339622641509434
7.08848152269,0.9433962264150944
10.4285129745,0.9528301886792453
10.4910596861,0.9622641509433962
16.8504357757,0.9716981132075472
16.9946178473,0.9811320754716981
26.126143399,0.9905660377358491
54.8270322866,1.0
