Congestion,CDF
0.0,0.009433962264150943
0.0,0.018867924528301886
0.0,0.02830188679245283
0.0,0.03773584905660377
0.0,0.04716981132075472
0.0,0.05660377358490566
0.0,0.0660377358490566
0.0,0.07547169811320754
0.0,0.08490566037735849
0.0,0.09433962264150944
0.0,0.10377358490566038
0.0,0.11320754716981132
0.0,0.12264150943396226
0.0,0.1320754716981132
0.0,0.14150943396226415
0.0,0.1509433962264151
0.0,0.16037735849056603
0.0,0.16981132075471697
0.0,0.1792452830188679
0.0,0.18867924528301888
0.0,0.19811320754716982
0.0,0.20754716981132076
0.0,0.2169811320754717
0.0,0.22641509433962265
0.0,0.2358490566037736
0.0,0.24528301886792453
0.0,0.25471698113207547
0.0,0.2641509433962264
0.0,0.27358490566037735
0.0,0.2830188679245283
4.61974409375e-08,0.29245283018867924
1.19015754028e-06,0.3018867924528302
1.33835284381e-06,0.3113207547169811
1.81435693952e-06,0.32075471698113206
2.04808163025e-06,0.330188679245283
2.72522677238e-06,0.33962264150943394
4.15601271407e-06,0.3490566037735849
5.31991582018e-06,0.3584905660377358
5.63014405283e-06,0.36792452830188677
6.56661063009e-06,0.37735849056603776
8.08507026554e-06,0.3867924528301887
8.27032948215e-06,0.39622641509433965
8.72601148969e-06,0.4056603773584906
5.59164676217e-05,0.41509433962264153
7.66470029733e-05,0.42452830188679247
7.66470029733e-05,0.4339622641509434
0.000199496843257,0.44339622641509435
0.000199496843257,0.4528301886792453
0.000199496843257,0.46226415094339623
0.000204392007929,0.4716981132075472
0.000204392007929,0.4811320754716981
0.000204392007929,0.49056603773584906
0.000315552079502,0.5
0.000376834330345,0.5094339622641509
0.000376834330345,0.5188679245283019
0.000398993686514,0.5283018867924528
0.000398993686514,0.5377358490566038
0.000544307081857,0.5471698113207547
0.000693821065749,0.5566037735849056
0.000693821065749,0.5660377358490566
0.000859660841359,0.5754716981132075
0.000859660841359,0.5849056603773585
0.00108565422876,0.5943396226415094
0.00132047920816,0.6037735849056604
0.00178458779021,0.6132075471698113
0.00278279169187,0.6226415094339622
0.00282301342654,0.6320754716981132
0.00602631062482,0.6415094339622641
0.00747091126848,0.6509433962264151
0.00945101322525,0.660377358490566
0.0221380289592,0.6698113207547169
0.0224008991461,0.6792452830188679
0.0321338528879,0.6886792452830188
0.0335524974658,0.6981132075471698
0.0375965475565,0.7075471698113207
0.0407061143091,0.7169811320754716
0.0413433500071,0.7264150943396226
0.0417044479871,0.7358490566037735
0.0448675724338,0.7452830188679245
0.0478629485738,0.7547169811320755
0.0483091584154,0.7641509433962265
0.429537342236,0.7735849056603774
1.17293759964,0.7830188679245284
1.17293759964,0.7924528301886793
1.55037562527,0.8018867924528302
1.55037562527,0.8113207547169812
1.55037562527,0.8207547169811321
2.83530396757,0.8301886792452831
3.10075125053,0.839622641509434
3.10075125053,0.8490566037735849
3.12783359903,0.8584905660377359
3.12783359903,0.8679245283018868
3.12783359903,0.8773584905660378
3.81586640194,0.8867924528301887
5.95077776848,0.8962264150943396
5.95077776848,0.9056603773584906
6.5653309187,0.9150943396226415
6.5653309187,0.9245283018867925
7.38332121739,0.9339622641509434
7.38332121739,0.9433962264150944
11.5463874345,0.9528301886792453
11.6055332266,0.9622641509433962
17.4731769969,0.9716981132075472
17.6070399494,0.9811320754716981
27.8445478876,0.9905660377358491
57.1364795289,1.0
