Congestion,CDF
0.0,0.009433962264150943
0.0,0.018867924528301886
0.0,0.02830188679245283
0.0,0.03773584905660377
0.0,0.04716981132075472
0.0,0.05660377358490566
0.0,0.0660377358490566
0.0,0.07547169811320754
0.0,0.08490566037735849
0.0,0.09433962264150944
0.0,0.10377358490566038
0.0,0.11320754716981132
0.0,0.12264150943396226
0.0,0.1320754716981132
0.0,0.14150943396226415
0.0,0.1509433962264151
0.0,0.16037735849056603
0.0,0.16981132075471697
0.0,0.1792452830188679
0.0,0.18867924528301888
0.0,0.19811320754716982
0.0,0.20754716981132076
0.0,0.2169811320754717
0.0,0.22641509433962265
0.0,0.2358490566037736
0.0,0.24528301886792453
0.0,0.25471698113207547
0.0,0.2641509433962264
0.0,0.27358490566037735
0.0,0.2830188679245283
9.01817338648e-08,0.29245283018867924
2.32329904811e-06,0.3018867924528302
2.61259016796e-06,0.3113207547169811
3.54179476905e-06,0.32075471698113206
3.99804726764e-06,0.330188679245283
5.31989804026e-06,0.33962264150943394
8.11292627716e-06,0.3490566037735849
1.03849742095e-05,0.3584905660377358
1.0990568791e-05,0.36792452830188677
1.2818639306e-05,0.37735849056603776
1.5782814809e-05,0.3867924528301887
1.61444581604e-05,0.39622641509433965
1.7033992141e-05,0.4056603773584906
0.000109154184721,0.41509433962264153
0.000149622132382,0.42452830188679247
0.000149622132382,0.4339622641509434
0.000389436532855,0.44339622641509435
0.000389436532855,0.4528301886792453
0.000389436532855,0.46226415094339623
0.00039899235302,0.4716981132075472
0.00039899235302,0.4811320754716981
0.00039899235302,0.49056603773584906
0.000615987229524,0.5
0.000735615925919,0.5094339622641509
0.000735615925919,0.5188679245283019
0.00077887306571,0.5283018867924528
0.00077887306571,0.5377358490566038
0.00106253843072,0.5471698113207547
0.0013544037382,0.5566037735849056
0.0013544037382,0.5660377358490566
0.00167813852101,0.5754716981132075
0.00167813852101,0.5849056603773585
0.00211929879103,0.5943396226415094
0.00257769915623,0.6037735849056604
0.00348368259993,0.6132075471698113
0.00477620686596,0.6226415094339622
0.00478100242414,0.6320754716981132
0.00478162366889,0.6415094339622641
0.00478361911028,0.6509433962264151
0.00478459890001,0.660377358490566
0.00478743753829,0.6698113207547169
0.00479343548982,0.6792452830188679
0.00479831465044,0.6886792452830188
0.0047996151482,0.6981132075471698
0.00480354087949,0.7075471698113207
0.00480990636508,0.7169811320754716
0.00481068298426,0.7264150943396226
0.00481259323409,0.7358490566037735
0.00543227015749,0.7452830188679245
0.00551078675274,0.7547169811320755
0.0117639230643,0.7641509433962265
0.062322577259,0.7735849056603774
0.134646680764,0.7830188679245284
0.134646680764,0.7924528301886793
0.179936799392,0.8018867924528302
0.179936799392,0.8113207547169812
0.179936799392,0.8207547169811321
0.359057815372,0.8301886792452831
0.359057815372,0.839622641509434
0.359057815372,0.8490566037735849
0.359873598783,0.8584905660377359
0.359873598783,0.8679245283018868
0.807531943058,0.8773584905660378
0.807531943058,0.8867924528301887
0.808860772913,0.8962264150943396
0.808860772913,0.9056603773584906
0.80955598448,0.9150943396226415
0.80955598448,0.9245283018867925
0.944828735399,0.9339622641509434
1.43508573308,0.9433962264150944
1.79232776686,0.9528301886792453
1.80267060236,0.9622641509433962
1.88609073698,0.9716981132075472
1.89238946215,0.9811320754716981
3.5894910152,0.9905660377358491
6.11467953616,1.0
