Congestion,CDF
0.0,0.009433962264150943
0.0,0.018867924528301886
0.0,0.02830188679245283
0.0,0.03773584905660377
0.0,0.04716981132075472
0.0,0.05660377358490566
0.0,0.0660377358490566
0.0,0.07547169811320754
0.0,0.08490566037735849
0.0,0.09433962264150944
0.0,0.10377358490566038
0.0,0.11320754716981132
0.0,0.12264150943396226
0.0,0.1320754716981132
0.0,0.14150943396226415
0.0,0.1509433962264151
0.0,0.16037735849056603
0.0,0.16981132075471697
0.0,0.1792452830188679
0.0,0.18867924528301888
0.0,0.19811320754716982
0.0,0.20754716981132076
0.0,0.2169811320754717
0.0,0.22641509433962265
0.0,0.2358490566037736
0.0,0.24528301886792453
0.0,0.25471698113207547
0.0,0.2641509433962264
0.0,0.27358490566037735
0.0,0.2830188679245283
4.51660747531e-08,0.29245283018867924
1.16358705897e-06,0.3018867924528302
1.30847387567e-06,0.3113207547169811
1.77385109427e-06,0.32075471698113206
2.0023578392e-06,0.330188679245283
2.66438559415e-06,0.33962264150943394
4.06322898215e-06,0.3490566037735849
5.20114774192e-06,0.3584905660377358
5.50445007343e-06,0.36792452830188677
6.4200098658e-06,0.37735849056603776
7.90456961657e-06,0.3867924528301887
8.08569288782e-06,0.39622641509433965
8.53120171251e-06,0.4056603773584906
5.46681224172e-05,0.41509433962264153
7.49358448356e-05,0.42452830188679247
7.49358448356e-05,0.4339622641509434
0.000195043040322,0.44339622641509435
0.000195043040322,0.4528301886792453
0.000195043040322,0.46226415094339623
0.000199828919562,0.4716981132075472
0.000199828919562,0.4811320754716981
0.000199828919562,0.49056603773584906
0.000308507322529,0.5
0.00036842143609,0.5094339622641509
0.00036842143609,0.5188679245283019
0.000390086080644,0.5283018867924528
0.000390086080644,0.5377358490566038
0.000532155328281,0.5471698113207547
0.000678331385569,0.5566037735849056
0.000678331385569,0.5660377358490566
0.000840468758338,0.5754716981132075
0.000840468758338,0.5849056603773585
0.00106141680269,0.5943396226415094
0.00129099927216,0.6037735849056604
0.00174474654657,0.6132075471698113
0.00272066536645,0.6226415094339622
0.00275998914365,0.6320754716981132
0.0058917721554,0.6415094339622641
0.0163805878257,0.6509433962264151
0.0192864768798,0.660377358490566
0.0294644986171,0.6698113207547169
0.0296903106444,0.6792452830188679
0.0366083464479,0.6886792452830188
0.039212217262,0.6981132075471698
0.0416020806226,0.7075471698113207
0.0447833831518,0.7169811320754716
0.045098790221,0.7264150943396226
0.0452788905304,0.7358490566037735
0.0483404181781,0.7452830188679245
0.0511368594796,0.7547169811320755
0.0515142437401,0.7641509433962265
0.4983971036,0.7735849056603774
1.26840347497,0.7830188679245284
1.26840347497,0.7924528301886793
1.67937686819,0.8018867924528302
1.67937686819,0.8113207547169812
1.67937686819,0.8207547169811321
3.35875373638,0.8301886792452831
3.35875373638,0.839622641509434
3.38240926658,0.8490566037735849
3.38240926658,0.8584905660377359
3.38240926658,0.8679245283018868
5.16600368114,0.8773584905660378
5.78594306393,0.8867924528301887
6.6463751015,0.8962264150943396
6.6463751015,0.9056603773584906
7.20817019615,0.9150943396226415
7.20817019615,0.9245283018867925
7.96623317115,0.9339622641509434
7.96623317115,0.9433962264150944
13.837682385,0.9528301886792453
13.8884900911,0.9622641509433962
18.7116393454,0.9716981132075472
18.8248546235,0.9811320754716981
31.2471428755,0.9905660377358491
61.7418053562,1.0
