Congestion,CDF
0.0,0.007352941176470588
0.0,0.014705882352941176
0.0,0.022058823529411766
0.0,0.029411764705882353
0.0,0.03676470588235294
0.0,0.04411764705882353
0.0,0.051470588235294115
0.0,0.058823529411764705
0.0,0.0661764705882353
0.0,0.07352941176470588
0.0,0.08088235294117647
0.0,0.08823529411764706
0.0,0.09558823529411764
0.0,0.10294117647058823
1.52711783586e-05,0.11029411764705882
1.52711783586e-05,0.11764705882352941
1.52711783586e-05,0.125
1.52711783586e-05,0.1323529411764706
1.52711783586e-05,0.13970588235294118
1.52711783586e-05,0.14705882352941177
1.52711783586e-05,0.15441176470588236
1.52711783586e-05,0.16176470588235295
1.52711783586e-05,0.16911764705882354
1.52711783586e-05,0.17647058823529413
1.52711783586e-05,0.18382352941176472
1.52711783586e-05,0.19117647058823528
1.52711783586e-05,0.19852941176470587
1.52711783586e-05,0.20588235294117646
1.52711783586e-05,0.21323529411764705
1.52711783586e-05,0.22058823529411764
1.52711783586e-05,0.22794117647058823
1.52711783586e-05,0.23529411764705882
1.52711783586e-05,0.2426470588235294
1.52711783586e-05,0.25
1.52711783586e-05,0.25735294117647056
1.52711783586e-05,0.2647058823529412
1.52711783586e-05,0.27205882352941174
1.52711783586e-05,0.27941176470588236
1.52711783586e-05,0.2867647058823529
1.52711783586e-05,0.29411764705882354
1.52711783586e-05,0.3014705882352941
0.000381779458964,0.3088235294117647
0.000381779458964,0.3161764705882353
0.000412321815681,0.3235294117647059
0.000763558917928,0.33088235294117646
0.000763558917928,0.3382352941176471
0.000763558917928,0.34558823529411764
0.000763558917928,0.35294117647058826
0.00114533837689,0.3602941176470588
0.00127259819655,0.36764705882352944
0.00127259819655,0.375
0.00127259819655,0.38235294117647056
0.00152711783586,0.3897058823529412
0.00152711783586,0.39705882352941174
0.00152711783586,0.40441176470588236
0.00152711783586,0.4117647058823529
0.00152711783586,0.41911764705882354
0.00152711783586,0.4264705882352941
0.00152711783586,0.4338235294117647
0.00190889729482,0.4411764705882353
0.00229067675378,0.4485294117647059
0.00229067675378,0.45588235294117646
0.0027997160324,0.4632352941176471
0.00305423567171,0.47058823529411764
0.00305423567171,0.47794117647058826
0.00458135350757,0.4852941176470588
0.00623573116308,0.49264705882352944
0.00910758663327,0.5
0.009786981948,0.5073529411764706
0.01107160431,0.5147058823529411
0.0113261239493,0.5220588235294118
0.0146348792603,0.5294117647058824
0.0172967539734,0.5367647058823529
0.0174686873767,0.5441176470588235
0.0175517952568,0.5514705882352942
0.0176204192344,0.5588235294117647
0.0176622553974,0.5661764705882353
0.0177726216532,0.5735294117647058
0.0179899515319,0.5808823529411765
0.0180177734089,0.5882352941176471
0.0180529177416,0.5955882352941176
0.0180544354129,0.6029411764705882
0.0180553799368,0.6102941176470589
0.0180814180269,0.6176470588235294
0.01808956278,0.625
0.0181116518196,0.6323529411764706
0.0181215981701,0.6397058823529411
0.0181224167309,0.6470588235294118
0.0181588609778,0.6544117647058824
0.0181951927136,0.6617647058823529
0.0181981542106,0.6691176470588235
0.0182145666609,0.6764705882352942
0.0182145917646,0.6838235294117647
0.0182147275619,0.6911764705882353
0.0182147350398,0.6985294117647058
0.0182151805928,0.7058823529411765
0.0182151855784,0.7132352941176471
0.0182151855784,0.7205882352941176
0.0184526738499,0.7279411764705882
0.0197252720465,0.7352941176470589
0.0199797916858,0.7426470588235294
0.0215069095216,0.75
0.452035450673,0.7573529411764706
0.453039954252,0.7647058823529411
0.468822433501,0.7720588235294118
0.888631082659,0.7794117647058824
0.888631082659,0.7867647058823529
0.907943048892,0.7941176470588235
0.907943048892,0.8014705882352942
1.35610635202,0.8088235294117647
1.50806083093,0.8161764705882353
1.50806083093,0.8235294117647058
1.50806083093,0.8308823529411765
1.76622553974,0.8382352941176471
1.80544354129,0.8455882352941176
1.81215981701,0.8529411764705882
1.82145917646,0.8602941176470589
1.82147350398,0.8676470588235294
1.82151855784,0.875
1.82151855784,0.8823529411764706
2.25757344435,0.8897058823529411
2.64381060833,0.8970588235294118
2.72018472198,0.9044117647058824
3.30983817182,0.9117647058823529
3.52826746318,0.9191176470588235
3.64294626017,0.9264705882352942
5.46455517496,0.9338235294117647
7.37636959073,0.9411764705882353
13.2034572319,0.9485294117647058
13.3738339984,0.9558823529411765
17.4389803831,0.9632352941176471
21.2755874673,0.9705882352941176
21.9703302871,0.9779411764705882
22.1863461306,0.9852941176470589
23.7171990247,0.9926470588235294
24.6958972195,1.0
