Congestion,CDF
0.0,0.007352941176470588
0.0,0.014705882352941176
0.0,0.022058823529411766
0.0,0.029411764705882353
0.0,0.03676470588235294
0.0,0.04411764705882353
0.0,0.051470588235294115
0.0,0.058823529411764705
0.0,0.0661764705882353
0.0,0.07352941176470588
0.0,0.08088235294117647
0.0,0.08823529411764706
0.0,0.09558823529411764
0.0,0.10294117647058823
1.52023962604e-05,0.11029411764705882
1.52023962604e-05,0.11764705882352941
1.52023962604e-05,0.125
1.52023962604e-05,0.1323529411764706
1.52023962604e-05,0.13970588235294118
1.52023962604e-05,0.14705882352941177
1.52023962604e-05,0.15441176470588236
1.52023962604e-05,0.16176470588235295
1.52023962604e-05,0.16911764705882354
1.52023962604e-05,0.17647058823529413
1.52023962604e-05,0.18382352941176472
1.52023962604e-05,0.19117647058823528
1.52023962604e-05,0.19852941176470587
1.52023962604e-05,0.20588235294117646
1.52023962604e-05,0.21323529411764705
1.52023962604e-05,0.22058823529411764
1.52023962604e-05,0.22794117647058823
1.52023962604e-05,0.23529411764705882
1.52023962604e-05,0.2426470588235294
1.52023962604e-05,0.25
1.52023962604e-05,0.25735294117647056
1.52023962604e-05,0.2647058823529412
1.52023962604e-05,0.27205882352941174
1.52023962604e-05,0.27941176470588236
1.52023962604e-05,0.2867647058823529
1.52023962604e-05,0.29411764705882354
1.52023962604e-05,0.3014705882352941
0.000380059906511,0.3088235294117647
0.000380059906511,0.3161764705882353
0.000410464699032,0.3235294117647059
0.000760119813022,0.33088235294117646
0.000760119813022,0.3382352941176471
0.000760119813022,0.34558823529411764
0.000760119813022,0.35294117647058826
0.00114017971953,0.3602941176470588
0.00126686635504,0.36764705882352944
0.00126686635504,0.375
0.00126686635504,0.38235294117647056
0.00152023962604,0.3897058823529412
0.00152023962604,0.39705882352941174
0.00152023962604,0.40441176470588236
0.00152023962604,0.4117647058823529
0.00152023962604,0.41911764705882354
0.00152023962604,0.4264705882352941
0.00152023962604,0.4338235294117647
0.00190029953255,0.4411764705882353
0.00228035943906,0.4485294117647059
0.00228035943906,0.45588235294117646
0.00278710598108,0.4632352941176471
0.00304047925209,0.47058823529411764
0.00304047925209,0.47794117647058826
0.00456071887813,0.4852941176470588
0.00620764513968,0.49264705882352944
0.0110217372888,0.5
0.0112751105598,0.5073529411764706
0.0145689630829,0.5147058823529411
0.0166831062367,0.5220588235294118
0.0171092780748,0.5294117647058824
0.018116188877,0.5367647058823529
0.018369562148,0.5441176470588235
0.0196364285031,0.5514705882352942
0.0198898017741,0.5588235294117647
0.0211613405622,0.5661764705882353
0.0212761836113,0.5735294117647058
0.0212969848579,0.5808823529411765
0.0213297957011,0.5882352941176471
0.0213467416757,0.5955882352941176
0.0214100414001,0.6029411764705882
0.0214692539334,0.6102941176470589
0.0216660960928,0.6176470588235294
0.0216846388749,0.625
0.0217181462003,0.6323529411764706
0.0217189265317,0.6397058823529411
0.0217197511181,0.6470588235294118
0.0217458016749,0.6544117647058824
0.0217542784832,0.6617647058823529
0.0217816526157,0.6691176470588235
0.0217857732711,0.6764705882352942
0.0217881124235,0.6838235294117647
0.0218236829537,0.6911764705882353
0.0218593671538,0.6985294117647058
0.0218784760059,0.7058823529411765
0.0218784915424,0.7132352941176471
0.0218786234485,0.7205882352941176
0.0218786287946,0.7279411764705882
0.0218790751823,0.7352941176470589
0.0218790787467,0.7426470588235294
0.0218790787467,0.75
0.543645041872,0.7573529411764706
0.544644331777,0.7647058823529411
0.575870364514,0.7720588235294118
1.07346269667,0.7794117647058824
1.07346269667,0.7867647058823529
1.09118414768,0.7941176470588235
1.09118414768,0.8014705882352942
1.63093512562,0.8088235294117647
1.81343198976,0.8161764705882353
1.81343198976,0.8235294117647058
1.81343198976,0.8308823529411765
2.13467416757,0.8382352941176471
2.17189265317,0.8455882352941176
2.17857732711,0.8529411764705882
2.18784915424,0.8602941176470589
2.18786287946,0.8676470588235294
2.18790787467,0.875
2.18790787467,0.8823529411764706
2.71562015368,0.8897058823529411
3.2010810578,0.8970588235294118
3.26999539003,0.9044117647058824
3.98189587724,0.9117647058823529
4.26765373768,0.9191176470588235
4.37572522431,0.9264705882352942
6.56372326757,0.9338235294117647
8.87275941664,0.9411764705882353
15.8597895785,0.9485294117647058
16.0947275998,0.9558823529411765
20.9503424313,0.9632352941176471
25.6795964515,0.9705882352941176
26.3985030829,0.9779411764705882
27.3479070752,0.9852941176470589
28.5282015687,0.9926470588235294
30.2391293762,1.0
