Congestion,CDF
0.0,0.009433962264150943
0.0,0.018867924528301886
0.0,0.02830188679245283
0.0,0.03773584905660377
0.0,0.04716981132075472
0.0,0.05660377358490566
0.0,0.0660377358490566
0.0,0.07547169811320754
0.0,0.08490566037735849
0.0,0.09433962264150944
0.0,0.10377358490566038
0.0,0.11320754716981132
0.0,0.12264150943396226
0.0,0.1320754716981132
0.0,0.14150943396226415
0.0,0.1509433962264151
0.0,0.16037735849056603
0.0,0.16981132075471697
0.0,0.1792452830188679
0.0,0.18867924528301888
0.0,0.19811320754716982
0.0,0.20754716981132076
0.0,0.2169811320754717
0.0,0.22641509433962265
0.0,0.2358490566037736
0.0,0.24528301886792453
0.0,0.25471698113207547
0.0,0.2641509433962264
0.0,0.27358490566037735
0.0,0.2830188679245283
1.79288804253e-07,0.29245283018867924
4.6189121722e-06,0.3018867924528302
5.19404703306e-06,0.3113207547169811
7.04138323628e-06,0.32075471698113206
7.60590712598e-06,0.330188679245283
7.94845123558e-06,0.33962264150943394
8.5856968531e-06,0.3490566037735849
1.05764007578e-05,0.3584905660377358
1.61291737128e-05,0.36792452830188677
2.06461943946e-05,0.37735849056603776
2.18501669037e-05,0.3867924528301887
2.24709489431e-05,0.39622641509433965
2.36019450412e-05,0.4056603773584906
2.54845234709e-05,0.41509433962264153
2.75276763337e-05,0.42452830188679247
3.13775514574e-05,0.4339622641509434
3.20965285857e-05,0.44339622641509435
3.38649962885e-05,0.4528301886792453
3.65800309327e-05,0.46226415094339623
4.62761097667e-05,0.4716981132075472
5.92295502093e-05,0.4811320754716981
0.000113945942732,0.49056603773584906
0.000217007618053,0.5
0.000297461271313,0.5094339622641509
0.000297461271313,0.5188679245283019
0.000774232289798,0.5283018867924528
0.000774232289798,0.5377358490566038
0.000774232289798,0.5471698113207547
0.000793230056836,0.5566037735849056
0.000793230056836,0.5660377358490566
0.000793230056836,0.5754716981132075
0.00122463395949,0.5849056603773585
0.00146246577988,0.5943396226415094
0.00146246577988,0.6037735849056604
0.0015484645796,0.6132075471698113
0.0015484645796,0.6226415094339622
0.00166583109964,0.6320754716981132
0.00166583109964,0.6415094339622641
0.00173535411625,0.6509433962264151
0.00173535411625,0.660377358490566
0.00173535411625,0.6698113207547169
0.00211241497088,0.6792452830188679
0.0022817721378,0.6886792452830188
0.00269266753135,0.6981132075471698
0.00269266753135,0.7075471698113207
0.00333627926532,0.7169811320754716
0.00333627926532,0.7264150943396226
0.0034707082325,0.7358490566037735
0.0034707082325,0.7452830188679245
0.00396411612606,0.7547169811320755
0.00421334265615,0.7641509433962265
0.0044422162657,0.7735849056603774
0.0044422162657,0.7830188679245284
0.0044422162657,0.7924528301886793
0.00512468079333,0.8018867924528302
0.00549532844292,0.8113207547169812
0.00549532844292,0.8207547169811321
0.00562256550396,0.8301886792452831
0.00562256550396,0.839622641509434
0.005844527809,0.8490566037735849
0.0059527777653,0.8584905660377359
0.00692585139997,0.8679245283018868
0.0075543472959,0.8773584905660378
0.0107998058939,0.8867924528301887
0.0109559034302,0.8962264150943396
0.0138530724638,0.9056603773584906
0.0180755614881,0.9150943396226415
0.0188985670119,0.9245283018867925
0.0233876596638,0.9339622641509434
0.0472368461993,0.9433962264150944
0.448930410868,0.9528301886792453
0.448930410868,0.9622641509433962
0.640084768568,0.9716981132075472
5.42662490868,0.9811320754716981
5.67352656581,0.9905660377358491
13.4845586852,1.0
