Congestion,CDF
0.0,0.009433962264150943
0.0,0.018867924528301886
0.0,0.02830188679245283
0.0,0.03773584905660377
0.0,0.04716981132075472
0.0,0.05660377358490566
0.0,0.0660377358490566
0.0,0.07547169811320754
0.0,0.08490566037735849
0.0,0.09433962264150944
0.0,0.10377358490566038
0.0,0.11320754716981132
0.0,0.12264150943396226
0.0,0.1320754716981132
0.0,0.14150943396226415
0.0,0.1509433962264151
0.0,0.16037735849056603
0.0,0.16981132075471697
0.0,0.1792452830188679
0.0,0.18867924528301888
0.0,0.19811320754716982
0.0,0.20754716981132076
0.0,0.2169811320754717
0.0,0.22641509433962265
0.0,0.2358490566037736
0.0,0.24528301886792453
0.0,0.25471698113207547
0.0,0.2641509433962264
0.0,0.27358490566037735
0.0,0.2830188679245283
1.58606989082e-07,0.29245283018867924
4.08609871385e-06,0.3018867924528302
4.5948890367e-06,0.3113207547169811
6.22912623425e-06,0.32075471698113206
7.03155963136e-06,0.330188679245283
7.60590712598e-06,0.33962264150943394
9.35636269376e-06,0.3490566037735849
1.42685969134e-05,0.3584905660377358
1.82645578042e-05,0.36792452830188677
1.93296463656e-05,0.37735849056603776
2.25447626401e-05,0.3867924528301887
2.77580018571e-05,0.39622641509433965
2.83940415587e-05,0.4056603773584906
2.9958508112e-05,0.41509433962264153
0.000142418007743,0.42452830188679247
0.00019197475855,0.4339622641509434
0.000263147700762,0.44339622641509435
0.000263147700762,0.4528301886792453
0.000684920917659,0.46226415094339623
0.000684920917659,0.4716981132075472
0.000684920917659,0.4811320754716981
0.000701727202032,0.49056603773584906
0.000701727202032,0.5
0.000701727202032,0.5094339622641509
0.0010833666154,0.5188679245283019
0.00129376340563,0.5283018867924528
0.00129376340563,0.5377358490566038
0.00136984183532,0.5471698113207547
0.00136984183532,0.5566037735849056
0.00186873787027,0.5660377358490566
0.0022817721378,0.5754716981132075
0.00238205554176,0.5849056603773585
0.00238205554176,0.5943396226415094
0.00295142360514,0.6037735849056604
0.00295142360514,0.6132075471698113
0.00372731356789,0.6226415094339622
0.0045335245222,0.6320754716981132
0.00525052991229,0.6415094339622641
0.00548438289781,0.6509433962264151
0.00612692154402,0.660377358490566
0.00932480073402,0.6698113207547169
0.00955399698628,0.6792452830188679
0.00969208793033,0.6886792452830188
0.0167826076786,0.6981132075471698
0.0178940010224,0.7075471698113207
0.020689782033,0.7169811320754716
0.0216129175196,0.7264150943396226
0.0222597625308,0.7358490566037735
0.0255566619983,0.7452830188679245
0.0292368498676,0.7547169811320755
0.033569706688,0.7641509433962265
0.0340835195939,0.7735849056603774
0.221205764358,0.7830188679245284
0.626055821177,0.7924528301886793
0.626055821177,0.8018867924528302
0.810484406986,0.8113207547169812
0.810484406986,0.8207547169811321
0.810484406986,0.8301886792452831
1.15750163037,0.839622641509434
1.62096881397,0.8490566037735849
1.62096881397,0.8584905660377359
1.66948218981,0.8679245283018868
1.66948218981,0.8773584905660378
1.66948218981,0.8867924528301887
2.28295920899,0.8962264150943396
2.28295920899,0.9056603773584906
3.24699424144,0.9150943396226415
3.24699424144,0.9245283018867925
4.42836347171,0.9339622641509434
4.48098039345,0.9433962264150944
4.52306473652,0.9528301886792453
4.52306473652,0.9622641509433962
11.7161375083,0.9716981132075472
11.8702813801,0.9811320754716981
14.1094808976,0.9905660377358491
37.2841704699,1.0
