Congestion,CDF
0.0,0.005555555555555556
0.0,0.011111111111111112
0.0,0.016666666666666666
0.0,0.022222222222222223
0.0,0.027777777777777776
0.0,0.03333333333333333
0.0,0.03888888888888889
0.0,0.044444444444444446
0.0,0.05
0.0,0.05555555555555555
3.21608237813e-07,0.06111111111111111
3.69512398118e-07,0.06666666666666667
8.31741792847e-07,0.07222222222222222
1.21563901261e-06,0.07777777777777778
1.24389786122e-06,0.08333333333333333
1.64237338217e-06,0.08888888888888889
1.80682809267e-06,0.09444444444444444
2.49022112716e-06,0.1
2.50306830256e-06,0.10555555555555556
2.56087383161e-06,0.1111111111111111
2.61357955336e-06,0.11666666666666667
2.87701714115e-06,0.12222222222222222
2.9437488636e-06,0.12777777777777777
3.28726633313e-06,0.13333333333333333
3.36682113703e-06,0.1388888888888889
3.54530554244e-06,0.14444444444444443
4.09948513771e-06,0.15
4.48650638919e-06,0.15555555555555556
4.684816372e-06,0.16111111111111112
4.87240166989e-06,0.16666666666666666
4.94949306769e-06,0.17222222222222222
4.98924405158e-06,0.17777777777777778
5.15454482391e-06,0.18333333333333332
5.3336554318e-06,0.18888888888888888
5.42368981554e-06,0.19444444444444445
5.48494059677e-06,0.2
5.51537107347e-06,0.20555555555555555
5.57870620885e-06,0.2111111111111111
5.63322026113e-06,0.21666666666666667
5.64558177041e-06,0.2222222222222222
5.83421515957e-06,0.22777777777777777
5.88288928027e-06,0.23333333333333334
5.9504211869e-06,0.2388888888888889
6.44398698848e-06,0.24444444444444444
6.78075936449e-06,0.25
7.36193235293e-06,0.25555555555555554
7.47856164426e-06,0.2611111111111111
7.58618356754e-06,0.26666666666666666
7.84308918892e-06,0.2722222222222222
2.77247264282e-05,0.2777777777777778
5.54494528565e-05,0.2833333333333333
6.07819506306e-05,0.28888888888888886
6.07819506306e-05,0.29444444444444445
6.2576707564e-05,0.3
6.2576707564e-05,0.3055555555555556
9.47375313453e-05,0.3111111111111111
0.000124389786122,0.31666666666666665
0.000125153415128,0.32222222222222224
0.000166633198013,0.3277777777777778
0.000249022112716,0.3333333333333333
0.000258974869563,0.3388888888888889
0.000274247029838,0.34444444444444444
0.000274247029838,0.35
0.000350278421679,0.35555555555555557
0.00053336554318,0.3611111111111111
0.000542368981554,0.36666666666666664
0.000559706355788,0.37222222222222223
0.000602973663152,0.37777777777777777
0.000637951669221,0.38333333333333336
0.000637951669221,0.3888888888888889
0.000727456506763,0.39444444444444443
0.00076878848497,0.4
0.000826653787026,0.40555555555555556
0.000883771771882,0.4111111111111111
0.00109792372022,0.4166666666666667
0.00116084428404,0.4222222222222222
0.00122137318518,0.42777777777777776
0.00150155669606,0.43333333333333335
0.0017629146514,0.4388888888888889
0.00184576776801,0.4444444444444444
0.00227919664912,0.45
0.0025819610033,0.45555555555555555
0.00459364840786,0.46111111111111114
0.00558858517198,0.4666666666666667
0.00584967705982,0.4722222222222222
0.00637289409088,0.4777777777777778
0.00652775299627,0.48333333333333334
0.00686784339764,0.4888888888888889
0.00694306550115,0.49444444444444446
0.00735301401492,0.5
0.00794130294294,0.5055555555555555
0.00799087177955,0.5111111111111111
0.00812198575221,0.5166666666666667
0.00824695916271,0.5222222222222223
0.00854133404907,0.5277777777777778
0.0147534319323,0.5333333333333333
0.0150379793998,0.5388888888888889
0.019623527201,0.5444444444444444
0.0198598366417,0.55
0.0199553867509,0.5555555555555556
0.0199589135275,0.5611111111111111
0.019966300499,0.5666666666666667
0.0199831019367,0.5722222222222222
0.0200040327463,0.5777777777777777
0.0200245965533,0.5833333333333334
0.0200690218237,0.5888888888888889
0.0200704381723,0.5944444444444444
0.020076491873,0.6
0.0200903151646,0.6055555555555555
0.0201019546526,0.6111111111111112
0.0201099043643,0.6166666666666667
0.0201142274419,0.6222222222222222
0.0201159312208,0.6277777777777778
0.0201377289407,0.6333333333333333
0.020167738837,0.6388888888888888
0.0201746577316,0.6444444444444445
0.0201816231099,0.65
0.0201840244019,0.6555555555555556
0.0201941718335,0.6611111111111111
0.020209562001,0.6666666666666666
0.0202171305039,0.6722222222222223
0.0202236660362,0.6777777777777778
0.0202255052351,0.6833333333333333
0.0202284669247,0.6888888888888889
0.0202299743996,0.6944444444444444
0.020233475237,0.7
0.0202451791238,0.7055555555555556
0.0202503407631,0.7111111111111111
0.0202765273851,0.7166666666666667
0.0202919796093,0.7222222222222222
0.0203240569026,0.7277777777777777
0.0203295192715,0.7333333333333333
0.0203370393614,0.7388888888888889
0.0203449855419,0.7444444444444445
0.501760954308,0.75
0.501760954308,0.7555555555555555
0.666103397891,0.7611111111111111
0.774922745052,0.7666666666666667
0.998315024952,0.7722222222222223
0.998315024952,0.7777777777777778
1.00352190862,0.7833333333333333
1.01127526176,0.7888888888888889
1.01127526176,0.7944444444444444
1.33220679578,0.8
2.00040327463,0.8055555555555556
2.00690218237,0.8111111111111111
2.02171305039,0.8166666666666667
2.02236660362,0.8222222222222222
2.4972996294,0.8277777777777777
2.51079247076,0.8333333333333334
3.01208791902,0.8388888888888889
3.02226569818,0.8444444444444444
3.03722584475,0.85
3.19051288131,0.8555555555555555
3.19051288131,0.8611111111111112
4.02805601314,0.8666666666666667
4.04506057409,0.8722222222222222
4.49975928473,0.8777777777777778
5.04526313814,0.8833333333333333
5.19436164182,0.8888888888888888
5.21503079369,0.8944444444444445
6.51816172492,0.9
9.2583535974,0.9055555555555556
10.3807658759,0.9111111111111111
11.5613732454,0.9166666666666666
12.3884150632,0.9222222222222223
13.5937789356,0.9277777777777778
23.669615353,0.9333333333333333
24.717054575,0.9388888888888889
26.7515531292,0.9444444444444444
28.7697154402,0.95
29.7170885495,0.9555555555555556
31.7462865105,0.9611111111111111
33.7985772429,0.9666666666666667
34.7560242796,0.9722222222222222
35.760929963,0.9777777777777777
36.7662197448,0.9833333333333333
37.2362731562,0.9888888888888889
38.752203409,0.9944444444444445
40.256001349,1.0
