Congestion,CDF
0.0,0.005555555555555556
0.0,0.011111111111111112
0.0,0.016666666666666666
0.0,0.022222222222222223
0.0,0.027777777777777776
0.0,0.03333333333333333
0.0,0.03888888888888889
0.0,0.044444444444444446
0.0,0.05
0.0,0.05555555555555555
3.94798989935e-07,0.06111111111111111
4.53605052338e-07,0.06666666666666667
1.02102739014e-06,0.07222222222222222
1.49229092379e-06,0.07777777777777778
1.52698084642e-06,0.08333333333333333
2.01614037249e-06,0.08888888888888889
2.21802125102e-06,0.09444444444444444
3.05693906476e-06,0.1
3.07270996635e-06,0.10555555555555556
3.14367072481e-06,0.1111111111111111
3.20837107532e-06,0.11666666666666667
3.53176109255e-06,0.12222222222222222
3.61367944389e-06,0.12777777777777777
4.03537371055e-06,0.13333333333333333
4.1330333863e-06,0.1388888888888889
4.35213680061e-06,0.14444444444444443
5.03243512239e-06,0.15
5.50753364664e-06,0.15555555555555556
5.75097449081e-06,0.16111111111111112
5.98124995464e-06,0.16666666666666666
6.07588560885e-06,0.17222222222222222
6.12468301651e-06,0.17777777777777778
6.32760250139e-06,0.18333333333333332
6.54747462768e-06,0.18888888888888888
6.65799879835e-06,0.19444444444444445
6.73318887036e-06,0.2
6.77054463445e-06,0.20555555555555555
6.84829341243e-06,0.2111111111111111
6.91521362854e-06,0.21666666666666667
6.93038833741e-06,0.2222222222222222
7.16195041434e-06,0.22777777777777777
7.22170166269e-06,0.23333333333333334
7.30460230201e-06,0.2388888888888889
7.91049250326e-06,0.24444444444444444
8.32390664585e-06,0.25
9.03734144582e-06,0.25555555555555554
9.1805129228e-06,0.2611111111111111
9.31262715872e-06,0.26666666666666666
9.62799868192e-06,0.2722222222222222
3.40342463381e-05,0.2777777777777778
6.80684926762e-05,0.2833333333333333
7.46145461896e-05,0.28888888888888886
7.46145461896e-05,0.29444444444444445
7.68177491588e-05,0.3
7.68177491588e-05,0.3055555555555556
0.000116297648152,0.3111111111111111
0.000152698084642,0.31666666666666665
0.000153635498318,0.32222222222222224
0.000204555140479,0.3277777777777778
0.000305693906476,0.3333333333333333
0.000317911685401,0.3388888888888889
0.000336659443518,0.34444444444444444
0.000336659443518,0.35
0.000429993858414,0.35555555555555557
0.000654747462768,0.3611111111111111
0.000665799879835,0.36666666666666664
0.00068708284784,0.37222222222222223
0.000740196814573,0.37777777777777777
0.000783135022748,0.38333333333333336
0.000783135022748,0.3888888888888889
0.000893009134482,0.39444444444444443
0.000943747334968,0.4
0.00101478146942,0.40555555555555556
0.00108489821419,0.4111111111111111
0.00134778629651,0.4166666666666667
0.00142502615582,0.4222222222222222
0.00149933006418,0.42777777777777776
0.00150308204209,0.43333333333333335
0.00184005942149,0.4388888888888889
0.0018432769974,0.4444444444444444
0.00216411410493,0.45
0.00226582271468,0.45555555555555555
0.00279789019416,0.46111111111111114
0.00316955685926,0.4666666666666667
0.00563905876253,0.4722222222222222
0.00686042060387,0.4777777777777778
0.00718093109296,0.48333333333333334
0.00782322047206,0.4888888888888889
0.00801332175755,0.49444444444444446
0.00843080903294,0.5
0.0085231499838,0.5055555555555555
0.00879158189779,0.5111111111111111
0.00902639349604,0.5166666666666667
0.00917095505986,0.5222222222222223
0.00922102487167,0.5277777777777778
0.00922628959453,0.5333333333333333
0.00926234956637,0.5388888888888889
0.00926724751801,0.5444444444444444
0.00930313097205,0.55
0.00933815155141,0.5555555555555556
0.00941333640996,0.5611111111111111
0.00941521887028,0.5666666666666667
0.00942528187338,0.5722222222222222
0.00944866259069,0.5777777777777777
0.00948313522048,0.5833333333333334
0.0094920485566,0.5888888888888889
0.00949655815064,0.5944444444444444
0.00949849509833,0.6
0.00956883982152,0.6055555555555555
0.00959139684107,0.6111111111111112
0.00960795811881,0.6166666666666667
0.00961475495923,0.6222222222222222
0.0096181960628,0.6277777777777778
0.00962491040115,0.6333333333333333
0.00965053729326,0.6388888888888888
0.00966460338255,0.6444444444444445
0.00967440581201,0.65
0.00967846702851,0.6555555555555556
0.00968253282297,0.6611111111111111
0.00968633764063,0.6666666666666666
0.00969226458207,0.6722222222222223
0.00971081261385,0.6777777777777778
0.00972019014226,0.6833333333333333
0.00974856366231,0.6888888888888889
0.00976428289814,0.6944444444444444
0.00979194046125,0.7
0.00980941324364,0.7055555555555556
0.00984511523758,0.7111111111111111
0.00985480754912,0.7166666666666667
0.00986623362905,0.7222222222222222
0.00988347669732,0.7277777777777777
0.00997036578741,0.7333333333333333
0.0101237803161,0.7388888888888889
0.0104851482605,0.7444444444444445
0.235380471757,0.75
0.235380471757,0.7555555555555555
0.3089082506,0.7611111111111111
0.356388673261,0.7666666666666667
0.463117478319,0.7722222222222223
0.463117478319,0.7777777777777778
0.470760943514,0.7833333333333333
0.483923351426,0.7888888888888889
0.483923351426,0.7944444444444444
0.617816501201,0.8
0.930313097205,0.8055555555555556
0.941333640996,0.8111111111111111
0.966460338255,0.8166666666666667
0.967440581201,0.8222222222222222
1.15748295892,0.8277777777777777
1.18024673083,0.8333333333333334
1.42000146047,0.8388888888888889
1.43223687347,0.8444444444444444
1.45738430642,0.85
1.51220283164,0.8555555555555555
1.51220283164,0.8611111111111112
1.90674138702,0.8666666666666667
1.93568679646,0.8722222222222222
2.09129811406,0.8777777777777778
2.40087063754,0.8833333333333333
2.44829466553,0.8888888888888888
2.48328409302,0.8944444444444445
3.05209392595,0.9
4.41577840355,0.9055555555555556
4.88312645663,0.9111111111111111
5.44936993259,0.9166666666666666
5.82565464396,0.9222222222222223
6.43388145635,0.9277777777777778
11.2096863298,0.9333333333333333
11.7559196453,0.9388888888888889
12.744267315,0.9444444444444444
13.7057428109,0.95
14.0789187569,0.9555555555555556
15.0581128031,0.9611111111111111
16.0875638777,0.9666666666666667
16.4708860965,0.9722222222222222
16.9667220674,0.9777777777777777
17.1170302717,0.9833333333333333
17.4207356063,0.9888888888888889
18.3378311123,0.9944444444444445
18.5218370544,1.0
