Congestion,CDF
0.0,0.005555555555555556
0.0,0.011111111111111112
0.0,0.016666666666666666
0.0,0.022222222222222223
0.0,0.027777777777777776
0.0,0.03333333333333333
0.0,0.03888888888888889
0.0,0.044444444444444446
0.0,0.05
0.0,0.05555555555555555
3.46689888645e-07,0.06111111111111111
3.9833000867e-07,0.06666666666666667
8.96607846567e-07,0.07222222222222222
1.31044452338e-06,0.07777777777777778
1.34090722901e-06,0.08333333333333333
1.77045914263e-06,0.08888888888888889
1.94773938164e-06,0.09444444444444444
2.68442901572e-06,0.1
2.69827811932e-06,0.10555555555555556
2.76059179812e-06,0.1111111111111111
2.81740794478e-06,0.11666666666666667
3.10139055852e-06,0.12222222222222222
3.17332656856e-06,0.12777777777777777
3.5436343507e-06,0.13333333333333333
3.62939349136e-06,0.1388888888888889
3.82179757608e-06,0.14444444444444443
4.41919664608e-06,0.15
4.83640099225e-06,0.15555555555555556
5.05017681567e-06,0.16111111111111112
5.2523915552e-06,0.16666666666666666
5.33549517312e-06,0.17222222222222222
5.37834626509e-06,0.17777777777777778
5.55653854879e-06,0.18333333333333332
5.74961767241e-06,0.18888888888888888
5.84667367659e-06,0.19444444444444445
5.91270129661e-06,0.2
5.94550499172e-06,0.20555555555555555
6.01377952096e-06,0.2111111111111111
6.0725450266e-06,0.21666666666666667
6.08587058787e-06,0.2222222222222222
6.28921515741e-06,0.22777777777777777
6.34168528567e-06,0.23333333333333334
6.41448388482e-06,0.2388888888888889
6.94654199985e-06,0.24444444444444444
7.30957865069e-06,0.25
7.93607628028e-06,0.25555555555555554
8.06180128129e-06,0.2611111111111111
8.17781644574e-06,0.26666666666666666
8.45475767671e-06,0.2722222222222222
2.98869282189e-05,0.2777777777777778
5.97738564378e-05,0.2833333333333333
6.55222261689e-05,0.28888888888888886
6.55222261689e-05,0.29444444444444445
6.74569529831e-05,0.3
6.74569529831e-05,0.3055555555555556
0.000102125941848,0.3111111111111111
0.000134090722901,0.31666666666666665
0.000134913905966,0.32222222222222224
0.000179628622875,0.3277777777777778
0.000268442901572,0.3333333333333333
0.00027917185611,0.3388888888888889
0.000295635064831,0.34444444444444444
0.000295635064831,0.35
0.000377596008835,0.35555555555555557
0.000574961767241,0.3611111111111111
0.000584667367659,0.36666666666666664
0.000603356852678,0.37222222222222223
0.0006499984999,0.37777777777777777
0.000687704378057,0.38333333333333336
0.000687704378057,0.3888888888888889
0.000784189537678,0.39444444444444443
0.000828744922886,0.4
0.000891123036279,0.40555555555555556
0.00095269555054,0.4111111111111111
0.00118354882603,0.4166666666666667
0.001251376452,0.4222222222222222
0.0013166258938,0.42777777777777776
0.0016186604152,0.43333333333333335
0.00190040120968,0.4388888888888889
0.00198971589256,0.4444444444444444
0.00245694711634,0.45
0.00278332352059,0.45555555555555555
0.00495189882519,0.46111111111111114
0.00602442892674,0.4666666666666667
0.0063058829036,0.4722222222222222
0.00686990469441,0.4777777777777778
0.00703684076867,0.48333333333333334
0.00740345421173,0.4888888888888889
0.00748454275244,0.49444444444444446
0.00792646241705,0.5
0.00856063094562,0.5055555555555555
0.00861406556706,0.5111111111111111
0.00875540488378,0.5166666666666667
0.00889012474687,0.5222222222222223
0.00920745740373,0.5277777777777778
0.0115251765169,0.5333333333333333
0.0116772762074,0.5388888888888889
0.0139268971055,0.5444444444444444
0.0140695253148,0.55
0.0142063384255,0.5555555555555556
0.0142163923541,0.5611111111111111
0.0142187605004,0.5666666666666667
0.0142317692336,0.5722222222222222
0.0142427314869,0.5777777777777777
0.0142536575711,0.5833333333333334
0.0142741569215,0.5888888888888889
0.0142775764384,0.5944444444444444
0.014278682058,0.6
0.0142820628874,0.6055555555555555
0.014287096742,0.6111111111111112
0.0142895145651,0.6166666666666667
0.0142973486455,0.6222222222222222
0.0142991813335,0.6277777777777778
0.0143032840144,0.6333333333333333
0.0143035605976,0.6388888888888888
0.0143308285568,0.6444444444444445
0.0143349293433,0.65
0.0143394996048,0.6555555555555556
0.0143451101485,0.6611111111111111
0.0143536761529,0.6666666666666666
0.014356912665,0.6722222222222223
0.0143612705329,0.6777777777777778
0.0143616283101,0.6833333333333333
0.0143638296742,0.6888888888888889
0.0143638539859,0.6944444444444444
0.0143657130485,0.7
0.0143728544803,0.7055555555555556
0.014375205514,0.7111111111111111
0.0143894545818,0.7166666666666667
0.0143967646478,0.7222222222222222
0.0144147822697,0.7277777777777777
0.014417424055,0.7333333333333333
0.0144223408674,0.7388888888888889
0.0144240792903,0.7444444444444445
0.35696705145,0.75
0.35696705145,0.7555555555555555
0.474392307786,0.7611111111111111
0.552551146649,0.7666666666666667
0.710316921275,0.7722222222222223
0.710316921275,0.7777777777777778
0.713934102899,0.7833333333333333
0.718081415503,0.7888888888888889
0.718081415503,0.7944444444444444
0.948784615571,0.8
1.42427314869,0.8055555555555556
1.42775764384,0.8111111111111111
1.4356912665,0.8166666666666667
1.43612705329,0.8222222222222222
1.77860628686,0.8277777777777777
1.78591850796,0.8333333333333334
2.13902659548,0.8388888888888889
2.14799954885,0.8444444444444444
2.15616818964,0.85
2.26764060333,0.8555555555555555
2.26764060333,0.8611111111111112
2.86321860686,0.8666666666666667
2.87226257135,0.8722222222222222
3.20397204397,0.8777777777777778
3.58438251627,0.8833333333333333
3.69380375008,0.8888888888888888
3.70492605135,0.8944444444444445
4.63792200446,0.9
6.57642071993,0.9055555555555556
7.38332040344,0.9111111111111111
8.2212816152,0.9166666666666666
8.81152669218,0.9222222222222223
9.66275984217,0.9277777777777778
16.8243328107,0.9333333333333333
17.5611473353,0.9388888888888889
19.0035552643,0.9444444444444444
20.43663812,0.95
21.1220624324,0.9555555555555556
22.5617388972,0.9611111111111111
24.0060207752,0.9666666666666667
24.701790683,0.9722222222222222
25.3987104858,0.9777777777777777
26.1292063752,0.9833333333333333
26.5512281375,0.9888888888888889
27.5361589067,0.9944444444444445
28.7038865274,1.0
