Congestion,CDF
0.0,0.007352941176470588
0.0,0.014705882352941176
0.0,0.022058823529411766
0.0,0.029411764705882353
0.0,0.03676470588235294
0.0,0.04411764705882353
0.0,0.051470588235294115
0.0,0.058823529411764705
0.0,0.0661764705882353
0.0,0.07352941176470588
0.0,0.08088235294117647
0.0,0.08823529411764706
0.0,0.09558823529411764
0.0,0.10294117647058823
1.53219180253e-05,0.11029411764705882
1.53219180253e-05,0.11764705882352941
1.53219180253e-05,0.125
1.53219180253e-05,0.1323529411764706
1.53219180253e-05,0.13970588235294118
1.53219180253e-05,0.14705882352941177
1.53219180253e-05,0.15441176470588236
1.53219180253e-05,0.16176470588235295
1.53219180253e-05,0.16911764705882354
1.53219180253e-05,0.17647058823529413
1.53219180253e-05,0.18382352941176472
1.53219180253e-05,0.19117647058823528
1.53219180253e-05,0.19852941176470587
1.53219180253e-05,0.20588235294117646
1.53219180253e-05,0.21323529411764705
1.53219180253e-05,0.22058823529411764
1.53219180253e-05,0.22794117647058823
1.53219180253e-05,0.23529411764705882
1.53219180253e-05,0.2426470588235294
1.53219180253e-05,0.25
1.53219180253e-05,0.25735294117647056
1.53219180253e-05,0.2647058823529412
1.53219180253e-05,0.27205882352941174
1.53219180253e-05,0.27941176470588236
1.53219180253e-05,0.2867647058823529
1.53219180253e-05,0.29411764705882354
1.53219180253e-05,0.3014705882352941
0.000383047950632,0.3088235294117647
0.000383047950632,0.3161764705882353
0.000413691786683,0.3235294117647059
0.000766095901265,0.33088235294117646
0.000766095901265,0.3382352941176471
0.000766095901265,0.34558823529411764
0.000766095901265,0.35294117647058826
0.0011491438519,0.3602941176470588
0.00127682650211,0.36764705882352944
0.00127682650211,0.375
0.00127682650211,0.38235294117647056
0.00153219180253,0.3897058823529412
0.00153219180253,0.39705882352941174
0.00153219180253,0.40441176470588236
0.00153219180253,0.4117647058823529
0.00153219180253,0.41911764705882354
0.00153219180253,0.4264705882352941
0.00153219180253,0.4338235294117647
0.00191523975316,0.4411764705882353
0.00229828770379,0.4485294117647059
0.00229828770379,0.45588235294117646
0.00280901830464,0.4632352941176471
0.00306438360506,0.47058823529411764
0.00306438360506,0.47794117647058826
0.00459657540759,0.4852941176470588
0.00625644986033,0.49264705882352944
0.0077706142008,0.5
0.00841470587202,0.5073529411764706
0.0111083905683,0.5147058823529411
0.0113637558688,0.5220588235294118
0.0146835047742,0.5294117647058824
0.0150820934359,0.5367647058823529
0.0152855512225,0.5441176470588235
0.0153139191055,0.5514705882352942
0.015390207374,0.5588235294117647
0.0154279830224,0.5661764705882353
0.0155611759474,0.5735294117647058
0.0158129322003,0.5808823529411765
0.0158425329062,0.5882352941176471
0.0158898290048,0.5955882352941176
0.0158913782332,0.6029411764705882
0.0158924032957,0.6102941176470589
0.0159280150537,0.6176470588235294
0.0159393648698,0.625
0.0159802063002,0.6323529411764706
0.0159826060432,0.6397058823529411
0.0159910680537,0.6470588235294118
0.0160374036163,0.6544117647058824
0.0160838961805,0.6617647058823529
0.0161093663309,0.6691176470588235
0.0161093947839,0.6764705882352942
0.0161095920466,0.6838235294117647
0.0161096011599,0.6911764705882353
0.0161102049378,0.6985294117647058
0.0161102110148,0.7058823529411765
0.0161102110148,0.7132352941176471
0.0182586189801,0.7205882352941176
0.0185139842806,0.7279411764705882
0.0197908107827,0.7352941176470589
0.0200461760831,0.7426470588235294
0.0215783678856,0.75
0.398200376343,0.7573529411764706
0.399565151079,0.7647058823529411
0.412286467227,0.7720588235294118
0.778058797372,0.7794117647058824
0.778058797372,0.7867647058823529
0.801870180814,0.7941176470588235
0.801870180814,0.8014705882352942
1.19460112903,0.8088235294117647
1.32907768975,0.8161764705882353
1.32907768975,0.8235294117647058
1.32907768975,0.8308823529411765
1.54279830224,0.8382352941176471
1.58913782332,0.8455882352941176
1.59826060432,0.8529411764705882
1.61093947839,0.8602941176470589
1.61096011599,0.8676470588235294
1.61102110148,0.875
1.61102110148,0.8823529411764706
1.98744070591,0.8897058823529411
2.30945070792,0.8970588235294118
2.40097698618,0.9044117647058824
2.91333098037,0.9117647058823529
3.08181903964,0.9191176470588235
3.22191932066,0.9264705882352942
4.83306269674,0.9338235294117647
6.49463911945,0.9411764705882353
11.67642328,0.9485294117647058
11.7673221172,0.9558823529411765
15.4157607686,0.9632352941176471
18.6668012084,0.9705882352941176
19.4147583848,0.9779411764705882
19.4438626285,0.9852941176470589
20.943313507,0.9926470588235294
21.7847840942,1.0
