Congestion,CDF
0.0,0.007352941176470588
0.0,0.014705882352941176
0.0,0.022058823529411766
0.0,0.029411764705882353
0.0,0.03676470588235294
0.0,0.04411764705882353
0.0,0.051470588235294115
0.0,0.058823529411764705
0.0,0.0661764705882353
0.0,0.07352941176470588
0.0,0.08088235294117647
0.0,0.08823529411764706
0.0,0.09558823529411764
0.0,0.10294117647058823
1.52436473894e-05,0.11029411764705882
1.52436473894e-05,0.11764705882352941
1.52436473894e-05,0.125
1.52436473894e-05,0.1323529411764706
1.52436473894e-05,0.13970588235294118
1.52436473894e-05,0.14705882352941177
1.52436473894e-05,0.15441176470588236
1.52436473894e-05,0.16176470588235295
1.52436473894e-05,0.16911764705882354
1.52436473894e-05,0.17647058823529413
1.52436473894e-05,0.18382352941176472
1.52436473894e-05,0.19117647058823528
1.52436473894e-05,0.19852941176470587
1.52436473894e-05,0.20588235294117646
1.52436473894e-05,0.21323529411764705
1.52436473894e-05,0.22058823529411764
1.52436473894e-05,0.22794117647058823
1.52436473894e-05,0.23529411764705882
1.52436473894e-05,0.2426470588235294
1.52436473894e-05,0.25
1.52436473894e-05,0.25735294117647056
1.52436473894e-05,0.2647058823529412
1.52436473894e-05,0.27205882352941174
1.52436473894e-05,0.27941176470588236
1.52436473894e-05,0.2867647058823529
1.52436473894e-05,0.29411764705882354
1.52436473894e-05,0.3014705882352941
0.000381091184734,0.3088235294117647
0.000381091184734,0.3161764705882353
0.000411578479513,0.3235294117647059
0.000762182369468,0.33088235294117646
0.000762182369468,0.3382352941176471
0.000762182369468,0.34558823529411764
0.000762182369468,0.35294117647058826
0.0011432735542,0.3602941176470588
0.00127030394911,0.36764705882352944
0.00127030394911,0.375
0.00127030394911,0.38235294117647056
0.00152436473894,0.3897058823529412
0.00152436473894,0.39705882352941174
0.00152436473894,0.40441176470588236
0.00152436473894,0.4117647058823529
0.00152436473894,0.41911764705882354
0.00152436473894,0.4264705882352941
0.00152436473894,0.4338235294117647
0.00190545592367,0.4411764705882353
0.00228654710841,0.4485294117647059
0.00228654710841,0.45588235294117646
0.00279466868805,0.4632352941176471
0.00304872947787,0.47058823529411764
0.00304872947787,0.47794117647058826
0.00457309421681,0.4852941176470588
0.00622448935066,0.49264705882352944
0.0110516443573,0.5
0.0113057051471,0.5073529411764706
0.0121473956056,0.5147058823529411
0.012739754719,0.5220588235294118
0.0146084954148,0.5294117647058824
0.0181653464723,0.5367647058823529
0.0184194072622,0.5441176470588235
0.0185656808312,0.5514705882352942
0.0187529521605,0.5588235294117647
0.0187555979322,0.5661764705882353
0.0188225776001,0.5735294117647058
0.0188514394843,0.5808823529411765
0.0189896117285,0.5882352941176471
0.0192304806018,0.5955882352941176
0.0192562495648,0.6029411764705882
0.0193026506336,0.6102941176470589
0.0193038682336,0.6176470588235294
0.0193048131642,0.625
0.019340485257,0.6323529411764706
0.0193520040857,0.6397058823529411
0.0193949239017,0.6470588235294118
0.0193949773394,0.6544117647058824
0.0194041274253,0.6617647058823529
0.0194500552297,0.6691176470588235
0.0194961379892,0.6764705882352942
0.0195214676286,0.6838235294117647
0.0195214908837,0.6911764705882353
0.0195216850795,0.6985294117647058
0.0195216927892,0.7058823529411765
0.0195222969484,0.7132352941176471
0.0195223020897,0.7205882352941176
0.0195223020897,0.7279411764705882
0.0196897112113,0.7352941176470589
0.0199437720011,0.7426470588235294
0.02146813674,0.75
0.483512131425,0.7573529411764706
0.484873097544,0.7647058823529411
0.506509020996,0.7720588235294118
0.949480586426,0.7794117647058824
0.949480586426,0.7867647058823529
0.972502761486,0.7941176470588235
0.972502761486,0.8014705882352942
1.45053639428,0.8088235294117647
1.61345203183,0.8161764705882353
1.61345203183,0.8235294117647058
1.61345203183,0.8308823529411765
1.88514394843,0.8382352941176471
1.93038682336,0.8455882352941176
1.93949239017,0.8529411764705882
1.95214908837,0.8602941176470589
1.95216927892,0.8676470588235294
1.95223020897,0.875
1.95223020897,0.8823529411764706
2.41399344784,0.8897058823529411
2.82477580247,0.8970588235294118
2.91291550402,0.9044117647058824
3.53907698831,0.9117647058823529
3.76740170843,0.9191176470588235
3.90433778687,0.9264705882352942
5.85669011277,0.9338235294117647
7.88809736639,0.9411764705882353
14.1501968484,0.9485294117647058
14.2997030013,0.9558823529411765
18.6857654406,0.9632352941176471
22.7484485953,0.9705882352941176
23.5381786786,0.9779411764705882
23.9631881559,0.9852941176470589
25.4137384718,0.9926470588235294
26.6877139437,1.0
