Congestion,CDF
0.0,0.009433962264150943
0.0,0.018867924528301886
0.0,0.02830188679245283
0.0,0.03773584905660377
0.0,0.04716981132075472
0.0,0.05660377358490566
0.0,0.0660377358490566
0.0,0.07547169811320754
0.0,0.08490566037735849
0.0,0.09433962264150944
0.0,0.10377358490566038
0.0,0.11320754716981132
0.0,0.12264150943396226
0.0,0.1320754716981132
0.0,0.14150943396226415
0.0,0.1509433962264151
0.0,0.16037735849056603
0.0,0.16981132075471697
0.0,0.1792452830188679
0.0,0.18867924528301888
0.0,0.19811320754716982
0.0,0.20754716981132076
0.0,0.2169811320754717
0.0,0.22641509433962265
0.0,0.2358490566037736
0.0,0.24528301886792453
0.0,0.25471698113207547
0.0,0.2641509433962264
0.0,0.27358490566037735
0.0,0.2830188679245283
1.66487862266e-07,0.29245283018867924
4.28912902145e-06,0.3018867924528302
4.82320014708e-06,0.3113207547169811
6.53863941637e-06,0.32075471698113206
7.38094417021e-06,0.330188679245283
7.60590712598e-06,0.33962264150943394
9.82126218071e-06,0.3490566037735849
1.49775757764e-05,0.3584905660377358
1.91720882015e-05,0.36792452830188677
2.02900989445e-05,0.37735849056603776
2.36649681011e-05,0.3867924528301887
2.75276763337e-05,0.39622641509433965
2.91372430478e-05,0.4056603773584906
2.98048863266e-05,0.41509433962264153
3.14470881838e-05,0.42452830188679247
4.57379134255e-05,0.4339622641509434
0.00020151361138,0.44339622641509435
0.000276222998832,0.4528301886792453
0.000276222998832,0.46226415094339623
0.000388628441745,0.4716981132075472
0.000420818895078,0.4811320754716981
0.000450957109751,0.49056603773584906
0.000718953307557,0.5
0.000718953307557,0.5094339622641509
0.000718953307557,0.5188679245283019
0.000736594663553,0.5283018867924528
0.000736594663553,0.5377358490566038
0.000736594663553,0.5471698113207547
0.00113719699801,0.5566037735849056
0.00135804799605,0.5660377358490566
0.00135804799605,0.5754716981132075
0.00143790661511,0.5849056603773585
0.00143790661511,0.5943396226415094
0.00193580938394,0.6037735849056604
0.00196159182491,0.6132075471698113
0.00196375981176,0.6226415094339622
0.0022817721378,0.6320754716981132
0.00250041525434,0.6415094339622641
0.00250041525434,0.6509433962264151
0.00309807411076,0.660377358490566
0.00309807411076,0.6698113207547169
0.00391251653855,0.6792452830188679
0.00475878654906,0.6886792452830188
0.00643135637362,0.6981132075471698
0.00689273056395,0.7075471698113207
0.0100287165373,0.7169811320754716
0.0101736689521,0.7264150943396226
0.0118919386607,0.7358490566037735
0.014413636661,0.7452830188679245
0.0192413095677,0.7547169811320755
0.0196373638484,0.7641509433962265
0.0217178171111,0.7735849056603774
0.0544446389233,0.7830188679245284
0.0544446389233,0.7924528301886793
0.0605073130322,0.8018867924528302
0.0736409929408,0.8113207547169812
0.0736409929408,0.8207547169811321
0.0736409929408,0.8301886792452831
0.0773178244409,0.839622641509434
0.114820898889,0.8490566037735849
0.114820898889,0.8584905660377359
0.145185703796,0.8679245283018868
0.145185703796,0.8773584905660378
0.145185703796,0.8867924528301887
0.147281985882,0.8962264150943396
0.147281985882,0.9056603773584906
0.157017509325,0.9150943396226415
0.157017509325,0.9245283018867925
0.244458908718,0.9339622641509434
0.258482859019,0.9433962264150944
1.44751848296,0.9528301886792453
1.44751848296,0.9622641509433962
4.15093834498,0.9716981132075472
5.91862671514,0.9811320754716981
6.03744299937,0.9905660377358491
18.2101853568,1.0
