Congestion,CDF
0.0,0.009433962264150943
0.0,0.018867924528301886
0.0,0.02830188679245283
0.0,0.03773584905660377
0.0,0.04716981132075472
0.0,0.05660377358490566
0.0,0.0660377358490566
0.0,0.07547169811320754
0.0,0.08490566037735849
0.0,0.09433962264150944
0.0,0.10377358490566038
0.0,0.11320754716981132
0.0,0.12264150943396226
0.0,0.1320754716981132
0.0,0.14150943396226415
0.0,0.1509433962264151
0.0,0.16037735849056603
0.0,0.16981132075471697
0.0,0.1792452830188679
0.0,0.18867924528301888
0.0,0.19811320754716982
0.0,0.20754716981132076
0.0,0.2169811320754717
0.0,0.22641509433962265
0.0,0.2358490566037736
0.0,0.24528301886792453
0.0,0.25471698113207547
0.0,0.2641509433962264
0.0,0.27358490566037735
0.0,0.2830188679245283
1.62779192394e-07,0.29245283018867924
4.19358473755e-06,0.3018867924528302
4.71575893889e-06,0.3113207547169811
6.39298522467e-06,0.32075471698113206
7.21652686737e-06,0.330188679245283
9.60248455538e-06,0.33962264150943394
1.46439365352e-05,0.3490566037735849
1.87450123479e-05,0.3584905660377358
1.98381183759e-05,0.36792452830188677
2.31378092259e-05,0.37735849056603776
2.84881842277e-05,0.3867924528301887
2.914095514e-05,0.39622641509433965
3.07465754442e-05,0.4056603773584906
0.000197024710813,0.41509433962264153
0.00027006987812,0.42452830188679247
0.00027006987812,0.4339622641509434
0.000702937963047,0.44339622641509435
0.000702937963047,0.4528301886792453
0.000702937963047,0.46226415094339623
0.000720186341653,0.4716981132075472
0.000720186341653,0.4811320754716981
0.000720186341653,0.49056603773584906
0.00111186489159,0.5
0.00132779623103,0.5094339622641509
0.00132779623103,0.5188679245283019
0.00140587592609,0.5283018867924528
0.00140587592609,0.5377358490566038
0.0019178955674,0.5471698113207547
0.0022364120686,0.5566037735849056
0.00225633383781,0.5660377358490566
0.00244471621061,0.5754716981132075
0.00244471621061,0.5849056603773585
0.00246577874423,0.5943396226415094
0.00249599238095,0.6037735849056604
0.00252426585353,0.6132075471698113
0.0030290616677,0.6226415094339622
0.0030290616677,0.6320754716981132
0.00377743180174,0.6415094339622641
0.00382536164322,0.6509433962264151
0.00465278021286,0.660377358490566
0.00540363851595,0.6698113207547169
0.00542987509395,0.6792452830188679
0.00628809201013,0.6886792452830188
0.00930238912722,0.6981132075471698
0.00980531767586,0.7075471698113207
0.00994704114265,0.7169811320754716
0.0127805678867,0.7264150943396226
0.0153009402429,0.7358490566037735
0.018914323669,0.7452830188679245
0.01924176736,0.7547169811320755
0.0212340328105,0.7641509433962265
0.102129716583,0.7735849056603774
0.151977333261,0.7830188679245284
0.151977333261,0.7924528301886793
0.203620316023,0.8018867924528302
0.203620316023,0.8113207547169812
0.203620316023,0.8207547169811321
0.405272888696,0.8301886792452831
0.405272888696,0.839622641509434
0.405272888696,0.8490566037735849
0.407240632046,0.8584905660377359
0.407240632046,0.8679245283018868
0.585491713135,0.8773584905660378
0.585491713135,0.8867924528301887
0.61866438074,0.8962264150943396
0.67092362058,0.9056603773584906
0.729653647974,0.9150943396226415
0.729653647974,0.9245283018867925
1.14029193059,0.9339622641509434
1.15345153018,0.9433962264150944
1.74250645753,0.9528301886792453
1.74250645753,0.9622641509433962
6.08055386107,0.9716981132075472
6.08693021217,0.9811320754716981
6.17878696836,0.9905660377358491
19.1729648457,1.0
