Congestion,CDF
0.0301699324239,0.005555555555555556
0.0301699324239,0.011111111111111112
0.0302102822899,0.016666666666666666
0.0302102822899,0.022222222222222223
0.0306729499892,0.027777777777777776
0.0306729499892,0.03333333333333333
0.0306891449686,0.03888888888888889
0.0306891449686,0.044444444444444446
0.0308532320611,0.05
0.0308532320611,0.05555555555555555
0.0308880679746,0.06111111111111111
0.0308880679746,0.06666666666666667
0.0312983028668,0.07222222222222222
0.0312983028668,0.07777777777777778
0.0316405264323,0.08333333333333333
0.0316405264323,0.08888888888888889
0.0322677994136,0.09444444444444444
0.0322677994136,0.1
0.0325575513913,0.10555555555555556
0.0325575513913,0.1111111111111111
0.0325759009901,0.11666666666666667
0.0325759009901,0.12222222222222222
0.0327401624891,0.12777777777777777
0.0327401624891,0.13333333333333333
0.0329303473354,0.1388888888888889
0.0329303473354,0.14444444444444443
0.0329698369607,0.15
0.0329698369607,0.15555555555555556
0.0332253765864,0.16111111111111112
0.0332253765864,0.16666666666666666
0.0332539622086,0.17222222222222222
0.0332539622086,0.17777777777777778
0.0335114488978,0.18333333333333332
0.0335114488978,0.18888888888888888
0.033616272052,0.19444444444444445
0.033616272052,0.2
0.0336410811894,0.20555555555555555
0.0336410811894,0.2111111111111111
0.0336485623633,0.21666666666666667
0.0336485623633,0.2222222222222222
0.0339178426087,0.22777777777777777
0.0339178426087,0.23333333333333334
0.0339674705976,0.2388888888888889
0.0339674705976,0.24444444444444444
0.0340809657145,0.25
0.0340809657145,0.25555555555555554
0.034243511792,0.2611111111111111
0.034243511792,0.26666666666666666
0.0346133271934,0.2722222222222222
0.0346133271934,0.2777777777777778
0.0349023858303,0.2833333333333333
0.0349023858303,0.28888888888888886
0.0349968580146,0.29444444444444445
0.0349968580146,0.3
0.03539699292,0.3055555555555556
0.03539699292,0.3111111111111111
0.0354181695939,0.31666666666666665
0.0354181695939,0.32222222222222224
0.0354357945934,0.3277777777777778
0.0354357945934,0.3333333333333333
0.035495966286,0.3388888888888889
0.035495966286,0.34444444444444444
0.0357486462705,0.35
0.0357486462705,0.35555555555555557
0.0357785879134,0.3611111111111111
0.0357785879134,0.36666666666666664
0.0360668815402,0.37222222222222223
0.0360668815402,0.37777777777777777
0.0360785510375,0.38333333333333336
0.0360785510375,0.3888888888888889
0.0361981325431,0.39444444444444443
0.0361981325431,0.4
0.0363415359126,0.40555555555555556
0.0363415359126,0.4111111111111111
0.036460359631,0.4166666666666667
0.036460359631,0.4222222222222222
0.036845303102,0.42777777777777776
0.036845303102,0.43333333333333335
0.0372869408484,0.4388888888888889
0.0372869408484,0.4444444444444444
0.940379674799,0.45
0.940379674799,0.45555555555555555
1.08221803768,0.46111111111111114
1.08221803768,0.4666666666666667
1.14287537709,0.4722222222222222
1.14287537709,0.4777777777777778
1.22590196987,0.48333333333333334
1.22590196987,0.4888888888888889
1.95617405761,0.49444444444444446
1.95617405761,0.5
2.44880100326,0.5055555555555555
2.44880100326,0.5111111111111111
2.85468766397,0.5166666666666667
2.85468766397,0.5222222222222223
2.92666922972,0.5277777777777778
2.92666922972,0.5333333333333333
3.59141967722,0.5388888888888889
3.59141967722,0.5444444444444444
3.88780240913,0.55
3.88780240913,0.5555555555555556
4.04160265343,0.5611111111111111
4.04160265343,0.5666666666666667
4.05528532131,0.5722222222222222
4.05528532131,0.5777777777777777
4.12278362312,0.5833333333333334
4.12278362312,0.5888888888888889
4.19309276388,0.5944444444444444
4.19309276388,0.6
4.2566329979,0.6055555555555555
4.2566329979,0.6111111111111112
4.54514059029,0.6166666666666667
4.54514059029,0.6222222222222222
4.60310482329,0.6277777777777778
4.60310482329,0.6333333333333333
4.74329645793,0.6388888888888888
4.74329645793,0.6444444444444445
4.74995964756,0.65
4.74995964756,0.6555555555555556
4.96820871553,0.6611111111111111
4.96820871553,0.6666666666666666
5.07661538771,0.6722222222222223
5.07661538771,0.6777777777777778
5.24496888306,0.6833333333333333
5.24496888306,0.6888888888888889
5.29702307751,0.6944444444444444
5.29702307751,0.7
5.37055718525,0.7055555555555556
5.37055718525,0.7111111111111111
5.68519334135,0.7166666666666667
5.68519334135,0.7222222222222222
5.95564983687,0.7277777777777777
5.95564983687,0.7333333333333333
6.15338734843,0.7388888888888889
6.15338734843,0.7444444444444445
7.33717658611,0.75
7.33717658611,0.7555555555555555
7.53776315542,0.7611111111111111
7.53776315542,0.7666666666666667
7.57101572565,0.7722222222222223
7.57101572565,0.7777777777777778
7.97956728987,0.7833333333333333
7.97956728987,0.7888888888888889
8.2865069149,0.7944444444444444
8.2865069149,0.8
8.34862971003,0.8055555555555556
8.34862971003,0.8111111111111111
8.79501399582,0.8166666666666667
8.79501399582,0.8222222222222222
9.27238598611,0.8277777777777777
9.27238598611,0.8333333333333334
9.47514060309,0.8388888888888889
9.47514060309,0.8444444444444444
10.1661766327,0.85
10.1661766327,0.8555555555555555
11.1103921878,0.8611111111111112
11.1103921878,0.8666666666666667
11.4348341815,0.8722222222222222
11.4348341815,0.8777777777777778
12.284254982,0.8833333333333333
12.284254982,0.8888888888888888
12.4032146565,0.8944444444444445
12.4032146565,0.9
13.4077679878,0.9055555555555556
13.4077679878,0.9111111111111111
14.0105575623,0.9166666666666666
14.0105575623,0.9222222222222223
14.620465107,0.9277777777777778
14.620465107,0.9333333333333333
16.0568700216,0.9388888888888889
16.0568700216,0.9444444444444444
16.3313232762,0.95
16.3313232762,0.9555555555555556
16.8883414323,0.9611111111111111
16.8883414323,0.9666666666666667
18.095383315,0.9722222222222222
18.095383315,0.9777777777777777
19.6459154071,0.9833333333333333
19.6459154071,0.9888888888888889
20.5070501314,0.9944444444444445
20.5070501314,1.0
