Congestion,CDF
0.0124887312769,0.005555555555555556
0.0124887312769,0.011111111111111112
0.012842360057,0.016666666666666666
0.012842360057,0.022222222222222223
0.0129360709059,0.027777777777777776
0.0129360709059,0.03333333333333333
0.0129669586304,0.03888888888888889
0.0129669586304,0.044444444444444446
0.0131188575133,0.05
0.0131188575133,0.05555555555555555
0.0132032840029,0.06111111111111111
0.0132032840029,0.06666666666666667
0.0132750184412,0.07222222222222222
0.0132750184412,0.07777777777777778
0.013277065011,0.08333333333333333
0.013277065011,0.08888888888888889
0.0133331499647,0.09444444444444444
0.0133331499647,0.1
0.0133882219834,0.10555555555555556
0.0133882219834,0.1111111111111111
0.0133948303469,0.11666666666666667
0.0133948303469,0.12222222222222222
0.0133959646034,0.12777777777777777
0.0133959646034,0.13333333333333333
0.0134874812521,0.1388888888888889
0.0134874812521,0.14444444444444443
0.0135028110618,0.15
0.0135028110618,0.15555555555555556
0.0135589505988,0.16111111111111112
0.0135589505988,0.16666666666666666
0.0136366338241,0.17222222222222222
0.0136366338241,0.17777777777777778
0.0137106827733,0.18333333333333332
0.0137106827733,0.18888888888888888
0.0137540229943,0.19444444444444445
0.0137540229943,0.2
0.0137624164156,0.20555555555555555
0.0137624164156,0.2111111111111111
0.0137873419867,0.21666666666666667
0.0137873419867,0.2222222222222222
0.0139436418787,0.22777777777777777
0.0139436418787,0.23333333333333334
0.0139440183238,0.2388888888888889
0.0139440183238,0.24444444444444444
0.0139854421645,0.25
0.0139854421645,0.25555555555555554
0.0141439121732,0.2611111111111111
0.0141439121732,0.26666666666666666
0.0141571338511,0.2722222222222222
0.0141571338511,0.2777777777777778
0.0141741858971,0.2833333333333333
0.0141741858971,0.28888888888888886
0.0143901565966,0.29444444444444445
0.0143901565966,0.3
0.0146426926629,0.3055555555555556
0.0146426926629,0.3111111111111111
0.0146801322711,0.31666666666666665
0.0146801322711,0.32222222222222224
0.0146856902746,0.3277777777777778
0.0146856902746,0.3333333333333333
0.0147381735657,0.3388888888888889
0.0147381735657,0.34444444444444444
0.014839379636,0.35
0.014839379636,0.35555555555555557
0.0149258315295,0.3611111111111111
0.0149258315295,0.36666666666666664
0.0149714068568,0.37222222222222223
0.0149714068568,0.37777777777777777
0.0149896224064,0.38333333333333336
0.0149896224064,0.3888888888888889
0.0150090006715,0.39444444444444443
0.0150090006715,0.4
0.0150239239006,0.40555555555555556
0.0150239239006,0.4111111111111111
0.0151246286829,0.4166666666666667
0.0151246286829,0.4222222222222222
0.0152257080386,0.42777777777777776
0.0152257080386,0.43333333333333335
0.0152932359496,0.4388888888888889
0.0152932359496,0.4444444444444444
0.419107261201,0.45
0.419107261201,0.45555555555555555
0.463848711998,0.46111111111111114
0.463848711998,0.4666666666666667
0.516541452755,0.4722222222222222
0.516541452755,0.4777777777777778
0.577707853997,0.48333333333333334
0.577707853997,0.4888888888888889
0.836792404926,0.49444444444444446
0.836792404926,0.5
1.04903720514,0.5055555555555555
1.04903720514,0.5111111111111111
1.12373770242,0.5166666666666667
1.12373770242,0.5222222222222223
1.14485843145,0.5277777777777778
1.14485843145,0.5333333333333333
1.33878033907,0.5388888888888889
1.33878033907,0.5444444444444444
1.53313877092,0.55
1.53313877092,0.5555555555555556
1.56790850649,0.5611111111111111
1.56790850649,0.5666666666666667
1.61475400349,0.5722222222222222
1.61475400349,0.5777777777777777
1.61557168196,0.5833333333333334
1.61557168196,0.5888888888888889
1.74264942946,0.5944444444444444
1.74264942946,0.6
1.75829291598,0.6055555555555555
1.75829291598,0.6111111111111112
1.76738105777,0.6166666666666667
1.76738105777,0.6222222222222222
1.8472911251,0.6277777777777778
1.8472911251,0.6333333333333333
1.86458676141,0.6388888888888888
1.86458676141,0.6444444444444445
1.89116118357,0.65
1.89116118357,0.6555555555555556
1.96140864612,0.6611111111111111
1.96140864612,0.6666666666666666
1.96884206119,0.6722222222222223
1.96884206119,0.6777777777777778
2.05878907502,0.6833333333333333
2.05878907502,0.6888888888888889
2.14806450719,0.6944444444444444
2.14806450719,0.7
2.16211153246,0.7055555555555556
2.16211153246,0.7111111111111111
2.18194809563,0.7166666666666667
2.18194809563,0.7222222222222222
2.2033316422,0.7277777777777777
2.2033316422,0.7333333333333333
2.47296499527,0.7388888888888889
2.47296499527,0.7444444444444445
2.95566681551,0.75
2.95566681551,0.7555555555555555
2.9931939267,0.7611111111111111
2.9931939267,0.7666666666666667
3.04760577765,0.7722222222222223
3.04760577765,0.7777777777777778
3.27431159985,0.7833333333333333
3.27431159985,0.7888888888888889
3.36665402501,0.7944444444444444
3.36665402501,0.8
3.40086739517,0.8055555555555556
3.40086739517,0.8111111111111111
3.58753441494,0.8166666666666667
3.58753441494,0.8222222222222222
3.77008631161,0.8277777777777777
3.77008631161,0.8333333333333334
3.81832612915,0.8388888888888889
3.81832612915,0.8444444444444444
4.16232417244,0.85
4.16232417244,0.8555555555555555
4.57860876727,0.8611111111111112
4.57860876727,0.8666666666666667
4.63551166479,0.8722222222222222
4.63551166479,0.8777777777777778
5.09035586855,0.8833333333333333
5.09035586855,0.8888888888888888
5.10041187552,0.8944444444444445
5.10041187552,0.9
5.5120387125,0.9055555555555556
5.5120387125,0.9111111111111111
5.72227627615,0.9166666666666666
5.72227627615,0.9222222222222223
6.03585034527,0.9277777777777778
6.03585034527,0.9333333333333333
6.62646420458,0.9388888888888889
6.62646420458,0.9444444444444444
6.67927838124,0.95
6.67927838124,0.9555555555555556
6.87583883345,0.9611111111111111
6.87583883345,0.9666666666666667
7.54379059472,0.9722222222222222
7.54379059472,0.9777777777777777
8.1798623653,0.9833333333333333
8.1798623653,0.9888888888888889
8.49332724141,0.9944444444444445
8.49332724141,1.0
