Congestion,CDF
0.0191217168955,0.005555555555555556
0.0191217168955,0.011111111111111112
0.0192920464961,0.016666666666666666
0.0192920464961,0.022222222222222223
0.0194730683092,0.027777777777777776
0.0194730683092,0.03333333333333333
0.019505034971,0.03888888888888889
0.019505034971,0.044444444444444446
0.0195118987397,0.05
0.0195118987397,0.05555555555555555
0.0195575694897,0.06111111111111111
0.0195575694897,0.06666666666666667
0.0197483942422,0.07222222222222222
0.0197483942422,0.07777777777777778
0.0198223914249,0.08333333333333333
0.0198223914249,0.08888888888888889
0.0200226690473,0.09444444444444444
0.0200226690473,0.1
0.0200969753662,0.10555555555555556
0.0200969753662,0.1111111111111111
0.020272182662,0.11666666666666667
0.020272182662,0.12222222222222222
0.0203148681455,0.12777777777777777
0.0203148681455,0.13333333333333333
0.0204333160143,0.1388888888888889
0.0204333160143,0.14444444444444443
0.0205591356675,0.15
0.0205591356675,0.15555555555555556
0.0205677287668,0.16111111111111112
0.0205677287668,0.16666666666666666
0.0207303725696,0.17222222222222222
0.0207303725696,0.17777777777777778
0.0207671042473,0.18333333333333332
0.0207671042473,0.18888888888888888
0.0209366556891,0.19444444444444445
0.0209366556891,0.2
0.0209677280794,0.20555555555555555
0.0209677280794,0.2111111111111111
0.0210208824972,0.21666666666666667
0.0210208824972,0.2222222222222222
0.021064214393,0.22777777777777777
0.021064214393,0.23333333333333334
0.0211073659438,0.2388888888888889
0.0211073659438,0.24444444444444444
0.0211939269483,0.25
0.0211939269483,0.25555555555555554
0.0212375977846,0.2611111111111111
0.0212375977846,0.26666666666666666
0.0215462079903,0.2722222222222222
0.0215462079903,0.2777777777777778
0.022183257888,0.2833333333333333
0.022183257888,0.28888888888888886
0.0226357792208,0.29444444444444445
0.0226357792208,0.3
0.0228899582406,0.3055555555555556
0.0228899582406,0.3111111111111111
0.023096969994,0.31666666666666665
0.023096969994,0.32222222222222224
0.0231018343713,0.3277777777777778
0.0231018343713,0.3333333333333333
0.0231696181659,0.3388888888888889
0.0231696181659,0.34444444444444444
0.0232150807866,0.35
0.0232150807866,0.35555555555555557
0.0233483594005,0.3611111111111111
0.0233483594005,0.36666666666666664
0.0235400573255,0.37222222222222223
0.0235400573255,0.37777777777777777
0.0237402225536,0.38333333333333336
0.0237402225536,0.3888888888888889
0.0237580737744,0.39444444444444443
0.0237580737744,0.4
0.0238754607921,0.40555555555555556
0.0238754607921,0.4111111111111111
0.0239545890876,0.4166666666666667
0.0239545890876,0.4222222222222222
0.0241043841972,0.42777777777777776
0.0241043841972,0.43333333333333335
0.0245373005184,0.4388888888888889
0.0245373005184,0.4444444444444444
0.564497258594,0.45
0.564497258594,0.45555555555555555
0.653128050518,0.46111111111111114
0.653128050518,0.4666666666666667
0.699956308073,0.4722222222222222
0.699956308073,0.4777777777777778
0.714796796036,0.48333333333333334
0.714796796036,0.4888888888888889
1.21446919996,0.49444444444444446
1.21446919996,0.5
1.47033847048,0.5055555555555555
1.47033847048,0.5111111111111111
1.78890982548,0.5166666666666667
1.78890982548,0.5222222222222223
1.83177085848,0.5277777777777778
1.83177085848,0.5333333333333333
2.19661010089,0.5388888888888889
2.19661010089,0.5444444444444444
2.51387813814,0.55
2.51387813814,0.5555555555555556
2.59039247049,0.5611111111111111
2.59039247049,0.5666666666666667
2.63215147351,0.5722222222222222
2.63215147351,0.5777777777777777
2.65155033025,0.5833333333333334
2.65155033025,0.5888888888888889
2.65967155157,0.5944444444444444
2.65967155157,0.6
2.72983847525,0.6055555555555555
2.72983847525,0.6111111111111112
2.82010741512,0.6166666666666667
2.82010741512,0.6222222222222222
2.92427849053,0.6277777777777778
2.92427849053,0.6333333333333333
2.95312114412,0.6388888888888888
2.95312114412,0.6444444444444445
3.06886864263,0.65
3.06886864263,0.6555555555555556
3.20517292415,0.6611111111111111
3.20517292415,0.6666666666666666
3.2160416775,0.6722222222222223
3.2160416775,0.6777777777777778
3.30880020492,0.6833333333333333
3.30880020492,0.6888888888888889
3.35978532718,0.6944444444444444
3.35978532718,0.7
3.53839478073,0.7055555555555556
3.53839478073,0.7111111111111111
3.69068880794,0.7166666666666667
3.69068880794,0.7222222222222222
3.73082641468,0.7277777777777777
3.73082641468,0.7333333333333333
4.06742009119,0.7388888888888889
4.06742009119,0.7444444444444445
4.88548459619,0.75
4.88548459619,0.7555555555555555
5.03116862743,0.7611111111111111
5.03116862743,0.7666666666666667
5.05515915087,0.7722222222222223
5.05515915087,0.7777777777777778
5.37474094354,0.7833333333333333
5.37474094354,0.7888888888888889
5.41655820386,0.7944444444444444
5.41655820386,0.8
5.42893183674,0.8055555555555556
5.42893183674,0.8111111111111111
5.91179444631,0.8166666666666667
5.91179444631,0.8222222222222222
6.19523134438,0.8277777777777777
6.19523134438,0.8333333333333334
6.25153376226,0.8388888888888889
6.25153376226,0.8444444444444444
6.81095843266,0.85
6.81095843266,0.8555555555555555
7.43886517871,0.8611111111111112
7.43886517871,0.8666666666666667
7.54329646851,0.8722222222222222
7.54329646851,0.8777777777777778
8.35778755018,0.8833333333333333
8.35778755018,0.8888888888888888
8.36926044596,0.8944444444444445
8.36926044596,0.9
9.13656077089,0.9055555555555556
9.13656077089,0.9111111111111111
9.41226008707,0.9166666666666666
9.41226008707,0.9222222222222223
10.0163733713,0.9277777777777778
10.0163733713,0.9333333333333333
10.9200348533,0.9388888888888889
10.9200348533,0.9444444444444444
10.9648079808,0.95
10.9648079808,0.9555555555555556
11.3425594215,0.9611111111111111
11.3425594215,0.9666666666666667
12.401886477,0.9722222222222222
12.401886477,0.9777777777777777
13.4803501535,0.9833333333333333
13.4803501535,0.9888888888888889
14.0000267198,0.9944444444444445
14.0000267198,1.0
