Congestion,CDF
0.0176734329549,0.005555555555555556
0.0176734329549,0.011111111111111112
0.017803570843,0.016666666666666666
0.017803570843,0.022222222222222223
0.0178536678581,0.027777777777777776
0.0178536678581,0.03333333333333333
0.0180408765632,0.03888888888888889
0.0180408765632,0.044444444444444446
0.0180942428459,0.05
0.0180942428459,0.05555555555555555
0.0181133397763,0.06111111111111111
0.0181133397763,0.06666666666666667
0.0181213539566,0.07222222222222222
0.0181213539566,0.07777777777777778
0.0184459885386,0.08333333333333333
0.0184459885386,0.08888888888888889
0.0185248291012,0.09444444444444444
0.0185248291012,0.1
0.0186205492023,0.10555555555555556
0.0186205492023,0.1111111111111111
0.0186737253051,0.11666666666666667
0.0186737253051,0.12222222222222222
0.0187347866502,0.12777777777777777
0.0187347866502,0.13333333333333333
0.0187865877877,0.1388888888888889
0.0187865877877,0.14444444444444443
0.0188658410522,0.15
0.0188658410522,0.15555555555555556
0.0189856661368,0.16111111111111112
0.0189856661368,0.16666666666666666
0.0190728813634,0.17222222222222222
0.0190728813634,0.17777777777777778
0.0192223636025,0.18333333333333332
0.0192223636025,0.18888888888888888
0.0192697923872,0.19444444444444445
0.0192697923872,0.2
0.0193682973886,0.20555555555555555
0.0193682973886,0.2111111111111111
0.0193986689453,0.21666666666666667
0.0193986689453,0.2222222222222222
0.0194609932192,0.22777777777777777
0.0194609932192,0.23333333333333334
0.0195353826793,0.2388888888888889
0.0195353826793,0.24444444444444444
0.0195620898732,0.25
0.0195620898732,0.25555555555555554
0.0196596795949,0.2611111111111111
0.0196596795949,0.26666666666666666
0.0198307643482,0.2722222222222222
0.0198307643482,0.2777777777777778
0.0205610753644,0.2833333333333333
0.0205610753644,0.28888888888888886
0.0209891382224,0.29444444444444445
0.0209891382224,0.3
0.0212323946262,0.3055555555555556
0.0212323946262,0.3111111111111111
0.0214736646498,0.31666666666666665
0.0214736646498,0.32222222222222224
0.0214911587586,0.3277777777777778
0.0214911587586,0.3333333333333333
0.0215338598031,0.3388888888888889
0.0215338598031,0.34444444444444444
0.0215700908316,0.35
0.0215700908316,0.35555555555555557
0.0216332027494,0.3611111111111111
0.0216332027494,0.36666666666666664
0.0218380726441,0.37222222222222223
0.0218380726441,0.37777777777777777
0.0220785448731,0.38333333333333336
0.0220785448731,0.3888888888888889
0.0220836715817,0.39444444444444443
0.0220836715817,0.4
0.0223310470459,0.40555555555555556
0.0223310470459,0.4111111111111111
0.022351426969,0.4166666666666667
0.022351426969,0.4222222222222222
0.022409400682,0.42777777777777776
0.022409400682,0.43333333333333335
0.0228728212637,0.4388888888888889
0.0228728212637,0.4444444444444444
0.517285252379,0.45
0.517285252379,0.45555555555555555
0.597238785921,0.46111111111111114
0.597238785921,0.4666666666666667
0.649232194192,0.4722222222222222
0.649232194192,0.4777777777777778
0.661191843675,0.48333333333333334
0.661191843675,0.4888888888888889
1.1246778424,0.49444444444444446
1.1246778424,0.5
1.36101511319,0.5055555555555555
1.36101511319,0.5111111111111111
1.64941131373,0.5166666666666667
1.64941131373,0.5222222222222223
1.68380046321,0.5277777777777778
1.68380046321,0.5333333333333333
2.01668961756,0.5388888888888889
2.01668961756,0.5444444444444444
2.33262706891,0.55
2.33262706891,0.5555555555555556
2.39361819762,0.5611111111111111
2.39361819762,0.5666666666666667
2.44423947207,0.5722222222222222
2.44423947207,0.5777777777777777
2.45359667526,0.5833333333333334
2.45359667526,0.5888888888888889
2.46029202056,0.5944444444444444
2.46029202056,0.6
2.53710568045,0.6055555555555555
2.53710568045,0.6111111111111112
2.59426565427,0.6166666666666667
2.59426565427,0.6222222222222222
2.71151511334,0.6277777777777778
2.71151511334,0.6333333333333333
2.71236402307,0.6388888888888888
2.71236402307,0.6444444444444445
2.85313126105,0.65
2.85313126105,0.6555555555555556
2.95480565928,0.6611111111111111
2.95480565928,0.6666666666666666
2.97934084754,0.6722222222222223
2.97934084754,0.6777777777777778
3.04182642405,0.6833333333333333
3.04182642405,0.6888888888888889
3.12293248519,0.6944444444444444
3.12293248519,0.7
3.29629938498,0.7055555555555556
3.29629938498,0.7111111111111111
3.42456080073,0.7166666666666667
3.42456080073,0.7222222222222222
3.43402537705,0.7277777777777777
3.43402537705,0.7333333333333333
3.78668845881,0.7388888888888889
3.78668845881,0.7444444444444445
4.55204756834,0.75
4.55204756834,0.7555555555555555
4.68748149295,0.7611111111111111
4.68748149295,0.7666666666666667
4.71744181038,0.7722222222222223
4.71744181038,0.7777777777777778
5.0233426592,0.7833333333333333
5.0233426592,0.7888888888888889
5.03022062153,0.7944444444444444
5.03022062153,0.8
5.04360657795,0.8055555555555556
5.04360657795,0.8111111111111111
5.51914510106,0.8166666666666667
5.51914510106,0.8222222222222222
5.77640018482,0.8277777777777777
5.77640018482,0.8333333333333334
5.80880698843,0.8388888888888889
5.80880698843,0.8444444444444444
6.35197295712,0.85
6.35197295712,0.8555555555555555
6.90224538451,0.8611111111111112
6.90224538451,0.8666666666666667
7.05769003661,0.8722222222222222
7.05769003661,0.8777777777777778
7.81918992178,0.8833333333333333
7.81918992178,0.8888888888888888
7.82403737742,0.8944444444444445
7.82403737742,0.9
8.5555919197,0.9055555555555556
8.5555919197,0.9111111111111111
8.78553090133,0.9166666666666666
8.78553090133,0.9222222222222223
9.3895204975,0.9277777777777778
9.3895204975,0.9333333333333333
10.2214191289,0.9388888888888889
10.2214191289,0.9444444444444444
10.2319878358,0.95
10.2319878358,0.9555555555555556
10.5833974687,0.9611111111111111
10.5833974687,0.9666666666666667
11.628508598,0.9722222222222222
11.628508598,0.9777777777777777
12.6427906613,0.9833333333333333
12.6427906613,0.9888888888888889
13.1148847261,0.9944444444444445
13.1148847261,1.0
