Congestion,CDF
0.0143360903892,0.005555555555555556
0.0143360903892,0.011111111111111112
0.0144003760526,0.016666666666666666
0.0144003760526,0.022222222222222223
0.0144407305083,0.027777777777777776
0.0144407305083,0.03333333333333333
0.0146553957349,0.03888888888888889
0.0146553957349,0.044444444444444446
0.0147376118771,0.05
0.0147376118771,0.05555555555555555
0.0148201975911,0.06111111111111111
0.0148201975911,0.06666666666666667
0.0148669272871,0.07222222222222222
0.0148669272871,0.07777777777777778
0.014870394849,0.08333333333333333
0.014870394849,0.08888888888888889
0.0149115586419,0.09444444444444444
0.0149115586419,0.1
0.0149696244611,0.10555555555555556
0.0149696244611,0.1111111111111111
0.0150720802479,0.11666666666666667
0.0150720802479,0.12222222222222222
0.0150972011252,0.12777777777777777
0.0150972011252,0.13333333333333333
0.015195105006,0.1388888888888889
0.015195105006,0.14444444444444443
0.0152236920557,0.15
0.0152236920557,0.15555555555555556
0.0152541062116,0.16111111111111112
0.0152541062116,0.16666666666666666
0.0153269716681,0.17222222222222222
0.0153269716681,0.17777777777777778
0.0155294238706,0.18333333333333332
0.0155294238706,0.18888888888888888
0.0155605640226,0.19444444444444445
0.0155605640226,0.2
0.0155942333014,0.20555555555555555
0.0155942333014,0.2111111111111111
0.0157018913577,0.21666666666666667
0.0157018913577,0.2222222222222222
0.0157116908456,0.22777777777777777
0.0157116908456,0.23333333333333334
0.0158431146392,0.2388888888888889
0.0158431146392,0.24444444444444444
0.0159881935746,0.25
0.0159881935746,0.25555555555555554
0.0161577918031,0.2611111111111111
0.0161577918031,0.26666666666666666
0.0162781679586,0.2722222222222222
0.0162781679586,0.2777777777777778
0.0167611253966,0.2833333333333333
0.0167611253966,0.28888888888888886
0.0170954700003,0.29444444444444445
0.0170954700003,0.3
0.017452817244,0.3055555555555556
0.017452817244,0.3111111111111111
0.0177186788016,0.31666666666666665
0.0177186788016,0.32222222222222224
0.0177697245736,0.3277777777777778
0.0177697245736,0.3333333333333333
0.0178247268588,0.3388888888888889
0.0178247268588,0.34444444444444444
0.0178252803308,0.35
0.0178252803308,0.35555555555555557
0.0178499417138,0.3611111111111111
0.0178499417138,0.36666666666666664
0.0179011189852,0.37222222222222223
0.0179011189852,0.37777777777777777
0.0182386095703,0.38333333333333336
0.0182386095703,0.3888888888888889
0.0182602521052,0.39444444444444443
0.0182602521052,0.4
0.0184341165789,0.40555555555555556
0.0184341165789,0.4111111111111111
0.01867799362,0.4166666666666667
0.01867799362,0.4222222222222222
0.0187133925181,0.42777777777777776
0.0187133925181,0.43333333333333335
0.0189707080263,0.4388888888888889
0.0189707080263,0.4444444444444444
0.416231296233,0.45
0.416231296233,0.45555555555555555
0.476056082121,0.46111111111111114
0.476056082121,0.4666666666666667
0.534944288853,0.4722222222222222
0.534944288853,0.4777777777777778
0.536446298296,0.48333333333333334
0.536446298296,0.4888888888888889
0.923150885999,0.49444444444444446
0.923150885999,0.5
1.10628682091,0.5055555555555555
1.10628682091,0.5111111111111111
1.3252042057,0.5166666666666667
1.3252042057,0.5222222222222223
1.34930502711,0.5277777777777778
1.34930502711,0.5333333333333333
1.60406875672,0.5388888888888889
1.60406875672,0.5444444444444444
1.91847374931,0.55
1.91847374931,0.5555555555555556
1.93050498735,0.5611111111111111
1.93050498735,0.5666666666666667
1.98642913662,0.5722222222222222
1.98642913662,0.5777777777777777
2.01545949904,0.5833333333333334
2.01545949904,0.5888888888888889
2.01775576521,0.5944444444444444
2.01775576521,0.6
2.08016443956,0.6055555555555555
2.08016443956,0.6111111111111112
2.10387287798,0.6166666666666667
2.10387287798,0.6222222222222222
2.15594815695,0.6277777777777778
2.15594815695,0.6333333333333333
2.22857690913,0.6388888888888888
2.22857690913,0.6444444444444445
2.36160828898,0.65
2.36160828898,0.6555555555555556
2.3653522634,0.6611111111111111
2.3653522634,0.6666666666666666
2.43084175993,0.6722222222222223
2.43084175993,0.6777777777777778
2.43422387021,0.6833333333333333
2.43422387021,0.6888888888888889
2.5721586735,0.6944444444444444
2.5721586735,0.7
2.73879202381,0.7055555555555556
2.73879202381,0.7111111111111111
2.74025192042,0.7166666666666667
2.74025192042,0.7222222222222222
2.79743775482,0.7277777777777777
2.79743775482,0.7333333333333333
3.14080397163,0.7388888888888889
3.14080397163,0.7444444444444445
3.78471677471,0.75
3.78471677471,0.7555555555555555
3.88298424399,0.7611111111111111
3.88298424399,0.7666666666666667
3.93978154756,0.7722222222222223
3.93978154756,0.7777777777777778
4.12821507576,0.7833333333333333
4.12821507576,0.7888888888888889
4.16103802308,0.7944444444444444
4.16103802308,0.8
4.20614341771,0.8055555555555556
4.20614341771,0.8111111111111111
4.60576482868,0.8166666666666667
4.60576482868,0.8222222222222222
4.7766508002,0.8277777777777777
4.7766508002,0.8333333333333334
4.80774556466,0.8388888888888889
4.80774556466,0.8444444444444444
5.27689218611,0.85
5.27689218611,0.8555555555555555
5.69245555033,0.8611111111111112
5.69245555033,0.8666666666666667
5.92370744156,0.8722222222222222
5.92370744156,0.8777777777777778
6.53536825948,0.8833333333333333
6.53536825948,0.8888888888888888
6.58790341022,0.8944444444444445
6.58790341022,0.9
7.19840694061,0.9055555555555556
7.19840694061,0.9111111111111111
7.31371964591,0.9166666666666666
7.31371964591,0.9222222222222223
7.92296574502,0.9277777777777778
7.92296574502,0.9333333333333333
8.52104899493,0.9388888888888889
8.52104899493,0.9444444444444444
8.59232442677,0.95
8.59232442677,0.9555555555555556
8.79922262935,0.9611111111111111
8.79922262935,0.9666666666666667
9.82234283653,0.9722222222222222
9.82234283653,0.9777777777777777
10.686100168,0.9833333333333333
10.686100168,0.9888888888888889
11.0448167995,0.9944444444444445
11.0448167995,1.0
