Congestion,CDF
0.0171922524076,0.005555555555555556
0.0171922524076,0.011111111111111112
0.017271189855,0.016666666666666666
0.017271189855,0.022222222222222223
0.0173797398881,0.027777777777777776
0.0173797398881,0.03333333333333333
0.0175663166337,0.03888888888888889
0.0175663166337,0.044444444444444446
0.017580033118,0.05
0.017580033118,0.05555555555555555
0.0176285236593,0.06111111111111111
0.0176285236593,0.06666666666666667
0.0176438138902,0.07222222222222222
0.0176438138902,0.07777777777777778
0.0179865693107,0.08333333333333333
0.0179865693107,0.08888888888888889
0.0180009551757,0.09444444444444444
0.0180009551757,0.1
0.0180556607922,0.10555555555555556
0.0180556607922,0.1111111111111111
0.0182222991812,0.11666666666666667
0.0182222991812,0.12222222222222222
0.0182248917673,0.12777777777777777
0.0182248917673,0.13333333333333333
0.0182384855757,0.1388888888888889
0.0182384855757,0.14444444444444443
0.0183053027081,0.15
0.0183053027081,0.15555555555555556
0.0184098220795,0.16111111111111112
0.0184098220795,0.16666666666666666
0.0185733846488,0.17222222222222222
0.0185733846488,0.17777777777777778
0.0186585024169,0.18333333333333332
0.0186585024169,0.18888888888888888
0.018700917068,0.19444444444444445
0.018700917068,0.2
0.0188187183221,0.20555555555555555
0.0188187183221,0.2111111111111111
0.0189128804116,0.21666666666666667
0.0189128804116,0.2222222222222222
0.0189429510288,0.22777777777777777
0.0189429510288,0.23333333333333334
0.0189858229656,0.2388888888888889
0.0189858229656,0.24444444444444444
0.0190623874962,0.25
0.0190623874962,0.25555555555555554
0.0191322527652,0.2611111111111111
0.0191322527652,0.26666666666666666
0.0192580103064,0.2722222222222222
0.0192580103064,0.2777777777777778
0.020022569491,0.2833333333333333
0.020022569491,0.28888888888888886
0.0204377293579,0.29444444444444445
0.0204377293579,0.3
0.0206811724784,0.3055555555555556
0.0206811724784,0.3111111111111111
0.0209323030289,0.31666666666666665
0.0209323030289,0.32222222222222224
0.0209622499867,0.3277777777777778
0.0209622499867,0.3333333333333333
0.0209900663609,0.3388888888888889
0.0209900663609,0.34444444444444444
0.0210222447903,0.35
0.0210222447903,0.35555555555555557
0.0210624748693,0.3611111111111111
0.0210624748693,0.36666666666666664
0.0212706748812,0.37222222222222223
0.0212706748812,0.37777777777777777
0.0215199547175,0.38333333333333336
0.0215199547175,0.3888888888888889
0.0215374764902,0.39444444444444443
0.0215374764902,0.4
0.0218153936399,0.40555555555555556
0.0218153936399,0.4111111111111111
0.0218179713577,0.4166666666666667
0.0218179713577,0.4222222222222222
0.0218433908199,0.42777777777777776
0.0218433908199,0.43333333333333335
0.022317069898,0.4388888888888889
0.022317069898,0.4444444444444444
0.502030379156,0.45
0.502030379156,0.45555555555555555
0.578726528877,0.46111111111111114
0.578726528877,0.4666666666666667
0.632391765126,0.4722222222222222
0.632391765126,0.4777777777777778
0.643312884093,0.48333333333333334
0.643312884093,0.4888888888888889
1.09486094118,0.49444444444444446
1.09486094118,0.5
1.3245259644,0.5055555555555555
1.3245259644,0.5111111111111111
1.60273607986,0.5166666666666667
1.60273607986,0.5222222222222223
1.63444808845,0.5277777777777778
1.63444808845,0.5333333333333333
1.95657948111,0.5388888888888889
1.95657948111,0.5444444444444444
2.2722278332,0.55
2.2722278332,0.5555555555555556
2.32774920582,0.5611111111111111
2.32774920582,0.5666666666666667
2.38166159952,0.5722222222222222
2.38166159952,0.5777777777777777
2.38724243762,0.5833333333333334
2.38724243762,0.5888888888888889
2.3959232745,0.5944444444444444
2.3959232745,0.6
2.47302163175,0.6055555555555555
2.47302163175,0.6111111111111112
2.51900018687,0.6166666666666667
2.51900018687,0.6222222222222222
2.63191495648,0.6277777777777778
2.63191495648,0.6333333333333333
2.64073333521,0.6388888888888888
2.64073333521,0.6444444444444445
2.78146053436,0.65
2.78146053436,0.6555555555555556
2.87091784699,0.6611111111111111
2.87091784699,0.6666666666666666
2.90115409816,0.6722222222222223
2.90115409816,0.6777777777777778
2.95276807524,0.6833333333333333
2.95276807524,0.6888888888888889
3.04443374629,0.6944444444444444
3.04443374629,0.7
3.21619627323,0.7055555555555556
3.21619627323,0.7111111111111111
3.33460102467,0.7166666666666667
3.33460102467,0.7222222222222222
3.33585665778,0.7277777777777777
3.33585665778,0.7333333333333333
3.6931089011,0.7388888888888889
3.6931089011,0.7444444444444445
4.44097358288,0.75
4.44097358288,0.7555555555555555
4.57309594629,0.7611111111111111
4.57309594629,0.7666666666666667
4.60491952127,0.7722222222222223
4.60491952127,0.7777777777777778
4.90177221117,0.7833333333333333
4.90177221117,0.7888888888888889
4.90674014411,0.7944444444444444
4.90674014411,0.8
4.91546761171,0.8055555555555556
4.91546761171,0.8111111111111111
5.3882634668,0.8166666666666667
5.3882634668,0.8222222222222222
5.63680697438,0.8277777777777777
5.63680697438,0.8333333333333334
5.66176536628,0.8388888888888889
5.66176536628,0.8444444444444444
6.19876557555,0.85
6.19876557555,0.8555555555555555
6.72558200228,0.8611111111111112
6.72558200228,0.8666666666666667
6.8957728028,0.8722222222222222
6.8957728028,0.8777777777777778
7.63566483483,0.8833333333333333
7.63566483483,0.8888888888888888
7.64615460441,0.8944444444444445
7.64615460441,0.9
8.3618569525,0.9055555555555556
8.3618569525,0.9111111111111111
8.57615572123,0.9166666666666666
8.57615572123,0.9222222222222223
9.18038506994,0.9277777777777778
9.18038506994,0.9333333333333333
9.98740285758,0.9388888888888889
9.98740285758,0.9444444444444444
9.98843062322,0.95
9.98843062322,0.9555555555555556
10.3297436624,0.9611111111111111
10.3297436624,0.9666666666666667
11.3706341145,0.9722222222222222
11.3706341145,0.9777777777777777
12.3634894696,0.9833333333333333
12.3634894696,0.9888888888888889
12.8196114937,0.9944444444444445
12.8196114937,1.0
