Congestion,CDF
0.0,0.007352941176470588
0.0,0.014705882352941176
0.0,0.022058823529411766
0.0,0.029411764705882353
0.0,0.03676470588235294
0.0,0.04411764705882353
0.0,0.051470588235294115
0.0,0.058823529411764705
0.0,0.0661764705882353
0.0,0.07352941176470588
0.0,0.08088235294117647
0.0,0.08823529411764706
0.0,0.09558823529411764
0.0,0.10294117647058823
5.14225893293e-06,0.11029411764705882
5.14225893293e-06,0.11764705882352941
5.14225893293e-06,0.125
5.14225893293e-06,0.1323529411764706
5.14225893293e-06,0.13970588235294118
5.14225893293e-06,0.14705882352941177
5.14225893293e-06,0.15441176470588236
5.14225893293e-06,0.16176470588235295
5.14225893293e-06,0.16911764705882354
5.14225893293e-06,0.17647058823529413
5.14225893293e-06,0.18382352941176472
5.14225893293e-06,0.19117647058823528
5.14225893293e-06,0.19852941176470587
5.14225893293e-06,0.20588235294117646
5.14225893293e-06,0.21323529411764705
5.14225893293e-06,0.22058823529411764
5.14225893293e-06,0.22794117647058823
5.14225893293e-06,0.23529411764705882
5.14225893293e-06,0.2426470588235294
5.14225893293e-06,0.25
5.14225893293e-06,0.25735294117647056
5.14225893293e-06,0.2647058823529412
5.14225893293e-06,0.27205882352941174
5.14225893293e-06,0.27941176470588236
5.14225893293e-06,0.2867647058823529
5.14225893293e-06,0.29411764705882354
5.14225893293e-06,0.3014705882352941
0.000128556473323,0.3088235294117647
0.000128556473323,0.3161764705882353
0.000138840991189,0.3235294117647059
0.000257112946646,0.33088235294117646
0.000257112946646,0.3382352941176471
0.000257112946646,0.34558823529411764
0.000257112946646,0.35294117647058826
0.000385669419969,0.3602941176470588
0.000428521577744,0.36764705882352944
0.000428521577744,0.375
0.000428521577744,0.38235294117647056
0.000514225893293,0.3897058823529412
0.000514225893293,0.39705882352941174
0.000514225893293,0.40441176470588236
0.000514225893293,0.4117647058823529
0.000514225893293,0.41911764705882354
0.000514225893293,0.4264705882352941
0.000514225893293,0.4338235294117647
0.000642782366616,0.4411764705882353
0.000771338839939,0.4485294117647059
0.000771338839939,0.45588235294117646
0.000942747471037,0.4632352941176471
0.00102845178659,0.47058823529411764
0.00102845178659,0.47794117647058826
0.00154267767988,0.4852941176470588
0.00209975573095,0.49264705882352944
0.0032256116039,0.5
0.00372813772637,0.5073529411764706
0.00381384204192,0.5147058823529411
0.00421895634432,0.5220588235294118
0.00492799814405,0.5294117647058824
0.00612785856174,0.5367647058823529
0.00621356287729,0.5441176470588235
0.00664208445503,0.5514705882352942
0.00672778877058,0.5588235294117647
0.00724201466387,0.5661764705882353
0.0186514350616,0.5735294117647058
0.0187773973067,0.5808823529411765
0.0190905048988,0.5882352941176471
0.0191346567518,0.5955882352941176
0.0191934950044,0.6029411764705882
0.0192268241566,0.6102941176470589
0.0193247851195,0.6176470588235294
0.0193495856456,0.625
0.0193591683187,0.6323529411764706
0.0193705641516,0.6397058823529411
0.0193723944378,0.6470588235294118
0.0193732374963,0.6544117647058824
0.0193735422459,0.6617647058823529
0.0193746791454,0.6691176470588235
0.0193753451434,0.6764705882352942
0.0193783714123,0.6838235294117647
0.0193807770078,0.6911764705882353
0.0193902307575,0.6985294117647058
0.0193938482757,0.7058823529411765
0.019393866093,0.7132352941176471
0.0193939107813,0.7205882352941176
0.019393914903,0.7279411764705882
0.0193942622154,0.7352941176470589
0.0193942649639,0.7426470588235294
0.0193942649639,0.75
0.484338556147,0.7573529411764706
0.484459285307,0.7647058823529411
0.489699894206,0.7720588235294118
0.961341207831,0.7794117647058824
0.961341207831,0.7867647058823529
0.969038850391,0.7941176470588235
0.969038850391,0.8014705882352942
1.45301566844,0.8088235294117647
1.61454432271,0.8161764705882353
1.61454432271,0.8235294117647058
1.61454432271,0.8308823529411765
1.91934950044,0.8382352941176471
1.93746791454,0.8455882352941176
1.93783714123,0.8529411764705882
1.9393866093,0.8602941176470589
1.9393914903,0.8676470588235294
1.93942649639,0.875
1.93942649639,0.8823529411764706
2.42187307049,0.8897058823529411
2.87039169771,0.8970588235294118
2.90609526555,0.9044117647058824
3.54950288727,0.9117647058823529
3.83281517562,0.9191176470588235
3.87878256843,0.9264705882352942
5.81827921433,0.9338235294117647
7.91120905738,0.9411764705882353
14.0602925049,0.9485294117647058
14.3545316644,0.9558823529411765
18.5828987538,0.9632352941176471
22.9228820439,0.9705882352941176
23.2454432043,0.9779411764705882
23.4249108512,0.9852941176470589
25.3026505819,0.9926470588235294
25.7245462163,1.0
