Congestion,CDF
0.0,0.007352941176470588
0.0,0.014705882352941176
0.0,0.022058823529411766
0.0,0.029411764705882353
0.0,0.03676470588235294
0.0,0.04411764705882353
0.0,0.051470588235294115
0.0,0.058823529411764705
0.0,0.0661764705882353
0.0,0.07352941176470588
0.0,0.08088235294117647
0.0,0.08823529411764706
0.0,0.09558823529411764
0.0,0.10294117647058823
4.68450666853e-06,0.11029411764705882
4.68450666853e-06,0.11764705882352941
4.68450666853e-06,0.125
4.68450666853e-06,0.1323529411764706
4.68450666853e-06,0.13970588235294118
4.68450666853e-06,0.14705882352941177
4.68450666853e-06,0.15441176470588236
4.68450666853e-06,0.16176470588235295
4.68450666853e-06,0.16911764705882354
4.68450666853e-06,0.17647058823529413
4.68450666853e-06,0.18382352941176472
4.68450666853e-06,0.19117647058823528
4.68450666853e-06,0.19852941176470587
4.68450666853e-06,0.20588235294117646
4.68450666853e-06,0.21323529411764705
4.68450666853e-06,0.22058823529411764
4.68450666853e-06,0.22794117647058823
4.68450666853e-06,0.23529411764705882
4.68450666853e-06,0.2426470588235294
4.68450666853e-06,0.25
4.68450666853e-06,0.25735294117647056
4.68450666853e-06,0.2647058823529412
4.68450666853e-06,0.27205882352941174
4.68450666853e-06,0.27941176470588236
4.68450666853e-06,0.2867647058823529
4.68450666853e-06,0.29411764705882354
4.68450666853e-06,0.3014705882352941
0.000117112666713,0.3088235294117647
0.000117112666713,0.3161764705882353
0.00012648168005,0.3235294117647059
0.000234225333426,0.33088235294117646
0.000234225333426,0.3382352941176471
0.000234225333426,0.34558823529411764
0.000234225333426,0.35294117647058826
0.00035133800014,0.3602941176470588
0.000390375555711,0.36764705882352944
0.000390375555711,0.375
0.000390375555711,0.38235294117647056
0.000468450666853,0.3897058823529412
0.000468450666853,0.39705882352941174
0.000468450666853,0.40441176470588236
0.000468450666853,0.4117647058823529
0.000468450666853,0.41911764705882354
0.000468450666853,0.4264705882352941
0.000468450666853,0.4338235294117647
0.000585563333566,0.4411764705882353
0.000702676000279,0.4485294117647059
0.000702676000279,0.45588235294117646
0.000858826222564,0.4632352941176471
0.000936901333706,0.47058823529411764
0.000936901333706,0.47794117647058826
0.00140535200056,0.4852941176470588
0.00191284022298,0.49264705882352944
0.00339626733468,0.5
0.00347434244583,0.5073529411764706
0.00448931889067,0.5147058823529411
0.00558237044666,0.5220588235294118
0.00566044555781,0.5294117647058824
0.00605082111352,0.5367647058823529
0.00612889622466,0.5441176470588235
0.00659734689151,0.5514705882352942
0.0132487191829,0.5588235294117647
0.0142590580847,0.5661764705882353
0.0273202642974,0.5735294117647058
0.0274221842192,0.5808823529411765
0.0276602284859,0.5882352941176471
0.0276945274345,0.5955882352941176
0.0277363149096,0.6029411764705882
0.0277772282708,0.6102941176470589
0.0278630037518,0.6176470588235294
0.027881648095,0.625
0.0278934287615,0.6323529411764706
0.0279019214685,0.6397058823529411
0.0279031022788,0.6470588235294118
0.027904044383,0.6544117647058824
0.0279042877779,0.6617647058823529
0.0279052547394,0.6691176470588235
0.0279058506059,0.6764705882352942
0.0279087542383,0.6838235294117647
0.0279115582547,0.6911764705882353
0.0279206329385,0.6985294117647058
0.0279240835697,0.7058823529411765
0.0279240954538,0.7132352941176471
0.0279241379192,0.7205882352941176
0.0279241407785,0.7279411764705882
0.0279244886123,0.7352941176470589
0.0279244905192,0.7426470588235294
0.0279244905192,0.75
0.697601109574,0.7573529411764706
0.697718855956,0.7647058823529411
0.72339193955,0.7720588235294118
1.38886141354,0.7794117647058824
1.38886141354,0.7867647058823529
1.39557791274,0.7941176470588235
1.39557791274,0.8014705882352942
2.09280332872,0.8088235294117647
2.32542337482,0.8161764705882353
2.32542337482,0.8235294117647058
2.32542337482,0.8308823529411765
2.77363149096,0.8382352941176471
2.79052547394,0.8455882352941176
2.79087542383,0.8529411764705882
2.79240954538,0.8602941176470589
2.79241407785,0.8676470588235294
2.79244905192,0.875
2.79244905192,0.8823529411764706
3.48818617017,0.8897058823529411
4.15488426214,0.8970588235294118
4.18577005959,0.9044117647058824
5.11358818432,0.9117647058823529
5.54308423441,0.9191176470588235
5.58482786977,0.9264705882352942
8.37734696507,0.9338235294117647
11.3945637967,0.9411764705882353
20.2447115931,0.9485294117647058
20.6833137698,0.9558823529411765
26.7577761746,0.9632352941176471
33.113308696,0.9705882352941176
33.7328891103,0.9779411764705882
34.4381806143,0.9852941176470589
36.4751075322,0.9926470588235294
37.9010133407,1.0
