Congestion,CDF
0.0,0.007352941176470588
0.0,0.014705882352941176
0.0,0.022058823529411766
0.0,0.029411764705882353
0.0,0.03676470588235294
0.0,0.04411764705882353
0.0,0.051470588235294115
0.0,0.058823529411764705
0.0,0.0661764705882353
0.0,0.07352941176470588
0.0,0.08088235294117647
0.0,0.08823529411764706
0.0,0.09558823529411764
0.0,0.10294117647058823
4.4491427632e-06,0.11029411764705882
4.4491427632e-06,0.11764705882352941
4.4491427632e-06,0.125
4.4491427632e-06,0.1323529411764706
4.4491427632e-06,0.13970588235294118
4.4491427632e-06,0.14705882352941177
4.4491427632e-06,0.15441176470588236
4.4491427632e-06,0.16176470588235295
4.4491427632e-06,0.16911764705882354
4.4491427632e-06,0.17647058823529413
4.4491427632e-06,0.18382352941176472
4.4491427632e-06,0.19117647058823528
4.4491427632e-06,0.19852941176470587
4.4491427632e-06,0.20588235294117646
4.4491427632e-06,0.21323529411764705
4.4491427632e-06,0.22058823529411764
4.4491427632e-06,0.22794117647058823
4.4491427632e-06,0.23529411764705882
4.4491427632e-06,0.2426470588235294
4.4491427632e-06,0.25
4.4491427632e-06,0.25735294117647056
4.4491427632e-06,0.2647058823529412
4.4491427632e-06,0.27205882352941174
4.4491427632e-06,0.27941176470588236
4.4491427632e-06,0.2867647058823529
4.4491427632e-06,0.29411764705882354
4.4491427632e-06,0.3014705882352941
0.00011122856908,0.3088235294117647
0.00011122856908,0.3161764705882353
0.000120126854606,0.3235294117647059
0.00022245713816,0.33088235294117646
0.00022245713816,0.3382352941176471
0.00022245713816,0.34558823529411764
0.00022245713816,0.35294117647058826
0.00033368570724,0.3602941176470588
0.000370761896933,0.36764705882352944
0.000370761896933,0.375
0.000370761896933,0.38235294117647056
0.00044491427632,0.3897058823529412
0.00044491427632,0.39705882352941174
0.00044491427632,0.40441176470588236
0.00044491427632,0.4117647058823529
0.00044491427632,0.41911764705882354
0.00044491427632,0.4264705882352941
0.00044491427632,0.4338235294117647
0.0005561428454,0.4411764705882353
0.00066737141448,0.4485294117647059
0.00066737141448,0.45588235294117646
0.000815676173253,0.4632352941176471
0.00088982855264,0.47058823529411764
0.00088982855264,0.47794117647058826
0.00133474282896,0.4852941176470588
0.00181673329497,0.49264705882352944
0.00322562850332,0.5
0.00329978088271,0.5073529411764706
0.00426376181473,0.5147058823529411
0.00530189512615,0.5220588235294118
0.00537604750553,0.5294117647058824
0.00574680940246,0.5367647058823529
0.00582096178185,0.5441176470588235
0.00626587605817,0.5514705882352942
0.0241599091491,0.5588235294117647
0.0250634736769,0.5661764705882353
0.0359516448479,0.5735294117647058
0.0360363006752,0.5808823529411765
0.036211416998,0.5882352941176471
0.0362404841764,0.5955882352941176
0.0362714131561,0.6029411764705882
0.0363152608798,0.6102941176470589
0.0363974703001,0.6176470588235294
0.0364125858829,0.625
0.0364258065353,0.6323529411764706
0.0364325882752,0.6397058823529411
0.0364334636876,0.6470588235294118
0.0364343315779,0.6544117647058824
0.0364348328556,0.6617647058823529
0.0364355787393,0.6691176470588235
0.0364361547898,0.6764705882352942
0.0364390117385,0.6838235294117647
0.0364419413209,0.6911764705882353
0.0364509270247,0.6985294117647058
0.0364543114357,0.7058823529411765
0.0364543212861,0.7132352941176471
0.0364543632928,0.7205882352941176
0.0364543658367,0.7279411764705882
0.036454713833,0.7352941176470589
0.0364547155297,0.7426470588235294
0.0364547155297,0.75
0.910858289448,0.7573529411764706
0.910975293464,0.7647058823529411
0.958606103031,0.7720588235294118
1.81576304399,0.7794117647058824
1.81576304399,0.7867647058823529
1.82209706604,0.7941176470588235
1.82209706604,0.8014705882352942
2.73257486834,0.8088235294117647
3.0362823725,0.8161764705882353
3.0362823725,0.8235294117647058
3.0362823725,0.8308823529411765
3.62714131561,0.8382352941176471
3.64355787393,0.8455882352941176
3.64390117385,0.8529411764705882
3.64543212861,0.8602941176470589
3.64543658367,0.8676470588235294
3.64547155297,0.875
3.64547155297,0.8823529411764706
4.55447376842,0.8897058823529411
5.43690474379,0.8970588235294118
5.46535589357,0.9044117647058824
6.67754096079,0.9117647058823529
7.25118973325,0.9191176470588235
7.29087291295,0.9264705882352942
10.9364144892,0.9338235294117647
14.8777973004,0.9411764705882353
26.4291259678,0.9485294117647058
27.0108483352,0.9558823529411765
34.9325981088,0.9632352941176471
43.294107297,0.9705882352941176
44.0405346559,0.9779411764705882
45.710098212,0.9852941176470589
47.6441647235,0.9926470588235294
50.1505120912,1.0
