Congestion,CDF
0.0,0.007352941176470588
0.0,0.014705882352941176
0.0,0.022058823529411766
0.0,0.029411764705882353
0.0,0.03676470588235294
0.0,0.04411764705882353
0.0,0.051470588235294115
0.0,0.058823529411764705
0.0,0.0661764705882353
0.0,0.07352941176470588
0.0,0.08088235294117647
0.0,0.08823529411764706
0.0,0.09558823529411764
0.0,0.10294117647058823
1.7831159983e-05,0.11029411764705882
1.7831159983e-05,0.11764705882352941
1.7831159983e-05,0.125
1.7831159983e-05,0.1323529411764706
1.7831159983e-05,0.13970588235294118
1.7831159983e-05,0.14705882352941177
1.7831159983e-05,0.15441176470588236
1.7831159983e-05,0.16176470588235295
1.7831159983e-05,0.16911764705882354
1.7831159983e-05,0.17647058823529413
1.7831159983e-05,0.18382352941176472
1.7831159983e-05,0.19117647058823528
1.7831159983e-05,0.19852941176470587
1.7831159983e-05,0.20588235294117646
1.7831159983e-05,0.21323529411764705
1.7831159983e-05,0.22058823529411764
1.7831159983e-05,0.22794117647058823
1.7831159983e-05,0.23529411764705882
1.7831159983e-05,0.2426470588235294
1.7831159983e-05,0.25
1.7831159983e-05,0.25735294117647056
1.7831159983e-05,0.2647058823529412
1.7831159983e-05,0.27205882352941174
1.7831159983e-05,0.27941176470588236
1.7831159983e-05,0.2867647058823529
1.7831159983e-05,0.29411764705882354
1.7831159983e-05,0.3014705882352941
0.000342068554443,0.3088235294117647
0.000445778999574,0.3161764705882353
0.000445778999574,0.3235294117647059
0.00048144131954,0.33088235294117646
0.000633022577347,0.3382352941176471
0.000891557999148,0.34558823529411764
0.000891557999148,0.35294117647058826
0.000891557999148,0.3602941176470588
0.000891557999148,0.36764705882352944
0.000912247694097,0.375
0.00116138146635,0.38235294117647056
0.00133733699872,0.3897058823529412
0.00145550004122,0.39705882352941174
0.00148592999858,0.40441176470588236
0.00148592999858,0.4117647058823529
0.00148592999858,0.41911764705882354
0.00156928225673,0.4264705882352941
0.00164612393205,0.4338235294117647
0.0017831159983,0.4411764705882353
0.0017831159983,0.4485294117647059
0.0017831159983,0.45588235294117646
0.0017831159983,0.4632352941176471
0.0017831159983,0.47058823529411764
0.0017831159983,0.47794117647058826
0.0017831159983,0.4852941176470588
0.00179127252971,0.49264705882352944
0.00210824183467,0.5
0.00215932124915,0.5073529411764706
0.0022244995258,0.5147058823529411
0.00222889499787,0.5220588235294118
0.00224102826365,0.5294117647058824
0.00224268341179,0.5367647058823529
0.00224316586905,0.5441176470588235
0.00224527690598,0.5514705882352942
0.00224529530303,0.5588235294117647
0.00224711591972,0.5661764705882353
0.00226447471023,0.5735294117647058
0.00228093123461,0.5808823529411765
0.00231601240955,0.5882352941176471
0.00232954878286,0.5955882352941176
0.00232959082886,0.6029411764705882
0.00232988866579,0.6102941176470589
0.00232990141424,0.6176470588235294
0.00233099535284,0.625
0.00233100385472,0.6323529411764706
0.00233100385472,0.6397058823529411
0.00267467399744,0.6470588235294118
0.00267467399744,0.6544117647058824
0.00326904599688,0.6617647058823529
0.00356623199659,0.6691176470588235
0.00356623199659,0.6764705882352942
0.00534934799489,0.6838235294117647
0.00728105699304,0.6911764705882353
0.0129275909876,0.6985294117647058
0.0132247769874,0.7058823529411765
0.0170881949837,0.7132352941176471
0.0212487989797,0.7205882352941176
0.0215459849794,0.7279411764705882
0.023031914978,0.7352941176470589
0.0233291009777,0.7426470588235294
0.025112216976,0.75
0.0526408784432,0.7573529411764706
0.0560791467264,0.7647058823529411
0.0566118677557,0.7720588235294118
0.0895636264854,0.7794117647058824
0.0895636264854,0.7867647058823529
0.11404656173,0.7941176470588235
0.11404656173,0.8014705882352942
0.164612393205,0.8088235294117647
0.168237440179,0.8161764705882353
0.187391956604,0.8235294117647058
0.187391956604,0.8308823529411765
0.187391956604,0.8382352941176471
0.224527690598,0.8455882352941176
0.226447471023,0.8529411764705882
0.232959082886,0.8602941176470589
0.232990141424,0.8676470588235294
0.233100385472,0.875
0.233100385472,0.8823529411764706
0.235113630607,0.8897058823529411
0.280790738699,0.8970588235294118
0.321540618877,0.9044117647058824
0.338576092033,0.9117647058823529
0.403324081518,0.9191176470588235
0.465979008003,0.9264705882352942
0.699300306228,0.9338235294117647
0.916978727079,0.9411764705882353
1.62069061855,0.9485294117647058
1.68780514316,0.9558823529411765
2.22084490245,0.9632352941176471
2.26856963744,0.9705882352941176
2.33187189518,0.9779411764705882
2.78187094706,0.9852941176470589
2.8980090937,0.9926470588235294
2.93221594914,1.0
