Congestion,CDF
0.00824346441238,0.005555555555555556
0.00824346441238,0.011111111111111112
0.00865222984005,0.016666666666666666
0.00865222984005,0.022222222222222223
0.00885389284361,0.027777777777777776
0.00885389284361,0.03333333333333333
0.00895485278191,0.03888888888888889
0.00895485278191,0.044444444444444446
0.00896808282244,0.05
0.00896808282244,0.05555555555555555
0.00898841922366,0.06111111111111111
0.00898841922366,0.06666666666666667
0.00902107043367,0.07222222222222222
0.00902107043367,0.07777777777777778
0.00903799915804,0.08333333333333333
0.00903799915804,0.08888888888888889
0.00910706201691,0.09444444444444444
0.00910706201691,0.1
0.00915470274142,0.10555555555555556
0.00915470274142,0.1111111111111111
0.00921094550575,0.11666666666666667
0.00921094550575,0.12222222222222222
0.00922566461758,0.12777777777777777
0.00922566461758,0.13333333333333333
0.00932771425748,0.1388888888888889
0.00932771425748,0.14444444444444443
0.00936703610035,0.15
0.00936703610035,0.15555555555555556
0.00941849067413,0.16111111111111112
0.00941849067413,0.16666666666666666
0.00942518373777,0.17222222222222222
0.00942518373777,0.17777777777777778
0.00945163827775,0.18333333333333332
0.00945163827775,0.18888888888888888
0.00947232072127,0.19444444444444445
0.00947232072127,0.2
0.00948871006589,0.20555555555555555
0.00948871006589,0.2111111111111111
0.00953802616518,0.21666666666666667
0.00953802616518,0.2222222222222222
0.0095606433571,0.22777777777777777
0.0095606433571,0.23333333333333334
0.00958111527969,0.2388888888888889
0.00958111527969,0.24444444444444444
0.00962449751001,0.25
0.00962449751001,0.25555555555555554
0.00967133304099,0.2611111111111111
0.00967133304099,0.26666666666666666
0.00972042979649,0.2722222222222222
0.00972042979649,0.2777777777777778
0.0098526444465,0.2833333333333333
0.0098526444465,0.28888888888888886
0.00997445757983,0.29444444444444445
0.00997445757983,0.3
0.0103556262919,0.3055555555555556
0.0103556262919,0.3111111111111111
0.0103604919622,0.31666666666666665
0.0103604919622,0.32222222222222224
0.010404199783,0.3277777777777778
0.010404199783,0.3333333333333333
0.0104230695671,0.3388888888888889
0.0104230695671,0.34444444444444444
0.01044571934,0.35
0.01044571934,0.35555555555555557
0.0104491597857,0.3611111111111111
0.0104491597857,0.36666666666666664
0.010548795487,0.37222222222222223
0.010548795487,0.37777777777777777
0.0106071982372,0.38333333333333336
0.0106071982372,0.3888888888888889
0.0106343266004,0.39444444444444443
0.0106343266004,0.4
0.010675705585,0.40555555555555556
0.010675705585,0.4111111111111111
0.0106882741946,0.4166666666666667
0.0106882741946,0.4222222222222222
0.0107439839462,0.42777777777777776
0.0107439839462,0.43333333333333335
0.0107902857883,0.4388888888888889
0.0107902857883,0.4444444444444444
0.284685512661,0.45
0.284685512661,0.45555555555555555
0.322216765079,0.46111111111111114
0.322216765079,0.4666666666666667
0.355040846072,0.4722222222222222
0.355040846072,0.4777777777777778
0.405864869276,0.48333333333333334
0.405864869276,0.4888888888888889
0.596751248338,0.49444444444444446
0.596751248338,0.5
0.724633892641,0.5055555555555555
0.724633892641,0.5111111111111111
0.762770992533,0.5166666666666667
0.762770992533,0.5222222222222223
0.76322782273,0.5277777777777778
0.76322782273,0.5333333333333333
0.870665153616,0.5388888888888889
0.870665153616,0.5444444444444444
1.04922066234,0.55
1.04922066234,0.5555555555555556
1.04939435609,0.5611111111111111
1.04939435609,0.5666666666666667
1.10240293884,0.5722222222222222
1.10240293884,0.5777777777777777
1.13002974257,0.5833333333333334
1.13002974257,0.5888888888888889
1.18499661864,0.5944444444444444
1.18499661864,0.6
1.19586055459,0.6055555555555555
1.19586055459,0.6111111111111112
1.20373883287,0.6166666666666667
1.20373883287,0.6222222222222222
1.22539716029,0.6277777777777778
1.22539716029,0.6333333333333333
1.24205315078,0.6388888888888888
1.24205315078,0.6444444444444445
1.31068647274,0.65
1.31068647274,0.6555555555555556
1.34971034359,0.6611111111111111
1.34971034359,0.6666666666666666
1.36777992868,0.6722222222222223
1.36777992868,0.6777777777777778
1.39159692261,0.6833333333333333
1.39159692261,0.6888888888888889
1.41929251224,0.6944444444444444
1.41929251224,0.7
1.42684481661,0.7055555555555556
1.42684481661,0.7111111111111111
1.49985353825,0.7166666666666667
1.49985353825,0.7222222222222222
1.56628696302,0.7277777777777777
1.56628696302,0.7333333333333333
1.71985866932,0.7388888888888889
1.71985866932,0.7444444444444445
2.04564264382,0.75
2.04564264382,0.7555555555555555
2.05684669562,0.7611111111111111
2.05684669562,0.7666666666666667
2.14756364125,0.7722222222222223
2.14756364125,0.7777777777777778
2.36306985969,0.7833333333333333
2.36306985969,0.7888888888888889
2.37706966597,0.7944444444444444
2.37706966597,0.8
2.43012741404,0.8055555555555556
2.43012741404,0.8111111111111111
2.57352286638,0.8166666666666667
2.57352286638,0.8222222222222222
2.65843263351,0.8277777777777777
2.65843263351,0.8333333333333334
2.68299154801,0.8388888888888889
2.68299154801,0.8444444444444444
2.99394500052,0.85
2.99394500052,0.8555555555555555
3.21976020911,0.8611111111111112
3.21976020911,0.8666666666666667
3.3322710859,0.8722222222222222
3.3322710859,0.8777777777777778
3.67074572295,0.8833333333333333
3.67074572295,0.8888888888888888
3.69526557024,0.8944444444444445
3.69526557024,0.9
3.91290670761,0.9055555555555556
3.91290670761,0.9111111111111111
4.05219914894,0.9166666666666666
4.05219914894,0.9222222222222223
4.31563409444,0.9277777777777778
4.31563409444,0.9333333333333333
4.74684804052,0.9388888888888889
4.74684804052,0.9444444444444444
4.7676960037,0.95
4.7676960037,0.9555555555555556
4.86521770772,0.9611111111111111
4.86521770772,0.9666666666666667
5.58871846444,0.9722222222222222
5.58871846444,0.9777777777777777
6.05577267708,0.9833333333333333
6.05577267708,0.9888888888888889
6.23039208463,0.9944444444444445
6.23039208463,1.0
