Congestion,CDF
0.0175347620192,0.005555555555555556
0.0175347620192,0.011111111111111112
0.0175819875405,0.016666666666666666
0.0175819875405,0.022222222222222223
0.0177822704277,0.027777777777777776
0.0177822704277,0.03333333333333333
0.0180749004125,0.03888888888888889
0.0180749004125,0.044444444444444446
0.0181097568159,0.05
0.0181097568159,0.05555555555555555
0.0182306593665,0.06111111111111111
0.0182306593665,0.06666666666666667
0.0182488810704,0.07222222222222222
0.0182488810704,0.07777777777777778
0.0183201228824,0.08333333333333333
0.0183201228824,0.08888888888888889
0.018337740908,0.09444444444444444
0.018337740908,0.1
0.0183560289807,0.10555555555555556
0.0183560289807,0.1111111111111111
0.0183807329374,0.11666666666666667
0.0183807329374,0.12222222222222222
0.0184503010574,0.12777777777777777
0.0184503010574,0.13333333333333333
0.0184553080762,0.1388888888888889
0.0184553080762,0.14444444444444443
0.0188578380379,0.15
0.0188578380379,0.15555555555555556
0.0189540378842,0.16111111111111112
0.0189540378842,0.16666666666666666
0.0190171971272,0.17222222222222222
0.0190171971272,0.17777777777777778
0.0190290442334,0.18333333333333332
0.0190290442334,0.18888888888888888
0.0190338359753,0.19444444444444445
0.0190338359753,0.2
0.019062042602,0.20555555555555555
0.019062042602,0.2111111111111111
0.0191031214309,0.21666666666666667
0.0191031214309,0.2222222222222222
0.0191045001699,0.22777777777777777
0.0191045001699,0.23333333333333334
0.0191152699666,0.2388888888888889
0.0191152699666,0.24444444444444444
0.0191438769031,0.25
0.0191438769031,0.25555555555555554
0.0192009295224,0.2611111111111111
0.0192009295224,0.26666666666666666
0.0197549531498,0.2722222222222222
0.0197549531498,0.2777777777777778
0.02024195196,0.2833333333333333
0.02024195196,0.28888888888888886
0.0203467036117,0.29444444444444445
0.0203467036117,0.3
0.0212760663228,0.3055555555555556
0.0212760663228,0.3111111111111111
0.0213408753792,0.31666666666666665
0.0213408753792,0.32222222222222224
0.0213738672911,0.3277777777777778
0.0213738672911,0.3333333333333333
0.0214653718566,0.3388888888888889
0.0214653718566,0.34444444444444444
0.0215082337929,0.35
0.0215082337929,0.35555555555555557
0.0216411906328,0.3611111111111111
0.0216411906328,0.36666666666666664
0.0218403290197,0.37222222222222223
0.0218403290197,0.37777777777777777
0.0218872227384,0.38333333333333336
0.0218872227384,0.3888888888888889
0.0220078719846,0.39444444444444443
0.0220078719846,0.4
0.0221162786346,0.40555555555555556
0.0221162786346,0.4111111111111111
0.0221172678364,0.4166666666666667
0.0221172678364,0.4222222222222222
0.0221567510985,0.42777777777777776
0.0221567510985,0.43333333333333335
0.0225286327061,0.4388888888888889
0.0225286327061,0.4444444444444444
0.514664911303,0.45
0.514664911303,0.45555555555555555
0.601696158489,0.46111111111111114
0.601696158489,0.4666666666666667
0.644251750697,0.4722222222222222
0.644251750697,0.4777777777777778
0.654810372527,0.48333333333333334
0.654810372527,0.4888888888888889
1.12951004064,0.49444444444444446
1.12951004064,0.5
1.34043314024,0.5055555555555555
1.34043314024,0.5111111111111111
1.59748944329,0.5166666666666667
1.59748944329,0.5222222222222223
1.62840844615,0.5277777777777778
1.62840844615,0.5333333333333333
1.93410973771,0.5388888888888889
1.93410973771,0.5444444444444444
2.28108075157,0.55
2.28108075157,0.5555555555555556
2.31403043058,0.5611111111111111
2.31403043058,0.5666666666666667
2.38405464955,0.5722222222222222
2.38405464955,0.5777777777777777
2.41312634581,0.5833333333333334
2.41312634581,0.5888888888888889
2.45059232582,0.5944444444444444
2.45059232582,0.6
2.49709994691,0.6055555555555555
2.49709994691,0.6111111111111112
2.52484502308,0.6166666666666667
2.52484502308,0.6222222222222222
2.64849825554,0.6277777777777778
2.64849825554,0.6333333333333333
2.69705406728,0.6388888888888888
2.69705406728,0.6444444444444445
2.81753949064,0.65
2.81753949064,0.6555555555555556
2.85008911532,0.6611111111111111
2.85008911532,0.6666666666666666
2.92382679207,0.6722222222222223
2.92382679207,0.6777777777777778
2.95642370922,0.6833333333333333
2.95642370922,0.6888888888888889
3.09804472764,0.6944444444444444
3.09804472764,0.7
3.27527208718,0.7055555555555556
3.27527208718,0.7111111111111111
3.28905583508,0.7166666666666667
3.28905583508,0.7222222222222222
3.29980048594,0.7277777777777777
3.29980048594,0.7333333333333333
3.7217075197,0.7388888888888889
3.7217075197,0.7444444444444445
4.48520807608,0.75
4.48520807608,0.7555555555555555
4.57070398009,0.7611111111111111
4.57070398009,0.7666666666666667
4.6599732792,0.7722222222222223
4.6599732792,0.7777777777777778
4.99976444036,0.7833333333333333
4.99976444036,0.7888888888888889
5.00539104343,0.7944444444444444
5.00539104343,0.8
5.06032032812,0.8055555555555556
5.06032032812,0.8111111111111111
5.49114446992,0.8166666666666667
5.49114446992,0.8222222222222222
5.70852569303,0.8277777777777777
5.70852569303,0.8333333333333334
5.74474589263,0.8388888888888889
5.74474589263,0.8444444444444444
6.33245336871,0.85
6.33245336871,0.8555555555555555
6.82339830916,0.8611111111111112
6.82339830916,0.8666666666666667
7.02279193679,0.8722222222222222
7.02279193679,0.8777777777777778
7.72513542902,0.8833333333333333
7.72513542902,0.8888888888888888
7.75383192341,0.8944444444444445
7.75383192341,0.9
8.39624989404,0.9055555555555556
8.39624989404,0.9111111111111111
8.63980291442,0.9166666666666666
8.63980291442,0.9222222222222223
9.21280625672,0.9277777777777778
9.21280625672,0.9333333333333333
10.0502129477,0.9388888888888889
10.0502129477,0.9444444444444444
10.0704196672,0.95
10.0704196672,0.9555555555555556
10.4012998441,0.9611111111111111
10.4012998441,0.9666666666666667
11.6115570347,0.9722222222222222
11.6115570347,0.9777777777777777
12.6071697482,0.9833333333333333
12.6071697482,0.9888888888888889
13.0568263272,0.9944444444444445
13.0568263272,1.0
