Congestion,CDF
0.00445179581395,0.005555555555555556
0.00445179581395,0.011111111111111112
0.00456405073603,0.016666666666666666
0.00456405073603,0.022222222222222223
0.00457081826832,0.027777777777777776
0.00457081826832,0.03333333333333333
0.00466054972402,0.03888888888888889
0.00466054972402,0.044444444444444446
0.00467806727061,0.05
0.00467806727061,0.05555555555555555
0.00471167708465,0.06111111111111111
0.00471167708465,0.06666666666666667
0.00471839154693,0.07222222222222222
0.00471839154693,0.07777777777777778
0.00471855397227,0.08333333333333333
0.00471855397227,0.08888888888888889
0.00472358368362,0.09444444444444444
0.00472358368362,0.1
0.0047377915306,0.10555555555555556
0.0047377915306,0.1111111111111111
0.00474199203035,0.11666666666666667
0.00474199203035,0.12222222222222222
0.0047472941846,0.12777777777777777
0.0047472941846,0.13333333333333333
0.00474903866574,0.1388888888888889
0.00474903866574,0.14444444444444443
0.00476240842044,0.15
0.00476240842044,0.15555555555555556
0.00477941422973,0.16111111111111112
0.00477941422973,0.16666666666666666
0.00478736872392,0.17222222222222222
0.00478736872392,0.17777777777777778
0.00479454003103,0.18333333333333332
0.00479454003103,0.18888888888888888
0.00479928939059,0.19444444444444445
0.00479928939059,0.2
0.00481377769793,0.20555555555555555
0.00481377769793,0.2111111111111111
0.00482461286057,0.21666666666666667
0.00482461286057,0.2222222222222222
0.00483938446125,0.22777777777777777
0.00483938446125,0.23333333333333334
0.00485577538302,0.2388888888888889
0.00485577538302,0.24444444444444444
0.00486244265898,0.25
0.00486244265898,0.25555555555555554
0.00488220810558,0.2611111111111111
0.00488220810558,0.26666666666666666
0.00488656688489,0.2722222222222222
0.00488656688489,0.2777777777777778
0.00489183742799,0.2833333333333333
0.00489183742799,0.28888888888888886
0.00495926595908,0.29444444444444445
0.00495926595908,0.3
0.00499368585217,0.3055555555555556
0.00499368585217,0.3111111111111111
0.00505873894624,0.31666666666666665
0.00505873894624,0.32222222222222224
0.005060726825,0.3277777777777778
0.005060726825,0.3333333333333333
0.00507571695616,0.3388888888888889
0.00507571695616,0.34444444444444444
0.00507704743638,0.35
0.00507704743638,0.35555555555555557
0.00508156332969,0.3611111111111111
0.00508156332969,0.36666666666666664
0.00509135806563,0.37222222222222223
0.00509135806563,0.37777777777777777
0.00509362880085,0.38333333333333336
0.00509362880085,0.3888888888888889
0.00509724725895,0.39444444444444443
0.00509724725895,0.4
0.00515765268558,0.40555555555555556
0.00515765268558,0.4111111111111111
0.00516102707757,0.4166666666666667
0.00516102707757,0.4222222222222222
0.0051706056688,0.42777777777777776
0.0051706056688,0.43333333333333335
0.00521778042147,0.4388888888888889
0.00521778042147,0.4444444444444444
0.157616686491,0.45
0.157616686491,0.45555555555555555
0.163794763346,0.46111111111111114
0.163794763346,0.4666666666666667
0.205173130759,0.4722222222222222
0.205173130759,0.4777777777777778
0.243667476543,0.48333333333333334
0.243667476543,0.4888888888888889
0.316303252987,0.49444444444444446
0.316303252987,0.5
0.398644397298,0.5055555555555555
0.398644397298,0.5111111111111111
0.403515694514,0.5166666666666667
0.403515694514,0.5222222222222223
0.403649580572,0.5277777777777778
0.403649580572,0.5333333333333333
0.477357944102,0.5388888888888889
0.477357944102,0.5444444444444444
0.514864638526,0.55
0.514864638526,0.5555555555555556
0.546703352415,0.5611111111111111
0.546703352415,0.5666666666666667
0.55796632003,0.5722222222222222
0.55796632003,0.5777777777777777
0.567951792182,0.5833333333333334
0.567951792182,0.5888888888888889
0.5947505105,0.5944444444444444
0.5947505105,0.6
0.613797928242,0.6055555555555555
0.613797928242,0.6111111111111112
0.616069736762,0.6166666666666667
0.616069736762,0.6222222222222222
0.64347772484,0.6277777777777778
0.64347772484,0.6333333333333333
0.650696651025,0.6388888888888888
0.650696651025,0.6444444444444445
0.657712714016,0.65
0.657712714016,0.6555555555555556
0.66787452684,0.6611111111111111
0.66787452684,0.6666666666666666
0.686991229083,0.6722222222222223
0.686991229083,0.6777777777777778
0.714141750899,0.6833333333333333
0.714141750899,0.6888888888888889
0.741456142295,0.6944444444444444
0.741456142295,0.7
0.746484635731,0.7055555555555556
0.746484635731,0.7111111111111111
0.759621564512,0.7166666666666667
0.759621564512,0.7222222222222222
0.778630868757,0.7277777777777777
0.778630868757,0.7333333333333333
0.817867682716,0.7388888888888889
0.817867682716,0.7444444444444445
0.966269578324,0.75
0.966269578324,0.7555555555555555
1.00058891026,0.7611111111111111
1.00058891026,0.7666666666666667
1.00931688591,0.7722222222222223
1.00931688591,0.7777777777777778
1.12842642229,0.7833333333333333
1.12842642229,0.7888888888888889
1.13887206791,0.7944444444444444
1.13887206791,0.8
1.1672282566,0.8055555555555556
1.1672282566,0.8111111111111111
1.21089874938,0.8166666666666667
1.21089874938,0.8222222222222222
1.24559326361,0.8277777777777777
1.24559326361,0.8333333333333334
1.2801426824,0.8388888888888889
1.2801426824,0.8444444444444444
1.4165248089,0.85
1.4165248089,0.8555555555555555
1.52426217659,0.8611111111111112
1.52426217659,0.8666666666666667
1.56625212074,0.8722222222222222
1.56625212074,0.8777777777777778
1.74257739708,0.8833333333333333
1.74257739708,0.8888888888888888
1.74596110504,0.8944444444444445
1.74596110504,0.9
1.80912186378,0.9055555555555556
1.80912186378,0.9111111111111111
1.92203564792,0.9166666666666666
1.92203564792,0.9222222222222223
2.00179317635,0.9277777777777778
2.00179317635,0.9333333333333333
2.22392912185,0.9388888888888889
2.22392912185,0.9444444444444444
2.29226976792,0.95
2.29226976792,0.9555555555555556
2.3344273746,0.9611111111111111
2.3344273746,0.9666666666666667
2.65784618709,0.9722222222222222
2.65784618709,0.9777777777777777
2.89167506815,0.9833333333333333
2.89167506815,0.9888888888888889
2.97130604169,0.9944444444444445
2.97130604169,1.0
