Congestion,CDF
0.0200451152305,0.005555555555555556
0.0200451152305,0.011111111111111112
0.0202342294944,0.016666666666666666
0.0202342294944,0.022222222222222223
0.0203847833013,0.027777777777777776
0.0203847833013,0.03333333333333333
0.020559099835,0.03888888888888889
0.020559099835,0.044444444444444446
0.0206481965963,0.05
0.0206481965963,0.05555555555555555
0.0207434428045,0.06111111111111111
0.0207434428045,0.06666666666666667
0.0207987173303,0.07222222222222222
0.0207987173303,0.07777777777777778
0.0208419065583,0.08333333333333333
0.0208419065583,0.08888888888888889
0.0210683391522,0.09444444444444444
0.0210683391522,0.1
0.0211471801686,0.10555555555555556
0.0211471801686,0.1111111111111111
0.0211683407296,0.11666666666666667
0.0211683407296,0.12222222222222222
0.0213043998463,0.12777777777777777
0.0213043998463,0.13333333333333333
0.0214184225507,0.1388888888888889
0.0214184225507,0.14444444444444443
0.0214492455979,0.15
0.0214492455979,0.15555555555555556
0.0216271042389,0.16111111111111112
0.0216271042389,0.16666666666666666
0.021699421687,0.17222222222222222
0.021699421687,0.17777777777777778
0.0218006584266,0.18333333333333332
0.0218006584266,0.18888888888888888
0.0218763051169,0.19444444444444445
0.0218763051169,0.2
0.0218888161586,0.20555555555555555
0.0218888161586,0.2111111111111111
0.0219994276225,0.21666666666666667
0.0219994276225,0.2222222222222222
0.0220836442169,0.22777777777777777
0.0220836442169,0.23333333333333334
0.0221593002981,0.2388888888888889
0.0221593002981,0.24444444444444444
0.0222260549701,0.25
0.0222260549701,0.25555555555555554
0.0223132556753,0.2611111111111111
0.0223132556753,0.26666666666666666
0.0227831772351,0.2722222222222222
0.0227831772351,0.2777777777777778
0.0231884992533,0.2833333333333333
0.0231884992533,0.28888888888888886
0.0232454284526,0.29444444444444445
0.0232454284526,0.3
0.0241422306979,0.3055555555555556
0.0241422306979,0.3111111111111111
0.0241422805096,0.31666666666666665
0.0241422805096,0.32222222222222224
0.0242358289823,0.3277777777777778
0.0242358289823,0.3333333333333333
0.0242805481055,0.3388888888888889
0.0242805481055,0.34444444444444444
0.0243909225849,0.35
0.0243909225849,0.35555555555555557
0.0245144011005,0.3611111111111111
0.0245144011005,0.36666666666666664
0.0245778759829,0.37222222222222223
0.0245778759829,0.37777777777777777
0.0247438251524,0.38333333333333336
0.0247438251524,0.3888888888888889
0.0248599112859,0.39444444444444443
0.0248599112859,0.4
0.0249116558396,0.40555555555555556
0.0249116558396,0.4111111111111111
0.0249770257475,0.4166666666666667
0.0249770257475,0.4222222222222222
0.0250422728835,0.42777777777777776
0.0250422728835,0.43333333333333335
0.0255125394904,0.4388888888888889
0.0255125394904,0.4444444444444444
0.600852893377,0.45
0.600852893377,0.45555555555555555
0.700558137573,0.46111111111111114
0.700558137573,0.4666666666666667
0.730563961345,0.4722222222222222
0.730563961345,0.4777777777777778
0.753443247884,0.48333333333333334
0.753443247884,0.4888888888888889
1.28622409712,0.49444444444444446
1.28622409712,0.5
1.53518148946,0.5055555555555555
1.53518148946,0.5111111111111111
1.84155050097,0.5166666666666667
1.84155050097,0.5222222222222223
1.87935072077,0.5277777777777778
1.87935072077,0.5333333333333333
2.25169353352,0.5388888888888889
2.25169353352,0.5444444444444444
2.59237440054,0.55
2.59237440054,0.5555555555555556
2.65041341716,0.5611111111111111
2.65041341716,0.5666666666666667
2.72007028742,0.5722222222222222
2.72007028742,0.5777777777777777
2.73501088206,0.5833333333333334
2.73501088206,0.5888888888888889
2.79660456572,0.5944444444444444
2.79660456572,0.6
2.83099812221,0.6055555555555555
2.83099812221,0.6111111111111112
2.91885879441,0.6166666666666667
2.91885879441,0.6222222222222222
3.06460674197,0.6277777777777778
3.06460674197,0.6333333333333333
3.07337518045,0.6388888888888888
3.07337518045,0.6444444444444445
3.22705439565,0.65
3.22705439565,0.6555555555555556
3.25448804954,0.6611111111111111
3.25448804954,0.6666666666666666
3.32648896309,0.6722222222222223
3.32648896309,0.6777777777777778
3.4153350668,0.6833333333333333
3.4153350668,0.6888888888888889
3.50863767252,0.6944444444444444
3.50863767252,0.7
3.7079582985,0.7055555555555556
3.7079582985,0.7111111111111111
3.76121408649,0.7166666666666667
3.76121408649,0.7222222222222222
3.79051190935,0.7277777777777777
3.79051190935,0.7333333333333333
4.19973822251,0.7388888888888889
4.19973822251,0.7444444444444445
5.04678463224,0.75
5.04678463224,0.7555555555555555
5.15346403401,0.7611111111111111
5.15346403401,0.7666666666666667
5.2275664913,0.7722222222222223
5.2275664913,0.7777777777777778
5.60074845261,0.7833333333333333
5.60074845261,0.7888888888888889
5.65891975182,0.7944444444444444
5.65891975182,0.8
5.73149704017,0.8055555555555556
5.73149704017,0.8111111111111111
6.14925479672,0.8166666666666667
6.14925479672,0.8222222222222222
6.41217914753,0.8277777777777777
6.41217914753,0.8333333333333334
6.48760314533,0.8388888888888889
6.48760314533,0.8444444444444444
7.09937577713,0.85
7.09937577713,0.8555555555555555
7.73988071342,0.8611111111111112
7.73988071342,0.8666666666666667
7.83474944903,0.8722222222222222
7.83474944903,0.8777777777777778
8.62174342761,0.8833333333333333
8.62174342761,0.8888888888888888
8.67596392283,0.8944444444444445
8.67596392283,0.9
9.36951702526,0.9055555555555556
9.36951702526,0.9111111111111111
9.69418086384,0.9166666666666666
9.69418086384,0.9222222222222223
10.2629711058,0.9277777777777778
10.2629711058,0.9333333333333333
11.2274958461,0.9388888888888889
11.2274958461,0.9444444444444444
11.3070876257,0.95
11.3070876257,0.9555555555555556
11.678369623,0.9611111111111111
11.678369623,0.9666666666666667
12.9108502376,0.9722222222222222
12.9108502376,0.9777777777777777
14.0138061986,0.9833333333333333
14.0138061986,0.9888888888888889
14.5431634198,0.9944444444444445
14.5431634198,1.0
