Congestion,CDF
0.0094056718401,0.005555555555555556
0.0094056718401,0.011111111111111112
0.0100221456854,0.016666666666666666
0.0100221456854,0.022222222222222223
0.0102372807898,0.027777777777777776
0.0102372807898,0.03333333333333333
0.0102661174638,0.03888888888888889
0.0102661174638,0.044444444444444446
0.0103086654961,0.05
0.0103086654961,0.05555555555555555
0.0104664179523,0.06111111111111111
0.0104664179523,0.06666666666666667
0.0105101760598,0.07222222222222222
0.0105101760598,0.07777777777777778
0.010576717591,0.08333333333333333
0.010576717591,0.08888888888888889
0.0106011674255,0.09444444444444444
0.0106011674255,0.1
0.0106908565619,0.10555555555555556
0.0106908565619,0.1111111111111111
0.0107669112968,0.11666666666666667
0.0107669112968,0.12222222222222222
0.0108687740886,0.12777777777777777
0.0108687740886,0.13333333333333333
0.0109663933723,0.1388888888888889
0.0109663933723,0.14444444444444443
0.0109936150101,0.15
0.0109936150101,0.15555555555555556
0.0109998555403,0.16111111111111112
0.0109998555403,0.16666666666666666
0.0110183957415,0.17222222222222222
0.0110183957415,0.17777777777777778
0.0110456622431,0.18333333333333332
0.0110456622431,0.18888888888888888
0.0111075057832,0.19444444444444445
0.0111075057832,0.2
0.0111296124752,0.20555555555555555
0.0111296124752,0.2111111111111111
0.0112161189994,0.21666666666666667
0.0112161189994,0.2222222222222222
0.0113353118436,0.22777777777777777
0.0113353118436,0.23333333333333334
0.0113397195872,0.2388888888888889
0.0113397195872,0.24444444444444444
0.0116441459594,0.25
0.0116441459594,0.25555555555555554
0.0117105375979,0.2611111111111111
0.0117105375979,0.26666666666666666
0.0117768536086,0.2722222222222222
0.0117768536086,0.2777777777777778
0.0118480529922,0.2833333333333333
0.0118480529922,0.28888888888888886
0.0121656293576,0.29444444444444445
0.0121656293576,0.3
0.0128071728176,0.3055555555555556
0.0128071728176,0.3111111111111111
0.0131685052308,0.31666666666666665
0.0131685052308,0.32222222222222224
0.0133165283648,0.3277777777777778
0.0133165283648,0.3333333333333333
0.0133276489886,0.3388888888888889
0.0133276489886,0.34444444444444444
0.0134234075602,0.35
0.0134234075602,0.35555555555555557
0.0134435274042,0.3611111111111111
0.0134435274042,0.36666666666666664
0.0134791965317,0.37222222222222223
0.0134791965317,0.37777777777777777
0.0135535851194,0.38333333333333336
0.0135535851194,0.3888888888888889
0.0137030562281,0.39444444444444443
0.0137030562281,0.4
0.0138102051033,0.40555555555555556
0.0138102051033,0.4111111111111111
0.0140085871138,0.4166666666666667
0.0140085871138,0.4222222222222222
0.0141062976309,0.42777777777777776
0.0141062976309,0.43333333333333335
0.0142659365201,0.4388888888888889
0.0142659365201,0.4444444444444444
0.285563233974,0.45
0.285563233974,0.45555555555555555
0.342891920739,0.46111111111111114
0.342891920739,0.4666666666666667
0.395050520299,0.4722222222222222
0.395050520299,0.4777777777777778
0.398393066031,0.48333333333333334
0.398393066031,0.4888888888888889
0.704091988077,0.49444444444444446
0.704091988077,0.5
0.801815745987,0.5055555555555555
0.801815745987,0.5111111111111111
0.896562626241,0.5166666666666667
0.896562626241,0.5222222222222223
0.902324625275,0.5277777777777778
0.902324625275,0.5333333333333333
1.04858161575,0.5388888888888889
1.04858161575,0.5444444444444444
1.29747122674,0.55
1.29747122674,0.5555555555555556
1.37043604412,0.5611111111111111
1.37043604412,0.5666666666666667
1.38954602377,0.5722222222222222
1.38954602377,0.5777777777777777
1.42609725578,0.5833333333333334
1.42609725578,0.5888888888888889
1.44574179576,0.5944444444444444
1.44574179576,0.6
1.47183845288,0.6055555555555555
1.47183845288,0.6111111111111112
1.4936218735,0.6166666666666667
1.4936218735,0.6222222222222222
1.53799868623,0.6277777777777778
1.53799868623,0.6333333333333333
1.5594548565,0.6388888888888888
1.5594548565,0.6444444444444445
1.62507541608,0.65
1.62507541608,0.6555555555555556
1.65296693357,0.6611111111111111
1.65296693357,0.6666666666666666
1.71455375844,0.6722222222222223
1.71455375844,0.6777777777777778
1.77416803041,0.6833333333333333
1.77416803041,0.6888888888888889
1.79298194343,0.6944444444444444
1.79298194343,0.7
1.89845508322,0.7055555555555556
1.89845508322,0.7111111111111111
1.91742474204,0.7166666666666667
1.91742474204,0.7222222222222222
2.08499182187,0.7277777777777777
2.08499182187,0.7333333333333333
2.32524368211,0.7388888888888889
2.32524368211,0.7444444444444445
2.81101945199,0.75
2.81101945199,0.7555555555555555
2.82099530824,0.7611111111111111
2.82099530824,0.7666666666666667
2.97461331146,0.7722222222222223
2.97461331146,0.7777777777777778
3.03242704194,0.7833333333333333
3.03242704194,0.7888888888888889
3.16713051405,0.7944444444444444
3.16713051405,0.8
3.23966416711,0.8055555555555556
3.23966416711,0.8111111111111111
3.48493363331,0.8166666666666667
3.48493363331,0.8222222222222222
3.52200715204,0.8277777777777777
3.52200715204,0.8333333333333334
3.6130489334,0.8388888888888889
3.6130489334,0.8444444444444444
4.0127160329,0.85
4.0127160329,0.8555555555555555
4.15989122595,0.8611111111111112
4.15989122595,0.8666666666666667
4.58298241725,0.8722222222222222
4.58298241725,0.8777777777777778
4.97373091826,0.8833333333333333
4.97373091826,0.8888888888888888
5.05982504837,0.8944444444444445
5.05982504837,0.9
5.44236438071,0.9055555555555556
5.44236438071,0.9111111111111111
5.47373150965,0.9166666666666666
5.47373150965,0.9222222222222223
6.05176572729,0.9277777777777778
6.05176572729,0.9333333333333333
6.3606604779,0.9388888888888889
6.3606604779,0.9444444444444444
6.5155572692,0.95
6.5155572692,0.9555555555555556
6.53450208108,0.9611111111111111
6.53450208108,0.9666666666666667
7.73186594519,0.9722222222222222
7.73186594519,0.9777777777777777
8.39888571821,0.9833333333333333
8.39888571821,0.9888888888888889
8.59499867907,0.9944444444444445
8.59499867907,1.0
