Congestion,CDF
0.031568743139,0.005555555555555556
0.031568743139,0.011111111111111112
0.0316295758486,0.016666666666666666
0.0316295758486,0.022222222222222223
0.0317950483386,0.027777777777777776
0.0317950483386,0.03333333333333333
0.0320281723988,0.03888888888888889
0.0320281723988,0.044444444444444446
0.032065827739,0.05
0.032065827739,0.05555555555555555
0.0322971359957,0.06111111111111111
0.0322971359957,0.06666666666666667
0.0323040529155,0.07222222222222222
0.0323040529155,0.07777777777777778
0.0329761630569,0.08333333333333333
0.0329761630569,0.08888888888888889
0.0336156478361,0.09444444444444444
0.0336156478361,0.1
0.0340410333621,0.10555555555555556
0.0340410333621,0.1111111111111111
0.03407472179,0.11666666666666667
0.03407472179,0.12222222222222222
0.0341114160741,0.12777777777777777
0.0341114160741,0.13333333333333333
0.0342071586767,0.1388888888888889
0.0342071586767,0.14444444444444443
0.0342097047089,0.15
0.0342097047089,0.15555555555555556
0.0345260915791,0.16111111111111112
0.0345260915791,0.16666666666666666
0.0348205027095,0.17222222222222222
0.0348205027095,0.17777777777777778
0.0351718953362,0.18333333333333332
0.0351718953362,0.18888888888888888
0.0352093268849,0.19444444444444445
0.0352093268849,0.2
0.0352713728017,0.20555555555555555
0.0352713728017,0.2111111111111111
0.035343907457,0.21666666666666667
0.035343907457,0.2222222222222222
0.0353898772888,0.22777777777777777
0.0353898772888,0.23333333333333334
0.0354851127083,0.2388888888888889
0.0354851127083,0.24444444444444444
0.0355136083159,0.25
0.0355136083159,0.25555555555555554
0.0357505073413,0.2611111111111111
0.0357505073413,0.26666666666666666
0.0360228272029,0.2722222222222222
0.0360228272029,0.2777777777777778
0.0364939395552,0.2833333333333333
0.0364939395552,0.28888888888888886
0.036828181128,0.29444444444444445
0.036828181128,0.3
0.0368743360614,0.3055555555555556
0.0368743360614,0.3111111111111111
0.0369415831569,0.31666666666666665
0.0369415831569,0.32222222222222224
0.0369735848481,0.3277777777777778
0.0369735848481,0.3333333333333333
0.0369773264056,0.3388888888888889
0.0369773264056,0.34444444444444444
0.0370477957663,0.35
0.0370477957663,0.35555555555555557
0.0374500839494,0.3611111111111111
0.0374500839494,0.36666666666666664
0.0375481456445,0.37222222222222223
0.0375481456445,0.37777777777777777
0.037760854422,0.38333333333333336
0.037760854422,0.3888888888888889
0.0378314776637,0.39444444444444443
0.0378314776637,0.4
0.037880169596,0.40555555555555556
0.037880169596,0.4111111111111111
0.038037668522,0.4166666666666667
0.038037668522,0.4222222222222222
0.0383421447837,0.42777777777777776
0.0383421447837,0.43333333333333335
0.0388936508148,0.4388888888888889
0.0388936508148,0.4444444444444444
0.990579561868,0.45
0.990579561868,0.45555555555555555
1.13112730278,0.46111111111111114
1.13112730278,0.4666666666666667
1.18049101481,0.4722222222222222
1.18049101481,0.4777777777777778
1.27343967353,0.48333333333333334
1.27343967353,0.4888888888888889
2.03732447192,0.49444444444444446
2.03732447192,0.5
2.54126876745,0.5055555555555555
2.54126876745,0.5111111111111111
3.00909172313,0.5166666666666667
3.00909172313,0.5222222222222223
3.09253436674,0.5277777777777778
3.09253436674,0.5333333333333333
3.80583696023,0.5388888888888889
3.80583696023,0.5444444444444444
4.0841333383,0.55
4.0841333383,0.5555555555555556
4.24839240267,0.5611111111111111
4.24839240267,0.5666666666666667
4.27547719046,0.5722222222222222
4.27547719046,0.5777777777777777
4.34948779479,0.5833333333333334
4.34948779479,0.5888888888888889
4.37688881905,0.5944444444444444
4.37688881905,0.6
4.44610133112,0.6055555555555555
4.44610133112,0.6111111111111112
4.78756783304,0.6166666666666667
4.78756783304,0.6222222222222222
4.80390019452,0.6277777777777778
4.80390019452,0.6333333333333333
4.95967993182,0.6388888888888888
4.95967993182,0.6444444444444445
5.00983518027,0.65
5.00983518027,0.6555555555555556
5.23801435122,0.6611111111111111
5.23801435122,0.6666666666666666
5.41057318912,0.6722222222222223
5.41057318912,0.6777777777777778
5.47458342778,0.6833333333333333
5.47458342778,0.6888888888888889
5.59628194125,0.6944444444444444
5.59628194125,0.7
5.61672551802,0.7055555555555556
5.61672551802,0.7111111111111111
6.03505115535,0.7166666666666667
6.03505115535,0.7222222222222222
6.3352400682,0.7277777777777777
6.3352400682,0.7333333333333333
6.46549471737,0.7388888888888889
6.46549471737,0.7444444444444445
7.71045613614,0.75
7.71045613614,0.7555555555555555
7.9220660509,0.7611111111111111
7.9220660509,0.7666666666666667
7.99808696149,0.7722222222222223
7.99808696149,0.7777777777777778
8.35673405025,0.7833333333333333
8.35673405025,0.7888888888888889
8.6897463612,0.7944444444444444
8.6897463612,0.8
8.74382927728,0.8055555555555556
8.74382927728,0.8111111111111111
9.22692958999,0.8166666666666667
9.22692958999,0.8222222222222222
9.72700681202,0.8277777777777777
9.72700681202,0.8333333333333334
9.97207178519,0.8388888888888889
9.97207178519,0.8444444444444444
10.660030558,0.85
10.660030558,0.8555555555555555
11.6316850379,0.8611111111111112
11.6316850379,0.8666666666666667
12.0005407716,0.8722222222222222
12.0005407716,0.8777777777777778
12.8517717328,0.8833333333333333
12.8517717328,0.8888888888888888
13.0013858833,0.8944444444444445
13.0013858833,0.9
14.0631112708,0.9055555555555556
14.0631112708,0.9111111111111111
14.708874849,0.9166666666666666
14.708874849,0.9222222222222223
15.3297523595,0.9277777777777778
15.3297523595,0.9333333333333333
16.8277554299,0.9388888888888889
16.8277554299,0.9444444444444444
17.130398953,0.95
17.130398953,0.9555555555555556
17.7346513604,0.9611111111111111
17.7346513604,0.9666666666666667
18.9043981908,0.9722222222222222
18.9043981908,0.9777777777777777
20.5345559697,0.9833333333333333
20.5345559697,0.9888888888888889
21.4600790524,0.9944444444444445
21.4600790524,1.0
