Congestion,CDF
0.0326118391914,0.005555555555555556
0.0326118391914,0.011111111111111112
0.0326343061105,0.016666666666666666
0.0326343061105,0.022222222222222223
0.0327992118092,0.027777777777777776
0.0327992118092,0.03333333333333333
0.0330782240155,0.03888888888888889
0.0330782240155,0.044444444444444446
0.0331311175388,0.05
0.0331311175388,0.05555555555555555
0.0333119540226,0.06111111111111111
0.0333119540226,0.06666666666666667
0.0334081506767,0.07222222222222222
0.0334081506767,0.07777777777777778
0.0340496263951,0.08333333333333333
0.0340496263951,0.08888888888888889
0.0348064122065,0.09444444444444444
0.0348064122065,0.1
0.0352045827383,0.10555555555555556
0.0352045827383,0.1111111111111111
0.0352568370045,0.11666666666666667
0.0352568370045,0.12222222222222222
0.0353229697576,0.12777777777777777
0.0353229697576,0.13333333333333333
0.0353489198116,0.1388888888888889
0.0353489198116,0.14444444444444443
0.0354341629094,0.15
0.0354341629094,0.15555555555555556
0.0356451636801,0.16111111111111112
0.0356451636801,0.16666666666666666
0.0360131201441,0.17222222222222222
0.0360131201441,0.17777777777777778
0.0363229628149,0.18333333333333332
0.0363229628149,0.18888888888888888
0.0363923411502,0.19444444444444445
0.0363923411502,0.2
0.0364124962903,0.20555555555555555
0.0364124962903,0.2111111111111111
0.0364996366031,0.21666666666666667
0.0364996366031,0.2222222222222222
0.0366221381407,0.22777777777777777
0.0366221381407,0.23333333333333334
0.0366676146037,0.2388888888888889
0.0366676146037,0.24444444444444444
0.0366871612628,0.25
0.0366871612628,0.25555555555555554
0.0369123733974,0.2611111111111111
0.0369123733974,0.26666666666666666
0.0372077352557,0.2722222222222222
0.0372077352557,0.2777777777777778
0.0376758561949,0.2833333333333333
0.0376758561949,0.28888888888888886
0.0379506190701,0.29444444444444445
0.0379506190701,0.3
0.0380136358591,0.3055555555555556
0.0380136358591,0.3111111111111111
0.038083640976,0.31666666666666665
0.038083640976,0.32222222222222224
0.038091082699,0.3277777777777778
0.038091082699,0.3333333333333333
0.0381099216868,0.3388888888888889
0.0381099216868,0.34444444444444444
0.0381833253117,0.35
0.0381833253117,0.35555555555555557
0.0385574491094,0.3611111111111111
0.0385574491094,0.36666666666666664
0.0386921609239,0.37222222222222223
0.0386921609239,0.37777777777777777
0.0388713820641,0.38333333333333336
0.0388713820641,0.3888888888888889
0.0389577423754,0.39444444444444443
0.0389577423754,0.4
0.0390017004087,0.40555555555555556
0.0390017004087,0.4111111111111111
0.0392298291249,0.4166666666666667
0.0392298291249,0.4222222222222222
0.0395225639906,0.42777777777777776
0.0395225639906,0.43333333333333335
0.0400734454723,0.4388888888888889
0.0400734454723,0.4444444444444444
1.02512835731,0.45
1.02512835731,0.45555555555555555
1.16568105882,0.46111111111111114
1.16568105882,0.4666666666666667
1.23274932013,0.4722222222222222
1.23274932013,0.4777777777777778
1.32650557059,0.48333333333333334
1.32650557059,0.4888888888888889
2.10690251632,0.49444444444444446
2.10690251632,0.5
2.64346795412,0.5055555555555555
2.64346795412,0.5111111111111111
3.10626086491,0.5166666666666667
3.10626086491,0.5222222222222223
3.19185503254,0.5277777777777778
3.19185503254,0.5333333333333333
3.93476563092,0.5388888888888889
3.93476563092,0.5444444444444444
4.21161472353,0.55
4.21161472353,0.5555555555555556
4.38050486267,0.5611111111111111
4.38050486267,0.5666666666666667
4.40693266711,0.5722222222222222
4.40693266711,0.5777777777777777
4.48483991733,0.5833333333333334
4.48483991733,0.5888888888888889
4.51853297871,0.5944444444444444
4.51853297871,0.6
4.59398402235,0.6055555555555555
4.59398402235,0.6111111111111112
4.94670950075,0.6166666666666667
4.94670950075,0.6222222222222222
4.95983273339,0.6277777777777778
4.95983273339,0.6333333333333333
5.11211721779,0.6388888888888888
5.11211721779,0.6444444444444445
5.17338812585,0.65
5.17338812585,0.6555555555555556
5.39769008252,0.6611111111111111
5.39769008252,0.6666666666666666
5.58022655522,0.6722222222222223
5.58022655522,0.6777777777777778
5.6556236691,0.6833333333333333
5.6556236691,0.6888888888888889
5.7774992561,0.6944444444444444
5.7774992561,0.7
5.78424043355,0.7055555555555556
5.78424043355,0.7111111111111111
6.21601646376,0.7166666666666667
6.21601646376,0.7222222222222222
6.53819584174,0.7277777777777777
6.53819584174,0.7333333333333333
6.65551169575,0.7388888888888889
6.65551169575,0.7444444444444445
7.93223346525,0.75
7.93223346525,0.7555555555555555
8.14687210641,0.7611111111111111
8.14687210641,0.7666666666666667
8.22755578237,0.7722222222222223
8.22755578237,0.7777777777777778
8.59247563387,0.7833333333333333
8.59247563387,0.7888888888888889
8.94883014767,0.7944444444444444
8.94883014767,0.8
9.00699184967,0.8055555555555556
9.00699184967,0.8111111111111111
9.48765538678,0.8166666666666667
9.48765538678,0.8222222222222222
10.0048703935,0.8277777777777777
10.0048703935,0.8333333333333334
10.2612935987,0.8388888888888889
10.2612935987,0.8444444444444444
10.9623936588,0.85
10.9623936588,0.8555555555555555
11.9538461513,0.8611111111111112
11.9538461513,0.8666666666666667
12.3610155654,0.8722222222222222
12.3610155654,0.8777777777777778
13.2087458086,0.8833333333333333
13.2087458086,0.8888888888888888
13.3673205922,0.8944444444444445
13.3673205922,0.9
14.4520781226,0.9055555555555556
14.4520781226,0.9111111111111111
15.126065335,0.9166666666666666
15.126065335,0.9222222222222223
15.7489373099,0.9277777777777778
15.7489373099,0.9333333333333333
17.2944534774,0.9388888888888889
17.2944534774,0.9444444444444444
17.6160690946,0.95
17.6160690946,0.9555555555555556
18.2368072633,0.9611111111111111
18.2368072633,0.9666666666666667
19.4228212598,0.9722222222222222
19.4228212598,0.9777777777777777
21.0957016828,0.9833333333333333
21.0957016828,0.9888888888888889
22.0516362321,0.9944444444444445
22.0516362321,1.0
