Congestion,CDF
0.0231867119108,0.005555555555555556
0.0231867119108,0.011111111111111112
0.0233168413221,0.016666666666666666
0.0233168413221,0.022222222222222223
0.0233246020343,0.027777777777777776
0.0233246020343,0.03333333333333333
0.023401608414,0.03888888888888889
0.023401608414,0.044444444444444446
0.0234221696549,0.05
0.0234221696549,0.05555555555555555
0.0236362915366,0.06111111111111111
0.0236362915366,0.06666666666666667
0.0238960814452,0.07222222222222222
0.0238960814452,0.07777777777777778
0.0239770857032,0.08333333333333333
0.0239770857032,0.08888888888888889
0.0244423762952,0.09444444444444444
0.0244423762952,0.1
0.0246039134036,0.10555555555555556
0.0246039134036,0.1111111111111111
0.0246613328779,0.11666666666666667
0.0246613328779,0.12222222222222222
0.0247178867896,0.12777777777777777
0.0247178867896,0.13333333333333333
0.0247981728723,0.1388888888888889
0.0247981728723,0.14444444444444443
0.0249896747863,0.15
0.0249896747863,0.15555555555555556
0.025218317373,0.16111111111111112
0.025218317373,0.16666666666666666
0.0252652504204,0.17222222222222222
0.0252652504204,0.17777777777777778
0.0253868891586,0.18333333333333332
0.0253868891586,0.18888888888888888
0.0254503550553,0.19444444444444445
0.0254503550553,0.2
0.0256184245721,0.20555555555555555
0.0256184245721,0.2111111111111111
0.0257186946215,0.21666666666666667
0.0257186946215,0.2222222222222222
0.0258312725831,0.22777777777777777
0.0258312725831,0.23333333333333334
0.025868692592,0.2388888888888889
0.025868692592,0.24444444444444444
0.0258784661835,0.25
0.0258784661835,0.25555555555555554
0.0259516666913,0.2611111111111111
0.0259516666913,0.26666666666666666
0.0263457400025,0.2722222222222222
0.0263457400025,0.2777777777777778
0.026913990321,0.2833333333333333
0.026913990321,0.28888888888888886
0.0273348799328,0.29444444444444445
0.0273348799328,0.3
0.0274883936437,0.3055555555555556
0.0274883936437,0.3111111111111111
0.0275740811992,0.31666666666666665
0.0275740811992,0.32222222222222224
0.0275784532211,0.3277777777777778
0.0275784532211,0.3333333333333333
0.0276186612342,0.3388888888888889
0.0276186612342,0.34444444444444444
0.0276508460773,0.35
0.0276508460773,0.35555555555555557
0.0278324361109,0.3611111111111111
0.0278324361109,0.36666666666666664
0.0282770734462,0.37222222222222223
0.0282770734462,0.37777777777777777
0.0283582794674,0.38333333333333336
0.0283582794674,0.3888888888888889
0.0283720610262,0.39444444444444443
0.0283720610262,0.4
0.0283989159074,0.40555555555555556
0.0283989159074,0.4111111111111111
0.0284950422107,0.4166666666666667
0.0284950422107,0.4222222222222222
0.0288181079362,0.42777777777777776
0.0288181079362,0.43333333333333335
0.0293283911224,0.4388888888888889
0.0293283911224,0.4444444444444444
0.699306200429,0.45
0.699306200429,0.45555555555555555
0.810256195446,0.46111111111111114
0.810256195446,0.4666666666666667
0.842135436994,0.4722222222222222
0.842135436994,0.4777777777777778
0.870510129214,0.48333333333333334
0.870510129214,0.4888888888888889
1.46500545932,0.49444444444444446
1.46500545932,0.5
1.7871863521,0.5055555555555555
1.7871863521,0.5111111111111111
2.20412564745,0.5166666666666667
2.20412564745,0.5222222222222223
2.26591479705,0.5277777777777778
2.26591479705,0.5333333333333333
2.74681973106,0.5388888888888889
2.74681973106,0.5444444444444444
3.0392303892,0.55
3.0392303892,0.5555555555555556
3.16606063973,0.5611111111111111
3.16606063973,0.5666666666666667
3.16608869597,0.5722222222222222
3.16608869597,0.5777777777777777
3.20708258971,0.5833333333333334
3.20708258971,0.5888888888888889
3.23189752055,0.5944444444444444
3.23189752055,0.6
3.29007348268,0.6055555555555555
3.29007348268,0.6111111111111112
3.48099134676,0.6166666666666667
3.48099134676,0.6222222222222222
3.52320589726,0.6277777777777778
3.52320589726,0.6333333333333333
3.64389606901,0.6388888888888888
3.64389606901,0.6444444444444445
3.68202574975,0.65
3.68202574975,0.6555555555555556
3.89955245633,0.6611111111111111
3.89955245633,0.6666666666666666
3.97527202674,0.6722222222222223
3.97527202674,0.6777777777777778
4.02337652763,0.6833333333333333
4.02337652763,0.6888888888888889
4.08435898921,0.6944444444444444
4.08435898921,0.7
4.21166501507,0.7055555555555556
4.21166501507,0.7111111111111111
4.50293964251,0.7166666666666667
4.50293964251,0.7222222222222222
4.63626538921,0.7277777777777777
4.63626538921,0.7333333333333333
4.86403640589,0.7388888888888889
4.86403640589,0.7444444444444445
5.82569382819,0.75
5.82569382819,0.7555555555555555
6.01189828484,0.7611111111111111
6.01189828484,0.7666666666666667
6.04627030488,0.7722222222222223
6.04627030488,0.7777777777777778
6.35371959178,0.7833333333333333
6.35371959178,0.7888888888888889
6.48413772138,0.7944444444444444
6.48413772138,0.8
6.50505248468,0.8055555555555556
6.50505248468,0.8111111111111111
7.00932614486,0.8166666666666667
7.00932614486,0.8222222222222222
7.36345627822,0.8277777777777777
7.36345627822,0.8333333333333334
7.50312507648,0.8388888888888889
7.50312507648,0.8444444444444444
8.08331410533,0.85
8.08331410533,0.8555555555555555
8.89052328206,0.8611111111111112
8.89052328206,0.8666666666666667
8.93919806244,0.8722222222222222
8.93919806244,0.8777777777777778
9.83872584337,0.8833333333333333
9.83872584337,0.8888888888888888
9.90686030513,0.8944444444444445
9.90686030513,0.9
10.7812520448,0.9055555555555556
10.7812520448,0.9111111111111111
11.1794780847,0.9166666666666666
11.1794780847,0.9222222222222223
11.7895891741,0.9277777777777778
11.7895891741,0.9333333333333333
12.8815383525,0.9388888888888889
12.8815383525,0.9444444444444444
13.0154625717,0.95
13.0154625717,0.9555555555555556
13.479497647,0.9611111111111111
13.479497647,0.9666666666666667
14.5208005535,0.9722222222222222
14.5208005535,0.9777777777777777
15.7855766762,0.9833333333333333
15.7855766762,0.9888888888888889
16.4495589546,0.9944444444444445
16.4495589546,1.0
