Congestion,CDF
0.0,0.007352941176470588
0.0,0.014705882352941176
0.0,0.022058823529411766
0.0,0.029411764705882353
0.0,0.03676470588235294
0.0,0.04411764705882353
0.0,0.051470588235294115
0.0,0.058823529411764705
0.0,0.0661764705882353
0.0,0.07352941176470588
0.0,0.08088235294117647
0.0,0.08823529411764706
0.0,0.09558823529411764
0.0,0.10294117647058823
1.89114819022e-06,0.11029411764705882
1.89114819022e-06,0.11764705882352941
1.89114819022e-06,0.125
1.89114819022e-06,0.1323529411764706
1.89114819022e-06,0.13970588235294118
1.89114819022e-06,0.14705882352941177
1.89114819022e-06,0.15441176470588236
1.89114819022e-06,0.16176470588235295
1.89114819022e-06,0.16911764705882354
1.89114819022e-06,0.17647058823529413
1.89114819022e-06,0.18382352941176472
1.89114819022e-06,0.19117647058823528
1.89114819022e-06,0.19852941176470587
1.89114819022e-06,0.20588235294117646
1.89114819022e-06,0.21323529411764705
1.89114819022e-06,0.22058823529411764
1.89114819022e-06,0.22794117647058823
1.89114819022e-06,0.23529411764705882
1.89114819022e-06,0.2426470588235294
1.89114819022e-06,0.25
1.89114819022e-06,0.25735294117647056
1.89114819022e-06,0.2647058823529412
1.89114819022e-06,0.27205882352941174
1.89114819022e-06,0.27941176470588236
1.89114819022e-06,0.2867647058823529
1.89114819022e-06,0.29411764705882354
1.89114819022e-06,0.3014705882352941
4.72787047556e-05,0.3088235294117647
4.72787047556e-05,0.3161764705882353
5.10610011361e-05,0.3235294117647059
9.45574095112e-05,0.33088235294117646
9.45574095112e-05,0.3382352941176471
9.45574095112e-05,0.34558823529411764
9.45574095112e-05,0.35294117647058826
0.000141836114267,0.3602941176470588
0.000157595682519,0.36764705882352944
0.000157595682519,0.375
0.000157595682519,0.38235294117647056
0.000189114819022,0.3897058823529412
0.000189114819022,0.39705882352941174
0.000189114819022,0.40441176470588236
0.000189114819022,0.4117647058823529
0.000189114819022,0.41911764705882354
0.000189114819022,0.4264705882352941
0.000189114819022,0.4338235294117647
0.000236393523778,0.4411764705882353
0.000283672228534,0.4485294117647059
0.000283672228534,0.45588235294117646
0.000346710501541,0.4632352941176471
0.000378229638045,0.47058823529411764
0.000378229638045,0.47794117647058826
0.000567344457067,0.4852941176470588
0.000772218844342,0.49264705882352944
0.00137108243791,0.5
0.00140260157442,0.5073529411764706
0.00181235034897,0.5147058823529411
0.00225361826002,0.5220588235294118
0.00228513739652,0.5294117647058824
0.00244273307904,0.5367647058823529
0.00247425221554,0.5441176470588235
0.00266336703457,0.5514705882352942
0.0156273987702,0.5588235294117647
0.0157505800738,0.5661764705882353
0.0169592398121,0.5735294117647058
0.0169827182704,0.5808823529411765
0.0169876515716,0.5882352941176471
0.0170052418839,0.5955882352941176
0.0170081877794,0.6029411764705882
0.0170395345362,0.6102941176470589
0.0170964541021,0.6176470588235294
0.0171012056904,0.625
0.0171128879055,0.6323529411764706
0.0171143272303,0.6397058823529411
0.0171152119665,0.6470588235294118
0.0171158034327,0.6544117647058824
0.017117140863,0.6617647058823529
0.0171173214953,0.6691176470588235
0.0171175779498,0.6764705882352942
0.0171189344045,0.6838235294117647
0.0171208093624,0.6911764705882353
0.0171272923371,0.6985294117647058
0.0171294801798,0.7058823529411765
0.0171294849372,0.7132352941176471
0.0171295773122,0.7205882352941176
0.0171295793953,0.7279411764705882
0.0171297603934,0.7352941176470589
0.0171297617823,0.7426470588235294
0.0171297617823,0.75
0.427895085819,0.7573529411764706
0.427973360113,0.7647058823529411
0.45864292522,0.7720588235294118
0.851976726808,0.7794117647058824
0.851976726808,0.7867647058823529
0.856040468119,0.7941176470588235
0.856040468119,0.8014705882352942
1.28368525746,0.8088235294117647
1.42637551148,0.8161764705882353
1.42637551148,0.8235294117647058
1.42637551148,0.8308823529411765
1.70081877794,0.8382352941176471
1.71173214953,0.8455882352941176
1.71189344045,0.8529411764705882
1.71294849372,0.8602941176470589
1.71295793953,0.8676470588235294
1.71297617823,0.875
1.71297617823,0.8823529411764706
2.1396528808,0.8897058823529411
2.55024855384,0.8970588235294118
2.56747319114,0.9044117647058824
3.13649608052,0.9117647058823529
3.40134296633,0.9191176470588235
3.42591567076,0.9264705882352942
5.1389283958,0.9338235294117647
6.9894746281,0.9411764705882353
12.4187139384,0.9485294117647058
12.6875928456,0.9558823529411765
16.4138591517,0.9632352941176471
20.335108347,0.9705882352941176
20.6926211334,0.9779411764705882
21.8978482241,0.9852941176470589
22.3913862905,0.9926470588235294
23.9664442979,1.0
