Congestion,CDF
0.0,0.005555555555555556
0.0,0.011111111111111112
0.0,0.016666666666666666
0.0,0.022222222222222223
0.0,0.027777777777777776
0.0,0.03333333333333333
0.0,0.03888888888888889
0.0,0.044444444444444446
0.0,0.05
0.0,0.05555555555555555
6.63333919831e-07,0.06111111111111111
7.62138772118e-07,0.06666666666666667
1.71551123034e-06,0.07222222222222222
2.50731945431e-06,0.07777777777777778
2.5656048171e-06,0.08333333333333333
3.38748155468e-06,0.08888888888888889
3.72667805191e-06,0.09444444444444444
5.13621215912e-06,0.1
5.16271013464e-06,0.10555555555555556
5.28193708116e-06,0.1111111111111111
5.3906454067e-06,0.11666666666666667
5.93399929877e-06,0.12222222222222222
6.07163698905e-06,0.12777777777777777
6.7801598526e-06,0.13333333333333333
6.94424582338e-06,0.1388888888888889
7.31237930489e-06,0.14444444444444443
8.45540389195e-06,0.15
9.25365559579e-06,0.15555555555555556
9.6626803743e-06,0.16111111111111112
1.00495849256e-05,0.16666666666666666
1.02085899916e-05,0.17222222222222222
1.02905784884e-05,0.17777777777777778
1.06315200327e-05,0.18333333333333332
1.10009450898e-05,0.18888888888888888
1.11866457456e-05,0.19444444444444445
1.13129787061e-05,0.2
1.13757431662e-05,0.20555555555555555
1.15063752168e-05,0.2111111111111111
1.16188133193e-05,0.21666666666666667
1.16443095829e-05,0.2222222222222222
1.20333758776e-05,0.22777777777777777
1.21337688137e-05,0.23333333333333334
1.2273056926e-05,0.2388888888888889
1.32910623729e-05,0.24444444444444444
1.3985673126e-05,0.25
1.51843730074e-05,0.25555555555555554
1.54249270601e-05,0.2611111111111111
1.5646902942e-05,0.26666666666666666
1.61767843095e-05,0.2722222222222222
5.71837076779e-05,0.2777777777777778
7.89486752834e-05,0.2833333333333333
0.000114367415356,0.28888888888888886
0.000125365972716,0.29444444444444445
0.000125365972716,0.3
0.000129067753366,0.3055555555555556
0.000129067753366,0.3111111111111111
0.000195401145349,0.31666666666666665
0.00025656048171,0.32222222222222224
0.000258135506732,0.3277777777777778
0.000343689742413,0.3333333333333333
0.000490595998576,0.3388888888888889
0.000513621215912,0.34444444444444444
0.000534149300817,0.35
0.000565648935307,0.35555555555555557
0.000565648935307,0.3611111111111111
0.000722467683243,0.36666666666666664
0.00110009450898,0.37222222222222223
0.00111866457456,0.37777777777777777
0.00115442382155,0.38333333333333336
0.00124366492057,0.3888888888888889
0.00131580889931,0.39444444444444443
0.00131580889931,0.4
0.00150041733825,0.40555555555555556
0.001585666719,0.4111111111111111
0.0017050169505,0.4166666666666667
0.00182282580093,0.4222222222222222
0.00218325794533,0.42777777777777776
0.00226452546727,0.43333333333333335
0.00239430244225,0.4388888888888889
0.00245671099444,0.4444444444444444
0.00246695063343,0.45
0.00251914648707,0.45555555555555555
0.00256570396923,0.46111111111111114
0.00262885055226,0.4666666666666667
0.00265371989562,0.4722222222222222
0.00273888786362,0.4777777777777778
0.00292002412588,0.48333333333333334
0.00292277609231,0.4888888888888889
0.0029463865823,0.49444444444444446
0.00295754677833,0.5
0.00300267092699,0.5055555555555555
0.00309024707768,0.5111111111111111
0.00309703972703,0.5166666666666667
0.00310731493828,0.5222222222222223
0.00314220635349,0.5277777777777778
0.00322511974528,0.5333333333333333
0.00334653300404,0.5388888888888889
0.00338889490377,0.5444444444444444
0.0034155503163,0.55
0.00342893010538,0.5555555555555556
0.00344057610343,0.5611111111111111
0.00348925452525,0.5666666666666667
0.00352743275584,0.5722222222222222
0.00354231485609,0.5777777777777777
0.00354675644737,0.5833333333333334
0.00355980175674,0.5888888888888889
0.0035663389849,0.5944444444444444
0.00357980001016,0.6
0.00359407387837,0.6055555555555555
0.0036344645692,0.6111111111111112
0.0036361042677,0.6166666666666667
0.00365928348723,0.6222222222222222
0.00376469492319,0.6277777777777778
0.00380699318207,0.6333333333333333
0.00383629884877,0.6388888888888888
0.00396082801748,0.6444444444444445
0.00398567228613,0.65
0.00400876770517,0.6555555555555556
0.00406297627577,0.6611111111111111
0.00470096306491,0.6666666666666666
0.00532543048281,0.6722222222222223
0.00947464164922,0.6777777777777778
0.0115267510983,0.6833333333333333
0.0120652668608,0.6888888888888889
0.0131444295293,0.6944444444444444
0.0134638341734,0.7
0.0141652885285,0.7055555555555556
0.0143204380766,0.7111111111111111
0.0151659784658,0.7166666666666667
0.0163793553472,0.7222222222222222
0.0164815936819,0.7277777777777777
0.0167520231523,0.7333333333333333
0.01700978739,0.7388888888888889
0.017616951089,0.7444444444444445
0.0730694023078,0.75
0.0730694023078,0.7555555555555555
0.0855234656411,0.7611111111111111
0.121917162909,0.7666666666666667
0.131442527613,0.7722222222222223
0.131442527613,0.7777777777777778
0.146138804616,0.7833333333333333
0.171046931282,0.7888888888888889
0.177990087837,0.7944444444444444
0.177990087837,0.8
0.265371989562,0.8055555555555556
0.292002412588,0.8111111111111111
0.318740501752,0.8166666666666667
0.352743275584,0.8222222222222222
0.354675644737,0.8277777777777777
0.373336495007,0.8333333333333334
0.472997559243,0.8388888888888889
0.487014795605,0.8444444444444444
0.514397000121,0.85
0.514397000121,0.8555555555555555
0.547015575133,0.8611111111111112
0.592629288114,0.8666666666666667
0.641841481882,0.8722222222222222
0.712150663422,0.8777777777777778
0.793513261052,0.8833333333333333
0.844994796621,0.8888888888888888
0.877843457042,0.8944444444444445
0.931518778491,0.9
1.55460532452,0.9055555555555556
1.5814445543,0.9111111111111111
1.76743962764,0.9166666666666666
1.84924398275,0.9222222222222223
2.16352242939,0.9277777777777778
3.78732243554,0.9333333333333333
4.11923511804,0.9388888888888889
4.52553274562,0.9444444444444444
4.77205692796,0.95
4.86959035596,0.9555555555555556
5.15568681284,0.9611111111111111
5.6013499758,0.9666666666666667
5.69681940081,0.9722222222222222
5.91514519535,0.9777777777777777
5.92386195033,0.9833333333333333
5.9642047952,0.9888888888888889
6.21961662816,0.9944444444444445
6.22751149569,1.0
