Congestion,CDF
0.0,0.005555555555555556
0.0,0.011111111111111112
0.0,0.016666666666666666
0.0,0.022222222222222223
0.0,0.027777777777777776
0.0,0.03333333333333333
0.0,0.03888888888888889
0.0,0.044444444444444446
0.0,0.05
0.0,0.05555555555555555
3.72905615012e-07,0.06111111111111111
4.28450617471e-07,0.06666666666666667
9.64406841386e-07,0.07222222222222222
1.40953669817e-06,0.07777777777777778
1.44230290898e-06,0.08333333333333333
1.90433634513e-06,0.08888888888888889
2.09502202338e-06,0.09444444444444444
2.88741808125e-06,0.1
2.90231441561e-06,0.10555555555555556
2.9693400817e-06,0.1111111111111111
3.03045250756e-06,0.11666666666666667
3.33590909772e-06,0.12222222222222222
3.41328470902e-06,0.12777777777777777
3.81159413702e-06,0.13333333333333333
3.90383814568e-06,0.1388888888888889
4.11079129285e-06,0.14444444444444443
4.7533640211e-06,0.15
5.20211620105e-06,0.15555555555555556
5.43205715843e-06,0.16111111111111112
5.64956281485e-06,0.16666666666666666
5.73895049753e-06,0.17222222222222222
5.78504187004e-06,0.17777777777777778
5.97670855927e-06,0.18333333333333332
6.18438778989e-06,0.18888888888888888
6.28878289951e-06,0.19444444444444445
6.35980334475e-06,0.2
6.39508756417e-06,0.20555555555555555
6.46852482365e-06,0.2111111111111111
6.53173401359e-06,0.21666666666666667
6.54606721679e-06,0.2222222222222222
6.76478813785e-06,0.22777777777777777
6.82122591145e-06,0.23333333333333334
6.89952933846e-06,0.2388888888888889
7.47182021024e-06,0.24444444444444444
7.86230868419e-06,0.25
8.53618032428e-06,0.25555555555555554
8.67141230064e-06,0.2611111111111111
8.79620020957e-06,0.26666666666666666
9.09408296715e-06,0.2722222222222222
3.21468947129e-05,0.2777777777777778
6.42937894258e-05,0.2833333333333333
6.72738417586e-05,0.28888888888888886
7.04768349085e-05,0.29444444444444445
7.04768349085e-05,0.3
7.25578603902e-05,0.3055555555555556
7.25578603902e-05,0.3111111111111111
0.000109848421891,0.31666666666666665
0.000144230290898,0.32222222222222224
0.00014511572078,0.3277777777777778
0.000193211640376,0.3333333333333333
0.000288741808125,0.3388888888888889
0.000300282056404,0.34444444444444444
0.000317990167238,0.35
0.000317990167238,0.35555555555555557
0.000406148770162,0.3611111111111111
0.000618438778989,0.36666666666666664
0.000628878289951,0.37222222222222223
0.000648981021913,0.37777777777777777
0.00069914958094,0.38333333333333336
0.000739706672866,0.3888888888888889
0.000739706672866,0.39444444444444443
0.00074975685343,0.4
0.000843487772247,0.40555555555555556
0.000891412311922,0.4111111111111111
0.00095850728498,0.4166666666666667
0.00102473574174,0.4222222222222222
0.00127304550067,0.42777777777777776
0.0013460020633,0.43333333333333335
0.00141618548665,0.4388888888888889
0.00174105901959,0.4444444444444444
0.00204410427035,0.45
0.00214017268146,0.45555555555555555
0.00264273463253,0.46111111111111114
0.00299379071388,0.4666666666666667
0.00532634765929,0.4722222222222222
0.00647997950792,0.4777777777777778
0.0067827162527,0.48333333333333334
0.00738938780464,0.4888888888888889
0.00756894712112,0.49444444444444446
0.00796328285439,0.5
0.00805050308531,0.5055555555555555
0.00852583948742,0.5111111111111111
0.00920796207857,0.5166666666666667
0.00926543727766,0.5222222222222223
0.00941746428091,0.5277777777777778
0.00956237128583,0.5333333333333333
0.00990369975673,0.5388888888888889
0.0107251418964,0.5444444444444444
0.0108056632308,0.55
0.0108145477753,0.5555555555555556
0.0109002584575,0.5611111111111111
0.0109645119656,0.5666666666666667
0.0109766705842,0.5722222222222222
0.0110505717158,0.5777777777777777
0.0112077860755,0.5833333333333334
0.011210170889,0.5888888888888889
0.0112306629567,0.5944444444444444
0.0112795125607,0.6
0.0113555591479,0.6055555555555555
0.0113703361978,0.6111111111111112
0.0114023261676,0.6166666666666667
0.0114047744415,0.6222222222222222
0.0114895854567,0.6277777777777778
0.0115779589421,0.6333333333333333
0.0116147294663,0.6388888888888888
0.0116495007267,0.6444444444444445
0.0116579790509,0.65
0.0116621041889,0.6555555555555556
0.0117018319459,0.6611111111111111
0.011735014104,0.6666666666666666
0.0117517393003,0.6722222222222223
0.0117630834151,0.6777777777777778
0.0117687382897,0.6833333333333333
0.0117693825693,0.6888888888888889
0.0117804588127,0.6944444444444444
0.0117928542611,0.7
0.0118278629292,0.7055555555555556
0.011849408359,0.7111111111111111
0.0119409190927,0.7166666666666667
0.0120032658766,0.7222222222222222
0.0121111375662,0.7277777777777777
0.0121327411774,0.7333333333333333
0.0121527294012,0.7388888888888889
0.012200157423,0.7444444444444445
0.280254272225,0.75
0.280254272225,0.7555555555555555
0.363341948584,0.7611111111111111
0.427448707113,0.7666666666666667
0.548225598282,0.7722222222222223
0.548225598282,0.7777777777777778
0.560508544449,0.7833333333333333
0.588154170755,0.7888888888888889
0.588154170755,0.7944444444444444
0.726683897169,0.8
1.09766705842,0.8055555555555556
1.12077860755,0.8111111111111111
1.1735014104,0.8166666666666667
1.17517393003,0.8222222222222222
1.3608205953,0.8277777777777777
1.4082055283,0.8333333333333334
1.71402350338,0.8388888888888889
1.72371008555,0.8444444444444444
1.77578148457,0.85
1.81974950076,0.8555555555555555
1.81974950076,0.8611111111111112
2.29175896769,0.8666666666666667
2.35278683651,0.8722222222222222
2.46587776688,0.8777777777777778
2.90175596682,0.8833333333333333
2.92934337109,0.8888888888888888
3.00253579368,0.8944444444444445
3.62735071351,0.9
5.3478929183,0.9055555555555556
5.83054764938,0.9111111111111111
6.52122432772,0.9166666666666666
6.95361394505,0.9222222222222223
7.73233808434,0.9277777777777778
13.4783806923,0.9333333333333333
14.2001550054,0.9388888888888889
15.4201707477,0.9444444444444444
16.5863811666,0.95
16.9350897327,0.9555555555555556
18.1354163203,0.9611111111111111
19.4773429269,0.9666666666666667
19.8238745354,0.9722222222222222
20.5498571166,0.9777777777777777
20.6248328019,0.9833333333333333
20.9728330811,0.9888888888888889
22.1133105252,0.9944444444444445
22.1200379094,1.0
