Congestion,CDF
0.0,0.005555555555555556
0.0,0.011111111111111112
0.0,0.016666666666666666
0.0,0.022222222222222223
0.0,0.027777777777777776
0.0,0.03333333333333333
0.0,0.03888888888888889
0.0,0.044444444444444446
0.0,0.05
0.0,0.05555555555555555
2.95021025234e-07,0.06111111111111111
3.38964969525e-07,0.06666666666666667
7.6298206204e-07,0.07222222222222222
1.11514266629e-06,0.07777777777777778
1.14106536822e-06,0.08333333333333333
1.50659909187e-06,0.08888888888888889
1.65745840326e-06,0.09444444444444444
2.28435563402e-06,0.1
2.29614073903e-06,0.10555555555555556
2.34916751024e-06,0.1111111111111111
2.397516073e-06,0.11666666666666667
2.63917539044e-06,0.12222222222222222
2.70039043053e-06,0.12777777777777777
3.01550946087e-06,0.13333333333333333
3.08848750387e-06,0.1388888888888889
3.25221668142e-06,0.14444444444444443
3.76058249155e-06,0.15
4.11560886518e-06,0.15555555555555556
4.29752464831e-06,0.16111111111111112
4.46960235154e-06,0.16666666666666666
4.54032063715e-06,0.17222222222222222
4.57678542455e-06,0.17777777777777778
4.72842085422e-06,0.18333333333333332
4.89272446637e-06,0.18888888888888888
4.97531574693e-06,0.19444444444444445
5.03150295282e-06,0.2
5.05941775529e-06,0.20555555555555555
5.11751700269e-06,0.2111111111111111
5.16752440207e-06,0.21666666666666667
5.17886399079e-06,0.2222222222222222
5.35190314003e-06,0.22777777777777777
5.39655339243e-06,0.23333333333333334
5.45850246583e-06,0.2388888888888889
5.91126539812e-06,0.24444444444444444
6.22019694887e-06,0.25
6.75332462014e-06,0.25555555555555554
6.86031221889e-06,0.2611111111111111
6.95903708477e-06,0.26666666666666666
7.19470443062e-06,0.2722222222222222
2.54327354013e-05,0.2777777777777778
5.08654708027e-05,0.2833333333333333
5.57571333144e-05,0.28888888888888886
5.57571333144e-05,0.29444444444444445
5.74035184759e-05,0.3
5.74035184759e-05,0.3055555555555556
8.69056209993e-05,0.3111111111111111
0.000114106536822,0.31666666666666665
0.000114807036952,0.32222222222222224
0.000152857704299,0.3277777777777778
0.000228435563402,0.3333333333333333
0.000237565530186,0.3388888888888889
0.000251575147641,0.34444444444444444
0.000251575147641,0.35
0.00032132105752,0.35555555555555557
0.000489272446637,0.3611111111111111
0.000497531574693,0.36666666666666664
0.00051343567577,0.37222222222222223
0.000553126093728,0.37777777777777777
0.000585212483309,0.38333333333333336
0.000585212483309,0.3888888888888889
0.000667317995017,0.39444444444444443
0.000705233076635,0.4
0.000758314679439,0.40555555555555556
0.000810710745429,0.4111111111111111
0.00100715884572,0.4166666666666667
0.001064877794,0.4222222222222222
0.00112040279731,0.42777777777777776
0.0013774236597,0.43333333333333335
0.001617175267,0.4388888888888889
0.00169317895264,0.4444444444444444
0.00209077645743,0.45
0.00236851141466,0.45555555555555555
0.00421389349996,0.46111111111111114
0.00512657927626,0.4666666666666667
0.00536608681175,0.4722222222222222
0.00584604971932,0.4777777777777778
0.00598810650663,0.48333333333333334
0.00630008178304,0.4888888888888889
0.00636908530809,0.49444444444444446
0.00674514355724,0.5
0.00728479889649,0.5055555555555555
0.00733026989901,0.5111111111111111
0.00745054473681,0.5166666666666667
0.00756518665004,0.5222222222222223
0.00783522569309,0.5277777777777778
0.026679454434,0.5333333333333333
0.027120739625,0.5388888888888889
0.0346598007366,0.5444444444444444
0.0346615855458,0.55
0.03466482318,0.5555555555555556
0.0347132682754,0.5611111111111111
0.0347481070061,0.5666666666666667
0.0347564518795,0.5722222222222222
0.0347982272704,0.5777777777777777
0.0348870869532,0.5833333333333334
0.034888436003,0.5888888888888889
0.0349000184997,0.5944444444444444
0.0349276293911,0.6
0.0349706011998,0.6055555555555555
0.0349789643384,0.6111111111111112
0.0349967775614,0.6166666666666667
0.0350428725213,0.6222222222222222
0.0350457186957,0.6277777777777778
0.035096316476,0.6333333333333333
0.0351170989713,0.6388888888888888
0.0351367471967,0.6444444444444445
0.0351389424652,0.65
0.0351434615887,0.6555555555555556
0.0351663312806,0.6611111111111111
0.0351850734557,0.6666666666666666
0.0351945397847,0.6722222222222223
0.0352009458239,0.6777777777777778
0.0352036942555,0.6833333333333333
0.0352041473201,0.6888888888888889
0.0352107618579,0.6944444444444444
0.0352177657526,0.7
0.0352375662792,0.7055555555555556
0.0352497430234,0.7111111111111111
0.0353014618982,0.7166666666666667
0.0353366659324,0.7222222222222222
0.0353976742753,0.7277777777777777
0.0354098757755,0.7333333333333333
0.035421186583,0.7388888888888889
0.0354479177025,0.7444444444444445
0.872210900075,0.75
0.872210900075,0.7555555555555555
1.15710894251,0.7611111111111111
1.35145848081,0.7666666666666667
1.73740535031,0.7722222222222223
1.73740535031,0.7777777777777778
1.74442180015,0.7833333333333333
1.7600472912,0.7888888888888889
1.7600472912,0.7944444444444444
2.31421788503,0.8
3.47564518795,0.8055555555555556
3.48870869532,0.8111111111111111
3.51850734557,0.8166666666666667
3.51945397847,0.8222222222222222
4.33819097373,0.8277777777777777
4.36497383918,0.8333333333333334
5.25129959682,0.8388888888888889
5.25710741118,0.8444444444444444
5.28654045845,0.85
5.54932738866,0.8555555555555555
5.54932738866,0.8611111111111112
7.00579137777,0.8666666666666667
7.04028392083,0.8722222222222222
7.81801370077,0.8777777777777778
8.77818359697,0.8833333333333333
9.03171442929,0.8888888888888888
9.07308401658,0.8944444444444445
11.3297235979,0.9
16.1091711231,0.9055555555555556
18.0475241359,0.9111111111111111
20.1034538868,0.9166666666666666
21.5375259859,0.9222222222222223
23.6432213143,0.9277777777777778
41.167111841,0.9333333333333333
43.0026764096,0.9388888888888889
46.5474681799,0.9444444444444444
50.0618143388,0.95
51.6865779385,0.9555555555555556
55.2202445317,0.9611111111111111
58.8334833611,0.9666666666666667
60.4573276382,0.9722222222222222
62.2996419157,0.9777777777777777
63.9618995077,0.9833333333333333
64.9675873591,0.9888888888888889
67.4661867599,0.9944444444444445
70.1782607224,1.0
