Congestion,CDF
0.0,0.005555555555555556
0.0,0.011111111111111112
0.0,0.016666666666666666
0.0,0.022222222222222223
0.0,0.027777777777777776
0.0,0.03333333333333333
0.0,0.03888888888888889
0.0,0.044444444444444446
0.0,0.05
0.0,0.05555555555555555
8.97070188363e-07,0.06111111111111111
1.03069050356e-06,0.06666666666666667
2.31999892743e-06,0.07222222222222222
3.39081338663e-06,0.07777777777777778
3.46963652503e-06,0.08333333333333333
4.58111461736e-06,0.08888888888888889
5.03983240123e-06,0.09444444444444444
6.9460382943e-06,0.1
6.98187325341e-06,0.10555555555555556
7.14311171292e-06,0.1111111111111111
7.29012514786e-06,0.11666666666666667
8.0249384353e-06,0.12222222222222222
8.21107495728e-06,0.12777777777777777
9.1692571332e-06,0.13333333333333333
9.39116140842e-06,0.1388888888888889
9.88901258372e-06,0.14444444444444443
1.14348000837e-05,0.15
1.25143284855e-05,0.15555555555555556
1.30674796574e-05,0.16111111111111112
1.35907161879e-05,0.16666666666666666
1.38057492206e-05,0.17222222222222222
1.39166276697e-05,0.17777777777777778
1.43777053957e-05,0.18333333333333332
1.48773032538e-05,0.18888888888888888
1.51284384926e-05,0.19444444444444445
1.52992868832e-05,0.2
1.53841674001e-05,0.20555555555555555
1.55608297338e-05,0.2111111111111111
1.57128871919e-05,0.21666666666666667
1.574736747e-05,0.2222222222222222
1.62735274685e-05,0.22777777777777777
1.64092954542e-05,0.23333333333333334
1.65976639506e-05,0.2388888888888889
1.79743798258e-05,0.24444444444444444
1.89137477377e-05,0.25
2.05348286084e-05,0.25555555555555554
2.08601457118e-05,0.2611111111111111
2.11603383302e-05,0.26666666666666666
2.18769318345e-05,0.2722222222222222
7.35547235457e-05,0.2777777777777778
7.7333297581e-05,0.2833333333333333
0.000154666595162,0.28888888888888886
0.000169540669331,0.29444444444444445
0.000169540669331,0.3
0.000174546831335,0.3055555555555556
0.000174546831335,0.3111111111111111
0.000264253850171,0.31666666666666665
0.000346963652503,0.32222222222222224
0.00034909366267,0.3277777777777778
0.000420205725609,0.3333333333333333
0.000464794295523,0.3388888888888889
0.00069460382943,0.34444444444444444
0.000722365311908,0.35
0.00076496434416,0.35555555555555557
0.00076496434416,0.3611111111111111
0.000937692465987,0.36666666666666664
0.000977040674865,0.37222222222222223
0.00126396890488,0.37777777777777777
0.00127442969772,0.38333333333333336
0.00137504399438,0.3888888888888889
0.00143218473364,0.39444444444444443
0.00146464691077,0.4
0.00148773032538,0.40555555555555556
0.00151284384926,0.4111111111111111
0.00155146582693,0.4166666666666667
0.0015612034363,0.4222222222222222
0.00168189005748,0.42777777777777776
0.00171090000889,0.43333333333333335
0.00173601722694,0.4388888888888889
0.00173884426001,0.4444444444444444
0.00176290550087,0.45
0.00177945511585,0.45555555555555555
0.00177945511585,0.46111111111111114
0.00182025636393,0.4666666666666667
0.00190932559887,0.4722222222222222
0.00192687081498,0.4777777777777778
0.00196004954205,0.48333333333333334
0.00202911327765,0.4888888888888889
0.00203358572582,0.49444444444444446
0.00214440163509,0.5
0.00217060540703,0.5055555555555555
0.00221372785248,0.5111111111111111
0.00222466443678,0.5166666666666667
0.00225445935953,0.5222222222222223
0.00226300904879,0.5277777777777778
0.002305806821,0.5333333333333333
0.0023160111349,0.5388888888888889
0.00235339415451,0.5444444444444444
0.00235473645325,0.55
0.00237459769587,0.5555555555555556
0.00238778556704,0.5611111111111111
0.00239453875457,0.5666666666666667
0.00240808865423,0.5722222222222222
0.00242263132019,0.5777777777777777
0.00246396021124,0.5833333333333334
0.00246512749569,0.5888888888888889
0.00248921430261,0.5944444444444444
0.00259654873014,0.6
0.00266905030578,0.6055555555555555
0.00279640084098,0.6111111111111112
0.00282159713521,0.6166666666666667
0.00284532844073,0.6222222222222222
0.00289967167842,0.6277777777777778
0.00306246707238,0.6333333333333333
0.00323797303086,0.6388888888888888
0.00340680786269,0.6444444444444445
0.0041883309872,0.65
0.00491734350199,0.6555555555555556
0.0051484478463,0.6611111111111111
0.00635742225152,0.6666666666666666
0.00720193070715,0.6722222222222223
0.0128131824935,0.6777777777777778
0.0155883853816,0.6833333333333333
0.0163166557474,0.6888888888888889
0.017776078565,0.6944444444444444
0.0182080305212,0.7
0.0191566534871,0.7055555555555556
0.0193664724489,0.7111111111111111
0.0205099524572,0.7166666666666667
0.0221508820026,0.7222222222222222
0.0222891456426,0.7277777777777777
0.0226548652428,0.7333333333333333
0.0230034568139,0.7388888888888889
0.0238245643096,0.7444444444444445
0.0434711065001,0.75
0.0434711065001,0.7555555555555555
0.0458347998126,0.7611111111111111
0.0716092366819,0.7666666666666667
0.0716092366819,0.7722222222222223
0.0781119695101,0.7777777777777778
0.0869422130003,0.7833333333333333
0.0916695996253,0.7888888888888889
0.119389278352,0.7944444444444444
0.119389278352,0.8
0.146464691077,0.8055555555555556
0.169867996988,0.8111111111111111
0.173601722694,0.8166666666666667
0.225496742893,0.8222222222222222
0.235473645325,0.8277777777777777
0.237459769587,0.8333333333333334
0.29407568036,0.8388888888888889
0.31032183824,0.8444444444444444
0.325014579681,0.85
0.327915869098,0.8555555555555555
0.327915869098,0.8611111111111112
0.371475057073,0.8666666666666667
0.406119564091,0.8722222222222222
0.477736777344,0.8777777777777778
0.488392083409,0.8833333333333333
0.546387364929,0.8888888888888888
0.551130703663,0.8944444444444445
0.574311890223,0.9
0.94375092228,0.9055555555555556
1.0433727733,0.9111111111111111
1.08829979624,0.9166666666666666
1.12004147237,0.9222222222222223
1.36793988033,0.9277777777777778
2.40286812112,0.9333333333333333
2.67896707486,0.9388888888888889
2.9689342427,0.9444444444444444
3.03443362117,0.95
3.19523514758,0.9555555555555556
3.30133865174,0.9611111111111111
3.56895284263,0.9666666666666667
3.72465024339,0.9722222222222222
3.77231141521,0.9777777777777777
3.81841948999,0.9833333333333333
3.86044006255,0.9888888888888889
3.9434014161,0.9944444444444445
3.95075688846,1.0
