Congestion,CDF
0.0,0.005555555555555556
0.0,0.011111111111111112
0.0,0.016666666666666666
0.0,0.022222222222222223
0.0,0.027777777777777776
0.0,0.03333333333333333
0.0,0.03888888888888889
0.0,0.044444444444444446
0.0,0.05
0.0,0.05555555555555555
2.99134827684e-07,0.06111111111111111
3.43691530695e-07,0.06666666666666667
7.73621159623e-07,0.07222222222222222
1.13069232628e-06,0.07777777777777778
1.15697649694e-06,0.08333333333333333
1.5276072591e-06,0.08888888888888889
1.6805701677e-06,0.09444444444444444
2.31620891565e-06,0.1
2.32815835334e-06,0.10555555555555556
2.3819245351e-06,0.1111111111111111
2.43094727502e-06,0.11666666666666667
2.67597631396e-06,0.12222222222222222
2.73804494265e-06,0.12777777777777777
3.05755802401e-06,0.13333333333333333
3.13155368008e-06,0.1388888888888889
3.29756591354e-06,0.14444444444444443
3.81302042697e-06,0.15
4.17299732358e-06,0.15555555555555556
4.35744975844e-06,0.16111111111111112
4.53192693024e-06,0.16666666666666666
4.60363131864e-06,0.17222222222222222
4.64060457466e-06,0.17777777777777778
4.7943544238e-06,0.18333333333333332
4.96094910182e-06,0.18888888888888888
5.04469204339e-06,0.19444444444444445
5.10166272926e-06,0.2
5.12996677851e-06,0.20555555555555555
5.18887616758e-06,0.2111111111111111
5.2395808751e-06,0.21666666666666667
5.25107858416e-06,0.2222222222222222
5.42653060847e-06,0.22777777777777777
5.47180346842e-06,0.23333333333333334
5.53461636585e-06,0.2388888888888889
5.9936926694e-06,0.24444444444444444
6.30693199235e-06,0.25
6.84749364877e-06,0.25555555555555554
6.95597309321e-06,0.2611111111111111
7.05607458841e-06,0.26666666666666666
7.29502810312e-06,0.2722222222222222
2.57873719874e-05,0.2777777777777778
5.15747439749e-05,0.2833333333333333
5.65346163141e-05,0.28888888888888886
5.65346163141e-05,0.29444444444444445
5.82039588335e-05,0.3
5.82039588335e-05,0.3055555555555556
8.8117441602e-05,0.3111111111111111
0.000115697649694,0.31666666666666665
0.000116407917667,0.32222222222222224
0.000154989167296,0.3277777777777778
0.000231620891565,0.3333333333333333
0.000240878167512,0.3388888888888889
0.000255083136463,0.34444444444444444
0.000255083136463,0.35
0.00032580159023,0.35555555555555557
0.000496094910182,0.3611111111111111
0.000504469204339,0.36666666666666664
0.00052059507378,0.37222222222222223
0.000560838938864,0.37777777777777777
0.000593372744246,0.38333333333333336
0.000593372744246,0.3888888888888889
0.000676623143356,0.39444444444444443
0.000715066916634,0.4
0.000768888694575,0.40555555555555556
0.000822015376509,0.4111111111111111
0.0010212027686,0.4166666666666667
0.00107972655562,0.4222222222222222
0.00113602580509,0.42777777777777776
0.00139663059189,0.43333333333333335
0.00163972531939,0.4388888888888889
0.00171678880797,0.4444444444444444
0.00211993045181,0.45
0.00240153817285,0.45555555555555555
0.00427265244906,0.46111111111111114
0.00519806480639,0.4666666666666667
0.00544091205871,0.4722222222222222
0.0059275676167,0.4777777777777778
0.00607160525795,0.48333333333333334
0.00638793074856,0.4888888888888889
0.00645789646562,0.49444444444444446
0.00683919850831,0.5
0.00738637885516,0.5055555555555555
0.00743248390985,0.5111111111111111
0.00755443587193,0.5166666666666667
0.00767067636336,0.5222222222222223
0.00794448085763,0.5277777777777778
0.0222100828124,0.5333333333333333
0.0226906717292,0.5388888888888889
0.0310816801107,0.5444444444444444
0.0310872818693,0.55
0.0310901229599,0.5555555555555556
0.0311413168027,0.5611111111111111
0.0311807752728,0.5666666666666667
0.0311894846974,0.5722222222222222
0.0312360789373,0.5777777777777777
0.0313351918225,0.5833333333333334
0.0313366962359,0.5888888888888889
0.0313496151686,0.5944444444444444
0.0313804118665,0.6
0.0314283449056,0.6055555555555555
0.0314376701173,0.6111111111111112
0.0314576368774,0.6166666666666667
0.0315129982047,0.6222222222222222
0.0315143385229,0.6277777777777778
0.0315685628459,0.6333333333333333
0.0315917435458,0.6388888888888888
0.0316136602782,0.6444444444444445
0.0316171963167,0.65
0.031621299379,0.6555555555555556
0.0316466563808,0.6611111111111111
0.0316675645783,0.6666666666666666
0.0316781197124,0.6722222222222223
0.0316852664702,0.6777777777777778
0.0316888359686,0.6833333333333333
0.0316894420123,0.6888888888888889
0.0316962164312,0.6944444444444444
0.0317040290661,0.7
0.0317261107768,0.7055555555555556
0.0317396928251,0.7111111111111111
0.0317973804954,0.7166666666666667
0.0318366570962,0.7222222222222222
0.0319046937804,0.7277777777777777
0.0319183056994,0.7333333333333333
0.0319309180057,0.7388888888888889
0.0319607557688,0.7444444444444445
0.783417405898,0.75
0.783417405898,0.7555555555555555
1.03804389342,0.7611111111111111
1.21194350635,0.7666666666666667
1.55903876364,0.7722222222222223
1.55903876364,0.7777777777777778
1.5668348118,0.7833333333333333
1.58426332351,0.7888888888888889
1.58426332351,0.7944444444444444
2.07608778685,0.8
3.11894846974,0.8055555555555556
3.13351918225,0.8111111111111111
3.16675645783,0.8166666666666667
3.16781197124,0.8222222222222222
3.89158541697,0.8277777777777777
3.92145859255,0.8333333333333334
4.72075839531,0.8388888888888889
4.72709781407,0.8444444444444444
4.75992661237,0.85
4.98989070548,0.8555555555555555
4.98989070548,0.8611111111111112
6.29868651929,0.8666666666666667
6.33715936444,0.8722222222222222
7.0151933107,0.8777777777777778
7.89671945719,0.8833333333333333
8.11635877056,0.8888888888888888
8.16250178316,0.8944444444444445
10.1743676653,0.9
14.4949793925,0.9055555555555556
16.214977663,0.9111111111111111
18.0661194536,0.9166666666666666
19.3499391798,0.9222222222222223
21.2565888316,0.9277777777777778
37.0138021692,0.9333333333333333
38.6822982232,0.9388888888888889
41.8783738,0.9444444444444444
45.0405037379,0.95
46.4738547163,0.9555555555555556
49.6575204259,0.9611111111111111
52.9302063345,0.9666666666666667
54.3623228773,0.9722222222222222
56.0392186305,0.9777777777777777
57.5136226977,0.9833333333333333
58.2602269117,0.9888888888888889
60.66505655,0.9944444444444445
62.934123723,1.0
