Congestion,CDF
0.0,0.005555555555555556
0.0,0.011111111111111112
0.0,0.016666666666666666
0.0,0.022222222222222223
0.0,0.027777777777777776
0.0,0.03333333333333333
0.0,0.03888888888888889
0.0,0.044444444444444446
0.0,0.05
0.0,0.05555555555555555
3.00725553616e-07,0.06111111111111111
3.45519198287e-07,0.06666666666666667
7.77735087945e-07,0.07222222222222222
1.13670507183e-06,0.07777777777777778
1.16312901529e-06,0.08333333333333333
1.53573070129e-06,0.08888888888888889
1.68950702927e-06,0.09444444444444444
2.32852594879e-06,0.1
2.34053893067e-06,0.10555555555555556
2.39459102785e-06,0.1111111111111111
2.44387445872e-06,0.11666666666666667
2.69020650223e-06,0.12222222222222222
2.75260519671e-06,0.12777777777777777
3.07381737059e-06,0.13333333333333333
3.14820651748e-06,0.1388888888888889
3.31510156343e-06,0.14444444444444443
3.83329713803e-06,0.15
4.19518830383e-06,0.15555555555555556
4.38062161168e-06,0.16111111111111112
4.55602661045e-06,0.16666666666666666
4.62811230527e-06,0.17222222222222222
4.66528217603e-06,0.17777777777777778
4.81984962931e-06,0.18333333333333332
4.98733021713e-06,0.18888888888888888
5.0715184832e-06,0.19444444444444445
5.12879212525e-06,0.2
5.15724668852e-06,0.20555555555555555
5.21646934333e-06,0.2111111111111111
5.2674436861e-06,0.21666666666666667
5.27900253717e-06,0.2222222222222222
5.45538757248e-06,0.22777777777777777
5.50090118244e-06,0.23333333333333334
5.56404810351e-06,0.2388888888888889
6.02556566268e-06,0.24444444444444444
6.34047071582e-06,0.25
6.88390694706e-06,0.25555555555555554
6.99296325869e-06,0.2611111111111111
7.09359706919e-06,0.26666666666666666
7.33382128031e-06,0.2722222222222222
2.59245029315e-05,0.2777777777777778
5.1849005863e-05,0.2833333333333333
5.68352535915e-05,0.28888888888888886
5.68352535915e-05,0.29444444444444445
5.85134732667e-05,0.3
5.85134732667e-05,0.3055555555555556
8.85860286282e-05,0.3111111111111111
0.000116312901529,0.31666666666666665
0.000117026946533,0.32222222222222224
0.000155813361821,0.3277777777777778
0.000232852594879,0.3333333333333333
0.000242159098758,0.3388888888888889
0.000256439606263,0.34444444444444444
0.000256439606263,0.35
0.000327534123489,0.35555555555555557
0.000498733021713,0.3611111111111111
0.00050715184832,0.36666666666666664
0.000523363471195,0.37222222222222223
0.000563821343321,0.37777777777777777
0.000596528155532,0.38333333333333336
0.000596528155532,0.3888888888888889
0.000680221259925,0.39444444444444443
0.000718869467797,0.4
0.000772977456804,0.40555555555555556
0.000826386653452,0.4111111111111111
0.00102663327543,0.4166666666666667
0.00108546827765,0.4222222222222222
0.00114206691278,0.42777777777777776
0.00140405753216,0.43333333333333335
0.00164844497804,0.4388888888888889
0.00172591827142,0.4444444444444444
0.00213120372403,0.45
0.00241430896612,0.45555555555555555
0.00429537337092,0.46111111111111114
0.00522570684508,0.4666666666666667
0.00546984549976,0.4722222222222222
0.00595908897311,0.4777777777777778
0.00610389257134,0.48333333333333334
0.00642190020363,0.4888888888888889
0.00649223798128,0.49444444444444446
0.00687556769508,0.5
0.00742565781333,0.5055555555555555
0.00747200804344,0.5111111111111111
0.00759460851625,0.5166666666666667
0.00771146714622,0.5222222222222223
0.0079867276659,0.5277777777777778
0.0207133916685,0.5333333333333333
0.0212064574854,0.5388888888888889
0.0298889732355,0.5444444444444444
0.0298947680991,0.55
0.0298985853774,0.5555555555555556
0.0299506663119,0.5611111111111111
0.0299916614931,0.5666666666666667
0.0300004956367,0.5722222222222222
0.0300486961596,0.5777777777777777
0.0301512267789,0.5833333333333334
0.0301527829802,0.5888888888888889
0.0301661473916,0.5944444444444444
0.030198006025,0.6
0.0302475928075,0.6055555555555555
0.0302572387103,0.6111111111111112
0.0302779227792,0.6166666666666667
0.0303354018017,0.6222222222222222
0.0303372387189,0.6277777777777778
0.0303926449692,0.6333333333333333
0.0304166250707,0.6388888888888888
0.0304392979716,0.6444444444444445
0.0304432730322,0.65
0.0304472444821,0.6555555555555556
0.0304734314143,0.6611111111111111
0.0304950616191,0.6666666666666666
0.0305059796883,0.6722222222222223
0.0305133733523,0.6777777777777778
0.030517065518,0.6833333333333333
0.0305179953114,0.6888888888888889
0.0305247012889,0.6944444444444444
0.0305327835038,0.7
0.0305556256094,0.7055555555555556
0.0305696760924,0.7111111111111111
0.0306293533611,0.7166666666666667
0.0306699874709,0.7222222222222222
0.0307403669487,0.7277777777777777
0.0307544490067,0.7333333333333333
0.0307674951467,0.7388888888888889
0.0307983684335,0.7444444444444445
0.753819574506,0.75
0.753819574506,0.7555555555555555
0.998355543729,0.7611111111111111
1.16542205275,0.7666666666666667
1.49958307466,0.7722222222222223
1.49958307466,0.7777777777777778
1.50763914901,0.7833333333333333
1.52566866761,0.7888888888888889
1.52566866761,0.7944444444444444
1.99671108746,0.8
3.00004956367,0.8055555555555556
3.01512267789,0.8111111111111111
3.04950616191,0.8166666666666667
3.05059796883,0.8222222222222222
3.74271689805,0.8277777777777777
3.773620177,0.8333333333333334
4.54391037788,0.8388888888888889
4.55042794836,0.8444444444444444
4.58438866368,0.85
4.80341181108,0.8555555555555555
4.80341181108,0.8611111111111112
6.06298489979,0.8666666666666667
6.10278451229,0.8722222222222222
6.74758651402,0.8777777777777778
7.60289807725,0.8833333333333333
7.81124021766,0.8888888888888888
7.85897437202,0.8944444444444445
9.78924902108,0.9
13.9569154823,0.9055555555555556
15.6041288386,0.9111111111111111
17.3870079758,0.9166666666666666
18.6207435778,0.9222222222222223
20.4610446707,0.9277777777777778
35.6293656119,0.9333333333333333
37.2421721609,0.9388888888888889
40.3220090043,0.9444444444444444
43.3667334525,0.95
44.7362803088,0.9555555555555556
47.8032790559,0.9611111111111111
50.9624433615,0.9666666666666667
52.3306544085,0.9722222222222222
53.9523018992,0.9777777777777777
55.3641945887,0.9833333333333333
56.0236410661,0.9888888888888889
58.3979184606,0.9944444444444445
60.5185642091,1.0
