Congestion,CDF
0.0,0.005555555555555556
0.0,0.011111111111111112
0.0,0.016666666666666666
0.0,0.022222222222222223
0.0,0.027777777777777776
0.0,0.03333333333333333
0.0,0.03888888888888889
0.0,0.044444444444444446
0.0,0.05
0.0,0.05555555555555555
2.8808954288e-07,0.06111111111111111
3.31001029657e-07,0.06666666666666667
7.45055893236e-07,0.07222222222222222
1.08894252782e-06,0.07777777777777778
1.11425617909e-06,0.08333333333333333
1.47120173329e-06,0.08888888888888889
1.61851662389e-06,0.09444444444444444
2.23068498206e-06,0.1
2.24219319749e-06,0.10555555555555556
2.29397411129e-06,0.1111111111111111
2.34118673057e-06,0.11666666666666667
2.57716829236e-06,0.12222222222222222
2.63694509269e-06,0.12777777777777777
2.94466044054e-06,0.13333333333333333
3.01592387348e-06,0.1388888888888889
3.17580625434e-06,0.14444444444444443
3.67222807288e-06,0.15
4.01891314595e-06,0.15555555555555556
4.19655484034e-06,0.16111111111111112
4.3645895993e-06,0.16666666666666666
4.43364636757e-06,0.17222222222222222
4.46925441933e-06,0.17777777777777778
4.6173271934e-06,0.18333333333333332
4.77777051259e-06,0.18888888888888888
4.85842132126e-06,0.19444444444444445
4.91328841573e-06,0.2
4.94054736339e-06,0.20555555555555555
4.99728157618e-06,0.2111111111111111
5.04611405792e-06,0.21666666666666667
5.05718722441e-06,0.2222222222222222
5.22616084033e-06,0.22777777777777777
5.26976204059e-06,0.23333333333333334
5.3302556282e-06,0.2388888888888889
5.77238095163e-06,0.24444444444444444
6.07405419395e-06,0.25
6.59465609679e-06,0.25555555555555554
6.69913003519e-06,0.2611111111111111
6.7955353726e-06,0.26666666666666666
7.02566574343e-06,0.2722222222222222
2.48351964412e-05,0.2777777777777778
4.96703928824e-05,0.2833333333333333
5.44471263909e-05,0.28888888888888886
5.44471263909e-05,0.29444444444444445
5.60548299374e-05,0.3
5.60548299374e-05,0.3055555555555556
8.48637842254e-05,0.3111111111111111
0.000111425617909,0.31666666666666665
0.000112109659875,0.32222222222222224
0.000149266331518,0.3277777777777778
0.000223068498206,0.3333333333333333
0.000231983957554,0.3388888888888889
0.000245664420786,0.34444444444444444
0.000245664420786,0.35
0.000313771659173,0.35555555555555557
0.000477777051259,0.3611111111111111
0.000485842132126,0.36666666666666664
0.000501372568323,0.37222222222222223
0.00054013046484,0.37777777777777777
0.000571462988683,0.38333333333333336
0.000571462988683,0.3888888888888889
0.000651639441588,0.39444444444444443
0.000688663713071,0.4
0.000740498170209,0.40555555555555556
0.000791663197135,0.4111111111111111
0.0009834957737,0.4166666666666667
0.00103985862246,0.4222222222222222
0.00109407907272,0.42777777777777776
0.00134506126186,0.43333333333333335
0.00157917993491,0.4388888888888889
0.0016533979234,0.4444444444444444
0.00204165392418,0.45
0.00231286353308,0.45555555555555555
0.00411488859544,0.46111111111111114
0.00500613093276,0.4666666666666667
0.00524001126844,0.4722222222222222
0.0057086975071,0.4777777777777778
0.00584741668783,0.48333333333333334
0.00615206214386,0.4888888888888889
0.00621944443966,0.49444444444444446
0.00658666724695,0.5
0.007113643451,0.5055555555555555
0.00715804611797,0.5111111111111111
0.00727549511339,0.5166666666666667
0.0073874435291,0.5222222222222223
0.00765113803837,0.5277777777777778
0.0369613572155,0.5333333333333333
0.0373082558978,0.5388888888888889
0.0429820968579,0.5444444444444444
0.0430087488634,0.55
0.0430124195715,0.5555555555555556
0.0430478217116,0.5611111111111111
0.0430718525528,0.5666666666666667
0.0430793753042,0.5722222222222222
0.0431099067143,0.5777777777777777
0.0431748422581,0.5833333333333334
0.0431758287928,0.5888888888888889
0.043184292939,0.5944444444444444
0.0432044702817,0.6
0.0432358658862,0.6055555555555555
0.0432419841875,0.6111111111111112
0.0432547671931,0.6166666666666667
0.043264842545,0.6222222222222222
0.0432884819124,0.6277777777777778
0.0433277416128,0.6333333333333333
0.0433429282973,0.6388888888888888
0.0433562722087,0.6444444444444445
0.0433572833374,0.65
0.0433618319138,0.6555555555555556
0.0433789060467,0.6611111111111111
0.0433925941693,0.6666666666666666
0.0433995199535,0.6722222222222223
0.0434032949999,0.6777777777777778
0.0434041976492,0.6833333333333333
0.0434065404735,0.6888888888888889
0.0434113678529,0.6944444444444444
0.0434164846869,0.7
0.0434309624515,0.7055555555555556
0.0434398601527,0.7111111111111111
0.0434776518375,0.7166666666666667
0.0435033530998,0.7222222222222222
0.0435479620964,0.7277777777777777
0.043556872614,0.7333333333333333
0.0435651465966,0.7388888888888889
0.0435846286679,0.7444444444444445
1.07939571982,0.75
1.07939571982,0.7555555555555555
1.43492739039,0.7611111111111111
1.6766726114,0.7666666666666667
2.15359262764,0.7722222222222223
2.15359262764,0.7777777777777778
2.15879143964,0.7833333333333333
2.17020988246,0.7888888888888889
2.17020988246,0.7944444444444444
2.86985478077,0.8
4.30793753042,0.8055555555555556
4.31748422581,0.8111111111111111
4.33925941693,0.8166666666666667
4.33995199535,0.8222222222222222
5.38027060617,0.8277777777777777
5.39984274799,0.8333333333333334
6.48921984851,0.8388888888888889
6.49379647108,0.8444444444444444
6.5153060993,0.85
6.85467964941,0.8555555555555555
6.85467964941,0.8611111111111112
8.65570271417,0.8666666666666667
8.68090788563,0.8722222222222222
9.6912612776,0.8777777777777778
10.8349332564,0.8833333333333333
11.1675442997,0.8888888888888888
11.1977758946,0.8944444444444445
14.0255541073,0.9
19.8756184946,0.9055555555555556
22.3234659062,0.9111111111111111
24.8572342309,0.9166666666666666
26.6418952001,0.9222222222222223
29.2120304405,0.9277777777777778
50.858167742,0.9333333333333333
53.0835588439,0.9388888888888889
57.4420217107,0.9444444444444444
61.7782049021,0.95
63.8495987899,0.9555555555555556
68.1999340999,0.9611111111111111
72.6077542506,0.9666666666666667
74.6790034469,0.9722222222222222
76.9059639364,0.9777777777777777
79.0078516381,0.9833333333333333
80.6020996579,0.9888888888888889
83.3343358926,0.9944444444444445
87.0651614824,1.0
