Congestion,CDF
0.0,0.005555555555555556
0.0,0.011111111111111112
0.0,0.016666666666666666
0.0,0.022222222222222223
0.0,0.027777777777777776
0.0,0.03333333333333333
0.0,0.03888888888888889
0.0,0.044444444444444446
0.0,0.05
0.0,0.05555555555555555
3.02542880562e-07,0.06111111111111111
3.47607219548e-07,0.06666666666666667
7.82435050802e-07,0.07222222222222222
1.14357434094e-06,0.07777777777777778
1.17015796802e-06,0.08333333333333333
1.54501133858e-06,0.08888888888888889
1.6997169586e-06,0.09444444444444444
2.3425975596e-06,0.1
2.35468313762e-06,0.10555555555555556
2.40906187925e-06,0.1111111111111111
2.45864313685e-06,0.11666666666666667
2.70646379965e-06,0.12222222222222222
2.76923957825e-06,0.12777777777777777
3.0923928826e-06,0.13333333333333333
3.1672315736e-06,0.1388888888888889
3.33513518986e-06,0.14444444444444443
3.85646229343e-06,0.15
4.2205404186e-06,0.15555555555555556
4.40709432609e-06,0.16111111111111112
4.58355932201e-06,0.16666666666666666
4.65608064085e-06,0.17222222222222222
4.69347513439e-06,0.17777777777777778
4.84897666059e-06,0.18333333333333332
5.01746935723e-06,0.18888888888888888
5.10216638487e-06,0.19444444444444445
5.15978613962e-06,0.2
5.18841265783e-06,0.20555555555555555
5.2479932035e-06,0.2111111111111111
5.29927559141e-06,0.21666666666666667
5.31090429425e-06,0.2222222222222222
5.48835524921e-06,0.22777777777777777
5.53414390434e-06,0.23333333333333334
5.59767243116e-06,0.2388888888888889
6.06197900605e-06,0.24444444444444444
6.37878707485e-06,0.25
6.92550736791e-06,0.25555555555555554
7.03522272221e-06,0.2611111111111111
7.13646467703e-06,0.26666666666666666
7.37814059694e-06,0.2722222222222222
2.60811683601e-05,0.2777777777777778
5.21623367201e-05,0.2833333333333333
5.71787170471e-05,0.28888888888888886
5.71787170471e-05,0.29444444444444445
5.88670784406e-05,0.3
5.88670784406e-05,0.3055555555555556
8.91213664967e-05,0.3111111111111111
0.000117015796802,0.31666666666666665
0.000117734156881,0.32222222222222224
0.000156754963949,0.3277777777777778
0.00023425975596,0.3333333333333333
0.000243622500354,0.3388888888888889
0.000257989306981,0.34444444444444444
0.000257989306981,0.35
0.000329513458405,0.35555555555555557
0.000501746935723,0.3611111111111111
0.000510216638487,0.36666666666666664
0.000526526230486,0.37222222222222223
0.000567228595241,0.37777777777777777
0.000600133059332,0.38333333333333336
0.000600133059332,0.3888888888888889
0.000684331932963,0.39444444444444443
0.000723213697407,0.4
0.000777648668625,0.40555555555555556
0.000831380624584,0.4111111111111111
0.00103283736515,0.4166666666666667
0.00109202791559,0.4222222222222222
0.00114896858425,0.42777777777777776
0.00141254244991,0.43333333333333335
0.0016584067636,0.4388888888888889
0.00173634823902,0.4444444444444444
0.0021440828888,0.45
0.00242889897581,0.45555555555555555
0.00432133091818,0.46111111111111114
0.00525728652877,0.4666666666666667
0.00550290054779,0.4722222222222222
0.00599510058846,0.4777777777777778
0.00614077925527,0.48333333333333334
0.00646070865255,0.4888888888888889
0.00653147149131,0.49444444444444446
0.00691711772065,0.5
0.00747053211108,0.5055555555555555
0.00751716244218,0.5111111111111111
0.00764050380694,0.5166666666666667
0.0077580686301,0.5222222222222223
0.00803499258793,0.5277777777777778
0.0262115185052,0.5333333333333333
0.0263623906115,0.5388888888888889
0.0285753069966,0.5444444444444444
0.0286638557222,0.55
0.0286650160646,0.5555555555555556
0.0286760615972,0.5611111111111111
0.0286761955733,0.5666666666666667
0.0286801510235,0.5722222222222222
0.0286861505733,0.5777777777777777
0.0286958003047,0.5833333333333334
0.0287163053047,0.5888888888888889
0.0287166185971,0.5944444444444444
0.0287192915207,0.6
0.0287256637016,0.6055555555555555
0.0287355606413,0.6111111111111112
0.028737509959,0.6166666666666667
0.0287409495355,0.6222222222222222
0.0287462639727,0.6277777777777778
0.0287645914901,0.6333333333333333
0.0287669213768,0.6388888888888888
0.0287693859544,0.6444444444444445
0.0287739107933,0.65
0.0287744346915,0.6555555555555556
0.0287807480925,0.6611111111111111
0.0287808834774,0.6666666666666666
0.0287850501179,0.6722222222222223
0.0287872577473,0.6777777777777778
0.0287887256621,0.6833333333333333
0.0287894738102,0.6888888888888889
0.0287909821812,0.6944444444444444
0.028792594474,0.7
0.0287971871087,0.7055555555555556
0.0287999951589,0.7111111111111111
0.0288119220623,0.7166666666666667
0.028819975304,0.7222222222222222
0.0288341283873,0.7277777777777777
0.0288369270801,0.7333333333333333
0.0288395612449,0.7388888888888889
0.0288455807704,0.7444444444444445
0.717915464927,0.75
0.717915464927,0.7555555555555555
0.955873185778,0.7611111111111111
1.11646084719,0.7666666666666667
1.43400755117,0.7722222222222223
1.43400755117,0.7777777777777778
1.43583092985,0.7833333333333333
1.4394362831,0.7888888888888889
1.4394362831,0.7944444444444444
1.91174637156,0.8
2.86861505733,0.8055555555555556
2.87163053047,0.8111111111111111
2.87850501179,0.8166666666666667
2.87872577473,0.8222222222222222
3.58430103715,0.8277777777777777
3.59048183509,0.8333333333333334
4.31069968885,0.8388888888888889
4.31299234724,0.8444444444444444
4.31978705434,0.85
4.5526422109,0.8555555555555555
4.5526422109,0.8611111111111112
5.74980726356,0.8666666666666667
5.75776445919,0.8722222222222222
6.45388106762,0.8777777777777778
7.19209056536,0.8833333333333333
7.42281416987,0.8888888888888888
7.43236092177,0.8944444444444445
9.33081966306,0.9
13.1891615058,0.9055555555555556
14.8419579872,0.9111111111111111
16.5218859925,0.9166666666666666
17.7138871393,0.9222222222222223
19.4052988313,0.9277777777777778
33.7819960261,0.9333333333333333
35.2388465638,0.9388888888888889
38.1234046409,0.9444444444444444
41.00084811,0.95
42.409194369,0.9555555555555556
45.2911918994,0.9611111111111111
48.1896361466,0.9666666666666667
49.5992944041,0.9722222222222222
51.0471668463,0.9777777777777777
52.4739208014,0.9833333333333333
53.6683186968,0.9888888888888889
55.3415269611,0.9944444444444445
57.9777660222,1.0
