Congestion,CDF
0.0,0.009433962264150943
0.0,0.018867924528301886
0.0,0.02830188679245283
0.0,0.03773584905660377
0.0,0.04716981132075472
0.0,0.05660377358490566
0.0,0.0660377358490566
0.0,0.07547169811320754
0.0,0.08490566037735849
0.0,0.09433962264150944
0.0,0.10377358490566038
0.0,0.11320754716981132
0.0,0.12264150943396226
0.0,0.1320754716981132
0.0,0.14150943396226415
0.0,0.1509433962264151
0.0,0.16037735849056603
0.0,0.16981132075471697
0.0,0.1792452830188679
0.0,0.18867924528301888
0.0,0.19811320754716982
0.0,0.20754716981132076
0.0,0.2169811320754717
0.0,0.22641509433962265
0.0,0.2358490566037736
0.0,0.24528301886792453
0.0,0.25471698113207547
0.0,0.2641509433962264
0.0,0.27358490566037735
0.0,0.2830188679245283
1.78130651163e-07,0.29245283018867924
4.58907535429e-06,0.3018867924528302
5.16049501264e-06,0.3113207547169811
6.99589796581e-06,0.32075471698113206
7.89710657188e-06,0.330188679245283
1.0508080311e-05,0.33962264150943394
1.60249839813e-05,0.3490566037735849
2.05128260344e-05,0.3584905660377358
2.17090212341e-05,0.36792452830188677
2.53199009239e-05,0.37735849056603776
3.1174861678e-05,0.3867924528301887
3.1889194425e-05,0.39622641509433965
3.36462383451e-05,0.4056603773584906
0.000215605812488,0.41509433962264153
0.000295539758746,0.42452830188679247
0.000295539758746,0.4339622641509434
0.000769230976288,0.44339622641509435
0.000769230976288,0.4528301886792453
0.000769230976288,0.46226415094339623
0.000788106023323,0.4716981132075472
0.000788106023323,0.4811320754716981
0.000788106023323,0.49056603773584906
0.0012167231833,0.5
0.00145301867988,0.5094339622641509
0.00145301867988,0.5188679245283019
0.00153846195258,0.5283018867924528
0.00153846195258,0.5377358490566038
0.00207721162849,0.5471698113207547
0.00207819141822,0.5566037735849056
0.00209320766641,0.5660377358490566
0.0020971333977,0.5754716981132075
0.00209876938974,0.5849056603773585
0.0021061857523,0.5943396226415094
0.00246148785444,0.6037735849056604
0.00267527368886,0.6132075471698113
0.00267527368886,0.6226415094339622
0.00275517147686,0.6320754716981132
0.00276957218628,0.6415094339622641
0.00281905309095,0.6509433962264151
0.00309567375424,0.660377358490566
0.0033147278798,0.6698113207547169
0.0033147278798,0.6792452830188679
0.00336264996312,0.6886792452830188
0.00341739904671,0.6981132075471698
0.00341866076244,0.7075471698113207
0.00418612569837,0.7169811320754716
0.00509157685847,0.7264150943396226
0.00688111243128,0.7358490566037735
0.0107300423154,0.7452830188679245
0.0108851315075,0.7547169811320755
0.023236582242,0.7641509433962265
0.0345515979982,0.7735849056603774
0.0774891977865,0.7830188679245284
0.0774891977865,0.7924528301886793
0.103858956986,0.8018867924528302
0.103858956986,0.8113207547169812
0.103858956986,0.8207547169811321
0.206637860764,0.8301886792452831
0.206637860764,0.839622641509434
0.206637860764,0.8490566037735849
0.207717913971,0.8584905660377359
0.207717913971,0.8679245283018868
0.390869277997,0.8773584905660378
0.390869277997,0.8867924528301887
0.432300799151,0.8962264150943396
0.432300799151,0.9056603773584906
0.452077906817,0.9150943396226415
0.503646712878,0.9245283018867925
0.503646712878,0.9339622641509434
0.623163488548,0.9433962264150944
0.858462347096,0.9528301886792453
0.864761072264,0.9622641509433962
1.2159728763,0.9716981132075472
1.2327761161,0.9811320754716981
2.09364594332,0.9905660377358491
4.14549765692,1.0
