Congestion,CDF
0.0,0.009433962264150943
0.0,0.018867924528301886
0.0,0.02830188679245283
0.0,0.03773584905660377
0.0,0.04716981132075472
0.0,0.05660377358490566
0.0,0.0660377358490566
0.0,0.07547169811320754
0.0,0.08490566037735849
0.0,0.09433962264150944
0.0,0.10377358490566038
0.0,0.11320754716981132
0.0,0.12264150943396226
0.0,0.1320754716981132
0.0,0.14150943396226415
0.0,0.1509433962264151
0.0,0.16037735849056603
0.0,0.16981132075471697
0.0,0.1792452830188679
0.0,0.18867924528301888
0.0,0.19811320754716982
0.0,0.20754716981132076
0.0,0.2169811320754717
0.0,0.22641509433962265
0.0,0.2358490566037736
0.0,0.24528301886792453
0.0,0.25471698113207547
0.0,0.2641509433962264
0.0,0.27358490566037735
0.0,0.2830188679245283
1.69353571468e-07,0.29245283018867924
4.36295660466e-06,0.3018867924528302
4.90622054781e-06,0.3113207547169811
6.65118719545e-06,0.32075471698113206
7.50799030642e-06,0.330188679245283
9.99031283113e-06,0.33962264150943394
1.52353806166e-05,0.3490566037735849
1.95020920158e-05,0.3584905660377358
2.06393467663e-05,0.36792452830188677
2.40723066057e-05,0.37735849056603776
2.96387742969e-05,0.3867924528301887
3.03179095334e-05,0.39622641509433965
3.19883781538e-05,0.4056603773584906
0.000204982209045,0.41509433962264153
0.000280977548376,0.42452830188679247
0.000280977548376,0.4339622641509434
0.000731328450592,0.44339622641509435
0.000731328450592,0.4528301886792453
0.000731328450592,0.46226415094339623
0.000749273462335,0.4716981132075472
0.000749273462335,0.4811320754716981
0.000749273462335,0.49056603773584906
0.0011567712532,0.5
0.00138142369795,0.5094339622641509
0.00138142369795,0.5188679245283019
0.00146265690118,0.5283018867924528
0.00146265690118,0.5377358490566038
0.00199535615864,0.5471698113207547
0.00207721162849,0.5566037735849056
0.00207819141822,0.5660377358490566
0.00209320766641,0.5754716981132075
0.0020971333977,0.5849056603773585
0.0021061857523,0.5943396226415094
0.00254345420568,0.6037735849056604
0.00254345420568,0.6132075471698113
0.0030618054582,0.6226415094339622
0.00315140039753,0.6320754716981132
0.00315140039753,0.6415094339622641
0.00393307441916,0.6509433962264151
0.00395363178277,0.660377358490566
0.00397986159598,0.6698113207547169
0.00484069821647,0.6792452830188679
0.00490594009928,0.6886792452830188
0.0058843272461,0.6981132075471698
0.00654205751957,0.7075471698113207
0.0072410509667,0.7169811320754716
0.00799519291304,0.7264150943396226
0.00815044854857,0.7358490566037735
0.0102013380418,0.7452830188679245
0.0103487854821,0.7547169811320755
0.022091639848,0.7641509433962265
0.0555774012969,0.7735849056603774
0.110617718039,0.7830188679245284
0.110617718039,0.7924528301886793
0.148261191854,0.8018867924528302
0.148261191854,0.8113207547169812
0.148261191854,0.8207547169811321
0.294980581437,0.8301886792452831
0.294980581437,0.839622641509434
0.294980581437,0.8490566037735849
0.296522383708,0.8584905660377359
0.296522383708,0.8679245283018868
0.4572994744,0.8773584905660378
0.4572994744,0.8867924528301887
0.51906087023,0.8962264150943396
0.566266725976,0.9056603773584906
0.566266725976,0.9150943396226415
0.623163488548,0.9245283018867925
0.883800427116,0.9339622641509434
0.883800427116,0.9433962264150944
0.9248925435,0.9528301886792453
0.931191268668,0.9622641509433962
2.69430935648,0.9716981132075472
2.74088604714,0.9811320754716981
3.40520490057,0.9905660377358491
8.78591126312,1.0
