Congestion,CDF
0.0,0.007352941176470588
0.0,0.014705882352941176
0.0,0.022058823529411766
0.0,0.029411764705882353
0.0,0.03676470588235294
0.0,0.04411764705882353
0.0,0.051470588235294115
0.0,0.058823529411764705
0.0,0.0661764705882353
0.0,0.07352941176470588
0.0,0.08088235294117647
0.0,0.08823529411764706
0.0,0.09558823529411764
0.0,0.10294117647058823
1.23072720433e-06,0.11029411764705882
1.23072720433e-06,0.11764705882352941
1.23072720433e-06,0.125
1.23072720433e-06,0.1323529411764706
1.23072720433e-06,0.13970588235294118
1.23072720433e-06,0.14705882352941177
1.23072720433e-06,0.15441176470588236
1.23072720433e-06,0.16176470588235295
1.23072720433e-06,0.16911764705882354
1.23072720433e-06,0.17647058823529413
1.23072720433e-06,0.18382352941176472
1.23072720433e-06,0.19117647058823528
1.23072720433e-06,0.19852941176470587
1.23072720433e-06,0.20588235294117646
1.23072720433e-06,0.21323529411764705
1.23072720433e-06,0.22058823529411764
1.23072720433e-06,0.22794117647058823
1.23072720433e-06,0.23529411764705882
1.23072720433e-06,0.2426470588235294
1.23072720433e-06,0.25
1.23072720433e-06,0.25735294117647056
1.23072720433e-06,0.2647058823529412
1.23072720433e-06,0.27205882352941174
1.23072720433e-06,0.27941176470588236
1.23072720433e-06,0.2867647058823529
1.23072720433e-06,0.29411764705882354
1.23072720433e-06,0.3014705882352941
3.07681801084e-05,0.3088235294117647
3.07681801084e-05,0.3161764705882353
3.3229634517e-05,0.3235294117647059
6.15363602167e-05,0.33088235294117646
6.15363602167e-05,0.3382352941176471
6.15363602167e-05,0.34558823529411764
6.15363602167e-05,0.35294117647058826
9.23045403251e-05,0.3602941176470588
0.000102560600361,0.36764705882352944
0.000102560600361,0.375
0.000102560600361,0.38235294117647056
0.000123072720433,0.3897058823529412
0.000123072720433,0.39705882352941174
0.000123072720433,0.40441176470588236
0.000123072720433,0.4117647058823529
0.000123072720433,0.41911764705882354
0.000123072720433,0.4264705882352941
0.000123072720433,0.4338235294117647
0.000153840900542,0.4411764705882353
0.00018460908065,0.4485294117647059
0.00018460908065,0.45588235294117646
0.000225633320795,0.4632352941176471
0.000246145440867,0.47058823529411764
0.000246145440867,0.47794117647058826
0.0003692181613,0.4852941176470588
0.00050254694177,0.49264705882352944
0.000892277223143,0.5
0.000912789343215,0.5073529411764706
0.00117944690415,0.5147058823529411
0.00146661658517,0.5220588235294118
0.00148712870524,0.5294117647058824
0.0015896893056,0.5367647058823529
0.00161020142567,0.5441176470588235
0.0017332741461,0.5514705882352942
0.0203311273501,0.5588235294117647
0.0208451421049,0.5661764705882353
0.0259704343223,0.5735294117647058
0.026116384975,0.5808823529411765
0.0261254046148,0.5882352941176471
0.0261832626393,0.5955882352941176
0.0262073179293,0.6029411764705882
0.0263263842852,0.6102941176470589
0.0265289634639,0.6176470588235294
0.026550139944,0.625
0.026584105244,0.6323529411764706
0.0265850945994,0.6397058823529411
0.0265859521865,0.6470588235294118
0.0266120015346,0.6544117647058824
0.0266203847203,0.6617647058823529
0.0266462545753,0.6691176470588235
0.0266520299545,0.6764705882352942
0.0266539396264,0.6838235294117647
0.026689758894,0.6911764705882353
0.0267256208828,0.6985294117647058
0.0267448041389,0.7058823529411765
0.0267448223609,0.7132352941176471
0.0267449553175,0.7205882352941176
0.0267449612517,0.7279411764705882
0.0267454074014,0.7352941176470589
0.026745411358,0.7426470588235294
0.026745411358,0.75
0.665300038365,0.7573529411764706
0.666300748863,0.7647058823529411
0.704755477033,0.7720588235294118
1.31631921426,0.7794117647058824
1.31631921426,0.7867647058823529
1.3344879447,0.7941176470588235
1.3344879447,0.8014705882352942
1.9959001151,0.8088235294117647
2.21894694457,0.8161764705882353
2.21894694457,0.8235294117647058
2.21894694457,0.8308823529411765
2.62073179293,0.8382352941176471
2.65850945994,0.8455882352941176
2.66520299545,0.8529411764705882
2.67448223609,0.8602941176470589
2.67449612517,0.8676470588235294
2.6745411358,0.875
2.6745411358,0.8823529411764706
3.32389525702,0.8897058823529411
3.92885967574,0.8970588235294118
3.99988190734,0.9044117647058824
4.87396093897,0.9117647058823529
5.23905805686,0.9191176470588235
5.34899165692,0.9264705882352942
8.02362301174,0.9338235294117647
10.8597621859,0.9411764705882353
19.3878780675,0.9485294117647058
19.7029386856,0.9558823529411765
25.6138750451,0.9632352941176471
31.4678998504,0.9705882352941176
32.2783824099,0.9779411764705882
33.5010125854,0.9852941176470589
34.8900209074,0.9926470588235294
36.9745351179,1.0
