Congestion,CDF
0.0,0.007352941176470588
0.0,0.014705882352941176
0.0,0.022058823529411766
0.0,0.029411764705882353
0.0,0.03676470588235294
0.0,0.04411764705882353
0.0,0.051470588235294115
0.0,0.058823529411764705
0.0,0.0661764705882353
0.0,0.07352941176470588
0.0,0.08088235294117647
0.0,0.08823529411764706
0.0,0.09558823529411764
0.0,0.10294117647058823
2.72376899639e-06,0.11029411764705882
2.72376899639e-06,0.11764705882352941
2.72376899639e-06,0.125
2.72376899639e-06,0.1323529411764706
2.72376899639e-06,0.13970588235294118
2.72376899639e-06,0.14705882352941177
2.72376899639e-06,0.15441176470588236
2.72376899639e-06,0.16176470588235295
2.72376899639e-06,0.16911764705882354
2.72376899639e-06,0.17647058823529413
2.72376899639e-06,0.18382352941176472
2.72376899639e-06,0.19117647058823528
2.72376899639e-06,0.19852941176470587
2.72376899639e-06,0.20588235294117646
2.72376899639e-06,0.21323529411764705
2.72376899639e-06,0.22058823529411764
2.72376899639e-06,0.22794117647058823
2.72376899639e-06,0.23529411764705882
2.72376899639e-06,0.2426470588235294
2.72376899639e-06,0.25
2.72376899639e-06,0.25735294117647056
2.72376899639e-06,0.2647058823529412
2.72376899639e-06,0.27205882352941174
2.72376899639e-06,0.27941176470588236
2.72376899639e-06,0.2867647058823529
2.72376899639e-06,0.29411764705882354
2.72376899639e-06,0.3014705882352941
6.80942249097e-05,0.3088235294117647
6.80942249097e-05,0.3161764705882353
7.35417629025e-05,0.3235294117647059
0.000136188449819,0.33088235294117646
0.000136188449819,0.3382352941176471
0.000136188449819,0.34558823529411764
0.000136188449819,0.35294117647058826
0.000204282674729,0.3602941176470588
0.000226980749699,0.36764705882352944
0.000226980749699,0.375
0.000226980749699,0.38235294117647056
0.000272376899639,0.3897058823529412
0.000272376899639,0.39705882352941174
0.000272376899639,0.40441176470588236
0.000272376899639,0.4117647058823529
0.000272376899639,0.41911764705882354
0.000272376899639,0.4264705882352941
0.000272376899639,0.4338235294117647
0.000340471124548,0.4411764705882353
0.000408565349458,0.4485294117647059
0.000408565349458,0.45588235294117646
0.000499357649338,0.4632352941176471
0.000544753799277,0.47058823529411764
0.000544753799277,0.47794117647058826
0.000817130698916,0.4852941176470588
0.00111220567352,0.49264705882352944
0.00197473252238,0.5
0.00202012867232,0.5073529411764706
0.00261027862154,0.5147058823529411
0.00324582472069,0.5220588235294118
0.00329122087063,0.5294117647058824
0.00351820162033,0.5367647058823529
0.00356359777027,0.5441176470588235
0.00383597466991,0.5514705882352942
0.00942274140752,0.5588235294117647
0.00966080983989,0.5661764705882353
0.0116012353682,0.5735294117647058
0.0116239834723,0.5808823529411765
0.0116577197577,0.5882352941176471
0.0116577197577,0.5955882352941176
0.0117046807287,0.6029411764705882
0.0117853718214,0.6102941176470589
0.0119497383433,0.6176470588235294
0.0119582241602,0.625
0.0119882916427,0.6323529411764706
0.0119882916427,0.6397058823529411
0.0119887094001,0.6470588235294118
0.012015481401,0.6544117647058824
0.0120244018206,0.6617647058823529
0.0120546672188,0.6691176470588235
0.0120570399336,0.6764705882352942
0.012059192704,0.6838235294117647
0.0120931874625,0.6911764705882353
0.0121272880744,0.6985294117647058
0.012145867997,0.7058823529411765
0.012145867997,0.7132352941176471
0.0121459787563,0.7205882352941176
0.0121459787563,0.7279411764705882
0.0121464234411,0.7352941176470589
0.0121464234411,0.7426470588235294
0.0121464234411,0.75
0.300387035024,0.7573529411764706
0.30136668047,0.7647058823529411
0.318441739787,0.7720588235294118
0.589268591068,0.7794117647058824
0.589268591068,0.7867647058823529
0.604659373127,0.7941176470588235
0.604659373127,0.8014705882352942
0.901161105073,0.8088235294117647
1.00256710952,0.8161764705882353
1.00256710952,0.8235294117647058
1.00256710952,0.8308823529411765
1.16577197577,0.8382352941176471
1.19882916427,0.8455882352941176
1.20546672188,0.8529411764705882
1.2145867997,0.8602941176470589
1.21459787563,0.8676470588235294
1.21464234411,0.875
1.21464234411,0.8823529411764706
1.49925797504,0.8897058823529411
1.7516669383,0.8970588235294118
1.81057864352,0.9044117647058824
2.19838952553,0.9117647058823529
2.33154395155,0.9191176470588235
2.42919575126,0.9264705882352942
3.64392703234,0.9338235294117647
4.89948341309,0.9411764705882353
8.80366306347,0.9485294117647058
8.88211536402,0.9558823529411765
11.6236183536,0.9632352941176471
14.1254497907,0.9705882352941176
14.6399009904,0.9779411764705882
15.0677239314,0.9852941176470589
15.8103690633,0.9926470588235294
16.7764500473,1.0
