Congestion,CDF
0.0,0.007352941176470588
0.0,0.014705882352941176
0.0,0.022058823529411766
0.0,0.029411764705882353
0.0,0.03676470588235294
0.0,0.04411764705882353
0.0,0.051470588235294115
0.0,0.058823529411764705
0.0,0.0661764705882353
0.0,0.07352941176470588
0.0,0.08088235294117647
0.0,0.08823529411764706
0.0,0.09558823529411764
0.0,0.10294117647058823
5.84154388214e-06,0.11029411764705882
5.84154388214e-06,0.11764705882352941
5.84154388214e-06,0.125
5.84154388214e-06,0.1323529411764706
5.84154388214e-06,0.13970588235294118
5.84154388214e-06,0.14705882352941177
5.84154388214e-06,0.15441176470588236
5.84154388214e-06,0.16176470588235295
5.84154388214e-06,0.16911764705882354
5.84154388214e-06,0.17647058823529413
5.84154388214e-06,0.18382352941176472
5.84154388214e-06,0.19117647058823528
5.84154388214e-06,0.19852941176470587
5.84154388214e-06,0.20588235294117646
5.84154388214e-06,0.21323529411764705
5.84154388214e-06,0.22058823529411764
5.84154388214e-06,0.22794117647058823
5.84154388214e-06,0.23529411764705882
5.84154388214e-06,0.2426470588235294
5.84154388214e-06,0.25
5.84154388214e-06,0.25735294117647056
5.84154388214e-06,0.2647058823529412
5.84154388214e-06,0.27205882352941174
5.84154388214e-06,0.27941176470588236
5.84154388214e-06,0.2867647058823529
5.84154388214e-06,0.29411764705882354
5.84154388214e-06,0.3014705882352941
0.000146038597053,0.3088235294117647
0.000146038597053,0.3161764705882353
0.000157721684818,0.3235294117647059
0.000292077194107,0.33088235294117646
0.000292077194107,0.3382352941176471
0.000292077194107,0.34558823529411764
0.000292077194107,0.35294117647058826
0.00043811579116,0.3602941176470588
0.000486795323512,0.36764705882352944
0.000486795323512,0.375
0.000486795323512,0.38235294117647056
0.000584154388214,0.3897058823529412
0.000584154388214,0.39705882352941174
0.000584154388214,0.40441176470588236
0.000584154388214,0.4117647058823529
0.000584154388214,0.41911764705882354
0.000584154388214,0.4264705882352941
0.000584154388214,0.4338235294117647
0.000730192985267,0.4411764705882353
0.000838036010821,0.4485294117647059
0.000876231582321,0.45588235294117646
0.000876231582321,0.4632352941176471
0.00107094971173,0.47058823529411764
0.00116830877643,0.47794117647058826
0.00116830877643,0.4852941176470588
0.00139352441259,0.49264705882352944
0.00175246316464,0.5
0.00238529708521,0.5073529411764706
0.00423511931455,0.5147058823529411
0.00433247837925,0.5220588235294118
0.00496860531326,0.5294117647058824
0.00521796818131,0.5367647058823529
0.00535551111443,0.5441176470588235
0.0054864402363,0.5514705882352942
0.00554791463424,0.5588235294117647
0.00559814622038,0.5661764705882353
0.00567465744219,0.5735294117647058
0.00599606786951,0.5808823529411765
0.00604776201209,0.5882352941176471
0.00609813298581,0.5955882352941176
0.0061006948033,0.6029411764705882
0.00610277236799,0.6102941176470589
0.00612639581013,0.6176470588235294
0.00613351106974,0.625
0.00614477194432,0.6323529411764706
0.00616424679636,0.6397058823529411
0.00616962358829,0.6470588235294118
0.00620734923531,0.6544117647058824
0.00625039338542,0.6617647058823529
0.00627190133335,0.6691176470588235
0.00627194814546,0.6764705882352942
0.00627222480468,0.6838235294117647
0.00627224007575,0.6911764705882353
0.00627274046097,0.6985294117647058
0.00627275064283,0.7058823529411765
0.00627275064283,0.7132352941176471
0.00696117312621,0.7205882352941176
0.00705853219092,0.7279411764705882
0.00754532751443,0.7352941176470589
0.00764268657913,0.7426470588235294
0.00822684096734,0.75
0.151930935319,0.7573529411764706
0.153159895253,0.7647058823529411
0.154240589707,0.7720588235294118
0.283732872109,0.7794117647058824
0.283732872109,0.7867647058823529
0.310367461765,0.7941176470588235
0.310367461765,0.8014705882352942
0.45947968576,0.8088235294117647
0.511850853952,0.8161764705882353
0.511850853952,0.8235294117647058
0.511850853952,0.8308823529411765
0.554791463424,0.8382352941176471
0.61006948033,0.8455882352941176
0.616962358829,0.8529411764705882
0.627194814546,0.8602941176470589
0.627224007575,0.8676470588235294
0.627275064283,0.875
0.627275064283,0.8823529411764706
0.763437132052,0.8897058823529411
0.819283983552,0.8970588235294118
0.926792141401,0.9044117647058824
1.10343548705,0.9117647058823529
1.11662705516,0.9191176470588235
1.25444648804,0.9264705882352942
1.88182417466,0.9338235294117647
2.49517076492,0.9411764705882353
4.49513747914,0.9485294117647058
4.5448962003,0.9558823529411765
5.99215385456,0.9632352941176471
6.91471748107,0.9705882352941176
6.99852108215,0.9779411764705882
7.53342319039,0.9852941176470589
8.05522000852,0.9926470588235294
8.19457244978,1.0
