Congestion,CDF
0.0,0.007352941176470588
0.0,0.014705882352941176
0.0,0.022058823529411766
0.0,0.029411764705882353
0.000446465864744,0.03676470588235294
0.000446465864744,0.04411764705882353
0.00209406203834,0.051470588235294115
0.00209406203834,0.058823529411764705
0.00230044124566,0.0661764705882353
0.00230044124566,0.07352941176470588
0.00230544220262,0.08088235294117647
0.00230544220262,0.08823529411764706
0.00249680819378,0.09558823529411764
0.00249680819378,0.10294117647058823
0.00261394781591,0.11029411764705882
0.00261394781591,0.11764705882352941
0.00296718450769,0.125
0.00296718450769,0.1323529411764706
0.00299214373711,0.13970588235294118
0.00299214373711,0.14705882352941177
0.00328555444124,0.15441176470588236
0.00328555444124,0.16176470588235295
0.0033609457427,0.16911764705882354
0.0033609457427,0.17647058823529413
0.00338521110627,0.18382352941176472
0.00338521110627,0.19117647058823528
0.00350799649956,0.19852941176470587
0.00350799649956,0.20588235294117646
0.00430810502023,0.21323529411764705
0.00430810502023,0.22058823529411764
0.00447119102012,0.22794117647058823
0.00447119102012,0.23529411764705882
0.00472594579838,0.2426470588235294
0.00472594579838,0.25
0.00519731565564,0.25735294117647056
0.00519731565564,0.2647058823529412
0.00563128466558,0.27205882352941174
0.00563128466558,0.27941176470588236
0.00568410438016,0.2867647058823529
0.00568410438016,0.29411764705882354
0.0057252768929,0.3014705882352941
0.0057252768929,0.3088235294117647
0.00612976949536,0.3161764705882353
0.00612976949536,0.3235294117647059
0.00727151161273,0.33088235294117646
0.00727151161273,0.3382352941176471
0.00788561423217,0.34558823529411764
0.00788561423217,0.35294117647058826
0.00791794037664,0.3602941176470588
0.00791794037664,0.36764705882352944
0.00869181458092,0.375
0.00869181458092,0.38235294117647056
0.009071340074,0.3897058823529412
0.009071340074,0.39705882352941174
0.00936363142714,0.40441176470588236
0.00936363142714,0.4117647058823529
0.00961555499332,0.41911764705882354
0.00961555499332,0.4264705882352941
0.0137020155088,0.4338235294117647
0.0137020155088,0.4411764705882353
0.0144610916355,0.4485294117647059
0.0144610916355,0.45588235294117646
0.0154451313781,0.4632352941176471
0.0154451313781,0.47058823529411764
0.0158387139619,0.47794117647058826
0.0158387139619,0.4852941176470588
0.0669721849563,0.49264705882352944
0.0669721849563,0.5
0.0763947205314,0.5073529411764706
0.0763947205314,0.5147058823529411
0.0883586302864,0.5220588235294118
0.0883586302864,0.5294117647058824
0.124840409689,0.5367647058823529
0.124840409689,0.5441176470588235
0.124840409689,0.5514705882352942
0.124840409689,0.5588235294117647
0.181231301371,0.5661764705882353
0.181231301371,0.5735294117647058
0.230990686127,0.5808823529411765
0.230990686127,0.5882352941176471
0.232269469101,0.5955882352941176
0.232269469101,0.6029411764705882
0.237007912233,0.6102941176470589
0.237007912233,0.6176470588235294
0.237368413101,0.625
0.237368413101,0.6323529411764706
0.237368413101,0.6397058823529411
0.237368413101,0.6470588235294118
0.299214373711,0.6544117647058824
0.299214373711,0.6617647058823529
0.437696566437,0.6691176470588235
0.437696566437,0.6764705882352942
0.475640059645,0.6838235294117647
0.475640059645,0.6911764705882353
0.522358033914,0.6985294117647058
0.522358033914,0.7058823529411765
0.562682000693,0.7132352941176471
0.562682000693,0.7205882352941176
0.577253635088,0.7279411764705882
0.577253635088,0.7352941176470589
0.628005918305,0.7426470588235294
0.628005918305,0.75
0.722425215475,0.7573529411764706
0.722425215475,0.7647058823529411
0.847322029144,0.7720588235294118
0.847322029144,0.7794117647058824
0.847322029144,0.7867647058823529
0.847322029144,0.7941176470588235
0.95814164727,0.8014705882352942
0.95814164727,0.8088235294117647
0.961555499332,0.8161764705882353
0.961555499332,0.8235294117647058
1.11165071094,0.8308823529411765
1.11165071094,0.8382352941176471
1.53071083699,0.8455882352941176
1.53071083699,0.8529411764705882
1.5404624589,0.8602941176470589
1.5404624589,0.8676470588235294
1.54229760482,0.875
1.54229760482,0.8823529411764706
1.54451313781,0.8897058823529411
1.54451313781,0.8970588235294118
1.58387139619,0.9044117647058824
1.58387139619,0.9117647058823529
1.65878835819,0.9191176470588235
1.65878835819,0.9264705882352942
1.80171732178,0.9338235294117647
1.80171732178,0.9411764705882353
3.37529184542,0.9485294117647058
3.37529184542,0.9558823529411765
4.57449369755,0.9632352941176471
4.57449369755,0.9705882352941176
5.89215296494,0.9779411764705882
5.89215296494,0.9852941176470589
6.68203002658,0.9926470588235294
6.68203002658,1.0
