Congestion,CDF
0.0,0.007352941176470588
0.0,0.014705882352941176
0.0,0.022058823529411766
0.0,0.029411764705882353
0.0,0.03676470588235294
0.0,0.04411764705882353
0.0,0.051470588235294115
0.0,0.058823529411764705
0.0,0.0661764705882353
0.0,0.07352941176470588
0.0,0.08088235294117647
0.0,0.08823529411764706
0.0,0.09558823529411764
0.0,0.10294117647058823
3.40763741847e-06,0.11029411764705882
3.40763741847e-06,0.11764705882352941
3.40763741847e-06,0.125
3.40763741847e-06,0.1323529411764706
3.40763741847e-06,0.13970588235294118
3.40763741847e-06,0.14705882352941177
3.40763741847e-06,0.15441176470588236
3.40763741847e-06,0.16176470588235295
3.40763741847e-06,0.16911764705882354
3.40763741847e-06,0.17647058823529413
3.40763741847e-06,0.18382352941176472
3.40763741847e-06,0.19117647058823528
3.40763741847e-06,0.19852941176470587
3.40763741847e-06,0.20588235294117646
3.40763741847e-06,0.21323529411764705
3.40763741847e-06,0.22058823529411764
3.40763741847e-06,0.22794117647058823
3.40763741847e-06,0.23529411764705882
3.40763741847e-06,0.2426470588235294
3.40763741847e-06,0.25
3.40763741847e-06,0.25735294117647056
3.40763741847e-06,0.2647058823529412
3.40763741847e-06,0.27205882352941174
3.40763741847e-06,0.27941176470588236
3.40763741847e-06,0.2867647058823529
3.40763741847e-06,0.29411764705882354
3.40763741847e-06,0.3014705882352941
8.51909354616e-05,0.3088235294117647
8.51909354616e-05,0.3161764705882353
9.20062102986e-05,0.3235294117647059
0.000170381870923,0.33088235294117646
0.000170381870923,0.3382352941176471
0.000170381870923,0.34558823529411764
0.000170381870923,0.35294117647058826
0.000255572806385,0.3602941176470588
0.000283969784872,0.36764705882352944
0.000283969784872,0.375
0.000283969784872,0.38235294117647056
0.000340763741847,0.3897058823529412
0.000340763741847,0.39705882352941174
0.000340763741847,0.40441176470588236
0.000340763741847,0.4117647058823529
0.000340763741847,0.41911764705882354
0.000340763741847,0.4264705882352941
0.000340763741847,0.4338235294117647
0.000425954677308,0.4411764705882353
0.00051114561277,0.4485294117647059
0.00051114561277,0.45588235294117646
0.000624733526719,0.4632352941176471
0.000681527483693,0.47058823529411764
0.000681527483693,0.47794117647058826
0.00102229122554,0.4852941176470588
0.00139145194587,0.49264705882352944
0.00247053712839,0.5
0.00252733108536,0.5073529411764706
0.00268970614204,0.5147058823529411
0.00326565252603,0.5220588235294118
0.00331981304035,0.5294117647058824
0.00406076792367,0.5367647058823529
0.00411756188065,0.5441176470588235
0.00440153166552,0.5514705882352942
0.00445832562249,0.5588235294117647
0.00479908936434,0.5661764705882353
0.00898668865908,0.5735294117647058
0.00918817643829,0.5808823529411765
0.00928509979438,0.5882352941176471
0.00930358053687,0.5955882352941176
0.00931331918528,0.6029411764705882
0.00950596051144,0.6102941176470589
0.00983614939698,0.6176470588235294
0.00987166106503,0.625
0.00994275818088,0.6323529411764706
0.00994440590205,0.6397058823529411
0.00994610387535,0.6470588235294118
0.0100151484197,0.6544117647058824
0.0100380501831,0.6617647058823529
0.0101131177868,0.6691176470588235
0.0101549462496,0.6764705882352942
0.0101672854073,0.6838235294117647
0.010236141322,0.6911764705882353
0.0103057188719,0.6985294117647058
0.0103381842116,0.7058823529411765
0.0103382211119,0.7132352941176471
0.0103384914459,0.7205882352941176
0.0103385051265,0.7279411764705882
0.010339127129,0.7352941176470589
0.0103391362513,0.7426470588235294
0.0103391362513,0.75
0.250378710494,0.7573529411764706
0.25282794467,0.7647058823529411
0.254534632496,0.7720588235294118
0.475298025572,0.7794117647058824
0.475298025572,0.7867647058823529
0.5118070661,0.7941176470588235
0.5118070661,0.8014705882352942
0.751136131481,0.8088235294117647
0.837808327933,0.8161764705882353
0.837808327933,0.8235294117647058
0.837808327933,0.8308823529411765
0.931331918528,0.8382352941176471
0.994440590205,0.8455882352941176
1.01131177868,0.8529411764705882
1.03382211119,0.8602941176470589
1.03385051265,0.8676470588235294
1.03391362513,0.875
1.03391362513,0.8823529411764706
1.24498909803,0.8897058823529411
1.3941156694,0.8970588235294118
1.52853560683,0.9044117647058824
1.82497443444,0.9117647058823529
1.85984189797,0.9191176470588235
2.06769965724,0.9264705882352942
3.10173996316,0.9338235294117647
4.07151383425,0.9411764705882353
7.35540123396,0.9485294117647058
7.48990809742,0.9558823529411765
9.87009537864,0.9632352941176471
11.5080276672,0.9705882352941176
11.7769982814,0.9779411764705882
12.4141256104,0.9852941176470589
13.3444836641,0.9926470588235294
13.6764649682,1.0
