Congestion,CDF
0.0,0.007352941176470588
0.0,0.014705882352941176
0.0,0.022058823529411766
0.0,0.029411764705882353
0.0,0.03676470588235294
0.0,0.04411764705882353
0.0,0.051470588235294115
0.0,0.058823529411764705
0.0,0.0661764705882353
0.0,0.07352941176470588
0.0,0.08088235294117647
0.0,0.08823529411764706
0.0,0.09558823529411764
0.0,0.10294117647058823
1.53697489591e-05,0.11029411764705882
1.53697489591e-05,0.11764705882352941
1.53697489591e-05,0.125
1.53697489591e-05,0.1323529411764706
1.53697489591e-05,0.13970588235294118
1.53697489591e-05,0.14705882352941177
1.53697489591e-05,0.15441176470588236
1.53697489591e-05,0.16176470588235295
1.53697489591e-05,0.16911764705882354
1.53697489591e-05,0.17647058823529413
1.53697489591e-05,0.18382352941176472
1.53697489591e-05,0.19117647058823528
1.53697489591e-05,0.19852941176470587
1.53697489591e-05,0.20588235294117646
1.53697489591e-05,0.21323529411764705
1.53697489591e-05,0.22058823529411764
1.53697489591e-05,0.22794117647058823
1.53697489591e-05,0.23529411764705882
1.53697489591e-05,0.2426470588235294
1.53697489591e-05,0.25
1.53697489591e-05,0.25735294117647056
1.53697489591e-05,0.2647058823529412
1.53697489591e-05,0.27205882352941174
1.53697489591e-05,0.27941176470588236
1.53697489591e-05,0.2867647058823529
1.53697489591e-05,0.29411764705882354
1.53697489591e-05,0.3014705882352941
0.000384243723977,0.3088235294117647
0.000384243723977,0.3161764705882353
0.000414983221895,0.3235294117647059
0.000768487447953,0.33088235294117646
0.000768487447953,0.3382352941176471
0.000768487447953,0.34558823529411764
0.000768487447953,0.35294117647058826
0.00115273117193,0.3602941176470588
0.00128081241326,0.36764705882352944
0.00128081241326,0.375
0.00128081241326,0.38235294117647056
0.00153697489591,0.3897058823529412
0.00153697489591,0.39705882352941174
0.00153697489591,0.40441176470588236
0.00153697489591,0.4117647058823529
0.00153697489591,0.41911764705882354
0.00153697489591,0.4264705882352941
0.00153697489591,0.4338235294117647
0.00192121861988,0.4411764705882353
0.00230546234386,0.4485294117647059
0.00230546234386,0.45588235294117646
0.00281778730916,0.4632352941176471
0.00307394979181,0.47058823529411764
0.00307394979181,0.47794117647058826
0.00461092468772,0.4852941176470588
0.00529388927216,0.49264705882352944
0.00597178023495,0.5
0.00627598082495,0.5073529411764706
0.0111430679953,0.5147058823529411
0.011399230478,0.5220588235294118
0.0135757993144,0.5294117647058824
0.0137731470737,0.5367647058823529
0.0138540006936,0.5441176470588235
0.0139346316536,0.5514705882352942
0.0139823256434,0.5588235294117647
0.0140977642661,0.5661764705882353
0.0143425890449,0.5735294117647058
0.0143749927294,0.5808823529411765
0.0144164652236,0.5882352941176471
0.0144183416251,0.5955882352941176
0.014419446595,0.6029411764705882
0.0144495392779,0.6102941176470589
0.0144589289617,0.6176470588235294
0.0144868521726,0.625
0.0144963151355,0.6323529411764706
0.0144989204439,0.6397058823529411
0.0145404948136,0.6470588235294118
0.0145820884544,0.6544117647058824
0.0146044980803,0.6617647058823529
0.0146045308735,0.6691176470588235
0.0146046993631,0.6764705882352942
0.0146047095452,0.6838235294117647
0.014605234956,0.6911764705882353
0.0146052417449,0.6985294117647058
0.0146052417449,0.7058823529411765
0.0147293427524,0.7132352941176471
0.0183156175096,0.7205882352941176
0.0185717799922,0.7279411764705882
0.0198525924055,0.7352941176470589
0.0201087548881,0.7426470588235294
0.021645729784,0.75
0.361238481947,0.7573529411764706
0.362407878388,0.7647058823529411
0.370202468937,0.7720588235294118
0.704888213304,0.7794117647058824
0.704888213304,0.7867647058823529
0.727024740678,0.7941176470588235
0.727024740678,0.8014705882352942
1.08371544584,0.8088235294117647
1.20561065906,0.8161764705882353
1.20561065906,0.8235294117647058
1.20561065906,0.8308823529411765
1.39823256434,0.8382352941176471
1.44183416251,0.8455882352941176
1.44963151355,0.8529411764705882
1.46045308735,0.8602941176470589
1.46047095452,0.8676470588235294
1.46052417449,0.875
1.46052417449,0.8823529411764706
1.80318314145,0.8897058823529411
2.09028828266,0.8970588235294118
2.17691678507,0.9044117647058824
2.643109932,0.9117647058823529
2.7916957297,0.9191176470588235
2.92094089083,0.9264705882352942
4.38157184458,0.9338235294117647
5.89227448536,0.9411764705882353
10.5858235092,0.9485294117647058
10.6745315352,0.9558823529411765
13.9766677544,0.9632352941176471
16.914095479,0.9705882352941176
17.4434844062,0.9779411764705882
17.6022697567,0.9852941176470589
18.9795844641,0.9926470588235294
19.5767624876,1.0
