Congestion,CDF
0.0,0.007352941176470588
0.0,0.014705882352941176
0.0,0.022058823529411766
0.0,0.029411764705882353
0.0,0.03676470588235294
0.0,0.04411764705882353
0.0,0.051470588235294115
0.0,0.058823529411764705
0.0,0.0661764705882353
0.0,0.07352941176470588
0.0,0.08088235294117647
0.0,0.08823529411764706
0.0,0.09558823529411764
0.0,0.10294117647058823
1.53909385685e-05,0.11029411764705882
1.53909385685e-05,0.11764705882352941
1.53909385685e-05,0.125
1.53909385685e-05,0.1323529411764706
1.53909385685e-05,0.13970588235294118
1.53909385685e-05,0.14705882352941177
1.53909385685e-05,0.15441176470588236
1.53909385685e-05,0.16176470588235295
1.53909385685e-05,0.16911764705882354
1.53909385685e-05,0.17647058823529413
1.53909385685e-05,0.18382352941176472
1.53909385685e-05,0.19117647058823528
1.53909385685e-05,0.19852941176470587
1.53909385685e-05,0.20588235294117646
1.53909385685e-05,0.21323529411764705
1.53909385685e-05,0.22058823529411764
1.53909385685e-05,0.22794117647058823
1.53909385685e-05,0.23529411764705882
1.53909385685e-05,0.2426470588235294
1.53909385685e-05,0.25
1.53909385685e-05,0.25735294117647056
1.53909385685e-05,0.2647058823529412
1.53909385685e-05,0.27205882352941174
1.53909385685e-05,0.27941176470588236
1.53909385685e-05,0.2867647058823529
1.53909385685e-05,0.29411764705882354
1.53909385685e-05,0.3014705882352941
0.000384773464212,0.3088235294117647
0.000384773464212,0.3161764705882353
0.000415555341349,0.3235294117647059
0.000769546928424,0.33088235294117646
0.000769546928424,0.3382352941176471
0.000769546928424,0.34558823529411764
0.000769546928424,0.35294117647058826
0.00115432039264,0.3602941176470588
0.00128257821404,0.36764705882352944
0.00128257821404,0.375
0.00128257821404,0.38235294117647056
0.00153909385685,0.3897058823529412
0.00153909385685,0.39705882352941174
0.00153909385685,0.40441176470588236
0.00153909385685,0.4117647058823529
0.00153909385685,0.41911764705882354
0.00153909385685,0.4264705882352941
0.00153909385685,0.4338235294117647
0.00192386732106,0.4411764705882353
0.00230864078527,0.4485294117647059
0.00230864078527,0.45588235294117646
0.00282167207089,0.4632352941176471
0.0030781877137,0.47058823529411764
0.0030781877137,0.47794117647058826
0.00461728157055,0.4852941176470588
0.0062846332488,0.49264705882352944
0.010223172598,0.5
0.010513559035,0.5073529411764706
0.0111584304622,0.5147058823529411
0.011414946105,0.5220588235294118
0.0128956291452,0.5294117647058824
0.0129343210116,0.5367647058823529
0.0129784549431,0.5441176470588235
0.012980365036,0.5514705882352942
0.0130208766371,0.5588235294117647
0.0131177856503,0.5661764705882353
0.0133052567256,0.5735294117647058
0.0133171224331,0.5808823529411765
0.0133534462004,0.5882352941176471
0.0133536079114,0.5955882352941176
0.013354213546,0.6029411764705882
0.0133848999148,0.6102941176470589
0.0133951260241,0.6176470588235294
0.0134306720639,0.625
0.0134343822205,0.6323529411764706
0.013437297367,0.6397058823529411
0.0134764412461,0.6470588235294118
0.0135157394422,0.6544117647058824
0.0135373423489,0.6617647058823529
0.0135373470235,0.6691176470588235
0.0135374940963,0.6764705882352942
0.0135374961691,0.6838235294117647
0.0135380225503,0.6911764705882353
0.0135380239327,0.6985294117647058
0.0135380239327,0.7058823529411765
0.0147496494615,0.7132352941176471
0.0183408684608,0.7205882352941176
0.0185973841036,0.7279411764705882
0.0198799623176,0.7352941176470589
0.0201364779604,0.7426470588235294
0.0216755718173,0.75
0.334622497871,0.7573529411764706
0.335766801598,0.7647058823529411
0.354186119205,0.7720588235294118
0.655889282516,0.7794117647058824
0.655889282516,0.7867647058823529
0.673822062303,0.7941176470588235
0.673822062303,0.8014705882352942
1.00386749361,0.8088235294117647
1.11689350027,0.8161764705882353
1.11689350027,0.8235294117647058
1.11689350027,0.8308823529411765
1.2980365036,0.8382352941176471
1.33536079114,0.8455882352941176
1.34306720639,0.8529411764705882
1.35373470235,0.8602941176470589
1.35374961691,0.8676470588235294
1.35380239327,0.875
1.35380239327,0.8823529411764706
1.67004385247,0.8897058823529411
1.94932138368,0.8970588235294118
2.017551799,0.9044117647058824
2.44860574359,0.9117647058823529
2.59588199791,0.9191176470588235
2.70749902654,0.9264705882352942
4.06140704156,0.9338235294117647
5.45764276392,0.9411764705882353
9.81214180693,0.9485294117647058
9.89266346259,0.9558823529411765
12.9544313137,0.9632352941176471
15.7274297587,0.9705882352941176
16.3154213348,0.9779411764705882
16.7497470185,0.9852941176470589
17.6175089985,0.9926470588235294
18.668864902,1.0
