Congestion,CDF
0.0,0.009433962264150943
0.0,0.018867924528301886
0.0,0.02830188679245283
0.0,0.03773584905660377
0.0,0.04716981132075472
0.0,0.05660377358490566
0.0,0.0660377358490566
0.0,0.07547169811320754
0.0,0.08490566037735849
0.0,0.09433962264150944
0.0,0.10377358490566038
0.0,0.11320754716981132
0.0,0.12264150943396226
0.0,0.1320754716981132
0.0,0.14150943396226415
0.0,0.1509433962264151
0.0,0.16037735849056603
0.0,0.16981132075471697
0.0,0.1792452830188679
0.0,0.18867924528301888
0.0,0.19811320754716982
0.0,0.20754716981132076
0.0,0.2169811320754717
0.0,0.22641509433962265
0.0,0.2358490566037736
0.0,0.24528301886792453
0.0,0.25471698113207547
0.0,0.2641509433962264
0.0,0.27358490566037735
0.0,0.2830188679245283
1.57297145134e-07,0.29245283018867924
4.05235397344e-06,0.3018867924528302
4.55694248948e-06,0.3113207547169811
6.17768346145e-06,0.32075471698113206
6.97349002241e-06,0.330188679245283
7.60590712598e-06,0.33962264150943394
9.27909387271e-06,0.3490566037735849
1.41507607737e-05,0.3584905660377358
1.81137213206e-05,0.36792452830188677
1.91700139278e-05,0.37735849056603776
2.23585784051e-05,0.3867924528301887
2.75287644763e-05,0.39622641509433965
2.81595514915e-05,0.4056603773584906
2.97110980149e-05,0.41509433962264153
0.000190389349375,0.42452830188679247
0.000242991224517,0.4339622641509434
0.00026097451517,0.44339622641509435
0.00026097451517,0.4528301886792453
0.000679264549522,0.46226415094339623
0.000679264549522,0.4716981132075472
0.000679264549522,0.4811320754716981
0.000695932040453,0.49056603773584906
0.000695932040453,0.5
0.000695932040453,0.5094339622641509
0.00107441971329,0.5188679245283019
0.00128307895738,0.5283018867924528
0.00128307895738,0.5377358490566038
0.00135852909904,0.5471698113207547
0.00135852909904,0.5566037735849056
0.00185330503843,0.5660377358490566
0.0022817721378,0.5754716981132075
0.00236238351435,0.5849056603773585
0.00236238351435,0.5943396226415094
0.00292704949419,0.6037735849056604
0.00292704949419,0.6132075471698113
0.00369653182775,0.6226415094339622
0.00449608474923,0.6320754716981132
0.00450369288325,0.6415094339622641
0.00487064532509,0.6509433962264151
0.006076322821,0.660377358490566
0.00947509601721,0.6698113207547169
0.00961204654754,0.6792452830188679
0.0205189170166,0.6886792452830188
0.0210634987648,0.6981132075471698
0.0273433218785,0.7075471698113207
0.0324042271532,0.7169811320754716
0.0339782820317,0.7264150943396226
0.0408935613943,0.7358490566037735
0.0414022446865,0.7452830188679245
0.0425792635075,0.7547169811320755
0.0458893595459,0.7641509433962265
0.0466801877407,0.7735849056603774
0.341858882043,0.7830188679245284
1.16443813181,0.7924528301886793
1.16443813181,0.8018867924528302
1.53350855229,0.8113207547169812
1.53350855229,0.8207547169811321
1.53350855229,0.8301886792452831
2.72268314143,0.839622641509434
3.06701710457,0.8490566037735849
3.06701710457,0.8584905660377359
3.10516835149,0.8679245283018868
3.10516835149,0.8773584905660378
3.10516835149,0.8867924528301887
5.39069325735,0.8962264150943396
5.39069325735,0.9056603773584906
6.13712627458,0.9150943396226415
6.13712627458,0.9245283018867925
7.10473669062,0.9339622641509434
7.10473669062,0.9433962264150944
7.15045717331,0.9528301886792453
7.23302147273,0.9622641509433962
16.8529005918,0.9716981132075472
17.0901490503,0.9811320754716981
22.9796228934,0.9905660377358491
53.1373000422,1.0
