Congestion,CDF
0.0,0.009433962264150943
0.0,0.018867924528301886
0.0,0.02830188679245283
0.0,0.03773584905660377
0.0,0.04716981132075472
0.0,0.05660377358490566
0.0,0.0660377358490566
0.0,0.07547169811320754
0.0,0.08490566037735849
0.0,0.09433962264150944
0.0,0.10377358490566038
0.0,0.11320754716981132
0.0,0.12264150943396226
0.0,0.1320754716981132
0.0,0.14150943396226415
0.0,0.1509433962264151
0.0,0.16037735849056603
0.0,0.16981132075471697
0.0,0.1792452830188679
0.0,0.18867924528301888
0.0,0.19811320754716982
0.0,0.20754716981132076
0.0,0.2169811320754717
0.0,0.22641509433962265
0.0,0.2358490566037736
0.0,0.24528301886792453
0.0,0.25471698113207547
0.0,0.2641509433962264
0.0,0.27358490566037735
0.0,0.2830188679245283
1.56209299763e-07,0.29245283018867924
4.02432845202e-06,0.3018867924528302
4.52542730344e-06,0.3113207547169811
6.13495945428e-06,0.32075471698113206
6.92526232678e-06,0.330188679245283
9.2149209387e-06,0.33962264150943394
1.4052896063e-05,0.3490566037735849
1.79884493211e-05,0.3584905660377358
1.90374367543e-05,0.36792452830188677
2.22039495593e-05,0.37735849056603776
2.73383793363e-05,0.3867924528301887
2.79648039155e-05,0.39622641509433965
2.9505620157e-05,0.4056603773584906
0.000189072642881,0.41509433962264153
0.000259169651401,0.42452830188679247
0.000259169651401,0.4339622641509434
0.000674566849541,0.44339622641509435
0.000674566849541,0.4528301886792453
0.000674566849541,0.46226415094339623
0.000691119070403,0.4716981132075472
0.000691119070403,0.4811320754716981
0.000691119070403,0.49056603773584906
0.00106698917467,0.5
0.00127420536019,0.5094339622641509
0.00127420536019,0.5188679245283019
0.00134913369908,0.5283018867924528
0.00134913369908,0.5377358490566038
0.00184048783628,0.5471698113207547
0.00234604559564,0.5566037735849056
0.00234604559564,0.5660377358490566
0.00290680642341,0.5754716981132075
0.00290680642341,0.5849056603773585
0.00367096712324,0.5943396226415094
0.00446499044694,0.6037735849056604
0.00603429981005,0.6132075471698113
0.0094095675594,0.6226415094339622
0.00954557095874,0.6320754716981132
0.0203770110152,0.6415094339622641
0.0251563372343,0.6509433962264151
0.0305722263112,0.660377358490566
0.0394439652093,0.6698113207547169
0.0396690651301,0.6792452830188679
0.0487118844153,0.6886792452830188
0.0490954371456,0.6981132075471698
0.0524230865128,0.7075471698113207
0.0539782831453,0.7169811320754716
0.0554222979287,0.7264150943396226
0.0556714668653,0.7358490566037735
0.0573061516637,0.7452830188679245
0.0594626778692,0.7547169811320755
0.0598063206527,0.7641509433962265
0.626719200083,0.7735849056603774
1.56576000559,0.7830188679245284
1.56576000559,0.7924528301886793
2.07833617233,0.8018867924528302
2.07833617233,0.8113207547169812
2.07833617233,0.8207547169811321
4.15667234465,0.8301886792452831
4.15667234465,0.839622641509434
4.1753600149,0.8490566037735849
4.1753600149,0.8584905660377359
4.1753600149,0.8679245283018868
7.15396234572,0.8773584905660378
8.64774881372,0.8867924528301887
8.64774881372,0.8962264150943396
9.02210936752,0.9056603773584906
9.02210936752,0.9150943396226415
9.17166789337,0.9245283018867925
9.57145419699,0.9339622641509434
9.57145419699,0.9433962264150944
17.8970015396,0.9528301886792453
17.9476490218,0.9622641509433962
22.0048195405,0.9716981132075472
22.1079123756,0.9811320754716981
38.9058360055,0.9905660377358491
73.068155789,1.0
