Congestion,CDF
0.0,0.009433962264150943
0.0,0.018867924528301886
0.0,0.02830188679245283
0.0,0.03773584905660377
0.0,0.04716981132075472
0.0,0.05660377358490566
0.0,0.0660377358490566
0.0,0.07547169811320754
0.0,0.08490566037735849
0.0,0.09433962264150944
0.0,0.10377358490566038
0.0,0.11320754716981132
0.0,0.12264150943396226
0.0,0.1320754716981132
0.0,0.14150943396226415
0.0,0.1509433962264151
0.0,0.16037735849056603
0.0,0.16981132075471697
0.0,0.1792452830188679
0.0,0.18867924528301888
0.0,0.19811320754716982
0.0,0.20754716981132076
0.0,0.2169811320754717
0.0,0.22641509433962265
0.0,0.2358490566037736
0.0,0.24528301886792453
0.0,0.25471698113207547
0.0,0.2641509433962264
0.0,0.27358490566037735
0.0,0.2830188679245283
1.57145736658e-07,0.29245283018867924
4.0484533258e-06,0.3018867924528302
4.5525561434e-06,0.3113207547169811
6.17173704941e-06,0.32075471698113206
6.9667775961e-06,0.330188679245283
7.60590712598e-06,0.33962264150943394
9.2701621565e-06,0.3490566037735849
1.41371397692e-05,0.3584905660377358
1.80962857153e-05,0.36792452830188677
1.91515615739e-05,0.37735849056603776
2.23370568558e-05,0.3867924528301887
2.7502266295e-05,0.39622641509433965
2.81324461377e-05,0.4056603773584906
2.96824991992e-05,0.41509433962264153
0.000190206087554,0.42452830188679247
0.000260723310652,0.4339622641509434
0.000260723310652,0.44339622641509435
0.000327275372755,0.4528301886792453
0.000678610714323,0.46226415094339623
0.000678610714323,0.4716981132075472
0.000678610714323,0.4811320754716981
0.000695262161738,0.49056603773584906
0.000695262161738,0.5
0.000695262161738,0.5094339622641509
0.00107338551619,0.5188679245283019
0.00128184391253,0.5283018867924528
0.00128184391253,0.5377358490566038
0.00135722142865,0.5471698113207547
0.00135722142865,0.5566037735849056
0.00185152111482,0.5660377358490566
0.0022817721378,0.5754716981132075
0.00236010957043,0.5849056603773585
0.00236010957043,0.5943396226415094
0.00292423202346,0.6037735849056604
0.00292423202346,0.6132075471698113
0.00369297368149,0.6226415094339622
0.00449175698258,0.6320754716981132
0.00607047397501,0.6415094339622641
0.00694977963069,0.6509433962264151
0.00732597976762,0.660377358490566
0.00946597563652,0.6698113207547169
0.00960279434328,0.6792452830188679
0.0204991662579,0.6886792452830188
0.0236077703583,0.6981132075471698
0.0299065971597,0.7075471698113207
0.0345862360595,0.7169811320754716
0.0362358751909,0.7264150943396226
0.0427202826861,0.7358490566037735
0.043178723072,0.7452830188679245
0.0443410845068,0.7547169811320755
0.0475302194393,0.7641509433962265
0.0482867135314,0.7735849056603774
0.365004142682,0.7830188679245284
1.2144015864,0.7924528301886793
1.2144015864,0.8018867924528302
1.60201060073,0.8113207547169812
1.60201060073,0.8207547169811321
1.60201060073,0.8301886792452831
2.92701933814,0.839622641509434
3.20402120146,0.8490566037735849
3.20402120146,0.8584905660377359
3.2384042304,0.8679245283018868
3.2384042304,0.8773584905660378
3.2384042304,0.8867924528301887
5.78040171742,0.8962264150943396
5.78040171742,0.9056603773584906
6.49244549592,0.9150943396226415
6.49244549592,0.9245283018867925
7.40428154396,0.9339622641509434
7.40428154396,0.9433962264150944
8.05614591283,0.9528301886792453
8.14079094364,0.9622641509433962
17.4802785477,0.9716981132075472
17.7072267754,0.9811320754716981
24.6619087893,0.9905660377358491
55.4357515329,1.0
