Congestion,CDF
0.0,0.009433962264150943
0.0,0.018867924528301886
0.0,0.02830188679245283
0.0,0.03773584905660377
0.0,0.04716981132075472
0.0,0.05660377358490566
0.0,0.0660377358490566
0.0,0.07547169811320754
0.0,0.08490566037735849
0.0,0.09433962264150944
0.0,0.10377358490566038
0.0,0.11320754716981132
0.0,0.12264150943396226
0.0,0.1320754716981132
0.0,0.14150943396226415
0.0,0.1509433962264151
0.0,0.16037735849056603
0.0,0.16981132075471697
0.0,0.1792452830188679
0.0,0.18867924528301888
0.0,0.19811320754716982
0.0,0.20754716981132076
0.0,0.2169811320754717
0.0,0.22641509433962265
0.0,0.2358490566037736
0.0,0.24528301886792453
0.0,0.25471698113207547
0.0,0.2641509433962264
0.0,0.27358490566037735
0.0,0.2830188679245283
1.56890318337e-07,0.29245283018867924
4.0418731336e-06,0.3018867924528302
4.54515660287e-06,0.3113207547169811
6.16170575777e-06,0.32075471698113206
6.95545407773e-06,0.330188679245283
7.60590712598e-06,0.33962264150943394
9.25509481008e-06,0.3490566037735849
1.41141618343e-05,0.3584905660377358
1.80668727448e-05,0.36792452830188677
1.91204334008e-05,0.37735849056603776
2.23007511075e-05,0.3867924528301887
2.74575652243e-05,0.39622641509433965
2.80867207983e-05,0.4056603773584906
2.96342544662e-05,0.41509433962264153
0.000189896934277,0.42452830188679247
0.000260299541534,0.4339622641509434
0.000260299541534,0.44339622641509435
0.000589633477377,0.4528301886792453
0.000677507727931,0.46226415094339623
0.000677507727931,0.4716981132075472
0.000677507727931,0.4811320754716981
0.000694132110756,0.49056603773584906
0.000694132110756,0.5
0.000694132110756,0.5094339622641509
0.00107164087881,0.5188679245283019
0.0012797604553,0.5283018867924528
0.0012797604553,0.5377358490566038
0.00135501545586,0.5471698113207547
0.00135501545586,0.5566037735849056
0.00184851172733,0.5660377358490566
0.0022817721378,0.5754716981132075
0.00235627354384,0.5849056603773585
0.00235627354384,0.5943396226415094
0.00291947909507,0.6037735849056604
0.00291947909507,0.6132075471698113
0.00368697127151,0.6226415094339622
0.00448445626255,0.6320754716981132
0.00606060727227,0.6415094339622641
0.00945059002279,0.6509433962264151
0.00958718634996,0.660377358490566
0.0124297544373,0.6698113207547169
0.0128088778952,0.6792452830188679
0.0204658477426,0.6886792452830188
0.0288039468472,0.6981132075471698
0.0348906470272,0.7075471698113207
0.0389892291236,0.7169811320754716
0.0405584252045,0.7264150943396226
0.0462775173671,0.7358490566037735
0.0466615054556,0.7452830188679245
0.0478359207199,0.7547169811320755
0.0508060879145,0.7641509433962265
0.0514938689019,0.7735849056603774
0.412153020278,0.7830188679245284
1.31235484094,0.7924528301886793
1.31235484094,0.8018867924528302
1.73540690127,0.8113207547169812
1.73540690127,0.8207547169811321
1.73540690127,0.8301886792452831
3.33588766993,0.839622641509434
3.47081380253,0.8490566037735849
3.47081380253,0.8584905660377359
3.49961290917,0.8679245283018868
3.49961290917,0.8773584905660378
3.49961290917,0.8867924528301887
6.53910780744,0.8962264150943396
6.53910780744,0.9056603773584906
7.1767328524,0.9150943396226415
7.1767328524,0.9245283018867925
7.99545109787,0.9339622641509434
7.99545109787,0.9433962264150944
9.97342760079,0.9528301886792453
10.0587303788,0.9622641509433962
18.7270397302,0.9716981132075472
18.9333740264,0.9811320754716981
28.0205959279,0.9905660377358491
60.0177839575,1.0
