Congestion,CDF
0.0,0.009433962264150943
0.0,0.018867924528301886
0.0,0.02830188679245283
0.0,0.03773584905660377
0.0,0.04716981132075472
0.0,0.05660377358490566
0.0,0.0660377358490566
0.0,0.07547169811320754
0.0,0.08490566037735849
0.0,0.09433962264150944
0.0,0.10377358490566038
0.0,0.11320754716981132
0.0,0.12264150943396226
0.0,0.1320754716981132
0.0,0.14150943396226415
0.0,0.1509433962264151
0.0,0.16037735849056603
0.0,0.16981132075471697
0.0,0.1792452830188679
0.0,0.18867924528301888
0.0,0.19811320754716982
0.0,0.20754716981132076
0.0,0.2169811320754717
0.0,0.22641509433962265
0.0,0.2358490566037736
0.0,0.24528301886792453
0.0,0.25471698113207547
0.0,0.2641509433962264
0.0,0.27358490566037735
0.0,0.2830188679245283
1.64586039419e-07,0.29245283018867924
4.24013347633e-06,0.3018867924528302
4.76810380484e-06,0.3113207547169811
6.46394728168e-06,0.32075471698113206
7.29663022644e-06,0.330188679245283
9.7090720153e-06,0.33962264150943394
1.48064840498e-05,0.3490566037735849
1.89530817534e-05,0.3584905660377358
2.00583212448e-05,0.36792452830188677
2.33946386224e-05,0.37735849056603776
2.88044027207e-05,0.3867924528301887
2.9464419382e-05,0.39622641509433965
3.10878620518e-05,0.4056603773584906
0.000199211682669,0.41509433962264153
0.00027306765043,0.42452830188679247
0.00027306765043,0.4339622641509434
0.000710740565752,0.44339622641509435
0.000710740565752,0.4528301886792453
0.000710740565752,0.46226415094339623
0.000728180401148,0.4716981132075472
0.000728180401148,0.4811320754716981
0.000728180401148,0.49056603773584906
0.00112420657815,0.5
0.00134253475279,0.5094339622641509
0.00134253475279,0.5188679245283019
0.0014214811315,0.5283018867924528
0.0014214811315,0.5377358490566038
0.0019391841845,0.5471698113207547
0.00247185253035,0.5566037735849056
0.00247185253035,0.5660377358490566
0.00306268421478,0.5754716981132075
0.00306268421478,0.5849056603773585
0.00386782311019,0.5943396226415094
0.00470442601573,0.6037735849056604
0.00635788975375,0.6132075471698113
0.00636821126701,0.6226415094339622
0.00637300682519,0.6320754716981132
0.00637362806994,0.6415094339622641
0.00637562351133,0.6509433962264151
0.00637660330106,0.660377358490566
0.00637944193934,0.6698113207547169
0.00638543989088,0.6792452830188679
0.0063903190515,0.6886792452830188
0.00639161954925,0.6981132075471698
0.00639554528054,0.7075471698113207
0.00640191076614,0.7169811320754716
0.00640268738531,0.7264150943396226
0.00640459763514,0.7358490566037735
0.00991415658092,0.7452830188679245
0.0100574531764,0.7547169811320755
0.0214697303123,0.7641509433962265
0.0830186344726,0.7735849056603774
0.179421804544,0.7830188679245284
0.179421804544,0.7924528301886793
0.239636964431,0.8018867924528302
0.239636964431,0.8113207547169812
0.239636964431,0.8207547169811321
0.478458145451,0.8301886792452831
0.478458145451,0.839622641509434
0.478458145451,0.8490566037735849
0.479273928862,0.8584905660377359
0.479273928862,0.8679245283018868
1.07618268574,0.8773584905660378
1.07618268574,0.8867924528301887
1.07751151559,0.8962264150943396
1.07751151559,0.9056603773584906
1.07820672716,0.9150943396226415
1.07820672716,0.9245283018867925
1.25825460186,0.9339622641509434
1.9126870534,0.9433962264150944
2.38932941726,0.9528301886792453
2.39967225275,0.9622641509433962
2.5129424699,0.9716981132075472
2.51924119506,0.9811320754716981
4.78349431599,0.9905660377358491
8.1444851475,1.0
