Congestion,CDF
0.0,0.009433962264150943
0.0,0.018867924528301886
0.0,0.02830188679245283
0.0,0.03773584905660377
0.0,0.04716981132075472
0.0,0.05660377358490566
0.0,0.0660377358490566
0.0,0.07547169811320754
0.0,0.08490566037735849
0.0,0.09433962264150944
0.0,0.10377358490566038
0.0,0.11320754716981132
0.0,0.12264150943396226
0.0,0.1320754716981132
0.0,0.14150943396226415
0.0,0.1509433962264151
0.0,0.16037735849056603
0.0,0.16981132075471697
0.0,0.1792452830188679
0.0,0.18867924528301888
0.0,0.19811320754716982
0.0,0.20754716981132076
0.0,0.2169811320754717
0.0,0.22641509433962265
0.0,0.2358490566037736
0.0,0.24528301886792453
0.0,0.25471698113207547
0.0,0.2641509433962264
0.0,0.27358490566037735
0.0,0.2830188679245283
1.56432254686e-07,0.29245283018867924
4.03007230877e-06,0.3018867924528302
4.53188637022e-06,0.3113207547169811
6.1437157794e-06,0.32075471698113206
6.93514663798e-06,0.330188679245283
9.22807324138e-06,0.33962264150943394
1.40729535267e-05,0.3490566037735849
1.80141239342e-05,0.3584905660377358
1.90646085696e-05,0.36792452830188677
2.22356408855e-05,0.37735849056603776
2.73773989483e-05,0.3867924528301887
2.80047176129e-05,0.39622641509433965
2.95477330356e-05,0.4056603773584906
0.000189342503105,0.41509433962264153
0.000259539559914,0.42452830188679247
0.000259539559914,0.4339622641509434
0.000675529647534,0.44339622641509435
0.000675529647534,0.4528301886792453
0.000675529647534,0.46226415094339623
0.000692105493104,0.4716981132075472
0.000692105493104,0.4811320754716981
0.000692105493104,0.49056603773584906
0.00106851207049,0.5
0.00127602401221,0.5094339622641509
0.00127602401221,0.5188679245283019
0.00135105929507,0.5283018867924528
0.00135105929507,0.5377358490566038
0.00184311473382,0.5471698113207547
0.00234939406732,0.5566037735849056
0.00234939406732,0.5660377358490566
0.00291095525965,0.5754716981132075
0.00291095525965,0.5849056603773585
0.00367620663327,0.5943396226415094
0.0044713632532,0.6037735849056604
0.00604291246535,0.6132075471698113
0.00942299767795,0.6226415094339622
0.00955919519267,0.6320754716981132
0.0204060947826,0.6415094339622641
0.0223794090468,0.6509433962264151
0.0276716547573,0.660377358490566
0.0343324855801,0.6698113207547169
0.0345167772311,0.6792452830188679
0.0413435533077,0.6886792452830188
0.0417284391499,0.6981132075471698
0.0440591991598,0.7075471698113207
0.0458507118193,0.7169811320754716
0.046511714878,0.7264150943396226
0.0467197061392,0.7358490566037735
0.0482007634125,0.7452830188679245
0.0500507130674,0.7547169811320755
0.0503255971779,0.7641509433962265
0.533690724727,0.7735849056603774
1.31399173517,0.7830188679245284
1.31399173517,0.7924528301886793
1.74418930792,0.8018867924528302
1.74418930792,0.8113207547169812
1.74418930792,0.8207547169811321
3.48837861585,0.8301886792452831
3.48837861585,0.839622641509434
3.50397796044,0.8490566037735849
3.50397796044,0.8584905660377359
3.50397796044,0.8679245283018868
6.15432524937,0.8773584905660378
7.27328346322,0.8867924528301887
7.27328346322,0.8962264150943396
7.57879362158,0.9056603773584906
7.57879362158,0.9150943396226415
8.04471960002,0.9245283018867925
8.04471960002,0.9339622641509434
8.3014964272,0.9433962264150944
15.3036028771,0.9528301886792453
15.3450684986,0.9622641509433962
18.5113922084,0.9716981132075472
18.5938574415,0.9811320754716981
32.9425358293,0.9905660377358491
61.5867559957,1.0
