Congestion,CDF
0.0,0.009433962264150943
0.0,0.018867924528301886
0.0,0.02830188679245283
0.0,0.03773584905660377
0.0,0.04716981132075472
0.0,0.05660377358490566
0.0,0.0660377358490566
0.0,0.07547169811320754
0.0,0.08490566037735849
0.0,0.09433962264150944
0.0,0.10377358490566038
0.0,0.11320754716981132
0.0,0.12264150943396226
0.0,0.1320754716981132
0.0,0.14150943396226415
0.0,0.1509433962264151
0.0,0.16037735849056603
0.0,0.16981132075471697
0.0,0.1792452830188679
0.0,0.18867924528301888
0.0,0.19811320754716982
0.0,0.20754716981132076
0.0,0.2169811320754717
0.0,0.22641509433962265
0.0,0.2358490566037736
0.0,0.24528301886792453
0.0,0.25471698113207547
0.0,0.2641509433962264
0.0,0.27358490566037735
0.0,0.2830188679245283
1.58366455534e-07,0.29245283018867924
4.07990198931e-06,0.3018867924528302
4.58792071222e-06,0.3113207547169811
6.21967952674e-06,0.32075471698113206
7.020896003e-06,0.330188679245283
7.60590712598e-06,0.33962264150943394
9.34217341289e-06,0.3490566037735849
1.4246958042e-05,0.3584905660377358
1.82368589057e-05,0.36792452830188677
1.93003322197e-05,0.37735849056603776
2.25105726477e-05,0.3867924528301887
2.77159057886e-05,0.39622641509433965
2.83509809117e-05,0.4056603773584906
2.99130748918e-05,0.41509433962264153
6.16876997905e-05,0.42452830188679247
0.000191683621507,0.4339622641509434
0.000262748627237,0.44339622641509435
0.000262748627237,0.4528301886792453
0.000267722523117,0.46226415094339623
0.000505562116621,0.4716981132075472
0.000683882208965,0.4811320754716981
0.000683882208965,0.49056603773584906
0.000683882208965,0.5
0.000700663005966,0.5094339622641509
0.000700663005966,0.5188679245283019
0.000700663005966,0.5283018867924528
0.00108172364861,0.5377358490566038
0.00129180136409,0.5471698113207547
0.00129180136409,0.5566037735849056
0.00136776441793,0.5660377358490566
0.00136776441793,0.5754716981132075
0.00186590385802,0.5849056603773585
0.0022817721378,0.5943396226415094
0.00237844306368,0.6037735849056604
0.00237844306368,0.6132075471698113
0.00294694765868,0.6226415094339622
0.00294694765868,0.6320754716981132
0.00372166095471,0.6415094339622641
0.00452664925935,0.6509433962264151
0.00611762983382,0.660377358490566
0.00781049636476,0.6698113207547169
0.00953950798546,0.6792452830188679
0.00967738950933,0.6886792452830188
0.0137510465164,0.6981132075471698
0.0206584051894,0.7075471698113207
0.0209356759329,0.7169811320754716
0.0213990782351,0.7264150943396226
0.0315338259351,0.7358490566037735
0.032547470572,0.7452830188679245
0.0338709678393,0.7547169811320755
0.03796453113,0.7641509433962265
0.0389955278498,0.7735849056603774
0.239651198622,0.7830188679245284
0.915397609838,0.7924528301886793
0.915397609838,0.8018867924528302
1.18251847256,0.8113207547169812
1.18251847256,0.8207547169811321
1.18251847256,0.8301886792452831
1.6815794649,0.839622641509434
2.36503694513,0.8490566037735849
2.36503694513,0.8584905660377359
2.4410602929,0.8679245283018868
2.4410602929,0.8773584905660378
2.4410602929,0.8867924528301887
3.34927919735,0.8962264150943396
3.34927919735,0.9056603773584906
4.20968276571,0.9150943396226415
4.20968276571,0.9245283018867925
4.26992033341,0.9339622641509434
4.32343424195,0.9433962264150944
5.61277034619,0.9528301886792453
5.61277034619,0.9622641509433962
13.792407958,0.9716981132075472
14.101706974,0.9811320754716981
14.2925483008,0.9905660377358491
41.6585115068,1.0
