Congestion,CDF
0.0,0.009433962264150943
0.0,0.018867924528301886
0.0,0.02830188679245283
0.0,0.03773584905660377
0.0,0.04716981132075472
0.0,0.05660377358490566
0.0,0.0660377358490566
0.0,0.07547169811320754
0.0,0.08490566037735849
0.0,0.09433962264150944
0.0,0.10377358490566038
0.0,0.11320754716981132
0.0,0.12264150943396226
0.0,0.1320754716981132
0.0,0.14150943396226415
0.0,0.1509433962264151
0.0,0.16037735849056603
0.0,0.16981132075471697
0.0,0.1792452830188679
0.0,0.18867924528301888
0.0,0.19811320754716982
0.0,0.20754716981132076
0.0,0.2169811320754717
0.0,0.22641509433962265
0.0,0.2358490566037736
0.0,0.24528301886792453
0.0,0.25471698113207547
0.0,0.2641509433962264
0.0,0.27358490566037735
0.0,0.2830188679245283
1.64471565093e-07,0.29245283018867924
4.23718434151e-06,0.3018867924528302
4.76478745147e-06,0.3113207547169811
6.45945142038e-06,0.32075471698113206
7.2915552102e-06,0.330188679245283
7.60590712598e-06,0.33962264150943394
9.7023190764e-06,0.3490566037735849
9.85755035971e-06,0.3584905660377358
1.47961857142e-05,0.36792452830188677
1.89398993398e-05,0.37735849056603776
2.00443701053e-05,0.3867924528301887
2.33783669782e-05,0.39622641509433965
2.75276763337e-05,0.4056603773584906
2.87843684299e-05,0.41509433962264153
2.94439260306e-05,0.42452830188679247
3.10662395494e-05,0.4339622641509434
4.22255393687e-05,0.44339622641509435
0.000199073125212,0.4528301886792453
0.000218115289141,0.46226415094339623
0.000247716052043,0.4716981132075472
0.000272877724024,0.4811320754716981
0.000272877724024,0.49056603773584906
0.000710246225241,0.5
0.000710246225241,0.5094339622641509
0.000710246225241,0.5188679245283019
0.00072767393073,0.5283018867924528
0.00072767393073,0.5377358490566038
0.00072767393073,0.5471698113207547
0.000955737483855,0.5566037735849056
0.00112342466013,0.5660377358490566
0.00134160098124,0.5754716981132075
0.00134160098124,0.5849056603773585
0.00142049245048,0.5943396226415094
0.00142049245048,0.6037735849056604
0.00193783542611,0.6132075471698113
0.0022817721378,0.6226415094339622
0.0024701332858,0.6320754716981132
0.0024701332858,0.6415094339622641
0.0030605540298,0.6509433962264151
0.0030605540298,0.660377358490566
0.00386513292795,0.6698113207547169
0.0047011539521,0.6792452830188679
0.00567535083922,0.6886792452830188
0.00635346765851,0.6981132075471698
0.00703525553105,0.7075471698113207
0.00766584632008,0.7169811320754716
0.00990726099979,0.7264150943396226
0.0100504579284,0.7358490566037735
0.0195560436365,0.7452830188679245
0.0214547974972,0.7547169811320755
0.0262240265689,0.7641509433962265
0.0274933927762,0.7735849056603774
0.0951587011701,0.7830188679245284
0.204641476568,0.7924528301886793
0.212825656471,0.8018867924528302
0.212825656471,0.8113207547169812
0.212825656471,0.8207547169811321
0.215601927752,0.8301886792452831
0.215601927752,0.839622641509434
0.399759140134,0.8490566037735849
0.399759140134,0.8584905660377359
0.401977088965,0.8679245283018868
0.40308922596,0.8773584905660378
0.40308922596,0.8867924528301887
0.409259886492,0.8962264150943396
0.425651312942,0.9056603773584906
0.425651312942,0.9150943396226415
0.574938474006,0.9245283018867925
0.574938474006,0.9339622641509434
0.574938474006,0.9433962264150944
2.57527607921,0.9528301886792453
2.57527607921,0.9622641509433962
4.25787498539,0.9716981132075472
8.36750286413,0.9811320754716981
8.74831272632,0.9905660377358491
22.6600936887,1.0
