Congestion,CDF
0.00798320918878,0.009433962264150943
0.00798320918878,0.018867924528301886
0.00799277249602,0.02830188679245283
0.00799277249602,0.03773584905660377
0.00799396535982,0.04716981132075472
0.00799396535982,0.05660377358490566
0.00799532647512,0.0660377358490566
0.00799532647512,0.07547169811320754
0.00799964949778,0.08490566037735849
0.00799964949778,0.09433962264150944
0.00800174111277,0.10377358490566038
0.00800174111277,0.11320754716981132
0.0080077058711,0.12264150943396226
0.0080077058711,0.1320754716981132
0.00801979655019,0.14150943396226415
0.00801979655019,0.1509433962264151
0.00802912256305,0.16037735849056603
0.00802912256305,0.16981132075471697
0.00803153057174,0.1792452830188679
0.00803153057174,0.18867924528301888
0.00803860377663,0.19811320754716982
0.00803860377663,0.20754716981132076
0.00804944750915,0.2169811320754717
0.00804944750915,0.22641509433962265
0.00805071385888,0.2358490566037736
0.00805071385888,0.24528301886792453
0.00805378827714,0.25471698113207547
0.00805378827714,0.2641509433962264
0.0616504401321,0.27358490566037735
0.0616504401321,0.2830188679245283
0.0819278986551,0.29245283018867924
0.0819278986551,0.3018867924528302
0.112920390116,0.3113207547169811
0.112920390116,0.32075471698113206
0.118936299734,0.330188679245283
0.118936299734,0.33962264150943394
0.119073426682,0.3490566037735849
0.119073426682,0.3584905660377358
0.123017439935,0.36792452830188677
0.123017439935,0.37735849056603776
0.136120483127,0.3867924528301887
0.136120483127,0.39622641509433965
0.136378089747,0.4056603773584906
0.136378089747,0.41509433962264153
0.138211886659,0.42452830188679247
0.138211886659,0.4339622641509434
0.145827097057,0.44339622641509435
0.145827097057,0.4528301886792453
0.153083060582,0.46226415094339623
0.153083060582,0.4716981132075472
0.153580141088,0.4811320754716981
0.153580141088,0.49056603773584906
0.176301583142,0.5
0.176301583142,0.5094339622641509
0.181620366763,0.5188679245283019
0.181620366763,0.5283018867924528
0.181857243278,0.5377358490566038
0.181857243278,0.5471698113207547
0.190013652,0.5566037735849056
0.190013652,0.5660377358490566
0.19399891411,0.5754716981132075
0.19399891411,0.5849056603773585
0.199902891582,0.5943396226415094
0.199902891582,0.6037735849056604
0.208086605322,0.6132075471698113
0.208086605322,0.6226415094339622
0.215632872068,0.6320754716981132
0.215632872068,0.6415094339622641
0.220251857702,0.6509433962264151
0.220251857702,0.660377358490566
0.226092941347,0.6698113207547169
0.226092941347,0.6792452830188679
0.232112365752,0.6886792452830188
0.232112365752,0.6981132075471698
0.254157578762,0.7075471698113207
0.254157578762,0.7169811320754716
0.258836978359,0.7264150943396226
0.258836978359,0.7358490566037735
0.259366629517,0.7452830188679245
0.259366629517,0.7547169811320755
0.278860181406,0.7641509433962265
0.278860181406,0.7735849056603774
0.279601115473,0.7830188679245284
0.279601115473,0.7924528301886793
0.31723166039,0.8018867924528302
0.31723166039,0.8113207547169812
0.317398231432,0.8207547169811321
0.317398231432,0.8301886792452831
0.325840881096,0.839622641509434
0.325840881096,0.8490566037735849
0.350976292649,0.8584905660377359
0.350976292649,0.8679245283018868
0.351675032569,0.8773584905660378
0.351675032569,0.8867924528301887
0.353724815816,0.8962264150943396
0.353724815816,0.9056603773584906
0.38129732005,0.9150943396226415
0.38129732005,0.9245283018867925
0.381591943751,0.9339622641509434
0.381591943751,0.9433962264150944
0.415532996708,0.9528301886792453
0.415532996708,0.9622641509433962
0.468224861699,0.9716981132075472
0.468224861699,0.9811320754716981
0.488983324995,0.9905660377358491
0.488983324995,1.0
