Congestion,CDF
0.0,0.005555555555555556
0.0,0.011111111111111112
0.0,0.016666666666666666
0.0,0.022222222222222223
0.0,0.027777777777777776
0.0,0.03333333333333333
0.0,0.03888888888888889
0.0,0.044444444444444446
0.0,0.05
0.0,0.05555555555555555
1.0546732474e-06,0.06111111111111111
1.21176883878e-06,0.06666666666666667
2.72759125706e-06,0.07222222222222222
3.986533286e-06,0.07777777777777778
4.07920458021e-06,0.08333333333333333
5.38595429084e-06,0.08888888888888889
5.92526256461e-06,0.09444444444444444
8.16636296627e-06,0.1
8.20849364142e-06,0.10555555555555556
8.39805951029e-06,0.1111111111111111
8.57090121081e-06,0.11666666666666667
9.43481122159e-06,0.12222222222222222
9.65364940464e-06,0.12777777777777777
1.07801711865e-05,0.13333333333333333
1.10410610317e-05,0.1388888888888889
1.16263779028e-05,0.14444444444444443
1.34437392905e-05,0.15
1.47129261835e-05,0.15555555555555556
1.53632585102e-05,0.16111111111111112
1.59784205988e-05,0.16666666666666666
1.62312320175e-05,0.17222222222222222
1.63615903054e-05,0.17777777777777778
1.69036731312e-05,0.18333333333333332
1.74910435535e-05,0.18888888888888888
1.77862998458e-05,0.19444444444444445
1.79871639804e-05,0.2
1.80869568523e-05,0.20555555555555555
1.82946563607e-05,0.2111111111111111
1.84734282508e-05,0.21666666666666667
1.85139662458e-05,0.2222222222222222
1.91325654162e-05,0.22777777777777777
1.92921859946e-05,0.23333333333333334
1.95136482798e-05,0.2388888888888889
2.11322344525e-05,0.24444444444444444
2.22366365594e-05,0.25
2.41425193415e-05,0.25555555555555554
2.45249902454e-05,0.2611111111111111
2.48779226333e-05,0.26666666666666666
2.57204118923e-05,0.2722222222222222
9.09197085688e-05,0.2777777777777778
0.000181839417138,0.2833333333333333
0.0001993266643,0.28888888888888886
0.0001993266643,0.29444444444444445
0.000205212341036,0.3
0.000205212341036,0.3055555555555556
0.000310679665775,0.3111111111111111
0.000407920458021,0.31666666666666665
0.000410424682071,0.32222222222222224
0.000546452346082,0.3277777777777778
0.000816636296627,0.3333333333333333
0.000849275094859,0.3388888888888889
0.000899358199018,0.34444444444444444
0.000899358199018,0.35
0.00114869346319,0.35555555555555557
0.00174910435535,0.3611111111111111
0.00177862998458,0.36666666666666664
0.00183548569484,0.37222222222222223
0.00197737531767,0.37777777777777777
0.00209208123285,0.38333333333333336
0.00209208123285,0.3888888888888889
0.00238560094588,0.39444444444444443
0.00252114390327,0.4
0.00271090579012,0.40555555555555556
0.0028982169454,0.4111111111111111
0.00360050097993,0.4166666666666667
0.00380684095374,0.4222222222222222
0.00400533777448,0.42777777777777776
0.00492416390685,0.43333333333333335
0.00578125402793,0.4388888888888889
0.0060529602695,0.4444444444444444
0.00747433507218,0.45
0.00846721220365,0.45555555555555555
0.0150642847853,0.46111111111111114
0.0161903647277,0.4666666666666667
0.0162816763744,0.4722222222222222
0.0175887691302,0.4777777777777778
0.0176599965558,0.48333333333333334
0.0176764304497,0.4888888888888889
0.0176772063451,0.49444444444444446
0.0176846532248,0.5
0.0176846591374,0.5055555555555555
0.0176912850163,0.5111111111111111
0.0176977268342,0.5166666666666667
0.0177113959266,0.5222222222222223
0.017711607288,0.5277777777777778
0.0177133894985,0.5333333333333333
0.0177176381394,0.5388888888888889
0.0177242125331,0.5444444444444444
0.0177255352675,0.55
0.0177273281496,0.5555555555555556
0.0177276108672,0.5611111111111111
0.0177403488882,0.5666666666666667
0.0177435899977,0.5722222222222222
0.0177467840245,0.5777777777777777
0.0177493795043,0.5833333333333334
0.0177496524957,0.5888888888888889
0.0177497916272,0.5944444444444444
0.0177543602393,0.6
0.0177572042288,0.6055555555555555
0.0177587000089,0.6111111111111112
0.0177596659919,0.6166666666666667
0.0177601762525,0.6222222222222222
0.0177611600846,0.6277777777777778
0.0177622337867,0.6333333333333333
0.0177653196905,0.6388888888888888
0.0177671891504,0.6444444444444445
0.0177751326159,0.65
0.0177804394938,0.6555555555555556
0.0177899393583,0.6611111111111111
0.0177917884582,0.6666666666666666
0.0177935694557,0.6722222222222223
0.0177974486893,0.6777777777777778
0.0183270531619,0.6833333333333333
0.0191832707485,0.6888888888888889
0.0208990943511,0.6944444444444444
0.0214069344044,0.7
0.0225222175528,0.7055555555555556
0.022768898859,0.7111111111111111
0.0241132727881,0.7166666666666667
0.0260424913875,0.7222222222222222
0.0262050460728,0.7277777777777777
0.026635017644,0.7333333333333333
0.0270448520238,0.7388888888888889
0.0280102169643,0.7444444444444445
0.442790182199,0.75
0.442790182199,0.7555555555555555
0.589488637915,0.7611111111111111
0.688645359508,0.7666666666666667
0.884232661238,0.7722222222222223
0.884232661238,0.7777777777777778
0.885580364399,0.7833333333333333
0.887983299597,0.7888888888888889
0.887983299597,0.7944444444444444
1.17897727583,0.8
1.76912850163,0.8055555555555556
1.77113959266,0.8111111111111111
1.77572042288,0.8166666666666667
1.77587000089,0.8222222222222222
2.21043322717,0.8277777777777777
2.21455399614,0.8333333333333334
2.65826755005,0.8388888888888889
2.66040455291,0.8444444444444444
2.66493730997,0.85
2.80823405628,0.8555555555555555
2.80823405628,0.8611111111111112
3.54664176322,0.8666666666666667
3.55194380155,0.8722222222222222
3.98020591059,0.8777777777777778
4.43652056137,0.8833333333333333
4.57840163383,0.8888888888888888
4.58476602533,0.8944444444444445
5.75488431304,0.9
8.13607205015,0.9055555555555556
9.15435632461,0.9111111111111111
10.1907261203,0.9166666666666666
10.9256952745,0.9222222222222223
11.9697200562,0.9277777777777778
20.8377849499,0.9333333333333333
21.7373632649,0.9388888888888889
23.5171081338,0.9444444444444444
25.2920460843,0.95
26.1594058758,0.9555555555555556
27.9374498252,0.9611111111111111
29.7252788839,0.9666666666666667
30.5944153014,0.9722222222222222
31.4841557969,0.9777777777777777
32.3671763881,0.9833333333333333
33.1031922697,0.9888888888888889
34.1331760437,0.9944444444444445
35.7613436811,1.0
