Congestion,CDF
0.0,0.005555555555555556
0.0,0.011111111111111112
0.0,0.016666666666666666
0.0,0.022222222222222223
0.0,0.027777777777777776
0.0,0.03333333333333333
0.0,0.03888888888888889
0.0,0.044444444444444446
0.0,0.05
0.0,0.05555555555555555
1.10013086169e-06,0.06111111111111111
1.2639974514e-06,0.06666666666666667
2.84515353677e-06,0.07222222222222222
4.15835739638e-06,0.07777777777777778
4.25502292858e-06,0.08333333333333333
5.61809503523e-06,0.08888888888888889
6.18064810787e-06,0.09444444444444444
8.51834248107e-06,0.1
8.56228903615e-06,0.10555555555555556
8.76002540917e-06,0.1111111111111111
8.94031678321e-06,0.11666666666666667
9.84146229621e-06,0.12222222222222222
1.00697326534e-05,0.12777777777777777
1.1244808803e-05,0.13333333333333333
1.15169432967e-05,0.1388888888888889
1.21274879894e-05,0.14444444444444443
1.40231797161e-05,0.15
1.5347070005e-05,0.15555555555555556
1.60254323933e-05,0.16111111111111112
1.66671086663e-05,0.16666666666666666
1.69308165441e-05,0.17222222222222222
1.70667934222e-05,0.17777777777777778
1.76322406332e-05,0.18333333333333332
1.82449273875e-05,0.18888888888888888
1.85529095613e-05,0.19444444444444445
1.8762431168e-05,0.2
1.8866525226e-05,0.20555555555555555
1.90831768191e-05,0.2111111111111111
1.92696539806e-05,0.21666666666666667
1.93119392092e-05,0.2222222222222222
1.99572007061e-05,0.22777777777777777
2.01237011127e-05,0.23333333333333334
2.03547086737e-05,0.2388888888888889
2.2043057748e-05,0.24444444444444444
2.31950608395e-05,0.25
2.51830893332e-05,0.25555555555555554
2.55820451673e-05,0.2611111111111111
2.59501893417e-05,0.26666666666666666
2.68289908442e-05,0.2722222222222222
8.31981434225e-05,0.2777777777777778
9.48384512257e-05,0.2833333333333333
0.000189676902451,0.28888888888888886
0.000207917869819,0.29444444444444445
0.000207917869819,0.3
0.000214057225904,0.3055555555555556
0.000214057225904,0.3111111111111111
0.000324070312073,0.31666666666666665
0.000425502292858,0.32222222222222224
0.000428114451807,0.3277777777777778
0.000570005062564,0.3333333333333333
0.000592935806106,0.3388888888888889
0.000851834248107,0.34444444444444444
0.000885879815596,0.35
0.000938121558401,0.35555555555555557
0.000938121558401,0.3611111111111111
0.00119820345553,0.36666666666666664
0.00182449273875,0.37222222222222223
0.00185529095613,0.37777777777777777
0.00191459721204,0.38333333333333336
0.0020626024387,0.3888888888888889
0.00218225230905,0.39444444444444443
0.00218225230905,0.4
0.00248842305492,0.40555555555555556
0.00262980806766,0.4111111111111111
0.00282774890726,0.4166666666666667
0.00302313338597,0.4222222222222222
0.00375568665968,0.42777777777777776
0.00397092012061,0.43333333333333335
0.00417797237966,0.4388888888888889
0.00423765093895,0.4444444444444444
0.00448003632895,0.45
0.00448930900314,0.45555555555555555
0.00457874607304,0.46111111111111114
0.00463929287537,0.4666666666666667
0.00465847069606,0.4722222222222222
0.00473559299684,0.4777777777777778
0.00489964194921,0.48333333333333334
0.00490213253258,0.4888888888888889
0.00492351572601,0.49444444444444446
0.00495394205369,0.5
0.00497448967844,0.5055555555555555
0.00505382232126,0.5111111111111111
0.00506926187079,0.5166666666666667
0.00510164019147,0.5222222222222223
0.00513640096144,0.5277777777777778
0.00518165322752,0.5333333333333333
0.00528591198736,0.5388888888888889
0.00532427938561,0.5444444444444444
0.0053563480298,0.55
0.00536055184213,0.5555555555555556
0.00537219921499,0.5611111111111111
0.00541517006201,0.5666666666666667
0.00544977354845,0.5722222222222222
0.00546724730016,0.5777777777777777
0.00547035725937,0.5833333333333334
0.00547907359949,0.5888888888888889
0.00548498420884,0.5944444444444444
0.00549719485712,0.6
0.00551012837831,0.6055555555555555
0.00554668078173,0.6111111111111112
0.00556916077999,0.6166666666666667
0.00566464238108,0.6222222222222222
0.00572960299766,0.6277777777777778
0.00584226437123,0.6333333333333333
0.00586478780536,0.6388888888888888
0.00588567216289,0.6444444444444445
0.00593497221108,0.65
0.00603043263976,0.6555555555555556
0.0063138497288,0.6611111111111111
0.00779648739911,0.6666666666666666
0.00883215866212,0.6722222222222223
0.0157135725615,0.6777777777777778
0.0191169699591,0.6833333333333333
0.0200100914958,0.6888888888888889
0.0217998690435,0.6944444444444444
0.0223295975797,0.7
0.023492950698,0.7055555555555556
0.0237502642485,0.7111111111111111
0.0251525822201,0.7166666666666667
0.0271649523313,0.7222222222222222
0.0273345133081,0.7277777777777777
0.0277830171421,0.7333333333333333
0.028210515849,0.7388888888888889
0.0292174891143,0.7444444444444445
0.122553313315,0.75
0.122553313315,0.7555555555555555
0.152624869101,0.7611111111111111
0.194066335578,0.7666666666666667
0.231964643768,0.7722222222222223
0.231964643768,0.7777777777777778
0.245106626629,0.7833333333333333
0.273953679974,0.7888888888888889
0.273953679974,0.7944444444444444
0.305249738203,0.8
0.465847069606,0.8055555555555556
0.489964194921,0.8111111111111111
0.544977354845,0.8166666666666667
0.546724730016,0.8222222222222222
0.57055694621,0.8277777777777777
0.620002281159,0.8333333333333334
0.767599446749,0.8388888888888889
0.7793359121,0.8444444444444444
0.8229248841,0.85
0.8229248841,0.8555555555555555
0.833673842918,0.8611111111111112
1.03231130771,0.8666666666666667
1.04411624589,0.8722222222222222
1.09599019268,0.8777777777777778
1.301218349,0.8833333333333333
1.32905539781,0.8888888888888888
1.37759296227,0.8944444444444445
1.57654418445,0.9
2.46583469849,0.9055555555555556
2.57307413341,0.9111111111111111
2.89737813735,0.9166666666666666
3.06542570601,0.9222222222222223
3.48160457447,0.9277777777777778
6.07975882539,0.9333333333333333
6.4931289455,0.9388888888888889
7.0866261666,0.9444444444444444
7.6238460881,0.95
7.64812531731,0.9555555555555556
8.22108561708,0.9611111111111111
8.93848126079,0.9666666666666667
8.96321427999,0.9722222222222222
9.36224635468,0.9777777777777777
9.42153993529,0.9833333333333333
9.48137960275,0.9888888888888889
9.97677380812,0.9944444444444445
9.98509362246,1.0
