Congestion,CDF
0.0,0.005555555555555556
0.0,0.011111111111111112
0.0,0.016666666666666666
0.0,0.022222222222222223
0.0,0.027777777777777776
0.0,0.03333333333333333
0.0,0.03888888888888889
0.0,0.044444444444444446
0.0,0.05
0.0,0.05555555555555555
1.04367571044e-06,0.06111111111111111
1.19913319772e-06,0.06666666666666667
2.69914947594e-06,0.07222222222222222
3.94496396843e-06,0.07777777777777778
4.03666893872e-06,0.08333333333333333
5.32979260139e-06,0.08888888888888889
5.86347727309e-06,0.09444444444444444
8.08120874549e-06,0.1
8.12290010576e-06,0.10555555555555556
8.31048928881e-06,0.1111111111111111
8.4815286937e-06,0.11666666666666667
9.33643033881e-06,0.12222222222222222
9.55298660088e-06,0.12777777777777777
1.06677616499e-05,0.13333333333333333
1.09259310831e-05,0.1388888888888889
1.15051446004e-05,0.14444444444444443
1.330355557e-05,0.15
1.45595080989e-05,0.15555555555555556
1.52030591273e-05,0.16111111111111112
1.58118066531e-05,0.16666666666666666
1.60619818971e-05,0.17222222222222222
1.61909808825e-05,0.17777777777777778
1.67274111747e-05,0.18333333333333332
1.730865683e-05,0.18888888888888888
1.76008343565e-05,0.19444444444444445
1.77996039932e-05,0.2
1.78983562814e-05,0.20555555555555555
1.81038900167e-05,0.2111111111111111
1.82807977745e-05,0.21666666666666667
1.83209130622e-05,0.2222222222222222
1.89330618298e-05,0.22777777777777777
1.9091017975e-05,0.23333333333333334
1.93101709765e-05,0.2388888888888889
2.09118794468e-05,0.24444444444444444
2.20047654723e-05,0.25
2.38907747851e-05,0.25555555555555554
2.42692574985e-05,0.2611111111111111
2.46185097067e-05,0.26666666666666666
2.54522139636e-05,0.2722222222222222
8.99716491978e-05,0.2777777777777778
0.000179943298396,0.2833333333333333
0.000197248198421,0.28888888888888886
0.000197248198421,0.29444444444444445
0.000203072502644,0.3
0.000203072502644,0.3055555555555556
0.000307440073688,0.3111111111111111
0.000403666893872,0.31666666666666665
0.000406145005288,0.32222222222222224
0.000540754249645,0.3277777777777778
0.000808120874549,0.3333333333333333
0.000840419333827,0.3388888888888889
0.000889980199661,0.34444444444444444
0.000889980199661,0.35
0.00113671553652,0.35555555555555557
0.001730865683,0.3611111111111111
0.00176008343565,0.36666666666666664
0.00181634628667,0.37222222222222223
0.00195675636465,0.37777777777777777
0.00207026619133,0.38333333333333336
0.00207026619133,0.3888888888888889
0.00236072524656,0.39444444444444443
0.00249485483855,0.4
0.00268263799561,0.40555555555555556
0.00286799597596,0.4111111111111111
0.00356295698922,0.4166666666666667
0.00376714536632,0.4222222222222222
0.00396357237431,0.42777777777777776
0.00487281750672,0.43333333333333335
0.00572097037609,0.4388888888888889
0.00598984341843,0.4444444444444444
0.00739639692743,0.45
0.00837892089694,0.45555555555555555
0.0149072029317,0.46111111111111114
0.0181359490023,0.4666666666666667
0.0189832384355,0.4722222222222222
0.0206811703987,0.4777777777777778
0.0211837149828,0.48333333333333334
0.0222873685884,0.4888888888888889
0.0225314776412,0.49444444444444446
0.0238618331982,0.5
0.0257709349957,0.5055555555555555
0.0259317946525,0.5111111111111111
0.026357282723,0.5166666666666667
0.0267628435814,0.5222222222222223
0.0277181422415,0.5277777777777778
0.0429635284746,0.5333333333333333
0.0432280994456,0.5388888888888889
0.0473345386053,0.5444444444444444
0.0474174840435,0.55
0.0474198047793,0.5555555555555556
0.0474421638063,0.5611111111111111
0.0474543216484,0.5666666666666667
0.0474620811228,0.5722222222222222
0.0474813732085,0.5777777777777777
0.0475223841738,0.5833333333333334
0.0475225379677,0.5888888888888889
0.0475230098384,0.5944444444444444
0.0475283558781,0.6
0.0475411000032,0.6055555555555555
0.0475609043398,0.6111111111111112
0.0475647926074,0.6166666666666667
0.0475723096177,0.6222222222222222
0.0475892329793,0.6277777777777778
0.0476189555802,0.6333333333333333
0.0476285448193,0.6388888888888888
0.0476314608728,0.6444444444444445
0.0476376017475,0.65
0.0476396267225,0.6555555555555556
0.0476512691025,0.6611111111111111
0.0476598891431,0.6666666666666666
0.0476603857799,0.6722222222222223
0.0476642884119,0.6777777777777778
0.0476672296422,0.6833333333333333
0.0476687212432,0.6888888888888889
0.0476717475299,0.6944444444444444
0.0476749778695,0.7
0.0476841469467,0.7055555555555556
0.0476897638838,0.7111111111111111
0.0477136241307,0.7166666666666667
0.0477297905029,0.7222222222222222
0.0477580332965,0.7277777777777777
0.0477636434601,0.7333333333333333
0.047768895179,0.7388888888888889
0.047781057527,0.7444444444444445
1.18807524596,0.75
1.18807524596,0.7555555555555555
1.58140546021,0.7611111111111111
1.84749167593,0.7666666666666667
2.37271608242,0.7722222222222223
2.37271608242,0.7777777777777778
2.37615049192,0.7833333333333333
2.38336148211,0.7888888888888889
2.38336148211,0.7944444444444444
3.16281092042,0.8
4.74620811228,0.8055555555555556
4.75223841738,0.8111111111111111
4.76598891431,0.8166666666666667
4.76642884119,0.8222222222222222
5.92982365031,0.8277777777777777
5.94218524628,0.8333333333333334
7.1358621697,0.8388888888888889
7.13945191609,0.8444444444444444
7.15304000982,0.85
7.53616509549,0.8555555555555555
7.53616509549,0.8611111111111112
9.51757052535,0.8666666666666667
9.53348670125,0.8722222222222222
10.6779609712,0.8777777777777778
11.9066266691,0.8833333333333333
12.2854862645,0.8888888888888888
12.3045797902,0.8944444444444445
15.4408154531,0.9
21.8361355416,0.9055555555555556
24.5636318379,0.9111111111111111
27.345391741,0.9166666666666666
29.3164674257,0.9222222222222223
32.1211950706,0.9277777777777778
55.9194750917,0.9333333333333333
58.337672787,0.9388888888888889
63.1157785397,0.9444444444444444
67.8797412119,0.95
70.2008057918,0.9555555555555556
74.9737848421,0.9611111111111111
79.7816419596,0.9666666666666667
82.1037318862,0.9722222222222222
84.5150958201,0.9777777777777777
86.8626551842,0.9833333333333333
88.8114486676,0.9888888888888889
91.6149089809,0.9944444444444445
95.9377189255,1.0
