Congestion,CDF
0.0,0.007352941176470588
0.0,0.014705882352941176
0.0,0.022058823529411766
0.0,0.029411764705882353
0.0,0.03676470588235294
0.0,0.04411764705882353
0.0,0.051470588235294115
0.0,0.058823529411764705
0.0,0.0661764705882353
0.0,0.07352941176470588
0.0,0.08088235294117647
0.0,0.08823529411764706
0.0,0.09558823529411764
0.0,0.10294117647058823
4.29541976814e-06,0.11029411764705882
4.29541976814e-06,0.11764705882352941
4.29541976814e-06,0.125
4.29541976814e-06,0.1323529411764706
4.29541976814e-06,0.13970588235294118
4.29541976814e-06,0.14705882352941177
4.29541976814e-06,0.15441176470588236
4.29541976814e-06,0.16176470588235295
4.29541976814e-06,0.16911764705882354
4.29541976814e-06,0.17647058823529413
4.29541976814e-06,0.18382352941176472
4.29541976814e-06,0.19117647058823528
4.29541976814e-06,0.19852941176470587
4.29541976814e-06,0.20588235294117646
4.29541976814e-06,0.21323529411764705
4.29541976814e-06,0.22058823529411764
4.29541976814e-06,0.22794117647058823
4.29541976814e-06,0.23529411764705882
4.29541976814e-06,0.2426470588235294
4.29541976814e-06,0.25
4.29541976814e-06,0.25735294117647056
4.29541976814e-06,0.2647058823529412
4.29541976814e-06,0.27205882352941174
4.29541976814e-06,0.27941176470588236
4.29541976814e-06,0.2867647058823529
4.29541976814e-06,0.29411764705882354
4.29541976814e-06,0.3014705882352941
0.000107385494204,0.3088235294117647
0.000107385494204,0.3161764705882353
0.00011597633374,0.3235294117647059
0.000214770988407,0.33088235294117646
0.000214770988407,0.3382352941176471
0.000214770988407,0.34558823529411764
0.000214770988407,0.35294117647058826
0.000322156482611,0.3602941176470588
0.000357951647345,0.36764705882352944
0.000357951647345,0.375
0.000357951647345,0.38235294117647056
0.000429541976814,0.3897058823529412
0.000429541976814,0.39705882352941174
0.000429541976814,0.40441176470588236
0.000429541976814,0.4117647058823529
0.000429541976814,0.41911764705882354
0.000429541976814,0.4264705882352941
0.000429541976814,0.4338235294117647
0.000536927471018,0.4411764705882353
0.000644312965221,0.4485294117647059
0.000644312965221,0.45588235294117646
0.000787493624159,0.4632352941176471
0.000859083953628,0.47058823529411764
0.000859083953628,0.47794117647058826
0.00128862593044,0.4852941176470588
0.00175396307199,0.49264705882352944
0.0031141793319,0.5
0.00318576966137,0.5073529411764706
0.00411644394447,0.5147058823529411
0.00511870855703,0.5220588235294118
0.0051902988865,0.5294117647058824
0.00554825053385,0.5367647058823529
0.00561984086332,0.5441176470588235
0.00604938284013,0.5514705882352942
0.0345974583598,0.5588235294117647
0.0354553709045,0.5661764705882353
0.0455405043931,0.5735294117647058
0.0456073632918,0.5808823529411765
0.0457517661977,0.5882352941176471
0.0457880099186,0.5955882352941176
0.0458137982583,0.6029411764705882
0.0458343913537,0.6102941176470589
0.0458998293713,0.6176470588235294
0.0459127466738,0.625
0.0459199903925,0.6323529411764706
0.0459250861004,0.6397058823529411
0.0459269576678,0.6470588235294118
0.0459276981376,0.6544117647058824
0.0459283733337,0.6617647058823529
0.0459290612863,0.6691176470588235
0.0459293628449,0.6764705882352942
0.0459307199547,0.6838235294117647
0.0459318444288,0.6911764705882353
0.0459383291839,0.6985294117647058
0.0459405228805,0.7058823529411765
0.0459405337491,0.7132352941176471
0.0459406318358,0.7205882352941176
0.0459406353027,0.7279411764705882
0.0459407904915,0.7352941176470589
0.0459407928029,0.7426470588235294
0.0459407928029,0.75
1.14819245344,0.7573529411764706
1.14826799887,0.7647058823529411
1.21707336192,0.7720588235294118
2.29171956768,0.7794117647058824
2.29171956768,0.7867647058823529
2.29659222144,0.7941176470588235
2.29659222144,0.8014705882352942
3.44457736032,0.8088235294117647
3.82735904123,0.8161764705882353
3.82735904123,0.8235294117647058
3.82735904123,0.8308823529411765
4.58137982583,0.8382352941176471
4.59290612863,0.8455882352941176
4.59307199547,0.8529411764705882
4.59405337491,0.8602941176470589
4.59406353027,0.8676470588235294
4.59407928029,0.875
4.59407928029,0.8823529411764706
5.74112873793,0.8897058823529411
6.86689618746,0.8970588235294118
6.88910083148,0.9044117647058824
8.41863370861,0.9117647058823529
9.16018081769,0.9191176470588235
9.18812671386,0.9264705882352942
13.7822376097,0.9338235294117647
18.7542312412,0.9411764705882353
33.3067379854,0.9485294117647058
34.0545674546,0.9558823529411765
44.0245221665,0.9632352941176471
54.635694899,0.9705882352941176
55.5056220372,0.9779411764705882
58.095440735,0.9852941176470589
60.0663583664,0.9926470588235294
63.6118954568,1.0
