Congestion,CDF
0.0,0.007352941176470588
0.0,0.014705882352941176
0.0,0.022058823529411766
0.0,0.029411764705882353
0.0,0.03676470588235294
0.0,0.04411764705882353
0.0,0.051470588235294115
0.0,0.058823529411764705
0.0,0.0661764705882353
0.0,0.07352941176470588
0.0,0.08088235294117647
0.0,0.08823529411764706
0.0,0.09558823529411764
0.0,0.10294117647058823
4.31833945607e-06,0.11029411764705882
4.31833945607e-06,0.11764705882352941
4.31833945607e-06,0.125
4.31833945607e-06,0.1323529411764706
4.31833945607e-06,0.13970588235294118
4.31833945607e-06,0.14705882352941177
4.31833945607e-06,0.15441176470588236
4.31833945607e-06,0.16176470588235295
4.31833945607e-06,0.16911764705882354
4.31833945607e-06,0.17647058823529413
4.31833945607e-06,0.18382352941176472
4.31833945607e-06,0.19117647058823528
4.31833945607e-06,0.19852941176470587
4.31833945607e-06,0.20588235294117646
4.31833945607e-06,0.21323529411764705
4.31833945607e-06,0.22058823529411764
4.31833945607e-06,0.22794117647058823
4.31833945607e-06,0.23529411764705882
4.31833945607e-06,0.2426470588235294
4.31833945607e-06,0.25
4.31833945607e-06,0.25735294117647056
4.31833945607e-06,0.2647058823529412
4.31833945607e-06,0.27205882352941174
4.31833945607e-06,0.27941176470588236
4.31833945607e-06,0.2867647058823529
4.31833945607e-06,0.29411764705882354
4.31833945607e-06,0.3014705882352941
0.000107958486402,0.3088235294117647
0.000107958486402,0.3161764705882353
0.000116595165314,0.3235294117647059
0.000215916972804,0.33088235294117646
0.000215916972804,0.3382352941176471
0.000215916972804,0.34558823529411764
0.000215916972804,0.35294117647058826
0.000323875459205,0.3602941176470588
0.000359861621339,0.36764705882352944
0.000359861621339,0.375
0.000359861621339,0.38235294117647056
0.000431833945607,0.3897058823529412
0.000431833945607,0.39705882352941174
0.000431833945607,0.40441176470588236
0.000431833945607,0.4117647058823529
0.000431833945607,0.41911764705882354
0.000431833945607,0.4264705882352941
0.000431833945607,0.4338235294117647
0.000539792432009,0.4411764705882353
0.000647750918411,0.4485294117647059
0.000647750918411,0.45588235294117646
0.000791695566947,0.4632352941176471
0.000863667891215,0.47058823529411764
0.000863667891215,0.47794117647058826
0.00129550183682,0.4852941176470588
0.00176332194456,0.49264705882352944
0.00313079610565,0.5
0.00320276842992,0.5073529411764706
0.0041384086454,0.5147058823529411
0.00514602118515,0.5220588235294118
0.00521799350942,0.5294117647058824
0.00557785513076,0.5367647058823529
0.00564982745503,0.5441176470588235
0.00608166140064,0.5514705882352942
0.0324021019168,0.5588235294117647
0.033291366562,0.5661764705882353
0.0438226708012,0.5735294117647058
0.043891511029,0.5808823529411765
0.0440439965206,0.5882352941176471
0.0440806710007,0.5955882352941176
0.0441074706828,0.6029411764705882
0.0441278933897,0.6102941176470589
0.0441934354888,0.6176470588235294
0.0442066602354,0.625
0.0442137675085,0.6323529411764706
0.044219015291,0.6397058823529411
0.0442209071001,0.6470588235294118
0.0442216512326,0.6544117647058824
0.0442223097354,0.6617647058823529
0.0442230122502,0.6691176470588235
0.0442233146194,0.6764705882352942
0.0442246740332,0.6838235294117647
0.0442257929422,0.6911764705882353
0.0442322801584,0.6985294117647058
0.0442344777761,0.7058823529411765
0.0442344887397,0.7132352941176471
0.0442345868397,0.7205882352941176
0.0442345903169,0.7279411764705882
0.0442347454997,0.7352941176470589
0.044234747818,0.7426470588235294
0.044234747818,0.75
1.10554128082,0.7573529411764706
1.10561685083,0.7647058823529411
1.17003688731,0.7720588235294118
2.20639466948,0.7794117647058824
2.20639466948,0.7867647058823529
2.21128964711,0.7941176470588235
2.21128964711,0.8014705882352942
3.31662384245,0.8088235294117647
3.68518836832,0.8161764705882353
3.68518836832,0.8235294117647058
3.68518836832,0.8308823529411765
4.41074706828,0.8382352941176471
4.42230122502,0.8455882352941176
4.42246740332,0.8529411764705882
4.42344887397,0.8602941176470589
4.42345903169,0.8676470588235294
4.4234747818,0.875
4.4234747818,0.8823529411764706
5.52787274276,0.8897058823529411
6.61079432154,0.8970588235294118
6.63319117621,0.9044117647058824
8.10585439186,0.9117647058823529
8.81881416834,0.9191176470588235
8.84691771565,0.9264705882352942
13.2704241136,0.9338235294117647
18.0575933096,0.9411764705882353
32.0698553316,0.9485294117647058
32.7891859198,0.9558823529411765
42.3895613629,0.9632352941176471
52.6010614899,0.9705882352941176
53.44412929,0.9779411764705882
55.8412716815,0.9852941176470589
57.8332803929,0.9926470588235294
61.1624170491,1.0
