Congestion,CDF
0.0,0.007352941176470588
0.0,0.014705882352941176
0.0,0.022058823529411766
0.0,0.029411764705882353
0.0,0.03676470588235294
0.0,0.04411764705882353
0.0,0.051470588235294115
0.0,0.058823529411764705
0.0,0.0661764705882353
0.0,0.07352941176470588
0.0,0.08088235294117647
0.0,0.08823529411764706
0.0,0.09558823529411764
0.0,0.10294117647058823
4.27421298772e-06,0.11029411764705882
4.27421298772e-06,0.11764705882352941
4.27421298772e-06,0.125
4.27421298772e-06,0.1323529411764706
4.27421298772e-06,0.13970588235294118
4.27421298772e-06,0.14705882352941177
4.27421298772e-06,0.15441176470588236
4.27421298772e-06,0.16176470588235295
4.27421298772e-06,0.16911764705882354
4.27421298772e-06,0.17647058823529413
4.27421298772e-06,0.18382352941176472
4.27421298772e-06,0.19117647058823528
4.27421298772e-06,0.19852941176470587
4.27421298772e-06,0.20588235294117646
4.27421298772e-06,0.21323529411764705
4.27421298772e-06,0.22058823529411764
4.27421298772e-06,0.22794117647058823
4.27421298772e-06,0.23529411764705882
4.27421298772e-06,0.2426470588235294
4.27421298772e-06,0.25
4.27421298772e-06,0.25735294117647056
4.27421298772e-06,0.2647058823529412
4.27421298772e-06,0.27205882352941174
4.27421298772e-06,0.27941176470588236
4.27421298772e-06,0.2867647058823529
4.27421298772e-06,0.29411764705882354
4.27421298772e-06,0.3014705882352941
0.000106855324693,0.3088235294117647
0.000106855324693,0.3161764705882353
0.000115403750668,0.3235294117647059
0.000213710649386,0.33088235294117646
0.000213710649386,0.3382352941176471
0.000213710649386,0.34558823529411764
0.000213710649386,0.35294117647058826
0.000320565974079,0.3602941176470588
0.000356184415643,0.36764705882352944
0.000356184415643,0.375
0.000356184415643,0.38235294117647056
0.000427421298772,0.3897058823529412
0.000427421298772,0.39705882352941174
0.000427421298772,0.40441176470588236
0.000427421298772,0.4117647058823529
0.000427421298772,0.41911764705882354
0.000427421298772,0.4264705882352941
0.000427421298772,0.4338235294117647
0.000534276623465,0.4411764705882353
0.000641131948157,0.4485294117647059
0.000641131948157,0.45588235294117646
0.000783605714415,0.4632352941176471
0.000854842597543,0.47058823529411764
0.000854842597543,0.47794117647058826
0.00128226389631,0.4852941176470588
0.00174530363665,0.49264705882352944
0.00309880441609,0.5
0.00317004129922,0.5073529411764706
0.00409612077989,0.5147058823529411
0.0050934371437,0.5220588235294118
0.00516467402682,0.5294117647058824
0.00552085844247,0.5367647058823529
0.0055920953256,0.5441176470588235
0.00601951662437,0.5514705882352942
0.0367857082895,0.5588235294117647
0.0376118208246,0.5661764705882353
0.0472574805899,0.5735294117647058
0.0473225045355,0.5808823529411765
0.0474593523776,0.5882352941176471
0.0474952111579,0.5955882352941176
0.0475200866882,0.6029411764705882
0.0475408265675,0.6102941176470589
0.0476061861293,0.6176470588235294
0.0476188273735,0.625
0.0476261944009,0.6323529411764706
0.0476311533426,0.6397058823529411
0.0476330072902,0.6470588235294118
0.04763374466,0.6544117647058824
0.047634434355,0.6617647058823529
0.0476351096362,0.6691176470588235
0.0476354105215,0.6764705882352942
0.0476367656893,0.6838235294117647
0.0476378948163,0.6911764705882353
0.0476443776511,0.6985294117647058
0.0476465679643,0.7058823529411765
0.0476465787532,0.7132352941176471
0.0476466768294,0.7205882352941176
0.0476466802879,0.7279411764705882
0.0476468354816,0.7352941176470589
0.0476468377874,0.7426470588235294
0.0476468377874,0.75
1.1908436165,0.7573529411764706
1.19091914223,0.7647058823529411
1.26409311179,0.7720588235294118
2.37704132838,0.7794117647058824
2.37704132838,0.7867647058823529
2.38189474081,0.7941176470588235
2.38189474081,0.8014705882352942
3.5725308495,0.8088235294117647
3.96952966841,0.8161764705882353
3.96952966841,0.8235294117647058
3.96952966841,0.8308823529411765
4.75200866882,0.8382352941176471
4.76351096362,0.8455882352941176
4.76367656893,0.8529411764705882
4.76465787532,0.8602941176470589
4.76466802879,0.8676470588235294
4.76468377874,0.875
4.76468377874,0.8823529411764706
5.95438466865,0.8897058823529411
7.12297656613,0.8970588235294118
7.14501007507,0.9044117647058824
8.73141240576,0.9117647058823529
9.50152978461,0.9191176470588235
9.52933571174,0.9264705882352942
14.2940511056,0.9338235294117647
19.4508687362,0.9411764705882353
34.5436206314,0.9485294117647058
35.3199410832,0.9558823529411765
45.6594828057,0.9632352941176471
56.670195493,0.9705882352941176
57.5671123209,0.9779411764705882
60.3487663219,0.9852941176470589
62.2993627744,0.9926470588235294
66.0605448569,1.0
