Congestion,CDF
0.0,0.007352941176470588
0.0,0.014705882352941176
0.0,0.022058823529411766
0.0,0.029411764705882353
0.0,0.03676470588235294
0.0,0.04411764705882353
0.0,0.051470588235294115
0.0,0.058823529411764705
0.0,0.0661764705882353
0.0,0.07352941176470588
0.0,0.08088235294117647
0.0,0.08823529411764706
0.0,0.09558823529411764
0.0,0.10294117647058823
4.16573965841e-06,0.11029411764705882
4.16573965841e-06,0.11764705882352941
4.16573965841e-06,0.125
4.16573965841e-06,0.1323529411764706
4.16573965841e-06,0.13970588235294118
4.16573965841e-06,0.14705882352941177
4.16573965841e-06,0.15441176470588236
4.16573965841e-06,0.16176470588235295
4.16573965841e-06,0.16911764705882354
4.16573965841e-06,0.17647058823529413
4.16573965841e-06,0.18382352941176472
4.16573965841e-06,0.19117647058823528
4.16573965841e-06,0.19852941176470587
4.16573965841e-06,0.20588235294117646
4.16573965841e-06,0.21323529411764705
4.16573965841e-06,0.22058823529411764
4.16573965841e-06,0.22794117647058823
4.16573965841e-06,0.23529411764705882
4.16573965841e-06,0.2426470588235294
4.16573965841e-06,0.25
4.16573965841e-06,0.25735294117647056
4.16573965841e-06,0.2647058823529412
4.16573965841e-06,0.27205882352941174
4.16573965841e-06,0.27941176470588236
4.16573965841e-06,0.2867647058823529
4.16573965841e-06,0.29411764705882354
4.16573965841e-06,0.3014705882352941
0.00010414349146,0.3088235294117647
0.00010414349146,0.3161764705882353
0.000112474970777,0.3235294117647059
0.000208286982921,0.33088235294117646
0.000208286982921,0.3382352941176471
0.000208286982921,0.34558823529411764
0.000208286982921,0.35294117647058826
0.000312430474381,0.3602941176470588
0.000347144971535,0.36764705882352944
0.000347144971535,0.375
0.000347144971535,0.38235294117647056
0.000416573965841,0.3897058823529412
0.000416573965841,0.39705882352941174
0.000416573965841,0.40441176470588236
0.000416573965841,0.4117647058823529
0.000416573965841,0.41911764705882354
0.000416573965841,0.4264705882352941
0.000416573965841,0.4338235294117647
0.000520717457302,0.4411764705882353
0.000624860948762,0.4485294117647059
0.000624860948762,0.45588235294117646
0.000763718937376,0.4632352941176471
0.000833147931683,0.47058823529411764
0.000833147931683,0.47794117647058826
0.00124972189752,0.4852941176470588
0.00170101036052,0.49264705882352944
0.00302016125235,0.5
0.00308959024666,0.5073529411764706
0.00399216717265,0.5147058823529411
0.00496417309294,0.5220588235294118
0.00503360208725,0.5294117647058824
0.00538074705878,0.5367647058823529
0.00545017605309,0.5441176470588235
0.00586675001893,0.5514705882352942
0.0528082130904,0.5588235294117647
0.0532807249059,0.5661764705882353
0.0585197342369,0.5735294117647058
0.0585706766423,0.5808823529411765
0.0586473903931,0.5882352941176471
0.0586807268411,0.5955882352941176
0.0586993934092,0.6029411764705882
0.058720957011,0.6102941176470589
0.0587861692092,0.6176470588235294
0.0587969683944,0.625
0.058805178102,0.6323529411764706
0.0588092189724,0.6397058823529411
0.0588109702692,0.6470588235294118
0.0588116916413,0.6544117647058824
0.0588124648964,0.6617647058823529
0.0588130664492,0.6691176470588235
0.0588133640722,0.6764705882352942
0.0588147093546,0.6838235294117647
0.0588158615335,0.6911764705882353
0.0588223377383,0.6985294117647058
0.0588245089547,0.7058823529411765
0.0588245193436,0.7132352941176471
0.0588246173751,0.7205882352941176
0.0588246207972,0.7279411764705882
0.0588247760124,0.7352941176470589
0.0588247782939,0.7426470588235294
0.0588247782939,0.75
1.47029229103,0.7573529411764706
1.47036773387,0.7647058823529411
1.57541241623,0.7720588235294118
2.93604785055,0.7794117647058824
2.93604785055,0.7867647058823529
2.94079307668,0.7941176470588235
2.94079307668,0.8014705882352942
4.4108768731,0.8088235294117647
4.90102570054,0.8161764705882353
4.90102570054,0.8235294117647058
4.90102570054,0.8308823529411765
5.86993934092,0.8382352941176471
5.88130664492,0.8455882352941176
5.88147093546,0.8529411764705882
5.88245193436,0.8602941176470589
5.88246207972,0.8676470588235294
5.88247782939,0.875
5.88247782939,0.8823529411764706
7.35162869825,0.8897058823529411
8.80078688986,0.8970588235294118
8.82171497392,0.9044117647058824
10.78072254,0.9117647058823529
11.738012025,0.9191176470588235
11.7649238172,0.9264705882352942
17.64743326,0.9338235294117647
24.0152075334,0.9411764705882353
42.647627641,0.9485294117647058
43.6105948448,0.9558823529411765
56.371680192,0.9632352941176471
70.0013671834,0.9705882352941176
71.0739129761,0.9779411764705882
75.2821884924,0.9852941176470589
76.9309806404,0.9926470588235294
82.2590531309,1.0
