Congestion,CDF
0.0,0.007352941176470588
0.0,0.014705882352941176
0.0,0.022058823529411766
0.0,0.029411764705882353
0.0,0.03676470588235294
0.0,0.04411764705882353
0.0,0.051470588235294115
0.0,0.058823529411764705
0.0,0.0661764705882353
0.0,0.07352941176470588
0.0,0.08088235294117647
0.0,0.08823529411764706
0.0,0.09558823529411764
0.0,0.10294117647058823
6.11515370013e-06,0.11029411764705882
6.11515370013e-06,0.11764705882352941
6.11515370013e-06,0.125
6.11515370013e-06,0.1323529411764706
6.11515370013e-06,0.13970588235294118
6.11515370013e-06,0.14705882352941177
6.11515370013e-06,0.15441176470588236
6.11515370013e-06,0.16176470588235295
6.11515370013e-06,0.16911764705882354
6.11515370013e-06,0.17647058823529413
6.11515370013e-06,0.18382352941176472
6.11515370013e-06,0.19117647058823528
6.11515370013e-06,0.19852941176470587
6.11515370013e-06,0.20588235294117646
6.11515370013e-06,0.21323529411764705
6.11515370013e-06,0.22058823529411764
6.11515370013e-06,0.22794117647058823
6.11515370013e-06,0.23529411764705882
6.11515370013e-06,0.2426470588235294
6.11515370013e-06,0.25
6.11515370013e-06,0.25735294117647056
6.11515370013e-06,0.2647058823529412
6.11515370013e-06,0.27205882352941174
6.11515370013e-06,0.27941176470588236
6.11515370013e-06,0.2867647058823529
6.11515370013e-06,0.29411764705882354
6.11515370013e-06,0.3014705882352941
0.000152878842503,0.3088235294117647
0.000152878842503,0.3161764705882353
0.000165109149903,0.3235294117647059
0.000303211650909,0.33088235294117646
0.000305757685006,0.3382352941176471
0.000305757685006,0.34558823529411764
0.000305757685006,0.35294117647058826
0.000305757685006,0.3602941176470588
0.00045863652751,0.36764705882352944
0.000509596141677,0.375
0.000509596141677,0.38235294117647056
0.000509596141677,0.3897058823529412
0.000611515370013,0.39705882352941174
0.000611515370013,0.40441176470588236
0.000611515370013,0.4117647058823529
0.000611515370013,0.41911764705882354
0.000611515370013,0.4264705882352941
0.000611515370013,0.4338235294117647
0.000611515370013,0.4411764705882353
0.000764394212516,0.4485294117647059
0.000914260541393,0.45588235294117646
0.000917273055019,0.4632352941176471
0.000917273055019,0.47058823529411764
0.00112111151169,0.47794117647058826
0.00122303074003,0.4852941176470588
0.00122303074003,0.49264705882352944
0.00183454611004,0.5
0.00249702109422,0.5073529411764706
0.00443348643259,0.5147058823529411
0.00453540566093,0.5220588235294118
0.00586035562929,0.5294117647058824
0.00728722482599,0.5367647058823529
0.00738914405432,0.5441176470588235
0.007898740196,0.5514705882352942
0.00800065942433,0.5588235294117647
0.00861217479435,0.5661764705882353
0.0109131502176,0.5735294117647058
0.0110666904187,0.5808823529411765
0.0114753970293,0.5882352941176471
0.0115504420282,0.5955882352941176
0.0116320974394,0.6029411764705882
0.0116331391164,0.6102941176470589
0.0117474616003,0.6176470588235294
0.011783139522,0.625
0.0117831849493,0.6323529411764706
0.011798819125,0.6397058823529411
0.0118030482559,0.6470588235294118
0.0118035625588,0.6544117647058824
0.0118045545237,0.6617647058823529
0.0118059761231,0.6691176470588235
0.0118067147457,0.6764705882352942
0.0118081003582,0.6838235294117647
0.0118084487579,0.6911764705882353
0.0118165893197,0.6985294117647058
0.0118195585553,0.7058823529411765
0.0118195953179,0.7132352941176471
0.0118197127905,0.7205882352941176
0.0118197234166,0.7279411764705882
0.0118198779081,0.7352941176470589
0.0118198849924,0.7426470588235294
0.0118198849924,0.75
0.293796226254,0.7573529411764706
0.295113863093,0.7647058823529411
0.295211218948,0.7720588235294118
0.581604871968,0.7794117647058824
0.581604871968,0.7867647058823529
0.59040501791,0.7941176470588235
0.59040501791,0.8014705882352942
0.885341589278,0.8088235294117647
0.983760023905,0.8161764705882353
0.983760023905,0.8235294117647058
0.983760023905,0.8308823529411765
1.16331391164,0.8382352941176471
1.18059761231,0.8455882352941176
1.18084487579,0.8529411764705882
1.18195953179,0.8602941176470589
1.18197234166,0.8676470588235294
1.18198849924,0.875
1.18198849924,0.8823529411764706
1.47578533766,0.8897058823529411
1.7291445749,0.8970588235294118
1.77028693041,0.9044117647058824
2.1620739761,0.9117647058823529
2.31835811446,0.9191176470588235
2.36394362071,0.9264705882352942
3.54596478928,0.9338235294117647
4.82049922975,0.9411764705882353
8.56903501626,0.9485294117647058
8.73892423785,0.9558823529411765
11.3248589901,0.9632352941176471
13.877741949,0.9705882352941176
13.9691680031,0.9779411764705882
14.2734644154,0.9852941176470589
15.3801334573,0.9926470588235294
15.4104546223,1.0
