Congestion,CDF
0.0,0.007352941176470588
0.0,0.014705882352941176
0.0,0.022058823529411766
0.0,0.029411764705882353
0.0,0.03676470588235294
0.0,0.04411764705882353
0.0,0.051470588235294115
0.0,0.058823529411764705
0.0,0.0661764705882353
0.0,0.07352941176470588
0.0,0.08088235294117647
0.0,0.08823529411764706
0.0,0.09558823529411764
0.0,0.10294117647058823
5.57046021902e-06,0.11029411764705882
5.57046021902e-06,0.11764705882352941
5.57046021902e-06,0.125
5.57046021902e-06,0.1323529411764706
5.57046021902e-06,0.13970588235294118
5.57046021902e-06,0.14705882352941177
5.57046021902e-06,0.15441176470588236
5.57046021902e-06,0.16176470588235295
5.57046021902e-06,0.16911764705882354
5.57046021902e-06,0.17647058823529413
5.57046021902e-06,0.18382352941176472
5.57046021902e-06,0.19117647058823528
5.57046021902e-06,0.19852941176470587
5.57046021902e-06,0.20588235294117646
5.57046021902e-06,0.21323529411764705
5.57046021902e-06,0.22058823529411764
5.57046021902e-06,0.22794117647058823
5.57046021902e-06,0.23529411764705882
5.57046021902e-06,0.2426470588235294
5.57046021902e-06,0.25
5.57046021902e-06,0.25735294117647056
5.57046021902e-06,0.2647058823529412
5.57046021902e-06,0.27205882352941174
5.57046021902e-06,0.27941176470588236
5.57046021902e-06,0.2867647058823529
5.57046021902e-06,0.29411764705882354
5.57046021902e-06,0.3014705882352941
0.000139261505476,0.3088235294117647
0.000139261505476,0.3161764705882353
0.000150402425914,0.3235294117647059
0.000278523010951,0.33088235294117646
0.000278523010951,0.3382352941176471
0.000278523010951,0.34558823529411764
0.000278523010951,0.35294117647058826
0.000298043912612,0.3602941176470588
0.000417784516427,0.36764705882352944
0.000464205018252,0.375
0.000464205018252,0.38235294117647056
0.000464205018252,0.3897058823529412
0.000557046021902,0.39705882352941174
0.000557046021902,0.40441176470588236
0.000557046021902,0.4117647058823529
0.000557046021902,0.41911764705882354
0.000557046021902,0.4264705882352941
0.000557046021902,0.4338235294117647
0.000557046021902,0.4411764705882353
0.000696307527378,0.4485294117647059
0.000835569032853,0.45588235294117646
0.000835569032853,0.4632352941176471
0.000991514654015,0.47058823529411764
0.00102125104015,0.47794117647058826
0.0011140920438,0.4852941176470588
0.0011140920438,0.49264705882352944
0.00167113806571,0.5
0.00227460458943,0.5073529411764706
0.00403858365879,0.5147058823529411
0.00413142466244,0.5220588235294118
0.00533835770989,0.5294117647058824
0.006638131761,0.5367647058823529
0.00673097276465,0.5441176470588235
0.0071951777829,0.5514705882352942
0.00728801878655,0.5588235294117647
0.00784506480845,0.5661764705882353
0.0144193151767,0.5735294117647058
0.0145568751686,0.5808823529411765
0.014933994846,0.5882352941176471
0.0149974378884,0.5955882352941176
0.0150701931969,0.6029411764705882
0.0150723553778,0.6102941176470589
0.0151689687862,0.6176470588235294
0.0151988543331,0.625
0.0152000246332,0.6323529411764706
0.015213139367,0.6397058823529411
0.015216721514,0.6470588235294118
0.0152172808965,0.6544117647058824
0.015217996073,0.6617647058823529
0.0152192158022,0.6691176470588235
0.0152197245059,0.6764705882352942
0.0152213884585,0.6838235294117647
0.0152214806134,0.6911764705882353
0.0152290284285,0.6985294117647058
0.0152316824918,0.7058823529411765
0.015231709322,0.7132352941176471
0.0152318147755,0.7205882352941176
0.0152318219148,0.7279411764705882
0.0152319758867,0.7352941176470589
0.0152319806465,0.7426470588235294
0.0152319806465,0.75
0.379506519316,0.7573529411764706
0.380449901824,0.7647058823529411
0.380534711462,0.7720588235294118
0.753617768889,0.7794117647058824
0.753617768889,0.7867647058823529
0.761074030672,0.7941176470588235
0.761074030672,0.8014705882352942
1.14134970547,0.8088235294117647
1.26820866375,0.8161764705882353
1.26820866375,0.8235294117647058
1.26820866375,0.8308823529411765
1.50701931969,0.8382352941176471
1.52192158022,0.8455882352941176
1.52213884585,0.8529411764705882
1.5231709322,0.8602941176470589
1.52318219148,0.8676470588235294
1.52319806465,0.875
1.52319806465,0.8823529411764706
1.90242235241,0.8897058823529411
2.24701725349,0.8970588235294118
2.28238796738,0.9044117647058824
2.78809409706,0.9117647058823529
3.00676310853,0.9191176470588235
3.04636366903,0.9264705882352942
4.56959371796,0.9338235294117647
6.21428068604,0.9411764705882353
11.0428312798,0.9485294117647058
11.2728894306,0.9558823529411765
14.5950168171,0.9632352941176471
17.9686013103,0.9705882352941176
18.0677527757,0.9779411764705882
18.3974072478,0.9852941176470589
19.8530947647,0.9926470588235294
19.8828991559,1.0
