Congestion,CDF
0.0,0.009433962264150943
0.0,0.018867924528301886
0.0,0.02830188679245283
0.0,0.03773584905660377
0.0,0.04716981132075472
0.0,0.05660377358490566
0.0,0.0660377358490566
0.0,0.07547169811320754
0.0,0.08490566037735849
0.0,0.09433962264150944
0.0,0.10377358490566038
0.0,0.11320754716981132
0.0,0.12264150943396226
0.0,0.1320754716981132
0.0,0.14150943396226415
0.0,0.1509433962264151
0.0,0.16037735849056603
0.0,0.16981132075471697
0.0,0.1792452830188679
0.0,0.18867924528301888
0.0,0.19811320754716982
0.0,0.20754716981132076
0.0,0.2169811320754717
0.0,0.22641509433962265
0.0,0.2358490566037736
0.0,0.24528301886792453
0.0,0.25471698113207547
0.0,0.2641509433962264
0.0,0.27358490566037735
0.0,0.2830188679245283
1.60937519378e-07,0.29245283018867924
4.14613879721e-06,0.3018867924528302
4.66240515416e-06,0.3113207547169811
6.32065541269e-06,0.32075471698113206
7.13487955971e-06,0.330188679245283
7.60590712598e-06,0.33962264150943394
9.49384268025e-06,0.3490566037735849
1.44782560058e-05,0.3584905660377358
1.85329325181e-05,0.36792452830188677
1.96136712168e-05,0.37735849056603776
2.28760295827e-05,0.3867924528301887
2.75276763337e-05,0.39622641509433965
2.81658707957e-05,0.4056603773584906
2.8811256301e-05,0.41509433962264153
3.03987107233e-05,0.42452830188679247
0.000194795586267,0.4339622641509434
0.000267014325382,0.44339622641509435
0.000267014325382,0.4528301886792453
0.000340714210936,0.46226415094339623
0.000506872414698,0.4716981132075472
0.000694984969427,0.4811320754716981
0.000694984969427,0.49056603773584906
0.000694984969427,0.5
0.000712038201019,0.5094339622641509
0.000712038201019,0.5188679245283019
0.000712038201019,0.5283018867924528
0.00109928532575,0.5377358490566038
0.00124607678292,0.5471698113207547
0.0013127736323,0.5566037735849056
0.0013127736323,0.5660377358490566
0.00138996993885,0.5754716981132075
0.00138996993885,0.5849056603773585
0.00189619662381,0.5943396226415094
0.0022817721378,0.6037735849056604
0.00241705685311,0.6132075471698113
0.00241705685311,0.6226415094339622
0.00299479106434,0.6320754716981132
0.00299479106434,0.6415094339622641
0.00378208175461,0.6509433962264151
0.00460013896527,0.660377358490566
0.00621694895303,0.6698113207547169
0.00738900290567,0.6792452830188679
0.00929269439223,0.6886792452830188
0.009593000132,0.6981132075471698
0.00969438096022,0.7075471698113207
0.00983450097709,0.7169811320754716
0.0107824932594,0.7264150943396226
0.0201545439,0.7358490566037735
0.0209937923677,0.7452830188679245
0.0225472726819,0.7547169811320755
0.027907662972,0.7641509433962265
0.0284205334731,0.7735849056603774
0.138216000708,0.7830188679245284
0.269803128712,0.7924528301886793
0.269803128712,0.8018867924528302
0.338768761874,0.8113207547169812
0.348476039709,0.8207547169811321
0.348476039709,0.8301886792452831
0.348476039709,0.839622641509434
0.671343796573,0.8490566037735849
0.671343796573,0.8584905660377359
0.696952079417,0.8679245283018868
0.696952079417,0.8773584905660378
0.7194750099,0.8867924528301887
0.7194750099,0.8962264150943396
0.7194750099,0.9056603773584906
1.36242298538,0.9150943396226415
1.36242298538,0.9245283018867925
1.43908368284,0.9339622641509434
1.47646927869,0.9433962264150944
3.06772833521,0.9528301886792453
3.06772833521,0.9622641509433962
8.22017748687,0.9716981132075472
9.08051243625,0.9811320754716981
9.2343735866,0.9905660377358491
28.4515536398,1.0
