Congestion,CDF
0.0,0.009433962264150943
0.0,0.018867924528301886
0.0,0.02830188679245283
0.0,0.03773584905660377
0.0,0.04716981132075472
0.0,0.05660377358490566
0.0,0.0660377358490566
0.0,0.07547169811320754
0.0,0.08490566037735849
0.0,0.09433962264150944
0.0,0.10377358490566038
0.0,0.11320754716981132
0.0,0.12264150943396226
0.0,0.1320754716981132
0.0,0.14150943396226415
0.0,0.1509433962264151
0.0,0.16037735849056603
0.0,0.16981132075471697
0.0,0.1792452830188679
0.0,0.18867924528301888
0.0,0.19811320754716982
0.0,0.20754716981132076
0.0,0.2169811320754717
0.0,0.22641509433962265
0.0,0.2358490566037736
0.0,0.24528301886792453
0.0,0.25471698113207547
0.0,0.2641509433962264
0.0,0.27358490566037735
0.0,0.2830188679245283
1.64682374579e-07,0.29245283018867924
4.24261530248e-06,0.3018867924528302
4.7708946615e-06,0.3113207547169811
6.46773074593e-06,0.32075471698113206
7.30090107494e-06,0.330188679245283
7.60590712598e-06,0.33962264150943394
8.5856968531e-06,0.3490566037735849
9.71475490925e-06,0.3584905660377358
1.48151505504e-05,0.36792452830188677
1.8964175332e-05,0.37735849056603776
2.00700617399e-05,0.3867924528301887
2.34083319239e-05,0.39622641509433965
2.36019450412e-05,0.4056603773584906
2.75276763337e-05,0.41509433962264153
2.88212624541e-05,0.42452830188679247
2.94816654349e-05,0.4339622641509434
3.11060583349e-05,0.44339622641509435
3.65800309327e-05,0.4528301886792453
0.000199328284839,0.46226415094339623
0.000254943475145,0.4716981132075472
0.000273227481823,0.4811320754716981
0.000273227481823,0.49056603773584906
0.000711156574949,0.5
0.000711156574949,0.5094339622641509
0.000711156574949,0.5188679245283019
0.000728606618193,0.5283018867924528
0.000728606618193,0.5377358490566038
0.000728606618193,0.5471698113207547
0.00112486459642,0.5566037735849056
0.00134332056245,0.5660377358490566
0.00134332056245,0.5754716981132075
0.0014223131499,0.5849056603773585
0.0014223131499,0.5943396226415094
0.00151059536125,0.6037735849056604
0.0016229503142,0.6132075471698113
0.00194031922378,0.6226415094339622
0.0022817721378,0.6320754716981132
0.00247329934996,0.6415094339622641
0.00247329934996,0.6509433962264151
0.00306447685877,0.660377358490566
0.00306447685877,0.6698113207547169
0.00387008701641,0.6792452830188679
0.00470717960063,0.6886792452830188
0.00504543263851,0.6981132075471698
0.00636161114062,0.7075471698113207
0.00991995951453,0.7169811320754716
0.0100633399841,0.7264150943396226
0.0156285091716,0.7358490566037735
0.0180195177524,0.7452830188679245
0.0214822969304,0.7547169811320755
0.0244915870937,0.7641509433962265
0.0250731353097,0.7735849056603774
0.0456454775868,0.7830188679245284
0.0456454775868,0.7924528301886793
0.0566473260469,0.8018867924528302
0.0566473260469,0.8113207547169812
0.0566473260469,0.8207547169811321
0.0615029201254,0.8301886792452831
0.0907861909391,0.839622641509434
0.0907861909391,0.8490566037735849
0.0917505723727,0.8584905660377359
0.092717972731,0.8679245283018868
0.0990166978989,0.8773584905660378
0.113294652094,0.8867924528301887
0.113294652094,0.8962264150943396
0.116812113076,0.9056603773584906
0.116812113076,0.9150943396226415
0.121721273565,0.9245283018867925
0.121721273565,0.9339622641509434
0.121721273565,0.9433962264150944
2.11532671927,0.9528301886792453
2.11532671927,0.9622641509433962
4.48981490134,0.9716981132075472
7.46498409093,0.9811320754716981
7.63944855573,0.9905660377358491
22.6134210238,1.0
