Congestion,CDF
0.00784086007819,0.005555555555555556
0.00784086007819,0.011111111111111112
0.00824737328376,0.016666666666666666
0.00824737328376,0.022222222222222223
0.00924709712078,0.027777777777777776
0.00924709712078,0.03333333333333333
0.00931449183386,0.03888888888888889
0.00931449183386,0.044444444444444446
0.00940151369028,0.05
0.00940151369028,0.05555555555555555
0.00955297805943,0.06111111111111111
0.00955297805943,0.06666666666666667
0.00977946718186,0.07222222222222222
0.00977946718186,0.07777777777777778
0.0100976155436,0.08333333333333333
0.0100976155436,0.08888888888888889
0.0101624785588,0.09444444444444444
0.0101624785588,0.1
0.0102801374977,0.10555555555555556
0.0102801374977,0.1111111111111111
0.0103589488323,0.11666666666666667
0.0103589488323,0.12222222222222222
0.0104011504503,0.12777777777777777
0.0104011504503,0.13333333333333333
0.0109674599457,0.1388888888888889
0.0109674599457,0.14444444444444443
0.0109737585015,0.15
0.0109737585015,0.15555555555555556
0.0110763754949,0.16111111111111112
0.0110763754949,0.16666666666666666
0.0111227012895,0.17222222222222222
0.0111227012895,0.17777777777777778
0.0111876418302,0.18333333333333332
0.0111876418302,0.18888888888888888
0.0113970252029,0.19444444444444445
0.0113970252029,0.2
0.0115682430608,0.20555555555555555
0.0115682430608,0.2111111111111111
0.0117321695136,0.21666666666666667
0.0117321695136,0.2222222222222222
0.0117820669081,0.22777777777777777
0.0117820669081,0.23333333333333334
0.0117828826253,0.2388888888888889
0.0117828826253,0.24444444444444444
0.0118457458859,0.25
0.0118457458859,0.25555555555555554
0.0118635701293,0.2611111111111111
0.0118635701293,0.26666666666666666
0.0118897807505,0.2722222222222222
0.0118897807505,0.2777777777777778
0.0123565283098,0.2833333333333333
0.0123565283098,0.28888888888888886
0.0123645267926,0.29444444444444445
0.0123645267926,0.3
0.0124421883274,0.3055555555555556
0.0124421883274,0.3111111111111111
0.0133008649148,0.31666666666666665
0.0133008649148,0.32222222222222224
0.0134188300454,0.3277777777777778
0.0134188300454,0.3333333333333333
0.0136290331503,0.3388888888888889
0.0136290331503,0.34444444444444444
0.0138457299993,0.35
0.0138457299993,0.35555555555555557
0.0140335379089,0.3611111111111111
0.0140335379089,0.36666666666666664
0.0142795272218,0.37222222222222223
0.0142795272218,0.37777777777777777
0.0144966023604,0.38333333333333336
0.0144966023604,0.3888888888888889
0.0150024639314,0.39444444444444443
0.0150024639314,0.4
0.0158978196029,0.40555555555555556
0.0158978196029,0.4111111111111111
0.0159388129384,0.4166666666666667
0.0159388129384,0.4222222222222222
0.0164620056997,0.42777777777777776
0.0164620056997,0.43333333333333335
0.0166161652178,0.4388888888888889
0.0166161652178,0.4444444444444444
0.264983159669,0.45
0.264983159669,0.45555555555555555
0.390980906653,0.46111111111111114
0.390980906653,0.4666666666666667
0.407269110253,0.4722222222222222
0.407269110253,0.4777777777777778
0.423171353022,0.48333333333333334
0.423171353022,0.4888888888888889
0.654911291737,0.49444444444444446
0.654911291737,0.5
0.693574003762,0.5055555555555555
0.693574003762,0.5111111111111111
0.757702821925,0.5166666666666667
0.757702821925,0.5222222222222223
0.786859901008,0.5277777777777778
0.786859901008,0.5333333333333333
0.8376886399,0.5388888888888889
0.8376886399,0.5444444444444444
1.05342415197,0.55
1.05342415197,0.5555555555555556
1.0986872109,0.5611111111111111
1.0986872109,0.5666666666666667
1.09877780232,0.5722222222222222
1.09877780232,0.5777777777777777
1.28784522735,0.5833333333333334
1.28784522735,0.5888888888888889
1.3821428978,0.5944444444444444
1.3821428978,0.6
1.42746593093,0.6055555555555555
1.42746593093,0.6111111111111112
1.46534333982,0.6166666666666667
1.46534333982,0.6222222222222222
1.47944080984,0.6277777777777778
1.47944080984,0.6333333333333333
1.48776900473,0.6388888888888888
1.48776900473,0.6444444444444445
1.52790968736,0.65
1.52790968736,0.6555555555555556
1.61214942807,0.6611111111111111
1.61214942807,0.6666666666666666
1.66487525732,0.6722222222222223
1.66487525732,0.6777777777777778
1.76281738805,0.6833333333333333
1.76281738805,0.6888888888888889
1.78314433062,0.6944444444444444
1.78314433062,0.7
1.94968233949,0.7055555555555556
1.94968233949,0.7111111111111111
2.06604450129,0.7166666666666667
2.06604450129,0.7222222222222222
2.09953926631,0.7277777777777777
2.09953926631,0.7333333333333333
2.44388094308,0.7388888888888889
2.44388094308,0.7444444444444445
2.65558303277,0.75
2.65558303277,0.7555555555555555
2.75918289919,0.7611111111111111
2.75918289919,0.7666666666666667
2.90754398659,0.7722222222222223
2.90754398659,0.7777777777777778
3.0922414882,0.7833333333333333
3.0922414882,0.7888888888888889
3.18834626908,0.7944444444444444
3.18834626908,0.8
3.79576811249,0.8055555555555556
3.79576811249,0.8111111111111111
3.80361810345,0.8166666666666667
3.80361810345,0.8222222222222222
3.90974569864,0.8277777777777777
3.90974569864,0.8333333333333334
3.94671564827,0.8388888888888889
3.94671564827,0.8444444444444444
3.97211126176,0.85
3.97211126176,0.8555555555555555
4.01540070022,0.8611111111111112
4.01540070022,0.8666666666666667
4.11327175872,0.8722222222222222
4.11327175872,0.8777777777777778
4.44675486288,0.8833333333333333
4.44675486288,0.8888888888888888
4.74788950989,0.8944444444444445
4.74788950989,0.9
4.85998289512,0.9055555555555556
4.85998289512,0.9111111111111111
5.01790719358,0.9166666666666666
5.01790719358,0.9222222222222223
5.10199234343,0.9277777777777778
5.10199234343,0.9333333333333333
5.3082055121,0.9388888888888889
5.3082055121,0.9444444444444444
5.43425667679,0.95
5.43425667679,0.9555555555555556
5.76726067635,0.9611111111111111
5.76726067635,0.9666666666666667
9.0311529158,0.9722222222222222
9.0311529158,0.9777777777777777
9.78896632742,0.9833333333333333
9.78896632742,0.9888888888888889
10.0147321502,0.9944444444444445
10.0147321502,1.0
