Congestion,CDF
0.00723410588796,0.005555555555555556
0.00723410588796,0.011111111111111112
0.00761137653708,0.016666666666666666
0.00761137653708,0.022222222222222223
0.00862060599467,0.027777777777777776
0.00862060599467,0.03333333333333333
0.0087072056205,0.03888888888888889
0.0087072056205,0.044444444444444446
0.00874146618044,0.05
0.00874146618044,0.05555555555555555
0.00890321096863,0.06111111111111111
0.00890321096863,0.06666666666666667
0.009103294651,0.07222222222222222
0.009103294651,0.07777777777777778
0.00941935100741,0.08333333333333333
0.00941935100741,0.08888888888888889
0.00955861132303,0.09444444444444444
0.00955861132303,0.1
0.00956134166942,0.10555555555555556
0.00956134166942,0.1111111111111111
0.00981675744272,0.11666666666666667
0.00981675744272,0.12222222222222222
0.00984850605282,0.12777777777777777
0.00984850605282,0.13333333333333333
0.0102895201083,0.1388888888888889
0.0102895201083,0.14444444444444443
0.0102941760302,0.15
0.0102941760302,0.15555555555555556
0.0103724420138,0.16111111111111112
0.0103724420138,0.16666666666666666
0.0104875615709,0.17222222222222222
0.0104875615709,0.17777777777777778
0.0105772253592,0.18333333333333332
0.0105772253592,0.18888888888888888
0.0107906659651,0.19444444444444445
0.0107906659651,0.2
0.0110174999168,0.20555555555555555
0.0110174999168,0.2111111111111111
0.0110795375725,0.21666666666666667
0.0110795375725,0.2222222222222222
0.0111243586606,0.22777777777777777
0.0111243586606,0.23333333333333334
0.0111295426108,0.2388888888888889
0.0111295426108,0.24444444444444444
0.0112335090437,0.25
0.0112335090437,0.25555555555555554
0.0112527133806,0.2611111111111111
0.0112527133806,0.26666666666666666
0.0113766624076,0.2722222222222222
0.0113766624076,0.2777777777777778
0.0116968843487,0.2833333333333333
0.0116968843487,0.28888888888888886
0.0117987988286,0.29444444444444445
0.0117987988286,0.3
0.0118571912072,0.3055555555555556
0.0118571912072,0.3111111111111111
0.0126172641189,0.31666666666666665
0.0126172641189,0.32222222222222224
0.0128409839531,0.3277777777777778
0.0128409839531,0.3333333333333333
0.0129870554422,0.3388888888888889
0.0129870554422,0.34444444444444444
0.0131005227017,0.35
0.0131005227017,0.35555555555555557
0.0132810948987,0.3611111111111111
0.0132810948987,0.36666666666666664
0.0135514606222,0.37222222222222223
0.0135514606222,0.37777777777777777
0.0139123980068,0.38333333333333336
0.0139123980068,0.3888888888888889
0.0143439613495,0.39444444444444443
0.0143439613495,0.4
0.0152238321375,0.40555555555555556
0.0152238321375,0.4111111111111111
0.0153206115685,0.4166666666666667
0.0153206115685,0.4222222222222222
0.0157979558856,0.42777777777777776
0.0157979558856,0.43333333333333335
0.0159582832615,0.4388888888888889
0.0159582832615,0.4444444444444444
0.244453501702,0.45
0.244453501702,0.45555555555555555
0.369737829487,0.46111111111111114
0.369737829487,0.4666666666666667
0.388597847745,0.4722222222222222
0.388597847745,0.4777777777777778
0.401604554689,0.48333333333333334
0.401604554689,0.4888888888888889
0.611403953512,0.49444444444444446
0.611403953512,0.5
0.642670905514,0.5055555555555555
0.642670905514,0.5111111111111111
0.700892229821,0.5166666666666667
0.700892229821,0.5222222222222223
0.720363902856,0.5277777777777778
0.720363902856,0.5333333333333333
0.805375447492,0.5388888888888889
0.805375447492,0.5444444444444444
0.968651926819,0.55
0.968651926819,0.5555555555555556
1.01598449669,0.5611111111111111
1.01598449669,0.5666666666666667
1.03053690424,0.5722222222222222
1.03053690424,0.5777777777777777
1.19049198446,0.5833333333333334
1.19049198446,0.5888888888888889
1.30342949925,0.5944444444444444
1.30342949925,0.6
1.35067410553,0.6055555555555555
1.35067410553,0.6111111111111112
1.35888484268,0.6166666666666667
1.35888484268,0.6222222222222222
1.36168718945,0.6277777777777778
1.36168718945,0.6333333333333333
1.38542676543,0.6388888888888888
1.38542676543,0.6444444444444445
1.45684058186,0.65
1.45684058186,0.6555555555555556
1.53927079544,0.6611111111111111
1.53927079544,0.6666666666666666
1.57301696763,0.6722222222222223
1.57301696763,0.6777777777777778
1.68042103981,0.6833333333333333
1.68042103981,0.6888888888888889
1.68084525343,0.6944444444444444
1.68084525343,0.7
1.85666372377,0.7055555555555556
1.85666372377,0.7111111111111111
1.98642237002,0.7166666666666667
1.98642237002,0.7222222222222222
1.99034909585,0.7277777777777777
1.99034909585,0.7333333333333333
2.35346910754,0.7388888888888889
2.35346910754,0.7444444444444445
2.5349231296,0.75
2.5349231296,0.7555555555555555
2.61005958297,0.7611111111111111
2.61005958297,0.7666666666666667
2.75524620186,0.7722222222222223
2.75524620186,0.7777777777777778
2.97143848378,0.7833333333333333
2.97143848378,0.7888888888888889
3.05926189392,0.7944444444444444
3.05926189392,0.8
3.65884356633,0.8055555555555556
3.65884356633,0.8111111111111111
3.6694164806,0.8166666666666667
3.6694164806,0.8222222222222222
3.72067804449,0.8277777777777777
3.72067804449,0.8333333333333334
3.76811709084,0.8388888888888889
3.76811709084,0.8444444444444444
3.80798840934,0.85
3.80798840934,0.8555555555555555
3.84927069234,0.8611111111111112
3.84927069234,0.8666666666666667
3.90764220164,0.8722222222222222
3.90764220164,0.8777777777777778
4.22473050473,0.8833333333333333
4.22473050473,0.8888888888888888
4.58630661255,0.8944444444444445
4.58630661255,0.9
4.6076746446,0.9055555555555556
4.6076746446,0.9111111111111111
4.74085550987,0.9166666666666666
4.74085550987,0.9222222222222223
4.87048448588,0.9277777777777778
4.87048448588,0.9333333333333333
5.13896213115,0.9388888888888889
5.13896213115,0.9444444444444444
5.14751936528,0.95
5.14751936528,0.9555555555555556
5.57119047871,0.9611111111111111
5.57119047871,0.9666666666666667
8.76796239663,0.9722222222222222
8.76796239663,0.9777777777777777
9.50319066443,0.9833333333333333
9.50319066443,0.9888888888888889
9.71115433308,0.9944444444444445
9.71115433308,1.0
