Congestion,CDF
0.0055619165261,0.005555555555555556
0.0055619165261,0.011111111111111112
0.00595721342325,0.016666666666666666
0.00595721342325,0.022222222222222223
0.00686041668304,0.027777777777777776
0.00686041668304,0.03333333333333333
0.00688404426339,0.03888888888888889
0.00688404426339,0.044444444444444446
0.00697739057274,0.05
0.00697739057274,0.05555555555555555
0.00713436480467,0.06111111111111111
0.00713436480467,0.06666666666666667
0.00722490434947,0.07222222222222222
0.00722490434947,0.07777777777777778
0.00747537383265,0.08333333333333333
0.00747537383265,0.08888888888888889
0.00759500779354,0.09444444444444444
0.00759500779354,0.1
0.00780402107305,0.10555555555555556
0.00780402107305,0.1111111111111111
0.00819234610537,0.11666666666666667
0.00819234610537,0.12222222222222222
0.00820456931891,0.12777777777777777
0.00820456931891,0.13333333333333333
0.0082323658517,0.1388888888888889
0.0082323658517,0.14444444444444443
0.00835269183495,0.15
0.00835269183495,0.15555555555555556
0.00847359797787,0.16111111111111112
0.00847359797787,0.16666666666666666
0.00864506596194,0.17222222222222222
0.00864506596194,0.17777777777777778
0.00896800068553,0.18333333333333332
0.00896800068553,0.18888888888888888
0.00903162661077,0.19444444444444445
0.00903162661077,0.2
0.00907003167137,0.20555555555555555
0.00907003167137,0.2111111111111111
0.00936172781517,0.21666666666666667
0.00936172781517,0.2222222222222222
0.00941427448528,0.22777777777777777
0.00941427448528,0.23333333333333334
0.00945321698496,0.2388888888888889
0.00945321698496,0.24444444444444444
0.00955382482719,0.25
0.00955382482719,0.25555555555555554
0.00956172209724,0.2611111111111111
0.00956172209724,0.26666666666666666
0.00964917342752,0.2722222222222222
0.00964917342752,0.2777777777777778
0.00988061691629,0.2833333333333333
0.00988061691629,0.28888888888888886
0.0102277361049,0.29444444444444445
0.0102277361049,0.3
0.0103422240704,0.3055555555555556
0.0103422240704,0.3111111111111111
0.0108700336102,0.31666666666666665
0.0108700336102,0.32222222222222224
0.0110550855149,0.3277777777777778
0.0110550855149,0.3333333333333333
0.0110669663359,0.3388888888888889
0.0110669663359,0.34444444444444444
0.011151294007,0.35
0.011151294007,0.35555555555555557
0.0111831121525,0.3611111111111111
0.0111831121525,0.36666666666666664
0.0114363591954,0.37222222222222223
0.0114363591954,0.37777777777777777
0.0122215867469,0.38333333333333336
0.0122215867469,0.3888888888888889
0.0124839950559,0.39444444444444443
0.0124839950559,0.4
0.0133143370225,0.40555555555555556
0.0133143370225,0.4111111111111111
0.013648198738,0.4166666666666667
0.013648198738,0.4222222222222222
0.0139167500719,0.42777777777777776
0.0139167500719,0.43333333333333335
0.0139828393581,0.4388888888888889
0.0139828393581,0.4444444444444444
0.188099426232,0.45
0.188099426232,0.45555555555555555
0.309817976796,0.46111111111111114
0.309817976796,0.4666666666666667
0.332922203934,0.4722222222222222
0.332922203934,0.4777777777777778
0.339859233866,0.48333333333333334
0.339859233866,0.4888888888888889
0.486219588033,0.49444444444444446
0.486219588033,0.5
0.507902398901,0.5055555555555555
0.507902398901,0.5111111111111111
0.53854950927,0.5166666666666667
0.53854950927,0.5222222222222223
0.541756651595,0.5277777777777778
0.541756651595,0.5333333333333333
0.71110302665,0.5388888888888889
0.71110302665,0.5444444444444444
0.717883727841,0.55
0.717883727841,0.5555555555555556
0.799855755467,0.5611111111111111
0.799855755467,0.5666666666666667
0.839362488528,0.5722222222222222
0.839362488528,0.5777777777777777
0.915473135759,0.5833333333333334
0.915473135759,0.5888888888888889
1.02850878592,0.5944444444444444
1.02850878592,0.6
1.04979629674,0.6055555555555555
1.04979629674,0.6111111111111112
1.07789849464,0.6166666666666667
1.07789849464,0.6222222222222222
1.10549542539,0.6277777777777778
1.10549542539,0.6333333333333333
1.12702718845,0.6388888888888888
1.12702718845,0.6444444444444445
1.26090173954,0.65
1.26090173954,0.6555555555555556
1.30143189887,0.6611111111111111
1.30143189887,0.6666666666666666
1.32792092549,0.6722222222222223
1.32792092549,0.6777777777777778
1.38311458926,0.6833333333333333
1.38311458926,0.6888888888888889
1.44253854177,0.6944444444444444
1.44253854177,0.7
1.57441677818,0.7055555555555556
1.57441677818,0.7111111111111111
1.68194102885,0.7166666666666667
1.68194102885,0.7222222222222222
1.75171936996,0.7277777777777777
1.75171936996,0.7333333333333333
2.09549706722,0.7388888888888889
2.09549706722,0.7444444444444445
2.16593849506,0.75
2.16593849506,0.7555555555555555
2.17491917241,0.7611111111111111
2.17491917241,0.7666666666666667
2.30660281924,0.7722222222222223
2.30660281924,0.7777777777777778
2.61283965608,0.7833333333333333
2.61283965608,0.7888888888888889
2.67162290711,0.7944444444444444
2.67162290711,0.8
3.1668644331,0.8055555555555556
3.1668644331,0.8111111111111111
3.16687098027,0.8166666666666667
3.16687098027,0.8222222222222222
3.23851685332,0.8277777777777777
3.23851685332,0.8333333333333334
3.28879021035,0.8388888888888889
3.28879021035,0.8444444444444444
3.29628660275,0.85
3.29628660275,0.8555555555555555
3.34862328325,0.8611111111111112
3.34862328325,0.8666666666666667
3.39575499565,0.8722222222222222
3.39575499565,0.8777777777777778
3.55376889477,0.8833333333333333
3.55376889477,0.8888888888888888
3.85855265762,0.8944444444444445
3.85855265762,0.9
3.91575004314,0.9055555555555556
3.91575004314,0.9111111111111111
4.10234231449,0.9166666666666666
4.10234231449,0.9222222222222223
4.16804995497,0.9277777777777778
4.16804995497,0.9333333333333333
4.26822956936,0.9388888888888889
4.26822956936,0.9444444444444444
4.63283546219,0.95
4.63283546219,0.9555555555555556
4.97754780413,0.9611111111111111
4.97754780413,0.9666666666666667
7.9787416368,0.9722222222222222
7.9787416368,0.9777777777777777
8.64336663369,0.9833333333333333
8.64336663369,0.9888888888888889
8.79592723146,0.9944444444444445
8.79592723146,1.0
