Congestion,CDF
0.0,0.007352941176470588
0.0,0.014705882352941176
0.0,0.022058823529411766
0.0,0.029411764705882353
0.0,0.03676470588235294
0.0,0.04411764705882353
0.0,0.051470588235294115
0.0,0.058823529411764705
0.0,0.0661764705882353
0.0,0.07352941176470588
0.0,0.08088235294117647
0.0,0.08823529411764706
0.0,0.09558823529411764
0.0,0.10294117647058823
4.30267523609e-06,0.11029411764705882
4.30267523609e-06,0.11764705882352941
4.30267523609e-06,0.125
4.30267523609e-06,0.1323529411764706
4.30267523609e-06,0.13970588235294118
4.30267523609e-06,0.14705882352941177
4.30267523609e-06,0.15441176470588236
4.30267523609e-06,0.16176470588235295
4.30267523609e-06,0.16911764705882354
4.30267523609e-06,0.17647058823529413
4.30267523609e-06,0.18382352941176472
4.30267523609e-06,0.19117647058823528
4.30267523609e-06,0.19852941176470587
4.30267523609e-06,0.20588235294117646
4.30267523609e-06,0.21323529411764705
4.30267523609e-06,0.22058823529411764
4.30267523609e-06,0.22794117647058823
4.30267523609e-06,0.23529411764705882
4.30267523609e-06,0.2426470588235294
4.30267523609e-06,0.25
4.30267523609e-06,0.25735294117647056
4.30267523609e-06,0.2647058823529412
4.30267523609e-06,0.27205882352941174
4.30267523609e-06,0.27941176470588236
4.30267523609e-06,0.2867647058823529
4.30267523609e-06,0.29411764705882354
4.30267523609e-06,0.3014705882352941
0.000107566880902,0.3088235294117647
0.000107566880902,0.3161764705882353
0.000116172231374,0.3235294117647059
0.000215133761804,0.33088235294117646
0.000215133761804,0.3382352941176471
0.000215133761804,0.34558823529411764
0.000215133761804,0.35294117647058826
0.000322700642707,0.3602941176470588
0.000358556269674,0.36764705882352944
0.000358556269674,0.375
0.000358556269674,0.38235294117647056
0.000430267523609,0.3897058823529412
0.000430267523609,0.39705882352941174
0.000430267523609,0.40441176470588236
0.000430267523609,0.4117647058823529
0.000430267523609,0.41911764705882354
0.000430267523609,0.4264705882352941
0.000430267523609,0.4338235294117647
0.000537834404511,0.4411764705882353
0.000645401285413,0.4485294117647059
0.000645401285413,0.45588235294117646
0.000788823793283,0.4632352941176471
0.000860535047218,0.47058823529411764
0.000860535047218,0.47794117647058826
0.00129080257083,0.4852941176470588
0.0017569257214,0.49264705882352944
0.00311943954616,0.5
0.0031911508001,0.5073529411764706
0.00412339710125,0.5147058823529411
0.00512735465634,0.5220588235294118
0.00519906591027,0.5294117647058824
0.00555762217995,0.5367647058823529
0.00562933343388,0.5441176470588235
0.00605960095749,0.5514705882352942
0.0387970663355,0.5588235294117647
0.0392826588963,0.5661764705882353
0.0446190838946,0.5735294117647058
0.0446880894173,0.5808823529411765
0.0447660377191,0.5882352941176471
0.0447952465733,0.5955882352941176
0.0448162139907,0.6029411764705882
0.0448672710304,0.6102941176470589
0.0449607575046,0.6176470588235294
0.044973984786,0.625
0.0449935285165,0.6323529411764706
0.0449988821742,0.6397058823529411
0.0449990603844,0.6470588235294118
0.0449994858277,0.6544117647058824
0.0449994904996,0.6617647058823529
0.0450001686949,0.6691176470588235
0.0450007063432,0.6764705882352942
0.0450060442065,0.6838235294117647
0.0450104019034,0.6911764705882353
0.0450215691098,0.6985294117647058
0.0450260189851,0.7058823529411765
0.0450260299373,0.7132352941176471
0.0450260840861,0.7205882352941176
0.0450260873298,0.7279411764705882
0.0450265142236,0.7352941176470589
0.0450265163863,0.7426470588235294
0.0450265163863,0.75
1.12498714569,0.7573529411764706
1.12515110516,0.7647058823529411
1.20177951514,0.7720588235294118
2.24336355152,0.7794117647058824
2.24336355152,0.7867647058823529
2.25052009517,0.7941176470588235
2.25052009517,0.8014705882352942
3.37496143708,0.8088235294117647
3.75010098999,0.8161764705882353
3.75010098999,0.8235294117647058
3.75010098999,0.8308823529411765
4.48162139907,0.8382352941176471
4.50001686949,0.8455882352941176
4.50060442065,0.8529411764705882
4.50260299373,0.8602941176470589
4.50260873298,0.8676470588235294
4.50265163863,0.875
4.50265163863,0.8823529411764706
5.62505778001,0.8897058823529411
6.71996732343,0.8970588235294118
6.75042613361,0.9044117647058824
8.24749946859,0.9117647058823529
8.9611460564,0.9191176470588235
9.00521714159,0.9264705882352942
13.5079546996,0.9338235294117647
18.3751246895,0.9411764705882353
32.6435278386,0.9485294117647058
33.36206346,0.9558823529411765
43.1463058348,0.9632352941176471
53.5050852293,0.9705882352941176
54.39608482,0.9779411764705882
57.3847918629,0.9852941176470589
58.8648937617,0.9926470588235294
62.7931596514,1.0
