Congestion,CDF
0.0,0.007352941176470588
0.0,0.014705882352941176
0.0,0.022058823529411766
0.0,0.029411764705882353
0.0,0.03676470588235294
0.0,0.04411764705882353
0.0,0.051470588235294115
0.0,0.058823529411764705
0.0,0.0661764705882353
0.0,0.07352941176470588
0.0,0.08088235294117647
0.0,0.08823529411764706
0.0,0.09558823529411764
0.0,0.10294117647058823
4.55036959159e-06,0.11029411764705882
4.55036959159e-06,0.11764705882352941
4.55036959159e-06,0.125
4.55036959159e-06,0.1323529411764706
4.55036959159e-06,0.13970588235294118
4.55036959159e-06,0.14705882352941177
4.55036959159e-06,0.15441176470588236
4.55036959159e-06,0.16176470588235295
4.55036959159e-06,0.16911764705882354
4.55036959159e-06,0.17647058823529413
4.55036959159e-06,0.18382352941176472
4.55036959159e-06,0.19117647058823528
4.55036959159e-06,0.19852941176470587
4.55036959159e-06,0.20588235294117646
4.55036959159e-06,0.21323529411764705
4.55036959159e-06,0.22058823529411764
4.55036959159e-06,0.22794117647058823
4.55036959159e-06,0.23529411764705882
4.55036959159e-06,0.2426470588235294
4.55036959159e-06,0.25
4.55036959159e-06,0.25735294117647056
4.55036959159e-06,0.2647058823529412
4.55036959159e-06,0.27205882352941174
4.55036959159e-06,0.27941176470588236
4.55036959159e-06,0.2867647058823529
4.55036959159e-06,0.29411764705882354
4.55036959159e-06,0.3014705882352941
0.00011375923979,0.3088235294117647
0.00011375923979,0.3161764705882353
0.000122859978973,0.3235294117647059
0.000227518479579,0.33088235294117646
0.000227518479579,0.3382352941176471
0.000227518479579,0.34558823529411764
0.000227518479579,0.35294117647058826
0.000341277719369,0.3602941176470588
0.000379197465965,0.36764705882352944
0.000379197465965,0.375
0.000379197465965,0.38235294117647056
0.000455036959159,0.3897058823529412
0.000455036959159,0.39705882352941174
0.000455036959159,0.40441176470588236
0.000455036959159,0.4117647058823529
0.000455036959159,0.41911764705882354
0.000455036959159,0.4264705882352941
0.000455036959159,0.4338235294117647
0.000568796198948,0.4411764705882353
0.000682555438738,0.4485294117647059
0.000682555438738,0.45588235294117646
0.000834234425124,0.4632352941176471
0.000910073918317,0.47058823529411764
0.000910073918317,0.47794117647058826
0.00136511087748,0.4852941176470588
0.00185806758323,0.49264705882352944
0.0032990179539,0.5
0.00337485744709,0.5073529411764706
0.0043607708586,0.5147058823529411
0.00542252376331,0.5220588235294118
0.0054983632565,0.5294117647058824
0.00587756072246,0.5367647058823529
0.00595340021566,0.5441176470588235
0.00640843717482,0.5514705882352942
0.0272710919228,0.5588235294117647
0.0276076964731,0.5661764705882353
0.0311646047368,0.5735294117647058
0.0312245298495,0.5808823529411765
0.0312680263936,0.5882352941176471
0.0312946642261,0.5955882352941176
0.0313101338546,0.6029411764705882
0.0313625367188,0.6102941176470589
0.0314545258559,0.6176470588235294
0.0314659954175,0.625
0.031486273794,0.6323529411764706
0.0314906244116,0.6397058823529411
0.0314909473492,0.6470588235294118
0.0314911950241,0.6544117647058824
0.0314913209002,0.6617647058823529
0.0314918948133,0.6691176470588235
0.0314924239295,0.6764705882352942
0.0314977409005,0.6838235294117647
0.0315021536838,0.6911764705882353
0.0315132844228,0.6985294117647058
0.0315177037165,0.7058823529411765
0.0315177137672,0.7132352941176471
0.0315177677293,0.7205882352941176
0.0315177708416,0.7279411764705882
0.0315181978047,0.7352941176470589
0.0315181998797,0.7426470588235294
0.0315181998797,0.75
0.787279875603,0.7573529411764706
0.787443522513,0.7647058823529411
0.840997218296,0.7720588235294118
1.56812683594,0.7794117647058824
1.56812683594,0.7867647058823529
1.57510768419,0.7941176470588235
1.57510768419,0.8014705882352942
2.36183962681,0.8088235294117647
2.6244108785,0.8161764705882353
2.6244108785,0.8235294117647058
2.6244108785,0.8308823529411765
3.13101338546,0.8382352941176471
3.14918948133,0.8455882352941176
3.14977409005,0.8529411764705882
3.15177137672,0.8602941176470589
3.15177708416,0.8676470588235294
3.15181998797,0.875
3.15181998797,0.8823529411764706
3.93652226855,0.8897058823529411
4.6949294753,0.8970588235294118
4.7242024191,0.9044117647058824
5.77101042025,0.9117647058823529
6.26047980806,0.9191176470588235
6.30355385709,0.9264705882352942
9.4554597564,0.9338235294117647
12.8592547184,0.9411764705882353
22.8499988844,0.9485294117647058
23.3438445602,0.9558823529411765
30.2008458894,0.9632352941176471
37.4157143172,0.9705882352941176
38.0736756879,0.9779411764705882
40.1428235095,0.9852941176470589
41.1961286728,0.9926470588235294
43.9568983201,1.0
