Congestion,CDF
0.0,0.005555555555555556
0.0,0.011111111111111112
0.0,0.016666666666666666
0.0,0.022222222222222223
0.0,0.027777777777777776
0.0,0.03333333333333333
0.0,0.03888888888888889
0.0,0.044444444444444446
0.0,0.05
0.0,0.05555555555555555
1.05014320434e-06,0.06111111111111111
1.20656403717e-06,0.06666666666666667
2.71587567987e-06,0.07222222222222222
3.96941028845e-06,0.07777777777777778
4.06168353999e-06,0.08333333333333333
5.36282048621e-06,0.08888888888888889
5.89981231771e-06,0.09444444444444444
8.13128672255e-06,0.1
8.17323643761e-06,0.10555555555555556
8.36198808127e-06,0.1111111111111111
8.53408739039e-06,0.11666666666666667
9.39428672627e-06,0.12222222222222222
9.61218495337e-06,0.12777777777777777
1.07338680877e-05,0.13333333333333333
1.09936373562e-05,0.1388888888888889
1.15764401684e-05,0.14444444444444443
1.33859956073e-05,0.15
1.46497310761e-05,0.15555555555555556
1.52972700889e-05,0.16111111111111112
1.59097899272e-05,0.16666666666666666
1.61615154677e-05,0.17222222222222222
1.62913138394e-05,0.17777777777777778
1.68310683056e-05,0.18333333333333332
1.74159158487e-05,0.18888888888888888
1.77099039532e-05,0.19444444444444445
1.79099053341e-05,0.2
1.80092695747e-05,0.20555555555555555
1.82160769701e-05,0.2111111111111111
1.83940809974e-05,0.21666666666666667
1.84344448732e-05,0.2222222222222222
1.90503870303e-05,0.22777777777777777
1.92093220048e-05,0.23333333333333334
1.94298330629e-05,0.2388888888888889
2.10414670682e-05,0.24444444444444444
2.21411255361e-05,0.25
2.40388221514e-05,0.25555555555555554
2.44196502625e-05,0.2611111111111111
2.47710667317e-05,0.26666666666666666
2.56099373224e-05,0.2722222222222222
9.05291893291e-05,0.2777777777777778
0.000181058378658,0.2833333333333333
0.000198470514422,0.28888888888888886
0.000198470514422,0.29444444444444445
0.00020433091094,0.3
0.00020433091094,0.3055555555555556
0.000309345231374,0.3111111111111111
0.000406168353999,0.31666666666666665
0.00040866182188,0.32222222222222224
0.000544105218512,0.3277777777777778
0.000813128672255,0.3333333333333333
0.000845627279995,0.3388888888888889
0.000895495266705,0.34444444444444444
0.000895495266705,0.35
0.00114375958357,0.35555555555555557
0.00174159158487,0.3611111111111111
0.00177099039532,0.36666666666666664
0.00182760189836,0.37222222222222223
0.00196888207547,0.37777777777777777
0.00208309530466,0.38333333333333336
0.00208309530466,0.3888888888888889
0.00237535428888,0.39444444444444443
0.00251031506082,0.4
0.00269926188051,0.40555555555555556
0.00288576849505,0.4111111111111111
0.00358503607219,0.4166666666666667
0.00379048977248,0.4222222222222222
0.00398813400769,0.42777777777777776
0.00490301358889,0.43333333333333335
0.00575642232793,0.4388888888888889
0.00602696153414,0.4444444444444444
0.00744223123358,0.45
0.00843084374928,0.45555555555555555
0.014999580519,0.46111111111111114
0.0182483346202,0.4666666666666667
0.0185624477575,0.4722222222222222
0.0188621779563,0.4777777777777778
0.0191008745725,0.48333333333333334
0.0208093283525,0.4888888888888889
0.0213149871261,0.49444444444444446
0.0224254798992,0.5
0.0226711016574,0.5055555555555555
0.0236295629547,0.5111111111111111
0.0238572768948,0.5166666666666667
0.023896491958,0.5222222222222223
0.0238993458388,0.5277777777777778
0.0239178110623,0.5333333333333333
0.0239235497405,0.5388888888888889
0.0239448013817,0.5444444444444444
0.0239657042727,0.55
0.0240097012181,0.5555555555555556
0.0240101326668,0.5611111111111111
0.024011051992,0.5666666666666667
0.0240169227406,0.5722222222222222
0.0240307486277,0.5777777777777777
0.0240513462532,0.5833333333333334
0.0240563879837,0.5888888888888889
0.0240567173446,0.5944444444444444
0.0240588196735,0.6
0.0240962976348,0.6055555555555555
0.0241150919422,0.6111111111111112
0.024125137818,0.6166666666666667
0.0241265377241,0.6222222222222222
0.0241285892939,0.6277777777777778
0.0241349455001,0.6333333333333333
0.0241500428734,0.6388888888888888
0.0241585755301,0.6444444444444445
0.0241641470623,0.65
0.0241667874447,0.6555555555555556
0.0241689354111,0.6611111111111111
0.0241714225191,0.6666666666666666
0.0241749211224,0.6722222222222223
0.0241856603551,0.6777777777777778
0.0241914582003,0.6833333333333333
0.0242173024639,0.6888888888888889
0.0242337203228,0.6944444444444444
0.0242652552398,0.7
0.0242709713393,0.7055555555555556
0.0242774983113,0.7111111111111111
0.0242879928999,0.7166666666666667
0.0259306334186,0.7222222222222222
0.0260924898973,0.7277777777777777
0.0265206146504,0.7333333333333333
0.0269286887055,0.7388888888888889
0.0278899072008,0.7444444444444445
0.600276299801,0.75
0.600276299801,0.7555555555555555
0.797451658017,0.7611111111111111
0.928562588108,0.7666666666666667
1.19589055312,0.7722222222222223
1.19589055312,0.7777777777777778
1.2005525996,0.7833333333333333
1.20833937224,0.7888888888888889
1.20833937224,0.7944444444444444
1.59490331603,0.8
2.39448013817,0.8055555555555556
2.40101326668,0.8111111111111111
2.41585755301,0.8166666666666667
2.41641470623,0.8222222222222222
2.9899254956,0.8277777777777777
3.00335116257,0.8333333333333334
3.60552031659,0.8388888888888889
3.61347399756,0.8444444444444444
3.62830243073,0.85
3.81442227257,0.8555555555555555
3.81442227257,0.8611111111111112
4.81621038456,0.8666666666666667
4.83334966525,0.8722222222222222
5.38649592287,0.8777777777777778
6.03061624946,0.8833333333333333
6.2123120148,0.8888888888888888
6.23298830808,0.8944444444444445
7.79900970467,0.9
11.0644073016,0.9055555555555556
12.4166688713,0.9111111111111111
13.8275081636,0.9166666666666666
14.8183611453,0.9222222222222223
16.2540336876,0.9277777777777778
28.2996619881,0.9333333333333333
29.5450967362,0.9388888888888889
31.9738960262,0.9444444444444444
34.3867549556,0.95
35.5293669226,0.9555555555555556
37.9527389549,0.9611111111111111
40.4049290446,0.9666666666666667
41.5545114754,0.9722222222222222
42.7678853401,0.9777777777777777
43.9601832098,0.9833333333333333
44.6241301159,0.9888888888888889
46.3459108993,0.9944444444444445
48.232128695,1.0
