Congestion,CDF
0.0,0.005555555555555556
0.0,0.011111111111111112
0.0,0.016666666666666666
0.0,0.022222222222222223
0.0,0.027777777777777776
0.0,0.03333333333333333
0.0,0.03888888888888889
0.0,0.044444444444444446
0.0,0.05
0.0,0.05555555555555555
1.04951992219e-06,0.06111111111111111
1.20584791595e-06,0.06666666666666667
2.71426375034e-06,0.07222222222222222
3.96705435967e-06,0.07777777777777778
4.05927284509e-06,0.08333333333333333
5.35963753908e-06,0.08888888888888889
5.8963106546e-06,0.09444444444444444
8.12646063229e-06,0.1
8.1683854493e-06,0.10555555555555556
8.35702506488e-06,0.1111111111111111
8.52902222943e-06,0.11666666666666667
9.38871101885e-06,0.12222222222222222
9.60647991876e-06,0.12777777777777777
1.07274973104e-05,0.13333333333333333
1.09871124004e-05,0.1388888888888889
1.15695693068e-05,0.14444444444444443
1.33780507365e-05,0.15
1.46410361516e-05,0.15555555555555556
1.52881908363e-05,0.16111111111111112
1.59003471311e-05,0.16666666666666666
1.61519232672e-05,0.17222222222222222
1.62816446009e-05,0.17777777777777778
1.68210787114e-05,0.18333333333333332
1.74055791351e-05,0.18888888888888888
1.76993927515e-05,0.19444444444444445
1.78992754273e-05,0.2
1.79985806931e-05,0.20555555555555555
1.8205265344e-05,0.2111111111111111
1.83831637222e-05,0.21666666666666667
1.84235036412e-05,0.2222222222222222
1.90390802236e-05,0.22777777777777777
1.91979208668e-05,0.23333333333333334
1.9418301047e-05,0.2388888888888889
2.10289785134e-05,0.24444444444444444
2.21279843109e-05,0.25
2.40245546032e-05,0.25555555555555554
2.44051566848e-05,0.2611111111111111
2.47563645808e-05,0.26666666666666666
2.55947372842e-05,0.2722222222222222
9.04754583448e-05,0.2777777777777778
0.00018095091669,0.2833333333333333
0.000198352717984,0.28888888888888886
0.000198352717984,0.29444444444444445
0.000204209636233,0.3
0.000204209636233,0.3055555555555556
0.000309161628451,0.3111111111111111
0.000405927284509,0.31666666666666665
0.000408419272465,0.32222222222222224
0.000543782280582,0.3277777777777778
0.000812646063229,0.3333333333333333
0.00084512538236,0.3388888888888889
0.000894963771367,0.34444444444444444
0.000894963771367,0.35
0.00114308073812,0.35555555555555557
0.00174055791351,0.3611111111111111
0.00176993927515,0.36666666666666664
0.00182651717807,0.37222222222222223
0.00196771350241,0.37777777777777777
0.00208185894364,0.38333333333333336
0.00208185894364,0.3888888888888889
0.00237394446599,0.39444444444444443
0.00250882513585,0.4
0.00269765981162,0.40555555555555556
0.00288405573055,0.4111111111111111
0.00358290827763,0.4166666666666667
0.00378824003681,0.4222222222222222
0.003985766966,0.42777777777777776
0.00490010354686,0.43333333333333335
0.0057530057698,0.4388888888888889
0.00602338440528,0.4444444444444444
0.00743781411229,0.45
0.0084258398656,0.45555555555555555
0.0149906779514,0.46111111111111114
0.0182375038485,0.4666666666666667
0.0190895378004,0.4722222222222222
0.0201750056856,0.4777777777777778
0.020452631978,0.48333333333333334
0.0207969775769,0.4888888888888889
0.0213023362315,0.49444444444444446
0.0224121699037,0.5
0.0226576458801,0.5055555555555555
0.0239954509538,0.5111111111111111
0.024825050668,0.5166666666666667
0.0250377326783,0.5222222222222223
0.0250891988332,0.5277777777777778
0.0250918596091,0.5333333333333333
0.0251069457336,0.5388888888888889
0.0251142002314,0.5444444444444444
0.0251337904426,0.55
0.0251530870504,0.5555555555555556
0.0251940977104,0.5611111111111111
0.0251949652477,0.5666666666666667
0.0252003905176,0.5722222222222222
0.0252131544692,0.5777777777777777
0.0252320983516,0.5833333333333334
0.0252344175559,0.5888888888888889
0.0252368193907,0.5944444444444444
0.0252385366966,0.6
0.0252702639344,0.6055555555555555
0.0252910098188,0.6111111111111112
0.0252981170838,0.6166666666666667
0.0253002562932,0.6222222222222222
0.0253026487148,0.6277777777777778
0.0253093078092,0.6333333333333333
0.02532326784,0.6388888888888888
0.0253310784898,0.6444444444444445
0.0253362870865,0.65
0.0253386805628,0.6555555555555556
0.0253407058617,0.6611111111111111
0.0253429376624,0.6666666666666666
0.0253461666859,0.6722222222222223
0.0253561455225,0.6777777777777778
0.0253614749331,0.6833333333333333
0.0253853295988,0.6888888888888889
0.0254003900327,0.6944444444444444
0.0254295820718,0.7
0.0254348280376,0.7055555555555556
0.0254409211704,0.7111111111111111
0.0254503803905,0.7166666666666667
0.0259152430405,0.7222222222222222
0.026077003454,0.7277777777777777
0.0265048741059,0.7333333333333333
0.0269127059604,0.7388888888888889
0.0278733539523,0.7444444444444445
0.629874131193,0.75
0.629874131193,0.7555555555555555
0.837140007713,0.7611111111111111
0.97531376245,0.7666666666666667
1.25534728668,0.7722222222222223
1.25534728668,0.7777777777777778
1.25974826239,0.7833333333333333
1.26693402814,0.7888888888888889
1.26693402814,0.7944444444444444
1.67428001543,0.8
2.51337904426,0.8055555555555556
2.51940977104,0.8111111111111111
2.53310784898,0.8166666666666667
2.53362870865,0.8222222222222222
3.13879401452,0.8277777777777777
3.15118957811,0.8333333333333334
3.78237368012,0.8388888888888889
3.7901438633,0.8444444444444444
3.80384037943,0.85
4.00090116696,0.8555555555555555
4.00090116696,0.8611111111111112
5.05191200414,0.8666666666666667
5.06772451756,0.8722222222222222
5.65410271956,0.8777777777777778
6.32443762953,0.8833333333333333
6.51743056771,0.8888888888888888
6.53651571922,0.8944444444444445
8.18412834887,0.9
11.6024712119,0.9055555555555556
13.0275176956,0.9111111111111111
14.5066196414,0.9166666666666666
15.5475567473,0.9222222222222223
17.0495778485,0.9277777777777778
29.6840985454,0.9333333333333333
30.9852227994,0.9388888888888889
33.5302608385,0.9444444444444444
36.0605257099,0.95
37.2669413304,0.9555555555555556
39.8069803337,0.9611111111111111
42.3727110984,0.9666666666666667
43.58618129,0.9722222222222222
44.8552161652,0.9777777777777777
46.1096230456,0.9833333333333333
46.8727167338,0.9888888888888889
48.6133963134,0.9944444444444445
50.6586595112,1.0
