Congestion,CDF
0.0146355138049,0.009433962264150943
0.0146355138049,0.018867924528301886
0.0146450766004,0.02830188679245283
0.0146450766004,0.03773584905660377
0.0146462699759,0.04716981132075472
0.0146462699759,0.05660377358490566
0.0146476310912,0.0660377358490566
0.0146476310912,0.07547169811320754
0.0146519551373,0.08490566037735849
0.0146519551373,0.09433962264150944
0.0146540447055,0.10377358490566038
0.0146540447055,0.11320754716981132
0.0146600109989,0.12264150943396226
0.0146600109989,0.1320754716981132
0.014672101678,0.14150943396226415
0.014672101678,0.1509433962264151
0.0146814276909,0.16037735849056603
0.0146814276909,0.16981132075471697
0.0146838351879,0.1792452830188679
0.0146838351879,0.18867924528301888
0.014690907881,0.19811320754716982
0.014690907881,0.20754716981132076
0.0147017536604,0.2169811320754717
0.0147017536604,0.22641509433962265
0.0147030174516,0.2358490566037736
0.0147030174516,0.24528301886792453
0.0147060928933,0.25471698113207547
0.0147060928933,0.2641509433962264
0.112822010166,0.27358490566037735
0.112822010166,0.2830188679245283
0.150156675757,0.29245283018867924
0.150156675757,0.3018867924528302
0.206734952235,0.3113207547169811
0.206734952235,0.32075471698113206
0.21792896176,0.330188679245283
0.21792896176,0.33962264150943394
0.218066088708,0.3490566037735849
0.218066088708,0.3584905660377358
0.225360580003,0.36792452830188677
0.225360580003,0.37735849056603776
0.249124384009,0.3867924528301887
0.249124384009,0.39622641509433965
0.249381990629,0.4056603773584906
0.249381990629,0.41509433962264153
0.253347919235,0.42452830188679247
0.253347919235,0.4339622641509434
0.267055014887,0.44339622641509435
0.267055014887,0.4528301886792453
0.279793639319,0.46226415094339623
0.279793639319,0.4716981132075472
0.280290719825,0.4811320754716981
0.280290719825,0.49056603773584906
0.321287715295,0.5
0.321287715295,0.5094339622641509
0.332698384169,0.5188679245283019
0.332698384169,0.5283018867924528
0.332935260684,0.5377358490566038
0.332935260684,0.5471698113207547
0.347488115661,0.5566037735849056
0.347488115661,0.5660377358490566
0.355433080158,0.5754716981132075
0.355433080158,0.5849056603773585
0.366210494192,0.5943396226415094
0.366210494192,0.6037735849056604
0.380790654186,0.6132075471698113
0.380790654186,0.6226415094339622
0.394733367186,0.6320754716981132
0.394733367186,0.6415094339622641
0.403616667381,0.6509433962264151
0.403616667381,0.660377358490566
0.413722014414,0.6698113207547169
0.413722014414,0.6792452830188679
0.424005753379,0.6886792452830188
0.424005753379,0.6981132075471698
0.465240305152,0.7075471698113207
0.465240305152,0.7169811320754716
0.473879458308,0.7264150943396226
0.473879458308,0.7358490566037735
0.474409109465,0.7452830188679245
0.474409109465,0.7547169811320755
0.510046031905,0.7641509433962265
0.510046031905,0.7735849056603774
0.510786965972,0.7830188679245284
0.510786965972,0.7924528301886793
0.579485956813,0.8018867924528302
0.579485956813,0.8113207547169812
0.580870976546,0.8207547169811321
0.580870976546,0.8301886792452831
0.596319245638,0.839622641509434
0.596319245638,0.8490566037735849
0.642776127648,0.8584905660377359
0.642776127648,0.8679245283018868
0.643779428569,0.8773584905660378
0.643779428569,0.8867924528301887
0.647656782509,0.8962264150943396
0.647656782509,0.9056603773584906
0.696845380902,0.9150943396226415
0.696845380902,0.9245283018867925
0.698682940066,0.9339622641509434
0.698682940066,0.9433962264150944
0.760941043265,0.9528301886792453
0.760941043265,0.9622641509433962
0.85597133934,0.9716981132075472
0.85597133934,0.9811320754716981
0.893787009705,0.9905660377358491
0.893787009705,1.0
