Congestion,CDF
0.0,0.005555555555555556
0.0,0.011111111111111112
0.0,0.016666666666666666
0.0,0.022222222222222223
0.0,0.027777777777777776
0.0,0.03333333333333333
0.0,0.03888888888888889
0.0,0.044444444444444446
0.0,0.05
0.0,0.05555555555555555
3.0876935417e-07,0.06111111111111111
3.54761138273e-07,0.06666666666666667
7.98537929128e-07,0.07222222222222222
1.16710963432e-06,0.07777777777777778
1.19424036484e-06,0.08333333333333333
1.57680839262e-06,0.08888888888888889
1.73469792647e-06,0.09444444444444444
2.39080931012e-06,0.1
2.40314361498e-06,0.10555555555555556
2.45864149648e-06,0.1111111111111111
2.50924315948e-06,0.11666666666666667
2.76216408712e-06,0.12222222222222222
2.82623182053e-06,0.12777777777777777
3.15603577063e-06,0.13333333333333333
3.2324146768e-06,0.1388888888888889
3.4037738278e-06,0.14444444444444443
3.93583008634e-06,0.15
4.30740110916e-06,0.15555555555555556
4.49779438308e-06,0.16111111111111112
4.67789111094e-06,0.16666666666666666
4.75190495235e-06,0.17222222222222222
4.790069042e-06,0.17777777777777778
4.94877086216e-06,0.18333333333333332
5.12073121708e-06,0.18888888888888888
5.20717134906e-06,0.19444444444444445
5.26597694524e-06,0.2
5.29519261056e-06,0.20555555555555555
5.35599935164e-06,0.2111111111111111
5.40833715502e-06,0.21666666666666667
5.42020518199e-06,0.2222222222222222
5.60130816038e-06,0.22777777777777777
5.64803916738e-06,0.23333333333333334
5.71287514092e-06,0.2388888888888889
6.18673736171e-06,0.24444444444444444
6.51006548835e-06,0.25
7.06803754006e-06,0.25555555555555554
7.18001088753e-06,0.2611111111111111
7.283336449e-06,0.26666666666666666
7.52998617208e-06,0.2722222222222222
2.66179309709e-05,0.2777777777777778
5.32358619418e-05,0.2833333333333333
5.8355481716e-05,0.28888888888888886
5.8355481716e-05,0.29444444444444445
6.00785903744e-05,0.3
6.00785903744e-05,0.3055555555555556
9.09555257914e-05,0.3111111111111111
0.000119424036484,0.31666666666666665
0.000120157180749,0.32222222222222224
0.000159981054228,0.3277777777777778
0.000239080931012,0.3333333333333333
0.000248636365054,0.3388888888888889
0.000263298847262,0.34444444444444444
0.000263298847262,0.35
0.000336294999086,0.35555555555555557
0.000512073121708,0.3611111111111111
0.000520717134906,0.36666666666666664
0.000537362385916,0.37222222222222223
0.000578902424325,0.37777777777777777
0.000612484077635,0.38333333333333336
0.000612484077635,0.3888888888888889
0.000698415803362,0.39444444444444443
0.000738097772655,0.4
0.000793653040973,0.40555555555555556
0.000848490825649,0.4111111111111111
0.00105409363991,0.4166666666666667
0.00111450235949,0.4222222222222222
0.00117261489367,0.42777777777777776
0.00144161323244,0.43333333333333335
0.00169253754838,0.4388888888888889
0.00177208309573,0.4444444444444444
0.0021882091148,0.45
0.00247888684973,0.45555555555555555
0.00441026592423,0.46111111111111114
0.00536548393788,0.4666666666666667
0.00561615280798,0.4722222222222222
0.00611848255509,0.4777777777777778
0.00626715935682,0.48333333333333334
0.00659367305033,0.4888888888888889
0.00666589222131,0.49444444444444446
0.00705947522995,0.5
0.00762427914669,0.5055555555555555
0.00767186915175,0.5111111111111111
0.00779774893933,0.5166666666666667
0.00791773330139,0.5222222222222223
0.00820035648345,0.5277777777777778
0.0167306017128,0.5333333333333333
0.0171862340856,0.5388888888888889
0.024984359956,0.5444444444444444
0.0251038652897,0.55
0.0251083251771,0.5555555555555556
0.02515117894,0.5611111111111111
0.0251762139659,0.5666666666666667
0.0251893374907,0.5722222222222222
0.025226319501,0.5777777777777777
0.025304923563,0.5833333333333334
0.0253061311275,0.5888888888888889
0.0253163801141,0.5944444444444444
0.0253384339043,0.6
0.0253408075343,0.6055555555555555
0.0253787168704,0.6111111111111112
0.025386217019,0.6166666666666667
0.0254006524081,0.6222222222222222
0.0254360406554,0.6277777777777778
0.0254900307191,0.6333333333333333
0.0255083983501,0.6388888888888888
0.0255173599042,0.6444444444444445
0.0255257518387,0.65
0.0255296906131,0.6555555555555556
0.0255519625918,0.6611111111111111
0.0255684459218,0.6666666666666666
0.025573236124,0.6722222222222223
0.0255769162666,0.6777777777777778
0.0255825254298,0.6833333333333333
0.0255854108561,0.6888888888888889
0.0255911662524,0.6944444444444444
0.0255973659658,0.7
0.0256149779985,0.7055555555555556
0.0256257346102,0.7111111111111111
0.0256714614344,0.7166666666666667
0.0257024093396,0.7222222222222222
0.0257565742735,0.7277777777777777
0.025767308055,0.7333333333333333
0.0257774135957,0.7388888888888889
0.0258006237067,0.7444444444444445
0.632653278188,0.75
0.632653278188,0.7555555555555555
0.838372631332,0.7611111111111111
0.975979503162,0.7666666666666667
1.2588106983,0.7722222222222223
1.2588106983,0.7777777777777778
1.26530655638,0.7833333333333333
1.27912627149,0.7888888888888889
1.27912627149,0.7944444444444444
1.67674526266,0.8
2.51893374907,0.8055555555555556
2.5304923563,0.8111111111111111
2.55684459218,0.8166666666666667
2.55769162666,0.8222222222222222
3.14303980715,0.8277777777777777
3.16673403161,0.8333333333333334
3.81054668871,0.8388888888888889
3.81699795853,0.8444444444444444
3.84304791594,0.85
4.02920744026,0.8555555555555555
4.02920744026,0.8611111111111112
5.08607989252,0.8666666666666667
5.11658118876,0.8722222222222222
5.66567175725,0.8777777777777778
6.37611458377,0.8833333333333333
6.55410973486,0.8888888888888888
6.5907052401,0.8944444444444445
8.21651159226,0.9
11.7035931259,0.9055555555555556
13.0941496928,0.9111111111111111
14.5887036811,0.9166666666666666
15.6257877042,0.9222222222222223
17.1643611084,0.9277777777777778
29.8879219158,0.9333333333333333
31.2337876864,0.9388888888888889
33.8138500571,0.9444444444444444
36.3668191184,0.95
37.5265769922,0.9555555555555556
40.0968179261,0.9611111111111111
42.7346894195,0.9666666666666667
43.8956938652,0.9722222222222222
45.2331254151,0.9777777777777777
46.4392979308,0.9833333333333333
46.9061855864,0.9888888888888889
48.9731413212,0.9944444444444445
50.6917647298,1.0
