Congestion,CDF
0.0,0.005555555555555556
0.0,0.011111111111111112
0.0,0.016666666666666666
0.0,0.022222222222222223
0.0,0.027777777777777776
0.0,0.03333333333333333
0.0,0.03888888888888889
0.0,0.044444444444444446
0.0,0.05
0.0,0.05555555555555555
3.13993403481e-07,0.06111111111111111
3.60763319692e-07,0.06666666666666667
8.120483422e-07,0.07222222222222222
1.18685588892e-06,0.07777777777777778
1.21444564257e-06,0.08333333333333333
1.60348631479e-06,0.08888888888888889
1.76404717174e-06,0.09444444444444444
2.43125926269e-06,0.1
2.44380225087e-06,0.10555555555555556
2.50023909755e-06,0.1111111111111111
2.55169688691e-06,0.11666666666666667
2.80889696784e-06,0.12222222222222222
2.8740486592e-06,0.12777777777777777
3.20943254162e-06,0.13333333333333333
3.28710369771e-06,0.1388888888888889
3.46136206343e-06,0.14444444444444443
4.00242014839e-06,0.15
4.38027775801e-06,0.15555555555555556
4.57389228377e-06,0.16111111111111112
4.75703605686e-06,0.16666666666666666
4.8323021338e-06,0.17222222222222222
4.8711119193e-06,0.17777777777777778
5.03249880558e-06,0.18333333333333332
5.20736854695e-06,0.18888888888888888
5.29527115409e-06,0.19444444444444445
5.35507167846e-06,0.2
5.38478164178e-06,0.20555555555555555
5.4466171683e-06,0.2111111111111111
5.49984047169e-06,0.21666666666666667
5.51190929306e-06,0.2222222222222222
5.69607634137e-06,0.22777777777777777
5.74359798734e-06,0.23333333333333334
5.80953091665e-06,0.2388888888888889
6.29141038259e-06,0.24444444444444444
6.6202088775e-06,0.25
7.18762122331e-06,0.25555555555555554
7.30148904081e-06,0.2611111111111111
7.40656276097e-06,0.26666666666666666
7.65738553523e-06,0.2722222222222222
2.70682780733e-05,0.2777777777777778
5.41365561467e-05,0.2833333333333333
5.93427944462e-05,0.28888888888888886
5.93427944462e-05,0.29444444444444445
6.10950562719e-05,0.3
6.10950562719e-05,0.3055555555555556
9.249439662e-05,0.3111111111111111
0.000121444564257,0.31666666666666665
0.000122190112544,0.32222222222222224
0.000162687763637,0.3277777777777778
0.000243125926269,0.3333333333333333
0.000252843028099,0.3388888888888889
0.000267753583923,0.34444444444444444
0.000267753583923,0.35
0.000341984753056,0.35555555555555557
0.000520736854695,0.3611111111111111
0.000529527115409,0.36666666666666664
0.000546453986376,0.37222222222222223
0.000588696838085,0.37777777777777777
0.000622846657279,0.38333333333333336
0.000622846657279,0.3888888888888889
0.000710232256476,0.39444444444444443
0.000750585602516,0.4
0.00080708080693,0.40555555555555556
0.000862846388641,0.4111111111111111
0.001071927784,0.4166666666666667
0.00113335855492,0.4222222222222222
0.00119245429142,0.42777777777777776
0.00146600379618,0.43333333333333335
0.00172117348487,0.4388888888888889
0.00180206485833,0.4444444444444444
0.00222523128738,0.45
0.00252082698066,0.45555555555555555
0.00448488293643,0.46111111111111114
0.00545626222366,0.4666666666666667
0.00571117214463,0.4722222222222222
0.00622200077718,0.4777777777777778
0.00637319303238,0.48333333333333334
0.00670523099056,0.4888888888888889
0.00677867203317,0.49444444444444446
0.00717891404801,0.5
0.00775327384674,0.5055555555555555
0.00780166902411,0.5111111111111111
0.00792967856392,0.5166666666666667
0.00805169293386,0.5222222222222223
0.00833909779978,0.5277777777777778
0.0136695184168,0.5333333333333333
0.0141493367114,0.5388888888888889
0.0225928795556,0.5444444444444444
0.0227184515391,0.55
0.0227232976366,0.5555555555555556
0.0227698779582,0.5611111111111111
0.0227979396765,0.5666666666666667
0.0228113593688,0.5722222222222222
0.0228515539456,0.5777777777777777
0.0229369934758,0.5833333333333334
0.0229383046161,0.5888888888888889
0.02294944456,0.5944444444444444
0.0229759958512,0.6
0.0229769341698,0.6055555555555555
0.0230172126736,0.6111111111111112
0.023025354205,0.6166666666666667
0.0230412177472,0.6222222222222222
0.0230806211124,0.6277777777777778
0.0231381949657,0.6333333333333333
0.0231581613998,0.6388888888888888
0.0231694181631,0.6444444444444445
0.02317702722,0.65
0.0231815708454,0.6555555555555556
0.0232055126586,0.6611111111111111
0.0232234400023,0.6666666666666666
0.0232300526916,0.6722222222222223
0.0232326362183,0.6777777777777778
0.0232387391937,0.6833333333333333
0.0232418699549,0.6888888888888889
0.0232481359655,0.6944444444444444
0.0232548748386,0.7
0.0232740076636,0.7055555555555556
0.0232857011446,0.7111111111111111
0.0233354071646,0.7166666666666667
0.0233690698976,0.7222222222222222
0.0234279206094,0.7277777777777777
0.0234395946569,0.7333333333333333
0.0234505678775,0.7388888888888889
0.0234758486863,0.7444444444444445
0.573457615403,0.75
0.573457615403,0.7555555555555555
0.75899593194,0.7611111111111111
0.882784045038,0.7666666666666667
1.13989698383,0.7722222222222223
1.13989698383,0.7777777777777778
1.14691523081,0.7833333333333333
1.16193695968,0.7888888888888889
1.16193695968,0.7944444444444444
1.51799186388,0.8
2.28113593688,0.8055555555555556
2.29369934758,0.8111111111111111
2.32234400023,0.8166666666666667
2.32326362183,0.8222222222222222
2.84530276932,0.8277777777777777
2.87105720053,0.8333333333333334
3.45683880013,0.8388888888888889
3.46365822705,0.8444444444444444
3.49197201856,0.85
3.65624965147,0.8555555555555555
3.65624965147,0.8611111111111112
4.61467665334,0.8666666666666667
4.64783148408,0.8722222222222222
5.13045816387,0.8777777777777778
5.7884718236,0.8833333333333333
5.94387262904,0.8888888888888888
5.98365041782,0.8944444444444445
7.44627430385,0.9
10.6274653055,0.9055555555555556
11.8724520442,0.9111111111111111
13.2304807256,0.9166666666666666
14.1673965002,0.9222222222222223
15.5732727865,0.9277777777777778
27.1190488012,0.9333333333333333
28.3535355599,0.9388888888888889
30.7011204285,0.9444444444444444
33.0192775131,0.95
34.0514281765,0.9555555555555556
36.3883351663,0.9611111111111111
38.7991215823,0.9666666666666667
39.8323539248,0.9722222222222222
41.0584095379,0.9777777777777777
42.1404160361,0.9833333333333333
42.4253613796,0.9888888888888889
44.4381094531,0.9944444444444445
45.8530431242,1.0
