Congestion,CDF
0.0,0.005555555555555556
0.0,0.011111111111111112
0.0,0.016666666666666666
0.0,0.022222222222222223
0.0,0.027777777777777776
0.0,0.03333333333333333
0.0,0.03888888888888889
0.0,0.044444444444444446
0.0,0.05
0.0,0.05555555555555555
4.32073211433e-07,0.06111111111111111
4.96431340207e-07,0.06666666666666667
1.11742581584e-06,0.07222222222222222
1.63318283043e-06,0.07777777777777778
1.67114793839e-06,0.08333333333333333
2.20649056266e-06,0.08888888888888889
2.42743165354e-06,0.09444444444444444
3.34555435181e-06,0.1
3.3628142341e-06,0.10555555555555556
3.44047462223e-06,0.1111111111111111
3.5112835375e-06,0.11666666666666667
3.86520582923e-06,0.12222222222222222
3.95485835125e-06,0.12777777777777777
4.41636610757e-06,0.13333333333333333
4.52324614223e-06,0.1388888888888889
4.76303580297e-06,0.14444444444444443
5.50756324128e-06,0.15
6.02751732006e-06,0.15555555555555556
6.29394218441e-06,0.16111111111111112
6.5459586832e-06,0.16666666666666666
6.64952918888e-06,0.17222222222222222
6.70293371416e-06,0.17777777777777778
6.9250114695e-06,0.18333333333333332
7.16564241875e-06,0.18888888888888888
7.28660152599e-06,0.19444444444444445
7.36889053054e-06,0.2
7.40977317049e-06,0.20555555555555555
7.49486245654e-06,0.2111111111111111
7.56810082194e-06,0.21666666666666667
7.58470822308e-06,0.2222222222222222
7.83813280818e-06,0.22777777777777777
7.9035253609e-06,0.23333333333333334
7.99425291182e-06,0.2388888888888889
8.65734712356e-06,0.24444444444444444
9.1097930031e-06,0.25
9.89058543933e-06,0.25555555555555554
1.00472741883e-05,0.2611111111111111
1.01918617472e-05,0.26666666666666666
1.05370084935e-05,0.2722222222222222
3.72475271946e-05,0.2777777777777778
7.44950543892e-05,0.2833333333333333
8.16591415217e-05,0.28888888888888886
8.16591415217e-05,0.29444444444444445
8.40703558526e-05,0.3
8.40703558526e-05,0.3055555555555556
0.000127277676996,0.3111111111111111
0.000167114793839,0.31666666666666665
0.000168140711705,0.32222222222222224
0.000223867838356,0.3277777777777778
0.000334555435181,0.3333333333333333
0.000347926733262,0.3388888888888889
0.000368444526527,0.34444444444444444
0.000368444526527,0.35
0.000470590938776,0.35555555555555557
0.000716564241875,0.3611111111111111
0.000728660152599,0.36666666666666664
0.000751952512937,0.37222222222222223
0.000810081137284,0.37777777777777777
0.000857073277518,0.38333333333333336
0.000857073277518,0.3888888888888889
0.000977320951703,0.39444444444444443
0.0010328495062,0.4
0.00111059019798,0.40555555555555556
0.00118732688642,0.4111111111111111
0.00147503506418,0.4166666666666667
0.00155956738294,0.4222222222222222
0.00164088655834,0.42777777777777776
0.00201730660952,0.43333333333333335
0.00236843496327,0.4388888888888889
0.00247974620459,0.4444444444444444
0.00306204785789,0.45
0.00346880474852,0.45555555555555555
0.0061714601382,0.46111111111111114
0.00665538174882,0.4666666666666667
0.00668597890223,0.4722222222222222
0.00710140565913,0.4777777777777778
0.00714001271258,0.48333333333333334
0.00716605769038,0.4888888888888889
0.00716659089601,0.49444444444444446
0.00716699553685,0.5
0.00717072043699,0.5055555555555555
0.00717399032296,0.5111111111111111
0.00717723905882,0.5166666666666667
0.00718407086173,0.5222222222222223
0.00718419069394,0.5277777777777778
0.00718508465543,0.5333333333333333
0.00718621381239,0.5388888888888889
0.00718721138486,0.5444444444444444
0.00719039431331,0.55
0.00719040326648,0.5555555555555556
0.00719085453888,0.5611111111111111
0.00719115775974,0.5666666666666667
0.0071955851193,0.5722222222222222
0.00720018730848,0.5777777777777777
0.00720122655523,0.5833333333333334
0.00720176758945,0.5888888888888889
0.00720324359681,0.5944444444444444
0.00720556813163,0.6
0.00720689229781,0.6055555555555555
0.00720773801406,0.6111111111111112
0.007208163293,0.6166666666666667
0.00720847172841,0.6222222222222222
0.00720886789664,0.6277777777777778
0.00720940704728,0.6333333333333333
0.00721104772353,0.6388888888888888
0.00721196738448,0.6444444444444445
0.00721591383726,0.65
0.00721837772336,0.6555555555555556
0.00722331983247,0.6611111111111111
0.00722418452706,0.6666666666666666
0.00722517482801,0.6722222222222223
0.00722668492811,0.6777777777777778
0.00750813461448,0.6833333333333333
0.00785890551272,0.6888888888888889
0.00856183546383,0.6944444444444444
0.00876988481303,0.7
0.00922678838272,0.7055555555555556
0.00932784753484,0.7111111111111111
0.00987860385897,0.7166666666666667
0.0106689563951,0.7222222222222222
0.0107355509778,0.7277777777777777
0.0109116995604,0.7333333333333333
0.0110795984401,0.7388888888888889
0.0114750842752,0.7444444444444445
0.179604767348,0.75
0.179604767348,0.7555555555555555
0.239024014566,0.7611111111111111
0.279507743614,0.7666666666666667
0.358302884519,0.7722222222222223
0.358302884519,0.7777777777777778
0.359209534697,0.7833333333333333
0.36040816465,0.7888888888888889
0.36040816465,0.7944444444444444
0.478048029132,0.8
0.717399032296,0.8055555555555556
0.718407086173,0.8111111111111111
0.720689229781,0.8166666666666667
0.720773801406,0.8222222222222222
0.89626385695,0.8277777777777777
0.898325905835,0.8333333333333334
1.07734321117,0.8388888888888889
1.07944759598,0.8444444444444444
1.0817270175,0.85
1.1394454113,0.8555555555555555
1.1394454113,0.8611111111111112
1.43899041602,0.8666666666666667
1.44162993451,0.8722222222222222
1.61398776283,0.8777777777777778
1.80033438564,0.8833333333333333
1.85736865125,0.8888888888888888
1.86055018366,0.8944444444444445
2.33416452178,0.9
3.30188079822,0.9055555555555556
3.71351361624,0.9111111111111111
4.13417651105,0.9166666666666666
4.43202208178,0.9222222222222223
4.8565084943,0.9277777777777778
8.45475005284,0.9333333333333333
8.82089126716,0.9388888888888889
9.54355975997,0.9444444444444444
10.2636824155,0.95
10.6140648285,0.9555555555555556
11.3359026009,0.9611111111111111
12.0605841386,0.9666666666666667
12.4132909393,0.9722222222222222
12.7707247045,0.9777777777777777
13.1319123205,0.9833333333333333
13.4362628794,0.9888888888888889
13.8459135918,0.9944444444444445
14.514511482,1.0
