Congestion,CDF
0.0,0.005555555555555556
0.0,0.011111111111111112
0.0,0.016666666666666666
0.0,0.022222222222222223
0.0,0.027777777777777776
0.0,0.03333333333333333
0.0,0.03888888888888889
0.0,0.044444444444444446
0.0,0.05
0.0,0.05555555555555555
4.57496635565e-07,0.06111111111111111
5.25641631844e-07,0.06666666666666667
1.18317576214e-06,0.07222222222222222
1.72928020163e-06,0.07777777777777778
1.76947919731e-06,0.08333333333333333
2.33632167446e-06,0.08888888888888889
2.57026305999e-06,0.09444444444444444
3.5424086001e-06,0.1
3.56068406331e-06,0.10555555555555556
3.64291403116e-06,0.1111111111111111
3.71788938174e-06,0.11666666666666667
4.09263665474e-06,0.12222222222222222
4.1875643802e-06,0.12777777777777777
4.67622750537e-06,0.13333333333333333
4.78939641974e-06,0.1388888888888889
5.04329543529e-06,0.14444444444444443
5.83163127538e-06,0.15
6.38217973661e-06,0.15555555555555556
6.66428118572e-06,0.16111111111111112
6.93112647318e-06,0.16666666666666666
7.04079112407e-06,0.17222222222222222
7.09733800083e-06,0.17777777777777778
7.33248293279e-06,0.18333333333333332
7.58727273873e-06,0.18888888888888888
7.71534914601e-06,0.19444444444444445
7.80248008061e-06,0.2
7.84576827746e-06,0.20555555555555555
7.93586426365e-06,0.2111111111111111
8.01341201453e-06,0.21666666666666667
8.03099660424e-06,0.2222222222222222
8.29933283057e-06,0.22777777777777777
8.36857311686e-06,0.23333333333333334
8.46463912651e-06,0.2388888888888889
9.16675016443e-06,0.24444444444444444
9.64581820704e-06,0.25
1.04725528974e-05,0.25555555555555554
1.06384612981e-05,0.2611111111111111
1.0791556468e-05,0.26666666666666666
1.11570118377e-05,0.2722222222222222
3.94391920715e-05,0.2777777777777778
7.8878384143e-05,0.2833333333333333
8.64640100816e-05,0.28888888888888886
8.64640100816e-05,0.29444444444444445
8.90171015828e-05,0.3
8.90171015828e-05,0.3055555555555556
0.000134766765139,0.3111111111111111
0.000176947919731,0.31666666666666665
0.000178034203166,0.32222222222222224
0.000220285493672,0.3277777777777778
0.000237040344435,0.3333333333333333
0.00035424086001,0.3388888888888889
0.000368398932585,0.34444444444444444
0.00039012400403,0.35
0.00039012400403,0.35555555555555557
0.000498280767057,0.3611111111111111
0.000758727273873,0.36666666666666664
0.000771534914601,0.37222222222222223
0.000796197810164,0.37777777777777777
0.000821930572832,0.38333333333333336
0.000857746754567,0.3888888888888889
0.00090750393804,0.39444444444444443
0.00090750393804,0.4
0.00103482705116,0.40555555555555556
0.00109362293617,0.4111111111111111
0.00117593793279,0.4166666666666667
0.00125718984996,0.4222222222222222
0.0015618269343,0.42777777777777776
0.00165133318093,0.43333333333333335
0.0017374372211,0.4388888888888889
0.00213600603401,0.4444444444444444
0.00250779497219,0.45
0.00262565582785,0.45555555555555555
0.00324222042898,0.46111111111111114
0.00367291111758,0.4666666666666667
0.005725705875,0.4722222222222222
0.00602055524846,0.4777777777777778
0.00602810484255,0.48333333333333334
0.00610077107425,0.4888888888888889
0.00614583269471,0.49444444444444446
0.00616551105806,0.5
0.00622819501854,0.5055555555555555
0.00632693841144,0.5111111111111111
0.00636148267878,0.5166666666666667
0.00636351901959,0.5222222222222223
0.00638089563188,0.5277777777777778
0.00642231406483,0.5333333333333333
0.00648668135686,0.5388888888888889
0.00649931449129,0.5444444444444444
0.00652462315083,0.55
0.00653459222891,0.5555555555555556
0.00658389904388,0.5611111111111111
0.00667534468643,0.5666666666666667
0.00670650267375,0.5722222222222222
0.00672570706727,0.5777777777777777
0.00673595206484,0.5833333333333334
0.00674389285818,0.5888888888888889
0.00678036305914,0.5944444444444444
0.00680839543621,0.6
0.00681657196195,0.6055555555555555
0.00682267581465,0.6111111111111112
0.00683223443258,0.6166666666666667
0.00683708337307,0.6222222222222222
0.0068469213247,0.6277777777777778
0.00685743369964,0.6333333333333333
0.00688721528851,0.6388888888888888
0.00690546668345,0.6444444444444445
0.00698302564386,0.65
0.00703565447187,0.6555555555555556
0.00712734394187,0.6611111111111111
0.00714559474608,0.6666666666666666
0.0071626478373,0.6722222222222223
0.00720235367946,0.6777777777777778
0.00794991736262,0.6833333333333333
0.0083213278124,0.6888888888888889
0.00906561854638,0.6944444444444444
0.00928590963311,0.7
0.00976969765879,0.7055555555555556
0.00987670318672,0.7111111111111111
0.0104598663143,0.7166666666666667
0.0112967236259,0.7222222222222222
0.0113672366704,0.7277777777777777
0.0115537499319,0.7333333333333333
0.0117315280735,0.7388888888888889
0.0121502845115,0.7444444444444445
0.15908797549,0.75
0.15908797549,0.7555555555555555
0.203359035808,0.7611111111111111
0.246044940472,0.7666666666666667
0.307291634736,0.7722222222222223
0.307291634736,0.7777777777777778
0.318175950979,0.7833333333333333
0.341611721629,0.7888888888888889
0.341611721629,0.7944444444444444
0.406718071617,0.8
0.616551105806,0.8055555555555556
0.636148267878,0.8111111111111111
0.680839543621,0.8166666666666667
0.682267581465,0.8222222222222222
0.761143500335,0.8277777777777777
0.801319381972,0.8333333333333334
0.979862341463,0.8388888888888889
0.990279857315,0.8444444444444444
1.03444073471,0.85
1.04554512773,0.8555555555555555
1.04554512773,0.8611111111111112
1.31485367019,0.8666666666666667
1.36658291359,0.8722222222222222
1.38396300219,0.8777777777777778
1.67221288642,0.8833333333333333
1.67497198978,0.8888888888888888
1.73426665658,0.8944444444444445
2.05461326957,0.9
3.09457054396,0.9055555555555556
3.32056849841,0.9111111111111111
3.72291992742,0.9166666666666666
3.95865806159,0.9222222222222223
4.4356543216,0.9277777777777778
7.73693694286,0.9333333333333333
8.19176869958,0.9388888888888889
8.91200406753,0.9444444444444444
9.58639335335,0.95
9.72538581953,0.9555555555555556
10.4289512667,0.9611111111111111
11.247912891,0.9666666666666667
11.3887052165,0.9722222222222222
11.8204834785,0.9777777777777777
11.9026765358,0.9833333333333333
12.0470951209,0.9888888888888889
12.6797889621,0.9944444444444445
12.7018175114,1.0
