Congestion,CDF
0.0,0.005555555555555556
0.0,0.011111111111111112
0.0,0.016666666666666666
0.0,0.022222222222222223
0.0,0.027777777777777776
0.0,0.03333333333333333
0.0,0.03888888888888889
0.0,0.044444444444444446
0.0,0.05
0.0,0.05555555555555555
3.20440550558e-07,0.06111111111111111
3.68170781619e-07,0.06666666666666667
8.28721925266e-07,0.07222222222222222
1.21122530048e-06,0.07777777777777778
1.23938154755e-06,0.08333333333333333
1.63641029342e-06,0.08888888888888889
1.80026790581e-06,0.09444444444444444
2.48117969373e-06,0.1
2.49398022392e-06,0.10555555555555556
2.55157587408e-06,0.1111111111111111
2.6040902332e-06,0.11666666666666667
2.8665713383e-06,0.12222222222222222
2.93306077285e-06,0.12777777777777777
3.27533100763e-06,0.13333333333333333
3.35459696591e-06,0.1388888888888889
3.53243333454e-06,0.14444444444444443
4.08460082821e-06,0.15
4.47021689248e-06,0.15555555555555556
4.6678068563e-06,0.16111111111111112
4.85471107412e-06,0.16666666666666666
4.93152257037e-06,0.17222222222222222
4.97112922737e-06,0.17777777777777778
5.13582982973e-06,0.18333333333333332
5.31429012724e-06,0.18888888888888888
5.40399761637e-06,0.19444444444444445
5.46502600977e-06,0.2
5.49534600025e-06,0.20555555555555555
5.55845117998e-06,0.2111111111111111
5.61276730398e-06,0.21666666666666667
5.62508393141e-06,0.2222222222222222
5.81303243511e-06,0.22777777777777777
5.86152983101e-06,0.23333333333333334
5.92881654446e-06,0.2388888888888889
6.42059031951e-06,0.24444444444444444
6.75613995068e-06,0.25
7.33520283057e-06,0.25555555555555554
7.45140866715e-06,0.2611111111111111
7.55863983941e-06,0.26666666666666666
7.8146126942e-06,0.2722222222222222
2.76240641755e-05,0.2777777777777778
5.52481283511e-05,0.2833333333333333
6.05612650239e-05,0.28888888888888886
6.05612650239e-05,0.29444444444444445
6.2349505598e-05,0.3
6.2349505598e-05,0.3055555555555556
9.43935606538e-05,0.3111111111111111
0.000123938154755,0.31666666666666665
0.000124699011196,0.32222222222222224
0.000166028190309,0.3277777777777778
0.000248117969373,0.3333333333333333
0.000258034589996,0.3388888888888889
0.000273251300489,0.34444444444444444
0.000273251300489,0.35
0.000349006639428,0.35555555555555557
0.000531429012724,0.3611111111111111
0.000540399761637,0.36666666666666664
0.000557674187761,0.37222222222222223
0.000600784401252,0.37777777777777777
0.000635635410039,0.38333333333333336
0.000635635410039,0.3888888888888889
0.000724815275626,0.39444444444444443
0.000765997186706,0.4
0.000823652392852,0.40555555555555556
0.000880562995137,0.4111111111111111
0.00109393740587,0.4166666666666667
0.00115662951925,0.4222222222222222
0.00121693865355,0.42777777777777776
0.00149610488105,0.43333333333333335
0.00175651390437,0.4388888888888889
0.00183906619993,0.4444444444444444
0.00227092139816,0.45
0.00257258648299,0.45555555555555555
0.00457696990256,0.46111111111111114
0.00556829427482,0.4666666666666667
0.00582843819668,0.4722222222222222
0.00634975554424,0.4777777777777778
0.00650405219175,0.48333333333333334
0.00684290780128,0.4888888888888889
0.00691785679022,0.49444444444444446
0.00732631687304,0.5
0.00791246985615,0.5055555555555555
0.00796185871944,0.5111111111111111
0.00809249664673,0.5166666666666667
0.00821701630685,0.5222222222222223
0.00851032238413,0.5277777777777778
0.0106803323936,0.5333333333333333
0.0111759903017,0.5388888888888889
0.0201988872381,0.5444444444444444
0.0203330377886,0.55
0.0203382700962,0.5555555555555556
0.0203885769764,0.5611111111111111
0.0204196315363,0.5666666666666667
0.0204333812462,0.5722222222222222
0.0204767883902,0.5777777777777777
0.0205690633886,0.5833333333333334
0.0205704781047,0.5888888888888889
0.0205825090059,0.5944444444444444
0.0206111841682,0.6
0.0206131810177,0.6055555555555555
0.0206557084761,0.6111111111111112
0.020664491391,0.6166666666666667
0.0206817792678,0.6222222222222222
0.0207250973347,0.6277777777777778
0.0207863592123,0.6333333333333333
0.0208079244495,0.6388888888888888
0.0208214201253,0.6444444444444445
0.0208283025963,0.65
0.0208334451965,0.6555555555555556
0.0208590627254,0.6611111111111111
0.0208784340814,0.6666666666666666
0.0208867357843,0.6722222222222223
0.0208883561701,0.6777777777777778
0.0208949529572,0.6833333333333333
0.0208983290534,0.6888888888888889
0.0209051056764,0.6944444444444444
0.0209123837085,0.7
0.0209330373286,0.7055555555555556
0.020945667679,0.7111111111111111
0.0209993528934,0.7166666666666667
0.0210357303158,0.7222222222222222
0.0210992669444,0.7277777777777777
0.0211118812478,0.7333333333333333
0.0211237221593,0.7388888888888889
0.0211510734114,0.7444444444444445
0.514261952619,0.75
0.514261952619,0.7555555555555555
0.679619232547,0.7611111111111111
0.789718931838,0.7666666666666667
1.02098157681,0.7722222222222223
1.02098157681,0.7777777777777778
1.02852390524,0.7833333333333333
1.04474764786,0.7888888888888889
1.04474764786,0.7944444444444444
1.35923846509,0.8
2.04333812462,0.8055555555555556
2.05690633886,0.8111111111111111
2.08784340814,0.8166666666666667
2.08883561701,0.8222222222222222
2.54756573148,0.8277777777777777
2.57538036944,0.8333333333333334
3.10312358934,0.8388888888888889
3.11031849547,0.8444444444444444
3.14089612117,0.85
3.28329186268,0.8555555555555555
3.28329186268,0.8611111111111112
4.14327341396,0.8666666666666667
4.17908177899,0.8722222222222222
4.5952445705,0.8777777777777778
5.20082906311,0.8833333333333333
5.33363552322,0.8888888888888888
5.37659559554,0.8944444444444445
6.67603701544,0.9
9.55133748509,0.9055555555555556
10.6507543955,0.9111111111111111
11.8722577701,0.9166666666666666
12.7090052961,0.9222222222222223
13.9821844645,0.9277777777777778
24.3501756865,0.9333333333333333
25.4732834314,0.9388888888888889
27.5883907725,0.9444444444444444
29.6717352922,0.95
30.5762793601,0.9555555555555556
32.6798523917,0.9611111111111111
34.86353246,0.9666666666666667
35.7690118953,0.9722222222222222
36.8834211838,0.9777777777777777
37.8415216288,0.9833333333333333
37.9514544231,0.9888888888888889
39.9028397306,0.9944444444444445
41.0204387607,1.0
