Congestion,CDF
0.0,0.007352941176470588
0.0,0.014705882352941176
0.0,0.022058823529411766
0.0,0.029411764705882353
0.0,0.03676470588235294
0.0,0.04411764705882353
0.0,0.051470588235294115
0.0,0.058823529411764705
0.0,0.0661764705882353
0.0,0.07352941176470588
0.0,0.08088235294117647
0.0,0.08823529411764706
0.0,0.09558823529411764
0.0,0.10294117647058823
4.25980775907e-06,0.11029411764705882
4.25980775907e-06,0.11764705882352941
4.25980775907e-06,0.125
4.25980775907e-06,0.1323529411764706
4.25980775907e-06,0.13970588235294118
4.25980775907e-06,0.14705882352941177
4.25980775907e-06,0.15441176470588236
4.25980775907e-06,0.16176470588235295
4.25980775907e-06,0.16911764705882354
4.25980775907e-06,0.17647058823529413
4.25980775907e-06,0.18382352941176472
4.25980775907e-06,0.19117647058823528
4.25980775907e-06,0.19852941176470587
4.25980775907e-06,0.20588235294117646
4.25980775907e-06,0.21323529411764705
4.25980775907e-06,0.22058823529411764
4.25980775907e-06,0.22794117647058823
4.25980775907e-06,0.23529411764705882
4.25980775907e-06,0.2426470588235294
4.25980775907e-06,0.25
4.25980775907e-06,0.25735294117647056
4.25980775907e-06,0.2647058823529412
4.25980775907e-06,0.27205882352941174
4.25980775907e-06,0.27941176470588236
4.25980775907e-06,0.2867647058823529
4.25980775907e-06,0.29411764705882354
4.25980775907e-06,0.3014705882352941
0.000106495193977,0.3088235294117647
0.000106495193977,0.3161764705882353
0.000115014809495,0.3235294117647059
0.000212990387954,0.33088235294117646
0.000212990387954,0.3382352941176471
0.000212990387954,0.34558823529411764
0.000212990387954,0.35294117647058826
0.000319485581931,0.3602941176470588
0.000354983979923,0.36764705882352944
0.000354983979923,0.375
0.000354983979923,0.38235294117647056
0.000425980775907,0.3897058823529412
0.000425980775907,0.39705882352941174
0.000425980775907,0.40441176470588236
0.000425980775907,0.4117647058823529
0.000425980775907,0.41911764705882354
0.000425980775907,0.4264705882352941
0.000425980775907,0.4338235294117647
0.000532475969884,0.4411764705882353
0.000638971163861,0.4485294117647059
0.000638971163861,0.45588235294117646
0.00078096475583,0.4632352941176471
0.000851961551815,0.47058823529411764
0.000851961551815,0.47794117647058826
0.00127794232772,0.4852941176470588
0.00173942150162,0.49264705882352944
0.00308836062533,0.5
0.00315935742131,0.5073529411764706
0.00408231576911,0.5147058823529411
0.0050762709129,0.5220588235294118
0.00514726770888,0.5294117647058824
0.0055022516888,0.5367647058823529
0.00557324848479,0.5441176470588235
0.0059992292607,0.5514705882352942
0.0441167522491,0.5588235294117647
0.0444591129531,0.5661764705882353
0.0481922150695,0.5735294117647058
0.0482302404359,0.5808823529411765
0.0482860471021,0.5882352941176471
0.0483198086558,0.5955882352941176
0.0483344039804,0.6029411764705882
0.048342690733,0.6102941176470589
0.04839385068,0.6176470588235294
0.0484039814341,0.625
0.0484071891702,0.6323529411764706
0.0484104122181,0.6397058823529411
0.0484126832039,0.6470588235294118
0.0484131339992,0.6544117647058824
0.0484134608485,0.6617647058823529
0.0484139363974,0.6691176470588235
0.0484140899262,0.6764705882352942
0.0484150050442,0.6838235294117647
0.0484150143871,0.6911764705882353
0.0484194990803,0.6985294117647058
0.0484208799704,0.7058823529411765
0.0484208878855,0.7132352941176471
0.0484209736916,0.7205882352941176
0.0484209760991,0.7279411764705882
0.0484210442363,0.7352941176470589
0.0484210458413,0.7426470588235294
0.0484210458413,0.75
1.21032834998,0.7573529411764706
1.2103751261,0.7647058823529411
1.29816038113,0.7720588235294118
2.41713453665,0.7794117647058824
2.41713453665,0.7867647058823529
2.42075071935,0.7941176470588235
2.42075071935,0.8014705882352942
3.63098504994,0.8088235294117647
4.03445958288,0.8161764705882353
4.03445958288,0.8235294117647058
4.03445958288,0.8308823529411765
4.83344039804,0.8382352941176471
4.84139363974,0.8455882352941176
4.84150050442,0.8529411764705882
4.84208878855,0.8602941176470589
4.84209760991,0.8676470588235294
4.84210458413,0.875
4.84210458413,0.8823529411764706
6.0517373426,0.8897058823529411
7.24573924686,0.8970588235294118
7.26179194116,0.9044117647058824
8.87485772629,0.9117647058823529
9.66542126362,0.9191176470588235
9.68419497907,0.9264705882352942
14.5263135919,0.9338235294117647
19.7689366501,0.9411764705882353
35.1050604827,0.9485294117647058
35.900313981,0.9558823529411765
46.4022206929,0.9632352941176471
57.6306959984,0.9705882352941176
58.5047315511,0.9779411764705882
62.0423712234,0.9852941176470589
63.3277555947,0.9926470588235294
67.77366689,1.0
