Congestion,CDF
0.0,0.007352941176470588
0.0,0.014705882352941176
0.0,0.022058823529411766
0.0,0.029411764705882353
0.0,0.03676470588235294
0.0,0.04411764705882353
0.0,0.051470588235294115
0.0,0.058823529411764705
0.0,0.0661764705882353
0.0,0.07352941176470588
0.0,0.08088235294117647
0.0,0.08823529411764706
0.0,0.09558823529411764
0.0,0.10294117647058823
4.1193292568e-06,0.11029411764705882
4.1193292568e-06,0.11764705882352941
4.1193292568e-06,0.125
4.1193292568e-06,0.1323529411764706
4.1193292568e-06,0.13970588235294118
4.1193292568e-06,0.14705882352941177
4.1193292568e-06,0.15441176470588236
4.1193292568e-06,0.16176470588235295
4.1193292568e-06,0.16911764705882354
4.1193292568e-06,0.17647058823529413
4.1193292568e-06,0.18382352941176472
4.1193292568e-06,0.19117647058823528
4.1193292568e-06,0.19852941176470587
4.1193292568e-06,0.20588235294117646
4.1193292568e-06,0.21323529411764705
4.1193292568e-06,0.22058823529411764
4.1193292568e-06,0.22794117647058823
4.1193292568e-06,0.23529411764705882
4.1193292568e-06,0.2426470588235294
4.1193292568e-06,0.25
4.1193292568e-06,0.25735294117647056
4.1193292568e-06,0.2647058823529412
4.1193292568e-06,0.27205882352941174
4.1193292568e-06,0.27941176470588236
4.1193292568e-06,0.2867647058823529
4.1193292568e-06,0.29411764705882354
4.1193292568e-06,0.3014705882352941
0.00010298323142,0.3088235294117647
0.00010298323142,0.3161764705882353
0.000111221889933,0.3235294117647059
0.00020596646284,0.33088235294117646
0.00020596646284,0.3382352941176471
0.00020596646284,0.34558823529411764
0.00020596646284,0.35294117647058826
0.00030894969426,0.3602941176470588
0.000343277438066,0.36764705882352944
0.000343277438066,0.375
0.000343277438066,0.38235294117647056
0.00041193292568,0.3897058823529412
0.00041193292568,0.39705882352941174
0.00041193292568,0.40441176470588236
0.00041193292568,0.4117647058823529
0.00041193292568,0.41911764705882354
0.00041193292568,0.4264705882352941
0.00041193292568,0.4338235294117647
0.000514916157099,0.4411764705882353
0.000617899388519,0.4485294117647059
0.000617899388519,0.45588235294117646
0.000755210363746,0.4632352941176471
0.000823865851359,0.47058823529411764
0.000823865851359,0.47794117647058826
0.00123579877704,0.4852941176470588
0.00168205944652,0.49264705882352944
0.00298651371118,0.5
0.00305516919879,0.5073529411764706
0.00394769053776,0.5147058823529411
0.00490886736435,0.5220588235294118
0.00497752285196,0.5294117647058824
0.00532080029003,0.5367647058823529
0.00538945577764,0.5441176470588235
0.00580138870332,0.5514705882352942
0.0575130710751,0.5588235294117647
0.0581662332673,0.5661764705882353
0.0655669985175,0.5735294117647058
0.065614690705,0.5808823529411765
0.0657127942437,0.5882352941176471
0.0657481128439,0.5955882352941176
0.0657666136036,0.6029411764705882
0.0657744363892,0.6102941176470589
0.0658255690242,0.6176470588235294
0.0658368473062,0.625
0.0658395232968,0.6323529411764706
0.0658433204588,0.6397058823529411
0.0658456502588,0.6470588235294118
0.0658461096212,0.6544117647058824
0.0658463889756,0.6617647058823529
0.0658469066912,0.6691176470588235
0.0658470619331,0.6764705882352942
0.0658479794568,0.6838235294117647
0.0658479823228,0.6911764705882353
0.0658524668863,0.6985294117647058
0.0658538585727,0.7058823529411765
0.0658538667005,0.7132352941176471
0.0658539525289,0.7205882352941176
0.0658539549548,0.7279411764705882
0.065854023081,0.7352941176470589
0.0658540246983,0.7426470588235294
0.0658540246983,0.75
1.64615274053,0.7573529411764706
1.64619955807,0.7647058823529411
1.76096646211,0.7720588235294118
3.28872181946,0.7794117647058824
3.28872181946,0.7867647058823529
3.29239897284,0.7941176470588235
3.29239897284,0.8014705882352942
4.93845822159,0.8088235294117647
5.48720730723,0.8161764705882353
5.48720730723,0.8235294117647058
5.48720730723,0.8308823529411765
6.57666136036,0.8382352941176471
6.58469066912,0.8455882352941176
6.58479823228,0.8529411764705882
6.58538667005,0.8602941176470589
6.58539549548,0.8676470588235294
6.58540246983,0.875
6.58540246983,0.8823529411764706
8.23085893384,0.8897058823529411
9.86000124383,0.8970588235294118
9.87673101872,0.9044117647058824
12.0708920378,0.9117647058823529
13.1514726447,0.9191176470588235
13.1707907484,0.9264705882352942
19.7562072478,0.9338235294117647
26.8873958077,0.9411764705882353
47.7439700815,0.9485294117647058
48.8295665675,0.9558823529411765
63.1088230502,0.9632352941176471
78.3977403078,0.9705882352941176
79.5695063986,0.9779411764705882
84.1490474153,0.9852941176470589
86.1309754691,0.9926470588235294
91.9475987959,1.0
