Congestion,CDF
0.0,0.007352941176470588
0.0,0.014705882352941176
0.0,0.022058823529411766
0.0,0.029411764705882353
0.0,0.03676470588235294
0.0,0.04411764705882353
0.0,0.051470588235294115
0.0,0.058823529411764705
0.0,0.0661764705882353
0.0,0.07352941176470588
0.0,0.08088235294117647
0.0,0.08823529411764706
0.0,0.09558823529411764
0.0,0.10294117647058823
4.17978855452e-06,0.11029411764705882
4.17978855452e-06,0.11764705882352941
4.17978855452e-06,0.125
4.17978855452e-06,0.1323529411764706
4.17978855452e-06,0.13970588235294118
4.17978855452e-06,0.14705882352941177
4.17978855452e-06,0.15441176470588236
4.17978855452e-06,0.16176470588235295
4.17978855452e-06,0.16911764705882354
4.17978855452e-06,0.17647058823529413
4.17978855452e-06,0.18382352941176472
4.17978855452e-06,0.19117647058823528
4.17978855452e-06,0.19852941176470587
4.17978855452e-06,0.20588235294117646
4.17978855452e-06,0.21323529411764705
4.17978855452e-06,0.22058823529411764
4.17978855452e-06,0.22794117647058823
4.17978855452e-06,0.23529411764705882
4.17978855452e-06,0.2426470588235294
4.17978855452e-06,0.25
4.17978855452e-06,0.25735294117647056
4.17978855452e-06,0.2647058823529412
4.17978855452e-06,0.27205882352941174
4.17978855452e-06,0.27941176470588236
4.17978855452e-06,0.2867647058823529
4.17978855452e-06,0.29411764705882354
4.17978855452e-06,0.3014705882352941
0.000104494713863,0.3088235294117647
0.000104494713863,0.3161764705882353
0.000112854290972,0.3235294117647059
0.000208989427726,0.33088235294117646
0.000208989427726,0.3382352941176471
0.000208989427726,0.34558823529411764
0.000208989427726,0.35294117647058826
0.000313484141589,0.3602941176470588
0.000348315712877,0.36764705882352944
0.000348315712877,0.375
0.000348315712877,0.38235294117647056
0.000417978855452,0.3897058823529412
0.000417978855452,0.39705882352941174
0.000417978855452,0.40441176470588236
0.000417978855452,0.4117647058823529
0.000417978855452,0.41911764705882354
0.000417978855452,0.4264705882352941
0.000417978855452,0.4338235294117647
0.000522473569315,0.4411764705882353
0.000626968283178,0.4485294117647059
0.000626968283178,0.45588235294117646
0.000766294568329,0.4632352941176471
0.000835957710904,0.47058823529411764
0.000835957710904,0.47794117647058826
0.00125393656636,0.4852941176470588
0.0017067469931,0.49264705882352944
0.00303034670203,0.5
0.0031000098446,0.5073529411764706
0.00400563069808,0.5147058823529411
0.00498091469414,0.5220588235294118
0.00505057783671,0.5294117647058824
0.00539889354959,0.5367647058823529
0.00546855669216,0.5441176470588235
0.00588653554762,0.5514705882352942
0.0469753128647,0.5588235294117647
0.0477745486479,0.5661764705882353
0.0570051515573,0.5735294117647058
0.057058112138,0.5808823529411765
0.0571791623849,0.5882352941176471
0.0572153322574,0.5955882352941176
0.0572359761982,0.6029411764705882
0.0572435501814,0.6102941176470589
0.057294654968,0.6176470588235294
0.057306561802,0.625
0.0573089461453,0.6323529411764706
0.0573130577005,0.6397058823529411
0.0573154192936,0.6470588235294118
0.0573158831608,0.6544117647058824
0.0573161368555,0.6617647058823529
0.0573166773858,0.6691176470588235
0.0573168335058,0.6764705882352942
0.0573177474786,0.6838235294117647
0.0573177566532,0.6911764705882353
0.057322236048,0.6985294117647058
0.0573236335259,0.7058823529411765
0.0573236417643,0.7132352941176471
0.0573237276033,0.7205882352941176
0.0573237300381,0.7279411764705882
0.057323798159,0.7352941176470589
0.0573237997823,0.7426470588235294
0.0573237997823,0.75
1.43289707902,0.7573529411764706
1.43294391633,0.7647058823529411
1.52671518788,0.7720588235294118
2.86217750907,0.7794117647058824
2.86217750907,0.7867647058823529
2.86588737393,0.7941176470588235
2.86588737393,0.8014705882352942
4.29869123706,0.8088235294117647
4.7763549718,0.8161764705882353
4.7763549718,0.8235294117647058
4.7763549718,0.8308823529411765
5.72359761982,0.8382352941176471
5.73166773858,0.8455882352941176
5.73177566532,0.8529411764705882
5.73236417643,0.8602941176470589
5.73237300381,0.8676470588235294
5.73237997823,0.875
5.73237997823,0.8823529411764706
7.1645804296,0.8897058823529411
8.58009374756,0.8970588235294118
8.59719314398,0.9044117647058824
10.507011152,0.9117647058823529
11.4451308456,0.9191176470588235
11.4647457641,0.9264705882352942
17.1971397724,0.9338235294117647
23.4042168255,0.9411764705882353
41.5595569819,0.9485294117647058
42.5028709834,0.9558823529411765
54.9340229324,0.9632352941176471
68.2286107323,0.9705882352941176
69.2621106909,0.9779411764705882
72.9261420187,0.9852941176470589
74.9679219047,0.9926470588235294
79.7453767695,1.0
