Congestion,CDF
0.0,0.007352941176470588
0.0,0.014705882352941176
0.0,0.022058823529411766
0.0,0.029411764705882353
0.0,0.03676470588235294
0.0,0.04411764705882353
0.0,0.051470588235294115
0.0,0.058823529411764705
0.0,0.0661764705882353
0.0,0.07352941176470588
0.0,0.08088235294117647
0.0,0.08823529411764706
0.0,0.09558823529411764
0.0,0.10294117647058823
4.16624865293e-06,0.11029411764705882
4.16624865293e-06,0.11764705882352941
4.16624865293e-06,0.125
4.16624865293e-06,0.1323529411764706
4.16624865293e-06,0.13970588235294118
4.16624865293e-06,0.14705882352941177
4.16624865293e-06,0.15441176470588236
4.16624865293e-06,0.16176470588235295
4.16624865293e-06,0.16911764705882354
4.16624865293e-06,0.17647058823529413
4.16624865293e-06,0.18382352941176472
4.16624865293e-06,0.19117647058823528
4.16624865293e-06,0.19852941176470587
4.16624865293e-06,0.20588235294117646
4.16624865293e-06,0.21323529411764705
4.16624865293e-06,0.22058823529411764
4.16624865293e-06,0.22794117647058823
4.16624865293e-06,0.23529411764705882
4.16624865293e-06,0.2426470588235294
4.16624865293e-06,0.25
4.16624865293e-06,0.25735294117647056
4.16624865293e-06,0.2647058823529412
4.16624865293e-06,0.27205882352941174
4.16624865293e-06,0.27941176470588236
4.16624865293e-06,0.2867647058823529
4.16624865293e-06,0.29411764705882354
4.16624865293e-06,0.3014705882352941
0.000104156216323,0.3088235294117647
0.000104156216323,0.3161764705882353
0.000112488713629,0.3235294117647059
0.000208312432647,0.33088235294117646
0.000208312432647,0.3382352941176471
0.000208312432647,0.34558823529411764
0.000208312432647,0.35294117647058826
0.00031246864897,0.3602941176470588
0.000347187387744,0.36764705882352944
0.000347187387744,0.375
0.000347187387744,0.38235294117647056
0.000416624865293,0.3897058823529412
0.000416624865293,0.39705882352941174
0.000416624865293,0.40441176470588236
0.000416624865293,0.4117647058823529
0.000416624865293,0.41911764705882354
0.000416624865293,0.4264705882352941
0.000416624865293,0.4338235294117647
0.000520781081617,0.4411764705882353
0.00062493729794,0.4485294117647059
0.00062493729794,0.45588235294117646
0.000763812253038,0.4632352941176471
0.000833249730586,0.47058823529411764
0.000833249730586,0.47794117647058826
0.00124987459588,0.4852941176470588
0.00170121819995,0.49264705882352944
0.00302053027338,0.5
0.00308996775092,0.5073529411764706
0.00399265495906,0.5147058823529411
0.00496477964474,0.5220588235294118
0.00503421712229,0.5294117647058824
0.00538140451004,0.5367647058823529
0.00545084198759,0.5441176470588235
0.00586746685288,0.5514705882352942
0.0490964073463,0.5588235294117647
0.0498661688195,0.5661764705882353
0.0587182613346,0.5735294117647058
0.0587700433674,0.5808823529411765
0.0588860091907,0.5882352941176471
0.0589219787217,0.5955882352941176
0.0589421232622,0.6029411764705882
0.0589497588192,0.6102941176470589
0.0590008621416,0.6176470588235294
0.0590126217782,0.625
0.0590150740011,0.6323529411764706
0.0590191120451,0.6397058823529411
0.0590214658484,0.6470588235294118
0.0590219285647,0.6544117647058824
0.0590221885706,0.6617647058823529
0.0590227235094,0.6691176470588235
0.0590228794013,0.6764705882352942
0.059023794296,0.6838235294117647
0.0590238018417,0.6911764705882353
0.0590282824963,0.6985294117647058
0.0590296785432,0.7058823529411765
0.0590296867531,0.7132352941176471
0.0590297725892,0.7205882352941176
0.0590297750216,0.7279411764705882
0.059029843144,0.7352941176470589
0.0590298447656,0.7426470588235294
0.0590298447656,0.75
1.47554821412,0.7573529411764706
1.47559504604,0.7647058823529411
1.57359393094,0.7720588235294118
2.94748794096,0.7794117647058824
2.94748794096,0.7867647058823529
2.9511897148,0.7941176470588235
2.9511897148,0.8014705882352942
4.42664464235,0.8088235294117647
4.91852545511,0.8161764705882353
4.91852545511,0.8235294117647058
4.91852545511,0.8308823529411765
5.89421232622,0.8382352941176471
5.90227235094,0.8455882352941176
5.90238018417,0.8529411764705882
5.90296867531,0.8602941176470589
5.90297750216,0.8676470588235294
5.90298447656,0.875
5.90298447656,0.8823529411764706
7.37783615425,0.8897058823529411
8.83608886003,0.8970588235294118
8.85310091931,0.9044117647058824
10.8197876329,0.9117647058823529
11.7864101984,0.9191176470588235
11.8059547611,0.9264705882352942
17.7089532675,0.9338235294117647
24.1008528174,0.9411764705882353
42.7964396043,0.9485294117647058
43.7682146054,0.9558823529411765
56.5689830238,0.9632352941176471
70.2625397973,0.9705882352941176
71.3235913432,0.9779411764705882
75.1721805319,0.9852941176470589
77.2005956799,0.9926470588235294
82.1872125619,1.0
