Congestion,CDF
0.0,0.007352941176470588
0.0,0.014705882352941176
0.0,0.022058823529411766
0.0,0.029411764705882353
0.0,0.03676470588235294
0.0,0.04411764705882353
0.0,0.051470588235294115
0.0,0.058823529411764705
0.0,0.0661764705882353
0.0,0.07352941176470588
0.0,0.08088235294117647
0.0,0.08823529411764706
0.0,0.09558823529411764
0.0,0.10294117647058823
4.66048338529e-06,0.11029411764705882
4.66048338529e-06,0.11764705882352941
4.66048338529e-06,0.125
4.66048338529e-06,0.1323529411764706
4.66048338529e-06,0.13970588235294118
4.66048338529e-06,0.14705882352941177
4.66048338529e-06,0.15441176470588236
4.66048338529e-06,0.16176470588235295
4.66048338529e-06,0.16911764705882354
4.66048338529e-06,0.17647058823529413
4.66048338529e-06,0.18382352941176472
4.66048338529e-06,0.19117647058823528
4.66048338529e-06,0.19852941176470587
4.66048338529e-06,0.20588235294117646
4.66048338529e-06,0.21323529411764705
4.66048338529e-06,0.22058823529411764
4.66048338529e-06,0.22794117647058823
4.66048338529e-06,0.23529411764705882
4.66048338529e-06,0.2426470588235294
4.66048338529e-06,0.25
4.66048338529e-06,0.25735294117647056
4.66048338529e-06,0.2647058823529412
4.66048338529e-06,0.27205882352941174
4.66048338529e-06,0.27941176470588236
4.66048338529e-06,0.2867647058823529
4.66048338529e-06,0.29411764705882354
4.66048338529e-06,0.3014705882352941
0.000116512084632,0.3088235294117647
0.000116512084632,0.3161764705882353
0.000125833051403,0.3235294117647059
0.000233024169264,0.33088235294117646
0.000233024169264,0.3382352941176471
0.000233024169264,0.34558823529411764
0.000233024169264,0.35294117647058826
0.000349536253897,0.3602941176470588
0.000388373615441,0.36764705882352944
0.000388373615441,0.375
0.000388373615441,0.38235294117647056
0.000466048338529,0.3897058823529412
0.000466048338529,0.39705882352941174
0.000466048338529,0.40441176470588236
0.000466048338529,0.4117647058823529
0.000466048338529,0.41911764705882354
0.000466048338529,0.4264705882352941
0.000466048338529,0.4338235294117647
0.000582560423161,0.4411764705882353
0.000699072507793,0.4485294117647059
0.000699072507793,0.45588235294117646
0.00085442195397,0.4632352941176471
0.000932096677058,0.47058823529411764
0.000932096677058,0.47794117647058826
0.00139814501559,0.4852941176470588
0.00190303071566,0.49264705882352944
0.00337885045434,0.5
0.00345652517742,0.5073529411764706
0.00446629657757,0.5147058823529411
0.0055537427008,0.5220588235294118
0.00563141742389,0.5294117647058824
0.00601979103933,0.5367647058823529
0.00609746576242,0.5441176470588235
0.00656351410095,0.5514705882352942
0.0254357336057,0.5588235294117647
0.0256165863344,0.5661764705882353
0.0274968353195,0.5735294117647058
0.0275254367336,0.5808823529411765
0.0275457555684,0.5882352941176471
0.0275766091836,0.5955882352941176
0.0275852292484,0.6029411764705882
0.0275951819198,0.6102941176470589
0.0276442698272,0.6176470588235294
0.0276524500774,0.625
0.0276564563832,0.6323529411764706
0.0276587286393,0.6397058823529411
0.0276608275388,0.6470588235294118
0.0276612357733,0.6544117647058824
0.0276617062357,0.6617647058823529
0.0276620585372,0.6691176470588235
0.0276622003247,0.6764705882352942
0.0276630889008,0.6838235294117647
0.0276631722243,0.6911764705882353
0.0276676021121,0.6985294117647058
0.0276689451642,0.7058823529411765
0.0276689518975,0.7132352941176471
0.0276690374135,0.7205882352941176
0.0276690396282,0.7279411764705882
0.0276691078615,0.7352941176470589
0.027669109338,0.7426470588235294
0.027669109338,0.75
0.691530894331,0.7573529411764706
0.691577222521,0.7647058823529411
0.741974465128,0.7720588235294118
1.37975909599,0.7794117647058824
1.37975909599,0.7867647058823529
1.38315861121,0.7941176470588235
1.38315861121,0.8014705882352942
2.07459268299,0.8088235294117647
2.30513570148,0.8161764705882353
2.30513570148,0.8235294117647058
2.30513570148,0.8308823529411765
2.75852292484,0.8382352941176471
2.76620585372,0.8455882352941176
2.76630889008,0.8529411764705882
2.76689518975,0.8602941176470589
2.76690396282,0.8676470588235294
2.7669109338,0.875
2.7669109338,0.8823529411764706
3.4577509268,0.8897058823529411
4.13433465283,0.8970588235294118
4.14903147514,0.9044117647058824
5.07038070922,0.9117647058823529
5.5161838432,0.9191176470588235
5.53380770417,0.9264705882352942
8.30073265375,0.9338235294117647
11.2952631056,0.9411764705882353
20.0599072866,0.9485294117647058
20.5098298935,0.9558823529411765
26.5149618105,0.9632352941176471
32.9100319215,0.9705882352941176
33.429638924,0.9779411764705882
35.4536052821,0.9852941176470589
36.1821825973,0.9926470588235294
38.7438412308,1.0
