Congestion,CDF
0.0,0.009433962264150943
0.0,0.018867924528301886
0.0,0.02830188679245283
0.0,0.03773584905660377
0.0,0.04716981132075472
0.0,0.05660377358490566
0.0,0.0660377358490566
0.0,0.07547169811320754
0.0,0.08490566037735849
0.0,0.09433962264150944
0.0,0.10377358490566038
0.0,0.11320754716981132
0.0,0.12264150943396226
0.0,0.1320754716981132
0.0,0.14150943396226415
0.0,0.1509433962264151
0.0,0.16037735849056603
0.0,0.16981132075471697
0.0,0.1792452830188679
0.0,0.18867924528301888
0.0,0.19811320754716982
0.0,0.20754716981132076
0.0,0.2169811320754717
0.0,0.22641509433962265
0.0,0.2358490566037736
0.0,0.24528301886792453
0.0,0.25471698113207547
0.0,0.2641509433962264
0.0,0.27358490566037735
0.0,0.2830188679245283
4.41159007967e-08,0.29245283018867924
1.13653204407e-06,0.3018867924528302
1.2780500411e-06,0.3113207547169811
1.73260659313e-06,0.32075471698113206
1.95580023893e-06,0.330188679245283
2.60243492928e-06,0.33962264150943394
3.96875326605e-06,0.3490566037735849
5.08021383452e-06,0.3584905660377358
5.37646396565e-06,0.36792452830188677
6.27073572148e-06,0.37735849056603776
7.72077739656e-06,0.3867924528301887
7.89768930024e-06,0.39622641509433965
8.33283942613e-06,0.4056603773584906
5.33970126579e-05,0.41509433962264153
7.3193482386e-05,0.42452830188679247
7.3193482386e-05,0.4339622641509434
0.000190508018794,0.44339622641509435
0.000190508018794,0.4528301886792453
0.000190508018794,0.46226415094339623
0.000195182619696,0.4716981132075472
0.000195182619696,0.4811320754716981
0.000195182619696,0.49056603773584906
0.000301334098881,0.5
0.000359855126105,0.5094339622641509
0.000359855126105,0.5188679245283019
0.000381016037589,0.5283018867924528
0.000381016037589,0.5377358490566038
0.000519781977938,0.5471698113207547
0.000662559238912,0.5566037735849056
0.000662559238912,0.5660377358490566
0.000820926692618,0.5754716981132075
0.000820926692618,0.5849056603773585
0.00103673738812,0.5943396226415094
0.00126098174638,0.6037735849056604
0.00170417876658,0.6132075471698113
0.00265740611872,0.6226415094339622
0.0026958155635,0.6320754716981132
0.00575478027137,0.6415094339622641
0.0218964870941,0.6509433962264151
0.0262912962444,0.660377358490566
0.0363874122773,0.6698113207547169
0.0366252581376,0.6792452830188679
0.0458875537082,0.6886792452830188
0.0463925336468,0.6981132075471698
0.0500703508634,0.7075471698113207
0.0523071124726,0.7169811320754716
0.0533018530039,0.7264150943396226
0.0535800944277,0.7358490566037735
0.0558490637039,0.7452830188679245
0.0583284235055,0.7547169811320755
0.0587062156837,0.7641509433962265
0.595623654769,0.7735849056603774
1.50694015578,0.7830188679245284
1.50694015578,0.7924528301886793
1.99881948765,0.8018867924528302
1.99881948765,0.8113207547169812
1.99881948765,0.8207547169811321
3.99763897529,0.8301886792452831
3.99763897529,0.839622641509434
4.01850708208,0.8490566037735849
4.01850708208,0.8584905660377359
4.01850708208,0.8679245283018868
6.54755707993,0.8773584905660378
7.88738887331,0.8867924528301887
8.16840456369,0.8962264150943396
8.16840456369,0.9056603773584906
8.63896924365,0.9150943396226415
8.63896924365,0.9245283018867925
9.28907443821,0.9339622641509434
9.28907443821,0.9433962264150944
16.826137006,0.9528301886792453
16.8796523246,0.9622641509433962
21.5066000803,0.9716981132075472
21.6199377338,0.9811320754716981
37.1943987632,0.9905660377358491
71.2041041402,1.0
