Congestion,CDF
0.0,0.009433962264150943
0.0,0.018867924528301886
0.0,0.02830188679245283
0.0,0.03773584905660377
0.0,0.04716981132075472
0.0,0.05660377358490566
0.0,0.0660377358490566
0.0,0.07547169811320754
0.0,0.08490566037735849
0.0,0.09433962264150944
0.0,0.10377358490566038
0.0,0.11320754716981132
0.0,0.12264150943396226
0.0,0.1320754716981132
0.0,0.14150943396226415
0.0,0.1509433962264151
0.0,0.16037735849056603
0.0,0.16981132075471697
0.0,0.1792452830188679
0.0,0.18867924528301888
0.0,0.19811320754716982
0.0,0.20754716981132076
0.0,0.2169811320754717
0.0,0.22641509433962265
0.0,0.2358490566037736
0.0,0.24528301886792453
0.0,0.25471698113207547
0.0,0.2641509433962264
0.0,0.27358490566037735
0.0,0.2830188679245283
4.46765955756e-08,0.29245283018867924
1.15097689438e-06,0.3018867924528302
1.29429352638e-06,0.3113207547169811
1.75462730342e-06,0.32075471698113206
1.98065764777e-06,0.330188679245283
2.63551079651e-06,0.33962264150943394
4.01919447194e-06,0.3490566037735849
5.14478124267e-06,0.3584905660377358
5.44479658995e-06,0.36792452830188677
6.35043416843e-06,0.37735849056603776
7.81890527103e-06,0.3867924528301887
7.99806565154e-06,0.39622641509433965
8.43874635482e-06,0.4056603773584906
5.40756665144e-05,0.41509433962264153
7.41237411517e-05,0.42452830188679247
7.41237411517e-05,0.4339622641509434
0.0001929292966,0.44339622641509435
0.0001929292966,0.4528301886792453
0.0001929292966,0.46226415094339623
0.000197663309738,0.4716981132075472
0.000197663309738,0.4811320754716981
0.000197663309738,0.49056603773584906
0.000305163930142,0.5
0.000364428735319,0.5094339622641509
0.000364428735319,0.5188679245283019
0.0003858585932,0.5283018867924528
0.0003858585932,0.5377358490566038
0.000526388191026,0.5471698113207547
0.000670980091695,0.5566037735849056
0.000670980091695,0.5660377358490566
0.000831360329971,0.5754716981132075
0.000831360329971,0.5849056603773585
0.0010499138898,0.5943396226415094
0.00127700830072,0.6037735849056604
0.001725838171,0.6132075471698113
0.00269118064693,0.6226415094339622
0.0027300782598,0.6320754716981132
0.00582792113881,0.6415094339622641
0.0198212310804,0.6509433962264151
0.024204208707,0.660377358490566
0.0331424979246,0.6698113207547169
0.0333596015614,0.6792452830188679
0.0410162255677,0.6886792452830188
0.0422307068042,0.6981132075471698
0.0450137507271,0.7075471698113207
0.0475975802832,0.7169811320754716
0.0479826715613,0.7264150943396226
0.0482454248345,0.7358490566037735
0.0505668511267,0.7452830188679245
0.0529574848862,0.7547169811320755
0.0533008511696,0.7641509433962265
0.539439086234,0.7735849056603774
1.35690257347,0.7830188679245284
1.35690257347,0.7924528301886793
1.79935018355,0.8018867924528302
1.79935018355,0.8113207547169812
1.79935018355,0.8207547169811321
3.5987003671,0.8301886792452831
3.5987003671,0.839622641509434
3.61840686258,0.8490566037735849
3.61840686258,0.8584905660377359
3.61840686258,0.8679245283018868
5.89025879029,0.8773584905660378
7.2612626121,0.8867924528301887
7.32074058749,0.8962264150943396
7.32074058749,0.9056603773584906
7.77046216793,0.9150943396226415
7.77046216793,0.9245283018867925
8.39518596288,0.9339622641509434
8.39518596288,0.9433962264150944
15.227524201,0.9528301886792453
15.2763725192,0.9622641509433962
19.4957990807,0.9716981132075472
19.5988089657,0.9811320754716981
33.6237807751,0.9905660377358491
64.5674634152,1.0
