Congestion,CDF
0.0,0.009433962264150943
0.0,0.018867924528301886
0.0,0.02830188679245283
0.0,0.03773584905660377
0.0,0.04716981132075472
0.0,0.05660377358490566
0.0,0.0660377358490566
0.0,0.07547169811320754
0.0,0.08490566037735849
0.0,0.09433962264150944
0.0,0.10377358490566038
0.0,0.11320754716981132
0.0,0.12264150943396226
0.0,0.1320754716981132
0.0,0.14150943396226415
0.0,0.1509433962264151
0.0,0.16037735849056603
0.0,0.16981132075471697
0.0,0.1792452830188679
0.0,0.18867924528301888
0.0,0.19811320754716982
0.0,0.20754716981132076
0.0,0.2169811320754717
0.0,0.22641509433962265
0.0,0.2358490566037736
0.0,0.24528301886792453
0.0,0.25471698113207547
0.0,0.2641509433962264
0.0,0.27358490566037735
0.0,0.2830188679245283
4.79415126783e-08,0.29245283018867924
1.23508903629e-06,0.3018867924528302
1.38887909217e-06,0.3113207547169811
1.88285356189e-06,0.32075471698113206
2.12540195842e-06,0.330188679245283
2.82811106434e-06,0.33962264150943394
4.31291284062e-06,0.3490566037735849
5.52075627059e-06,0.3584905660377358
5.84269641374e-06,0.36792452830188677
6.81451700328e-06,0.37735849056603776
7.60590712598e-06,0.3867924528301887
8.39030237985e-06,0.39622641509433965
8.58255560647e-06,0.4056603773584906
9.05544077713e-06,0.41509433962264153
5.80274575175e-05,0.42452830188679247
5.91549796666e-05,0.4339622641509434
7.95406236846e-05,0.44339622641509435
7.95406236846e-05,0.4528301886792453
0.000207028360147,0.46226415094339623
0.000207028360147,0.4716981132075472
0.000207028360147,0.4811320754716981
0.000212108329826,0.49056603773584906
0.000212108329826,0.5
0.000212108329826,0.5094339622641509
0.000327464978864,0.5188679245283019
0.000391060791664,0.5283018867924528
0.000391060791664,0.5377358490566038
0.000414056720294,0.5471698113207547
0.000414056720294,0.5566037735849056
0.000564856068566,0.5660377358490566
0.000720014588364,0.5754716981132075
0.000720014588364,0.5849056603773585
0.000892115240341,0.5943396226415094
0.000892115240341,0.6037735849056604
0.00112664045705,0.6132075471698113
0.00137033068099,0.6226415094339622
0.00185196055093,0.6320754716981132
0.0022817721378,0.6415094339622641
0.002887849207,0.6509433962264151
0.00292958941519,0.660377358490566
0.00625381928871,0.6698113207547169
0.00931263329852,0.6792452830188679
0.00965504117456,0.6886792452830188
0.0243969748242,0.6981132075471698
0.0272749509756,0.7075471698113207
0.0338493311121,0.7169811320754716
0.0342437009585,0.7264150943396226
0.0394811283215,0.7358490566037735
0.039950496341,0.7452830188679245
0.0419934510994,0.7547169811320755
0.0452471869723,0.7641509433962265
0.0459001684239,0.7735849056603774
0.351371824388,0.7830188679245284
1.12360770959,0.7924528301886793
1.12360770959,0.8018867924528302
1.48054231206,0.8113207547169812
1.48054231206,0.8207547169811321
1.48054231206,0.8301886792452831
2.65787814941,0.839622641509434
2.96108462411,0.8490566037735849
2.96108462411,0.8584905660377359
2.99628722557,0.8679245283018868
2.99628722557,0.8773584905660378
2.99628722557,0.8867924528301887
5.30244642839,0.8962264150943396
5.30244642839,0.9056603773584906
6.04206419375,0.9150943396226415
6.04206419375,0.9245283018867925
6.95827769231,0.9339622641509434
6.95827769231,0.9433962264150944
8.13740668591,0.9528301886792453
8.21444845802,0.9622641509433962
16.5528420165,0.9716981132075472
16.748736452,0.9811320754716981
23.6667246082,0.9905660377358491
52.8523923459,1.0
