Congestion,CDF
0.0,0.009433962264150943
0.0,0.018867924528301886
0.0,0.02830188679245283
0.0,0.03773584905660377
0.0,0.04716981132075472
0.0,0.05660377358490566
0.0,0.0660377358490566
0.0,0.07547169811320754
0.0,0.08490566037735849
0.0,0.09433962264150944
0.0,0.10377358490566038
0.0,0.11320754716981132
0.0,0.12264150943396226
0.0,0.1320754716981132
0.0,0.14150943396226415
0.0,0.1509433962264151
0.0,0.16037735849056603
0.0,0.16981132075471697
0.0,0.1792452830188679
0.0,0.18867924528301888
0.0,0.19811320754716982
0.0,0.20754716981132076
0.0,0.2169811320754717
0.0,0.22641509433962265
0.0,0.2358490566037736
0.0,0.24528301886792453
0.0,0.25471698113207547
0.0,0.2641509433962264
0.0,0.27358490566037735
0.0,0.2830188679245283
6.45736974755e-08,0.29245283018867924
1.66357424556e-06,0.3018867924528302
1.8707181588e-06,0.3113207547169811
2.53606549947e-06,0.32075471698113206
2.86276038051e-06,0.330188679245283
3.80925794981e-06,0.33962264150943394
5.80917692098e-06,0.3490566037735849
7.43605333534e-06,0.3584905660377358
7.60590712598e-06,0.36792452830188677
7.86968306973e-06,0.37735849056603776
9.17865404798e-06,0.3867924528301887
1.13011212483e-05,0.39622641509433965
1.15600722284e-05,0.4056603773584906
1.21970138317e-05,0.41509433962264153
2.75276763337e-05,0.42452830188679247
7.8158724614e-05,0.4339622641509434
0.000107135379838,0.44339622641509435
0.000107135379838,0.4528301886792453
0.000109289562322,0.46226415094339623
0.000190964408882,0.4716981132075472
0.000278852000075,0.4811320754716981
0.000278852000075,0.49056603773584906
0.000278852000075,0.5
0.000285694346236,0.5094339622641509
0.000285694346236,0.5188679245283019
0.000285694346236,0.5283018867924528
0.000441071282436,0.5377358490566038
0.00052673017276,0.5471698113207547
0.00052673017276,0.5566037735849056
0.000557704000151,0.5660377358490566
0.000557704000151,0.5754716981132075
0.000635502669649,0.5849056603773585
0.000760819649841,0.5943396226415094
0.000814471562953,0.6037735849056604
0.000969806783506,0.6132075471698113
0.000969806783506,0.6226415094339622
0.00120161372524,0.6320754716981132
0.00120161372524,0.6415094339622641
0.00151750197215,0.6509433962264151
0.00184573481085,0.660377358490566
0.0022817721378,0.6698113207547169
0.00249445488202,0.6792452830188679
0.0038897208417,0.6886792452830188
0.00394594183737,0.6981132075471698
0.00586989785481,0.7075471698113207
0.00842343539564,0.7169811320754716
0.0129408498917,0.7264150943396226
0.0139499821758,0.7358490566037735
0.0160517877662,0.7452830188679245
0.0231516193879,0.7547169811320755
0.0286491022955,0.7641509433962265
0.0296443919215,0.7735849056603774
0.132042993081,0.7830188679245284
0.451456530923,0.7924528301886793
0.451456530923,0.8018867924528302
0.460743778564,0.8113207547169812
0.523124331591,0.8207547169811321
0.523124331591,0.8301886792452831
0.523124331591,0.839622641509434
0.915293829952,0.8490566037735849
0.915293829952,0.8584905660377359
1.04624866318,0.8679245283018868
1.04624866318,0.8773584905660378
1.20388408246,0.8867924528301887
1.20388408246,0.8962264150943396
1.20388408246,0.9056603773584906
1.50416328828,0.9150943396226415
1.50416328828,0.9245283018867925
1.52875343981,0.9339622641509434
1.54713028028,0.9433962264150944
3.44835696076,0.9528301886792453
3.44835696076,0.9622641509433962
6.06254252317,0.9716981132075472
9.71979706146,0.9811320754716981
10.0183839493,0.9905660377358491
28.2182452593,1.0
