Congestion,CDF
0.0,0.009433962264150943
0.0,0.018867924528301886
0.0,0.02830188679245283
0.0,0.03773584905660377
0.0,0.04716981132075472
0.0,0.05660377358490566
0.0,0.0660377358490566
0.0,0.07547169811320754
0.0,0.08490566037735849
0.0,0.09433962264150944
0.0,0.10377358490566038
0.0,0.11320754716981132
0.0,0.12264150943396226
0.0,0.1320754716981132
0.0,0.14150943396226415
0.0,0.1509433962264151
0.0,0.16037735849056603
0.0,0.16981132075471697
0.0,0.1792452830188679
0.0,0.18867924528301888
0.0,0.19811320754716982
0.0,0.20754716981132076
0.0,0.2169811320754717
0.0,0.22641509433962265
0.0,0.2358490566037736
0.0,0.24528301886792453
0.0,0.25471698113207547
0.0,0.2641509433962264
0.0,0.27358490566037735
0.0,0.2830188679245283
5.38247443105e-08,0.29245283018867924
1.38665527776e-06,0.3018867924528302
1.55931796553e-06,0.3113207547169811
2.11391142834e-06,0.32075471698113206
2.38622460115e-06,0.330188679245283
3.17516795812e-06,0.33962264150943394
4.84217993782e-06,0.3490566037735849
6.19824611415e-06,0.3584905660377358
6.55969373898e-06,0.36792452830188677
7.60590712598e-06,0.37735849056603776
7.65077309433e-06,0.3867924528301887
9.41993389556e-06,0.39622641509433965
9.63577983341e-06,0.4056603773584906
1.01666959847e-05,0.41509433962264153
4.80218756633e-05,0.42452830188679247
6.51484045742e-05,0.4339622641509434
8.9301598822e-05,0.44339622641509435
8.9301598822e-05,0.4528301886792453
0.000185545850807,0.46226415094339623
0.000232434229281,0.4716981132075472
0.000232434229281,0.4811320754716981
0.000232434229281,0.49056603773584906
0.000238137596859,0.5
0.000238137596859,0.5094339622641509
0.000238137596859,0.5188679245283019
0.000367650451003,0.5283018867924528
0.000439050541905,0.5377358490566038
0.000439050541905,0.5471698113207547
0.000464868458562,0.5566037735849056
0.000464868458562,0.5660377358490566
0.000634173428503,0.5754716981132075
0.000808372513787,0.5849056603773585
0.000808372513787,0.5943396226415094
0.000939771192493,0.6037735849056604
0.00100159281642,0.6132075471698113
0.00100159281642,0.6226415094339622
0.00126489823001,0.6320754716981132
0.00153849335168,0.6415094339622641
0.00207922732425,0.6509433962264151
0.0022817721378,0.660377358490566
0.00324223697773,0.6698113207547169
0.00328909941298,0.6792452830188679
0.00702126831994,0.6886792452830188
0.00936766735108,0.6981132075471698
0.0103194551126,0.7075471698113207
0.0187301533813,0.7169811320754716
0.0212369675026,0.7264150943396226
0.0271083327376,0.7358490566037735
0.0282182387037,0.7452830188679245
0.031119539413,0.7547169811320755
0.0353426599669,0.7641509433962265
0.0362013841451,0.7735849056603774
0.21882534314,0.7830188679245284
0.79363796354,0.7924528301886793
0.79363796354,0.8018867924528302
1.01656247766,0.8113207547169812
1.01656247766,0.8207547169811321
1.01656247766,0.8301886792452831
1.36390172199,0.839622641509434
2.03312495532,0.8490566037735849
2.03312495532,0.8584905660377359
2.11636790277,0.8679245283018868
2.11636790277,0.8773584905660378
2.11636790277,0.8867924528301887
2.71699852195,0.8962264150943396
2.71699852195,0.9056603773584906
3.66320207718,0.9150943396226415
3.66320207718,0.9245283018867925
3.70494989361,0.9339622641509434
3.87465059549,0.9433962264150944
5.05700800575,0.9528301886792453
5.05700800575,0.9622641509433962
12.6775444191,0.9716981132075472
12.9351616726,0.9811320754716981
13.1756422423,0.9905660377358491
38.7264736835,1.0
