Congestion,CDF
0.0,0.007352941176470588
0.0,0.014705882352941176
0.0,0.022058823529411766
0.0,0.029411764705882353
0.0,0.03676470588235294
0.0,0.04411764705882353
0.0,0.051470588235294115
0.0,0.058823529411764705
0.0,0.0661764705882353
0.0,0.07352941176470588
0.0,0.08088235294117647
0.0,0.08823529411764706
0.0,0.09558823529411764
0.0,0.10294117647058823
1.54906777997e-05,0.11029411764705882
1.54906777997e-05,0.11764705882352941
1.54906777997e-05,0.125
1.54906777997e-05,0.1323529411764706
1.54906777997e-05,0.13970588235294118
1.54906777997e-05,0.14705882352941177
1.54906777997e-05,0.15441176470588236
1.54906777997e-05,0.16176470588235295
1.54906777997e-05,0.16911764705882354
1.54906777997e-05,0.17647058823529413
1.54906777997e-05,0.18382352941176472
1.54906777997e-05,0.19117647058823528
1.54906777997e-05,0.19852941176470587
1.54906777997e-05,0.20588235294117646
1.54906777997e-05,0.21323529411764705
1.54906777997e-05,0.22058823529411764
1.54906777997e-05,0.22794117647058823
1.54906777997e-05,0.23529411764705882
1.54906777997e-05,0.2426470588235294
1.54906777997e-05,0.25
1.54906777997e-05,0.25735294117647056
1.54906777997e-05,0.2647058823529412
1.54906777997e-05,0.27205882352941174
1.54906777997e-05,0.27941176470588236
1.54906777997e-05,0.2867647058823529
1.54906777997e-05,0.29411764705882354
1.54906777997e-05,0.3014705882352941
0.000387266944993,0.3088235294117647
0.000387266944993,0.3161764705882353
0.000418248300592,0.3235294117647059
0.000774533889985,0.33088235294117646
0.000774533889985,0.3382352941176471
0.000774533889985,0.34558823529411764
0.000774533889985,0.35294117647058826
0.00116180083498,0.3602941176470588
0.00129088981664,0.36764705882352944
0.00129088981664,0.375
0.00129088981664,0.38235294117647056
0.00154906777997,0.3897058823529412
0.00154906777997,0.39705882352941174
0.00154906777997,0.40441176470588236
0.00154906777997,0.4117647058823529
0.00154906777997,0.41911764705882354
0.00154906777997,0.4264705882352941
0.00154906777997,0.4338235294117647
0.00193633472496,0.4411764705882353
0.00232360166996,0.4485294117647059
0.00232360166996,0.45588235294117646
0.00283995759661,0.4632352941176471
0.00309813555994,0.47058823529411764
0.00309813555994,0.47794117647058826
0.00464720333991,0.4852941176470588
0.00512226633728,0.49264705882352944
0.00574693825872,0.5
0.00632536010155,0.5073529411764706
0.0103974518517,0.5147058823529411
0.0105338291298,0.5220588235294118
0.0106186384206,0.5294117647058824
0.0106342026056,0.5367647058823529
0.010761174371,0.5441176470588235
0.0108487035553,0.5514705882352942
0.0111767547433,0.5588235294117647
0.0112058693531,0.5661764705882353
0.0112307414048,0.5735294117647058
0.0112754714511,0.5808823529411765
0.01127649329,0.5882352941176471
0.0112778837914,0.5955882352941176
0.0113744533404,0.6029411764705882
0.0114070274052,0.6102941176470589
0.0114889193681,0.6176470588235294
0.0114991785295,0.625
0.0115918459613,0.6323529411764706
0.0116010642582,0.6397058823529411
0.0116778736428,0.6470588235294118
0.0117557400455,0.6544117647058824
0.0117821362343,0.6617647058823529
0.0117821609713,0.6691176470588235
0.011782458092,0.6764705882352942
0.0117824675773,0.6838235294117647
0.0117833082334,0.6911764705882353
0.0117833145589,0.6985294117647058
0.0117833145589,0.7058823529411765
0.0148452328914,0.7132352941176471
0.018459724378,0.7205882352941176
0.0187179023413,0.7279411764705882
0.020008792158,0.7352941176470589
0.0202669701213,0.7426470588235294
0.0218160379013,0.75
0.284361333509,0.7573529411764706
0.287479463237,0.7647058823529411
0.294262020568,0.7720588235294118
0.542435177765,0.7794117647058824
0.542435177765,0.7867647058823529
0.583893682141,0.7941176470588235
0.583893682141,0.8014705882352942
0.853084000528,0.8088235294117647
0.952075043587,0.8161764705882353
0.952075043587,0.8235294117647058
0.952075043587,0.8308823529411765
1.06342026056,0.8382352941176471
1.127649329,0.8455882352941176
1.14991785295,0.8529411764705882
1.17821609713,0.8602941176470589
1.17824675773,0.8676470588235294
1.17833145589,0.875
1.17833145589,0.8823529411764706
1.41214971264,0.8897058823529411
1.59581809074,0.8970588235294118
1.74400010796,0.9044117647058824
2.07266197889,0.9117647058823529
2.12528410262,0.9191176470588235
2.35649256693,0.9264705882352942
3.53499373511,0.9338235294117647
4.61942123034,0.9411764705882353
8.35219386132,0.9485294117647058
8.53539548584,0.9558823529411765
11.2469382161,0.9632352941176471
13.1130412399,0.9705882352941176
13.6252678736,0.9779411764705882
14.1501229202,0.9852941176470589
15.2262403573,0.9926470588235294
15.8009341832,1.0
