Congestion,CDF
0.0,0.007352941176470588
0.0,0.014705882352941176
0.0,0.022058823529411766
0.0,0.029411764705882353
0.0,0.03676470588235294
0.0,0.04411764705882353
0.0,0.051470588235294115
0.0,0.058823529411764705
0.0,0.0661764705882353
0.0,0.07352941176470588
0.0,0.08088235294117647
0.0,0.08823529411764706
0.0,0.09558823529411764
0.0,0.10294117647058823
9.86465794355e-06,0.11029411764705882
9.86465794355e-06,0.11764705882352941
9.86465794355e-06,0.125
9.86465794355e-06,0.1323529411764706
9.86465794355e-06,0.13970588235294118
9.86465794355e-06,0.14705882352941177
9.86465794355e-06,0.15441176470588236
9.86465794355e-06,0.16176470588235295
9.86465794355e-06,0.16911764705882354
9.86465794355e-06,0.17647058823529413
9.86465794355e-06,0.18382352941176472
9.86465794355e-06,0.19117647058823528
9.86465794355e-06,0.19852941176470587
9.86465794355e-06,0.20588235294117646
9.86465794355e-06,0.21323529411764705
9.86465794355e-06,0.22058823529411764
9.86465794355e-06,0.22794117647058823
9.86465794355e-06,0.23529411764705882
9.86465794355e-06,0.2426470588235294
9.86465794355e-06,0.25
9.86465794355e-06,0.25735294117647056
9.86465794355e-06,0.2647058823529412
9.86465794355e-06,0.27205882352941174
9.86465794355e-06,0.27941176470588236
9.86465794355e-06,0.2867647058823529
9.86465794355e-06,0.29411764705882354
9.86465794355e-06,0.3014705882352941
0.000246616448589,0.3088235294117647
0.000246616448589,0.3161764705882353
0.000266345764476,0.3235294117647059
0.000493232897177,0.33088235294117646
0.000493232897177,0.3382352941176471
0.000493232897177,0.34558823529411764
0.000493232897177,0.35294117647058826
0.000739849345766,0.3602941176470588
0.000822054828629,0.36764705882352944
0.000822054828629,0.375
0.000822054828629,0.38235294117647056
0.000986465794355,0.3897058823529412
0.000986465794355,0.39705882352941174
0.000986465794355,0.40441176470588236
0.000986465794355,0.4117647058823529
0.000986465794355,0.41911764705882354
0.000986465794355,0.4264705882352941
0.000986465794355,0.4338235294117647
0.00123308224294,0.4411764705882353
0.00147969869153,0.4485294117647059
0.00147969869153,0.45588235294117646
0.00180852062298,0.4632352941176471
0.00197293158871,0.47058823529411764
0.00197293158871,0.47794117647058826
0.00262166179127,0.4852941176470588
0.00295939738306,0.49264705882352944
0.00296381730481,0.5
0.00370839520226,0.5073529411764706
0.00370839520226,0.5147058823529411
0.00370839520226,0.5220588235294118
0.00370839520226,0.5294117647058824
0.00384164325336,0.5367647058823529
0.00397934043992,0.5441176470588235
0.00397934043992,0.5514705882352942
0.0039993866254,0.5588235294117647
0.0039993866254,0.5661764705882353
0.0039993866254,0.5735294117647058
0.00402806866028,0.5808823529411765
0.00411717597009,0.5882352941176471
0.00415931923331,0.5955882352941176
0.00421499135643,0.6029411764705882
0.00434398215785,0.6102941176470589
0.00460029508108,0.6176470588235294
0.00460029508108,0.625
0.0046644574821,0.6323529411764706
0.00472955214693,0.6397058823529411
0.00476773474571,0.6470588235294118
0.00476773474571,0.6544117647058824
0.00476773474571,0.6617647058823529
0.00476773474571,0.6691176470588235
0.00476813004177,0.6764705882352942
0.00476813004177,0.6838235294117647
0.00476813004177,0.6911764705882353
0.00715187700907,0.6985294117647058
0.0073162879748,0.7058823529411765
0.00945363052923,0.7132352941176471
0.0117553840494,0.7205882352941176
0.0119197950151,0.7279411764705882
0.0127418498437,0.7352941176470589
0.0129062608095,0.7426470588235294
0.0138927266038,0.75
0.103982980833,0.7573529411764706
0.108599553946,0.7647058823529411
0.113022941531,0.7720588235294118
0.192082162668,0.7794117647058824
0.192082162668,0.7867647058823529
0.233222874105,0.7941176470588235
0.233222874105,0.8014705882352942
0.311948942498,0.8088235294117647
0.35308224666,0.8161764705882353
0.35308224666,0.8235294117647058
0.35308224666,0.8308823529411765
0.370839520226,0.8382352941176471
0.39993866254,0.8455882352941176
0.434398215785,0.8529411764705882
0.476773474571,0.8602941176470589
0.476773474571,0.8676470588235294
0.476813004177,0.875
0.476813004177,0.8823529411764706
0.503921643372,0.8897058823529411
0.562921682893,0.8970588235294118
0.693252382213,0.9044117647058824
0.741679040451,0.9117647058823529
0.751016290652,0.9191176470588235
0.953546949141,0.9264705882352942
1.43043901253,0.9338235294117647
1.65688121511,0.9411764705882353
2.99791371242,0.9485294117647058
3.44613246476,0.9558823529411765
4.50539280022,0.9632352941176471
4.67335395599,0.9705882352941176
4.93552013512,0.9779411764705882
5.65867469054,0.9852941176470589
6.07039228755,0.9926470588235294
6.36677401803,1.0
