Congestion,CDF
0.0,0.007352941176470588
0.0,0.014705882352941176
0.0,0.022058823529411766
0.0,0.029411764705882353
0.0,0.03676470588235294
0.0,0.04411764705882353
0.0,0.051470588235294115
0.0,0.058823529411764705
0.0,0.0661764705882353
0.0,0.07352941176470588
0.0,0.08088235294117647
0.0,0.08823529411764706
0.0,0.09558823529411764
0.0,0.10294117647058823
4.39284235557e-06,0.11029411764705882
4.39284235557e-06,0.11764705882352941
4.39284235557e-06,0.125
4.39284235557e-06,0.1323529411764706
4.39284235557e-06,0.13970588235294118
4.39284235557e-06,0.14705882352941177
4.39284235557e-06,0.15441176470588236
4.39284235557e-06,0.16176470588235295
4.39284235557e-06,0.16911764705882354
4.39284235557e-06,0.17647058823529413
4.39284235557e-06,0.18382352941176472
4.39284235557e-06,0.19117647058823528
4.39284235557e-06,0.19852941176470587
4.39284235557e-06,0.20588235294117646
4.39284235557e-06,0.21323529411764705
4.39284235557e-06,0.22058823529411764
4.39284235557e-06,0.22794117647058823
4.39284235557e-06,0.23529411764705882
4.39284235557e-06,0.2426470588235294
4.39284235557e-06,0.25
4.39284235557e-06,0.25735294117647056
4.39284235557e-06,0.2647058823529412
4.39284235557e-06,0.27205882352941174
4.39284235557e-06,0.27941176470588236
4.39284235557e-06,0.2867647058823529
4.39284235557e-06,0.29411764705882354
4.39284235557e-06,0.3014705882352941
0.000109821058889,0.3088235294117647
0.000109821058889,0.3161764705882353
0.0001186067436,0.3235294117647059
0.000219642117778,0.33088235294117646
0.000219642117778,0.3382352941176471
0.000219642117778,0.34558823529411764
0.000219642117778,0.35294117647058826
0.000329463176668,0.3602941176470588
0.000366070196297,0.36764705882352944
0.000366070196297,0.375
0.000366070196297,0.38235294117647056
0.000439284235557,0.3897058823529412
0.000439284235557,0.39705882352941174
0.000439284235557,0.40441176470588236
0.000439284235557,0.4117647058823529
0.000439284235557,0.41911764705882354
0.000439284235557,0.4264705882352941
0.000439284235557,0.4338235294117647
0.000549105294446,0.4411764705882353
0.000658926353335,0.4485294117647059
0.000658926353335,0.45588235294117646
0.000805354431854,0.4632352941176471
0.000878568471114,0.47058823529411764
0.000878568471114,0.47794117647058826
0.00131785270667,0.4852941176470588
0.00179374396186,0.49264705882352944
0.00318481070779,0.5
0.00325802474705,0.5073529411764706
0.00420980725742,0.5147058823529411
0.00523480380705,0.5220588235294118
0.00530801784631,0.5294117647058824
0.00567408804261,0.5367647058823529
0.00574730208187,0.5441176470588235
0.00618658631743,0.5514705882352942
0.0333881503163,0.5588235294117647
0.0338252149446,0.5661764705882353
0.0385632617605,0.5735294117647058
0.0386325829632,0.5808823529411765
0.0386982660307,0.5882352941176471
0.0387292149292,0.5955882352941176
0.0387492591634,0.6029411764705882
0.0388024681774,0.6102941176470589
0.038900843435,0.6176470588235294
0.0389142406326,0.625
0.0389360446714,0.6323529411764706
0.0389408763268,0.6397058823529411
0.0389410274469,0.6470588235294118
0.0389413562288,0.6544117647058824
0.0389415174127,0.6617647058823529
0.0389417189,0.6691176470588235
0.0389422104702,0.6764705882352942
0.0389487489802,0.6838235294117647
0.0389537482077,0.6911764705882353
0.0389658344166,0.6985294117647058
0.0389707547295,0.7058823529411765
0.0389707664178,0.7132352941176471
0.0389708276326,0.7205882352941176
0.0389708312275,0.7279411764705882
0.0389712773162,0.7352941176470589
0.038971279713,0.7426470588235294
0.038971279713,0.75
0.97353390572,0.7573529411764706
0.973718724504,0.7647058823529411
1.03945360216,0.7720588235294118
1.94012340887,0.7794117647058824
1.94012340887,0.7867647058823529
1.94768741039,0.7941176470588235
1.94768741039,0.8014705882352942
2.92060171716,0.8088235294117647
3.24528184112,0.8161764705882353
3.24528184112,0.8235294117647058
3.24528184112,0.8308823529411765
3.87492591634,0.8382352941176471
3.89417189,0.8455882352941176
3.89487489802,0.8529411764705882
3.89707664178,0.8602941176470589
3.89708312275,0.8676470588235294
3.8971279713,0.875
3.8971279713,0.8823529411764706
4.86775495274,0.8897058823529411
5.80995001194,0.8970588235294118
5.84183915165,0.9044117647058824
7.13670590438,0.9117647058823529
7.74784740926,0.9191176470588235
7.794165886,0.9264705882352942
11.6913836742,0.9338235294117647
15.9013114285,0.9411764705882353
28.2534203995,0.9485294117647058
28.8682250853,0.9558823529411765
37.3429730926,0.9632352941176471
46.2823486825,0.9705882352941176
47.0784167114,0.9779411764705882
49.6211637142,0.9852941176470589
50.9416750077,0.9926470588235294
54.3241965022,1.0
