Congestion,CDF
0.0,0.007352941176470588
0.0,0.014705882352941176
0.0,0.022058823529411766
0.0,0.029411764705882353
0.0,0.03676470588235294
0.0,0.04411764705882353
0.0,0.051470588235294115
0.0,0.058823529411764705
0.0,0.0661764705882353
0.0,0.07352941176470588
0.0,0.08088235294117647
0.0,0.08823529411764706
0.0,0.09558823529411764
0.0,0.10294117647058823
6.72650620329e-06,0.11029411764705882
6.72650620329e-06,0.11764705882352941
6.72650620329e-06,0.125
6.72650620329e-06,0.1323529411764706
6.72650620329e-06,0.13970588235294118
6.72650620329e-06,0.14705882352941177
6.72650620329e-06,0.15441176470588236
6.72650620329e-06,0.16176470588235295
6.72650620329e-06,0.16911764705882354
6.72650620329e-06,0.17647058823529413
6.72650620329e-06,0.18382352941176472
6.72650620329e-06,0.19117647058823528
6.72650620329e-06,0.19852941176470587
6.72650620329e-06,0.20588235294117646
6.72650620329e-06,0.21323529411764705
6.72650620329e-06,0.22058823529411764
6.72650620329e-06,0.22794117647058823
6.72650620329e-06,0.23529411764705882
6.72650620329e-06,0.2426470588235294
6.72650620329e-06,0.25
6.72650620329e-06,0.25735294117647056
6.72650620329e-06,0.2647058823529412
6.72650620329e-06,0.27205882352941174
6.72650620329e-06,0.27941176470588236
6.72650620329e-06,0.2867647058823529
6.72650620329e-06,0.29411764705882354
6.72650620329e-06,0.3014705882352941
0.000168162655082,0.3088235294117647
0.000168162655082,0.3161764705882353
0.000181615667489,0.3235294117647059
0.000336325310164,0.33088235294117646
0.000336325310164,0.3382352941176471
0.000336325310164,0.34558823529411764
0.000336325310164,0.35294117647058826
0.000504487965247,0.3602941176470588
0.000560542183607,0.36764705882352944
0.000560542183607,0.375
0.000560542183607,0.38235294117647056
0.000672650620329,0.3897058823529412
0.000672650620329,0.39705882352941174
0.000672650620329,0.40441176470588236
0.000672650620329,0.4117647058823529
0.000672650620329,0.41911764705882354
0.000672650620329,0.4264705882352941
0.000672650620329,0.4338235294117647
0.000840813275411,0.4411764705882353
0.00100897593049,0.4485294117647059
0.00100897593049,0.45588235294117646
0.00123319280394,0.4632352941176471
0.00134530124066,0.47058823529411764
0.00134530124066,0.47794117647058826
0.00201795186099,0.4852941176470588
0.00274665669968,0.49264705882352944
0.00487671699738,0.5
0.0049888254341,0.5073529411764706
0.00644623511148,0.5147058823529411
0.00788641652696,0.5220588235294118
0.00795055090375,0.5294117647058824
0.00801575322558,0.5367647058823529
0.00812786166231,0.5441176470588235
0.00851058071204,0.5514705882352942
0.00851058071204,0.5588235294117647
0.00851058071204,0.5661764705882353
0.00851058071204,0.5735294117647058
0.00853527932354,0.5808823529411765
0.00856223828834,0.5882352941176471
0.00861389586464,0.5955882352941176
0.00861389586464,0.6029411764705882
0.00863419111694,0.6102941176470589
0.00863419111694,0.6176470588235294
0.00863419111694,0.625
0.0086342790734,0.6323529411764706
0.00863430841852,0.6397058823529411
0.00863665748989,0.6470588235294118
0.00863665748989,0.6544117647058824
0.00864042419098,0.6617647058823529
0.00864574784248,0.6691176470588235
0.00865483819508,0.6764705882352942
0.00865877158728,0.6838235294117647
0.00865877158728,0.6911764705882353
0.00865877158728,0.6985294117647058
0.00865877158728,0.7058823529411765
0.00865919486475,0.7132352941176471
0.00865919486475,0.7205882352941176
0.00865919486475,0.7279411764705882
0.00868840384591,0.7352941176470589
0.00880051228263,0.7426470588235294
0.00947316290296,0.75
0.215856976835,0.7573529411764706
0.216010604775,0.7647058823529411
0.231202756614,0.7720588235294118
0.428111914417,0.7794117647058824
0.428111914417,0.7867647058823529
0.432287392124,0.7941176470588235
0.432287392124,0.8014705882352942
0.647570930505,0.8088235294117647
0.719677862227,0.8161764705882353
0.719677862227,0.8235294117647058
0.719677862227,0.8308823529411765
0.851058071204,0.8382352941176471
0.863419111694,0.8455882352941176
0.864042419098,0.8529411764705882
0.865877158728,0.8602941176470589
0.865877158728,0.8676470588235294
0.865919486475,0.875
0.865919486475,0.8823529411764706
1.07927608853,0.8897058823529411
1.27916998562,0.8970588235294118
1.29595314111,0.9044117647058824
1.58106744869,0.9117647058823529
1.70211614241,0.9191176470588235
1.73175431746,0.9264705882352942
2.59775845943,0.9338235294117647
3.52579217414,0.9411764705882353
6.27727769911,0.9485294117647058
6.39636112371,0.9558823529411765
8.29472677297,0.9632352941176471
10.2287053229,0.9705882352941176
10.4543456631,0.9779411764705882
11.0173469756,0.9852941176470589
11.3078735954,0.9926470588235294
12.1029286858,1.0
