Congestion,CDF
0.0,0.007352941176470588
0.0,0.014705882352941176
0.0,0.022058823529411766
0.0,0.029411764705882353
0.0,0.03676470588235294
0.0,0.04411764705882353
0.0,0.051470588235294115
0.0,0.058823529411764705
0.0,0.0661764705882353
0.0,0.07352941176470588
0.0,0.08088235294117647
0.0,0.08823529411764706
0.0,0.09558823529411764
0.0,0.10294117647058823
4.42769252124e-06,0.11029411764705882
4.42769252124e-06,0.11764705882352941
4.42769252124e-06,0.125
4.42769252124e-06,0.1323529411764706
4.42769252124e-06,0.13970588235294118
4.42769252124e-06,0.14705882352941177
4.42769252124e-06,0.15441176470588236
4.42769252124e-06,0.16176470588235295
4.42769252124e-06,0.16911764705882354
4.42769252124e-06,0.17647058823529413
4.42769252124e-06,0.18382352941176472
4.42769252124e-06,0.19117647058823528
4.42769252124e-06,0.19852941176470587
4.42769252124e-06,0.20588235294117646
4.42769252124e-06,0.21323529411764705
4.42769252124e-06,0.22058823529411764
4.42769252124e-06,0.22794117647058823
4.42769252124e-06,0.23529411764705882
4.42769252124e-06,0.2426470588235294
4.42769252124e-06,0.25
4.42769252124e-06,0.25735294117647056
4.42769252124e-06,0.2647058823529412
4.42769252124e-06,0.27205882352941174
4.42769252124e-06,0.27941176470588236
4.42769252124e-06,0.2867647058823529
4.42769252124e-06,0.29411764705882354
4.42769252124e-06,0.3014705882352941
0.000110692313031,0.3088235294117647
0.000110692313031,0.3161764705882353
0.000119547698073,0.3235294117647059
0.000221384626062,0.33088235294117646
0.000221384626062,0.3382352941176471
0.000221384626062,0.34558823529411764
0.000221384626062,0.35294117647058826
0.000332076939093,0.3602941176470588
0.00036897437677,0.36764705882352944
0.00036897437677,0.375
0.00036897437677,0.38235294117647056
0.000442769252124,0.3897058823529412
0.000442769252124,0.39705882352941174
0.000442769252124,0.40441176470588236
0.000442769252124,0.4117647058823529
0.000442769252124,0.41911764705882354
0.000442769252124,0.4264705882352941
0.000442769252124,0.4338235294117647
0.000553461565155,0.4411764705882353
0.000664153878186,0.4485294117647059
0.000664153878186,0.45588235294117646
0.000811743628894,0.4632352941176471
0.000885538504248,0.47058823529411764
0.000885538504248,0.47794117647058826
0.00132830775637,0.4852941176470588
0.00180797444617,0.49264705882352944
0.0032100770779,0.5
0.00328387195325,0.5073529411764706
0.00424320533285,0.5147058823529411
0.00527633358781,0.5220588235294118
0.00535012846316,0.5294117647058824
0.00571910283993,0.5367647058823529
0.00579289771529,0.5441176470588235
0.00623566696741,0.5514705882352942
0.027257280616,0.5588235294117647
0.0280194455896,0.5661764705882353
0.0368784556417,0.5735294117647058
0.0369661948409,0.5808823529411765
0.0371051979228,0.5882352941176471
0.0371404912782,0.5955882352941176
0.0371704727599,0.6029411764705882
0.0372217993825,0.6102941176470589
0.0373216617462,0.6176470588235294
0.0373381231322,0.625
0.03735859142,0.6323529411764706
0.0373651487851,0.6397058823529411
0.0373651620757,0.6470588235294118
0.0373655729289,0.6544117647058824
0.0373656707967,0.6617647058823529
0.037366009927,0.6691176470588235
0.0373665113272,0.6764705882352942
0.0373730766129,0.6838235294117647
0.0373780096726,0.6911764705882353
0.0373901300349,0.6985294117647058
0.0373950934382,0.7058823529411765
0.0373951062428,0.7132352941176471
0.0373951676338,0.7205882352941176
0.0373951713625,0.7279411764705882
0.0373956173762,0.7352941176470589
0.0373956198621,0.7426470588235294
0.0373956198621,0.75
0.934141769917,0.7573529411764706
0.934326915323,0.7647058823529411
0.987880402269,0.7720588235294118
1.86108996913,0.7794117647058824
1.86108996913,0.7867647058823529
1.86890048363,0.7941176470588235
1.86890048363,0.8014705882352942
2.80242530975,0.8088235294117647
3.11397364474,0.8161764705882353
3.11397364474,0.8235294117647058
3.11397364474,0.8308823529411765
3.71704727599,0.8382352941176471
3.7366009927,0.8455882352941176
3.73730766129,0.8529411764705882
3.73951062428,0.8602941176470589
3.73951713625,0.8676470588235294
3.73956198621,0.875
3.73956198621,0.8823529411764706
4.67079290263,0.8897058823529411
5.57160976141,0.8970588235294118
5.60545777652,0.9044117647058824
6.84778595796,0.9117647058823529
7.43109640381,0.9191176470588235
7.47903389963,0.9264705882352942
11.21868571,0.9338235294117647
15.2578837477,0.9411764705882353
27.1110664931,0.9485294117647058
27.6989258494,0.9558823529411765
35.832953625,0.9632352941176471
44.3894775788,0.9705882352941176
45.1742705435,0.9779411764705882
47.1152056404,0.9852941176470589
48.8708900276,0.9926470588235294
51.6728345865,1.0
