Congestion,CDF
0.0,0.007352941176470588
0.0,0.014705882352941176
0.0,0.022058823529411766
0.0,0.029411764705882353
0.0,0.03676470588235294
0.0,0.04411764705882353
0.0,0.051470588235294115
0.0,0.058823529411764705
0.0,0.0661764705882353
0.0,0.07352941176470588
0.0,0.08088235294117647
0.0,0.08823529411764706
0.0,0.09558823529411764
0.0,0.10294117647058823
5.22797719157e-06,0.11029411764705882
5.22797719157e-06,0.11764705882352941
5.22797719157e-06,0.125
5.22797719157e-06,0.1323529411764706
5.22797719157e-06,0.13970588235294118
5.22797719157e-06,0.14705882352941177
5.22797719157e-06,0.15441176470588236
5.22797719157e-06,0.16176470588235295
5.22797719157e-06,0.16911764705882354
5.22797719157e-06,0.17647058823529413
5.22797719157e-06,0.18382352941176472
5.22797719157e-06,0.19117647058823528
5.22797719157e-06,0.19852941176470587
5.22797719157e-06,0.20588235294117646
5.22797719157e-06,0.21323529411764705
5.22797719157e-06,0.22058823529411764
5.22797719157e-06,0.22794117647058823
5.22797719157e-06,0.23529411764705882
5.22797719157e-06,0.2426470588235294
5.22797719157e-06,0.25
5.22797719157e-06,0.25735294117647056
5.22797719157e-06,0.2647058823529412
5.22797719157e-06,0.27205882352941174
5.22797719157e-06,0.27941176470588236
5.22797719157e-06,0.2867647058823529
5.22797719157e-06,0.29411764705882354
5.22797719157e-06,0.3014705882352941
0.000130699429789,0.3088235294117647
0.000130699429789,0.3161764705882353
0.000141155384172,0.3235294117647059
0.000261398859578,0.33088235294117646
0.000261398859578,0.3382352941176471
0.000261398859578,0.34558823529411764
0.000261398859578,0.35294117647058826
0.000392098289367,0.3602941176470588
0.000435664765964,0.36764705882352944
0.000435664765964,0.375
0.000435664765964,0.38235294117647056
0.000522797719157,0.3897058823529412
0.000522797719157,0.39705882352941174
0.000522797719157,0.40441176470588236
0.000522797719157,0.4117647058823529
0.000522797719157,0.41911764705882354
0.000522797719157,0.4264705882352941
0.000522797719157,0.4338235294117647
0.000653497148946,0.4411764705882353
0.000784196578735,0.4485294117647059
0.000784196578735,0.45588235294117646
0.00095846248512,0.4632352941176471
0.00104559543831,0.47058823529411764
0.00104559543831,0.47794117647058826
0.00156839315747,0.4852941176470588
0.00213475735322,0.49264705882352944
0.00379028346388,0.5
0.00387741641708,0.5073529411764706
0.00501014480858,0.5147058823529411
0.00623000615328,0.5220588235294118
0.00631713910647,0.5294117647058824
0.00675280387244,0.5367647058823529
0.00683993682563,0.5441176470588235
0.00736273454479,0.5514705882352942
0.0151345872888,0.5588235294117647
0.0153130234307,0.5661764705882353
0.0170453298499,0.5735294117647058
0.017085913512,0.5808823529411765
0.0170918927343,0.5882352941176471
0.0171071047226,0.5955882352941176
0.0171114138021,0.6029411764705882
0.0171713743099,0.6102941176470589
0.0172572449339,0.6176470588235294
0.017264709744,0.625
0.0172885442888,0.6323529411764706
0.0172899493432,0.6397058823529411
0.0172902201498,0.6470588235294118
0.0172903981817,0.6544117647058824
0.0172906279461,0.6617647058823529
0.0172910326724,0.6691176470588235
0.0172912280362,0.6764705882352942
0.0172974537156,0.6838235294117647
0.017302862798,0.6911764705882353
0.0173145026902,0.6985294117647058
0.0173192424545,0.7058823529411765
0.0173192477424,0.7132352941176471
0.0173193057007,0.7205882352941176
0.0173193077362,0.7279411764705882
0.0173197542988,0.7352941176470589
0.017319755656,0.7426470588235294
0.017319755656,0.75
0.432255503746,0.7573529411764706
0.432436342891,0.7647058823529411
0.461765783395,0.7720588235294118
0.858568715493,0.7794117647058824
0.858568715493,0.7867647058823529
0.865143139899,0.7941176470588235
0.865143139899,0.8014705882352942
1.29676651124,0.8088235294117647
1.44102349141,0.8161764705882353
1.44102349141,0.8235294117647058
1.44102349141,0.8308823529411765
1.71114138021,0.8382352941176471
1.72906279461,0.8455882352941176
1.72974537156,0.8529411764705882
1.73192477424,0.8602941176470589
1.73193077362,0.8676470588235294
1.7319755656,0.875
1.7319755656,0.8823529411764706
2.16135877098,0.8897058823529411
2.5671600667,0.8970588235294118
2.59426594352,0.9044117647058824
3.16749446581,0.9117647058823529
3.42185185247,0.9191176470588235
3.46386134368,0.9264705882352942
5.19592656107,0.9338235294117647
7.06048487518,0.9411764705882353
12.5560732673,0.9485294117647058
12.8122725499,0.9558823529411765
16.5936901677,0.9632352941176471
20.505817454,0.9705882352941176
20.9168105401,0.9779411764705882
22.0192761829,0.9852941176470589
22.6259998135,0.9926470588235294
24.1573021566,1.0
