Congestion,CDF
0.0,0.009433962264150943
0.0,0.018867924528301886
0.0,0.02830188679245283
0.0,0.03773584905660377
0.0,0.04716981132075472
0.0,0.05660377358490566
0.0,0.0660377358490566
0.0,0.07547169811320754
0.0,0.08490566037735849
0.0,0.09433962264150944
0.0,0.10377358490566038
0.0,0.11320754716981132
0.0,0.12264150943396226
0.0,0.1320754716981132
0.0,0.14150943396226415
0.0,0.1509433962264151
0.0,0.16037735849056603
0.0,0.16981132075471697
0.0,0.1792452830188679
0.0,0.18867924528301888
0.0,0.19811320754716982
0.0,0.20754716981132076
0.0,0.2169811320754717
0.0,0.22641509433962265
0.0,0.2358490566037736
0.0,0.24528301886792453
0.0,0.25471698113207547
0.0,0.2641509433962264
0.0,0.27358490566037735
0.0,0.2830188679245283
1.76035012451e-07,0.29245283018867924
4.53508664486e-06,0.3018867924528302
5.09978377034e-06,0.3113207547169811
6.91359391252e-06,0.32075471698113206
7.80420014538e-06,0.330188679245283
1.0384456781e-05,0.33962264150943394
1.5836456198e-05,0.3490566037735849
2.02715005126e-05,0.3584905660377358
2.14536229351e-05,0.36792452830188677
2.50220220118e-05,0.37735849056603776
3.08081014008e-05,0.3867924528301887
3.15140302973e-05,0.39622641509433965
3.32504032704e-05,0.4056603773584906
0.000213069292893,0.41509433962264153
0.000292062846966,0.42452830188679247
0.000292062846966,0.4339622641509434
0.000760181269221,0.44339622641509435
0.000760181269221,0.4528301886792453
0.000760181269221,0.46226415094339623
0.000778834258575,0.4716981132075472
0.000778834258575,0.4811320754716981
0.000778834258575,0.49056603773584906
0.00120240890224,0.5
0.00143592447304,0.5094339622641509
0.00143592447304,0.5188679245283019
0.00152036253844,0.5283018867924528
0.00152036253844,0.5377358490566038
0.00175881074828,0.5471698113207547
0.00175979053801,0.5566037735849056
0.0017748067862,0.5660377358490566
0.00177873251749,0.5754716981132075
0.00178778487209,0.5849056603773585
0.00207407817376,0.5943396226415094
0.00229948143781,0.6037735849056604
0.00264380012116,0.6132075471698113
0.00264380012116,0.6226415094339622
0.00285843058942,0.6320754716981132
0.00287606984702,0.6415094339622641
0.00304391601172,0.6509433962264151
0.00327573137908,0.660377358490566
0.00327573137908,0.6698113207547169
0.00372042836803,0.6792452830188679
0.00413687753691,0.6886792452830188
0.004671483225,0.6981132075471698
0.00477291626713,0.7075471698113207
0.00487981375124,0.7169811320754716
0.00503167641179,0.7264150943396226
0.00680015878573,0.7358490566037735
0.0106038074877,0.7452830188679245
0.0107570721149,0.7547169811320755
0.0229632127743,0.7641509433962265
0.0379824649595,0.7735849056603774
0.0803933603273,0.7830188679245284
0.0803933603273,0.7924528301886793
0.107852619263,0.8018867924528302
0.107852619263,0.8113207547169812
0.107852619263,0.8207547169811321
0.214382294206,0.8301886792452831
0.214382294206,0.839622641509434
0.214382294206,0.8490566037735849
0.215705238527,0.8584905660377359
0.215705238527,0.8679245283018868
0.360948588222,0.8773584905660378
0.360948588222,0.8867924528301887
0.410094651482,0.8962264150943396
0.419974486529,0.9056603773584906
0.419974486529,0.9150943396226415
0.527643224485,0.9245283018867925
0.579831016178,0.9339622641509434
0.579831016178,0.9433962264150944
0.756901459274,0.9528301886792453
0.763200184442,0.9622641509433962
1.64691864651,0.9716981132075472
1.67898789174,0.9811320754716981
2.24624880713,0.9905660377358491
5.50045952732,1.0
