Congestion,CDF
0.0,0.005555555555555556
0.0,0.011111111111111112
0.0,0.016666666666666666
0.0,0.022222222222222223
0.0,0.027777777777777776
0.0,0.03333333333333333
0.0,0.03888888888888889
0.0,0.044444444444444446
0.0,0.05
0.0,0.05555555555555555
3.09018374191e-07,0.06111111111111111
3.55047250301e-07,0.06666666666666667
7.99181943598e-07,0.07222222222222222
1.16805089893e-06,0.07777777777777778
1.19520351017e-06,0.08333333333333333
1.57808007601e-06,0.08888888888888889
1.73609694651e-06,0.09444444444444444
2.39273747876e-06,0.1
2.40508173113e-06,0.10555555555555556
2.46062437123e-06,0.1111111111111111
2.51126684407e-06,0.11666666666666667
2.76439175042e-06,0.12222222222222222
2.82851115395e-06,0.12777777777777777
3.1585810883e-06,0.13333333333333333
3.23502159345e-06,0.1388888888888889
3.40651894424e-06,0.14444444444444443
3.93900430191e-06,0.15
4.31087499379e-06,0.15555555555555556
4.50142181837e-06,0.16111111111111112
4.6816637928e-06,0.16666666666666666
4.75573732578e-06,0.17222222222222222
4.79393219448e-06,0.17777777777777778
4.95276200638e-06,0.18333333333333332
5.12486104596e-06,0.18888888888888888
5.21137089122e-06,0.19444444444444445
5.27022391365e-06,0.2
5.29946314116e-06,0.20555555555555555
5.3603189224e-06,0.2111111111111111
5.41269893579e-06,0.21666666666666667
5.42457653423e-06,0.2222222222222222
5.60582557073e-06,0.22777777777777777
5.65259426592e-06,0.23333333333333334
5.71748252915e-06,0.2388888888888889
6.19172691604e-06,0.24444444444444444
6.51531580424e-06,0.25
7.07373785596e-06,0.25555555555555554
7.18580150904e-06,0.2611111111111111
7.28921040175e-06,0.26666666666666666
7.53605904587e-06,0.2722222222222222
2.66393981199e-05,0.2777777777777778
5.32787962398e-05,0.2833333333333333
5.84025449465e-05,0.28888888888888886
5.84025449465e-05,0.29444444444444445
6.01270432783e-05,0.3
6.01270432783e-05,0.3055555555555556
9.10288806974e-05,0.3111111111111111
0.000119520351017,0.31666666666666665
0.000120254086557,0.32222222222222224
0.000160110077672,0.3277777777777778
0.000239273747876,0.3333333333333333
0.000248836888299,0.3388888888888889
0.000263511195682,0.34444444444444444
0.000263511195682,0.35
0.000336566218321,0.35555555555555557
0.000512486104596,0.3611111111111111
0.000521137089122,0.36666666666666664
0.000537795764394,0.37222222222222223
0.000579369304512,0.37777777777777777
0.000612978041158,0.38333333333333336
0.000612978041158,0.3888888888888889
0.000698979070136,0.39444444444444443
0.000738693042621,0.4
0.00079429311582,0.40555555555555556
0.000849175126732,0.4111111111111111
0.00105494375802,0.4166666666666667
0.00111540119675,0.4222222222222222
0.00117356059823,0.42777777777777776
0.00144277588201,0.43333333333333335
0.00169390256642,0.4388888888888889
0.00177351226661,0.4444444444444444
0.00218997388799,0.45
0.0024808860522,0.45555555555555555
0.00441382276852,0.46111111111111114
0.00536981115788,0.4666666666666667
0.00562068219042,0.4722222222222222
0.00612341706247,0.4777777777777778
0.00627221377085,0.48333333333333334
0.00659899079505,0.4888888888888889
0.00667126821022,0.49444444444444446
0.00706516864041,0.5
0.007630428067,0.5055555555555555
0.00767805645302,0.5111111111111111
0.00780403776165,0.5166666666666667
0.00792411889014,0.5222222222222223
0.00820697000554,0.5277777777777778
0.0168348066069,0.5333333333333333
0.0172801093389,0.5388888888888889
0.0248499952866,0.5444444444444444
0.0249831617763,0.55
0.0249874342807,0.5555555555555556
0.0250284243692,0.5611111111111111
0.0250510500931,0.5666666666666667
0.0250649119584,0.5722222222222222
0.0251002918785,0.5777777777777777
0.0251754781408,0.5833333333333334
0.0251766379826,0.5888888888888889
0.0251864425953,0.5944444444444444
0.0251913244339,0.6
0.0252098087075,0.6055555555555555
0.025246041268,0.6111111111111112
0.0252532431609,0.6166666666666667
0.0252667378103,0.6222222222222222
0.0252989732527,0.6277777777777778
0.0253525439254,0.6333333333333333
0.0253701063902,0.6388888888888888
0.0253763420727,0.6444444444444445
0.0253866994172,0.65
0.0253899947135,0.6555555555555556
0.0254117816861,0.6611111111111111
0.025427521005,0.6666666666666666
0.0254296706658,0.6722222222222223
0.0254356504176,0.6777777777777778
0.0254409994151,0.6833333333333333
0.0254437745289,0.6888888888888889
0.0254492536514,0.6944444444444444
0.0254551836437,0.7
0.025472057299,0.7055555555555556
0.0254823408465,0.7111111111111111
0.0255260738985,0.7166666666666667
0.0255556268272,0.7222222222222222
0.025607485393,0.7277777777777777
0.025617736621,0.7333333333333333
0.0256274311804,0.7388888888888889
0.0256495186047,0.7444444444444445
0.629415949565,0.75
0.629415949565,0.7555555555555555
0.834280812306,0.7611111111111111
0.971092665144,0.7666666666666667
1.25255250466,0.7722222222222223
1.25255250466,0.7777777777777778
1.25883189913,0.7833333333333333
1.27204997076,0.7888888888888889
1.27204997076,0.7944444444444444
1.66856162461,0.8
2.50649119584,0.8055555555555556
2.51754781408,0.8111111111111111
2.5427521005,0.8166666666666667
2.54356504176,0.8222222222222222
3.1277321272,0.8277777777777777
3.15039682032,0.8333333333333334
3.79018671193,0.8388888888888889
3.79665409756,0.8444444444444444
3.82157501717,0.85
4.00773047894,0.8555555555555555
4.00773047894,0.8611111111111112
5.05909858569,0.8666666666666667
5.08827046487,0.8722222222222222
5.63776131505,0.8777777777777778
6.3415794627,0.8833333333333333
6.51993202516,0.8888888888888888
6.55493620884,0.8944444444444445
8.17477195406,0.9
11.6396794192,0.9055555555555556
13.0264059322,0.9111111111111111
14.5126038236,0.9166666666666666
15.5450501917,0.9222222222222223
17.0733523629,0.9277777777777778
29.7291070638,0.9333333333333333
31.0649759525,0.9388888888888889
33.629927813,0.9444444444444444
36.1689272843,0.95
37.3268755912,0.9555555555555556
39.8824382739,0.9611111111111111
42.5020810629,0.9666666666666667
43.6616645596,0.9722222222222222
44.9870805915,0.9777777777777777
46.1915618849,0.9833333333333333
46.6705612522,0.9888888888888889
48.7106943283,0.9944444444444445
50.4387052622,1.0
