Congestion,CDF
0.0,0.005555555555555556
0.0,0.011111111111111112
0.0,0.016666666666666666
0.0,0.022222222222222223
0.0,0.027777777777777776
0.0,0.03333333333333333
0.0,0.03888888888888889
0.0,0.044444444444444446
0.0,0.05
0.0,0.05555555555555555
3.10453358722e-07,0.06111111111111111
3.56695978515e-07,0.06666666666666667
8.02893094203e-07,0.07222222222222222
1.17347496142e-06,0.07777777777777778
1.20075366088e-06,0.08333333333333333
1.58540818556e-06,0.08888888888888889
1.7441588369e-06,0.09444444444444444
2.40384860209e-06,0.1
2.41625017731e-06,0.10555555555555556
2.47205074003e-06,0.1111111111111111
2.52292838065e-06,0.11666666666666667
2.77722871978e-06,0.12222222222222222
2.84164587373e-06,0.12777777777777777
3.17324854946e-06,0.13333333333333333
3.25004402037e-06,0.1388888888888889
3.42233775114e-06,0.14444444444444443
3.95729580401e-06,0.15
4.3308933469e-06,0.15555555555555556
4.52232501125e-06,0.16111111111111112
4.70340397295e-06,0.16666666666666666
4.77782148021e-06,0.17222222222222222
4.81619371391e-06,0.17777777777777778
4.97576108171e-06,0.18333333333333332
5.14865929532e-06,0.18888888888888888
5.2355708652e-06,0.19444444444444445
5.29469718262e-06,0.2
5.32407218795e-06,0.20555555555555555
5.38521056438e-06,0.2111111111111111
5.43783381415e-06,0.21666666666666667
5.44976656843e-06,0.2222222222222222
5.63185726868e-06,0.22777777777777777
5.67884314304e-06,0.23333333333333334
5.74403272704e-06,0.2388888888888889
6.22047935631e-06,0.24444444444444444
6.54557088993e-06,0.25
7.10658607874e-06,0.25555555555555554
7.21917012032e-06,0.2611111111111111
7.32305921154e-06,0.26666666666666666
7.57105414344e-06,0.2722222222222222
2.67631031401e-05,0.2777777777777778
5.35262062802e-05,0.2833333333333333
5.86737480708e-05,0.28888888888888886
5.86737480708e-05,0.29444444444444445
6.04062544328e-05,0.3
6.04062544328e-05,0.3055555555555556
9.1451590305e-05,0.3111111111111111
0.000120075366088,0.31666666666666665
0.000120812508866,0.32222222222222224
0.000160853578719,0.3277777777777778
0.000240384860209,0.3333333333333333
0.000249992408861,0.3388888888888889
0.000264734859131,0.34444444444444444
0.000264734859131,0.35
0.00033812912641,0.35555555555555557
0.000514865929532,0.3611111111111111
0.00052355708652,0.36666666666666664
0.000540293119462,0.37222222222222223
0.000582059714077,0.37777777777777777
0.000615824519169,0.38333333333333336
0.000615824519169,0.3888888888888889
0.000702224909985,0.39444444444444443
0.000742123301719,0.4
0.000797981564241,0.40555555555555556
0.00085311843002,0.4111111111111111
0.00105984258638,0.4166666666666667
0.00112058077051,0.4222222222222222
0.00117901024604,0.42777777777777776
0.00144947568126,0.43333333333333335
0.00170176851933,0.4388888888888889
0.00178174790203,0.4444444444444444
0.00220014344073,0.45
0.0024924065099,0.45555555555555555
0.00443431917885,0.46111111111111114
0.00539474687883,0.4666666666666667
0.00564678287786,0.4722222222222222
0.00615185229317,0.4777777777777778
0.00630133996685,0.48333333333333334
0.00662963444119,0.4888888888888889
0.00670224749004,0.49444444444444446
0.00709797707044,0.5
0.00766586138474,0.5055555555555555
0.00771371094207,0.5111111111111111
0.00784027726843,0.5166666666666667
0.00796091601607,0.5222222222222223
0.00824508060344,0.5277777777777778
0.0213869672107,0.5333333333333333
0.0215584156384,0.5388888888888889
0.0241001484769,0.5444444444444444
0.0242236875154,0.55
0.0242473134131,0.5555555555555556
0.0242486893416,0.5611111111111111
0.0242613437029,0.5666666666666667
0.0242617302401,0.5722222222222222
0.0242732963773,0.5777777777777777
0.0242845820517,0.5833333333333334
0.024308502302,0.5888888888888889
0.0243088853257,0.5944444444444444
0.0243120077586,0.6
0.0243194448379,0.6055555555555555
0.0243308712479,0.6111111111111112
0.0243332627739,0.6166666666666667
0.0243360024582,0.6222222222222222
0.0243365986561,0.6277777777777778
0.0243588082055,0.6333333333333333
0.0243648605834,0.6388888888888888
0.0243704320251,0.6444444444444445
0.024374373953,0.65
0.024375086373,0.6555555555555556
0.0243756825275,0.6611111111111111
0.0243837046926,0.6666666666666666
0.0243886139015,0.6722222222222223
0.024391299287,0.6777777777777778
0.0243929446917,0.6833333333333333
0.0243938797945,0.6888888888888889
0.0243955292964,0.6944444444444444
0.0243974155885,0.7
0.0244028833186,0.7055555555555556
0.0244061403457,0.7111111111111111
0.0244200294219,0.7166666666666667
0.0244292198655,0.7222222222222222
0.0244459363764,0.7277777777777777
0.024449135531,0.7333333333333333
0.0244523225743,0.7388888888888889
0.024458877424,0.7444444444444445
0.607722133141,0.75
0.607722133141,0.7555555555555555
0.808724341337,0.7611111111111111
0.943858925105,0.7666666666666667
1.21306718514,0.7722222222222223
1.21306718514,0.7777777777777778
1.21544426628,0.7833333333333333
1.21964723459,0.7888888888888889
1.21964723459,0.7944444444444444
1.61744868267,0.8
2.42732963773,0.8055555555555556
2.4308502302,0.8111111111111111
2.43886139015,0.8166666666666667
2.4391299287,0.8222222222222222
3.03245347445,0.8277777777777777
3.03966661693,0.8333333333333334
3.64894800569,0.8388888888888889
3.65273435937,0.8444444444444444
3.66067652372,0.85
3.85572574189,0.8555555555555555
3.85572574189,0.8611111111111112
4.86933257992,0.8666666666666667
4.87860294899,0.8722222222222222
5.46091167962,0.8777777777777778
6.09228728901,0.8833333333333333
6.28487701661,0.8888888888888888
6.29601407375,0.8944444444444445
7.89795488212,0.9
11.1735144717,0.9055555555555556
12.5654716927,0.9111111111111111
13.9890663815,0.9166666666666666
14.9966724685,0.9222222222222223
16.4336600191,0.9277777777777778
28.6095749197,0.9333333333333333
29.8494638102,0.9388888888888889
32.2953515526,0.9444444444444444
34.7327889479,0.95
35.9164757523,0.9555555555555556
38.3593977389,0.9611111111111111
40.8192455909,0.9666666666666667
42.0060651699,0.9722222222222222
43.2292604386,0.9777777777777777
44.4397250355,0.9833333333333333
45.3679571597,0.9888888888888889
46.862093787,0.9944444444444445
49.0179353508,1.0
