Congestion,CDF
0.0,0.005555555555555556
0.0,0.011111111111111112
0.0,0.016666666666666666
0.0,0.022222222222222223
0.0,0.027777777777777776
0.0,0.03333333333333333
0.0,0.03888888888888889
0.0,0.044444444444444446
0.0,0.05
0.0,0.05555555555555555
3.46642370081e-07,0.06111111111111111
3.98275412125e-07,0.06666666666666667
8.96484954268e-07,0.07222222222222222
1.31026490913e-06,0.07777777777777778
1.34072343944e-06,0.08333333333333333
1.77021647712e-06,0.08888888888888889
1.94747241747e-06,0.09444444444444444
2.68406107821e-06,0.1
2.69790828361e-06,0.10555555555555556
2.76021342147e-06,0.1111111111111111
2.81702178071e-06,0.11666666666666667
3.10096547077e-06,0.12222222222222222
3.172891621e-06,0.12777777777777777
3.54314864742e-06,0.13333333333333333
3.62889603362e-06,0.1388888888888889
3.82127374675e-06,0.14444444444444443
4.41859093508e-06,0.15
4.83573809772e-06,0.15555555555555556
5.04948462026e-06,0.16111111111111112
5.2516716435e-06,0.16666666666666666
5.33476387095e-06,0.17222222222222222
5.37760908959e-06,0.17777777777777778
5.55577694962e-06,0.18333333333333332
5.74882960911e-06,0.18888888888888888
5.84587231045e-06,0.19444444444444445
5.91189088049e-06,0.2
5.94469007941e-06,0.20555555555555555
6.01295525069e-06,0.2111111111111111
6.07171270172e-06,0.21666666666666667
6.08503643654e-06,0.2222222222222222
6.28835313494e-06,0.22777777777777777
6.34081607145e-06,0.23333333333333334
6.41360469257e-06,0.2388888888888889
6.9455898818e-06,0.24444444444444444
7.30857677353e-06,0.25
7.93498853309e-06,0.25555555555555554
8.06069630179e-06,0.2611111111111111
8.17669556478e-06,0.26666666666666666
8.45359883719e-06,0.2722222222222222
2.98828318089e-05,0.2777777777777778
5.97656636179e-05,0.2833333333333333
6.55132454567e-05,0.28888888888888886
6.55132454567e-05,0.29444444444444445
6.74477070903e-05,0.3
6.74477070903e-05,0.3055555555555556
0.000102111944098,0.3111111111111111
0.000134072343944,0.31666666666666665
0.000134895414181,0.32222222222222224
0.000179604002329,0.3277777777777778
0.000268406107821,0.3333333333333333
0.000279133591811,0.3388888888888889
0.000295594544025,0.34444444444444444
0.000295594544025,0.35
0.000377544254167,0.35555555555555557
0.000574882960911,0.3611111111111111
0.000584587231045,0.36666666666666664
0.000603274154416,0.37222222222222223
0.000649909408766,0.37777777777777777
0.000687610118819,0.38333333333333336
0.000687610118819,0.3888888888888889
0.000784082053837,0.39444444444444443
0.000828631332124,0.4
0.000891000895748,0.40555555555555556
0.000952564970659,0.4111111111111111
0.00118338660457,0.4166666666666667
0.00125120493383,0.4222222222222222
0.00131644543231,0.42777777777777776
0.00161843855578,0.43333333333333335
0.00190014073385,0.4388888888888889
0.00198944317494,0.4444444444444444
0.00245661035832,0.45
0.00278294202825,0.45555555555555555
0.00369072448075,0.46111111111111114
0.00417339934489,0.4666666666666667
0.00495122010011,0.4722222222222222
0.00602360319683,0.4777777777777778
0.00630501859659,0.48333333333333334
0.00686896308055,0.4888888888888889
0.00703587627394,0.49444444444444446
0.00740243946764,0.5
0.00748351689407,0.5055555555555555
0.00792537598758,0.5111111111111111
0.00855945759472,0.5166666666666667
0.00861288489223,0.5222222222222223
0.00875420483647,0.5277777777777778
0.00888890623438,0.5333333333333333
0.00920619539648,0.5388888888888889
0.0140633365657,0.5444444444444444
0.0142487998989,0.55
0.0142548103487,0.5555555555555556
0.0143125699512,0.5611111111111111
0.0143483930633,0.5666666666666667
0.0143640103935,0.5722222222222222
0.0144138468791,0.5777777777777777
0.0145197927476,0.5833333333333334
0.0145214186813,0.5888888888888889
0.0145352326015,0.5944444444444444
0.0145420491972,0.6
0.0145681561339,0.6055555555555555
0.014619272364,0.6111111111111112
0.0146293604978,0.6166666666666667
0.0146492321708,0.6222222222222222
0.0146984004993,0.6277777777777778
0.0147692830351,0.6333333333333333
0.0147940401135,0.6388888888888888
0.0148098714712,0.6444444444444445
0.0148174385444,0.65
0.0148233793095,0.6555555555555556
0.0148527569862,0.6611111111111111
0.0148749943329,0.6666666666666666
0.0148838275005,0.6722222222222223
0.0148863902002,0.6777777777777778
0.0148939613423,0.6833333333333333
0.0148978404687,0.6888888888888889
0.0149056173139,0.6944444444444444
0.0149139735129,0.7
0.0149376907917,0.7055555555555556
0.0149521902495,0.7111111111111111
0.0150138296568,0.7166666666666667
0.0150555972213,0.7222222222222222
0.0151285438868,0.7277777777777777
0.0151430261347,0.7333333333333333
0.0151566254487,0.7388888888888889
0.0151880271678,0.7444444444444445
0.363035467034,0.75
0.363035467034,0.7555555555555555
0.47708566504,0.7611111111111111
0.552851710508,0.7666666666666667
0.717419653165,0.7722222222222223
0.717419653165,0.7777777777777778
0.726070934067,0.7833333333333333
0.744698067113,0.7888888888888889
0.744698067113,0.7944444444444444
0.954171330079,0.8
1.43640103935,0.8055555555555556
1.45197927476,0.8111111111111111
1.48749943329,0.8166666666666667
1.48863902002,0.8222222222222222
1.78791545692,0.8277777777777777
1.81985108042,0.8333333333333334
2.19840680028,0.8388888888888889
2.20662530351,0.8444444444444444
2.24173347893,0.85
2.32942042939,0.8555555555555555
2.32942042939,0.8611111111111112
2.93778400504,0.8666666666666667
2.97889678458,0.8722222222222222
3.22930014483,0.8777777777777778
3.6971870349,0.8833333333333333
3.77386504897,0.8888888888888888
3.82318950856,0.8944444444444445
4.70870415618,0.9
6.7971042272,0.9055555555555556
7.52876651323,0.9111111111111111
8.400600523,0.9166666666666666
8.98228977338,0.9222222222222223
9.91345491168,0.9277777777777778
17.2691780474,0.9333333333333333
18.1038413446,0.9388888888888889
19.6226440614,0.9444444444444444
21.1049819924,0.95
21.6887059069,0.9555555555555556
23.1942656291,0.9611111111111111
24.7917715427,0.9666666666666667
25.3766084993,0.9722222222222222
26.1981051993,0.9777777777777777
26.5671776474,0.9833333333333333
26.8464485492,0.9888888888888889
28.300653469,0.9944444444444445
28.7179934034,1.0
