Congestion,CDF
0.0,0.007352941176470588
0.0,0.014705882352941176
0.0,0.022058823529411766
0.0,0.029411764705882353
0.0,0.03676470588235294
0.0,0.04411764705882353
0.0,0.051470588235294115
0.0,0.058823529411764705
0.0,0.0661764705882353
0.0,0.07352941176470588
0.0,0.08088235294117647
0.0,0.08823529411764706
0.0,0.09558823529411764
0.0,0.10294117647058823
4.34831887821e-06,0.11029411764705882
4.34831887821e-06,0.11764705882352941
4.34831887821e-06,0.125
4.34831887821e-06,0.1323529411764706
4.34831887821e-06,0.13970588235294118
4.34831887821e-06,0.14705882352941177
4.34831887821e-06,0.15441176470588236
4.34831887821e-06,0.16176470588235295
4.34831887821e-06,0.16911764705882354
4.34831887821e-06,0.17647058823529413
4.34831887821e-06,0.18382352941176472
4.34831887821e-06,0.19117647058823528
4.34831887821e-06,0.19852941176470587
4.34831887821e-06,0.20588235294117646
4.34831887821e-06,0.21323529411764705
4.34831887821e-06,0.22058823529411764
4.34831887821e-06,0.22794117647058823
4.34831887821e-06,0.23529411764705882
4.34831887821e-06,0.2426470588235294
4.34831887821e-06,0.25
4.34831887821e-06,0.25735294117647056
4.34831887821e-06,0.2647058823529412
4.34831887821e-06,0.27205882352941174
4.34831887821e-06,0.27941176470588236
4.34831887821e-06,0.2867647058823529
4.34831887821e-06,0.29411764705882354
4.34831887821e-06,0.3014705882352941
0.000108707971955,0.3088235294117647
0.000108707971955,0.3161764705882353
0.000117404609712,0.3235294117647059
0.000217415943911,0.33088235294117646
0.000217415943911,0.3382352941176471
0.000217415943911,0.34558823529411764
0.000217415943911,0.35294117647058826
0.000326123915866,0.3602941176470588
0.000362359906518,0.36764705882352944
0.000362359906518,0.375
0.000362359906518,0.38235294117647056
0.000434831887821,0.3897058823529412
0.000434831887821,0.39705882352941174
0.000434831887821,0.40441176470588236
0.000434831887821,0.4117647058823529
0.000434831887821,0.41911764705882354
0.000434831887821,0.4264705882352941
0.000434831887821,0.4338235294117647
0.000543539859776,0.4411764705882353
0.000652247831732,0.4485294117647059
0.000652247831732,0.45588235294117646
0.000797191794339,0.4632352941176471
0.000869663775642,0.47058823529411764
0.000869663775642,0.47794117647058826
0.00130449566346,0.4852941176470588
0.00177556354194,0.49264705882352944
0.0031525311867,0.5
0.00322500316801,0.5073529411764706
0.00416713892495,0.5147058823529411
0.0051817466632,0.5220588235294118
0.0052542186445,0.5294117647058824
0.00561657855102,0.5367647058823529
0.00568905053233,0.5441176470588235
0.00612388242015,0.5514705882352942
0.0304333022949,0.5588235294117647
0.0313105758289,0.5661764705882353
0.0417100036568,0.5735294117647058
0.0417830746316,0.5808823529411765
0.0419386482084,0.5882352941176471
0.0419726880772,0.5955882352941176
0.0420004033661,0.6029411764705882
0.0420287154841,0.6102941176470589
0.0420998793565,0.6176470588235294
0.0421127792573,0.625
0.0421228205782,0.6323529411764706
0.0421285079993,0.6397058823529411
0.0421298189364,0.6470588235294118
0.0421306886648,0.6544117647058824
0.0421315408843,0.6617647058823529
0.0421322685921,0.6691176470588235
0.0421326543323,0.6764705882352942
0.0421342612979,0.6838235294117647
0.0421361563988,0.6911764705882353
0.0421434952265,0.6985294117647058
0.0421460856222,0.7058823529411765
0.0421460968593,0.7132352941176471
0.0421461867546,0.7205882352941176
0.0421461903099,0.7279411764705882
0.0421464013854,0.7352941176470589
0.0421464037559,0.7426470588235294
0.0421464037559,0.75
1.05326721662,0.7573529411764706
1.05335653245,0.7647058823529411
1.11373605152,0.7720588235294118
2.10143577421,0.7794117647058824
2.10143577421,0.7867647058823529
2.10680781994,0.7941176470588235
2.10680781994,0.8014705882352942
3.15980164986,0.8088235294117647
3.51095104695,0.8161764705882353
3.51095104695,0.8235294117647058
3.51095104695,0.8308823529411765
4.20004033661,0.8382352941176471
4.21322685921,0.8455882352941176
4.21342612979,0.8529411764705882
4.21460968593,0.8602941176470589
4.21461903099,0.8676470588235294
4.21464037559,0.875
4.21464037559,0.8823529411764706
5.26653264985,0.8897058823529411
6.29530059504,0.8970588235294118
6.31965861987,0.9044117647058824
7.72222897268,0.9117647058823529
8.39730914433,0.9191176470588235
8.42923770645,0.9264705882352942
12.6439208897,0.9338235294117647
17.2038646444,0.9411764705882353
30.5557333768,0.9485294117647058
31.237517327,0.9558823529411765
40.3878417663,0.9632352941176471
50.101127432,0.9705882352941176
50.919782444,0.9779411764705882
53.1444576615,0.9852941176470589
55.0980899072,0.9926470588235294
58.22914749,1.0
