Congestion,CDF
0.0,0.007352941176470588
0.0,0.014705882352941176
0.0,0.022058823529411766
0.0,0.029411764705882353
0.0,0.03676470588235294
0.0,0.04411764705882353
0.0,0.051470588235294115
0.0,0.058823529411764705
0.0,0.0661764705882353
0.0,0.07352941176470588
0.0,0.08088235294117647
0.0,0.08823529411764706
0.0,0.09558823529411764
0.0,0.10294117647058823
4.20619300618e-06,0.11029411764705882
4.20619300618e-06,0.11764705882352941
4.20619300618e-06,0.125
4.20619300618e-06,0.1323529411764706
4.20619300618e-06,0.13970588235294118
4.20619300618e-06,0.14705882352941177
4.20619300618e-06,0.15441176470588236
4.20619300618e-06,0.16176470588235295
4.20619300618e-06,0.16911764705882354
4.20619300618e-06,0.17647058823529413
4.20619300618e-06,0.18382352941176472
4.20619300618e-06,0.19117647058823528
4.20619300618e-06,0.19852941176470587
4.20619300618e-06,0.20588235294117646
4.20619300618e-06,0.21323529411764705
4.20619300618e-06,0.22058823529411764
4.20619300618e-06,0.22794117647058823
4.20619300618e-06,0.23529411764705882
4.20619300618e-06,0.2426470588235294
4.20619300618e-06,0.25
4.20619300618e-06,0.25735294117647056
4.20619300618e-06,0.2647058823529412
4.20619300618e-06,0.27205882352941174
4.20619300618e-06,0.27941176470588236
4.20619300618e-06,0.2867647058823529
4.20619300618e-06,0.29411764705882354
4.20619300618e-06,0.3014705882352941
0.000105154825154,0.3088235294117647
0.000105154825154,0.3161764705882353
0.000113567211167,0.3235294117647059
0.000210309650309,0.33088235294117646
0.000210309650309,0.3382352941176471
0.000210309650309,0.34558823529411764
0.000210309650309,0.35294117647058826
0.000315464475463,0.3602941176470588
0.000350516083848,0.36764705882352944
0.000350516083848,0.375
0.000350516083848,0.38235294117647056
0.000420619300618,0.3897058823529412
0.000420619300618,0.39705882352941174
0.000420619300618,0.40441176470588236
0.000420619300618,0.4117647058823529
0.000420619300618,0.41911764705882354
0.000420619300618,0.4264705882352941
0.000420619300618,0.4338235294117647
0.000525774125772,0.4411764705882353
0.000630928950927,0.4485294117647059
0.000630928950927,0.45588235294117646
0.000771135384466,0.4632352941176471
0.000841238601236,0.47058823529411764
0.000841238601236,0.47794117647058826
0.00126185790185,0.4852941176470588
0.00171752881086,0.49264705882352944
0.00304948992948,0.5
0.00311959314625,0.5073529411764706
0.00403093496426,0.5147058823529411
0.00501237999903,0.5220588235294118
0.0050824832158,0.5294117647058824
0.00543299929965,0.5367647058823529
0.00550310251642,0.5441176470588235
0.00592372181704,0.5514705882352942
0.0457669535554,0.5588235294117647
0.0464122880416,0.5661764705882353
0.0537256056623,0.5735294117647058
0.0537863770898,0.5808823529411765
0.0538911691071,0.5882352941176471
0.0539226601036,0.5955882352941176
0.0539443189398,0.6029411764705882
0.0539735958298,0.6102941176470589
0.0540442588688,0.6176470588235294
0.0540553289037,0.625
0.0540661885326,0.6323529411764706
0.0540709691759,0.6397058823529411
0.05407216423,0.6470588235294118
0.0540730136567,0.6544117647058824
0.0540739611879,0.6617647058823529
0.0540746055444,0.6691176470588235
0.0540749868705,0.6764705882352942
0.0540765811157,0.6838235294117647
0.0540785067018,0.6911764705882353
0.0540858330069,0.6985294117647058
0.0540884011642,0.7058823529411765
0.0540884118791,0.7132352941176471
0.0540885017049,0.7205882352941176
0.0540885052055,0.7279411764705882
0.0540887163126,0.7352941176470589
0.0540887186465,0.7426470588235294
0.0540887186465,0.75
1.35182534142,0.7573529411764706
1.35191452789,0.7647058823529411
1.44288933968,0.7720588235294118
2.69867979149,0.7794117647058824
2.69867979149,0.7867647058823529
2.70392533509,0.7941176470588235
2.70392533509,0.8014705882352942
4.05547602425,0.8088235294117647
4.50614534364,0.8161764705882353
4.50614534364,0.8235294117647058
4.50614534364,0.8308823529411765
5.39443189398,0.8382352941176471
5.40746055444,0.8455882352941176
5.40765811157,0.8529411764705882
5.40884118791,0.8602941176470589
5.40885052055,0.8676470588235294
5.40887186465,0.875
5.40887186465,0.8823529411764706
6.75932402847,0.8897058823529411
8.0877967022,0.8970588235294118
8.11102225267,0.9044117647058824
9.91167823401,0.9117647058823529
10.7866979043,0.9191176470588235
10.817700691,0.9264705882352942
16.2266153606,0.9338235294117647
22.0803260453,0.9411764705882353
39.2139118838,0.9485294117647058
40.0951099577,0.9558823529411765
51.8325658633,0.9632352941176471
64.3421651305,0.9705882352941176
65.3502069692,0.9779411764705882
68.918860486,0.9852941176470589
70.7288446782,0.9926470588235294
75.3700734823,1.0
