Congestion,CDF
0.0,0.007352941176470588
0.0,0.014705882352941176
0.0,0.022058823529411766
0.0,0.029411764705882353
0.0,0.03676470588235294
0.0,0.04411764705882353
0.0,0.051470588235294115
0.0,0.058823529411764705
0.0,0.0661764705882353
0.0,0.07352941176470588
0.0,0.08088235294117647
0.0,0.08823529411764706
0.0,0.09558823529411764
0.0,0.10294117647058823
4.66206284983e-06,0.11029411764705882
4.66206284983e-06,0.11764705882352941
4.66206284983e-06,0.125
4.66206284983e-06,0.1323529411764706
4.66206284983e-06,0.13970588235294118
4.66206284983e-06,0.14705882352941177
4.66206284983e-06,0.15441176470588236
4.66206284983e-06,0.16176470588235295
4.66206284983e-06,0.16911764705882354
4.66206284983e-06,0.17647058823529413
4.66206284983e-06,0.18382352941176472
4.66206284983e-06,0.19117647058823528
4.66206284983e-06,0.19852941176470587
4.66206284983e-06,0.20588235294117646
4.66206284983e-06,0.21323529411764705
4.66206284983e-06,0.22058823529411764
4.66206284983e-06,0.22794117647058823
4.66206284983e-06,0.23529411764705882
4.66206284983e-06,0.2426470588235294
4.66206284983e-06,0.25
4.66206284983e-06,0.25735294117647056
4.66206284983e-06,0.2647058823529412
4.66206284983e-06,0.27205882352941174
4.66206284983e-06,0.27941176470588236
4.66206284983e-06,0.2867647058823529
4.66206284983e-06,0.29411764705882354
4.66206284983e-06,0.3014705882352941
0.000116551571246,0.3088235294117647
0.000116551571246,0.3161764705882353
0.000125875696945,0.3235294117647059
0.000233103142491,0.33088235294117646
0.000233103142491,0.3382352941176471
0.000233103142491,0.34558823529411764
0.000233103142491,0.35294117647058826
0.000349654713737,0.3602941176470588
0.000388505237486,0.36764705882352944
0.000388505237486,0.375
0.000388505237486,0.38235294117647056
0.000466206284983,0.3897058823529412
0.000466206284983,0.39705882352941174
0.000466206284983,0.40441176470588236
0.000466206284983,0.4117647058823529
0.000466206284983,0.41911764705882354
0.000466206284983,0.4264705882352941
0.000466206284983,0.4338235294117647
0.000582757856228,0.4411764705882353
0.000699309427474,0.4485294117647059
0.000699309427474,0.45588235294117646
0.000854711522468,0.4632352941176471
0.000932412569965,0.47058823529411764
0.000932412569965,0.47794117647058826
0.00139861885495,0.4852941176470588
0.00190367566368,0.49264705882352944
0.00337999556612,0.5
0.00345769661362,0.5073529411764706
0.00446781023108,0.5147058823529411
0.00555562489604,0.5220588235294118
0.00563332594354,0.5294117647058824
0.00602183118103,0.5367647058823529
0.00609953222852,0.5441176470588235
0.00656573851351,0.5514705882352942
0.0247699401295,0.5588235294117647
0.0250043402285,0.5661764705882353
0.0274429021264,0.5735294117647058
0.0274838365048,0.5808823529411765
0.0275099052616,0.5882352941176471
0.027536401715,0.5955882352941176
0.027547138721,0.6029411764705882
0.0275788797029,0.6102941176470589
0.027647035887,0.6176470588235294
0.0276546579348,0.625
0.027666983849,0.6323529411764706
0.0276700724923,0.6397058823529411
0.0276710014996,0.6470588235294118
0.0276717913066,0.6544117647058824
0.0276729600274,0.6617647058823529
0.0276734133017,0.6691176470588235
0.0276737790133,0.6764705882352942
0.0276753360643,0.6838235294117647
0.0276773617098,0.6911764705882353
0.0276846211737,0.6985294117647058
0.027687133184,0.7058823529411765
0.0276871422758,0.7132352941176471
0.0276872317438,0.7205882352941176
0.0276872350006,0.7279411764705882
0.0276874462322,0.7352941176470589
0.0276874484037,0.7426470588235294
0.0276874484037,0.75
0.691794782664,0.7573529411764706
0.691883401607,0.7647058823529411
0.740723443893,0.7720588235294118
1.37894398514,0.7794117647058824
1.37894398514,0.7867647058823529
1.38386808549,0.7941176470588235
1.38386808549,0.8014705882352942
2.07538434799,0.8088235294117647
2.30604490092,0.8161764705882353
2.30604490092,0.8235294117647058
2.30604490092,0.8308823529411765
2.7547138721,0.8382352941176471
2.76734133017,0.8455882352941176
2.76753360643,0.8529411764705882
2.76871422758,0.8602941176470589
2.76872350006,0.8676470588235294
2.76874484037,0.875
2.76874484037,0.8823529411764706
3.45917268399,0.8897058823529411
4.12993451131,0.8970588235294118
4.15087533472,0.9044117647058824
5.07151069441,0.9117647058823529
5.5083540436,0.9191176470588235
5.53744667444,0.9264705882352942
8.30623430395,0.9338235294117647
11.2998549178,0.9411764705882353
20.072991926,0.9485294117647058
20.5150131861,0.9558823529411765
26.5313670298,0.9632352941176471
32.8975919536,0.9705882352941176
33.4489407494,0.9779411764705882
35.3745859666,0.9852941176470589
36.1973243999,0.9926470588235294
38.6977584227,1.0
