Congestion,CDF
0.0,0.007352941176470588
0.0,0.014705882352941176
0.0,0.022058823529411766
0.0,0.029411764705882353
0.0,0.03676470588235294
0.0,0.04411764705882353
0.0,0.051470588235294115
0.0,0.058823529411764705
0.0,0.0661764705882353
0.0,0.07352941176470588
0.0,0.08088235294117647
0.0,0.08823529411764706
0.0,0.09558823529411764
0.0,0.10294117647058823
4.887577179e-06,0.11029411764705882
4.887577179e-06,0.11764705882352941
4.887577179e-06,0.125
4.887577179e-06,0.1323529411764706
4.887577179e-06,0.13970588235294118
4.887577179e-06,0.14705882352941177
4.887577179e-06,0.15441176470588236
4.887577179e-06,0.16176470588235295
4.887577179e-06,0.16911764705882354
4.887577179e-06,0.17647058823529413
4.887577179e-06,0.18382352941176472
4.887577179e-06,0.19117647058823528
4.887577179e-06,0.19852941176470587
4.887577179e-06,0.20588235294117646
4.887577179e-06,0.21323529411764705
4.887577179e-06,0.22058823529411764
4.887577179e-06,0.22794117647058823
4.887577179e-06,0.23529411764705882
4.887577179e-06,0.2426470588235294
4.887577179e-06,0.25
4.887577179e-06,0.25735294117647056
4.887577179e-06,0.2647058823529412
4.887577179e-06,0.27205882352941174
4.887577179e-06,0.27941176470588236
4.887577179e-06,0.2867647058823529
4.887577179e-06,0.29411764705882354
4.887577179e-06,0.3014705882352941
0.000122189429475,0.3088235294117647
0.000122189429475,0.3161764705882353
0.000131964583833,0.3235294117647059
0.00024437885895,0.33088235294117646
0.00024437885895,0.3382352941176471
0.00024437885895,0.34558823529411764
0.00024437885895,0.35294117647058826
0.000366568288425,0.3602941176470588
0.00040729809825,0.36764705882352944
0.00040729809825,0.375
0.00040729809825,0.38235294117647056
0.0004887577179,0.3897058823529412
0.0004887577179,0.39705882352941174
0.0004887577179,0.40441176470588236
0.0004887577179,0.4117647058823529
0.0004887577179,0.41911764705882354
0.0004887577179,0.4264705882352941
0.0004887577179,0.4338235294117647
0.000610947147375,0.4411764705882353
0.000733136576849,0.4485294117647059
0.000733136576849,0.45588235294117646
0.000896055816149,0.4632352941176471
0.000977515435799,0.47058823529411764
0.000977515435799,0.47794117647058826
0.0014662731537,0.4852941176470588
0.00199576068142,0.49264705882352944
0.00354349345477,0.5
0.00362495307442,0.5073529411764706
0.00468392812987,0.5147058823529411
0.00582436280497,0.5220588235294118
0.00590582242462,0.5294117647058824
0.00631312052287,0.5367647058823529
0.00639458014252,0.5441176470588235
0.00682334409871,0.5514705882352942
0.00688333786042,0.5588235294117647
0.00788737399126,0.5661764705882353
0.0227223345684,0.5735294117647058
0.0228331513472,0.5808823529411765
0.0231248842614,0.5882352941176471
0.0231707240248,0.5955882352941176
0.0232223526934,0.6029411764705882
0.0232436983124,0.6102941176470589
0.0233238202164,0.6176470588235294
0.0233445932291,0.625
0.0233514730825,0.6323529411764706
0.0233609654872,0.6397058823529411
0.0233629767743,0.6470588235294118
0.0233640255166,0.6544117647058824
0.0233642865428,0.6617647058823529
0.0233655216136,0.6691176470588235
0.0233659577843,0.6764705882352942
0.0233676761244,0.6838235294117647
0.0233692594352,0.6911764705882353
0.0233768364137,0.6985294117647058
0.0233795833052,0.7058823529411765
0.0233795994998,0.7132352941176471
0.0233796906684,0.7205882352941176
0.0233796950561,0.7279411764705882
0.0233799057237,0.7352941176470589
0.023379908649,0.7426470588235294
0.023379908649,0.75
0.584100637916,0.7573529411764706
0.584191903109,0.7647058823529411
0.597003547069,0.7720588235294118
1.16218491562,0.7794117647058824
1.16218491562,0.7867647058823529
1.16846297176,0.7941176470588235
1.16846297176,0.8014705882352942
1.75230191375,0.8088235294117647
1.9470584335,0.8161764705882353
1.9470584335,0.8235294117647058
1.9470584335,0.8308823529411765
2.32223526934,0.8382352941176471
2.33655216136,0.8455882352941176
2.33676761244,0.8529411764705882
2.33795994998,0.8602941176470589
2.33796950561,0.8676470588235294
2.3379908649,0.875
2.3379908649,0.8823529411764706
2.92069641635,0.8897058823529411
3.47467334176,0.8970588235294118
3.50455952048,0.9044117647058824
4.28151775641,0.9117647058823529
4.63930767182,0.9191176470588235
4.67593857245,0.9264705882352942
7.01397230218,0.9338235294117647
9.54073566549,0.9411764705882353
16.9500210582,0.9485294117647058
17.3168203592,0.9558823529411765
22.4032261049,0.9632352941176471
27.7030348296,0.9705882352941176
28.2429329336,0.9779411764705882
28.3853692394,0.9852941176470589
30.5262480683,0.9926470588235294
31.3149854674,1.0
