Congestion,CDF
0.0,0.009433962264150943
0.0,0.018867924528301886
0.0,0.02830188679245283
0.0,0.03773584905660377
0.0,0.04716981132075472
0.0,0.05660377358490566
0.0,0.0660377358490566
0.0,0.07547169811320754
0.0,0.08490566037735849
0.0,0.09433962264150944
0.0,0.10377358490566038
0.0,0.11320754716981132
0.0,0.12264150943396226
0.0,0.1320754716981132
0.0,0.14150943396226415
0.0,0.1509433962264151
0.0,0.16037735849056603
0.0,0.16981132075471697
0.0,0.1792452830188679
0.0,0.18867924528301888
0.0,0.19811320754716982
0.0,0.20754716981132076
0.0,0.2169811320754717
0.0,0.22641509433962265
0.0,0.2358490566037736
0.0,0.24528301886792453
0.0,0.25471698113207547
0.0,0.2641509433962264
0.0,0.27358490566037735
0.0,0.2830188679245283
1.5996759767e-07,0.29245283018867924
4.12115127384e-06,0.3018867924528302
4.63430624976e-06,0.3113207547169811
6.28256273598e-06,0.32075471698113206
7.09187980056e-06,0.330188679245283
9.4366261645e-06,0.33962264150943394
1.43909999399e-05,0.3490566037735849
1.84212401443e-05,0.3584905660377358
1.9495465558e-05,0.36792452830188677
2.27381626777e-05,0.37735849056603776
2.79961236191e-05,0.3867924528301887
2.86376195813e-05,0.39622641509433965
3.02155068964e-05,0.4056603773584906
0.000193621612239,0.41509433962264153
0.000265405110877,0.42452830188679247
0.000265405110877,0.4339622641509434
0.00069079650541,0.44339622641509435
0.00069079650541,0.4528301886792453
0.00069079650541,0.46226415094339623
0.000707746962338,0.4716981132075472
0.000707746962338,0.4811320754716981
0.000707746962338,0.49056603773584906
0.00109266026588,0.5
0.00130486194303,0.5094339622641509
0.00130486194303,0.5188679245283019
0.00138159301082,0.5283018867924528
0.00138159301082,0.5377358490566038
0.00188476882079,0.5471698113207547
0.00240248998317,0.5566037735849056
0.00240248998317,0.5660377358490566
0.00297674236521,0.5754716981132075
0.00297674236521,0.5849056603773585
0.00375928829283,0.5943396226415094
0.00457241532034,0.6037735849056604
0.00532476203817,0.6132075471698113
0.00617948128376,0.6226415094339622
0.00786087292028,0.6320754716981132
0.00928690163115,0.6415094339622641
0.00963595586097,0.6509433962264151
0.00977523141691,0.660377358490566
0.0103860389392,0.6698113207547169
0.0104738366681,0.6792452830188679
0.0115144553347,0.6886792452830188
0.0128317897733,0.6981132075471698
0.0128630208477,0.7075471698113207
0.0137031743373,0.7169811320754716
0.015321769036,0.7264150943396226
0.015600890469,0.7358490566037735
0.0169146035544,0.7452830188679245
0.0170511719983,0.7547169811320755
0.0208672691366,0.7641509433962265
0.159133287547,0.7735849056603774
0.360894087373,0.7830188679245284
0.360894087373,0.7924528301886793
0.482363281789,0.8018867924528302
0.482363281789,0.8113207547169812
0.482363281789,0.8207547169811321
0.962384232995,0.8301886792452831
0.962384232995,0.839622641509434
0.962384232995,0.8490566037735849
0.964726563577,0.8584905660377359
0.964726563577,0.8679245283018868
1.4827572204,0.8773584905660378
1.76744298222,0.8867924528301887
1.76744298222,0.8962264150943396
2.01804277387,0.9056603773584906
2.01804277387,0.9150943396226415
2.35826187608,0.9245283018867925
2.44636556526,0.9339622641509434
2.44636556526,0.9433962264150944
4.35490153518,0.9528301886792453
4.37465602418,0.9622641509433962
6.03793646462,0.9716981132075472
6.07890699777,0.9811320754716981
9.72936369782,0.9905660377358491
20.0589313568,1.0
