Congestion,CDF
0.0,0.009433962264150943
0.0,0.018867924528301886
0.0,0.02830188679245283
0.0,0.03773584905660377
0.0,0.04716981132075472
0.0,0.05660377358490566
0.0,0.0660377358490566
0.0,0.07547169811320754
0.0,0.08490566037735849
0.0,0.09433962264150944
0.0,0.10377358490566038
0.0,0.11320754716981132
0.0,0.12264150943396226
0.0,0.1320754716981132
0.0,0.14150943396226415
0.0,0.1509433962264151
0.0,0.16037735849056603
0.0,0.16981132075471697
0.0,0.1792452830188679
0.0,0.18867924528301888
0.0,0.19811320754716982
0.0,0.20754716981132076
0.0,0.2169811320754717
0.0,0.22641509433962265
0.0,0.2358490566037736
0.0,0.24528301886792453
0.0,0.25471698113207547
0.0,0.2641509433962264
0.0,0.27358490566037735
0.0,0.2830188679245283
1.57440949307e-07,0.29245283018867924
4.05605871592e-06,0.3018867924528302
4.5611085368e-06,0.3113207547169811
6.18333122235e-06,0.32075471698113206
6.97986532547e-06,0.330188679245283
9.28757700459e-06,0.33962264150943394
1.41636976802e-05,0.3490566037735849
1.81302812443e-05,0.3584905660377358
1.91875395352e-05,0.36792452830188677
2.23790190615e-05,0.37735849056603776
2.75539318194e-05,0.3867924528301887
2.81852955127e-05,0.39622641509433965
2.97382604907e-05,0.4056603773584906
0.000190563407099,0.41509433962264153
0.000261213103254,0.42452830188679247
0.000261213103254,0.4339622641509434
0.000679885546662,0.44339622641509435
0.000679885546662,0.4528301886792453
0.000679885546662,0.46226415094339623
0.000696568275344,0.4716981132075472
0.000696568275344,0.4811320754716981
0.000696568275344,0.49056603773584906
0.00107540196913,0.5
0.00128425197364,0.5094339622641509
0.00128425197364,0.5188679245283019
0.00135977109332,0.5283018867924528
0.00135977109332,0.5377358490566038
0.0018549993667,0.5471698113207547
0.00236454325227,0.5566037735849056
0.00236454325227,0.5660377358490566
0.00292972546096,0.5754716981132075
0.00292972546096,0.5849056603773585
0.00369991127056,0.5943396226415094
0.00450019515919,0.6037735849056604
0.00608187791599,0.6132075471698113
0.00948375833815,0.6226415094339622
0.00962083407137,0.6320754716981132
0.00968489158694,0.6415094339622641
0.0123884125072,0.6509433962264151
0.0190466114796,0.660377358490566
0.0192087394967,0.6698113207547169
0.020537675818,0.6792452830188679
0.0209115789977,0.6886792452830188
0.025413227496,0.6981132075471698
0.0260683754404,0.7075471698113207
0.0276258566757,0.7169811320754716
0.0277744458248,0.7264150943396226
0.0305054847248,0.7358490566037735
0.0317273372993,0.7452830188679245
0.0343239664628,0.7547169811320755
0.0345978965784,0.7641509433962265
0.31927682457,0.7735849056603774
0.781156288823,0.7830188679245284
0.781156288823,0.7924528301886793
1.03596962534,0.8018867924528302
1.03596962534,0.8113207547169812
1.03596962534,0.8207547169811321
2.07193925068,0.8301886792452831
2.07193925068,0.839622641509434
2.08308343686,0.8490566037735849
2.08308343686,0.8584905660377359
2.08308343686,0.8679245283018868
3.04489337607,0.8773584905660378
3.71652375216,0.8867924528301887
3.91068614507,0.8962264150943396
3.91068614507,0.9056603773584906
4.41712160113,0.9150943396226415
4.41712160113,0.9245283018867925
5.127458954,0.9339622641509434
5.127458954,0.9433962264150944
8.70260918403,0.9528301886792453
8.73908798789,0.9622641509433962
12.3747012826,0.9716981132075472
12.4568803173,0.9811320754716981
19.8713727642,0.9905660377358491
40.819838956,1.0
