Congestion,CDF
0.0330082303708,0.005555555555555556
0.0330082303708,0.011111111111111112
0.0330198733341,0.016666666666666666
0.0330198733341,0.022222222222222223
0.0335998304971,0.027777777777777776
0.0335998304971,0.03333333333333333
0.0336080920595,0.03888888888888889
0.0336080920595,0.044444444444444446
0.0338015518504,0.05
0.0338015518504,0.05555555555555555
0.0338094577623,0.06111111111111111
0.0338094577623,0.06666666666666667
0.0345396596514,0.07222222222222222
0.0345396596514,0.07777777777777778
0.0346088468048,0.08333333333333333
0.0346088468048,0.08888888888888889
0.0354388378307,0.09444444444444444
0.0354388378307,0.1
0.0357007993411,0.10555555555555556
0.0357007993411,0.1111111111111111
0.0358220454791,0.11666666666666667
0.0358220454791,0.12222222222222222
0.0358759228487,0.12777777777777777
0.0358759228487,0.13333333333333333
0.0360866885838,0.1388888888888889
0.0360866885838,0.14444444444444443
0.0363443404756,0.15
0.0363443404756,0.15555555555555556
0.0364358668414,0.16111111111111112
0.0364358668414,0.16666666666666666
0.0366594616284,0.17222222222222222
0.0366594616284,0.17777777777777778
0.0367132056627,0.18333333333333332
0.0367132056627,0.18888888888888888
0.0367650749434,0.19444444444444445
0.0367650749434,0.2
0.0368081802685,0.20555555555555555
0.0368081802685,0.2111111111111111
0.0368977406849,0.21666666666666667
0.0368977406849,0.2222222222222222
0.0371281439389,0.22777777777777777
0.0371281439389,0.23333333333333334
0.0371908926644,0.2388888888888889
0.0371908926644,0.24444444444444444
0.0374384965441,0.25
0.0374384965441,0.25555555555555554
0.0376371594983,0.2611111111111111
0.0376371594983,0.26666666666666666
0.0379413444251,0.2722222222222222
0.0379413444251,0.2777777777777778
0.0380423849395,0.2833333333333333
0.0380423849395,0.28888888888888886
0.0382807206839,0.29444444444444445
0.0382807206839,0.3
0.0384627156278,0.3055555555555556
0.0384627156278,0.3111111111111111
0.038521517529,0.31666666666666665
0.038521517529,0.32222222222222224
0.0386252490281,0.3277777777777778
0.0386252490281,0.3333333333333333
0.0387023544703,0.3388888888888889
0.0387023544703,0.34444444444444444
0.0387451382514,0.35
0.0387451382514,0.35555555555555557
0.0390123060573,0.3611111111111111
0.0390123060573,0.36666666666666664
0.0391719803031,0.37222222222222223
0.0391719803031,0.37777777777777777
0.0392628965196,0.38333333333333336
0.0392628965196,0.3888888888888889
0.0393512087088,0.39444444444444443
0.0393512087088,0.4
0.0395327405196,0.40555555555555556
0.0395327405196,0.4111111111111111
0.0397195309947,0.4166666666666667
0.0397195309947,0.4222222222222222
0.0400668953004,0.42777777777777776
0.0400668953004,0.43333333333333335
0.0404914784127,0.4388888888888889
0.0404914784127,0.4444444444444444
1.03291174395,0.45
1.03291174395,0.45555555555555555
1.18655871007,0.46111111111111114
1.18655871007,0.4666666666666667
1.28912115271,0.4722222222222222
1.28912115271,0.4777777777777778
1.37807673163,0.48333333333333334
1.37807673163,0.4888888888888889
2.16261371126,0.49444444444444446
2.16261371126,0.5
2.73331178376,0.5055555555555555
2.73331178376,0.5111111111111111
3.12890844889,0.5166666666666667
3.12890844889,0.5222222222222223
3.20695129436,0.5277777777777778
3.20695129436,0.5333333333333333
3.94284673473,0.5388888888888889
3.94284673473,0.5444444444444444
4.23456902342,0.55
4.23456902342,0.5555555555555556
4.39908064527,0.5611111111111111
4.39908064527,0.5666666666666667
4.41241231091,0.5722222222222222
4.41241231091,0.5777777777777777
4.48962537879,0.5833333333333334
4.48962537879,0.5888888888888889
4.58273963354,0.5944444444444444
4.58273963354,0.6
4.66400874245,0.6055555555555555
4.66400874245,0.6111111111111112
4.9768910264,0.6166666666666667
4.9768910264,0.6222222222222222
5.02974026646,0.6277777777777778
5.02974026646,0.6333333333333333
5.17198493624,0.6388888888888888
5.17198493624,0.6444444444444445
5.19066149564,0.65
5.19066149564,0.6555555555555556
5.39978064984,0.6611111111111111
5.39978064984,0.6666666666666666
5.54330353131,0.6722222222222223
5.54330353131,0.6777777777777778
5.7306869415,0.6833333333333333
5.7306869415,0.6888888888888889
5.79089290269,0.6944444444444444
5.79089290269,0.7
5.82029224869,0.7055555555555556
5.82029224869,0.7111111111111111
6.18318443384,0.7166666666666667
6.18318443384,0.7222222222222222
6.51683279083,0.7277777777777777
6.51683279083,0.7333333333333333
6.67158102513,0.7388888888888889
6.67158102513,0.7444444444444445
7.94132235957,0.75
7.94132235957,0.7555555555555555
8.15008070197,0.7611111111111111
8.15008070197,0.7666666666666667
8.20142018369,0.7722222222222223
8.20142018369,0.7777777777777778
8.61803702111,0.7833333333333333
8.61803702111,0.7888888888888889
8.98522524751,0.7944444444444444
8.98522524751,0.8
9.0552163625,0.8055555555555556
9.0552163625,0.8111111111111111
9.50227708285,0.8166666666666667
9.50227708285,0.8222222222222222
10.0291167572,0.8277777777777777
10.0291167572,0.8333333333333334
10.2620982115,0.8388888888888889
10.2620982115,0.8444444444444444
10.984050024,0.85
10.984050024,0.8555555555555555
11.9828355996,0.8611111111111112
11.9828355996,0.8666666666666667
12.4086689438,0.8722222222222222
12.4086689438,0.8777777777777778
13.2435926987,0.8833333333333333
13.2435926987,0.8888888888888888
13.3884102593,0.8944444444444445
13.3884102593,0.9
14.4589785992,0.9055555555555556
14.4589785992,0.9111111111111111
15.1340378812,0.9166666666666666
15.1340378812,0.9222222222222223
15.7523439297,0.9277777777777778
15.7523439297,0.9333333333333333
17.3134283734,0.9388888888888889
17.3134283734,0.9444444444444444
17.6371243534,0.95
17.6371243534,0.9555555555555556
18.2394144643,0.9611111111111111
18.2394144643,0.9666666666666667
19.4789386065,0.9722222222222222
19.4789386065,0.9777777777777777
21.1448200914,0.9833333333333333
21.1448200914,0.9888888888888889
22.0885686443,0.9944444444444445
22.0885686443,1.0
