Congestion,CDF
0.0212239210319,0.005555555555555556
0.0212239210319,0.011111111111111112
0.0213783711968,0.016666666666666666
0.0213783711968,0.022222222222222223
0.0215371695491,0.027777777777777776
0.0215371695491,0.03333333333333333
0.0215690524852,0.03888888888888889
0.0215690524852,0.044444444444444446
0.0216124301682,0.05
0.0216124301682,0.05555555555555555
0.0218592298088,0.06111111111111111
0.0218592298088,0.06666666666666667
0.021969120887,0.07222222222222222
0.021969120887,0.07777777777777778
0.0220460790724,0.08333333333333333
0.0220460790724,0.08888888888888889
0.0221885315708,0.09444444444444444
0.0221885315708,0.1
0.0223704276912,0.10555555555555556
0.0223704276912,0.1111111111111111
0.022566758591,0.11666666666666667
0.022566758591,0.12222222222222222
0.0227152112225,0.12777777777777777
0.0227152112225,0.13333333333333333
0.0227550723961,0.1388888888888889
0.0227550723961,0.14444444444444443
0.0227823965711,0.15
0.0227823965711,0.15555555555555556
0.022851811426,0.16111111111111112
0.022851811426,0.16666666666666666
0.0231053979562,0.17222222222222222
0.0231053979562,0.17777777777777778
0.0232635665697,0.18333333333333332
0.0232635665697,0.18888888888888888
0.0232779435519,0.19444444444444445
0.0232779435519,0.2
0.0234101898421,0.20555555555555555
0.0234101898421,0.2111111111111111
0.0234231923488,0.21666666666666667
0.0234231923488,0.2222222222222222
0.0234295127316,0.22777777777777777
0.0234295127316,0.23333333333333334
0.0235209013271,0.2388888888888889
0.0235209013271,0.24444444444444444
0.0235570888591,0.25
0.0235570888591,0.25555555555555554
0.0236515415084,0.2611111111111111
0.0236515415084,0.26666666666666666
0.0240200978784,0.2722222222222222
0.0240200978784,0.2777777777777778
0.0245986798076,0.2833333333333333
0.0245986798076,0.28888888888888886
0.0250625734086,0.29444444444444445
0.0250625734086,0.3
0.0252808907503,0.3055555555555556
0.0252808907503,0.3111111111111111
0.0254539596255,0.31666666666666665
0.0254539596255,0.32222222222222224
0.0254626783682,0.3277777777777778
0.0254626783682,0.3333333333333333
0.0255403290435,0.3388888888888889
0.0255403290435,0.34444444444444444
0.0255785880232,0.35
0.0255785880232,0.35555555555555557
0.0257965146445,0.3611111111111111
0.0257965146445,0.36666666666666664
0.0260298078894,0.37222222222222223
0.0260298078894,0.37777777777777777
0.026146376899,0.38333333333333336
0.026146376899,0.3888888888888889
0.0261655966924,0.39444444444444443
0.0261655966924,0.4
0.0261880421266,0.40555555555555556
0.0261880421266,0.4111111111111111
0.0262939368317,0.4166666666666667
0.0262939368317,0.4222222222222222
0.0265624569712,0.42777777777777776
0.0265624569712,0.43333333333333335
0.026970374255,0.4388888888888889
0.026970374255,0.4444444444444444
0.633712188428,0.45
0.633712188428,0.45555555555555555
0.733950131458,0.46111111111111114
0.733950131458,0.4666666666666667
0.773646508859,0.4722222222222222
0.773646508859,0.4777777777777778
0.792783529664,0.48333333333333334
0.792783529664,0.4888888888888889
1.34379819868,0.49444444444444446
1.34379819868,0.5
1.62944478242,0.5055555555555555
1.62944478242,0.5111111111111111
1.9979617646,0.5166666666666667
1.9979617646,0.5222222222222223
2.04922192033,0.5277777777777778
2.04922192033,0.5333333333333333
2.4678029661,0.5388888888888889
2.4678029661,0.5444444444444444
2.78129710955,0.55
2.78129710955,0.5555555555555556
2.87956637905,0.5611111111111111
2.87956637905,0.5666666666666667
2.90725545293,0.5722222222222222
2.90725545293,0.5777777777777777
2.94031578141,0.5833333333333334
2.94031578141,0.5888888888888889
2.94833333531,0.5944444444444444
2.94833333531,0.6
3.01218978857,0.6055555555555555
3.01218978857,0.6111111111111112
3.15577343632,0.6166666666666667
3.15577343632,0.6222222222222222
3.23755335356,0.6277777777777778
3.23755335356,0.6333333333333333
3.302931597,0.6388888888888888
3.302931597,0.6444444444444445
3.38666923893,0.65
3.38666923893,0.6555555555555556
3.56083764623,0.6611111111111111
3.56083764623,0.6666666666666666
3.57757427944,0.6722222222222223
3.57757427944,0.6777777777777778
3.70035099607,0.6833333333333333
3.70035099607,0.6888888888888889
3.70650662785,0.6944444444444444
3.70650662785,0.7
3.89284496782,0.7055555555555556
3.89284496782,0.7111111111111111
4.08998182287,0.7166666666666667
4.08998182287,0.7222222222222222
4.17151803336,0.7277777777777777
4.17151803336,0.7333333333333333
4.47893485589,0.7388888888888889
4.47893485589,0.7444444444444445
5.37180174001,0.75
5.37180174001,0.7555555555555555
5.54122686594,0.7611111111111111
5.54122686594,0.7666666666666667
5.54752488255,0.7722222222222223
5.54752488255,0.7777777777777778
5.88722803885,0.7833333333333333
5.88722803885,0.7888888888888889
5.97719507507,0.7944444444444444
5.97719507507,0.8
5.99513840985,0.8055555555555556
5.99513840985,0.8111111111111111
6.48114207278,0.8166666666666667
6.48114207278,0.8222222222222222
6.80563558269,0.8277777777777777
6.80563558269,0.8333333333333334
6.89363052704,0.8388888888888889
6.89363052704,0.8444444444444444
7.47313505972,0.85
7.47313505972,0.8555555555555555
8.2190035992,0.8611111111111112
8.2190035992,0.8666666666666667
8.24636881781,0.8722222222222222
8.24636881781,0.8777777777777778
9.13239357199,0.8833333333333333
9.13239357199,0.8888888888888888
9.16672212278,0.8944444444444445
9.16672212278,0.9
9.98594146959,0.9055555555555556
9.98594146959,0.9111111111111111
10.3231418892,0.9166666666666666
10.3231418892,0.9222222222222223
10.9320408432,0.9277777777777778
10.9320408432,0.9333333333333333
11.9380573561,0.9388888888888889
11.9380573561,0.9444444444444444
12.0292526741,0.95
12.0292526741,0.9555555555555556
12.4450300941,0.9611111111111111
12.4450300941,0.9666666666666667
13.5180838472,0.9722222222222222
13.5180838472,0.9777777777777777
14.6909176126,0.9833333333333333
14.6909176126,0.9888888888888889
15.2802292812,0.9944444444444445
15.2802292812,1.0
