Congestion,CDF
0.0145683203422,0.005555555555555556
0.0145683203422,0.011111111111111112
0.0145730033071,0.016666666666666666
0.0145730033071,0.022222222222222223
0.0146035889625,0.027777777777777776
0.0146035889625,0.03333333333333333
0.014825284918,0.03888888888888889
0.014825284918,0.044444444444444446
0.0149368673657,0.05
0.0149368673657,0.05555555555555555
0.0149760604302,0.06111111111111111
0.0149760604302,0.06666666666666667
0.0150115123862,0.07222222222222222
0.0150115123862,0.07777777777777778
0.0150187614365,0.08333333333333333
0.0150187614365,0.08888888888888889
0.0151013096019,0.09444444444444444
0.0151013096019,0.1
0.01515426354,0.10555555555555556
0.01515426354,0.1111111111111111
0.0152761700985,0.11666666666666667
0.0152761700985,0.12222222222222222
0.0153041388992,0.12777777777777777
0.0153041388992,0.13333333333333333
0.0153815915605,0.1388888888888889
0.0153815915605,0.14444444444444443
0.0154067278402,0.15
0.0154067278402,0.15555555555555556
0.0154659219169,0.16111111111111112
0.0154659219169,0.16666666666666666
0.0155625512111,0.17222222222222222
0.0155625512111,0.17777777777777778
0.0157047155151,0.18333333333333332
0.0157047155151,0.18888888888888888
0.0157221226832,0.19444444444444445
0.0157221226832,0.2
0.0158006935858,0.20555555555555555
0.0158006935858,0.2111111111111111
0.0159223552343,0.21666666666666667
0.0159223552343,0.2222222222222222
0.0159259037639,0.22777777777777777
0.0159259037639,0.23333333333333334
0.0160548793507,0.2388888888888889
0.0160548793507,0.24444444444444444
0.0162198847669,0.25
0.0162198847669,0.25555555555555554
0.0163655795497,0.2611111111111111
0.0163655795497,0.26666666666666666
0.0164764348486,0.2722222222222222
0.0164764348486,0.2777777777777778
0.0169898692936,0.2833333333333333
0.0169898692936,0.28888888888888886
0.0173525749838,0.29444444444444445
0.0173525749838,0.3
0.0176342835788,0.3055555555555556
0.0176342835788,0.3111111111111111
0.0178868131987,0.31666666666666665
0.0178868131987,0.32222222222222224
0.0179485257408,0.3277777777777778
0.0179485257408,0.3333333333333333
0.0180040395828,0.3388888888888889
0.0180040395828,0.34444444444444444
0.0180237479894,0.35
0.0180237479894,0.35555555555555557
0.0180392177319,0.3611111111111111
0.0180392177319,0.36666666666666664
0.0181383182854,0.37222222222222223
0.0181383182854,0.37777777777777777
0.0184374066455,0.38333333333333336
0.0184374066455,0.3888888888888889
0.0184472848518,0.39444444444444443
0.0184472848518,0.4
0.0186473723553,0.40555555555555556
0.0186473723553,0.4111111111111111
0.0188786301878,0.4166666666666667
0.0188786301878,0.4222222222222222
0.0189340430446,0.42777777777777776
0.0189340430446,0.43333333333333335
0.0191969560384,0.4388888888888889
0.0191969560384,0.4444444444444444
0.422193839324,0.45
0.422193839324,0.45555555555555555
0.482158859621,0.46111111111111114
0.482158859621,0.4666666666666667
0.540929339903,0.4722222222222222
0.540929339903,0.4777777777777778
0.542879389634,0.48333333333333334
0.542879389634,0.4888888888888889
0.932593079972,0.49444444444444446
0.932593079972,0.5
1.11988296606,0.5055555555555555
1.11988296606,0.5111111111111111
1.34527111242,0.5166666666666667
1.34527111242,0.5222222222222223
1.3706475398,0.5277777777777778
1.3706475398,0.5333333333333333
1.63266216422,0.5388888888888889
1.63266216422,0.5444444444444444
1.94459269689,0.55
1.94459269689,0.5555555555555556
1.96033686463,0.5611111111111111
1.96033686463,0.5666666666666667
2.01463899667,0.5722222222222222
2.01463899667,0.5777777777777777
2.04011956983,0.5833333333333334
2.04011956983,0.5888888888888889
2.04072370962,0.5944444444444444
2.04072370962,0.6
2.11157970935,0.6055555555555555
2.11157970935,0.6111111111111112
2.12980234448,0.6166666666666667
2.12980234448,0.6222222222222222
2.18817098521,0.6277777777777778
2.18817098521,0.6333333333333333
2.25362383855,0.6388888888888888
2.25362383855,0.6444444444444445
2.38641090483,0.65
2.38641090483,0.6555555555555556
2.4078570382,0.6611111111111111
2.4078570382,0.6666666666666666
2.46670209897,0.6722222222222223
2.46670209897,0.6777777777777778
2.46872488766,0.6833333333333333
2.46872488766,0.6888888888888889
2.60002079012,0.6944444444444444
2.60002079012,0.7
2.76885299971,0.7055555555555556
2.76885299971,0.7111111111111111
2.78830734181,0.7166666666666667
2.78830734181,0.7222222222222222
2.84133607587,0.7277777777777777
2.84133607587,0.7333333333333333
3.17911141562,0.7388888888888889
3.17911141562,0.7444444444444445
3.82794449628,0.75
3.82794449628,0.7555555555555555
3.93299775607,0.7611111111111111
3.93299775607,0.7666666666666667
3.98326893068,0.7722222222222223
3.98326893068,0.7777777777777778
4.17223305844,0.7833333333333333
4.17223305844,0.7888888888888889
4.20331013263,0.7944444444444444
4.20331013263,0.8
4.24766637232,0.8055555555555556
4.24766637232,0.8111111111111111
4.65288661861,0.8166666666666667
4.65288661861,0.8222222222222222
4.83300388339,0.8277777777777777
4.83300388339,0.8333333333333334
4.86145981355,0.8388888888888889
4.86145981355,0.8444444444444444
5.32958495636,0.85
5.32958495636,0.8555555555555555
5.75903553257,0.8611111111111112
5.75903553257,0.8666666666666667
5.9805117172,0.8722222222222222
5.9805117172,0.8777777777777778
6.60219370089,0.8833333333333333
6.60219370089,0.8888888888888888
6.6518670888,0.8944444444444445
6.6518670888,0.9
7.27446765141,0.9055555555555556
7.27446765141,0.9111111111111111
7.39331707051,0.9166666666666666
7.39331707051,0.9222222222222223
8.00459723629,0.9277777777777778
8.00459723629,0.9333333333333333
8.61319520165,0.9388888888888889
8.61319520165,0.9444444444444444
8.68148639387,0.95
8.68148639387,0.9555555555555556
8.89590234319,0.9611111111111111
8.89590234319,0.9666666666666667
9.90835318025,0.9722222222222222
9.90835318025,0.9777777777777777
10.7811561383,0.9833333333333333
10.7811561383,0.9888888888888889
11.1471122086,0.9944444444444445
11.1471122086,1.0
