Congestion,CDF
0.00947756371195,0.005555555555555556
0.00947756371195,0.011111111111111112
0.00985078965395,0.016666666666666666
0.00985078965395,0.022222222222222223
0.00987700482491,0.027777777777777776
0.00987700482491,0.03333333333333333
0.00993892676087,0.03888888888888889
0.00993892676087,0.044444444444444446
0.00999484514298,0.05
0.00999484514298,0.05555555555555555
0.0100689548191,0.06111111111111111
0.0100689548191,0.06666666666666667
0.0100907703017,0.07222222222222222
0.0100907703017,0.07777777777777778
0.0100994328809,0.08333333333333333
0.0100994328809,0.08888888888888889
0.0101392090162,0.09444444444444444
0.0101392090162,0.1
0.0101392676812,0.10555555555555556
0.0101392676812,0.1111111111111111
0.0101873392701,0.11666666666666667
0.0101873392701,0.12222222222222222
0.0102778250436,0.12777777777777777
0.0102778250436,0.13333333333333333
0.010294725546,0.1388888888888889
0.010294725546,0.14444444444444443
0.0103021060061,0.15
0.0103021060061,0.15555555555555556
0.010311825199,0.16111111111111112
0.010311825199,0.16666666666666666
0.0103472879998,0.17222222222222222
0.0103472879998,0.17777777777777778
0.0104134103947,0.18333333333333332
0.0104134103947,0.18888888888888888
0.0104550596796,0.19444444444444445
0.0104550596796,0.2
0.0105221116534,0.20555555555555555
0.0105221116534,0.2111111111111111
0.0105324831339,0.21666666666666667
0.0105324831339,0.2222222222222222
0.0105525437353,0.22777777777777777
0.0105525437353,0.23333333333333334
0.0106412518424,0.2388888888888889
0.0106412518424,0.24444444444444444
0.0106494324311,0.25
0.0106494324311,0.25555555555555554
0.0106572435758,0.2611111111111111
0.0106572435758,0.26666666666666666
0.0106810432398,0.2722222222222222
0.0106810432398,0.2777777777777778
0.0108311688532,0.2833333333333333
0.0108311688532,0.28888888888888886
0.0109969127541,0.29444444444444445
0.0109969127541,0.3
0.0111426497447,0.3055555555555556
0.0111426497447,0.3111111111111111
0.0111723418499,0.31666666666666665
0.0111723418499,0.32222222222222224
0.0111809574982,0.3277777777777778
0.0111809574982,0.3333333333333333
0.0111990190171,0.3388888888888889
0.0111990190171,0.34444444444444444
0.0112723990677,0.35
0.0112723990677,0.35555555555555557
0.0113374754707,0.3611111111111111
0.0113374754707,0.36666666666666664
0.0113420039869,0.37222222222222223
0.0113420039869,0.37777777777777777
0.0113661183545,0.38333333333333336
0.0113661183545,0.3888888888888889
0.0113933771306,0.39444444444444443
0.0113933771306,0.4
0.0114324136265,0.40555555555555556
0.0114324136265,0.4111111111111111
0.011490786506,0.4166666666666667
0.011490786506,0.4222222222222222
0.0115798265713,0.42777777777777776
0.0115798265713,0.43333333333333335
0.0115992428346,0.4388888888888889
0.0115992428346,0.4444444444444444
0.327180346179,0.45
0.327180346179,0.45555555555555555
0.354309839093,0.46111111111111114
0.354309839093,0.4666666666666667
0.401785295047,0.4722222222222222
0.401785295047,0.4777777777777778
0.460282905174,0.48333333333333334
0.460282905174,0.4888888888888889
0.643898205012,0.49444444444444446
0.643898205012,0.5
0.812314882336,0.5055555555555555
0.812314882336,0.5111111111111111
0.860462132187,0.5166666666666667
0.860462132187,0.5222222222222223
0.871905129902,0.5277777777777778
0.871905129902,0.5333333333333333
1.00684319923,0.5388888888888889
1.00684319923,0.5444444444444444
1.15731351973,0.55
1.15731351973,0.5555555555555556
1.18295672387,0.5611111111111111
1.18295672387,0.5666666666666667
1.22009452149,0.5722222222222222
1.22009452149,0.5777777777777777
1.22141986146,0.5833333333333334
1.22141986146,0.5888888888888889
1.32475782222,0.5944444444444444
1.32475782222,0.6
1.33602198009,0.6055555555555555
1.33602198009,0.6111111111111112
1.33937144745,0.6166666666666667
1.33937144745,0.6222222222222222
1.37910839834,0.6277777777777778
1.37910839834,0.6333333333333333
1.39451900308,0.6388888888888888
1.39451900308,0.6444444444444445
1.43183392083,0.65
1.43183392083,0.6555555555555556
1.48485043274,0.6611111111111111
1.48485043274,0.6666666666666666
1.48657740904,0.6722222222222223
1.48657740904,0.6777777777777778
1.55455424712,0.6833333333333333
1.55455424712,0.6888888888888889
1.60826414564,0.6944444444444444
1.60826414564,0.7
1.63146333276,0.7055555555555556
1.63146333276,0.7111111111111111
1.64075819442,0.7166666666666667
1.64075819442,0.7222222222222222
1.65423687329,0.7277777777777777
1.65423687329,0.7333333333333333
1.87164381719,0.7388888888888889
1.87164381719,0.7444444444444445
2.23027877337,0.75
2.23027877337,0.7555555555555555
2.24961023303,0.7611111111111111
2.24961023303,0.7666666666666667
2.30182148615,0.7722222222222223
2.30182148615,0.7777777777777778
2.4901167383,0.7833333333333333
2.4901167383,0.7888888888888889
2.55422857005,0.7944444444444444
2.55422857005,0.8
2.57760553541,0.8055555555555556
2.57760553541,0.8111111111111111
2.71922918142,0.8166666666666667
2.71922918142,0.8222222222222222
2.8612762199,0.8277777777777777
2.8612762199,0.8333333333333334
2.89596276409,0.8388888888888889
2.89596276409,0.8444444444444444
3.16400924834,0.85
3.16400924834,0.8555555555555555
3.48837540788,0.8611111111111112
3.48837540788,0.8666666666666667
3.52204691349,0.8722222222222222
3.52204691349,0.8777777777777778
3.88069376678,0.8833333333333333
3.88069376678,0.8888888888888888
3.90929887729,0.8944444444444445
3.90929887729,0.9
4.20293526447,0.9055555555555556
4.20293526447,0.9111111111111111
4.36170946669,0.9166666666666666
4.36170946669,0.9222222222222223
4.61184835066,0.9277777777777778
4.61184835066,0.9333333333333333
5.06842114522,0.9388888888888889
5.06842114522,0.9444444444444444
5.10411700943,0.95
5.10411700943,0.9555555555555556
5.2384168744,0.9611111111111111
5.2384168744,0.9666666666666667
5.77479991038,0.9722222222222222
5.77479991038,0.9777777777777777
6.26170714607,0.9833333333333333
6.26170714607,0.9888888888888889
6.49065756401,0.9944444444444445
6.49065756401,1.0
