Congestion,CDF
0.00665274826556,0.009433962264150943
0.00665274826556,0.018867924528301886
0.00666231167514,0.02830188679245283
0.00666231167514,0.03773584905660377
0.0066635044366,0.04716981132075472
0.0066635044366,0.05660377358490566
0.0066648655519,0.0660377358490566
0.0066648655519,0.07547169811320754
0.00666918836987,0.08490566037735849
0.00666918836987,0.09433962264150944
0.00667128039423,0.10377358490566038
0.00667128039423,0.11320754716981132
0.00667724484554,0.12264150943396226
0.00667724484554,0.1320754716981132
0.00668933552462,0.14150943396226415
0.00668933552462,0.1509433962264151
0.00669866153749,0.16037735849056603
0.00669866153749,0.16981132075471697
0.00670106964852,0.1792452830188679
0.00670106964852,0.18867924528301888
0.00670814295575,0.19811320754716982
0.00670814295575,0.20754716981132076
0.0067189862789,0.2169811320754717
0.0067189862789,0.22641509433962265
0.00672025314034,0.2358490566037736
0.00672025314034,0.24528301886792453
0.00672332735392,0.25471698113207547
0.00672332735392,0.2641509433962264
0.0514161261253,0.27358490566037735
0.0514161261253,0.2830188679245283
0.0682821432346,0.29245283018867924
0.0682821432346,0.3018867924528302
0.0941574776918,0.3113207547169811
0.0941574776918,0.32075471698113206
0.0991377673292,0.330188679245283
0.0991377673292,0.33962264150943394
0.0992748942773,0.3490566037735849
0.0992748942773,0.3584905660377358
0.102548811921,0.36792452830188677
0.102548811921,0.37735849056603776
0.113519702951,0.3867924528301887
0.113519702951,0.39622641509433965
0.113777309571,0.4056603773584906
0.113777309571,0.41509433962264153
0.115184680144,0.42452830188679247
0.115184680144,0.4339622641509434
0.121581513491,0.44339622641509435
0.121581513491,0.4528301886792453
0.127740944834,0.46226415094339623
0.127740944834,0.4716981132075472
0.128238025341,0.4811320754716981
0.128238025341,0.49056603773584906
0.147304356712,0.5
0.147304356712,0.5094339622641509
0.151404763282,0.5188679245283019
0.151404763282,0.5283018867924528
0.151641639797,0.5377358490566038
0.151641639797,0.5471698113207547
0.158518759268,0.5566037735849056
0.158518759268,0.5660377358490566
0.161712080901,0.5754716981132075
0.161712080901,0.5849056603773585
0.16664137106,0.5943396226415094
0.16664137106,0.6037735849056604
0.173545795549,0.6132075471698113
0.173545795549,0.6226415094339622
0.179812773044,0.6320754716981132
0.179812773044,0.6415094339622641
0.183578895767,0.6509433962264151
0.183578895767,0.660377358490566
0.188567126733,0.6698113207547169
0.188567126733,0.6792452830188679
0.193733688227,0.6886792452830188
0.193733688227,0.6981132075471698
0.211941033485,0.7075471698113207
0.211941033485,0.7169811320754716
0.21582848237,0.7264150943396226
0.21582848237,0.7358490566037735
0.216358133527,0.7452830188679245
0.216358133527,0.7547169811320755
0.232623011306,0.7641509433962265
0.232623011306,0.7735849056603774
0.233363945374,0.7830188679245284
0.233363945374,0.7924528301886793
0.264703682409,0.8018867924528302
0.264703682409,0.8113207547169812
0.264780801105,0.8207547169811321
0.264780801105,0.8301886792452831
0.271745208187,0.839622641509434
0.271745208187,0.8490566037735849
0.292616325649,0.8584905660377359
0.292616325649,0.8679245283018868
0.293254153369,0.8773584905660378
0.293254153369,0.8867924528301887
0.294938422477,0.8962264150943396
0.294938422477,0.9056603773584906
0.317820196047,0.9150943396226415
0.317820196047,0.9245283018867925
0.318541256322,0.9339622641509434
0.318541256322,0.9433962264150944
0.346451387396,0.9528301886792453
0.346451387396,0.9622641509433962
0.390675566171,0.9716981132075472
0.390675566171,0.9811320754716981
0.408022588054,0.9905660377358491
0.408022588054,1.0
