Congestion,CDF
0.0,0.007352941176470588
0.0,0.014705882352941176
0.0,0.022058823529411766
0.0,0.029411764705882353
0.0,0.03676470588235294
0.0,0.04411764705882353
0.0,0.051470588235294115
0.0,0.058823529411764705
0.0,0.0661764705882353
0.0,0.07352941176470588
0.0,0.08088235294117647
0.0,0.08823529411764706
0.0,0.09558823529411764
0.0,0.10294117647058823
4.41208556134e-06,0.11029411764705882
4.41208556134e-06,0.11764705882352941
4.41208556134e-06,0.125
4.41208556134e-06,0.1323529411764706
4.41208556134e-06,0.13970588235294118
4.41208556134e-06,0.14705882352941177
4.41208556134e-06,0.15441176470588236
4.41208556134e-06,0.16176470588235295
4.41208556134e-06,0.16911764705882354
4.41208556134e-06,0.17647058823529413
4.41208556134e-06,0.18382352941176472
4.41208556134e-06,0.19117647058823528
4.41208556134e-06,0.19852941176470587
4.41208556134e-06,0.20588235294117646
4.41208556134e-06,0.21323529411764705
4.41208556134e-06,0.22058823529411764
4.41208556134e-06,0.22794117647058823
4.41208556134e-06,0.23529411764705882
4.41208556134e-06,0.2426470588235294
4.41208556134e-06,0.25
4.41208556134e-06,0.25735294117647056
4.41208556134e-06,0.2647058823529412
4.41208556134e-06,0.27205882352941174
4.41208556134e-06,0.27941176470588236
4.41208556134e-06,0.2867647058823529
4.41208556134e-06,0.29411764705882354
4.41208556134e-06,0.3014705882352941
0.000110302139034,0.3088235294117647
0.000110302139034,0.3161764705882353
0.000119126310156,0.3235294117647059
0.000220604278067,0.33088235294117646
0.000220604278067,0.3382352941176471
0.000220604278067,0.34558823529411764
0.000220604278067,0.35294117647058826
0.000330906417101,0.3602941176470588
0.000367673796779,0.36764705882352944
0.000367673796779,0.375
0.000367673796779,0.38235294117647056
0.000441208556134,0.3897058823529412
0.000441208556134,0.39705882352941174
0.000441208556134,0.40441176470588236
0.000441208556134,0.4117647058823529
0.000441208556134,0.41911764705882354
0.000441208556134,0.4264705882352941
0.000441208556134,0.4338235294117647
0.000551510695168,0.4411764705882353
0.000661812834202,0.4485294117647059
0.000661812834202,0.45588235294117646
0.000808882352913,0.4632352941176471
0.000882417112269,0.47058823529411764
0.000882417112269,0.47794117647058826
0.0013236256684,0.4852941176470588
0.00180160160422,0.49264705882352944
0.00319876203197,0.5
0.00327229679133,0.5073529411764706
0.00422824866296,0.5147058823529411
0.00525773529394,0.5220588235294118
0.00533127005329,0.5294117647058824
0.00569894385007,0.5367647058823529
0.00577247860943,0.5441176470588235
0.00621368716556,0.5514705882352942
0.026252004265,0.5588235294117647
0.0271474861821,0.5661764705882353
0.0378730113725,0.5735294117647058
0.0379534575823,0.5808823529411765
0.0381216878024,0.5882352941176471
0.0381526815529,0.5955882352941176
0.0381823642456,0.6029411764705882
0.0382205341022,0.6102941176470589
0.0382986673649,0.6176470588235294
0.0383128168377,0.625
0.0383250107021,0.6323529411764706
0.0383313966798,0.6397058823529411
0.0383323976947,0.6470588235294118
0.0383332884157,0.6544117647058824
0.038333974839,0.6617647058823529
0.038334723351,0.6691176470588235
0.0383352249956,0.6764705882352942
0.0383375541383,0.6838235294117647
0.0383401232967,0.6911764705882353
0.0383485017538,0.6985294117647058
0.0383515896258,0.7058823529411765
0.0383516003408,0.7132352941176471
0.0383516653211,0.7205882352941176
0.03835166845,0.7279411764705882
0.0383519613778,0.7352941176470589
0.0383519634643,0.7426470588235294
0.0383519634643,0.75
0.958332210392,0.7573529411764706
0.958438853458,0.7647058823529411
1.01032931922,0.7720588235294118
1.91102670511,0.7794117647058824
1.91102670511,0.7867647058823529
1.91700616484,0.7941176470588235
1.91700616484,0.8014705882352942
2.87499663118,0.8088235294117647
3.19451765367,0.8161764705882353
3.19451765367,0.8235294117647058
3.19451765367,0.8308823529411765
3.81823642456,0.8382352941176471
3.8334723351,0.8455882352941176
3.83375541383,0.8529411764705882
3.83516003408,0.8602941176470589
3.835166845,0.8676470588235294
3.83519634643,0.875
3.83519634643,0.8823529411764706
4.79185470996,0.8897058823529411
5.72319548535,0.8970588235294118
5.75014583282,0.9044117647058824
7.02579933744,0.9117647058823529
7.63350457986,0.9191176470588235
7.67033337712,0.9264705882352942
11.5055888306,0.9338235294117647
15.6532421826,0.9411764705882353
27.8046800579,0.9485294117647058
28.4199349617,0.9558823529411765
36.7510540518,0.9632352941176471
45.5639361641,0.9705882352941176
46.3337009548,0.9779411764705882
48.1891365906,0.9852941176470589
50.129046713,0.9926470588235294
52.8437953312,1.0
