Congestion,CDF
0.0,0.007352941176470588
0.0,0.014705882352941176
0.0,0.022058823529411766
0.0,0.029411764705882353
0.0,0.03676470588235294
0.0,0.04411764705882353
0.0,0.051470588235294115
0.0,0.058823529411764705
0.0,0.0661764705882353
0.0,0.07352941176470588
0.0,0.08088235294117647
0.0,0.08823529411764706
0.0,0.09558823529411764
0.0,0.10294117647058823
5.66881804517e-06,0.11029411764705882
5.66881804517e-06,0.11764705882352941
5.66881804517e-06,0.125
5.66881804517e-06,0.1323529411764706
5.66881804517e-06,0.13970588235294118
5.66881804517e-06,0.14705882352941177
5.66881804517e-06,0.15441176470588236
5.66881804517e-06,0.16176470588235295
5.66881804517e-06,0.16911764705882354
5.66881804517e-06,0.17647058823529413
5.66881804517e-06,0.18382352941176472
5.66881804517e-06,0.19117647058823528
5.66881804517e-06,0.19852941176470587
5.66881804517e-06,0.20588235294117646
5.66881804517e-06,0.21323529411764705
5.66881804517e-06,0.22058823529411764
5.66881804517e-06,0.22794117647058823
5.66881804517e-06,0.23529411764705882
5.66881804517e-06,0.2426470588235294
5.66881804517e-06,0.25
5.66881804517e-06,0.25735294117647056
5.66881804517e-06,0.2647058823529412
5.66881804517e-06,0.27205882352941174
5.66881804517e-06,0.27941176470588236
5.66881804517e-06,0.2867647058823529
5.66881804517e-06,0.29411764705882354
5.66881804517e-06,0.3014705882352941
0.000141720451129,0.3088235294117647
0.000141720451129,0.3161764705882353
0.000153058087219,0.3235294117647059
0.000283440902258,0.33088235294117646
0.000283440902258,0.3382352941176471
0.000283440902258,0.34558823529411764
0.000283440902258,0.35294117647058826
0.000425161353387,0.3602941176470588
0.000467206354738,0.36764705882352944
0.000472401503764,0.375
0.000472401503764,0.38235294117647056
0.000472401503764,0.3897058823529412
0.000566881804517,0.39705882352941174
0.000566881804517,0.40441176470588236
0.000566881804517,0.4117647058823529
0.000566881804517,0.41911764705882354
0.000566881804517,0.4264705882352941
0.000566881804517,0.4338235294117647
0.000566881804517,0.4411764705882353
0.000708602255646,0.4485294117647059
0.000850322706775,0.45588235294117646
0.000850322706775,0.4632352941176471
0.00103928330828,0.47058823529411764
0.00113376360903,0.47794117647058826
0.00113376360903,0.4852941176470588
0.00120350410168,0.49264705882352944
0.00170064541355,0.5
0.00231476736844,0.5073529411764706
0.00410989308275,0.5147058823529411
0.0042043733835,0.5220588235294118
0.00543261729328,0.5294117647058824
0.00675534150382,0.5367647058823529
0.00684982180458,0.5441176470588235
0.00732222330834,0.5514705882352942
0.00741670360909,0.5588235294117647
0.00798358541361,0.5661764705882353
0.0136183194331,0.5735294117647058
0.0137626319804,0.5808823529411765
0.0141292521779,0.5882352941176471
0.014187139998,0.5955882352941176
0.0142604465577,0.6029411764705882
0.0142802660048,0.6102941176470589
0.0143922184947,0.6176470588235294
0.0144227530308,0.625
0.0144293649488,0.6323529411764706
0.0144434204372,0.6397058823529411
0.0144461403397,0.6470588235294118
0.0144469041585,0.6544117647058824
0.0144475940269,0.6617647058823529
0.0144489116693,0.6691176470588235
0.0144496496793,0.6764705882352942
0.0144522944526,0.6838235294117647
0.0144537702091,0.6911764705882353
0.0144633481282,0.6985294117647058
0.0144669249278,0.7058823529411765
0.014466952828,0.7132352941176471
0.0144670266839,0.7205882352941176
0.0144670339977,0.7279411764705882
0.0144673256991,0.7352941176470589
0.0144673305756,0.7426470588235294
0.0144673305756,0.75
0.360475061471,0.7573529411764706
0.361189850673,0.7647058823529411
0.361307361316,0.7720588235294118
0.714013300242,0.7794117647058824
0.714013300242,0.7867647058823529
0.722688510455,0.7941176470588235
0.722688510455,0.8014705882352942
1.08356955202,0.8088235294117647
1.20403522331,0.8161764705882353
1.20403522331,0.8235294117647058
1.20403522331,0.8308823529411765
1.42604465577,0.8382352941176471
1.44489116693,0.8455882352941176
1.44522944526,0.8529411764705882
1.4466952828,0.8602941176470589
1.44670339977,0.8676470588235294
1.44673305756,0.875
1.44673305756,0.8823529411764706
1.80615481861,0.8897058823529411
2.12693851803,0.8970588235294118
2.16703055418,0.9044117647058824
2.64631052639,0.9117647058823529
2.84475865557,0.9191176470588235
2.89340606816,0.9264705882352942
4.34019868502,0.9338235294117647
5.8997716247,0.9411764705882353
10.4882998901,0.9485294117647058
10.6993173008,0.9558823529411765
13.8613584367,0.9632352941176471
17.0328464177,0.9705882352941176
17.1531968279,0.9779411764705882
17.4713254857,0.9852941176470589
18.8475886838,0.9926470588235294
18.8943093192,1.0
