Congestion,CDF
0.0,0.007352941176470588
0.0,0.014705882352941176
0.0,0.022058823529411766
0.0,0.029411764705882353
0.0,0.03676470588235294
0.0,0.04411764705882353
0.0,0.051470588235294115
0.0,0.058823529411764705
0.0,0.0661764705882353
0.0,0.07352941176470588
0.0,0.08088235294117647
0.0,0.08823529411764706
0.0,0.09558823529411764
0.0,0.10294117647058823
4.97492465042e-06,0.11029411764705882
4.97492465042e-06,0.11764705882352941
4.97492465042e-06,0.125
4.97492465042e-06,0.1323529411764706
4.97492465042e-06,0.13970588235294118
4.97492465042e-06,0.14705882352941177
4.97492465042e-06,0.15441176470588236
4.97492465042e-06,0.16176470588235295
4.97492465042e-06,0.16911764705882354
4.97492465042e-06,0.17647058823529413
4.97492465042e-06,0.18382352941176472
4.97492465042e-06,0.19117647058823528
4.97492465042e-06,0.19852941176470587
4.97492465042e-06,0.20588235294117646
4.97492465042e-06,0.21323529411764705
4.97492465042e-06,0.22058823529411764
4.97492465042e-06,0.22794117647058823
4.97492465042e-06,0.23529411764705882
4.97492465042e-06,0.2426470588235294
4.97492465042e-06,0.25
4.97492465042e-06,0.25735294117647056
4.97492465042e-06,0.2647058823529412
4.97492465042e-06,0.27205882352941174
4.97492465042e-06,0.27941176470588236
4.97492465042e-06,0.2867647058823529
4.97492465042e-06,0.29411764705882354
4.97492465042e-06,0.3014705882352941
0.000124373116261,0.3088235294117647
0.000124373116261,0.3161764705882353
0.000134322965561,0.3235294117647059
0.000248746232521,0.33088235294117646
0.000248746232521,0.3382352941176471
0.000248746232521,0.34558823529411764
0.000248746232521,0.35294117647058826
0.000373119348782,0.3602941176470588
0.000414577054202,0.36764705882352944
0.000414577054202,0.375
0.000414577054202,0.38235294117647056
0.000497492465042,0.3897058823529412
0.000497492465042,0.39705882352941174
0.000497492465042,0.40441176470588236
0.000497492465042,0.4117647058823529
0.000497492465042,0.41911764705882354
0.000497492465042,0.4264705882352941
0.000497492465042,0.4338235294117647
0.000621865581303,0.4411764705882353
0.000746238697563,0.4485294117647059
0.000746238697563,0.45588235294117646
0.000912069519244,0.4632352941176471
0.000994984930085,0.47058823529411764
0.000994984930085,0.47794117647058826
0.00149247739513,0.4852941176470588
0.00203142756559,0.49264705882352944
0.00360682037156,0.5
0.0036897357824,0.5073529411764706
0.00476763612332,0.5147058823529411
0.00592845187509,0.5220588235294118
0.00601136728593,0.5294117647058824
0.00642594434013,0.5367647058823529
0.00650885975097,0.5441176470588235
0.00700635221601,0.5514705882352942
0.0185636364634,0.5588235294117647
0.0187428267201,0.5661764705882353
0.020540680873,0.5735294117647058
0.0205791484434,0.5808823529411765
0.0205865375651,0.5882352941176471
0.0206058429198,0.5955882352941176
0.0206114229834,0.6029411764705882
0.0206562424784,0.6102941176470589
0.0207261532832,0.6176470588235294
0.0207324432826,0.625
0.0207478498381,0.6323529411764706
0.0207504125156,0.6397058823529411
0.0207507572121,0.6470588235294118
0.0207514822431,0.6544117647058824
0.0207527105601,0.6617647058823529
0.0207529868815,0.6691176470588235
0.0207534377287,0.6764705882352942
0.0207556665245,0.6838235294117647
0.0207585397619,0.6911764705882353
0.0207666688044,0.6985294117647058
0.0207696067472,0.7058823529411765
0.0207696127877,0.7132352941176471
0.0207696763088,0.7205882352941176
0.0207696785807,0.7279411764705882
0.0207699718791,0.7352941176470589
0.0207699733942,0.7426470588235294
0.0207699733942,0.75
0.518787056076,0.7573529411764706
0.518891663114,0.7647058823529411
0.555273940174,0.7720588235294118
1.03281212392,0.7794117647058824
1.03281212392,0.7867647058823529
1.0379269881,0.7941176470588235
1.0379269881,0.8014705882352942
1.55636116823,0.8088235294117647
1.72937062626,0.8161764705882353
1.72937062626,0.8235294117647058
1.72937062626,0.8308823529411765
2.06114229834,0.8382352941176471
2.07529868815,0.8455882352941176
2.07556665245,0.8529411764705882
2.07696127877,0.8602941176470589
2.07696785807,0.8676470588235294
2.07699733942,0.875
2.07699733942,0.8823529411764706
2.59413082895,0.8897058823529411
3.09146588044,0.8970588235294118
3.11296823966,0.9044117647058824
3.80261495452,0.9117647058823529
4.12172659032,0.9191176470588235
4.15393548895,0.9264705882352942
6.23099186675,0.9338235294117647
8.47407119937,0.9411764705882353
15.0577409723,0.9485294117647058
15.3821136061,0.9558823529411765
19.9017054671,0.9632352941176471
24.6493741642,0.9705882352941176
25.0894586906,0.9779411764705882
26.5057378105,0.9852941176470589
27.1473735349,0.9926470588235294
29.0216562069,1.0
