Congestion,CDF
0.00166351980348,0.009433962264150943
0.00166351980348,0.018867924528301886
0.00167308359684,0.02830188679245283
0.00167308359684,0.03773584905660377
0.00167427597451,0.04716981132075472
0.00167427597451,0.05660377358490566
0.00167563708981,0.0660377358490566
0.00167563708981,0.07547169811320754
0.00167995914021,0.08490566037735849
0.00167995914021,0.09433962264150944
0.00168205269972,0.10377358490566038
0.00168205269972,0.11320754716981132
0.00168801599967,0.12264150943396226
0.00168801599967,0.1320754716981132
0.00170010667875,0.14150943396226415
0.00170010667875,0.1509433962264151
0.00170943269161,0.16037735849056603
0.00170943269161,0.16981132075471697
0.00171184118644,0.1792452830188679
0.00171184118644,0.18867924528301888
0.00171891487745,0.19811320754716982
0.00171891487745,0.20754716981132076
0.00172975666545,0.2169811320754717
0.00172975666545,0.22641509433962265
0.00173102544583,0.2358490566037736
0.00173102544583,0.24528301886792453
0.00173409889184,0.25471698113207547
0.00173409889184,0.2641509433962264
0.0130374486,0.27358490566037735
0.0130374486,0.2830188679245283
0.0171105604079,0.29245283018867924
0.0171105604079,0.3018867924528302
0.0237965561024,0.3113207547169811
0.0237965561024,0.32075471698113206
0.0248932708099,0.330188679245283
0.0248932708099,0.33962264150943394
0.025030397758,0.3490566037735849
0.025030397758,0.3584905660377358
0.0257914568706,0.36792452830188677
0.0257914568706,0.37735849056603776
0.0287667772893,0.3867924528301887
0.0287667772893,0.39622641509433965
0.0288326557118,0.4056603773584906
0.0288326557118,0.41509433962264153
0.0290243839092,0.42452830188679247
0.0290243839092,0.4339622641509434
0.0306605751195,0.44339622641509435
0.0306605751195,0.4528301886792453
0.0327080107817,0.46226415094339623
0.0327080107817,0.4716981132075472
0.033205091288,0.4811320754716981
0.033205091288,0.49056603773584906
0.0380962502273,0.5
0.0380962502273,0.5094339622641509
0.0383331267425,0.5188679245283019
0.0383331267425,0.5283018867924528
0.0385647575968,0.5377358490566038
0.0385647575968,0.5471698113207547
0.0404129115228,0.5566037735849056
0.0404129115228,0.5660377358490566
0.040636456365,0.5754716981132075
0.040636456365,0.5849056603773585
0.0419106691029,0.5943396226415094
0.0419106691029,0.6037735849056604
0.0440177589009,0.6132075471698113
0.0440177589009,0.6226415094339622
0.0454874017052,0.6320754716981132
0.0454874017052,0.6415094339622641
0.0460552885078,0.6509433962264151
0.0460552885078,0.660377358490566
0.0478453219331,0.6698113207547169
0.0478453219331,0.6792452830188679
0.0498136475064,0.6886792452830188
0.0498136475064,0.6981132075471698
0.0536289886925,0.7075471698113207
0.0536289886925,0.7169811320754716
0.0545466224085,0.7264150943396226
0.0545466224085,0.7358490566037735
0.055076273566,0.7452830188679245
0.055076273566,0.7547169811320755
0.0592336234319,0.7641509433962265
0.0592336234319,0.7735849056603774
0.0599745574997,0.7830188679245284
0.0599745574997,0.7924528301886793
0.0670991235736,0.8018867924528302
0.0670991235736,0.8113207547169812
0.0680900787874,0.8207547169811321
0.0680900787874,0.8301886792452831
0.0688864347808,0.839622641509434
0.0688864347808,0.8490566037735849
0.0737664493996,0.8584905660377359
0.0737664493996,0.8679245283018868
0.0741758563686,0.8773584905660378
0.0741758563686,0.8867924528301887
0.0744894474574,0.8962264150943396
0.0744894474574,0.9056603773584906
0.0797809810351,0.9150943396226415
0.0797809810351,0.9245283018867925
0.0821011784588,0.9339622641509434
0.0821011784588,0.9433962264150944
0.0873953524788,0.9528301886792453
0.0873953524788,0.9622641509433962
0.0998657079403,0.9716981132075472
0.0998657079403,0.9811320754716981
0.104419824521,0.9905660377358491
0.104419824521,1.0
