Congestion,CDF
0.0,0.007352941176470588
0.0,0.014705882352941176
0.0,0.022058823529411766
0.0,0.029411764705882353
0.0,0.03676470588235294
0.0,0.04411764705882353
0.0,0.051470588235294115
0.0,0.058823529411764705
0.0,0.0661764705882353
0.0,0.07352941176470588
0.0,0.08088235294117647
0.0,0.08823529411764706
0.0,0.09558823529411764
0.0,0.10294117647058823
1.50601525913e-05,0.11029411764705882
1.50601525913e-05,0.11764705882352941
1.50601525913e-05,0.125
1.50601525913e-05,0.1323529411764706
1.50601525913e-05,0.13970588235294118
1.50601525913e-05,0.14705882352941177
1.50601525913e-05,0.15441176470588236
1.50601525913e-05,0.16176470588235295
1.50601525913e-05,0.16911764705882354
1.50601525913e-05,0.17647058823529413
1.50601525913e-05,0.18382352941176472
1.50601525913e-05,0.19117647058823528
1.50601525913e-05,0.19852941176470587
1.50601525913e-05,0.20588235294117646
1.50601525913e-05,0.21323529411764705
1.50601525913e-05,0.22058823529411764
1.50601525913e-05,0.22794117647058823
1.50601525913e-05,0.23529411764705882
1.50601525913e-05,0.2426470588235294
1.50601525913e-05,0.25
1.50601525913e-05,0.25735294117647056
1.50601525913e-05,0.2647058823529412
1.50601525913e-05,0.27205882352941174
1.50601525913e-05,0.27941176470588236
1.50601525913e-05,0.2867647058823529
1.50601525913e-05,0.29411764705882354
1.50601525913e-05,0.3014705882352941
0.000376503814783,0.3088235294117647
0.000376503814783,0.3161764705882353
0.000406624119966,0.3235294117647059
0.000753007629567,0.33088235294117646
0.000753007629567,0.3382352941176471
0.000753007629567,0.34558823529411764
0.000753007629567,0.35294117647058826
0.00112951144435,0.3602941176470588
0.00125501271594,0.36764705882352944
0.00125501271594,0.375
0.00125501271594,0.38235294117647056
0.00150601525913,0.3897058823529412
0.00150601525913,0.39705882352941174
0.00150601525913,0.40441176470588236
0.00150601525913,0.4117647058823529
0.00150601525913,0.41911764705882354
0.00150601525913,0.4264705882352941
0.00150601525913,0.4338235294117647
0.00188251907392,0.4411764705882353
0.0022590228887,0.4485294117647059
0.0022590228887,0.45588235294117646
0.00276102797508,0.4632352941176471
0.00301203051827,0.47058823529411764
0.00301203051827,0.47794117647058826
0.0045180457774,0.4852941176470588
0.00614956230813,0.49264705882352944
0.0109186106287,0.5
0.0111696131719,0.5073529411764706
0.0144326462334,0.5147058823529411
0.017946681838,0.5220588235294118
0.0181976843812,0.5294117647058824
0.0194526970971,0.5367647058823529
0.0197036996403,0.5441176470588235
0.0212097148995,0.5514705882352942
0.0313014017938,0.5588235294117647
0.0320509798554,0.5661764705882353
0.0407199639945,0.5735294117647058
0.0407993732882,0.5808823529411765
0.0409324223197,0.5882352941176471
0.0409622912542,0.5955882352941176
0.0409892400056,0.6029411764705882
0.0410375315651,0.6102941176470589
0.0411270067964,0.6176470588235294
0.041141627906,0.625
0.0411584923524,0.6323529411764706
0.0411648370471,0.6397058823529411
0.041165125695,0.6470588235294118
0.0411658528771,0.6544117647058824
0.0411660300255,0.6617647058823529
0.0411667632805,0.6691176470588235
0.0411673301089,0.6764705882352942
0.0411716861956,0.6838235294117647
0.0411754803768,0.6911764705882353
0.0411858406504,0.6985294117647058
0.0411898968533,0.7058823529411765
0.0411899075096,0.7132352941176471
0.0411899555844,0.7205882352941176
0.0411899585418,0.7279411764705882
0.0411903619541,0.7352941176470589
0.0411903639258,0.7426470588235294
0.0411903639258,0.75
1.02914632193,0.7573529411764706
1.02929215489,0.7647058823529411
1.09108008568,0.7720588235294118
2.05187657825,0.7794117647058824
2.05187657825,0.7867647058823529
2.05877401884,0.7941176470588235
2.05877401884,0.8014705882352942
3.08743896578,0.8088235294117647
3.43060933332,0.8161764705882353
3.43060933332,0.8235294117647058
3.43060933332,0.8308823529411765
4.09892400056,0.8382352941176471
4.11667632805,0.8455882352941176
4.11716861956,0.8529411764705882
4.11899075096,0.8602941176470589
4.11899585418,0.8676470588235294
4.11903639258,0.875
4.11903639258,0.8823529411764706
5.14587933282,0.8897058823529411
6.14511881022,0.8970588235294118
6.17525772355,0.9044117647058824
7.54477212392,0.9117647058823529
8.19515312598,0.9191176470588235
8.23799141261,0.9264705882352942
12.3571089806,0.9338235294117647
16.8097679967,0.9411764705882353
29.8623729844,0.9485294117647058
30.5191173786,0.9558823529411765
39.4703404016,0.9632352941176471
48.9313857142,0.9705882352941176
49.7614473604,0.9779411764705882
52.0615258936,0.9852941176470589
53.8413846892,0.9926470588235294
57.0464826747,1.0
