Congestion,CDF
0.0,0.007352941176470588
0.0,0.014705882352941176
0.0,0.022058823529411766
0.0,0.029411764705882353
0.0,0.03676470588235294
0.0,0.04411764705882353
0.0,0.051470588235294115
0.0,0.058823529411764705
0.0,0.0661764705882353
0.0,0.07352941176470588
0.0,0.08088235294117647
0.0,0.08823529411764706
0.0,0.09558823529411764
0.0,0.10294117647058823
1.55761130818e-05,0.11029411764705882
1.55761130818e-05,0.11764705882352941
1.55761130818e-05,0.125
1.55761130818e-05,0.1323529411764706
1.55761130818e-05,0.13970588235294118
1.55761130818e-05,0.14705882352941177
1.55761130818e-05,0.15441176470588236
1.55761130818e-05,0.16176470588235295
1.55761130818e-05,0.16911764705882354
1.55761130818e-05,0.17647058823529413
1.55761130818e-05,0.18382352941176472
1.55761130818e-05,0.19117647058823528
1.55761130818e-05,0.19852941176470587
1.55761130818e-05,0.20588235294117646
1.55761130818e-05,0.21323529411764705
1.55761130818e-05,0.22058823529411764
1.55761130818e-05,0.22794117647058823
1.55761130818e-05,0.23529411764705882
1.55761130818e-05,0.2426470588235294
1.55761130818e-05,0.25
1.55761130818e-05,0.25735294117647056
1.55761130818e-05,0.2647058823529412
1.55761130818e-05,0.27205882352941174
1.55761130818e-05,0.27941176470588236
1.55761130818e-05,0.2867647058823529
1.55761130818e-05,0.29411764705882354
1.55761130818e-05,0.3014705882352941
0.000389402827046,0.3088235294117647
0.000389402827046,0.3161764705882353
0.000420555053209,0.3235294117647059
0.000651376543636,0.33088235294117646
0.000778805654091,0.3382352941176471
0.000778805654091,0.34558823529411764
0.000778805654091,0.35294117647058826
0.000778805654091,0.3602941176470588
0.00116820848114,0.36764705882352944
0.00129800942349,0.375
0.00129800942349,0.38235294117647056
0.00129800942349,0.3897058823529412
0.00131653864452,0.39705882352941174
0.00155761130818,0.40441176470588236
0.00155761130818,0.4117647058823529
0.00155761130818,0.41911764705882354
0.00155761130818,0.4264705882352941
0.00155761130818,0.4338235294117647
0.00155761130818,0.4411764705882353
0.00155761130818,0.4485294117647059
0.00194701413523,0.45588235294117646
0.00233641696227,0.4632352941176471
0.00233641696227,0.47058823529411764
0.00285562073167,0.47794117647058826
0.00311522261637,0.4852941176470588
0.00311522261637,0.49264705882352944
0.00467283392455,0.5
0.00636024617508,0.5073529411764706
0.00949874956838,0.5147058823529411
0.00966671684053,0.5220588235294118
0.0100478743428,0.5294117647058824
0.0101215401424,0.5367647058823529
0.0102047051977,0.5441176470588235
0.0102330862468,0.5514705882352942
0.0103826195129,0.5588235294117647
0.0104218452273,0.5661764705882353
0.0104317701899,0.5735294117647058
0.010449297873,0.5808823529411765
0.0104520827657,0.5882352941176471
0.010452290036,0.5955882352941176
0.0104536976637,0.6029411764705882
0.010454879,0.6102941176470589
0.0104560606899,0.6176470588235294
0.0104607248047,0.625
0.0104630102615,0.6323529411764706
0.0104759774338,0.6397058823529411
0.0104809967787,0.6470588235294118
0.0104810373731,0.6544117647058824
0.0104811156693,0.6617647058823529
0.0104811275838,0.6691176470588235
0.0104815321128,0.6764705882352942
0.0104815400564,0.6838235294117647
0.0104815400564,0.6911764705882353
0.0112926819843,0.6985294117647058
0.011552283869,0.7058823529411765
0.0149271083701,0.7132352941176471
0.0185615347558,0.7205882352941176
0.0188211366405,0.7279411764705882
0.020119146064,0.7352941176470589
0.0203787479487,0.7426470588235294
0.0219363592569,0.75
0.260463732616,0.7573529411764706
0.261342441593,0.7647058823529411
0.261518120118,0.7720588235294118
0.511654312341,0.7794117647058824
0.511654312341,0.7867647058823529
0.523150513073,0.7941176470588235
0.523150513073,0.8014705882352942
0.784027324778,0.8088235294117647
0.871263320566,0.8161764705882353
0.871263320566,0.8235294117647058
0.871263320566,0.8308823529411765
1.02047051977,0.8382352941176471
1.0454879,0.8455882352941176
1.04607248047,0.8529411764705882
1.04810373731,0.8602941176470589
1.04811275838,0.8676470588235294
1.04815400564,0.875
1.04815400564,0.8823529411764706
1.30694851058,0.8897058823529411
1.51644174662,0.8970588235294118
1.56808030038,0.9044117647058824
1.91344784329,0.9117647058823529
2.03262453401,0.9191176470588235
2.09622432531,0.9264705882352942
3.14446122256,0.9338235294117647
4.26892873475,0.9411764705882353
7.59840708317,0.9485294117647058
7.73229284167,0.9558823529411765
10.0404186602,0.9632352941176471
12.2312340791,0.9705882352941176
12.3628879436,0.9779411764705882
12.6516759796,0.9852941176470589
13.6183476636,0.9926470588235294
13.683485318,1.0
