Congestion,CDF
0.0,0.007352941176470588
0.0,0.014705882352941176
0.0,0.022058823529411766
0.0,0.029411764705882353
0.0,0.03676470588235294
0.0,0.04411764705882353
0.0,0.051470588235294115
0.0,0.058823529411764705
0.0,0.0661764705882353
0.0,0.07352941176470588
0.0,0.08088235294117647
0.0,0.08823529411764706
0.0,0.09558823529411764
0.0,0.10294117647058823
1.50748870409e-05,0.11029411764705882
1.50748870409e-05,0.11764705882352941
1.50748870409e-05,0.125
1.50748870409e-05,0.1323529411764706
1.50748870409e-05,0.13970588235294118
1.50748870409e-05,0.14705882352941177
1.50748870409e-05,0.15441176470588236
1.50748870409e-05,0.16176470588235295
1.50748870409e-05,0.16911764705882354
1.50748870409e-05,0.17647058823529413
1.50748870409e-05,0.18382352941176472
1.50748870409e-05,0.19117647058823528
1.50748870409e-05,0.19852941176470587
1.50748870409e-05,0.20588235294117646
1.50748870409e-05,0.21323529411764705
1.50748870409e-05,0.22058823529411764
1.50748870409e-05,0.22794117647058823
1.50748870409e-05,0.23529411764705882
1.50748870409e-05,0.2426470588235294
1.50748870409e-05,0.25
1.50748870409e-05,0.25735294117647056
1.50748870409e-05,0.2647058823529412
1.50748870409e-05,0.27205882352941174
1.50748870409e-05,0.27941176470588236
1.50748870409e-05,0.2867647058823529
1.50748870409e-05,0.29411764705882354
1.50748870409e-05,0.3014705882352941
0.000376872176023,0.3088235294117647
0.000376872176023,0.3161764705882353
0.000407021950105,0.3235294117647059
0.000753744352047,0.33088235294117646
0.000753744352047,0.3382352941176471
0.000753744352047,0.34558823529411764
0.000753744352047,0.35294117647058826
0.00113061652807,0.3602941176470588
0.00125624058674,0.36764705882352944
0.00125624058674,0.375
0.00125624058674,0.38235294117647056
0.00150748870409,0.3897058823529412
0.00150748870409,0.39705882352941174
0.00150748870409,0.40441176470588236
0.00150748870409,0.4117647058823529
0.00150748870409,0.41911764705882354
0.00150748870409,0.4264705882352941
0.00150748870409,0.4338235294117647
0.00188436088012,0.4411764705882353
0.00226123305614,0.4485294117647059
0.00226123305614,0.45588235294117646
0.00276372929084,0.4632352941176471
0.00301497740819,0.47058823529411764
0.00301497740819,0.47794117647058826
0.00452246611228,0.4852941176470588
0.00615557887505,0.49264705882352944
0.0109292931047,0.5
0.011180541222,0.5073529411764706
0.0144467667476,0.5147058823529411
0.0179642403905,0.5220588235294118
0.0182154885078,0.5294117647058824
0.0194717290945,0.5367647058823529
0.0197229772119,0.5441176470588235
0.021230465916,0.5514705882352942
0.0324580557876,0.5588235294117647
0.0328472838687,0.5661764705882353
0.0370402896382,0.5735294117647058
0.0371012420911,0.5808823529411765
0.0371596412805,0.5882352941176471
0.0371853497681,0.5955882352941176
0.0372026579802,0.6029411764705882
0.0372526752103,0.6102941176470589
0.0373409304991,0.6176470588235294
0.0373525996348,0.625
0.0373707630707,0.6323529411764706
0.0373756503829,0.6397058823529411
0.0373757374724,0.6470588235294118
0.0373764266642,0.6544117647058824
0.0373767704807,0.6617647058823529
0.0373773586429,0.6691176470588235
0.037377916784,0.6764705882352942
0.0373822488649,0.6838235294117647
0.0373861019541,0.6911764705882353
0.037396433494,0.6985294117647058
0.0374004500773,0.7058823529411765
0.0374004597361,0.7132352941176471
0.0374005076597,0.7205882352941176
0.0374005105015,0.7279411764705882
0.037400913979,0.7352941176470589
0.0374009158736,0.7426470588235294
0.0374009158736,0.75
0.934410666606,0.7573529411764706
0.934556221622,0.7647058823529411
0.99854080727,0.7720588235294118
1.86263376052,0.7794117647058824
1.86263376052,0.7867647058823529
1.86930509771,0.7941176470588235
1.86930509771,0.8014705882352942
2.80323199982,0.8088235294117647
3.11482480397,0.8161764705882353
3.11482480397,0.8235294117647058
3.11482480397,0.8308823529411765
3.72026579802,0.8382352941176471
3.73773586429,0.8455882352941176
3.73822488649,0.8529411764705882
3.74004597361,0.8602941176470589
3.74005105015,0.8676470588235294
3.74009158736,0.875
3.74009158736,0.8823529411764706
4.67220234501,0.8897058823529411
5.57859788857,0.8970588235294118
5.60687013599,0.9044117647058824
6.85008476745,0.9117647058823529
7.43880077483,0.9191176470588235
7.48010181612,0.9264705882352942
11.2202745726,0.9338235294117647
15.2624400613,0.9411764705882353
27.1150235917,0.9485294117647058
27.7092516392,0.9558823529411765
35.8387968428,0.9632352941176471
44.4306792664,0.9705882352941176
45.1827432858,0.9779411764705882
47.6764848452,0.9852941176470589
48.892867495,0.9926470588235294
52.1775958818,1.0
