Congestion,CDF
0.0,0.007352941176470588
0.0,0.014705882352941176
0.0,0.022058823529411766
0.0,0.029411764705882353
0.0,0.03676470588235294
0.0,0.04411764705882353
0.0,0.051470588235294115
0.0,0.058823529411764705
0.0,0.0661764705882353
0.0,0.07352941176470588
0.0,0.08088235294117647
0.0,0.08823529411764706
0.0,0.09558823529411764
0.0,0.10294117647058823
1.51158032749e-05,0.11029411764705882
1.51158032749e-05,0.11764705882352941
1.51158032749e-05,0.125
1.51158032749e-05,0.1323529411764706
1.51158032749e-05,0.13970588235294118
1.51158032749e-05,0.14705882352941177
1.51158032749e-05,0.15441176470588236
1.51158032749e-05,0.16176470588235295
1.51158032749e-05,0.16911764705882354
1.51158032749e-05,0.17647058823529413
1.51158032749e-05,0.18382352941176472
1.51158032749e-05,0.19117647058823528
1.51158032749e-05,0.19852941176470587
1.51158032749e-05,0.20588235294117646
1.51158032749e-05,0.21323529411764705
1.51158032749e-05,0.22058823529411764
1.51158032749e-05,0.22794117647058823
1.51158032749e-05,0.23529411764705882
1.51158032749e-05,0.2426470588235294
1.51158032749e-05,0.25
1.51158032749e-05,0.25735294117647056
1.51158032749e-05,0.2647058823529412
1.51158032749e-05,0.27205882352941174
1.51158032749e-05,0.27941176470588236
1.51158032749e-05,0.2867647058823529
1.51158032749e-05,0.29411764705882354
1.51158032749e-05,0.3014705882352941
0.000377895081872,0.3088235294117647
0.000377895081872,0.3161764705882353
0.000408126688422,0.3235294117647059
0.000755790163745,0.33088235294117646
0.000755790163745,0.3382352941176471
0.000755790163745,0.34558823529411764
0.000755790163745,0.35294117647058826
0.00113368524562,0.3602941176470588
0.00125965027291,0.36764705882352944
0.00125965027291,0.375
0.00125965027291,0.38235294117647056
0.00151158032749,0.3897058823529412
0.00151158032749,0.39705882352941174
0.00151158032749,0.40441176470588236
0.00151158032749,0.4117647058823529
0.00151158032749,0.41911764705882354
0.00151158032749,0.4264705882352941
0.00151158032749,0.4338235294117647
0.00188947540936,0.4411764705882353
0.00226737049123,0.4485294117647059
0.00226737049123,0.45588235294117646
0.0027712306004,0.4632352941176471
0.00302316065498,0.47058823529411764
0.00302316065498,0.47794117647058826
0.00453474098247,0.4852941176470588
0.00617228633725,0.49264705882352944
0.0109589573743,0.5
0.0112108874289,0.5073529411764706
0.0144859781384,0.5147058823529411
0.0178415255476,0.5220588235294118
0.0180129989026,0.5294117647058824
0.0182649289572,0.5367647058823529
0.0187781219586,0.5441176470588235
0.0195245792301,0.5514705882352942
0.0197765092847,0.5588235294117647
0.0212880896121,0.5661764705882353
0.030377626371,0.5735294117647058
0.0304750583705,0.5808823529411765
0.0306764552468,0.5882352941176471
0.0307112397687,0.5955882352941176
0.0307488550148,0.6029411764705882
0.030794668984,0.6102941176470589
0.0308867517025,0.6176470588235294
0.0309047559122,0.625
0.030920197135,0.6323529411764706
0.0309281934426,0.6397058823529411
0.0309287520673,0.6470588235294118
0.0309294897163,0.6544117647058824
0.0309295389049,0.6617647058823529
0.0309304180872,0.6691176470588235
0.0309309999742,0.6764705882352942
0.0309353939465,0.6838235294117647
0.0309390901487,0.6911764705882353
0.0309495122545,0.6985294117647058
0.0309536247101,0.7058823529411765
0.0309536369833,0.7132352941176471
0.0309536853723,0.7205882352941176
0.0309536885554,0.7279411764705882
0.0309540918467,0.7352941176470589
0.0309540939689,0.7426470588235294
0.0309540939689,0.75
0.773238472622,0.7573529411764706
0.773384848664,0.7647058823529411
0.80819355996,0.7720588235294118
1.5397334492,0.7794117647058824
1.5397334492,0.7867647058823529
1.54695450744,0.7941176470588235
1.54695450744,0.8014705882352942
2.31971541786,0.8088235294117647
2.57758172353,0.8161764705882353
2.57758172353,0.8235294117647058
2.57758172353,0.8308823529411765
3.07488550148,0.8382352941176471
3.09304180872,0.8455882352941176
3.09353939465,0.8529411764705882
3.09536369833,0.8602941176470589
3.09536885554,0.8676470588235294
3.09540939689,0.875
3.09540939689,0.8823529411764706
3.86633847005,0.8897058823529411
4.60737897388,0.8970588235294118
4.63977385169,0.9044117647058824
5.66805731475,0.9117647058823529
6.14600947835,0.9191176470588235
6.19073739277,0.9264705882352942
9.28622797846,0.9338235294117647
12.6299109739,0.9411764705882353
22.4410763892,0.9485294117647058
22.9263769081,0.9558823529411765
29.6605638456,0.9632352941176471
36.7175279974,0.9705882352941176
37.3923574108,0.9779411764705882
38.5016805522,0.9852941176470589
40.4398632479,0.9926470588235294
42.3176754438,1.0
