Congestion,CDF
0.0,0.007352941176470588
0.0,0.014705882352941176
0.0,0.022058823529411766
0.0,0.029411764705882353
0.0,0.03676470588235294
0.0,0.04411764705882353
0.0,0.051470588235294115
0.0,0.058823529411764705
0.0,0.0661764705882353
0.0,0.07352941176470588
0.0,0.08088235294117647
0.0,0.08823529411764706
0.0,0.09558823529411764
0.0,0.10294117647058823
4.35916948612e-06,0.11029411764705882
4.35916948612e-06,0.11764705882352941
4.35916948612e-06,0.125
4.35916948612e-06,0.1323529411764706
4.35916948612e-06,0.13970588235294118
4.35916948612e-06,0.14705882352941177
4.35916948612e-06,0.15441176470588236
4.35916948612e-06,0.16176470588235295
4.35916948612e-06,0.16911764705882354
4.35916948612e-06,0.17647058823529413
4.35916948612e-06,0.18382352941176472
4.35916948612e-06,0.19117647058823528
4.35916948612e-06,0.19852941176470587
4.35916948612e-06,0.20588235294117646
4.35916948612e-06,0.21323529411764705
4.35916948612e-06,0.22058823529411764
4.35916948612e-06,0.22794117647058823
4.35916948612e-06,0.23529411764705882
4.35916948612e-06,0.2426470588235294
4.35916948612e-06,0.25
4.35916948612e-06,0.25735294117647056
4.35916948612e-06,0.2647058823529412
4.35916948612e-06,0.27205882352941174
4.35916948612e-06,0.27941176470588236
4.35916948612e-06,0.2867647058823529
4.35916948612e-06,0.29411764705882354
4.35916948612e-06,0.3014705882352941
0.000108979237153,0.3088235294117647
0.000108979237153,0.3161764705882353
0.000117697576125,0.3235294117647059
0.000217958474306,0.33088235294117646
0.000217958474306,0.3382352941176471
0.000217958474306,0.34558823529411764
0.000217958474306,0.35294117647058826
0.000326937711459,0.3602941176470588
0.000363264123843,0.36764705882352944
0.000363264123843,0.375
0.000363264123843,0.38235294117647056
0.000435916948612,0.3897058823529412
0.000435916948612,0.39705882352941174
0.000435916948612,0.40441176470588236
0.000435916948612,0.4117647058823529
0.000435916948612,0.41911764705882354
0.000435916948612,0.4264705882352941
0.000435916948612,0.4338235294117647
0.000544896185765,0.4411764705882353
0.000653875422918,0.4485294117647059
0.000653875422918,0.45588235294117646
0.000799181072455,0.4632352941176471
0.000871833897224,0.47058823529411764
0.000871833897224,0.47794117647058826
0.00130775084584,0.4852941176470588
0.00177999420683,0.49264705882352944
0.00316039787744,0.5
0.00323305070221,0.5073529411764706
0.0041775374242,0.5147058823529411
0.00519467697096,0.5220588235294118
0.00526732979573,0.5294117647058824
0.00563059391957,0.5367647058823529
0.00570324674434,0.5441176470588235
0.00613916369295,0.5514705882352942
0.0276863386564,0.5588235294117647
0.0287093785015,0.5661764705882353
0.041169320418,0.5735294117647058
0.0412389720093,0.5808823529411765
0.0414168157577,0.5882352941176471
0.0414583515293,0.5955882352941176
0.0414868848993,0.6029411764705882
0.0414954687554,0.6102941176470589
0.0415525657066,0.6176470588235294
0.0415668171922,0.625
0.0415695473791,0.6323529411764706
0.0415746429735,0.6397058823529411
0.0415773119008,0.6470588235294118
0.0415778558392,0.6544117647058824
0.0415781292418,0.6617647058823529
0.0415788066897,0.6691176470588235
0.0415790035486,0.6764705882352942
0.0415800621946,0.6838235294117647
0.0415801468079,0.6911764705882353
0.0415853353629,0.6985294117647058
0.0415869713031,0.7058823529411765
0.041586981036,0.7132352941176471
0.0415870737938,0.7205882352941176
0.0415870766539,0.7279411764705882
0.0415871649405,0.7352941176470589
0.0415871668472,0.7426470588235294
0.0415871668472,0.75
1.03944639598,0.7573529411764706
1.03950155486,0.7647058823529411
1.09467135679,0.7720588235294118
2.07477343777,0.7794117647058824
2.07477343777,0.7867647058823529
2.07900734039,0.7941176470588235
2.07900734039,0.8014705882352942
3.11833918794,0.8088235294117647
3.46485834754,0.8161764705882353
3.46485834754,0.8235294117647058
3.46485834754,0.8308823529411765
4.14868848993,0.8382352941176471
4.15788066897,0.8455882352941176
4.15800621946,0.8529411764705882
4.1586981036,0.8602941176470589
4.15870766539,0.8676470588235294
4.15871668472,0.875
4.15871668472,0.8823529411764706
5.19734675084,0.8897058823529411
6.21645501354,0.8970588235294118
6.23647163774,0.9044117647058824
7.62154006675,0.9117647058823529
8.29452364285,0.9191176470588235
8.31741504477,0.9264705882352942
12.4761498635,0.9338235294117647
16.9778986915,0.9411764705882353
30.150461697,0.9485294117647058
30.8294687667,0.9558823529411765
39.8528609213,0.9632352941176471
49.4573794649,0.9705882352941176
50.2462872969,0.9779411764705882
52.2260133305,0.9852941176470589
54.3701844978,0.9926470588235294
57.241122348,1.0
