Congestion,CDF
0.0,0.007352941176470588
0.0,0.014705882352941176
0.0,0.022058823529411766
0.0,0.029411764705882353
0.0,0.03676470588235294
0.0,0.04411764705882353
0.0,0.051470588235294115
0.0,0.058823529411764705
0.0,0.0661764705882353
0.0,0.07352941176470588
0.0,0.08088235294117647
0.0,0.08823529411764706
0.0,0.09558823529411764
0.0,0.10294117647058823
4.28682157479e-06,0.11029411764705882
4.28682157479e-06,0.11764705882352941
4.28682157479e-06,0.125
4.28682157479e-06,0.1323529411764706
4.28682157479e-06,0.13970588235294118
4.28682157479e-06,0.14705882352941177
4.28682157479e-06,0.15441176470588236
4.28682157479e-06,0.16176470588235295
4.28682157479e-06,0.16911764705882354
4.28682157479e-06,0.17647058823529413
4.28682157479e-06,0.18382352941176472
4.28682157479e-06,0.19117647058823528
4.28682157479e-06,0.19852941176470587
4.28682157479e-06,0.20588235294117646
4.28682157479e-06,0.21323529411764705
4.28682157479e-06,0.22058823529411764
4.28682157479e-06,0.22794117647058823
4.28682157479e-06,0.23529411764705882
4.28682157479e-06,0.2426470588235294
4.28682157479e-06,0.25
4.28682157479e-06,0.25735294117647056
4.28682157479e-06,0.2647058823529412
4.28682157479e-06,0.27205882352941174
4.28682157479e-06,0.27941176470588236
4.28682157479e-06,0.2867647058823529
4.28682157479e-06,0.29411764705882354
4.28682157479e-06,0.3014705882352941
0.00010717053937,0.3088235294117647
0.00010717053937,0.3161764705882353
0.000115744182519,0.3235294117647059
0.00021434107874,0.33088235294117646
0.00021434107874,0.3382352941176471
0.00021434107874,0.34558823529411764
0.00021434107874,0.35294117647058826
0.000321511618109,0.3602941176470588
0.000357235131233,0.36764705882352944
0.000357235131233,0.375
0.000357235131233,0.38235294117647056
0.000428682157479,0.3897058823529412
0.000428682157479,0.39705882352941174
0.000428682157479,0.40441176470588236
0.000428682157479,0.4117647058823529
0.000428682157479,0.41911764705882354
0.000428682157479,0.4264705882352941
0.000428682157479,0.4338235294117647
0.000535852696849,0.4411764705882353
0.000643023236219,0.4485294117647059
0.000643023236219,0.45588235294117646
0.000785917288712,0.4632352941176471
0.000857364314958,0.47058823529411764
0.000857364314958,0.47794117647058826
0.00128604647244,0.4852941176470588
0.00175045214304,0.49264705882352944
0.00310794564172,0.5
0.00317939266797,0.5073529411764706
0.00410820400918,0.5147058823529411
0.00510846237663,0.5220588235294118
0.00517990940287,0.5294117647058824
0.00553714453411,0.5367647058823529
0.00560859156035,0.5441176470588235
0.00603727371783,0.5514705882352942
0.034229677934,0.5588235294117647
0.0351681741022,0.5661764705882353
0.0463246426879,0.5735294117647058
0.0463880395525,0.5808823529411765
0.0465405221022,0.5882352941176471
0.0465806661603,0.5955882352941176
0.0466059549624,0.6029411764705882
0.046615102957,0.6102941176470589
0.0466718277237,0.6176470588235294
0.0466850893821,0.625
0.0466882569263,0.6323529411764706
0.0466928634125,0.6397058823529411
0.0466954658149,0.6470588235294118
0.04669599749,0.6544117647058824
0.0466963258157,0.6617647058823529
0.0466969554029,0.6691176470588235
0.046697149509,0.6764705882352942
0.0466982004157,0.6838235294117647
0.0466983038411,0.6911764705882353
0.0467034836934,0.6985294117647058
0.0467051066642,0.7058823529411765
0.0467051160771,0.7132352941176471
0.0467052087888,0.7205882352941176
0.0467052116132,0.7279411764705882
0.0467052999201,0.7352941176470589
0.046705301803,0.7426470588235294
0.046705301803,0.75
1.16739993725,0.7573529411764706
1.16745501039,0.7647058823529411
1.23570924656,0.7720588235294118
2.33075514785,0.7794117647058824
2.33075514785,0.7867647058823529
2.33491519206,0.7941176470588235
2.33491519206,0.8014705882352942
3.50219981175,0.8088235294117647
3.8913704748,0.8161764705882353
3.8913704748,0.8235294117647058
3.8913704748,0.8308823529411765
4.66059549624,0.8382352941176471
4.66969554029,0.8455882352941176
4.66982004157,0.8529411764705882
4.67051160771,0.8602941176470589
4.67052116132,0.8676470588235294
4.6705301803,0.875
4.6705301803,0.8823529411764706
5.83711488815,0.8897058823529411
6.98480735806,0.8970588235294118
7.00420153331,0.9044117647058824
8.55987941301,0.9117647058823529
9.31866211227,0.9191176470588235
9.3410420402,0.9264705882352942
14.0115903526,0.9338235294117647
19.0678134848,0.9411764705882353
33.8611096773,0.9485294117647058
34.6256308181,0.9558823529411765
44.7577437135,0.9632352941176471
55.5615645572,0.9705882352941176
56.4307709395,0.9779411764705882
58.9845323506,0.9852941176470589
61.0695748947,0.9926470588235294
64.586392305,1.0
