Congestion,CDF
0.0,0.009433962264150943
0.0,0.018867924528301886
0.0,0.02830188679245283
0.0,0.03773584905660377
0.0,0.04716981132075472
0.0,0.05660377358490566
0.0,0.0660377358490566
0.0,0.07547169811320754
0.0,0.08490566037735849
0.0,0.09433962264150944
0.0,0.10377358490566038
0.0,0.11320754716981132
0.0,0.12264150943396226
0.0,0.1320754716981132
0.0,0.14150943396226415
0.0,0.1509433962264151
0.0,0.16037735849056603
0.0,0.16981132075471697
0.0,0.1792452830188679
0.0,0.18867924528301888
0.0,0.19811320754716982
0.0,0.20754716981132076
0.0,0.2169811320754717
0.0,0.22641509433962265
0.0,0.2358490566037736
0.0,0.24528301886792453
0.0,0.25471698113207547
0.0,0.2641509433962264
0.0,0.27358490566037735
0.0,0.2830188679245283
1.5673215887e-07,0.29245283018867924
4.03779856414e-06,0.3018867924528302
4.5405746787e-06,0.3113207547169811
6.15549420753e-06,0.32075471698113206
6.94844235822e-06,0.330188679245283
9.24576484713e-06,0.33962264150943394
1.40999334974e-05,0.3490566037735849
1.8048659722e-05,0.3584905660377358
1.91011582946e-05,0.36792452830188677
2.22782699568e-05,0.37735849056603776
2.74298855439e-05,0.3867924528301887
2.80584068728e-05,0.39622641509433965
2.96043804885e-05,0.4056603773584906
0.000189705501191,0.41509433962264153
0.000260037136326,0.42452830188679247
0.000260037136326,0.4339622641509434
0.000676824739574,0.44339622641509435
0.000676824739574,0.4528301886792453
0.000676824739574,0.46226415094339623
0.000693432363535,0.4716981132075472
0.000693432363535,0.4811320754716981
0.000693432363535,0.49056603773584906
0.001070560569,0.5
0.00127847034236,0.5094339622641509
0.00127847034236,0.5188679245283019
0.00135364947915,0.5283018867924528
0.00135364947915,0.5377358490566038
0.00184664826226,0.5471698113207547
0.00235389820947,0.5566037735849056
0.00235389820947,0.5660377358490566
0.00291653599915,0.5754716981132075
0.00291653599915,0.5849056603773585
0.00368325447487,0.5943396226415094
0.00447993552974,0.6037735849056604
0.00605449763834,0.6132075471698113
0.00613460967945,0.6226415094339622
0.00803569108032,0.6320754716981132
0.00944106298319,0.6415094339622641
0.00957752160905,0.6509433962264151
0.0204452163385,0.660377358490566
0.0220184062853,0.6698113207547169
0.0223058248893,0.6792452830188679
0.0343616315199,0.6886792452830188
0.0346422161904,0.6981132075471698
0.0399758042341,0.7075471698113207
0.0419479507022,0.7169811320754716
0.0440005678659,0.7264150943396226
0.0443541845025,0.7358490566037735
0.0469346973886,0.7452830188679245
0.04983646422,0.7547169811320755
0.0503173196352,0.7641509433962265
0.444865368193,0.7735849056603774
1.24746143913,0.7830188679245284
1.24746143913,0.7924528301886793
1.65002129497,0.8018867924528302
1.65002129497,0.8113207547169812
1.65002129497,0.8207547169811321
2.4107073241,0.8301886792452831
3.30004258994,0.839622641509434
3.30004258994,0.8490566037735849
3.32656383769,0.8584905660377359
3.32656383769,0.8679245283018868
3.32656383769,0.8773584905660378
3.88125695483,0.8867924528301887
6.38222673178,0.8962264150943396
6.38222673178,0.9056603773584906
6.9822553867,0.9150943396226415
6.9822553867,0.9245283018867925
7.76513086658,0.9339622641509434
7.76513086658,0.9433962264150944
11.9363968009,0.9528301886792453
12.0010659868,0.9622641509433962
18.2642424798,0.9716981132075472
18.4084991044,0.9811320754716981
29.1716329205,0.9905660377358491
59.6106346169,1.0
