Congestion,CDF
0.0,0.009433962264150943
0.0,0.018867924528301886
0.0,0.02830188679245283
0.0,0.03773584905660377
0.0,0.04716981132075472
0.0,0.05660377358490566
0.0,0.0660377358490566
0.0,0.07547169811320754
0.0,0.08490566037735849
0.0,0.09433962264150944
0.0,0.10377358490566038
0.0,0.11320754716981132
0.0,0.12264150943396226
0.0,0.1320754716981132
0.0,0.14150943396226415
0.0,0.1509433962264151
0.0,0.16037735849056603
0.0,0.16981132075471697
0.0,0.1792452830188679
0.0,0.18867924528301888
0.0,0.19811320754716982
0.0,0.20754716981132076
0.0,0.2169811320754717
0.0,0.22641509433962265
0.0,0.2358490566037736
0.0,0.24528301886792453
0.0,0.25471698113207547
0.0,0.2641509433962264
0.0,0.27358490566037735
0.0,0.2830188679245283
1.5768253e-07,0.29245283018867924
4.06228241742e-06,0.3018867924528302
4.56810719734e-06,0.3113207547169811
6.19281905537e-06,0.32075471698113206
6.99057537712e-06,0.330188679245283
9.30182805741e-06,0.33962264150943394
1.41854307548e-05,0.3490566037735849
1.81581007279e-05,0.3584905660377358
1.92169812981e-05,0.36792452830188677
2.24133578974e-05,0.37735849056603776
2.75962111499e-05,0.3867924528301887
2.82285436209e-05,0.39622641509433965
2.97838915009e-05,0.4056603773584906
0.000190855811585,0.41509433962264153
0.000261613914115,0.42452830188679247
0.000261613914115,0.4339622641509434
0.000680928777295,0.44339622641509435
0.000680928777295,0.4528301886792453
0.000680928777295,0.46226415094339623
0.000697637104306,0.4716981132075472
0.000697637104306,0.4811320754716981
0.000697637104306,0.49056603773584906
0.00107705208845,0.5
0.00128622255679,0.5094339622641509
0.00128622255679,0.5188679245283019
0.00136185755459,0.5283018867924528
0.00136185755459,0.5377358490566038
0.00185784571661,0.5471698113207547
0.002368171457,0.5566037735849056
0.002368171457,0.5660377358490566
0.00293422089312,0.5754716981132075
0.00293422089312,0.5849056603773585
0.00370558849196,0.5943396226415094
0.00450710035297,0.6037735849056604
0.00609121007694,0.6132075471698113
0.00949831041572,0.6226415094339622
0.00963559648082,0.6320754716981132
0.0102463121301,0.6415094339622641
0.0139454532763,0.6509433962264151
0.018460599675,0.660377358490566
0.0185922810636,0.6698113207547169
0.0197707648268,0.6792452830188679
0.0205691892582,0.6886792452830188
0.0230317016992,0.6981132075471698
0.0237518376628,0.7075471698113207
0.0247920718342,0.7169811320754716
0.0248614359501,0.7264150943396226
0.0268788437738,0.7358490566037735
0.0275906752203,0.7452830188679245
0.0295624577196,0.7547169811320755
0.0297680471427,0.7641509433962265
0.291252481975,0.7735849056603774
0.699227886096,0.7830188679245284
0.699227886096,0.7924528301886793
0.929702693784,0.8018867924528302
0.929702693784,0.8113207547169812
0.929702693784,0.8207547169811321
1.85940538757,0.8301886792452831
1.85940538757,0.839622641509434
1.86460769626,0.8490566037735849
1.86460769626,0.8584905660377359
1.86460769626,0.8679245283018868
2.96306808936,0.8773584905660378
3.62071594944,0.8867924528301887
3.62071594944,0.8962264150943396
3.9875713476,0.9056603773584906
3.9875713476,0.9150943396226415
4.18363598289,0.9245283018867925
4.50045586872,0.9339622641509434
4.50045586872,0.9433962264150944
8.14120627448,0.9528301886792453
8.17083458691,0.9622641509433962
10.7307438578,0.9716981132075472
10.7924206847,0.9811320754716981
17.9537803897,0.9905660377358491
35.5874254996,1.0
