Congestion,CDF
0.0,0.009433962264150943
0.0,0.018867924528301886
0.0,0.02830188679245283
0.0,0.03773584905660377
0.0,0.04716981132075472
0.0,0.05660377358490566
0.0,0.0660377358490566
0.0,0.07547169811320754
0.0,0.08490566037735849
0.0,0.09433962264150944
0.0,0.10377358490566038
0.0,0.11320754716981132
0.0,0.12264150943396226
0.0,0.1320754716981132
0.0,0.14150943396226415
0.0,0.1509433962264151
0.0,0.16037735849056603
0.0,0.16981132075471697
0.0,0.1792452830188679
0.0,0.18867924528301888
0.0,0.19811320754716982
0.0,0.20754716981132076
0.0,0.2169811320754717
0.0,0.22641509433962265
0.0,0.2358490566037736
0.0,0.24528301886792453
0.0,0.25471698113207547
0.0,0.2641509433962264
0.0,0.27358490566037735
0.0,0.2830188679245283
1.75974381871e-07,0.29245283018867924
4.53352465483e-06,0.3018867924528302
5.0980272854e-06,0.3113207547169811
6.9112127089e-06,0.32075471698113206
7.60590712598e-06,0.330188679245283
7.80151219612e-06,0.33962264150943394
8.5856968531e-06,0.3490566037735849
1.03808801309e-05,0.3584905660377358
1.58310017517e-05,0.36792452830188677
2.02645185331e-05,0.37735849056603776
2.1446233805e-05,0.3867924528301887
2.36019450412e-05,0.39622641509433965
2.50134038416e-05,0.4056603773584906
2.59085554318e-05,0.41509433962264153
2.75276763337e-05,0.42452830188679247
3.07974903693e-05,0.4339622641509434
3.15031761274e-05,0.44339622641509435
3.3238951053e-05,0.4528301886792453
3.65800309327e-05,0.46226415094339623
9.10387097576e-05,0.4716981132075472
0.000212995906839,0.4811320754716981
0.000242621990283,0.49056603773584906
0.000264428153208,0.5
0.000291962253683,0.5094339622641509
0.000291962253683,0.5188679245283019
0.000759919444992,0.5283018867924528
0.000759919444992,0.5377358490566038
0.000759919444992,0.5471698113207547
0.00077856600982,0.5566037735849056
0.00077856600982,0.5660377358490566
0.00077856600982,0.5754716981132075
0.00120199476446,0.5849056603773585
0.00143542990703,0.5943396226415094
0.00143542990703,0.6037735849056604
0.00151983888998,0.6132075471698113
0.00151983888998,0.6226415094339622
0.00207336381267,0.6320754716981132
0.0022817721378,0.6415094339622641
0.00264288953449,0.6509433962264151
0.00264288953449,0.660377358490566
0.00327460314049,0.6698113207547169
0.00327460314049,0.6792452830188679
0.00341395161591,0.6886792452830188
0.00341395161591,0.6981132075471698
0.00341395161591,0.7075471698113207
0.00373124240731,0.7169811320754716
0.00413545269942,0.7264150943396226
0.00502994338462,0.7358490566037735
0.00679781665182,0.7452830188679245
0.00682374347672,0.7547169811320755
0.00682374347672,0.7641509433962265
0.00682790323182,0.7735849056603774
0.00682790323182,0.7830188679245284
0.00765962256098,0.7924528301886793
0.0092463234249,0.8018867924528302
0.0106001552881,0.8113207547169812
0.0107533671274,0.8207547169811321
0.0120394260058,0.8301886792452831
0.0120394260058,0.839622641509434
0.0122989196747,0.8490566037735849
0.0122989196747,0.8584905660377359
0.0139712077977,0.8679245283018868
0.0181966492712,0.8773584905660378
0.0181966492712,0.8867924528301887
0.0181966492712,0.8962264150943396
0.0196016271277,0.9056603773584906
0.0202699329656,0.9150943396226415
0.0206995456348,0.9245283018867925
0.0229553037061,0.9339622641509434
0.0524199363958,0.9433962264150944
0.871091745299,0.9528301886792453
0.871091745299,0.9622641509433962
1.25718266593,0.9716981132075472
5.89300041458,0.9811320754716981
6.22237596669,0.9905660377358491
14.3962047639,1.0
