Congestion,CDF
0.0,0.009433962264150943
0.0,0.018867924528301886
0.0,0.02830188679245283
0.0,0.03773584905660377
0.0,0.04716981132075472
0.0,0.05660377358490566
0.0,0.0660377358490566
0.0,0.07547169811320754
0.0,0.08490566037735849
0.0,0.09433962264150944
0.0,0.10377358490566038
0.0,0.11320754716981132
0.0,0.12264150943396226
0.0,0.1320754716981132
0.0,0.14150943396226415
0.0,0.1509433962264151
0.0,0.16037735849056603
0.0,0.16981132075471697
0.0,0.1792452830188679
0.0,0.18867924528301888
0.0,0.19811320754716982
0.0,0.20754716981132076
0.0,0.2169811320754717
0.0,0.22641509433962265
0.0,0.2358490566037736
0.0,0.24528301886792453
0.0,0.25471698113207547
0.0,0.2641509433962264
0.0,0.27358490566037735
0.0,0.2830188679245283
1.58693644299e-07,0.29245283018867924
4.08833116132e-06,0.3018867924528302
4.59739946268e-06,0.3113207547169811
6.2325295287e-06,0.32075471698113206
7.03540133676e-06,0.330188679245283
7.60590712598e-06,0.33962264150943394
9.36147455954e-06,0.3490566037735849
1.42763925873e-05,0.3584905660377358
1.82745366786e-05,0.36792452830188677
1.93402071531e-05,0.37735849056603776
2.25570800122e-05,0.3867924528301887
2.77731674919e-05,0.39622641509433965
2.84095546949e-05,0.4056603773584906
2.99748759974e-05,0.41509433962264153
5.24154240671e-05,0.42452830188679247
0.000192079644309,0.4339622641509434
0.000263291471987,0.44339622641509435
0.000263291471987,0.4528301886792453
0.000685295125448,0.46226415094339623
0.000685295125448,0.4716981132075472
0.000685295125448,0.4811320754716981
0.000702110591965,0.49056603773584906
0.000702110591965,0.5
0.000702110591965,0.5094339622641509
0.000993000847037,0.5188679245283019
0.00108395851472,0.5283018867924528
0.00123111066617,0.5377358490566038
0.00129447025562,0.5471698113207547
0.00129447025562,0.5566037735849056
0.0013705902509,0.5660377358490566
0.0013705902509,0.5754716981132075
0.00186975885861,0.5849056603773585
0.0022817721378,0.5943396226415094
0.00238335698214,0.6037735849056604
0.00238335698214,0.6132075471698113
0.0029530361208,0.6226415094339622
0.0029530361208,0.6320754716981132
0.00372934999244,0.6415094339622641
0.00453600142157,0.6509433962264151
0.00613026899875,0.660377358490566
0.00955921682991,0.6698113207547169
0.00969738322021,0.6792452830188679
0.0101408860348,0.6886792452830188
0.010711503389,0.6981132075471698
0.0188213606848,0.7075471698113207
0.020701085933,0.7169811320754716
0.0220604922378,0.7264150943396226
0.0263274707241,0.7358490566037735
0.0273933102295,0.7452830188679245
0.0308186150252,0.7547169811320755
0.0350110177737,0.7641509433962265
0.0358008691005,0.7735849056603774
0.219369658044,0.7830188679245284
0.770436850204,0.7924528301886793
0.770436850204,0.8018867924528302
0.987280152153,0.8113207547169812
0.987280152153,0.8207547169811321
0.987280152153,0.8301886792452831
1.33177005682,0.839622641509434
1.97456030431,0.8490566037735849
1.97456030431,0.8584905660377359
2.05449826721,0.8679245283018868
2.05449826721,0.8773584905660378
2.05449826721,0.8867924528301887
2.65174664323,0.8962264150943396
2.65174664323,0.9056603773584906
3.62830004136,0.9150943396226415
3.62830004136,0.9245283018867925
3.85172523194,0.9339622641509434
3.90529994124,0.9433962264150944
4.97799115465,0.9528301886792453
4.97799115465,0.9622641509433962
12.5178346179,0.9716981132075472
12.7547900159,0.9811320754716981
13.3864347472,0.9905660377358491
38.5280938446,1.0
