Congestion,CDF
0.0,0.009433962264150943
0.0,0.018867924528301886
0.0,0.02830188679245283
0.0,0.03773584905660377
0.0,0.04716981132075472
0.0,0.05660377358490566
0.0,0.0660377358490566
0.0,0.07547169811320754
0.0,0.08490566037735849
0.0,0.09433962264150944
0.0,0.10377358490566038
0.0,0.11320754716981132
0.0,0.12264150943396226
0.0,0.1320754716981132
0.0,0.14150943396226415
0.0,0.1509433962264151
0.0,0.16037735849056603
0.0,0.16981132075471697
0.0,0.1792452830188679
0.0,0.18867924528301888
0.0,0.19811320754716982
0.0,0.20754716981132076
0.0,0.2169811320754717
0.0,0.22641509433962265
0.0,0.2358490566037736
0.0,0.24528301886792453
0.0,0.25471698113207547
0.0,0.2641509433962264
0.0,0.27358490566037735
0.0,0.2830188679245283
1.5736348937e-07,0.29245283018867924
4.05406316105e-06,0.3018867924528302
4.55886450066e-06,0.3113207547169811
6.18028906305e-06,0.32075471698113206
6.97643127651e-06,0.330188679245283
7.60590712598e-06,0.33962264150943394
9.28300757629e-06,0.3490566037735849
1.41567292318e-05,0.3584905660377358
1.81213612623e-05,0.36792452830188677
1.91780993889e-05,0.37735849056603776
2.23680087277e-05,0.3867924528301887
2.75403754618e-05,0.39622641509433965
2.81714285282e-05,0.4056603773584906
2.97236294573e-05,0.41509433962264153
0.000190469651125,0.42452830188679247
0.000261084588083,0.4339622641509434
0.000261084588083,0.44339622641509435
0.000261607161604,0.4528301886792453
0.000679551047335,0.46226415094339623
0.000679551047335,0.4716981132075472
0.000679551047335,0.4811320754716981
0.000696225568222,0.49056603773584906
0.000696225568222,0.5
0.000696225568222,0.5094339622641509
0.00107487287826,0.5188679245283019
0.00128362012991,0.5283018867924528
0.00128362012991,0.5377358490566038
0.00135910209467,0.5471698113207547
0.00135910209467,0.5566037735849056
0.00185408671892,0.5660377358490566
0.0022817721378,0.5754716981132075
0.00236337991216,0.5849056603773585
0.00236337991216,0.5943396226415094
0.00292828405483,0.6037735849056604
0.00292828405483,0.6132075471698113
0.00369809093795,0.6226415094339622
0.00449798109205,0.6320754716981132
0.00607888567107,0.6415094339622641
0.0091641590724,0.6509433962264151
0.00947909238989,0.660377358490566
0.00948700006618,0.6698113207547169
0.00961610068273,0.6792452830188679
0.0205275714132,0.6886792452830188
0.0234754840158,0.6981132075471698
0.0245532483305,0.7075471698113207
0.0314764181843,0.7169811320754716
0.0329707226836,0.7264150943396226
0.0368209066352,0.7358490566037735
0.0373254253451,0.7452830188679245
0.0399156535531,0.7547169811320755
0.0432740394806,0.7641509433962265
0.043892405392,0.7735849056603774
0.332624675827,0.7830188679245284
1.04977758783,0.7924528301886793
1.04977758783,0.8018867924528302
1.38078399882,0.8113207547169812
1.38078399882,0.8207547169811321
1.38078399882,0.8301886792452831
2.45323381774,0.839622641509434
2.76156799764,0.8490566037735849
2.76156799764,0.8584905660377359
2.79940690088,0.8679245283018868
2.79940690088,0.8773584905660378
2.79940690088,0.8867924528301887
4.84760602412,0.8962264150943396
4.84760602412,0.9056603773584906
5.62646263268,0.9150943396226415
5.62646263268,0.9245283018867925
6.57587661167,0.9339622641509434
6.57587661167,0.9433962264150944
7.68839842397,0.9528301886792453
7.76103764757,0.9622641509433962
15.7626992935,0.9716981132075472
15.9482090668,0.9811320754716981
22.2739553858,0.9905660377358491
50.3699606476,1.0
