Congestion,CDF
0.0,0.009433962264150943
0.0,0.018867924528301886
0.0,0.02830188679245283
0.0,0.03773584905660377
0.0,0.04716981132075472
0.0,0.05660377358490566
0.0,0.0660377358490566
0.0,0.07547169811320754
0.0,0.08490566037735849
0.0,0.09433962264150944
0.0,0.10377358490566038
0.0,0.11320754716981132
0.0,0.12264150943396226
0.0,0.1320754716981132
0.0,0.14150943396226415
0.0,0.1509433962264151
0.0,0.16037735849056603
0.0,0.16981132075471697
0.0,0.1792452830188679
0.0,0.18867924528301888
0.0,0.19811320754716982
0.0,0.20754716981132076
0.0,0.2169811320754717
0.0,0.22641509433962265
0.0,0.2358490566037736
0.0,0.24528301886792453
0.0,0.25471698113207547
0.0,0.2641509433962264
0.0,0.27358490566037735
0.0,0.2830188679245283
1.57278535933e-07,0.29245283018867924
4.05187455554e-06,0.3018867924528302
4.55640337572e-06,0.3113207547169811
6.17695260425e-06,0.32075471698113206
6.9726650165e-06,0.330188679245283
9.27799609997e-06,0.33962264150943394
1.41490866534e-05,0.3490566037735849
1.81115783582e-05,0.3584905660377358
1.91677459996e-05,0.36792452830188677
2.23559332505e-05,0.37735849056603776
2.75255076575e-05,0.3867924528301887
2.81562200469e-05,0.39622641509433965
2.97075830129e-05,0.4056603773584906
0.000190366825167,0.41509433962264153
0.000260943640312,0.42452830188679247
0.000260943640312,0.4339622641509434
0.000679184188431,0.44339622641509435
0.000679184188431,0.4528301886792453
0.000679184188431,0.46226415094339623
0.000695849707498,0.4716981132075472
0.000695849707498,0.4811320754716981
0.000695849707498,0.49056603773584906
0.00107429260296,0.5
0.0012829271614,0.5094339622641509
0.0012829271614,0.5188679245283019
0.00135836837686,0.5283018867924528
0.00135836837686,0.5377358490566038
0.00185308578128,0.5471698113207547
0.00236210403014,0.5566037735849056
0.00236210403014,0.5660377358490566
0.00292670320659,0.5754716981132075
0.00292670320659,0.5849056603773585
0.00369609450576,0.5943396226415094
0.0044955528353,0.6037735849056604
0.00607560395539,0.6132075471698113
0.00947397505624,0.6226415094339622
0.0096109093845,0.6320754716981132
0.0119102462366,0.6415094339622641
0.0157141399335,0.6509433962264151
0.020516489505,0.660377358490566
0.0212960485479,0.6698113207547169
0.0214478306238,0.6792452830188679
0.0238091118724,0.6886792452830188
0.0274415425697,0.6981132075471698
0.0275282974339,0.7075471698113207
0.02949000512,0.7169811320754716
0.0296365297181,0.7264150943396226
0.0312518605366,0.7358490566037735
0.0324338308878,0.7452830188679245
0.0345796524231,0.7547169811320755
0.0348196250814,0.7641509433962265
0.341358720985,0.7735849056603774
0.833527398322,0.7830188679245284
0.833527398322,0.7924528301886793
1.105875192,0.8018867924528302
1.105875192,0.8113207547169812
1.105875192,0.8207547169811321
2.211750384,0.8301886792452831
2.211750384,0.839622641509434
2.22273972886,0.8490566037735849
2.22273972886,0.8584905660377359
2.22273972886,0.8679245283018868
3.5106321406,0.8773584905660378
4.34145887796,0.8867924528301887
4.34145887796,0.8962264150943396
4.71424198004,0.9056603773584906
4.75010733142,0.9150943396226415
4.75010733142,0.9245283018867925
5.3117397672,0.9339622641509434
5.3117397672,0.9433962264150944
9.54171825469,0.9528301886792453
9.57586922177,0.9622641509433962
12.5911407834,0.9716981132075472
12.6631325809,0.9811320754716981
21.1294207571,0.9905660377358491
41.7121512148,1.0
