Congestion,CDF
0.0,0.009433962264150943
0.0,0.018867924528301886
0.0,0.02830188679245283
0.0,0.03773584905660377
0.0,0.04716981132075472
0.0,0.05660377358490566
0.0,0.0660377358490566
0.0,0.07547169811320754
0.0,0.08490566037735849
0.0,0.09433962264150944
0.0,0.10377358490566038
0.0,0.11320754716981132
0.0,0.12264150943396226
0.0,0.1320754716981132
0.0,0.14150943396226415
0.0,0.1509433962264151
0.0,0.16037735849056603
0.0,0.16981132075471697
0.0,0.1792452830188679
0.0,0.18867924528301888
0.0,0.19811320754716982
0.0,0.20754716981132076
0.0,0.2169811320754717
0.0,0.22641509433962265
0.0,0.2358490566037736
0.0,0.24528301886792453
0.0,0.25471698113207547
0.0,0.2641509433962264
0.0,0.27358490566037735
0.0,0.2830188679245283
4.97417197998e-08,0.29245283018867924
1.28146671515e-06,0.3018867924528302
1.44103159827e-06,0.3113207547169811
1.95355484354e-06,0.32075471698113206
2.20521094917e-06,0.330188679245283
2.93430683068e-06,0.33962264150943394
4.47486301649e-06,0.3490566037735849
5.72806105092e-06,0.3584905660377358
6.06209006874e-06,0.36792452830188677
7.07040258872e-06,0.37735849056603776
8.70535881532e-06,0.3867924528301887
8.90483116392e-06,0.39622641509433965
9.39547320548e-06,0.4056603773584906
6.02063925662e-05,0.41509433962264153
8.25273796129e-05,0.42452830188679247
8.25273796129e-05,0.4339622641509434
0.000214802289409,0.44339622641509435
0.000214802289409,0.4528301886792453
0.000214802289409,0.46226415094339623
0.000220073012301,0.4716981132075472
0.000220073012301,0.4811320754716981
0.000220073012301,0.49056603773584906
0.0003397613115,0.5
0.000405745151476,0.5094339622641509
0.000405745151476,0.5188679245283019
0.000429604578819,0.5283018867924528
0.000429604578819,0.5377358490566038
0.000586066453063,0.5471698113207547
0.000747051186025,0.5566037735849056
0.000747051186025,0.5660377358490566
0.000925614229403,0.5754716981132075
0.000925614229403,0.5849056603773585
0.00116894588424,0.5943396226415094
0.00142178669297,0.6037735849056604
0.00192150179788,0.6132075471698113
0.00299628814473,0.6226415094339622
0.00303959570064,0.6320754716981132
0.00648865063613,0.6415094339622641
0.0102463121301,0.6509433962264151
0.0139454532763,0.660377358490566
0.018460599675,0.6698113207547169
0.0185922810636,0.6792452830188679
0.0197707648268,0.6886792452830188
0.0230317016992,0.6981132075471698
0.0237518376628,0.7075471698113207
0.0247920718342,0.7169811320754716
0.0248614359501,0.7264150943396226
0.0268788437738,0.7358490566037735
0.0275906752203,0.7452830188679245
0.0295624577196,0.7547169811320755
0.0297680471427,0.7641509433962265
0.291252481975,0.7735849056603774
0.699227886096,0.7830188679245284
0.699227886096,0.7924528301886793
0.929702693784,0.8018867924528302
0.929702693784,0.8113207547169812
0.929702693784,0.8207547169811321
1.85940538757,0.8301886792452831
1.85940538757,0.839622641509434
1.86460769626,0.8490566037735849
1.86460769626,0.8584905660377359
1.86460769626,0.8679245283018868
2.96306808936,0.8773584905660378
3.62071594944,0.8867924528301887
3.62071594944,0.8962264150943396
3.9875713476,0.9056603773584906
3.9875713476,0.9150943396226415
4.18363598289,0.9245283018867925
4.50045586872,0.9339622641509434
4.50045586872,0.9433962264150944
8.14120627448,0.9528301886792453
8.17083458691,0.9622641509433962
10.7307438578,0.9716981132075472
10.7924206847,0.9811320754716981
17.9537803897,0.9905660377358491
35.5874254996,1.0
