Congestion,CDF
0.0,0.009433962264150943
0.0,0.018867924528301886
0.0,0.02830188679245283
0.0,0.03773584905660377
0.0,0.04716981132075472
0.0,0.05660377358490566
0.0,0.0660377358490566
0.0,0.07547169811320754
0.0,0.08490566037735849
0.0,0.09433962264150944
0.0,0.10377358490566038
0.0,0.11320754716981132
0.0,0.12264150943396226
0.0,0.1320754716981132
0.0,0.14150943396226415
0.0,0.1509433962264151
0.0,0.16037735849056603
0.0,0.16981132075471697
0.0,0.1792452830188679
0.0,0.18867924528301888
0.0,0.19811320754716982
0.0,0.20754716981132076
0.0,0.2169811320754717
0.0,0.22641509433962265
0.0,0.2358490566037736
0.0,0.24528301886792453
0.0,0.25471698113207547
0.0,0.2641509433962264
0.0,0.27358490566037735
0.0,0.2830188679245283
6.89583085535e-08,0.29245283018867924
1.77653240579e-06,0.3018867924528302
1.99774157365e-06,0.3113207547169811
2.70826658627e-06,0.32075471698113206
3.0571443382e-06,0.330188679245283
4.06790992823e-06,0.33962264150943394
6.2036251635e-06,0.3490566037735849
7.94096792295e-06,0.3584905660377358
8.40404149921e-06,0.36792452830188677
9.80189276271e-06,0.37735849056603776
1.20684773601e-05,0.3867924528301887
1.23450113404e-05,0.39622641509433965
1.3025201841e-05,0.4056603773584906
8.34657710305e-05,0.41509433962264153
0.000114409966731,0.42452830188679247
0.000114409966731,0.4339622641509434
0.000297786297111,0.44339622641509435
0.000297786297111,0.4528301886792453
0.000297786297111,0.46226415094339623
0.000305093244617,0.4716981132075472
0.000305093244617,0.4811320754716981
0.000305093244617,0.49056603773584906
0.000471020411985,0.5
0.0005624956166,0.5094339622641509
0.0005624956166,0.5188679245283019
0.000595572594221,0.5283018867924528
0.000595572594221,0.5377358490566038
0.00081247997588,0.5471698113207547
0.00103565752046,0.5566037735849056
0.00103565752046,0.5660377358490566
0.00128320435823,0.5754716981132075
0.00128320435823,0.5849056603773585
0.00162054169603,0.5943396226415094
0.00197106183432,0.6037735849056604
0.00266383057115,0.6132075471698113
0.00415383632153,0.6226415094339622
0.00421387477245,0.6320754716981132
0.00516014054025,0.6415094339622641
0.00687070664766,0.6509433962264151
0.00701917690795,0.660377358490566
0.0076690378355,0.6698113207547169
0.00769557638433,0.6792452830188679
0.00771907202415,0.6886792452830188
0.00841117542912,0.6981132075471698
0.0084290939943,0.7075471698113207
0.00886677557847,0.7169811320754716
0.00899539409701,0.7264150943396226
0.00914288469387,0.7358490566037735
0.00947014157881,0.7452830188679245
0.0097805251634,0.7547169811320755
0.00984892580131,0.7641509433962265
0.106083232579,0.7735849056603774
0.236564308944,0.7830188679245284
0.236564308944,0.7924528301886793
0.316091024786,0.8018867924528302
0.316091024786,0.8113207547169812
0.316091024786,0.8207547169811321
0.630838157184,0.8301886792452831
0.630838157184,0.839622641509434
0.630838157184,0.8490566037735849
0.632182049572,0.8584905660377359
0.632182049572,0.8679245283018868
1.21216080062,0.8773584905660378
1.26328997968,0.8867924528301887
1.26328997968,0.8962264150943396
1.33938492077,0.9056603773584906
1.33938492077,0.9150943396226415
1.50220710559,0.9245283018867925
1.50220710559,0.9339622641509434
2.0612119943,0.9433962264150944
3.06491843376,0.9528301886792453
3.07617612621,0.9622641509433962
3.5656676524,0.9716981132075472
3.58618784377,0.9811320754716981
6.34736212057,0.9905660377358491
11.9958407773,1.0
