Congestion,CDF
0.0,0.009433962264150943
0.0,0.018867924528301886
0.0,0.02830188679245283
0.0,0.03773584905660377
0.0,0.04716981132075472
0.0,0.05660377358490566
0.0,0.0660377358490566
0.0,0.07547169811320754
0.0,0.08490566037735849
0.0,0.09433962264150944
0.0,0.10377358490566038
0.0,0.11320754716981132
0.0,0.12264150943396226
0.0,0.1320754716981132
0.0,0.14150943396226415
0.0,0.1509433962264151
0.0,0.16037735849056603
0.0,0.16981132075471697
0.0,0.1792452830188679
0.0,0.18867924528301888
0.0,0.19811320754716982
0.0,0.20754716981132076
0.0,0.2169811320754717
0.0,0.22641509433962265
0.0,0.2358490566037736
0.0,0.24528301886792453
0.0,0.25471698113207547
0.0,0.2641509433962264
0.0,0.27358490566037735
0.0,0.2830188679245283
5.01389517611e-08,0.29245283018867924
1.29170036888e-06,0.3018867924528302
1.4525395198e-06,0.3113207547169811
1.96915571993e-06,0.32075471698113206
2.22282152383e-06,0.330188679245283
2.95773988571e-06,0.33962264150943394
4.51059878557e-06,0.3490566037735849
5.77380472312e-06,0.3584905660377358
6.11050126033e-06,0.36792452830188677
7.12686605437e-06,0.37735849056603776
7.60590712598e-06,0.3867924528301887
8.77487886348e-06,0.39622641509433965
8.97594417654e-06,0.4056603773584906
9.47050443206e-06,0.41509433962264153
6.06871942654e-05,0.42452830188679247
8.31864342856e-05,0.4339622641509434
8.31864342856e-05,0.44339622641509435
0.000128503857188,0.4528301886792453
0.000216517677117,0.46226415094339623
0.000216517677117,0.4716981132075472
0.000216517677117,0.4811320754716981
0.000221830491428,0.49056603773584906
0.000221830491428,0.5
0.000221830491428,0.5094339622641509
0.00034247460836,0.5188679245283019
0.000408985388101,0.5283018867924528
0.000408985388101,0.5377358490566038
0.000433035354234,0.5471698113207547
0.000433035354234,0.5566037735849056
0.000590746715979,0.5660377358490566
0.0007530170555,0.5754716981132075
0.0007530170555,0.5849056603773585
0.000933006083911,0.5943396226415094
0.000933006083911,0.6037735849056604
0.00117828095887,0.6132075471698113
0.00143314092677,0.6226415094339622
0.00193684670213,0.6320754716981132
0.0022817721378,0.6415094339622641
0.00302021617579,0.6509433962264151
0.00306386958112,0.660377358490566
0.00385192703187,0.6698113207547169
0.00416315750691,0.6792452830188679
0.006540468294,0.6886792452830188
0.0182324475784,0.6981132075471698
0.0190389889965,0.7075471698113207
0.0267922900965,0.7169811320754716
0.0285596708015,0.7264150943396226
0.0329460206124,0.7358490566037735
0.0335936965816,0.7452830188679245
0.0363349016215,0.7547169811320755
0.0399786366567,0.7641509433962265
0.0406656642939,0.7735849056603774
0.284293511542,0.7830188679245284
0.944822716356,0.7924528301886793
0.944822716356,0.8018867924528302
1.23547577296,0.8113207547169812
1.23547577296,0.8207547169811321
1.23547577296,0.8301886792452831
2.02111458803,0.839622641509434
2.47095154593,0.8490566037735849
2.47095154593,0.8584905660377359
2.51952724362,0.8679245283018868
2.51952724362,0.8773584905660378
2.51952724362,0.8867924528301887
4.01331580819,0.8962264150943396
4.01331580819,0.9056603773584906
4.88556218194,0.9150943396226415
4.88556218194,0.9245283018867925
5.75224576411,0.9339622641509434
5.822272621,0.9433962264150944
5.9591059785,0.9528301886792453
5.9591059785,0.9622641509433962
14.4888303918,0.9716981132075472
14.694938683,0.9811320754716981
18.7662966558,0.9905660377358491
45.6971449532,1.0
