Congestion,CDF
0.0136376670634,0.009433962264150943
0.0136376670634,0.018867924528301886
0.0136472309848,0.02830188679245283
0.0136472309848,0.03773584905660377
0.0136484232329,0.04716981132075472
0.0136484232329,0.05660377358490566
0.0136497843489,0.0660377358490566
0.0136497843489,0.07547169811320754
0.0136541061413,0.08490566037735849
0.0136541061413,0.09433962264150944
0.0136562002207,0.10377358490566038
0.0136562002207,0.11320754716981132
0.0136621631272,0.12264150943396226
0.0136621631272,0.1320754716981132
0.0136742538098,0.14150943396226415
0.0136742538098,0.1509433962264151
0.0136835798148,0.16037735849056603
0.0136835798148,0.16981132075471697
0.0136859884386,0.1792452830188679
0.0136859884386,0.18867924528301888
0.0136930622654,0.19811320754716982
0.0136930622654,0.20754716981132076
0.0137039035172,0.2169811320754717
0.0137039035172,0.22641509433962265
0.0137051729595,0.2358490566037736
0.0137051729595,0.24528301886792453
0.0137082461399,0.25471698113207547
0.0137082461399,0.2641509433962264
0.105146274661,0.27358490566037735
0.105146274661,0.2830188679245283
0.139922324204,0.29245283018867924
0.139922324204,0.3018867924528302
0.192662732929,0.3113207547169811
0.192662732929,0.32075471698113206
0.203079977399,0.330188679245283
0.203079977399,0.33962264150943394
0.203217104218,0.3490566037735849
0.203217104218,0.3584905660377358
0.210009108992,0.36792452830188677
0.210009108992,0.37735849056603776
0.232173763742,0.3867924528301887
0.232173763742,0.39622641509433965
0.232431370133,0.4056603773584906
0.232431370133,0.41509433962264153
0.236077514349,0.42452830188679247
0.236077514349,0.4339622641509434
0.248870762217,0.44339622641509435
0.248870762217,0.4528301886792453
0.260787002252,0.46226415094339623
0.260787002252,0.4716981132075472
0.261284082629,0.4811320754716981
0.261284082629,0.49056603773584906
0.299539760108,0.5
0.299539760108,0.5094339622641509
0.310036581473,0.5188679245283019
0.310036581473,0.5283018867924528
0.310273457847,0.5377358490566038
0.310273457847,0.5471698113207547
0.323866845752,0.5566037735849056
0.323866845752,0.5660377358490566
0.331217860215,0.5754716981132075
0.331217860215,0.5849056603773585
0.341264353875,0.5943396226415094
0.341264353875,0.6037735849056604
0.354885046856,0.6132075471698113
0.354885046856,0.6226415094339622
0.367868292918,0.6320754716981132
0.367868292918,0.6415094339622641
0.376111910908,0.6509433962264151
0.376111910908,0.660377358490566
0.38557768859,0.6698113207547169
0.38557768859,0.6792452830188679
0.395221745329,0.6886792452830188
0.395221745329,0.6981132075471698
0.433577896027,0.7075471698113207
0.433577896027,0.7169811320754716
0.441622986353,0.7264150943396226
0.441622986353,0.7358490566037735
0.442152637488,0.7452830188679245
0.442152637488,0.7547169811320755
0.475368139165,0.7641509433962265
0.475368139165,0.7735849056603774
0.476109073222,0.7830188679245284
0.476109073222,0.7924528301886793
0.540147812048,0.8018867924528302
0.540147812048,0.8113207547169812
0.541349904372,0.8207547169811321
0.541349904372,0.8301886792452831
0.555747355628,0.839622641509434
0.555747355628,0.8490566037735849
0.599006052091,0.8584905660377359
0.599006052091,0.8679245283018868
0.599963733846,0.8773584905660378
0.599963733846,0.8867924528301887
0.6035669225,0.8962264150943396
0.6035669225,0.9056603773584906
0.649557335147,0.9150943396226415
0.649557335147,0.9245283018867925
0.651074997037,0.9339622641509434
0.651074997037,0.9433962264150944
0.709129941468,0.9528301886792453
0.709129941468,0.9622641509433962
0.797809372749,0.9716981132075472
0.797809372749,0.9811320754716981
0.833066426991,0.9905660377358491
0.833066426991,1.0
