Congestion,CDF
0.0,0.009433962264150943
0.0,0.018867924528301886
0.0,0.02830188679245283
0.0,0.03773584905660377
0.0,0.04716981132075472
0.0,0.05660377358490566
0.0,0.0660377358490566
0.0,0.07547169811320754
0.0,0.08490566037735849
0.0,0.09433962264150944
0.0,0.10377358490566038
0.0,0.11320754716981132
0.0,0.12264150943396226
0.0,0.1320754716981132
0.0,0.14150943396226415
0.0,0.1509433962264151
0.0,0.16037735849056603
0.0,0.16981132075471697
0.0,0.1792452830188679
0.0,0.18867924528301888
0.0,0.19811320754716982
0.0,0.20754716981132076
0.0,0.2169811320754717
0.0,0.22641509433962265
0.0,0.2358490566037736
0.0,0.24528301886792453
0.0,0.25471698113207547
0.0,0.2641509433962264
0.0,0.27358490566037735
0.0,0.2830188679245283
1.84647447866e-07,0.29245283018867924
4.75696376059e-06,0.3018867924528302
5.3492884441e-06,0.3113207547169811
7.25183844824e-06,0.32075471698113206
8.1860171986e-06,0.330188679245283
1.08925117531e-05,0.33962264150943394
1.66112478392e-05,0.3490566037735849
2.12632747426e-05,0.3584905660377358
2.25032319837e-05,0.36792452830188677
2.62462134129e-05,0.37735849056603776
3.23153741864e-05,0.3867924528301887
3.30558403431e-05,0.39622641509433965
3.48771645988e-05,0.4056603773584906
0.000223493614159,0.41509433962264153
0.000306351893057,0.42452830188679247
0.000306351893057,0.4339622641509434
0.000797372802846,0.44339622641509435
0.000797372802846,0.4528301886792453
0.000797372802846,0.46226415094339623
0.000816938381485,0.4716981132075472
0.000816938381485,0.4811320754716981
0.000816938381485,0.49056603773584906
0.00126123622795,0.5
0.00144040986807,0.5094339622641509
0.0014413896578,0.5188679245283019
0.00145640590599,0.5283018867924528
0.00146033163728,0.5377358490566038
0.00146938399188,0.5471698113207547
0.00150523144281,0.5566037735849056
0.00150617644515,0.5660377358490566
0.00150617644515,0.5754716981132075
0.00154686043231,0.5849056603773585
0.00159474560569,0.5943396226415094
0.00159474560569,0.6037735849056604
0.00172078377766,0.6132075471698113
0.00173374374957,0.6226415094339622
0.00182385639995,0.6320754716981132
0.00209227509199,0.6415094339622641
0.00214147867856,0.6509433962264151
0.00214261259598,0.660377358490566
0.00217555153447,0.6698113207547169
0.00277314687711,0.6792452830188679
0.00277314687711,0.6886792452830188
0.00343599509336,0.6981132075471698
0.00343599509336,0.7075471698113207
0.00433927244751,0.7169811320754716
0.00527784896305,0.7264150943396226
0.00713285355786,0.7358490566037735
0.0111225940965,0.7452830188679245
0.0112833571281,0.7547169811320755
0.0219747632299,0.7641509433962265
0.0240866778406,0.7735849056603774
0.0483970437468,0.7830188679245284
0.0483970437468,0.7924528301886793
0.0650153906089,0.8018867924528302
0.0650153906089,0.8113207547169812
0.0650153906089,0.8207547169811321
0.129058783325,0.8301886792452831
0.129058783325,0.839622641509434
0.129058783325,0.8490566037735849
0.130030781218,0.8584905660377359
0.130030781218,0.8679245283018868
0.261004251127,0.8773584905660378
0.261004251127,0.8867924528301887
0.26649712402,0.8962264150943396
0.26649712402,0.9056603773584906
0.297535871204,0.9150943396226415
0.302342431698,0.9245283018867925
0.302342431698,0.9339622641509434
0.432122960422,0.9433962264150944
0.585316924132,0.9528301886792453
0.5916156493,0.9622641509433962
0.757227309868,0.9716981132075472
0.772328561065,0.9811320754716981
1.22251087065,0.9905660377358491
2.57512271677,1.0
