Congestion,CDF
0.000932668271369,0.005555555555555556
0.000932668271369,0.011111111111111112
0.000932868311155,0.016666666666666666
0.000932868311155,0.022222222222222223
0.000934792832852,0.027777777777777776
0.000934792832852,0.03333333333333333
0.000936382896767,0.03888888888888889
0.000936382896767,0.044444444444444446
0.000936499654033,0.05
0.000936499654033,0.05555555555555555
0.000938142238189,0.06111111111111111
0.000938142238189,0.06666666666666667
0.000938817966821,0.07222222222222222
0.000938817966821,0.07777777777777778
0.00094161174748,0.08333333333333333
0.00094161174748,0.08888888888888889
0.00094166422106,0.09444444444444444
0.00094166422106,0.1
0.000941899270264,0.10555555555555556
0.000941899270264,0.1111111111111111
0.000942113715029,0.11666666666666667
0.000942113715029,0.12222222222222222
0.000943183043963,0.12777777777777777
0.000943183043963,0.13333333333333333
0.000943453293657,0.1388888888888889
0.000943453293657,0.14444444444444443
0.000944841629472,0.15
0.000944841629472,0.15555555555555556
0.000945162248673,0.16111111111111112
0.000945162248673,0.16666666666666666
0.000945880667927,0.17222222222222222
0.000945880667927,0.17777777777777778
0.000948101329953,0.18333333333333332
0.000948101329953,0.18888888888888888
0.000949643382533,0.19444444444444445
0.000949643382533,0.2
0.000950430636703,0.20555555555555555
0.000950430636703,0.2111111111111111
0.000951173706733,0.21666666666666667
0.000951173706733,0.2222222222222222
0.000951478488326,0.22777777777777777
0.000951478488326,0.23333333333333334
0.000951635593193,0.2388888888888889
0.000951635593193,0.24444444444444444
0.000952287979951,0.25
0.000952287979951,0.25555555555555554
0.000952993376512,0.2611111111111111
0.000952993376512,0.26666666666666666
0.000953347375668,0.2722222222222222
0.000953347375668,0.2777777777777778
0.000953587978273,0.2833333333333333
0.000953587978273,0.28888888888888886
0.000953707520334,0.29444444444444445
0.000953707520334,0.3
0.000953955952946,0.3055555555555556
0.000953955952946,0.3111111111111111
0.000954169692909,0.31666666666666665
0.000954169692909,0.32222222222222224
0.000954218115923,0.3277777777777778
0.000954218115923,0.3333333333333333
0.000954956491594,0.3388888888888889
0.000954956491594,0.34444444444444444
0.000955146812503,0.35
0.000955146812503,0.35555555555555557
0.000955410529072,0.3611111111111111
0.000955410529072,0.36666666666666664
0.000957331618186,0.37222222222222223
0.000957331618186,0.37777777777777777
0.000958147672025,0.38333333333333336
0.000958147672025,0.3888888888888889
0.000958635668994,0.39444444444444443
0.000958635668994,0.4
0.000960873117116,0.40555555555555556
0.000960873117116,0.4111111111111111
0.000961320137788,0.4166666666666667
0.000961320137788,0.4222222222222222
0.000961732073213,0.42777777777777776
0.000961732073213,0.43333333333333335
0.000962713144496,0.4388888888888889
0.000962713144496,0.4444444444444444
0.0324895540634,0.45
0.0324895540634,0.45555555555555555
0.0348287031279,0.46111111111111114
0.0348287031279,0.4666666666666667
0.0454700917498,0.4722222222222222
0.0454700917498,0.4777777777777778
0.0534571180865,0.48333333333333334
0.0534571180865,0.4888888888888889
0.0617427134566,0.49444444444444446
0.0617427134566,0.5
0.0814995612093,0.5055555555555555
0.0814995612093,0.5111111111111111
0.0829895591679,0.5166666666666667
0.0829895591679,0.5222222222222223
0.0840045690248,0.5277777777777778
0.0840045690248,0.5333333333333333
0.103316396031,0.5388888888888889
0.103316396031,0.5444444444444444
0.104504416124,0.55
0.104504416124,0.5555555555555556
0.107980055794,0.5611111111111111
0.107980055794,0.5666666666666667
0.108018920578,0.5722222222222222
0.108018920578,0.5777777777777777
0.110940624793,0.5833333333333334
0.110940624793,0.5888888888888889
0.115303928434,0.5944444444444444
0.115303928434,0.6
0.120622793541,0.6055555555555555
0.120622793541,0.6111111111111112
0.124386979171,0.6166666666666667
0.124386979171,0.6222222222222222
0.126516887024,0.6277777777777778
0.126516887024,0.6333333333333333
0.127264380205,0.6388888888888888
0.127264380205,0.6444444444444445
0.129800061619,0.65
0.129800061619,0.6555555555555556
0.130256339805,0.6611111111111111
0.130256339805,0.6666666666666666
0.136778800971,0.6722222222222223
0.136778800971,0.6777777777777778
0.139024958794,0.6833333333333333
0.139024958794,0.6888888888888889
0.139476197332,0.6944444444444444
0.139476197332,0.7
0.144069620961,0.7055555555555556
0.144069620961,0.7111111111111111
0.150259576945,0.7166666666666667
0.150259576945,0.7222222222222222
0.156503398745,0.7277777777777777
0.156503398745,0.7333333333333333
0.164900302018,0.7388888888888889
0.164900302018,0.7444444444444445
0.183826891059,0.75
0.183826891059,0.7555555555555555
0.187331054235,0.7611111111111111
0.187331054235,0.7666666666666667
0.191581021976,0.7722222222222223
0.191581021976,0.7777777777777778
0.196307189548,0.7833333333333333
0.196307189548,0.7888888888888889
0.206426566169,0.7944444444444444
0.206426566169,0.8
0.209836883707,0.8055555555555556
0.209836883707,0.8111111111111111
0.21606360869,0.8166666666666667
0.21606360869,0.8222222222222222
0.228961668009,0.8277777777777777
0.228961668009,0.8333333333333334
0.237014587465,0.8388888888888889
0.237014587465,0.8444444444444444
0.248034427677,0.85
0.248034427677,0.8555555555555555
0.269256969193,0.8611111111111112
0.269256969193,0.8666666666666667
0.288149597158,0.8722222222222222
0.288149597158,0.8777777777777778
0.296791215307,0.8833333333333333
0.296791215307,0.8888888888888888
0.302101801433,0.8944444444444445
0.302101801433,0.9
0.323991809302,0.9055555555555556
0.323991809302,0.9111111111111111
0.342359389481,0.9166666666666666
0.342359389481,0.9222222222222223
0.350859877119,0.9277777777777778
0.350859877119,0.9333333333333333
0.387881387311,0.9388888888888889
0.387881387311,0.9444444444444444
0.399490086991,0.95
0.399490086991,0.9555555555555556
0.412191029,0.9611111111111111
0.412191029,0.9666666666666667
0.42976703755,0.9722222222222222
0.42976703755,0.9777777777777777
0.466608398306,0.9833333333333333
0.466608398306,0.9888888888888889
0.489349399939,0.9944444444444445
0.489349399939,1.0
