Congestion,CDF
0.00163116020233,0.005555555555555556
0.00163116020233,0.011111111111111112
0.00163136026003,0.016666666666666666
0.00163136026003,0.022222222222222223
0.00163328497873,0.027777777777777776
0.00163328497873,0.03333333333333333
0.00163487486355,0.03888888888888889
0.00163487486355,0.044444444444444446
0.0016349916029,0.05
0.0016349916029,0.05555555555555555
0.00163663416915,0.06111111111111111
0.00163663416915,0.06666666666666667
0.0016373099336,0.07222222222222222
0.0016373099336,0.07777777777777778
0.00164010371426,0.08333333333333333
0.00164010371426,0.08888888888888889
0.00164015631321,0.09444444444444444
0.00164015631321,0.1
0.00164039121914,0.10555555555555556
0.00164039121914,0.1111111111111111
0.00164060573554,0.11666666666666667
0.00164060573554,0.12222222222222222
0.00164167504656,0.12777777777777777
0.00164167504656,0.13333333333333333
0.00164194522462,0.1388888888888889
0.00164194522462,0.14444444444444443
0.00164333361416,0.15
0.00164333361416,0.15555555555555556
0.00164365417963,0.16111111111111112
0.00164365417963,0.16666666666666666
0.00164437263471,0.17222222222222222
0.00164437263471,0.17777777777777778
0.00164659329673,0.18333333333333332
0.00164659329673,0.18888888888888888
0.00164813536722,0.19444444444444445
0.00164813536722,0.2
0.00164892256767,0.20555555555555555
0.00164892256767,0.2111111111111111
0.00164966569143,0.21666666666666667
0.00164966569143,0.2222222222222222
0.00164997041929,0.22777777777777777
0.00164997041929,0.23333333333333334
0.00165012754206,0.2388888888888889
0.00165012754206,0.24444444444444444
0.00165077992882,0.25
0.00165077992882,0.25555555555555554
0.00165148532538,0.2611111111111111
0.00165148532538,0.26666666666666666
0.00165183932454,0.2722222222222222
0.00165183932454,0.2777777777777778
0.00165207992714,0.2833333333333333
0.00165207992714,0.28888888888888886
0.00165219952294,0.29444444444444445
0.00165219952294,0.3
0.00165244790182,0.3055555555555556
0.00165244790182,0.3111111111111111
0.00165266164178,0.31666666666666665
0.00165266164178,0.32222222222222224
0.00165271004688,0.3277777777777778
0.00165271004688,0.3333333333333333
0.00165344842256,0.3388888888888889
0.00165344842256,0.34444444444444444
0.00165363879719,0.35
0.00165363879719,0.35555555555555557
0.00165390247794,0.3611111111111111
0.00165390247794,0.36666666666666664
0.00165582358497,0.37222222222222223
0.00165582358497,0.37777777777777777
0.0016566396209,0.38333333333333336
0.0016566396209,0.3888888888888889
0.00165712765369,0.39444444444444443
0.00165712765369,0.4
0.0016593650839,0.40555555555555556
0.0016593650839,0.4111111111111111
0.00165981208666,0.4166666666666667
0.00165981208666,0.4222222222222222
0.00166022402208,0.42777777777777776
0.00166022402208,0.43333333333333335
0.00166120509337,0.4388888888888889
0.00166120509337,0.4444444444444444
0.0564890293643,0.45
0.0564890293643,0.45555555555555555
0.0606490274925,0.46111111111111114
0.0606490274925,0.4666666666666667
0.0792006963402,0.4722222222222222
0.0792006963402,0.4777777777777778
0.0931577361958,0.48333333333333334
0.0931577361958,0.4888888888888889
0.107562597885,0.49444444444444446
0.107562597885,0.5
0.141489700441,0.5055555555555555
0.141489700441,0.5111111111111111
0.144173704685,0.5166666666666667
0.144173704685,0.5222222222222223
0.146391243879,0.5277777777777778
0.146391243879,0.5333333333333333
0.17885416464,0.5388888888888889
0.17885416464,0.5444444444444444
0.181219128796,0.55
0.181219128796,0.5555555555555556
0.187232026675,0.5611111111111111
0.187232026675,0.5666666666666667
0.187420142468,0.5722222222222222
0.187420142468,0.5777777777777777
0.192346071201,0.5833333333333334
0.192346071201,0.5888888888888889
0.200943834287,0.5944444444444444
0.200943834287,0.6
0.208680548915,0.6055555555555555
0.208680548915,0.6111111111111112
0.216508616546,0.6166666666666667
0.216508616546,0.6222222222222222
0.219359174473,0.6277777777777778
0.219359174473,0.6333333333333333
0.221322007538,0.6388888888888888
0.221322007538,0.6444444444444445
0.225175346646,0.65
0.225175346646,0.6555555555555556
0.225989827613,0.6611111111111111
0.225989827613,0.6666666666666666
0.237672085857,0.6722222222222223
0.237672085857,0.6777777777777778
0.24172979099,0.6833333333333333
0.24172979099,0.6888888888888889
0.242604747526,0.6944444444444444
0.242604747526,0.7
0.250028892049,0.7055555555555556
0.250028892049,0.7111111111111111
0.260572694674,0.7166666666666667
0.260572694674,0.7222222222222222
0.271724717868,0.7277777777777777
0.271724717868,0.7333333333333333
0.285660947436,0.7388888888888889
0.285660947436,0.7444444444444445
0.319047766665,0.75
0.319047766665,0.7555555555555555
0.325238439058,0.7611111111111111
0.325238439058,0.7666666666666667
0.332341227457,0.7722222222222223
0.332341227457,0.7777777777777778
0.340781599092,0.7833333333333333
0.340781599092,0.7888888888888889
0.360154493534,0.7944444444444444
0.360154493534,0.8
0.365330259406,0.8055555555555556
0.365330259406,0.8111111111111111
0.375463056509,0.8166666666666667
0.375463056509,0.8222222222222222
0.397913137458,0.8277777777777777
0.397913137458,0.8333333333333334
0.411641855909,0.8388888888888889
0.411641855909,0.8444444444444444
0.431757455999,0.85
0.431757455999,0.8555555555555555
0.467461530855,0.8611111111111112
0.467461530855,0.8666666666666667
0.500537220587,0.8722222222222222
0.500537220587,0.8777777777777778
0.514688295844,0.8833333333333333
0.514688295844,0.8888888888888888
0.524463619621,0.8944444444444445
0.524463619621,0.9
0.562195471391,0.9055555555555556
0.562195471391,0.9111111111111111
0.594511576293,0.9166666666666666
0.594511576293,0.9222222222222223
0.608764593671,0.9277777777777778
0.608764593671,0.9333333333333333
0.672651179922,0.9388888888888889
0.672651179922,0.9444444444444444
0.693057128506,0.95
0.693057128506,0.9555555555555556
0.715983860959,0.9611111111111111
0.715983860959,0.9666666666666667
0.746774937192,0.9722222222222222
0.746774937192,0.9777777777777777
0.810481377589,0.9833333333333333
0.810481377589,0.9888888888888889
0.850403244864,0.9944444444444445
0.850403244864,1.0
