Congestion,CDF
0.0,0.009433962264150943
0.0,0.018867924528301886
0.0,0.02830188679245283
0.0,0.03773584905660377
0.0,0.04716981132075472
0.0,0.05660377358490566
0.0,0.0660377358490566
0.0,0.07547169811320754
0.0,0.08490566037735849
0.0,0.09433962264150944
0.0,0.10377358490566038
0.0,0.11320754716981132
0.0,0.12264150943396226
0.0,0.1320754716981132
0.0,0.14150943396226415
0.0,0.1509433962264151
0.0,0.16037735849056603
0.0,0.16981132075471697
0.0,0.1792452830188679
0.0,0.18867924528301888
0.0,0.19811320754716982
0.0,0.20754716981132076
0.0,0.2169811320754717
0.0,0.22641509433962265
0.0,0.2358490566037736
0.0,0.24528301886792453
0.0,0.25471698113207547
0.0,0.2641509433962264
0.0,0.27358490566037735
0.0,0.2830188679245283
5.09146501461e-08,0.29245283018867924
1.31168423083e-06,0.3018867924528302
1.47501171996e-06,0.3113207547169811
1.99962047554e-06,0.32075471698113206
2.25721073632e-06,0.330188679245283
3.00349900057e-06,0.33962264150943394
4.58038213904e-06,0.3490566037735849
5.86313110195e-06,0.3584905660377358
6.2050366623e-06,0.36792452830188677
7.23712560895e-06,0.37735849056603776
8.91063478026e-06,0.3867924528301887
9.11481076942e-06,0.39622641509433965
9.61702235345e-06,0.4056603773584906
1.71132910335e-05,0.41509433962264153
3.75437375071e-05,0.42452830188679247
3.75437375071e-05,0.4339622641509434
6.16260842287e-05,0.44339622641509435
7.32891387744e-05,0.4528301886792453
7.32891387744e-05,0.46226415094339623
7.50874750143e-05,0.4716981132075472
7.50874750143e-05,0.4811320754716981
7.50874750143e-05,0.49056603773584906
0.000115924341296,0.5
0.000146578277549,0.5094339622641509
0.000146578277549,0.5188679245283019
0.000146578277549,0.5283018867924528
0.000184583462279,0.5377358490566038
0.000184583462279,0.5471698113207547
0.000199962047554,0.5566037735849056
0.000339851983234,0.5660377358490566
0.000339851983234,0.5754716981132075
0.000421084709397,0.5849056603773585
0.000421084709397,0.5943396226415094
0.000646805783029,0.6037735849056604
0.000655603868596,0.6132075471698113
0.00075778596246,0.6226415094339622
0.00102231395322,0.6320754716981132
0.00106356454413,0.6415094339622641
0.00138278694474,0.6509433962264151
0.00171132910335,0.660377358490566
0.00221388523482,0.6698113207547169
0.00290972283204,0.6792452830188679
0.00336481900042,0.6886792452830188
0.016107056788,0.6981132075471698
0.0291823645918,0.7075471698113207
0.0385353844751,0.7169811320754716
0.0385890267977,0.7264150943396226
0.0480647015138,0.7358490566037735
0.0484573678728,0.7452830188679245
0.0530466858847,0.7547169811320755
0.0644297489674,0.7641509433962265
0.0658097334504,0.7735849056603774
0.409271511428,0.7830188679245284
0.600808768922,0.7924528301886793
0.600808768922,0.8018867924528302
0.605717098411,0.8113207547169812
0.605717098411,0.8207547169811321
1.20161753784,0.8301886792452831
1.20161753784,0.839622641509434
1.20161753784,0.8490566037735849
1.21143419682,0.8584905660377359
1.21143419682,0.8679245283018868
1.21143419682,0.8773584905660378
2.66564409692,0.8867924528301887
2.66564409692,0.8962264150943396
2.95661638013,0.9056603773584906
3.00212599697,0.9150943396226415
3.13597720722,0.9245283018867925
3.13597720722,0.9339622641509434
3.21175580346,0.9433962264150944
3.85886016157,0.9528301886792453
3.85886016157,0.9622641509433962
7.64950076407,0.9716981132075472
7.78749921237,0.9811320754716981
8.60554304758,0.9905660377358491
23.1493985855,1.0
