Congestion,CDF
0.0,0.009433962264150943
0.0,0.018867924528301886
0.0,0.02830188679245283
0.0,0.03773584905660377
0.0,0.04716981132075472
0.0,0.05660377358490566
0.0,0.0660377358490566
0.0,0.07547169811320754
0.0,0.08490566037735849
0.0,0.09433962264150944
0.0,0.10377358490566038
0.0,0.11320754716981132
0.0,0.12264150943396226
0.0,0.1320754716981132
0.0,0.14150943396226415
0.0,0.1509433962264151
0.0,0.16037735849056603
0.0,0.16981132075471697
0.0,0.1792452830188679
0.0,0.18867924528301888
0.0,0.19811320754716982
0.0,0.20754716981132076
0.0,0.2169811320754717
0.0,0.22641509433962265
0.0,0.2358490566037736
0.0,0.24528301886792453
0.0,0.25471698113207547
0.0,0.2641509433962264
0.0,0.27358490566037735
0.0,0.2830188679245283
1.73510441401e-07,0.29245283018867924
4.47004760353e-06,0.3018867924528302
5.02664623772e-06,0.3113207547169811
6.81444398322e-06,0.32075471698113206
7.69227776428e-06,0.330188679245283
1.02355301636e-05,0.33962264150943394
1.56093408175e-05,0.3490566037735849
1.99807808278e-05,0.3584905660377358
2.11459500772e-05,0.36792452830188677
2.46631736697e-05,0.37735849056603776
3.03662731543e-05,0.3867924528301887
3.10620781122e-05,0.39622641509433965
3.27735492383e-05,0.4056603773584906
0.000127944127045,0.41509433962264153
0.000127944127045,0.42452830188679247
0.000210013602091,0.4339622641509434
0.000249759760348,0.44339622641509435
0.000249759760348,0.4528301886792453
0.000255888254089,0.46226415094339623
0.000255888254089,0.4716981132075472
0.000255888254089,0.4811320754716981
0.000395054931532,0.49056603773584906
0.000499519520695,0.5
0.000499519520695,0.5094339622641509
0.000499519520695,0.5188679245283019
0.000629036199278,0.5283018867924528
0.000629036199278,0.5377358490566038
0.000681444398322,0.5471698113207547
0.00115817092827,0.5566037735849056
0.00115817092827,0.5660377358490566
0.00143500139125,0.5754716981132075
0.00143500139125,0.5849056603773585
0.00220422916768,0.5943396226415094
0.0022342118879,0.6037735849056604
0.00348391169861,0.6132075471698113
0.00362448829524,0.6226415094339622
0.00471235631508,0.6320754716981132
0.00754463014484,0.6415094339622641
0.00895546049722,0.6509433962264151
0.00896625050313,0.660377358490566
0.00896764830381,0.6698113207547169
0.00897213804695,0.6792452830188679
0.00897434257384,0.6886792452830188
0.00898072950997,0.6981132075471698
0.00899422490092,0.7075471698113207
0.00900520301231,0.7169811320754716
0.00900812913226,0.7264150943396226
0.00901696202767,0.7358490566037735
0.00903128437026,0.7452830188679245
0.00903303176341,0.7547169811320755
0.00903732982552,0.7641509433962265
0.112259118875,0.7735849056603774
0.112259118875,0.7830188679245284
0.112565037654,0.7924528301886793
0.112565037654,0.8018867924528302
0.116942734467,0.8113207547169812
0.224518237749,0.8207547169811321
0.224518237749,0.8301886792452831
0.224518237749,0.839622641509434
0.225130075308,0.8490566037735849
0.225130075308,0.8584905660377359
0.225130075308,0.8679245283018868
0.673206571719,0.8773584905660378
0.673206571719,0.8867924528301887
0.674535401575,0.8962264150943396
0.674535401575,0.9056603773584906
0.675230613142,0.9150943396226415
0.675230613142,0.9245283018867925
0.897213804695,0.9339622641509434
1.12037020625,0.9433962264150944
1.12812733287,0.9528301886792453
1.57266487053,0.9622641509433962
1.57623160434,0.9716981132075472
1.57896359569,0.9811320754716981
2.24436702361,0.9905660377358491
3.82483254786,1.0
