Congestion,CDF
0.0,0.009433962264150943
0.0,0.018867924528301886
0.0,0.02830188679245283
0.0,0.03773584905660377
0.0,0.04716981132075472
0.0,0.05660377358490566
0.0,0.0660377358490566
0.0,0.07547169811320754
0.0,0.08490566037735849
0.0,0.09433962264150944
0.0,0.10377358490566038
0.0,0.11320754716981132
0.0,0.12264150943396226
0.0,0.1320754716981132
0.0,0.14150943396226415
0.0,0.1509433962264151
0.0,0.16037735849056603
0.0,0.16981132075471697
0.0,0.1792452830188679
0.0,0.18867924528301888
0.0,0.19811320754716982
0.0,0.20754716981132076
0.0,0.2169811320754717
0.0,0.22641509433962265
0.0,0.2358490566037736
0.0,0.24528301886792453
0.0,0.25471698113207547
0.0,0.2641509433962264
0.0,0.27358490566037735
0.0,0.2830188679245283
2.61053260051e-08,0.29245283018867924
6.72536182872e-07,0.3018867924528302
7.56278629045e-07,0.3113207547169811
1.02525980736e-06,0.32075471698113206
1.1573333405e-06,0.330188679245283
1.53997563257e-06,0.33962264150943394
2.34848650879e-06,0.3490566037735849
3.00618679276e-06,0.3584905660377358
3.18149107336e-06,0.36792452830188677
3.71067114906e-06,0.37735849056603776
4.56872482053e-06,0.3867924528301887
4.67341140375e-06,0.39622641509433965
4.93090894301e-06,0.4056603773584906
1.71132910335e-05,0.41509433962264153
1.92496954072e-05,0.42452830188679247
1.92496954072e-05,0.4339622641509434
3.15973696096e-05,0.44339622641509435
3.75773349095e-05,0.4528301886792453
3.75773349095e-05,0.46226415094339623
3.84993908143e-05,0.4716981132075472
3.84993908143e-05,0.4811320754716981
3.84993908143e-05,0.49056603773584906
5.94375629172e-05,0.5
7.5154669819e-05,0.5094339622641509
7.5154669819e-05,0.5188679245283019
7.5154669819e-05,0.5283018867924528
9.46409617689e-05,0.5377358490566038
9.46409617689e-05,0.5471698113207547
0.000102525980736,0.5566037735849056
0.000174251355756,0.5660377358490566
0.000174251355756,0.5754716981132075
0.000215901583985,0.5849056603773585
0.000215901583985,0.5943396226415094
0.000331634918035,0.6037735849056604
0.000336145935812,0.6132075471698113
0.000524168170691,0.6226415094339622
0.000545318470662,0.6320754716981132
0.000708992478285,0.6415094339622641
0.00113511917743,0.6509433962264151
0.00171132910335,0.660377358490566
0.0387145463577,0.6698113207547169
0.0392107143488,0.6792452830188679
0.040151415083,0.6886792452830188
0.054220521117,0.6981132075471698
0.0631641471997,0.7075471698113207
0.068986658083,0.7169811320754716
0.0710792740576,0.7264150943396226
0.0749434506603,0.7358490566037735
0.0751910121306,0.7452830188679245
0.0790224362102,0.7547169811320755
0.0876140393829,0.7641509433962265
0.0885328027759,0.7735849056603774
0.780848130698,0.7830188679245284
0.936793133254,0.7924528301886793
0.936793133254,0.8018867924528302
0.939887651633,0.8113207547169812
0.939887651633,0.8207547169811321
1.87358626651,0.8301886792452831
1.87358626651,0.839622641509434
1.87358626651,0.8490566037735849
1.87977530327,0.8584905660377359
1.87977530327,0.8679245283018868
1.87977530327,0.8773584905660378
5.03488814487,0.8867924528301887
5.03488814487,0.8962264150943396
5.32601368904,0.9056603773584906
5.32601368904,0.9150943396226415
5.8278025954,0.9245283018867925
5.8278025954,0.9339622641509434
8.90634278064,0.9433962264150944
8.95595957976,0.9528301886792453
9.34115519734,0.9622641509433962
10.6380847232,0.9716981132075472
10.7299610625,0.9811320754716981
16.5758683961,0.9905660377358491
34.3037757868,1.0
