Congestion,CDF
0.0,0.009433962264150943
0.0,0.018867924528301886
0.0,0.02830188679245283
0.0,0.03773584905660377
0.0,0.04716981132075472
0.0,0.05660377358490566
0.0,0.0660377358490566
0.0,0.07547169811320754
0.0,0.08490566037735849
0.0,0.09433962264150944
0.0,0.10377358490566038
0.0,0.11320754716981132
0.0,0.12264150943396226
0.0,0.1320754716981132
0.0,0.14150943396226415
0.0,0.1509433962264151
0.0,0.16037735849056603
0.0,0.16981132075471697
0.0,0.1792452830188679
0.0,0.18867924528301888
0.0,0.19811320754716982
0.0,0.20754716981132076
0.0,0.2169811320754717
0.0,0.22641509433962265
0.0,0.2358490566037736
0.0,0.24528301886792453
0.0,0.25471698113207547
0.0,0.2641509433962264
0.0,0.27358490566037735
0.0,0.2830188679245283
6.67150145448e-08,0.29245283018867924
1.71873973968e-06,0.3018867924528302
1.93275271593e-06,0.3113207547169811
2.62016352321e-06,0.32075471698113206
2.95769187596e-06,0.330188679245283
3.93557608534e-06,0.33962264150943394
6.00181401916e-06,0.3490566037735849
7.68263899728e-06,0.3584905660377358
8.13064825132e-06,0.36792452830188677
9.48302578686e-06,0.37735849056603776
1.16758757502e-05,0.3867924528301887
1.19434137583e-05,0.39622641509433965
1.26014768706e-05,0.4056603773584906
4.91947010668e-05,0.41509433962264153
4.91947010668e-05,0.42452830188679247
8.07505323883e-05,0.4339622641509434
9.6032987466e-05,0.44339622641509435
9.6032987466e-05,0.4528301886792453
9.83894021336e-05,0.46226415094339623
9.83894021336e-05,0.4716981132075472
9.83894021336e-05,0.4811320754716981
0.000151899189987,0.49056603773584906
0.000192065974932,0.5
0.000192065974932,0.5094339622641509
0.000192065974932,0.5188679245283019
0.000241865324329,0.5283018867924528
0.000241865324329,0.5377358490566038
0.000262016352321,0.5471698113207547
0.00044531838949,0.5566037735849056
0.00044531838949,0.5660377358490566
0.000551760101099,0.5754716981132075
0.000551760101099,0.5849056603773585
0.000847529288695,0.5943396226415094
0.000859057687788,0.6037735849056604
0.00133956906437,0.6132075471698113
0.00139362096818,0.6226415094339622
0.00181190778815,0.6320754716981132
0.0029009211537,0.6415094339622641
0.00897213804695,0.6509433962264151
0.0190730010372,0.660377358490566
0.0192624034528,0.6698113207547169
0.0194429667153,0.6792452830188679
0.0203308592228,0.6886792452830188
0.0227864713039,0.6981132075471698
0.0238987977804,0.7075471698113207
0.0251249342165,0.7169811320754716
0.0251934025003,0.7264150943396226
0.027557129704,0.7358490566037735
0.0289963125792,0.7452830188679245
0.0315998516498,0.7547169811320755
0.0319029451973,0.7641509433962265
0.304141213406,0.7735849056603774
0.314061677706,0.7830188679245284
0.314061677706,0.7924528301886793
0.314917531253,0.8018867924528302
0.314917531253,0.8113207547169812
0.628123355413,0.8207547169811321
0.628123355413,0.8301886792452831
0.628123355413,0.839622641509434
0.629835062507,0.8490566037735849
0.629835062507,0.8584905660377359
0.629835062507,0.8679245283018868
0.897213804695,0.8773584905660378
1.6455221701,0.8867924528301887
1.6455221701,0.8962264150943396
1.76830277416,0.9056603773584906
1.76830277416,0.9150943396226415
2.00683569416,0.9245283018867925
2.00683569416,0.9339622641509434
3.55282227381,0.9433962264150944
3.57176251537,0.9528301886792453
3.71259944569,0.9622641509433962
3.78896437394,0.9716981132075472
3.81927372869,0.9811320754716981
6.16501824636,0.9905660377358491
12.5147050547,1.0
