Congestion,CDF
0.0,0.007352941176470588
0.0,0.014705882352941176
0.0156057734864,0.022058823529411766
0.0156057734864,0.029411764705882353
0.0269817298627,0.03676470588235294
0.0269817298627,0.04411764705882353
0.0271898977283,0.051470588235294115
0.0271898977283,0.058823529411764705
0.0274828076003,0.0661764705882353
0.0274828076003,0.07352941176470588
0.027654300146,0.08088235294117647
0.027654300146,0.08823529411764706
0.0281592437152,0.09558823529411764
0.0281592437152,0.10294117647058823
0.0282359106437,0.11029411764705882
0.0282359106437,0.11764705882352941
0.0300834561662,0.125
0.0300834561662,0.1323529411764706
0.030511362743,0.13970588235294118
0.030511362743,0.14705882352941177
0.0315207988838,0.15441176470588236
0.0315207988838,0.16176470588235295
0.0316450299444,0.16911764705882354
0.0316450299444,0.17647058823529413
0.0325473575047,0.18382352941176472
0.0325473575047,0.19117647058823528
0.032635699658,0.19852941176470587
0.032635699658,0.20588235294117646
0.0332632984616,0.21323529411764705
0.0332632984616,0.22058823529411764
0.0336953314025,0.22794117647058823
0.0336953314025,0.23529411764705882
0.0338438396071,0.2426470588235294
0.0338438396071,0.25
0.0340561393779,0.25735294117647056
0.0340561393779,0.2647058823529412
0.0347330219981,0.27205882352941174
0.0347330219981,0.27941176470588236
0.0352577765189,0.2867647058823529
0.0352577765189,0.29411764705882354
0.0353774438743,0.3014705882352941
0.0353774438743,0.3088235294117647
0.0354248781977,0.3161764705882353
0.0354248781977,0.3235294117647059
0.0368925222126,0.33088235294117646
0.0368925222126,0.3382352941176471
0.037024532973,0.34558823529411764
0.037024532973,0.35294117647058826
0.0372588810018,0.3602941176470588
0.0372588810018,0.36764705882352944
0.0381484139725,0.375
0.0381484139725,0.38235294117647056
0.0388665984832,0.3897058823529412
0.0388665984832,0.39705882352941174
0.0399635132849,0.40441176470588236
0.0399635132849,0.4117647058823529
0.0403679813949,0.41911764705882354
0.0403679813949,0.4264705882352941
0.0434190017483,0.4338235294117647
0.0434190017483,0.4411764705882353
0.8262948918,0.4485294117647059
0.8262948918,0.45588235294117646
1.03171900239,0.4632352941176471
1.03171900239,0.47058823529411764
1.22187574072,0.47794117647058826
1.22187574072,0.4852941176470588
1.30137581644,0.49264705882352944
1.30137581644,0.5
1.36048316463,0.5073529411764706
1.36048316463,0.5147058823529411
1.71583091421,0.5220588235294118
1.71583091421,0.5294117647058824
1.74026186019,0.5367647058823529
1.74026186019,0.5441176470588235
1.98887839326,0.5514705882352942
1.98887839326,0.5588235294117647
2.17192638337,0.5661764705882353
2.17192638337,0.5735294117647058
2.60024208703,0.5808823529411765
2.60024208703,0.5882352941176471
2.68542122843,0.5955882352941176
2.68542122843,0.6029411764705882
2.8572707523,0.6102941176470589
2.8572707523,0.6176470588235294
2.9304661348,0.625
2.9304661348,0.6323529411764706
3.20221113863,0.6397058823529411
3.20221113863,0.6470588235294118
3.68925222126,0.6544117647058824
3.68925222126,0.6617647058823529
3.7102823267,0.6691176470588235
3.7102823267,0.6764705882352942
3.93240768919,0.6838235294117647
3.93240768919,0.6911764705882353
4.05240391297,0.6985294117647058
4.05240391297,0.7058823529411765
4.05881501995,0.7132352941176471
4.05881501995,0.7205882352941176
4.18975581146,0.7279411764705882
4.18975581146,0.7352941176470589
4.31447498227,0.7426470588235294
4.31447498227,0.75
4.34190017483,0.7573529411764706
4.34190017483,0.7647058823529411
4.6277056626,0.7720588235294118
4.6277056626,0.7794117647058824
5.10479042893,0.7867647058823529
5.10479042893,0.7941176470588235
5.24991729924,0.8014705882352942
5.24991729924,0.8088235294117647
5.6512087819,0.8161764705882353
5.6512087819,0.8235294117647058
6.05858623169,0.8308823529411765
6.05858623169,0.8382352941176471
6.34213228819,0.8455882352941176
6.34213228819,0.8529411764705882
6.49340472157,0.8602941176470589
6.49340472157,0.8676470588235294
6.56936850368,0.875
6.56936850368,0.8823529411764706
6.857447089,0.8897058823529411
6.857447089,0.8970588235294118
8.4532406531,0.9044117647058824
8.4532406531,0.9117647058823529
9.84326832935,0.9191176470588235
9.84326832935,0.9264705882352942
10.1228998527,0.9338235294117647
10.1228998527,0.9411764705882353
12.3282323224,0.9485294117647058
12.3282323224,0.9558823529411765
12.4196792386,0.9632352941176471
12.4196792386,0.9705882352941176
16.2723707181,0.9779411764705882
16.2723707181,0.9852941176470589
18.7862055797,0.9926470588235294
18.7862055797,1.0
