Congestion,CDF
0.00333129423287,0.007352941176470588
0.00333129423287,0.014705882352941176
0.0516934346816,0.022058823529411766
0.0516934346816,0.029411764705882353
0.0523295162279,0.03676470588235294
0.0523295162279,0.04411764705882353
0.0528502873366,0.051470588235294115
0.0528502873366,0.058823529411764705
0.053422312525,0.0661764705882353
0.053422312525,0.07352941176470588
0.0535066549567,0.08088235294117647
0.0535066549567,0.08823529411764706
0.0546311482832,0.09558823529411764
0.0546311482832,0.10294117647058823
0.0547778694238,0.11029411764705882
0.0547778694238,0.11764705882352941
0.0549113105747,0.125
0.0549113105747,0.1323529411764706
0.0554636546136,0.13970588235294118
0.0554636546136,0.14705882352941177
0.0556503156068,0.15441176470588236
0.0556503156068,0.16176470588235295
0.0557219237144,0.16911764705882354
0.0557219237144,0.17647058823529413
0.0559099224731,0.18382352941176472
0.0559099224731,0.19117647058823528
0.0568388234673,0.19852941176470587
0.0568388234673,0.20588235294117646
0.0574405015813,0.21323529411764705
0.0574405015813,0.22058823529411764
0.0576579746179,0.22794117647058823
0.0576579746179,0.23529411764705882
0.0577514712067,0.2426470588235294
0.0577514712067,0.25
0.057766836644,0.25735294117647056
0.057766836644,0.2647058823529412
0.0583758090184,0.27205882352941174
0.0583758090184,0.27941176470588236
0.0585239367067,0.2867647058823529
0.0585239367067,0.29411764705882354
0.0586947183033,0.3014705882352941
0.0586947183033,0.3088235294117647
0.0591011623296,0.3161764705882353
0.0591011623296,0.3235294117647059
0.0593153555884,0.33088235294117646
0.0593153555884,0.3382352941176471
0.059425559439,0.34558823529411764
0.059425559439,0.35294117647058826
0.0594977062063,0.3602941176470588
0.0594977062063,0.36764705882352944
0.0603903423865,0.375
0.0603903423865,0.38235294117647056
0.061271756377,0.3897058823529412
0.061271756377,0.39705882352941174
0.0620571353546,0.40441176470588236
0.0620571353546,0.4117647058823529
0.0658728413588,0.41911764705882354
0.0658728413588,0.4264705882352941
0.325332668479,0.4338235294117647
0.325332668479,0.4411764705882353
1.66734539481,0.4485294117647059
1.66734539481,0.45588235294117646
1.743166578,0.4632352941176471
1.743166578,0.47058823529411764
2.19535554843,0.47794117647058826
2.19535554843,0.4852941176470588
2.5374327948,0.49264705882352944
2.5374327948,0.5
2.69787877429,0.5073529411764706
2.69787877429,0.5147058823529411
2.75879327707,0.5220588235294118
2.75879327707,0.5294117647058824
2.82977650921,0.5367647058823529
2.82977650921,0.5441176470588235
3.33083926331,0.5514705882352942
3.33083926331,0.5588235294117647
3.62800220678,0.5661764705882353
3.62800220678,0.5735294117647058
4.20039445022,0.5808823529411765
4.20039445022,0.5882352941176471
4.34126933889,0.5955882352941176
4.34126933889,0.6029411764705882
4.99530408167,0.6102941176470589
4.99530408167,0.6176470588235294
5.34208518362,0.625
5.34208518362,0.6323529411764706
5.62683281623,0.6397058823529411
5.62683281623,0.6470588235294118
5.74801222568,0.6544117647058824
5.74801222568,0.6617647058823529
5.76246616755,0.6691176470588235
5.76246616755,0.6764705882352942
6.23155708269,0.6838235294117647
6.23155708269,0.6911764705882353
6.58728413588,0.6985294117647058
6.58728413588,0.7058823529411765
6.63317706168,0.7132352941176471
6.63317706168,0.7205882352941176
6.77270962627,0.7279411764705882
6.77270962627,0.7352941176470589
6.78609448708,0.7426470588235294
6.78609448708,0.75
7.13892656549,0.7573529411764706
7.13892656549,0.7647058823529411
7.79997923203,0.7720588235294118
7.79997923203,0.7794117647058824
8.08280150823,0.7867647058823529
8.08280150823,0.7941176470588235
8.37394760936,0.8014705882352942
8.37394760936,0.8088235294117647
8.98879092501,0.8161764705882353
8.98879092501,0.8235294117647058
9.21061934594,0.8308823529411765
9.21061934594,0.8382352941176471
9.67896599508,0.8455882352941176
9.67896599508,0.8529411764705882
10.4210529342,0.8602941176470589
10.4210529342,0.8676470588235294
10.6981873201,0.875
10.6981873201,0.8823529411764706
11.1682723731,0.8897058823529411
11.1682723731,0.8970588235294118
12.8599104751,0.9044117647058824
12.8599104751,0.9117647058823529
14.8786334474,0.9191176470588235
14.8786334474,0.9264705882352942
15.0005608787,0.9338235294117647
15.0005608787,0.9411764705882353
18.0491775949,0.9485294117647058
18.0491775949,0.9558823529411765
18.6006408234,0.9632352941176471
18.6006408234,0.9705882352941176
23.5642428463,0.9779411764705882
23.5642428463,0.9852941176470589
26.9802580958,0.9926470588235294
26.9802580958,1.0
