Congestion,CDF
0.0,0.007352941176470588
0.0,0.014705882352941176
0.0,0.022058823529411766
0.0,0.029411764705882353
0.0143186699066,0.03676470588235294
0.0143186699066,0.04411764705882353
0.0152271206831,0.051470588235294115
0.0152271206831,0.058823529411764705
0.0157268697661,0.0661764705882353
0.0157268697661,0.07352941176470588
0.0160707515866,0.08088235294117647
0.0160707515866,0.08823529411764706
0.0164063594769,0.09558823529411764
0.0164063594769,0.10294117647058823
0.0173362954842,0.11029411764705882
0.0173362954842,0.11764705882352941
0.0177732097668,0.125
0.0177732097668,0.1323529411764706
0.0184741012835,0.13970588235294118
0.0184741012835,0.14705882352941177
0.0192021130504,0.15441176470588236
0.0192021130504,0.16176470588235295
0.0195823098012,0.16911764705882354
0.0195823098012,0.17647058823529413
0.0196850187998,0.18382352941176472
0.0196850187998,0.19117647058823528
0.0207596389102,0.19852941176470587
0.0207596389102,0.20588235294117646
0.0209031126132,0.21323529411764705
0.0209031126132,0.22058823529411764
0.0211422854756,0.22794117647058823
0.0211422854756,0.23529411764705882
0.021442343826,0.2426470588235294
0.021442343826,0.25
0.0220501332741,0.25735294117647056
0.0220501332741,0.2647058823529412
0.0220978686633,0.27205882352941174
0.0220978686633,0.27941176470588236
0.0226360033204,0.2867647058823529
0.0226360033204,0.29411764705882354
0.0227871603545,0.3014705882352941
0.0227871603545,0.3088235294117647
0.0235149877643,0.3161764705882353
0.0235149877643,0.3235294117647059
0.023996706351,0.33088235294117646
0.023996706351,0.3382352941176471
0.0243288916839,0.34558823529411764
0.0243288916839,0.35294117647058826
0.0263597266972,0.3602941176470588
0.0263597266972,0.36764705882352944
0.0270427037842,0.375
0.0270427037842,0.38235294117647056
0.0270433794185,0.3897058823529412
0.0270433794185,0.39705882352941174
0.0290269244184,0.40441176470588236
0.0290269244184,0.4117647058823529
0.0298742192076,0.41911764705882354
0.0298742192076,0.4264705882352941
0.0315489874139,0.4338235294117647
0.0315489874139,0.4411764705882353
0.380216296405,0.4485294117647059
0.380216296405,0.45588235294117646
0.518600675948,0.4632352941176471
0.518600675948,0.47058823529411764
0.620769997353,0.47794117647058826
0.620769997353,0.4852941176470588
0.724881312,0.49264705882352944
0.724881312,0.5
0.876725970019,0.5073529411764706
0.876725970019,0.5147058823529411
1.10887290095,0.5220588235294118
1.10887290095,0.5294117647058824
1.13148734234,0.5367647058823529
1.13148734234,0.5441176470588235
1.15232046708,0.5514705882352942
1.15232046708,0.5588235294117647
1.5611458022,0.5661764705882353
1.5611458022,0.5735294117647058
1.58901686897,0.5808823529411765
1.58901686897,0.5882352941176471
1.71165952237,0.5955882352941176
1.71165952237,0.6029411764705882
1.77884590914,0.6102941176470589
1.77884590914,0.6176470588235294
1.79840729707,0.625
1.79840729707,0.6323529411764706
1.91307158266,0.6397058823529411
1.91307158266,0.6470588235294118
2.43288916839,0.6544117647058824
2.43288916839,0.6617647058823529
2.46119122653,0.6691176470588235
2.46119122653,0.6764705882352942
2.47201354108,0.6838235294117647
2.47201354108,0.6911764705882353
2.62904663638,0.6985294117647058
2.62904663638,0.7058823529411765
2.70427037842,0.7132352941176471
2.70427037842,0.7205882352941176
2.76500437995,0.7279411764705882
2.76500437995,0.7352941176470589
2.83625319934,0.7426470588235294
2.83625319934,0.75
2.98742192076,0.7573529411764706
2.98742192076,0.7647058823529411
3.15489874139,0.7720588235294118
3.15489874139,0.7794117647058824
3.21194892747,0.7867647058823529
3.21194892747,0.7941176470588235
3.68966977889,0.8014705882352942
3.68966977889,0.8088235294117647
3.73879742221,0.8161764705882353
3.73879742221,0.8235294117647058
3.77073217371,0.8308823529411765
3.77073217371,0.8382352941176471
4.19506194622,0.8455882352941176
4.19506194622,0.8529411764705882
4.2249895387,0.8602941176470589
4.2249895387,0.8676470588235294
4.22997542665,0.875
4.22997542665,0.8823529411764706
4.68372700827,0.8897058823529411
4.68372700827,0.8970588235294118
5.81868869867,0.9044117647058824
5.81868869867,0.9117647058823529
6.72735636801,0.9191176470588235
6.72735636801,0.9264705882352942
7.17852983188,0.9338235294117647
7.17852983188,0.9411764705882353
8.65177116109,0.9485294117647058
8.65177116109,0.9558823529411765
9.04501310399,0.9632352941176471
9.04501310399,0.9705882352941176
11.9288194593,0.9779411764705882
11.9288194593,0.9852941176470589
13.8689329536,0.9926470588235294
13.8689329536,1.0
