Congestion,CDF
0.0,0.007352941176470588
0.0,0.014705882352941176
0.0473145133539,0.022058823529411766
0.0473145133539,0.029411764705882353
0.0486687350838,0.03676470588235294
0.0486687350838,0.04411764705882353
0.0488686790816,0.051470588235294115
0.0488686790816,0.058823529411764705
0.0496364788491,0.0661764705882353
0.0496364788491,0.07352941176470588
0.0497492296559,0.08088235294117647
0.0497492296559,0.08823529411764706
0.0503527124505,0.09558823529411764
0.0503527124505,0.10294117647058823
0.0514827449632,0.11029411764705882
0.0514827449632,0.11764705882352941
0.0517052280211,0.125
0.0517052280211,0.1323529411764706
0.0519290436349,0.13970588235294118
0.0519290436349,0.14705882352941177
0.0524067253555,0.15441176470588236
0.0524067253555,0.16176470588235295
0.0526348389969,0.16911764705882354
0.0526348389969,0.17647058823529413
0.0528941420703,0.18382352941176472
0.0528941420703,0.19117647058823528
0.0535366626341,0.19852941176470587
0.0535366626341,0.20588235294117646
0.0539208214838,0.21323529411764705
0.0539208214838,0.22058823529411764
0.0539642784581,0.22794117647058823
0.0539642784581,0.23529411764705882
0.0544521494689,0.2426470588235294
0.0544521494689,0.25
0.054941131615,0.25735294117647056
0.054941131615,0.2647058823529412
0.0552629177862,0.27205882352941174
0.0552629177862,0.27941176470588236
0.0553149039944,0.2867647058823529
0.0553149039944,0.29411764705882354
0.0553965987771,0.3014705882352941
0.0553965987771,0.3088235294117647
0.0555517992548,0.3161764705882353
0.0555517992548,0.3235294117647059
0.055620209666,0.33088235294117646
0.055620209666,0.3382352941176471
0.0556770110541,0.34558823529411764
0.0556770110541,0.35294117647058826
0.0564694049592,0.3602941176470588
0.0564694049592,0.36764705882352944
0.0572586734694,0.375
0.0572586734694,0.38235294117647056
0.0581415370994,0.3897058823529412
0.0581415370994,0.39705882352941174
0.058546697798,0.40441176470588236
0.058546697798,0.4117647058823529
0.0628941682685,0.41911764705882354
0.0628941682685,0.4264705882352941
0.231625580883,0.4338235294117647
0.231625580883,0.4411764705882353
1.55916543301,0.4485294117647059
1.55916543301,0.45588235294117646
1.62328737276,0.4632352941176471
1.62328737276,0.47058823529411764
2.08051452782,0.47794117647058826
2.08051452782,0.4852941176470588
2.36183892315,0.49264705882352944
2.36183892315,0.5
2.48541836622,0.5073529411764706
2.48541836622,0.5147058823529411
2.62451940284,0.5220588235294118
2.62451940284,0.5294117647058824
2.67998261222,0.5367647058823529
2.67998261222,0.5441176470588235
3.15111229438,0.5514705882352942
3.15111229438,0.5588235294117647
3.39069478508,0.5661764705882353
3.39069478508,0.5735294117647058
3.99306175792,0.5808823529411765
3.99306175792,0.5882352941176471
4.1058298406,0.5955882352941176
4.1058298406,0.6029411764705882
4.72412401854,0.6102941176470589
4.72412401854,0.6176470588235294
5.01222258318,0.625
5.01222258318,0.6323529411764706
5.30657471526,0.6397058823529411
5.30657471526,0.6470588235294118
5.42992033952,0.6544117647058824
5.42992033952,0.6617647058823529
5.4941131615,0.6691176470588235
5.4941131615,0.6764705882352942
5.91052514904,0.6838235294117647
5.91052514904,0.6911764705882353
6.28194974737,0.6985294117647058
6.28194974737,0.7058823529411765
6.28941682685,0.7132352941176471
6.28941682685,0.7205882352941176
6.44706826613,0.7279411764705882
6.44706826613,0.7352941176470589
6.45430687682,0.7426470588235294
6.45430687682,0.75
6.7439569726,0.7573529411764706
6.7439569726,0.7647058823529411
7.464854045,0.7720588235294118
7.464854045,0.7794117647058824
7.64776891593,0.7867647058823529
7.64776891593,0.7941176470588235
7.96506751148,0.8014705882352942
7.96506751148,0.8088235294117647
8.56550665672,0.8161764705882353
8.56550665672,0.8235294117647058
8.80924337068,0.8308823529411765
8.80924337068,0.8382352941176471
9.26757216586,0.8455882352941176
9.26757216586,0.8529411764705882
9.94604707656,0.8602941176470589
9.94604707656,0.8676470588235294
10.1579170895,0.875
10.1579170895,0.8823529411764706
10.6421679488,0.8897058823529411
10.6421679488,0.8970588235294118
12.3080622262,0.9044117647058824
12.3080622262,0.9117647058823529
14.2690718141,0.9191176470588235
14.2690718141,0.9264705882352942
14.4052811202,0.9338235294117647
14.4052811202,0.9411764705882353
17.3438528979,0.9485294117647058
17.3438528979,0.9558823529411765
17.8516111376,0.9632352941176471
17.8516111376,0.9705882352941176
22.6821120017,0.9779411764705882
22.6821120017,0.9852941176470589
25.9946445376,0.9926470588235294
25.9946445376,1.0
