Congestion,CDF
0.0,0.007352941176470588
0.0,0.014705882352941176
0.0392304786441,0.022058823529411766
0.0392304786441,0.029411764705882353
0.0405263567217,0.03676470588235294
0.0405263567217,0.04411764705882353
0.0415466996752,0.051470588235294115
0.0415466996752,0.058823529411764705
0.0417004875778,0.0661764705882353
0.0417004875778,0.07352941176470588
0.0421192271193,0.08088235294117647
0.0421192271193,0.08823529411764706
0.0421558887994,0.09558823529411764
0.0421558887994,0.10294117647058823
0.0443432737101,0.11029411764705882
0.0443432737101,0.11764705882352941
0.0446010804767,0.125
0.0446010804767,0.1323529411764706
0.0447350514849,0.13970588235294118
0.0447350514849,0.14705882352941177
0.0459168529562,0.15441176470588236
0.0459168529562,0.16176470588235295
0.0459365210645,0.16911764705882354
0.0459365210645,0.17647058823529413
0.0461696945945,0.18382352941176472
0.0461696945945,0.19117647058823528
0.0465071900022,0.19852941176470587
0.0465071900022,0.20588235294117646
0.0466093582796,0.21323529411764705
0.0466093582796,0.22058823529411764
0.046620450907,0.22794117647058823
0.046620450907,0.23529411764705882
0.0475566861906,0.2426470588235294
0.0475566861906,0.25
0.0480838052451,0.25735294117647056
0.0480838052451,0.2647058823529412
0.0483374841957,0.27205882352941174
0.0483374841957,0.27941176470588236
0.0483890445425,0.2867647058823529
0.0483890445425,0.29411764705882354
0.0488665902831,0.3014705882352941
0.0488665902831,0.3088235294117647
0.0488864503897,0.3161764705882353
0.0488864503897,0.3235294117647059
0.0491230573113,0.33088235294117646
0.0491230573113,0.3382352941176471
0.0491297266487,0.34558823529411764
0.0491297266487,0.35294117647058826
0.0500604109076,0.3602941176470588
0.0500604109076,0.36764705882352944
0.0509615247261,0.375
0.0509615247261,0.38235294117647056
0.0518793759492,0.3897058823529412
0.0518793759492,0.39705882352941174
0.0518991791521,0.40441176470588236
0.0518991791521,0.4117647058823529
0.0564125988906,0.41911764705882354
0.0564125988906,0.4264705882352941
0.114921089242,0.4338235294117647
0.114921089242,0.4411764705882353
1.3132655311,0.4485294117647059
1.3132655311,0.45588235294117646
1.38240464869,0.4632352941176471
1.38240464869,0.47058823529411764
1.83595777385,0.47794117647058826
1.83595777385,0.4852941176470588
1.99999939133,0.49264705882352944
1.99999939133,0.5
2.03931617807,0.5073529411764706
2.03931617807,0.5147058823529411
2.33666808274,0.5220588235294118
2.33666808274,0.5294117647058824
2.36028317129,0.5367647058823529
2.36028317129,0.5441176470588235
2.80838113318,0.5514705882352942
2.80838113318,0.5588235294117647
2.90854946249,0.5661764705882353
2.90854946249,0.5735294117647058
3.56378541849,0.5808823529411765
3.56378541849,0.5882352941176471
3.61093535198,0.5955882352941176
3.61093535198,0.6029411764705882
4.14096772433,0.6102941176470589
4.14096772433,0.6176470588235294
4.29604861803,0.625
4.29604861803,0.6323529411764706
4.61178390147,0.6397058823529411
4.61178390147,0.6470588235294118
4.81386989478,0.6544117647058824
4.81386989478,0.6617647058823529
4.91230573113,0.6691176470588235
4.91230573113,0.6764705882352942
5.26270704874,0.6838235294117647
5.26270704874,0.6911764705882353
5.50581550973,0.6985294117647058
5.50581550973,0.7058823529411765
5.64125988906,0.7132352941176471
5.64125988906,0.7205882352941176
5.70182873895,0.7279411764705882
5.70182873895,0.7352941176470589
5.7537184054,0.7426470588235294
5.7537184054,0.75
5.86005548334,0.7573529411764706
5.86005548334,0.7647058823529411
6.66093521929,0.7720588235294118
6.66093521929,0.7794117647058824
6.72472358319,0.7867647058823529
6.72472358319,0.7941176470588235
7.03708357449,0.8014705882352942
7.03708357449,0.8088235294117647
7.60729576508,0.8161764705882353
7.60729576508,0.8235294117647058
7.90453360579,0.8308823529411765
7.90453360579,0.8382352941176471
8.34443791096,0.8455882352941176
8.34443791096,0.8529411764705882
8.85749563316,0.8602941176470589
8.85749563316,0.8676470588235294
8.92108587683,0.875
8.92108587683,0.8823529411764706
9.4298427428,0.8897058823529411
9.4298427428,0.8970588235294118
11.0468722752,0.9044117647058824
11.0468722752,0.9117647058823529
12.856186659,0.9191176470588235
12.856186659,0.9264705882352942
13.0295786166,0.9338235294117647
13.0295786166,0.9411764705882353
15.7164840872,0.9485294117647058
15.7164840872,0.9558823529411765
16.1144075081,0.9632352941176471
16.1144075081,0.9705882352941176
20.6326782585,0.9779411764705882
20.6326782585,0.9852941176470589
23.6987226083,0.9926470588235294
23.6987226083,1.0
