Congestion,CDF
0.0,0.007352941176470588
0.0,0.014705882352941176
0.0311467568176,0.022058823529411766
0.0311467568176,0.029411764705882353
0.0312826837536,0.03676470588235294
0.0312826837536,0.04411764705882353
0.0315383568284,0.051470588235294115
0.0315383568284,0.058823529411764705
0.0317002285462,0.0661764705882353
0.0317002285462,0.07352941176470588
0.0327584864615,0.08088235294117647
0.0327584864615,0.08823529411764706
0.0328539169547,0.09558823529411764
0.0328539169547,0.10294117647058823
0.0347127314633,0.11029411764705882
0.0347127314633,0.11764705882352941
0.0352227549093,0.125
0.0352227549093,0.1323529411764706
0.0357706933039,0.13970588235294118
0.0357706933039,0.14705882352941177
0.0361054601965,0.15441176470588236
0.0361054601965,0.16176470588235295
0.0367337703602,0.16911764705882354
0.0367337703602,0.17647058823529413
0.0373036948565,0.18382352941176472
0.0373036948565,0.19117647058823528
0.0376193132235,0.19852941176470587
0.0376193132235,0.20588235294117646
0.037693369516,0.21323529411764705
0.037693369516,0.22058823529411764
0.0378471222868,0.22794117647058823
0.0378471222868,0.23529411764705882
0.0380250876448,0.2426470588235294
0.0380250876448,0.25
0.0381755094641,0.25735294117647056
0.0381755094641,0.2647058823529412
0.0391236989172,0.27205882352941174
0.0391236989172,0.27941176470588236
0.0394728469176,0.2867647058823529
0.0394728469176,0.29411764705882354
0.0394769673184,0.3014705882352941
0.0394769673184,0.3088235294117647
0.0398986774918,0.3161764705882353
0.0398986774918,0.3235294117647059
0.0410010903667,0.33088235294117646
0.0410010903667,0.3382352941176471
0.0410507884061,0.34558823529411764
0.0410507884061,0.35294117647058826
0.0413256639041,0.3602941176470588
0.0413256639041,0.36764705882352944
0.0417544700701,0.375
0.0417544700701,0.38235294117647056
0.0429193205184,0.3897058823529412
0.0429193205184,0.39705882352941174
0.0437791418312,0.40441176470588236
0.0437791418312,0.4117647058823529
0.0440359535799,0.41911764705882354
0.0440359535799,0.4264705882352941
0.0476878354583,0.4338235294117647
0.0476878354583,0.4411764705882353
0.98587750591,0.4485294117647059
0.98587750591,0.45588235294117646
1.13765227481,0.4632352941176471
1.13765227481,0.47058823529411764
1.48009878566,0.47794117647058826
1.48009878566,0.4852941176470588
1.51019174296,0.49264705882352944
1.51019174296,0.5
1.53254998868,0.5073529411764706
1.53254998868,0.5147058823529411
1.92221270409,0.5220588235294118
1.92221270409,0.5294117647058824
1.93413722767,0.5367647058823529
1.93413722767,0.5441176470588235
2.28539277039,0.5514705882352942
2.28539277039,0.5588235294117647
2.37981990304,0.5661764705882353
2.37981990304,0.5735294117647058
2.93070237804,0.5808823529411765
2.93070237804,0.5882352941176471
2.97737089306,0.5955882352941176
2.97737089306,0.6029411764705882
3.32573446005,0.6102941176470589
3.32573446005,0.6176470588235294
3.32947086833,0.625
3.32947086833,0.6323529411764706
3.66781417721,0.6397058823529411
3.66781417721,0.6470588235294118
4.06723171833,0.6544117647058824
4.06723171833,0.6617647058823529
4.10010903667,0.6691176470588235
4.10010903667,0.6764705882352942
4.44144248028,0.6838235294117647
4.44144248028,0.6911764705882353
4.44407957822,0.6985294117647058
4.44407957822,0.7058823529411765
4.65225154157,0.7132352941176471
4.65225154157,0.7205882352941176
4.68935733285,0.7279411764705882
4.68935733285,0.7352941176470589
4.76878354583,0.7426470588235294
4.76878354583,0.75
4.79296327126,0.7573529411764706
4.79296327126,0.7647058823529411
5.30188694028,0.7720588235294118
5.30188694028,0.7794117647058824
5.74077064003,0.7867647058823529
5.74077064003,0.7941176470588235
5.75182037912,0.8014705882352942
5.75182037912,0.8088235294117647
6.29451213775,0.8161764705882353
6.29451213775,0.8235294117647058
6.67175195488,0.8308823529411765
6.67175195488,0.8382352941176471
7.10502645053,0.8455882352941176
7.10502645053,0.8529411764705882
7.20555879254,0.8602941176470589
7.20555879254,0.8676470588235294
7.33623427942,0.875
7.33623427942,0.8823529411764706
7.72104492748,0.8897058823529411
7.72104492748,0.8970588235294118
9.30523448646,0.9044117647058824
9.30523448646,0.9117647058823529
10.8477021212,0.9191176470588235
10.8477021212,0.9264705882352942
11.0863470745,0.9338235294117647
11.0863470745,0.9411764705882353
13.4367517201,0.9485294117647058
13.4367517201,0.9558823529411765
13.6447061129,0.9632352941176471
13.6447061129,0.9705882352941176
17.7212774385,0.9779411764705882
17.7212774385,0.9852941176470589
20.4240246466,0.9926470588235294
20.4240246466,1.0
