Congestion,CDF
0.0,0.009433962264150943
0.0,0.018867924528301886
0.0,0.02830188679245283
0.0,0.03773584905660377
0.0,0.04716981132075472
0.0,0.05660377358490566
0.0,0.0660377358490566
0.0,0.07547169811320754
0.0,0.08490566037735849
0.0,0.09433962264150944
0.0,0.10377358490566038
0.0,0.11320754716981132
0.0,0.12264150943396226
0.0,0.1320754716981132
0.0,0.14150943396226415
0.0,0.1509433962264151
0.0,0.16037735849056603
0.0,0.16981132075471697
0.0,0.1792452830188679
0.0,0.18867924528301888
0.0,0.19811320754716982
0.0,0.20754716981132076
0.0,0.2169811320754717
0.0,0.22641509433962265
0.0,0.2358490566037736
0.0,0.24528301886792453
0.0,0.25471698113207547
0.0,0.2641509433962264
0.0,0.27358490566037735
0.0,0.2830188679245283
1.14112021631e-07,0.29245283018867924
2.93980099819e-06,0.3018867924528302
3.30585732812e-06,0.3113207547169811
4.48163218847e-06,0.32075471698113206
5.05895414445e-06,0.330188679245283
6.73156629654e-06,0.33962264150943394
7.60590712598e-06,0.3490566037735849
8.20466156631e-06,0.3584905660377358
8.5856968531e-06,0.36792452830188677
1.0265742065e-05,0.37735849056603776
1.31406921429e-05,0.3867924528301887
1.39069850387e-05,0.39622641509433965
1.62201455115e-05,0.4056603773584906
1.99708835449e-05,0.41509433962264153
2.04284912241e-05,0.42452830188679247
2.15540686164e-05,0.4339622641509434
2.36019450412e-05,0.44339622641509435
2.75276763337e-05,0.4528301886792453
3.10445187949e-05,0.46226415094339623
3.65800309327e-05,0.4716981132075472
0.000138118931121,0.4811320754716981
0.00018932530209,0.49056603773584906
0.00018932530209,0.5
0.00028577795799,0.5094339622641509
0.000286849876612,0.5188679245283019
0.000492775955359,0.5283018867924528
0.000492775955359,0.5377358490566038
0.000492775955359,0.5471698113207547
0.00050486747224,0.5566037735849056
0.00050486747224,0.5660377358490566
0.00050486747224,0.5754716981132075
0.000779443297969,0.5849056603773585
0.000930816218023,0.5943396226415094
0.000930816218023,0.6037735849056604
0.000985551910719,0.6132075471698113
0.000985551910719,0.6226415094339622
0.00134448965654,0.6320754716981132
0.00171380325093,0.6415094339622641
0.00171380325093,0.6509433962264151
0.00212344308546,0.660377358490566
0.00212344308546,0.6698113207547169
0.0022817721378,0.6792452830188679
0.00268166799551,0.6886792452830188
0.00326170776797,0.6981132075471698
0.00440809959139,0.7075471698113207
0.0068737570587,0.7169811320754716
0.00697310852415,0.7264150943396226
0.00802482642773,0.7358490566037735
0.00803750506846,0.7452830188679245
0.00803750506846,0.7547169811320755
0.00898839744437,0.7641509433962265
0.0107568703729,0.7735849056603774
0.0107568703729,0.7830188679245284
0.0107568703729,0.7924528301886793
0.0128956966938,0.8018867924528302
0.0148855537108,0.8113207547169812
0.0187603766653,0.8207547169811321
0.0187603766653,0.8301886792452831
0.0192257878541,0.839622641509434
0.0195976662126,0.8490566037735849
0.0195976662126,0.8584905660377359
0.0199106337143,0.8679245283018868
0.0206921584572,0.8773584905660378
0.0214333468492,0.8867924528301887
0.0214333468492,0.8962264150943396
0.0214333468492,0.9056603773584906
0.0215137407459,0.9150943396226415
0.0215137407459,0.9245283018867925
0.0269908836252,0.9339622641509434
0.0568654237117,0.9433962264150944
0.918898130968,0.9528301886792453
0.918898130968,0.9622641509433962
1.25378912804,0.9716981132075472
5.78920990003,0.9811320754716981
5.99466365807,0.9905660377358491
15.7055902994,1.0
