Congestion,CDF
0.0,0.009433962264150943
0.0,0.018867924528301886
0.0,0.02830188679245283
0.0,0.03773584905660377
0.0,0.04716981132075472
0.0,0.05660377358490566
0.0,0.0660377358490566
0.0,0.07547169811320754
0.0,0.08490566037735849
0.0,0.09433962264150944
0.0,0.10377358490566038
0.0,0.11320754716981132
0.0,0.12264150943396226
0.0,0.1320754716981132
0.0,0.14150943396226415
0.0,0.1509433962264151
0.0,0.16037735849056603
0.0,0.16981132075471697
0.0,0.1792452830188679
0.0,0.18867924528301888
0.0,0.19811320754716982
0.0,0.20754716981132076
0.0,0.2169811320754717
0.0,0.22641509433962265
0.0,0.2358490566037736
0.0,0.24528301886792453
0.0,0.25471698113207547
0.0,0.2641509433962264
0.0,0.27358490566037735
0.0,0.2830188679245283
6.93451873198e-08,0.29245283018867924
1.78649933625e-06,0.3018867924528302
2.00894956021e-06,0.3113207547169811
2.72346085158e-06,0.32075471698113206
3.07429592232e-06,0.330188679245283
4.09073223938e-06,0.33962264150943394
6.23842953879e-06,0.3490566037735849
7.60590712598e-06,0.3584905660377358
7.98551936189e-06,0.36792452830188677
8.45119093305e-06,0.37735849056603776
9.85688460139e-06,0.3867924528301887
1.2136185483e-05,0.39622641509433965
1.24142709098e-05,0.4056603773584906
1.30982775026e-05,0.41509433962264153
2.75276763337e-05,0.42452830188679247
8.39340414276e-05,0.4339622641509434
0.000112542160482,0.44339622641509435
0.000115051844233,0.4528301886792453
0.000115051844233,0.46226415094339623
0.000200152099315,0.4716981132075472
0.000299456976071,0.4811320754716981
0.000299456976071,0.49056603773584906
0.000299456976071,0.5
0.000306804917954,0.5094339622641509
0.000306804917954,0.5188679245283019
0.000306804917954,0.5283018867924528
0.000473662991244,0.5377358490566038
0.000564666889922,0.5471698113207547
0.00056565140181,0.5566037735849056
0.00056565140181,0.5660377358490566
0.000598913952142,0.5754716981132075
0.000598913952142,0.5849056603773585
0.000817038255474,0.5943396226415094
0.0010414678994,0.6037735849056604
0.0010414678994,0.6132075471698113
0.00129040355625,0.6226415094339622
0.00129040355625,0.6320754716981132
0.00162963346736,0.6415094339622641
0.00198212013878,0.6509433962264151
0.00209964602471,0.660377358490566
0.0022817721378,0.6698113207547169
0.00267877553582,0.6792452830188679
0.00417714070798,0.6886792452830188
0.00423751599433,0.6981132075471698
0.00518190265232,0.7075471698113207
0.00538921262677,0.7169811320754716
0.00788376756257,0.7264150943396226
0.00904586121321,0.7358490566037735
0.0178880515245,0.7452830188679245
0.0203846547318,0.7547169811320755
0.0262078314994,0.7641509433962265
0.0267550258721,0.7735849056603774
0.112702587227,0.7830188679245284
0.151571605128,0.7924528301886793
0.151571605128,0.8018867924528302
0.183515684758,0.8113207547169812
0.194321349462,0.8207547169811321
0.194321349462,0.8301886792452831
0.194321349462,0.839622641509434
0.36083764234,0.8490566037735849
0.36083764234,0.8584905660377359
0.388642698924,0.8679245283018868
0.388642698924,0.8773584905660378
0.404190947007,0.8867924528301887
0.404190947007,0.8962264150943396
0.404190947007,0.9056603773584906
0.533522795004,0.9150943396226415
0.533522795004,0.9245283018867925
0.558844781113,0.9339622641509434
0.57855701735,0.9433962264150944
2.59058627455,0.9528301886792453
2.59058627455,0.9622641509433962
6.30036215796,0.9716981132075472
8.25876627278,0.9811320754716981
8.42292458458,0.9905660377358491
25.5022213475,1.0
