Congestion,CDF
0.0,0.007352941176470588
0.0,0.014705882352941176
0.0,0.022058823529411766
0.0,0.029411764705882353
0.0,0.03676470588235294
0.0,0.04411764705882353
0.0,0.051470588235294115
0.0,0.058823529411764705
0.0,0.0661764705882353
0.0,0.07352941176470588
0.0,0.08088235294117647
0.0,0.08823529411764706
0.0,0.09558823529411764
0.0,0.10294117647058823
1.51304817084e-05,0.11029411764705882
1.51304817084e-05,0.11764705882352941
1.51304817084e-05,0.125
1.51304817084e-05,0.1323529411764706
1.51304817084e-05,0.13970588235294118
1.51304817084e-05,0.14705882352941177
1.51304817084e-05,0.15441176470588236
1.51304817084e-05,0.16176470588235295
1.51304817084e-05,0.16911764705882354
1.51304817084e-05,0.17647058823529413
1.51304817084e-05,0.18382352941176472
1.51304817084e-05,0.19117647058823528
1.51304817084e-05,0.19852941176470587
1.51304817084e-05,0.20588235294117646
1.51304817084e-05,0.21323529411764705
1.51304817084e-05,0.22058823529411764
1.51304817084e-05,0.22794117647058823
1.51304817084e-05,0.23529411764705882
1.51304817084e-05,0.2426470588235294
1.51304817084e-05,0.25
1.51304817084e-05,0.25735294117647056
1.51304817084e-05,0.2647058823529412
1.51304817084e-05,0.27205882352941174
1.51304817084e-05,0.27941176470588236
1.51304817084e-05,0.2867647058823529
1.51304817084e-05,0.29411764705882354
1.51304817084e-05,0.3014705882352941
0.000378262042709,0.3088235294117647
0.000378262042709,0.3161764705882353
0.000408523006126,0.3235294117647059
0.000756524085418,0.33088235294117646
0.000756524085418,0.3382352941176471
0.000756524085418,0.34558823529411764
0.000756524085418,0.35294117647058826
0.00113478612813,0.3602941176470588
0.0012608734757,0.36764705882352944
0.0012608734757,0.375
0.0012608734757,0.38235294117647056
0.00151304817084,0.3897058823529412
0.00151304817084,0.39705882352941174
0.00151304817084,0.40441176470588236
0.00151304817084,0.4117647058823529
0.00151304817084,0.41911764705882354
0.00151304817084,0.4264705882352941
0.00151304817084,0.4338235294117647
0.00189131021354,0.4411764705882353
0.00226957225625,0.4485294117647059
0.00226957225625,0.45588235294117646
0.00277392164653,0.4632352941176471
0.00302609634167,0.47058823529411764
0.00302609634167,0.47794117647058826
0.00453914451251,0.4852941176470588
0.00617828003091,0.49264705882352944
0.0109695992386,0.5
0.0112217739337,0.5073529411764706
0.0145000449705,0.5147058823529411
0.0180304907025,0.5220588235294118
0.0182826653976,0.5294117647058824
0.0195435388733,0.5367647058823529
0.0197957135684,0.5441176470588235
0.0213087617393,0.5514705882352942
0.0221613768013,0.5588235294117647
0.0226756523493,0.5661764705882353
0.027922165694,0.5735294117647058
0.0280558444943,0.5808823529411765
0.0280821859131,0.5882352941176471
0.0281322176023,0.5955882352941176
0.0281560779667,0.6029411764705882
0.028269807499,0.6102941176470589
0.0284572121205,0.6176470588235294
0.0284770911483,0.625
0.0285144926628,0.6323529411764706
0.0285154678971,0.6397058823529411
0.0285161969919,0.6470588235294118
0.0285350835882,0.6544117647058824
0.0285410897946,0.6617647058823529
0.0285586906815,0.6691176470588235
0.0285662974039,0.6764705882352942
0.0285680595161,0.6838235294117647
0.028598194858,0.6911764705882353
0.0286300744654,0.6985294117647058
0.0286467509898,0.7058823529411765
0.0286467692401,0.7132352941176471
0.0286469111342,0.7205882352941176
0.0286469171577,0.7279411764705882
0.0286472558658,0.7352941176470589
0.0286472598821,0.7426470588235294
0.0286472598821,0.75
0.713377089705,0.7573529411764706
0.714201487903,0.7647058823529411
0.7564624036,0.7720588235294118
1.41349037495,0.7794117647058824
1.41349037495,0.7867647058823529
1.4299097429,0.7941176470588235
1.4299097429,0.8014705882352942
2.14013126911,0.8088235294117647
2.37894823743,0.8161764705882353
2.37894823743,0.8235294117647058
2.37894823743,0.8308823529411765
2.81560779667,0.8382352941176471
2.85154678971,0.8455882352941176
2.85680595161,0.8529411764705882
2.86467692401,0.8602941176470589
2.86469171577,0.8676470588235294
2.86472598821,0.875
2.86472598821,0.8823529411764706
3.5649967889,0.8897058823529411
4.22170896626,0.8970588235294118
4.28653948329,0.9044117647058824
5.22665735226,0.9117647058823529
5.62882955691,0.9191176470588235
5.7293828292,0.9264705882352942
8.594177563,0.9338235294117647
11.6469410823,0.9411764705882353
20.7671139031,0.9485294117647058
21.1328100216,0.9558823529411765
27.43897933,0.9632352941176471
33.7755651141,0.9705882352941176
34.5813878814,0.9779411764705882
35.9917027943,0.9852941176470589
37.3869723308,0.9926470588235294
39.6545375658,1.0
