Congestion,CDF
0.0,0.009433962264150943
0.0,0.018867924528301886
0.0,0.02830188679245283
0.0,0.03773584905660377
0.0,0.04716981132075472
0.0,0.05660377358490566
0.0,0.0660377358490566
0.0,0.07547169811320754
0.0,0.08490566037735849
0.0,0.09433962264150944
0.0,0.10377358490566038
0.0,0.11320754716981132
0.0,0.12264150943396226
0.0,0.1320754716981132
0.0,0.14150943396226415
0.0,0.1509433962264151
0.0,0.16037735849056603
0.0,0.16981132075471697
0.0,0.1792452830188679
0.0,0.18867924528301888
0.0,0.19811320754716982
0.0,0.20754716981132076
0.0,0.2169811320754717
0.0,0.22641509433962265
0.0,0.2358490566037736
0.0,0.24528301886792453
0.0,0.25471698113207547
0.0,0.2641509433962264
0.0,0.27358490566037735
0.0,0.2830188679245283
3.08996924785e-07,0.29245283018867924
7.96050630716e-06,0.3018867924528302
8.95172772828e-06,0.3113207547169811
1.21355361552e-05,0.32075471698113206
1.3698830771e-05,0.330188679245283
1.82279943417e-05,0.33962264150943394
2.77979715317e-05,0.3490566037735849
3.55828720205e-05,0.3584905660377358
3.76578694213e-05,0.36792452830188677
4.39215343921e-05,0.37735849056603776
5.40779272191e-05,0.3867924528301887
5.53170549079e-05,0.39622641509433965
5.83649366986e-05,0.4056603773584906
0.000227849929271,0.41509433962264153
0.000227849929271,0.42452830188679247
0.000374003758419,0.4339622641509434
0.000444785900256,0.44339622641509435
0.000444785900256,0.4528301886792453
0.000455699858542,0.46226415094339623
0.000455699858542,0.4716981132075472
0.000455699858542,0.4811320754716981
0.000703535522006,0.49056603773584906
0.000889571800512,0.5
0.000889571800512,0.5094339622641509
0.000889571800512,0.5188679245283019
0.00112022221594,0.5283018867924528
0.00112022221594,0.5377358490566038
0.00121355361552,0.5471698113207547
0.00206253440611,0.5566037735849056
0.00206253440611,0.5660377358490566
0.00255552930059,0.5754716981132075
0.00255552930059,0.5849056603773585
0.00392541237769,0.5943396226415094
0.00397880725277,0.6037735849056604
0.00431552517387,0.6132075471698113
0.00431772970076,0.6226415094339622
0.00435151625918,0.6320754716981132
0.00436034915459,0.6415094339622641
0.00438071695244,0.6509433962264151
0.00449866179647,0.660377358490566
0.00462965986291,0.6698113207547169
0.00514741686498,0.6792452830188679
0.00517655005664,0.6886792452830188
0.00545880257099,0.6981132075471698
0.00620434132032,0.7075471698113207
0.00626867116229,0.7169811320754716
0.00637923914885,0.7264150943396226
0.00638178723476,0.7358490566037735
0.00645468784532,0.7452830188679245
0.00839202297045,0.7547169811320755
0.0134358917802,0.7641509433962265
0.0643427108123,0.7735849056603774
0.0643427108123,0.7830188679245284
0.0647068757079,0.7924528301886793
0.0647068757079,0.8018867924528302
0.0656666259387,0.8113207547169812
0.128685421625,0.8207547169811321
0.128685421625,0.8301886792452831
0.128685421625,0.839622641509434
0.129413751416,0.8490566037735849
0.129413751416,0.8584905660377359
0.129413751416,0.8679245283018868
0.346625399479,0.8773584905660378
0.346625399479,0.8867924528301887
0.353982676344,0.8962264150943396
0.353982676344,0.9056603773584906
0.40198971507,0.9150943396226415
0.40198971507,0.9245283018867925
0.431552517387,0.9339622641509434
0.755916702749,0.9433962264150944
0.767228309996,0.9528301886792453
0.778398369555,0.9622641509433962
0.784697094723,0.9716981132075472
0.790017591803,0.9811320754716981
1.2189383777,0.9905660377358491
2.5630586427,1.0
