Congestion,CDF
0.0,0.009433962264150943
0.0,0.018867924528301886
0.0,0.02830188679245283
0.0,0.03773584905660377
0.0,0.04716981132075472
0.0,0.05660377358490566
0.0,0.0660377358490566
0.0,0.07547169811320754
0.0,0.08490566037735849
0.0,0.09433962264150944
0.0,0.10377358490566038
0.0,0.11320754716981132
0.0,0.12264150943396226
0.0,0.1320754716981132
0.0,0.14150943396226415
0.0,0.1509433962264151
0.0,0.16037735849056603
0.0,0.16981132075471697
0.0,0.1792452830188679
0.0,0.18867924528301888
0.0,0.19811320754716982
0.0,0.20754716981132076
0.0,0.2169811320754717
0.0,0.22641509433962265
0.0,0.2358490566037736
0.0,0.24528301886792453
0.0,0.25471698113207547
0.0,0.2641509433962264
0.0,0.27358490566037735
0.0,0.2830188679245283
1.78992876467e-07,0.29245283018867924
4.61128835843e-06,0.3018867924528302
5.18547392194e-06,0.3113207547169811
7.02976097708e-06,0.32075471698113206
7.93533180188e-06,0.330188679245283
1.05589437232e-05,0.33962264150943394
1.61025514667e-05,0.3490566037735849
2.06121165132e-05,0.3584905660377358
2.18141017876e-05,0.36792452830188677
2.54424596139e-05,0.37735849056603776
3.13257607759e-05,0.3867924528301887
3.20435511859e-05,0.39622641509433965
3.38090999182e-05,0.4056603773584906
0.000216649432921,0.41509433962264153
0.000296970292214,0.42452830188679247
0.000296970292214,0.4339622641509434
0.000772954369246,0.44339622641509435
0.000772954369246,0.4528301886792453
0.000772954369246,0.46226415094339623
0.000791920779238,0.4716981132075472
0.000791920779238,0.4811320754716981
0.000791920779238,0.49056603773584906
0.00122261262181,0.5
0.00144040986807,0.5094339622641509
0.0014413896578,0.5188679245283019
0.00145640590599,0.5283018867924528
0.00146005188537,0.5377358490566038
0.00146005188537,0.5471698113207547
0.00146033163728,0.5566037735849056
0.00146938399188,0.5660377358490566
0.00154590873849,0.5754716981132075
0.00154590873849,0.5849056603773585
0.00178403155481,0.5943396226415094
0.00210892829312,0.6037735849056604
0.00223849078828,0.6132075471698113
0.00233778982151,0.6226415094339622
0.00235539673459,0.6320754716981132
0.00268822310915,0.6415094339622641
0.00268822310915,0.6509433962264151
0.00305307616081,0.660377358490566
0.00333077252026,0.6698113207547169
0.00333077252026,0.6792452830188679
0.00420638826114,0.6886792452830188
0.00456652406358,0.6981132075471698
0.00478314605801,0.7075471698113207
0.00492715035054,0.7169811320754716
0.00511622217568,0.7264150943396226
0.00691441983355,0.7358490566037735
0.0107819801146,0.7452830188679245
0.0109378200019,0.7547169811320755
0.0233490568164,0.7641509433962265
0.0333135265932,0.7735849056603774
0.0657503387299,0.7830188679245284
0.0657503387299,0.7924528301886793
0.0883273775471,0.8018867924528302
0.0883273775471,0.8113207547169812
0.0883273775471,0.8207547169811321
0.175334236613,0.8301886792452831
0.175334236613,0.839622641509434
0.175334236613,0.8490566037735849
0.176654755094,0.8584905660377359
0.176654755094,0.8679245283018868
0.295841536314,0.8773584905660378
0.295841536314,0.8867924528301887
0.330637020097,0.8962264150943396
0.332699421807,0.9056603773584906
0.332699421807,0.9150943396226415
0.432122960422,0.9245283018867925
0.475466939981,0.9339622641509434
0.475466939981,0.9433962264150944
0.620154209319,0.9528301886792453
0.626452934487,0.9622641509433962
1.61093831326,0.9716981132075472
1.65413960102,0.9811320754716981
1.74910238554,0.9905660377358491
5.26899105332,1.0
