Congestion,CDF
0.0,0.007352941176470588
0.0,0.014705882352941176
0.0,0.022058823529411766
0.0,0.029411764705882353
0.0237331951655,0.03676470588235294
0.0237331951655,0.04411764705882353
0.0241280330055,0.051470588235294115
0.0241280330055,0.058823529411764705
0.0242709474792,0.0661764705882353
0.0242709474792,0.07352941176470588
0.0246891798227,0.08088235294117647
0.0246891798227,0.08823529411764706
0.0248699014961,0.09558823529411764
0.0248699014961,0.10294117647058823
0.0250544366642,0.11029411764705882
0.0250544366642,0.11764705882352941
0.02706334804,0.125
0.02706334804,0.1323529411764706
0.0273778791791,0.13970588235294118
0.0273778791791,0.14705882352941177
0.0280652502247,0.15441176470588236
0.0280652502247,0.16176470588235295
0.0286613352679,0.16911764705882354
0.0286613352679,0.17647058823529413
0.028873951089,0.18382352941176472
0.028873951089,0.19117647058823528
0.0295664785934,0.19852941176470587
0.0295664785934,0.20588235294117646
0.0302413831852,0.21323529411764705
0.0302413831852,0.22058823529411764
0.0306511743677,0.22794117647058823
0.0306511743677,0.23529411764705882
0.0309087467421,0.2426470588235294
0.0309087467421,0.25
0.0315684414582,0.25735294117647056
0.0315684414582,0.2647058823529412
0.0319469374552,0.27205882352941174
0.0319469374552,0.27941176470588236
0.0319899837409,0.2867647058823529
0.0319899837409,0.29411764705882354
0.0320798325594,0.3014705882352941
0.0320798325594,0.3088235294117647
0.03237092494,0.3161764705882353
0.03237092494,0.3235294117647059
0.0340130149505,0.33088235294117646
0.0340130149505,0.3382352941176471
0.0343530591963,0.34558823529411764
0.0343530591963,0.35294117647058826
0.0345808953268,0.3602941176470588
0.0345808953268,0.36764705882352944
0.0355175791371,0.375
0.0355175791371,0.38235294117647056
0.0360180962503,0.3897058823529412
0.0360180962503,0.39705882352941174
0.0369111508763,0.40441176470588236
0.0369111508763,0.4117647058823529
0.0375876547598,0.41911764705882354
0.0375876547598,0.4264705882352941
0.0401749582319,0.4338235294117647
0.0401749582319,0.4411764705882353
0.719996887121,0.4485294117647059
0.719996887121,0.45588235294117646
0.961697284672,0.4632352941176471
0.961697284672,0.47058823529411764
1.01831808714,0.47794117647058826
1.01831808714,0.4852941176470588
1.15651498009,0.49264705882352944
1.15651498009,0.5
1.26789394709,0.5073529411764706
1.26789394709,0.5147058823529411
1.53959576279,0.5220588235294118
1.53959576279,0.5294117647058824
1.61512848119,0.5367647058823529
1.61512848119,0.5441176470588235
1.7881570718,0.5514705882352942
1.7881570718,0.5588235294117647
2.03817876542,0.5661764705882353
2.03817876542,0.5735294117647058
2.40992826412,0.5808823529411765
2.40992826412,0.5882352941176471
2.48721895865,0.5955882352941176
2.48721895865,0.6029411764705882
2.54194266571,0.6102941176470589
2.54194266571,0.6176470588235294
2.65536638463,0.625
2.65536638463,0.6323529411764706
2.9021800562,0.6397058823529411
2.9021800562,0.6470588235294118
3.43530591963,0.6544117647058824
3.43530591963,0.6617647058823529
3.45808953268,0.6691176470588235
3.45808953268,0.6764705882352942
3.61385270715,0.6838235294117647
3.61385270715,0.6911764705882353
3.63009642554,0.6985294117647058
3.63009642554,0.7058823529411765
3.75876547598,0.7132352941176471
3.75876547598,0.7205882352941176
3.83779055591,0.7279411764705882
3.83779055591,0.7352941176470589
3.98302760442,0.7426470588235294
3.98302760442,0.75
4.01749582319,0.7573529411764706
4.01749582319,0.7647058823529411
4.18065329862,0.7720588235294118
4.18065329862,0.7794117647058824
4.6558482603,0.7867647058823529
4.6558482603,0.7941176470588235
4.89233549356,0.8014705882352942
4.89233549356,0.8088235294117647
5.16900463799,0.8161764705882353
5.16900463799,0.8235294117647058
5.63998839045,0.8308823529411765
5.63998839045,0.8382352941176471
5.83663147583,0.8455882352941176
5.83663147583,0.8529411764705882
6.04545782508,0.8602941176470589
6.04545782508,0.8676470588235294
6.04815016172,0.875
6.04815016172,0.8823529411764706
6.34672293586,0.8897058823529411
6.34672293586,0.8970588235294118
7.88125864869,0.9044117647058824
7.88125864869,0.9117647058823529
9.12068487334,0.9191176470588235
9.12068487334,0.9264705882352942
9.40323522596,0.9338235294117647
9.40323522596,0.9411764705882353
11.4673763868,0.9485294117647058
11.4673763868,0.9558823529411765
11.5630943236,0.9632352941176471
11.5630943236,0.9705882352941176
15.2205057285,0.9779411764705882
15.2205057285,0.9852941176470589
17.5685093873,0.9926470588235294
17.5685093873,1.0
