Congestion,CDF
0.0,0.007352941176470588
0.0,0.014705882352941176
0.0417936378861,0.022058823529411766
0.0417936378861,0.029411764705882353
0.0433085822121,0.03676470588235294
0.0433085822121,0.04411764705882353
0.0440273838887,0.051470588235294115
0.0440273838887,0.058823529411764705
0.0448784866824,0.0661764705882353
0.0448784866824,0.07352941176470588
0.0450995144981,0.08088235294117647
0.0450995144981,0.08823529411764706
0.0454097189116,0.09558823529411764
0.0454097189116,0.10294117647058823
0.0476730735062,0.11029411764705882
0.0476730735062,0.11764705882352941
0.0477315381743,0.125
0.0477315381743,0.1323529411764706
0.0484326080811,0.13970588235294118
0.0484326080811,0.14705882352941177
0.0487175695301,0.15441176470588236
0.0487175695301,0.16176470588235295
0.0487432887628,0.16911764705882354
0.0487432887628,0.17647058823529413
0.048781767139,0.18382352941176472
0.048781767139,0.19117647058823528
0.0499887470522,0.19852941176470587
0.0499887470522,0.20588235294117646
0.0500876210066,0.21323529411764705
0.0500876210066,0.22058823529411764
0.0501108069744,0.22794117647058823
0.0501108069744,0.23529411764705882
0.0504158971644,0.2426470588235294
0.0504158971644,0.25
0.0507550846588,0.25735294117647056
0.0507550846588,0.2647058823529412
0.0513749222863,0.27205882352941174
0.0513749222863,0.27941176470588236
0.0517518570622,0.2867647058823529
0.0517518570622,0.29411764705882354
0.0518424586781,0.3014705882352941
0.0518424586781,0.3088235294117647
0.0520593865871,0.3161764705882353
0.0520593865871,0.3235294117647059
0.0523575039921,0.33088235294117646
0.0523575039921,0.3382352941176471
0.0529508731368,0.34558823529411764
0.0529508731368,0.35294117647058826
0.0536554040575,0.3602941176470588
0.0536554040575,0.36764705882352944
0.054402853168,0.375
0.054402853168,0.38235294117647056
0.0545744909834,0.3897058823529412
0.0545744909834,0.39705882352941174
0.0547016785181,0.40441176470588236
0.0547016785181,0.4117647058823529
0.059551212566,0.41911764705882354
0.059551212566,0.4264705882352941
0.11270960813,0.4338235294117647
0.11270960813,0.4411764705882353
1.43894327303,0.4485294117647059
1.43894327303,0.45588235294117646
1.46778222122,0.4632352941176471
1.46778222122,0.47058823529411764
1.97279588997,0.47794117647058826
1.97279588997,0.4852941176470588
2.20052314688,0.49264705882352944
2.20052314688,0.5
2.21112897508,0.5073529411764706
2.21112897508,0.5147058823529411
2.49292904452,0.5220588235294118
2.49292904452,0.5294117647058824
2.49714700181,0.5367647058823529
2.49714700181,0.5441176470588235
2.97466255934,0.5514705882352942
2.97466255934,0.5588235294117647
3.1376493466,0.5661764705882353
3.1376493466,0.5735294117647058
3.81542558166,0.5808823529411765
3.81542558166,0.5882352941176471
3.9228595131,0.5955882352941176
3.9228595131,0.6029411764705882
4.44830333604,0.6102941176470589
4.44830333604,0.6176470588235294
4.62537624659,0.625
4.62537624659,0.6323529411764706
4.99103837895,0.6397058823529411
4.99103837895,0.6470588235294118
5.10914056863,0.6544117647058824
5.10914056863,0.6617647058823529
5.29508731368,0.6691176470588235
5.29508731368,0.6764705882352942
5.54527315099,0.6838235294117647
5.54527315099,0.6911764705882353
5.94680314309,0.6985294117647058
5.94680314309,0.7058823529411765
5.9551212566,0.7132352941176471
5.9551212566,0.7205882352941176
6.11760490856,0.7279411764705882
6.11760490856,0.7352941176470589
6.15298746892,0.7426470588235294
6.15298746892,0.75
6.29920202572,0.7573529411764706
6.29920202572,0.7647058823529411
7.13860696996,0.7720588235294118
7.13860696996,0.7794117647058824
7.21160384432,0.7867647058823529
7.21160384432,0.7941176470588235
7.56434430597,0.8014705882352942
7.56434430597,0.8088235294117647
8.10273847061,0.8161764705882353
8.10273847061,0.8235294117647058
8.41494787613,0.8308823529411765
8.41494787613,0.8382352941176471
8.84729700611,0.8455882352941176
8.84729700611,0.8529411764705882
9.49253464659,0.8602941176470589
9.49253464659,0.8676470588235294
9.72083584712,0.875
9.72083584712,0.8823529411764706
10.2326115027,0.8897058823529411
10.2326115027,0.8970588235294118
11.7947617541,0.9044117647058824
11.7947617541,0.9117647058823529
13.6975549138,0.9191176470588235
13.6975549138,0.9264705882352942
13.8143120761,0.9338235294117647
13.8143120761,0.9411764705882353
16.5822136913,0.9485294117647058
16.5822136913,0.9558823529411765
17.1565941024,0.9632352941176471
17.1565941024,0.9705882352941176
21.8235317525,0.9779411764705882
21.8235317525,0.9852941176470589
25.0493888086,0.9926470588235294
25.0493888086,1.0
