Congestion,CDF
0.0,0.007352941176470588
0.0,0.014705882352941176
0.0,0.022058823529411766
0.0,0.029411764705882353
0.0202429827821,0.03676470588235294
0.0202429827821,0.04411764705882353
0.0211630208887,0.051470588235294115
0.0211630208887,0.058823529411764705
0.0211823689234,0.0661764705882353
0.0211823689234,0.07352941176470588
0.0213672836221,0.08088235294117647
0.0213672836221,0.08823529411764706
0.0215489156361,0.09558823529411764
0.0215489156361,0.10294117647058823
0.0223095098422,0.11029411764705882
0.0223095098422,0.11764705882352941
0.0238497412201,0.125
0.0238497412201,0.1323529411764706
0.0239870667341,0.13970588235294118
0.0239870667341,0.14705882352941177
0.0248645365771,0.15441176470588236
0.0248645365771,0.16176470588235295
0.0253646297476,0.16911764705882354
0.0253646297476,0.17647058823529413
0.025541233148,0.18382352941176472
0.025541233148,0.19117647058823528
0.0264664660678,0.19852941176470587
0.0264664660678,0.20588235294117646
0.027076676602,0.21323529411764705
0.027076676602,0.22058823529411764
0.0274820041802,0.22794117647058823
0.0274820041802,0.23529411764705882
0.0276331166397,0.2426470588235294
0.0276331166397,0.25
0.0282888249905,0.25735294117647056
0.0282888249905,0.2647058823529412
0.0284602415704,0.27205882352941174
0.0284602415704,0.27941176470588236
0.0286943501054,0.2867647058823529
0.0286943501054,0.29411764705882354
0.0290402864079,0.3014705882352941
0.0290402864079,0.3088235294117647
0.0291124905827,0.3161764705882353
0.0291124905827,0.3235294117647059
0.0304857050401,0.33088235294117646
0.0304857050401,0.3382352941176471
0.031033467319,0.34558823529411764
0.031033467319,0.35294117647058826
0.0318933175199,0.3602941176470588
0.0318933175199,0.36764705882352944
0.0325843811622,0.375
0.0325843811622,0.38235294117647056
0.03271850263,0.3897058823529412
0.03271850263,0.39705882352941174
0.034037010369,0.40441176470588236
0.034037010369,0.4117647058823529
0.0348391403718,0.41911764705882354
0.0348391403718,0.4264705882352941
0.0371041877078,0.4338235294117647
0.0371041877078,0.4411764705882353
0.595250260172,0.4485294117647059
0.595250260172,0.45588235294117646
0.815275657718,0.4632352941176471
0.815275657718,0.47058823529411764
0.879594604499,0.47794117647058826
0.879594604499,0.4852941176470588
0.961865330905,0.49264705882352944
0.961865330905,0.5
1.14277688841,0.5073529411764706
1.14277688841,0.5147058823529411
1.3888316352,0.5220588235294118
1.3888316352,0.5294117647058824
1.46224078739,0.5367647058823529
1.46224078739,0.5441176470588235
1.55599713633,0.5514705882352942
1.55599713633,0.5588235294117647
1.88415882614,0.5661764705882353
1.88415882614,0.5735294117647058
2.14817922274,0.5808823529411765
2.14817922274,0.5882352941176471
2.23371199024,0.5955882352941176
2.23371199024,0.6029411764705882
2.25407463326,0.6102941176470589
2.25407463326,0.6176470588235294
2.35581875271,0.625
2.35581875271,0.6323529411764706
2.54996880518,0.6397058823529411
2.54996880518,0.6470588235294118
3.1033467319,0.6544117647058824
3.1033467319,0.6617647058823529
3.18933175199,0.6691176470588235
3.18933175199,0.6764705882352942
3.19514150941,0.6838235294117647
3.19514150941,0.6911764705882353
3.22044413333,0.6985294117647058
3.22044413333,0.7058823529411765
3.42890369434,0.7132352941176471
3.42890369434,0.7205882352941176
3.48391403718,0.7279411764705882
3.48391403718,0.7352941176470589
3.5967803921,0.7426470588235294
3.5967803921,0.75
3.6695329911,0.7573529411764706
3.6695329911,0.7647058823529411
3.71041877078,0.7720588235294118
3.71041877078,0.7794117647058824
4.15623133484,0.7867647058823529
4.15623133484,0.7941176470588235
4.49978529379,0.8014705882352942
4.49978529379,0.8088235294117647
4.66312632764,0.8161764705882353
4.66312632764,0.8235294117647058
5.13364194214,0.8308823529411765
5.13364194214,0.8382352941176471
5.15600908914,0.8455882352941176
5.15600908914,0.8529411764705882
5.43157334981,0.8602941176470589
5.43157334981,0.8676470588235294
5.56817526372,0.875
5.56817526372,0.8823529411764706
5.65542837997,0.8897058823529411
5.65542837997,0.8970588235294118
7.18908424658,0.9044117647058824
7.18908424658,0.9117647058823529
8.29961919655,0.9191176470588235
8.29961919655,0.9264705882352942
8.62407483103,0.9338235294117647
8.62407483103,0.9411764705882353
10.5726232751,0.9485294117647058
10.5726232751,0.9558823529411765
10.5980338449,0.9632352941176471
10.5980338449,0.9705882352941176
14.06952775,0.9779411764705882
14.06952775,0.9852941176470589
16.2672839684,0.9926470588235294
16.2672839684,1.0
