Congestion,CDF
0.0,0.007352941176470588
0.0,0.014705882352941176
0.0564995150411,0.022058823529411766
0.0564995150411,0.029411764705882353
0.0581853241633,0.03676470588235294
0.0581853241633,0.04411764705882353
0.0582000348366,0.051470588235294115
0.0582000348366,0.058823529411764705
0.0588926948475,0.0661764705882353
0.0588926948475,0.07352941176470588
0.0590955797742,0.08088235294117647
0.0590955797742,0.08823529411764706
0.0597507572142,0.09558823529411764
0.0597507572142,0.10294117647058823
0.0606932115387,0.11029411764705882
0.0606932115387,0.11764705882352941
0.0607892267908,0.125
0.0607892267908,0.1323529411764706
0.0610691129862,0.13970588235294118
0.0610691129862,0.14705882352941177
0.0611843119336,0.15441176470588236
0.0611843119336,0.16176470588235295
0.0614874465138,0.16911764705882354
0.0614874465138,0.17647058823529413
0.0616517539749,0.18382352941176472
0.0616517539749,0.19117647058823528
0.0627086059029,0.19852941176470587
0.0627086059029,0.20588235294117646
0.0628860914599,0.21323529411764705
0.0628860914599,0.22058823529411764
0.0632369028759,0.22794117647058823
0.0632369028759,0.23529411764705882
0.0634195003451,0.2426470588235294
0.0634195003451,0.25
0.0636539696359,0.25735294117647056
0.0636539696359,0.2647058823529412
0.0636601244071,0.27205882352941174
0.0636601244071,0.27941176470588236
0.0636635777837,0.2867647058823529
0.0636635777837,0.29411764705882354
0.0641546454606,0.3014705882352941
0.0641546454606,0.3088235294117647
0.0641851730721,0.3161764705882353
0.0641851730721,0.3235294117647059
0.0644922401631,0.33088235294117646
0.0644922401631,0.3382352941176471
0.0647900772113,0.34558823529411764
0.0647900772113,0.35294117647058826
0.0653912662296,0.3602941176470588
0.0653912662296,0.36764705882352944
0.0660645284735,0.375
0.0660645284735,0.38235294117647056
0.0662521591726,0.3897058823529412
0.0662521591726,0.39705882352941174
0.0668514320091,0.40441176470588236
0.0668514320091,0.4117647058823529
0.0714786011604,0.41911764705882354
0.0714786011604,0.4264705882352941
0.329073263876,0.4338235294117647
0.329073263876,0.4411764705882353
1.87861246145,0.4485294117647059
1.87861246145,0.45588235294117646
1.91108800553,0.4632352941176471
1.91108800553,0.47058823529411764
2.4204897449,0.47794117647058826
2.4204897449,0.4852941176470588
2.85566703069,0.49264705882352944
2.85566703069,0.5
3.01388429688,0.5073529411764706
3.01388429688,0.5147058823529411
3.02649771764,0.5220588235294118
3.02649771764,0.5294117647058824
3.07986068158,0.5367647058823529
3.07986068158,0.5441176470588235
3.61884135311,0.5514705882352942
3.61884135311,0.5588235294117647
4.02326119996,0.5661764705882353
4.02326119996,0.5735294117647058
4.61181836208,0.5808823529411765
4.61181836208,0.5882352941176471
4.83513560715,0.5955882352941176
4.83513560715,0.6029411764705882
5.51711701989,0.6102941176470589
5.51711701989,0.6176470588235294
5.92228172498,0.625
5.92228172498,0.6323529411764706
6.25067143618,0.6397058823529411
6.25067143618,0.6470588235294118
6.25395072752,0.6544117647058824
6.25395072752,0.6617647058823529
6.36635777837,0.6691176470588235
6.36635777837,0.6764705882352942
6.73994144467,0.6838235294117647
6.73994144467,0.6911764705882353
7.14786011604,0.6985294117647058
7.14786011604,0.7058823529411765
7.35968477858,0.7132352941176471
7.35968477858,0.7205882352941176
7.43561475018,0.7279411764705882
7.43561475018,0.7352941176470589
7.47878444172,0.7426470588235294
7.47878444172,0.75
7.89705833161,0.7573529411764706
7.89705833161,0.7647058823529411
8.49568852062,0.7720588235294118
8.49568852062,0.7794117647058824
8.99133786318,0.7867647058823529
8.99133786318,0.7941176470588235
9.25108675967,0.8014705882352942
9.25108675967,0.8088235294117647
9.84798708391,0.8161764705882353
9.84798708391,0.8235294117647058
10.0754976876,0.8308823529411765
10.0754976876,0.8382352941176471
10.547096556,0.8455882352941176
10.547096556,0.8529411764705882
11.4819543563,0.8602941176470589
11.4819543563,0.8676470588235294
11.9698692679,0.875
11.9698692679,0.8823529411764706
12.4442442319,0.8897058823529411
12.4442442319,0.8970588235294118
14.1132927723,0.9044117647058824
14.1132927723,0.9117647058823529
16.2929510603,0.9191176470588235
16.2929510603,0.9264705882352942
16.3483842757,0.9338235294117647
16.3483842757,0.9411764705882353
19.5874802706,0.9485294117647058
19.5874802706,0.9558823529411765
20.3533326818,0.9632352941176471
20.3533326818,0.9705882352941176
25.6091632295,0.9779411764705882
25.6091632295,0.9852941176470589
29.2965239178,0.9926470588235294
29.2965239178,1.0
