Congestion,CDF
0.0,0.007352941176470588
0.0,0.014705882352941176
0.0392706967475,0.022058823529411766
0.0392706967475,0.029411764705882353
0.0405035877231,0.03676470588235294
0.0405035877231,0.04411764705882353
0.0410151009184,0.051470588235294115
0.0410151009184,0.058823529411764705
0.0419130201787,0.0661764705882353
0.0419130201787,0.07352941176470588
0.0423816537663,0.08088235294117647
0.0423816537663,0.08823529411764706
0.0427220599942,0.09558823529411764
0.0427220599942,0.10294117647058823
0.0448656465143,0.11029411764705882
0.0448656465143,0.11764705882352941
0.0449895142549,0.125
0.0449895142549,0.1323529411764706
0.0456253882666,0.13970588235294118
0.0456253882666,0.14705882352941177
0.0458432627694,0.15441176470588236
0.0458432627694,0.16176470588235295
0.0458957551581,0.16911764705882354
0.0458957551581,0.17647058823529413
0.0463084299057,0.18382352941176472
0.0463084299057,0.19117647058823528
0.0470210833529,0.19852941176470587
0.0470210833529,0.20588235294117646
0.0474547516937,0.21323529411764705
0.0474547516937,0.22058823529411764
0.0474922530148,0.22794117647058823
0.0474922530148,0.23529411764705882
0.0479269715455,0.2426470588235294
0.0479269715455,0.25
0.0481339748112,0.25735294117647056
0.0481339748112,0.2647058823529412
0.0486798563301,0.27205882352941174
0.0486798563301,0.27941176470588236
0.0491079395313,0.2867647058823529
0.0491079395313,0.29411764705882354
0.0495162638221,0.3014705882352941
0.0495162638221,0.3088235294117647
0.0497066748758,0.3161764705882353
0.0497066748758,0.3235294117647059
0.0498347407132,0.33088235294117646
0.0498347407132,0.3382352941176471
0.0505539955983,0.34558823529411764
0.0505539955983,0.35294117647058826
0.0510765036323,0.3602941176470588
0.0510765036323,0.36764705882352944
0.0520436482087,0.375
0.0520436482087,0.38235294117647056
0.0521483088776,0.3897058823529412
0.0521483088776,0.39705882352941174
0.0523126012478,0.40441176470588236
0.0523126012478,0.4117647058823529
0.0569383637119,0.41911764705882354
0.0569383637119,0.4264705882352941
0.0875080632845,0.4338235294117647
0.0875080632845,0.4411764705882353
1.3409657738,0.4485294117647059
1.3409657738,0.45588235294117646
1.39172156648,0.4632352941176471
1.39172156648,0.47058823529411764
1.87394556371,0.47794117647058826
1.87394556371,0.4852941176470588
2.04701097664,0.49264705882352944
2.04701097664,0.5
2.06487342252,0.5073529411764706
2.06487342252,0.5147058823529411
2.36155002322,0.5220588235294118
2.36155002322,0.5294117647058824
2.37750203536,0.5367647058823529
2.37750203536,0.5441176470588235
2.84592053061,0.5514705882352942
2.84592053061,0.5588235294117647
2.95524619477,0.5661764705882353
2.95524619477,0.5735294117647058
3.63927396525,0.5808823529411765
3.63927396525,0.5882352941176471
3.72076217446,0.5955882352941176
3.72076217446,0.6029411764705882
4.20939292506,0.6102941176470589
4.20939292506,0.6176470588235294
4.33777764459,0.625
4.33777764459,0.6323529411764706
4.71132583351,0.6397058823529411
4.71132583351,0.6470588235294118
4.88585888751,0.6544117647058824
4.88585888751,0.6617647058823529
5.05539955983,0.6691176470588235
5.05539955983,0.6764705882352942
5.29702761948,0.6838235294117647
5.29702761948,0.6911764705882353
5.63351378747,0.6985294117647058
5.63351378747,0.7058823529411765
5.69383637119,0.7132352941176471
5.69383637119,0.7205882352941176
5.81741014946,0.7279411764705882
5.81741014946,0.7352941176470589
5.86892492575,0.7426470588235294
5.86892492575,0.75
5.94330706249,0.7573529411764706
5.94330706249,0.7647058823529411
6.814098724,0.7720588235294118
6.814098724,0.7794117647058824
6.8429124798,0.7867647058823529
6.8429124798,0.7941176470588235
7.18745765874,0.8014705882352942
7.18745765874,0.8088235294117647
7.71687958495,0.8161764705882353
7.71687958495,0.8235294117647058
8.05028535148,0.8308823529411765
8.05028535148,0.8382352941176471
8.47761139236,0.8455882352941176
8.47761139236,0.8529411764705882
9.04734968671,0.8602941176470589
9.04734968671,0.8676470588235294
9.21687659171,0.875
9.21687659171,0.8823529411764706
9.73151892487,0.8897058823529411
9.73151892487,0.8970588235294118
11.2721389337,0.9044117647058824
11.2721389337,0.9117647058823529
13.1021109291,0.9191176470588235
13.1021109291,0.9264705882352942
13.2354254555,0.9338235294117647
13.2354254555,0.9411764705882353
15.8991437625,0.9485294117647058
15.8991437625,0.9558823529411765
16.423925454,0.9632352941176471
16.423925454,0.9705882352941176
20.9549919273,0.9779411764705882
20.9549919273,0.9852941176470589
24.0714749746,0.9926470588235294
24.0714749746,1.0
