Congestion,CDF
0.0,0.007352941176470588
0.0,0.014705882352941176
0.0498987861557,0.022058823529411766
0.0498987861557,0.029411764705882353
0.051790951687,0.03676470588235294
0.051790951687,0.04411764705882353
0.0529286939909,0.051470588235294115
0.0529286939909,0.058823529411764705
0.053103939974,0.0661764705882353
0.053103939974,0.07352941176470588
0.0531432688124,0.08088235294117647
0.0531432688124,0.08823529411764706
0.0533564850397,0.09558823529411764
0.0533564850397,0.10294117647058823
0.0554152501413,0.11029411764705882
0.0554152501413,0.11764705882352941
0.055493578671,0.125
0.055493578671,0.1323529411764706
0.0558747118473,0.13970588235294118
0.0558747118473,0.14705882352941177
0.0560059726809,0.15441176470588236
0.0560059726809,0.16176470588235295
0.056926049437,0.16911764705882354
0.056926049437,0.17647058823529413
0.05694937856,0.18382352941176472
0.05694937856,0.19117647058823528
0.0570830541463,0.19852941176470587
0.0570830541463,0.20588235294117646
0.0572603215811,0.21323529411764705
0.0572603215811,0.22058823529411764
0.0575632087057,0.22794117647058823
0.0575632087057,0.23529411764705882
0.0585555762907,0.2426470588235294
0.0585555762907,0.25
0.0586048262123,0.25735294117647056
0.0586048262123,0.2647058823529412
0.0586098578997,0.27205882352941174
0.0586098578997,0.27941176470588236
0.058761028127,0.2867647058823529
0.058761028127,0.29411764705882354
0.0588536659106,0.3014705882352941
0.0588536659106,0.3088235294117647
0.0590270991012,0.3161764705882353
0.0590270991012,0.3235294117647059
0.0593682380972,0.33088235294117646
0.0593682380972,0.3382352941176471
0.0594402181116,0.34558823529411764
0.0594402181116,0.35294117647058826
0.060673089628,0.3602941176470588
0.060673089628,0.36764705882352944
0.0612482000646,0.375
0.0612482000646,0.38235294117647056
0.0613711067847,0.3897058823529412
0.0613711067847,0.39705882352941174
0.061480742078,0.40441176470588236
0.061480742078,0.4117647058823529
0.0666872802086,0.41911764705882354
0.0666872802086,0.4264705882352941
0.204015848134,0.4338235294117647
0.204015848134,0.4411764705882353
1.70661510644,0.4485294117647059
1.70661510644,0.45588235294117646
1.72290041813,0.4632352941176471
1.72290041813,0.47058823529411764
2.24474771808,0.47794117647058826
2.24474771808,0.4852941176470588
2.58833004998,0.49264705882352944
2.58833004998,0.5
2.69009400872,0.5073529411764706
2.69009400872,0.5147058823529411
2.81997091674,0.5220588235294118
2.81997091674,0.5294117647058824
2.8499728807,0.5367647058823529
2.8499728807,0.5441176470588235
3.34930086118,0.5514705882352942
3.34930086118,0.5588235294117647
3.66232578567,0.5661764705882353
3.66232578567,0.5735294117647058
4.2908889038,0.5808823529411765
4.2908889038,0.5882352941176471
4.46810062608,0.5955882352941176
4.46810062608,0.6029411764705882
5.08760385212,0.6102941176470589
5.08760385212,0.6176470588235294
5.4026346048,0.625
5.4026346048,0.6323529411764706
5.7473205304,0.6397058823529411
5.7473205304,0.6470588235294118
5.75981734686,0.6544117647058824
5.75981734686,0.6617647058823529
5.93682380972,0.6691176470588235
5.93682380972,0.6764705882352942
6.23777595284,0.6838235294117647
6.23777595284,0.6911764705882353
6.66872802086,0.6985294117647058
6.66872802086,0.7058823529411765
6.79740682624,0.7132352941176471
6.79740682624,0.7205882352941176
6.92372692184,0.7279411764705882
6.92372692184,0.7352941176470589
6.93514264455,0.7426470588235294
6.93514264455,0.75
7.26520800508,0.7573529411764706
7.26520800508,0.7647058823529411
7.95374758466,0.7720588235294118
7.95374758466,0.7794117647058824
8.29238660045,0.7867647058823529
8.29238660045,0.7941176470588235
8.58926550465,0.8014705882352942
8.58926550465,0.8088235294117647
9.162510662,0.8161764705882353
9.162510662,0.8235294117647058
9.42185654755,0.8308823529411765
9.42185654755,0.8382352941176471
9.87680333989,0.8455882352941176
9.87680333989,0.8529411764705882
10.7080749234,0.8602941176470589
10.7080749234,0.8676470588235294
11.0943451738,0.875
11.0943451738,0.8823529411764706
11.586659246,0.8897058823529411
11.586659246,0.8970588235294118
13.2094628527,0.9044117647058824
13.2094628527,0.9117647058823529
15.2900360731,0.9191176470588235
15.2900360731,0.9264705882352942
15.3673228197,0.9338235294117647
15.3673228197,0.9411764705882353
18.4227096296,0.9485294117647058
18.4227096296,0.9558823529411765
19.1183012963,0.9632352941176471
19.1183012963,0.9705882352941176
24.1484798716,0.9779411764705882
24.1484798716,0.9852941176470589
27.6607870444,0.9926470588235294
27.6607870444,1.0
