Congestion,CDF
0.0,0.007352941176470588
0.0,0.014705882352941176
0.0339809833181,0.022058823529411766
0.0339809833181,0.029411764705882353
0.0344714213431,0.03676470588235294
0.0344714213431,0.04411764705882353
0.0346507099468,0.051470588235294115
0.0346507099468,0.058823529411764705
0.0352040630677,0.0661764705882353
0.0352040630677,0.07352941176470588
0.0360373032265,0.08088235294117647
0.0360373032265,0.08823529411764706
0.0364497507683,0.09558823529411764
0.0364497507683,0.10294117647058823
0.0383784039829,0.11029411764705882
0.0383784039829,0.11764705882352941
0.0392121534434,0.125
0.0392121534434,0.1323529411764706
0.0392391817638,0.13970588235294118
0.0392391817638,0.14705882352941177
0.0393255168969,0.15441176470588236
0.0393255168969,0.16176470588235295
0.0396870217213,0.16911764705882354
0.0396870217213,0.17647058823529413
0.040224910197,0.18382352941176472
0.040224910197,0.19117647058823528
0.0402496396035,0.19852941176470587
0.0402496396035,0.20588235294117646
0.0406837874284,0.21323529411764705
0.0406837874284,0.22058823529411764
0.0413700538167,0.22794117647058823
0.0413700538167,0.23529411764705882
0.0416730614757,0.2426470588235294
0.0416730614757,0.25
0.0421398384543,0.25735294117647056
0.0421398384543,0.2647058823529412
0.0422030048443,0.27205882352941174
0.0422030048443,0.27941176470588236
0.0427021409159,0.2867647058823529
0.0427021409159,0.29411764705882354
0.0430027625459,0.3014705882352941
0.0430027625459,0.3088235294117647
0.0435375818755,0.3161764705882353
0.0435375818755,0.3235294117647059
0.0441424460168,0.33088235294117646
0.0441424460168,0.3382352941176471
0.0448735206207,0.34558823529411764
0.0448735206207,0.35294117647058826
0.0449344576381,0.3602941176470588
0.0449344576381,0.36764705882352944
0.0450627068279,0.375
0.0450627068279,0.38235294117647056
0.0465026285486,0.3897058823529412
0.0465026285486,0.39705882352941174
0.0466166083428,0.40441176470588236
0.0466166083428,0.4117647058823529
0.0469252285322,0.41911764705882354
0.0469252285322,0.4264705882352941
0.050903318935,0.4338235294117647
0.050903318935,0.4411764705882353
1.12680999436,0.4485294117647059
1.12680999436,0.45588235294117646
1.23417128032,0.4632352941176471
1.23417128032,0.47058823529411764
1.65390698147,0.47794117647058826
1.65390698147,0.4852941176470588
1.67638439513,0.49264705882352944
1.67638439513,0.5
1.74988913565,0.5073529411764706
1.74988913565,0.5147058823529411
2.06360641967,0.5220588235294118
2.06360641967,0.5294117647058824
2.10153943222,0.5367647058823529
2.10153943222,0.5441176470588235
2.53275285594,0.5514705882352942
2.53275285594,0.5588235294117647
2.55038711895,0.5661764705882353
2.55038711895,0.5735294117647058
3.23894360349,0.5808823529411765
3.23894360349,0.5882352941176471
3.25787451101,0.5955882352941176
3.25787451101,0.6029411764705882
3.65415759801,0.6102941176470589
3.65415759801,0.6176470588235294
3.68551822423,0.625
3.68551822423,0.6323529411764706
4.0735375184,0.6397058823529411
4.0735375184,0.6470588235294118
4.37399496208,0.6544117647058824
4.37399496208,0.6617647058823529
4.49344576381,0.6691176470588235
4.49344576381,0.6764705882352942
4.73277249282,0.6838235294117647
4.73277249282,0.6911764705882353
4.9065424708,0.6985294117647058
4.9065424708,0.7058823529411765
5.0903318935,0.7132352941176471
5.0903318935,0.7205882352941176
5.12193067782,0.7279411764705882
5.12193067782,0.7352941176470589
5.12341548199,0.7426470588235294
5.12341548199,0.75
5.20587127234,0.7573529411764706
5.20587127234,0.7647058823529411
5.88689451731,0.7720588235294118
5.88689451731,0.7794117647058824
6.16334899752,0.7867647058823529
6.16334899752,0.7941176470588235
6.3032005626,0.8014705882352942
6.3032005626,0.8088235294117647
6.81700508804,0.8161764705882353
6.81700508804,0.8235294117647058
7.20064997381,0.8308823529411765
7.20064997381,0.8382352941176471
7.62717574383,0.8455882352941176
7.62717574383,0.8529411764705882
8.00552652133,0.8602941176470589
8.00552652133,0.8676470588235294
8.05403518951,0.875
8.05403518951,0.8823529411764706
8.56495346269,0.8897058823529411
8.56495346269,0.8970588235294118
10.0835312686,0.9044117647058824
10.0835312686,0.9117647058823529
11.7218600798,0.9191176470588235
11.7218600798,0.9264705882352942
11.8982955229,0.9338235294117647
11.8982955229,0.9411764705882353
14.3237666622,0.9485294117647058
14.3237666622,0.9558823529411765
14.7170527164,0.9632352941176471
14.7170527164,0.9705882352941176
18.933503158,0.9779411764705882
18.933503158,0.9852941176470589
21.7911908351,0.9926470588235294
21.7911908351,1.0
