Congestion,CDF
0.0378035411387,0.007352941176470588
0.0378035411387,0.014705882352941176
0.0391604835675,0.022058823529411766
0.0391604835675,0.029411764705882353
0.0393856155524,0.03676470588235294
0.0393856155524,0.04411764705882353
0.0394493522137,0.051470588235294115
0.0394493522137,0.058823529411764705
0.0396033341429,0.0661764705882353
0.0396033341429,0.07352941176470588
0.0396854139563,0.08088235294117647
0.0396854139563,0.08823529411764706
0.0397479551124,0.09558823529411764
0.0397479551124,0.10294117647058823
0.0406689189092,0.11029411764705882
0.0406689189092,0.11764705882352941
0.0409953285072,0.125
0.0409953285072,0.1323529411764706
0.0411163296338,0.13970588235294118
0.0411163296338,0.14705882352941177
0.0414053477709,0.15441176470588236
0.0414053477709,0.16176470588235295
0.0415354932184,0.16911764705882354
0.0415354932184,0.17647058823529413
0.0415640878526,0.18382352941176472
0.0415640878526,0.19117647058823528
0.0417211004572,0.19852941176470587
0.0417211004572,0.20588235294117646
0.0422574406935,0.21323529411764705
0.0422574406935,0.22058823529411764
0.0422870828418,0.22794117647058823
0.0422870828418,0.23529411764705882
0.0425305197002,0.2426470588235294
0.0425305197002,0.25
0.0427551551547,0.25735294117647056
0.0427551551547,0.2647058823529412
0.043200578519,0.27205882352941174
0.043200578519,0.27941176470588236
0.0432950612785,0.2867647058823529
0.0432950612785,0.29411764705882354
0.0436294473724,0.3014705882352941
0.0436294473724,0.3088235294117647
0.0437572298295,0.3161764705882353
0.0437572298295,0.3235294117647059
0.0440026228478,0.33088235294117646
0.0440026228478,0.3382352941176471
0.0440428240152,0.34558823529411764
0.0440428240152,0.35294117647058826
0.0442987881231,0.3602941176470588
0.0442987881231,0.36764705882352944
0.0453200033339,0.375
0.0453200033339,0.38235294117647056
0.0461886698363,0.3897058823529412
0.0461886698363,0.39705882352941174
0.047815017408,0.40441176470588236
0.047815017408,0.4117647058823529
0.0641625208702,0.41911764705882354
0.0641625208702,0.4264705882352941
0.34532901832,0.4338235294117647
0.34532901832,0.4411764705882353
1.21511914568,0.4485294117647059
1.21511914568,0.45588235294117646
1.31293354386,0.4632352941176471
1.31293354386,0.47058823529411764
1.64538441712,0.47794117647058826
1.64538441712,0.4852941176470588
1.84299133463,0.49264705882352944
1.84299133463,0.5
1.94764553421,0.5073529411764706
1.94764553421,0.5147058823529411
2.00815713429,0.5220588235294118
2.00815713429,0.5294117647058824
2.08662296967,0.5367647058823529
2.08662296967,0.5441176470588235
2.44712178445,0.5514705882352942
2.44712178445,0.5588235294117647
2.6269556287,0.5661764705882353
2.6269556287,0.5735294117647058
3.05563325855,0.5808823529411765
3.05563325855,0.5882352941176471
3.14434813009,0.5955882352941176
3.14434813009,0.6029411764705882
3.58198585794,0.6102941176470589
3.58198585794,0.6176470588235294
3.83529362818,0.625
3.83529362818,0.6323529411764706
4.0519333723,0.6397058823529411
4.0519333723,0.6470588235294118
4.16158154848,0.6544117647058824
4.16158154848,0.6617647058823529
4.23087867173,0.6691176470588235
4.23087867173,0.6764705882352942
4.57505394825,0.6838235294117647
4.57505394825,0.6911764705882353
4.7815017408,0.6985294117647058
4.7815017408,0.7058823529411765
4.78262767724,0.7132352941176471
4.78262767724,0.7205882352941176
4.88178986216,0.7279411764705882
4.88178986216,0.7352941176470589
4.89726300285,0.7426470588235294
4.89726300285,0.75
5.11851411565,0.7573529411764706
5.11851411565,0.7647058823529411
5.64857206816,0.7720588235294118
5.64857206816,0.7794117647058824
5.8007070031,0.7867647058823529
5.8007070031,0.7941176470588235
6.00768253166,0.8014705882352942
6.00768253166,0.8088235294117647
6.46335969933,0.8161764705882353
6.46335969933,0.8235294117647058
6.63414759689,0.8308823529411765
6.63414759689,0.8382352941176471
7.00481453435,0.8455882352941176
7.00481453435,0.8529411764705882
7.50245315832,0.8602941176470589
7.50245315832,0.8676470588235294
7.68994839349,0.875
7.68994839349,0.8823529411764706
8.02926926602,0.8897058823529411
8.02926926602,0.8970588235294118
9.275443713,0.9044117647058824
9.275443713,0.9117647058823529
10.7107880857,0.9191176470588235
10.7107880857,0.9264705882352942
10.796415456,0.9338235294117647
10.796415456,0.9411764705882353
13.0424187848,0.9485294117647058
13.0424187848,0.9558823529411765
13.4098798402,0.9632352941176471
13.4098798402,0.9705882352941176
16.9889402513,0.9779411764705882
16.9889402513,0.9852941176470589
19.4615817655,0.9926470588235294
19.4615817655,1.0
