Congestion,CDF
0.0,0.007352941176470588
0.0,0.014705882352941176
0.0361243042507,0.022058823529411766
0.0361243042507,0.029411764705882353
0.036994731299,0.03676470588235294
0.036994731299,0.04411764705882353
0.0372922883963,0.051470588235294115
0.0372922883963,0.058823529411764705
0.0380158611524,0.0661764705882353
0.0380158611524,0.07352941176470588
0.0387545356685,0.08088235294117647
0.0387545356685,0.08823529411764706
0.0391446313169,0.09558823529411764
0.0391446313169,0.10294117647058823
0.041113791417,0.11029411764705882
0.041113791417,0.11764705882352941
0.0416424084042,0.125
0.0416424084042,0.1323529411764706
0.0419416780668,0.13970588235294118
0.0419416780668,0.14705882352941177
0.0420611249687,0.15441176470588236
0.0420611249687,0.16176470588235295
0.042270337427,0.16911764705882354
0.042270337427,0.17647058823529413
0.0430511968888,0.18382352941176472
0.0430511968888,0.19117647058823528
0.0430655142205,0.19852941176470587
0.0430655142205,0.20588235294117646
0.0439943946895,0.21323529411764705
0.0439943946895,0.22058823529411764
0.0441000935967,0.22794117647058823
0.0441000935967,0.23529411764705882
0.0446171619618,0.2426470588235294
0.0446171619618,0.25
0.0447057646208,0.25735294117647056
0.0447057646208,0.2647058823529412
0.0452516977091,0.27205882352941174
0.0452516977091,0.27941176470588236
0.0455978505275,0.2867647058823529
0.0455978505275,0.29411764705882354
0.0461783267426,0.3014705882352941
0.0461783267426,0.3088235294117647
0.0464345355238,0.3161764705882353
0.0464345355238,0.3235294117647059
0.0470022624963,0.33088235294117646
0.0470022624963,0.3382352941176471
0.0473477989735,0.34558823529411764
0.0473477989735,0.35294117647058826
0.0476400596844,0.3602941176470588
0.0476400596844,0.36764705882352944
0.0488841696814,0.375
0.0488841696814,0.38235294117647056
0.0489572263469,0.3897058823529412
0.0489572263469,0.39705882352941174
0.0491837011365,0.40441176470588236
0.0491837011365,0.4117647058823529
0.0534780020621,0.41911764705882354
0.0534780020621,0.4264705882352941
0.057578806518,0.4338235294117647
0.057578806518,0.4411764705882353
1.21600735755,0.4485294117647059
1.21600735755,0.45588235294117646
1.29944718856,0.4632352941176471
1.29944718856,0.47058823529411764
1.7449663739,0.47794117647058826
1.7449663739,0.4852941176470588
1.83048648534,0.49264705882352944
1.83048648534,0.5
1.88360739801,0.5073529411764706
1.88360739801,0.5147058823529411
2.1888793064,0.5220588235294118
2.1888793064,0.5294117647058824
2.21926538253,0.5367647058823529
2.21926538253,0.5441176470588235
2.67617765474,0.5514705882352942
2.67617765474,0.5588235294117647
2.71328576978,0.5661764705882353
2.71328576978,0.5735294117647058
3.4107478915,0.5808823529411765
3.4107478915,0.5882352941176471
3.45337536212,0.5955882352941176
3.45337536212,0.6029411764705882
3.89170454821,0.6102941176470589
3.89170454821,0.6176470588235294
3.96141783396,0.625
3.96141783396,0.6323529411764706
4.34412911441,0.6397058823529411
4.34412911441,0.6470588235294118
4.59081442541,0.6544117647058824
4.59081442541,0.6617647058823529
4.73477989735,0.6691176470588235
4.73477989735,0.6764705882352942
4.97100924063,0.6838235294117647
4.97100924063,0.6911764705882353
5.21728158021,0.6985294117647058
5.21728158021,0.7058823529411765
5.34780020621,0.7132352941176471
5.34780020621,0.7205882352941176
5.41835019374,0.7279411764705882
5.41835019374,0.7352941176470589
5.46961722211,0.7426470588235294
5.46961722211,0.75
5.49013409448,0.7573529411764706
5.49013409448,0.7647058823529411
6.28304686696,0.7720588235294118
6.28304686696,0.7794117647058824
6.45487781468,0.7867647058823529
6.45487781468,0.7941176470588235
6.68296495413,0.8014705882352942
6.68296495413,0.8088235294117647
7.20257885767,0.8161764705882353
7.20257885767,0.8235294117647058
7.56459462288,0.8308823529411765
7.56459462288,0.8382352941176471
7.99159348648,0.8455882352941176
7.99159348648,0.8529411764705882
8.4533789528,0.8602941176470589
8.4533789528,0.8676470588235294
8.55155030738,0.875
8.55155030738,0.8823529411764706
9.06684610866,0.8897058823529411
9.06684610866,0.8970588235294118
10.5895576181,0.9044117647058824
10.5895576181,0.9117647058823529
12.3109213923,0.9191176470588235
12.3109213923,0.9264705882352942
12.4678142899,0.9338235294117647
12.4678142899,0.9411764705882353
14.9940962145,0.9485294117647058
14.9940962145,0.9558823529411765
15.448227101,0.9632352941176471
15.448227101,0.9705882352941176
19.7991516571,0.9779411764705882
19.7991516571,0.9852941176470589
22.7683022264,0.9926470588235294
22.7683022264,1.0
