Congestion,CDF
0.0,0.007352941176470588
0.0,0.014705882352941176
0.0183289121419,0.022058823529411766
0.0183289121419,0.029411764705882353
0.0304362421688,0.03676470588235294
0.0304362421688,0.04411764705882353
0.030551199827,0.051470588235294115
0.030551199827,0.058823529411764705
0.0305631654453,0.0661764705882353
0.0305631654453,0.07352941176470588
0.030780263057,0.08088235294117647
0.030780263057,0.08823529411764706
0.0315335403618,0.09558823529411764
0.0315335403618,0.10294117647058823
0.0319422676863,0.11029411764705882
0.0319422676863,0.11764705882352941
0.0338343519817,0.125
0.0338343519817,0.1323529411764706
0.0346082234036,0.13970588235294118
0.0346082234036,0.14705882352941177
0.0348151979005,0.15441176470588236
0.0348151979005,0.16176470588235295
0.0351993607068,0.16911764705882354
0.0351993607068,0.17647058823529413
0.0355974329479,0.18382352941176472
0.0355974329479,0.19117647058823528
0.0356745543743,0.19852941176470587
0.0356745543743,0.20588235294117646
0.0368215893478,0.21323529411764705
0.0368215893478,0.22058823529411764
0.0370080890046,0.22794117647058823
0.0370080890046,0.23529411764705882
0.0375865480541,0.2426470588235294
0.0375865480541,0.25
0.0381062400321,0.25735294117647056
0.0381062400321,0.2647058823529412
0.0382036547048,0.27205882352941174
0.0382036547048,0.27941176470588236
0.0385981899051,0.2867647058823529
0.0385981899051,0.29411764705882354
0.0387425003522,0.3014705882352941
0.0387425003522,0.3088235294117647
0.0391492463654,0.3161764705882353
0.0391492463654,0.3235294117647059
0.0403701251892,0.33088235294117646
0.0403701251892,0.3382352941176471
0.0408330761299,0.34558823529411764
0.0408330761299,0.35294117647058826
0.0408917298499,0.3602941176470588
0.0408917298499,0.36764705882352944
0.0413037444431,0.375
0.0413037444431,0.38235294117647056
0.0425055390002,0.3897058823529412
0.0425055390002,0.39705882352941174
0.0428609199843,0.40441176470588236
0.0428609199843,0.4117647058823529
0.0432701763711,0.41911764705882354
0.0432701763711,0.4264705882352941
0.0466589078397,0.4338235294117647
0.0466589078397,0.4411764705882353
0.972583011547,0.4485294117647059
0.972583011547,0.45588235294117646
1.12932670399,0.4632352941176471
1.12932670399,0.47058823529411764
1.42966068831,0.47794117647058826
1.42966068831,0.4852941176470588
1.50699310555,0.49264705882352944
1.50699310555,0.5
1.53052001058,0.5073529411764706
1.53052001058,0.5147058823529411
1.86018242788,0.5220588235294118
1.86018242788,0.5294117647058824
1.91055138461,0.5367647058823529
1.91055138461,0.5441176470588235
2.24387185403,0.5514705882352942
2.24387185403,0.5588235294117647
2.34373002464,0.5661764705882353
2.34373002464,0.5735294117647058
2.93534300877,0.5808823529411765
2.93534300877,0.5882352941176471
2.95130321089,0.5955882352941176
2.95130321089,0.6029411764705882
3.22613891079,0.6102941176470589
3.22613891079,0.6176470588235294
3.2633983524,0.625
3.2633983524,0.6323529411764706
3.61811862775,0.6397058823529411
3.61811862775,0.6470588235294118
4.01868360678,0.6544117647058824
4.01868360678,0.6617647058823529
4.08917298499,0.6691176470588235
4.08917298499,0.6764705882352942
4.34534654925,0.6838235294117647
4.34534654925,0.6911764705882353
4.40232734175,0.6985294117647058
4.40232734175,0.7058823529411765
4.54240201543,0.7132352941176471
4.54240201543,0.7205882352941176
4.63393579986,0.7279411764705882
4.63393579986,0.7352941176470589
4.66589078397,0.7426470588235294
4.66589078397,0.75
4.73483389712,0.7573529411764706
4.73483389712,0.7647058823529411
5.23132891104,0.7720588235294118
5.23132891104,0.7794117647058824
5.66777212684,0.7867647058823529
5.66777212684,0.7941176470588235
5.67601926357,0.8014705882352942
5.67601926357,0.8088235294117647
6.18474303377,0.8161764705882353
6.18474303377,0.8235294117647058
6.59428392467,0.8308823529411765
6.59428392467,0.8382352941176471
7.01973134709,0.8455882352941176
7.01973134709,0.8529411764705882
7.21256413639,0.8602941176470589
7.21256413639,0.8676470588235294
7.25389482759,0.875
7.25389482759,0.8823529411764706
7.72071311379,0.8897058823529411
7.72071311379,0.8970588235294118
9.24191158356,0.9044117647058824
9.24191158356,0.9117647058823529
10.7319264634,0.9191176470588235
10.7319264634,0.9264705882352942
10.9444272195,0.9338235294117647
10.9444272195,0.9411764705882353
13.2240136831,0.9485294117647058
13.2240136831,0.9558823529411765
13.5134138691,0.9632352941176471
13.5134138691,0.9705882352941176
17.4976396171,0.9779411764705882
17.4976396171,0.9852941176470589
20.1624977297,0.9926470588235294
20.1624977297,1.0
