Congestion,CDF
0.0,0.007352941176470588
0.0,0.014705882352941176
0.00708995553281,0.022058823529411766
0.00708995553281,0.029411764705882353
0.028052721002,0.03676470588235294
0.028052721002,0.04411764705882353
0.0281198872496,0.051470588235294115
0.0281198872496,0.058823529411764705
0.0281501697172,0.0661764705882353
0.0281501697172,0.07352941176470588
0.0284902349498,0.08088235294117647
0.0284902349498,0.08823529411764706
0.0288696571278,0.09558823529411764
0.0288696571278,0.10294117647058823
0.0292376976237,0.11029411764705882
0.0292376976237,0.11764705882352941
0.0311477020036,0.125
0.0311477020036,0.1323529411764706
0.031834507012,0.13970588235294118
0.031834507012,0.14705882352941177
0.0322237958599,0.15441176470588236
0.0322237958599,0.16176470588235295
0.0327569357718,0.16911764705882354
0.0327569357718,0.17647058823529413
0.0330128506365,0.18382352941176472
0.0330128506365,0.19117647058823528
0.0334018228041,0.19852941176470587
0.0334018228041,0.20588235294117646
0.0344117549145,0.21323529411764705
0.0344117549145,0.22058823529411764
0.0345061473661,0.22794117647058823
0.0345061473661,0.23529411764705882
0.0351056297236,0.2426470588235294
0.0351056297236,0.25
0.0356827530414,0.25735294117647056
0.0356827530414,0.2647058823529412
0.0358609547769,0.27205882352941174
0.0358609547769,0.27941176470588236
0.0361252762023,0.2867647058823529
0.0361252762023,0.29411764705882354
0.0362222358985,0.3014705882352941
0.0362222358985,0.3088235294117647
0.0365669582738,0.3161764705882353
0.0365669582738,0.3235294117647059
0.0381418298448,0.33088235294117646
0.0381418298448,0.3382352941176471
0.0383065837473,0.34558823529411764
0.0383065837473,0.35294117647058826
0.0384514730835,0.3602941176470588
0.0384514730835,0.36764705882352944
0.0391462365512,0.375
0.0391462365512,0.38235294117647056
0.0400876424726,0.3897058823529412
0.0400876424726,0.39705882352941174
0.0406198220319,0.40441176470588236
0.0406198220319,0.4117647058823529
0.0410956287542,0.41911764705882354
0.0410956287542,0.4264705882352941
0.0441441716683,0.4338235294117647
0.0441441716683,0.4411764705882353
0.877877425189,0.4485294117647059
0.877877425189,0.45588235294117646
1.06640386613,0.4632352941176471
1.06640386613,0.47058823529411764
1.27840853666,0.47794117647058826
1.27840853666,0.4852941176470588
1.39356772881,0.49264705882352944
1.39356772881,0.5
1.41871905935,0.5073529411764706
1.41871905935,0.5147058823529411
1.73912986091,0.5220588235294118
1.73912986091,0.5294117647058824
1.79980104334,0.5367647058823529
1.79980104334,0.5441176470588235
2.0703286049,0.5514705882352942
2.0703286049,0.5588235294117647
2.22865586104,0.5661764705882353
2.22865586104,0.5735294117647058
2.74059598838,0.5808823529411765
2.74059598838,0.5882352941176471
2.77788874184,0.5955882352941176
2.77788874184,0.6029411764705882
2.95433831994,0.6102941176470589
2.95433831994,0.6176470588235294
3.03304702762,0.625
3.03304702762,0.6323529411764706
3.34388258162,0.6397058823529411
3.34388258162,0.6470588235294118
3.80709302895,0.6544117647058824
3.80709302895,0.6617647058823529
3.84514730835,0.6691176470588235
3.84514730835,0.6764705882352942
4.1016324321,0.6838235294117647
4.1016324321,0.6911764705882353
4.11665283095,0.6985294117647058
4.11665283095,0.7058823529411765
4.19468053984,0.7132352941176471
4.19468053984,0.7205882352941176
4.33824228812,0.7279411764705882
4.33824228812,0.7352941176470589
4.41441716683,0.7426470588235294
4.41441716683,0.75
4.45430717448,0.7573529411764706
4.45430717448,0.7647058823529411
4.83474322026,0.7720588235294118
4.83474322026,0.7794117647058824
5.28565719301,0.7867647058823529
5.28565719301,0.7941176470588235
5.3827332397,0.8014705882352942
5.3827332397,0.8088235294117647
5.80421326182,0.8161764705882353
5.80421326182,0.8235294117647058
6.2374201083,0.8308823529411765
6.2374201083,0.8382352941176471
6.65531281793,0.8455882352941176
6.65531281793,0.8529411764705882
6.70063818377,0.8602941176470589
6.70063818377,0.8676470588235294
6.79928588959,0.875
6.79928588959,0.8823529411764706
7.20909749399,0.8897058823529411
7.20909749399,0.8970588235294118
8.73468539277,0.9044117647058824
8.73468539277,0.9117647058823529
10.1322298028,0.9191176470588235
10.1322298028,0.9264705882352942
10.3688844116,0.9338235294117647
10.3688844116,0.9411764705882353
12.5646923788,0.9485294117647058
12.5646923788,0.9558823529411765
12.7861405853,0.9632352941176471
12.7861405853,0.9705882352941176
16.6460306522,0.9779411764705882
16.6460306522,0.9852941176470589
19.1877262576,0.9926470588235294
19.1877262576,1.0
