Congestion,CDF
0.00367900792074,0.005555555555555556
0.00367900792074,0.011111111111111112
0.00375768017659,0.016666666666666666
0.00375768017659,0.022222222222222223
0.00384637666599,0.027777777777777776
0.00384637666599,0.03333333333333333
0.00388729305879,0.03888888888888889
0.00388729305879,0.044444444444444446
0.00390205220151,0.05
0.00390205220151,0.05555555555555555
0.00392513543712,0.06111111111111111
0.00392513543712,0.06666666666666667
0.00393544255215,0.07222222222222222
0.00393544255215,0.07777777777777778
0.0039357043758,0.08333333333333333
0.0039357043758,0.08888888888888889
0.00395044954519,0.09444444444444444
0.00395044954519,0.1
0.00395055435754,0.10555555555555556
0.00395055435754,0.1111111111111111
0.00398325856437,0.11666666666666667
0.00398325856437,0.12222222222222222
0.00399557644557,0.12777777777777777
0.00399557644557,0.13333333333333333
0.00400306986737,0.1388888888888889
0.00400306986737,0.14444444444444443
0.00400364947303,0.15
0.00400364947303,0.15555555555555556
0.00402371502568,0.16111111111111112
0.00402371502568,0.16666666666666666
0.00402445466508,0.17222222222222222
0.00402445466508,0.17777777777777778
0.00403103444431,0.18333333333333332
0.00403103444431,0.18888888888888888
0.00403112194728,0.19444444444444445
0.00403112194728,0.2
0.00404369086574,0.20555555555555555
0.00404369086574,0.2111111111111111
0.0040448088898,0.21666666666666667
0.0040448088898,0.2222222222222222
0.00404858990757,0.22777777777777777
0.00404858990757,0.23333333333333334
0.00406248316484,0.2388888888888889
0.00406248316484,0.24444444444444444
0.00406299249515,0.25
0.00406299249515,0.25555555555555554
0.00406618955183,0.2611111111111111
0.00406618955183,0.26666666666666666
0.00407839413114,0.2722222222222222
0.00407839413114,0.2777777777777778
0.00408297289694,0.2833333333333333
0.00408297289694,0.28888888888888886
0.00409767320719,0.29444444444444445
0.00409767320719,0.3
0.00410088485962,0.3055555555555556
0.00410088485962,0.3111111111111111
0.00412580095139,0.31666666666666665
0.00412580095139,0.32222222222222224
0.00416098272662,0.3277777777777778
0.00416098272662,0.3333333333333333
0.00416414073298,0.3388888888888889
0.00416414073298,0.34444444444444444
0.00417768566528,0.35
0.00417768566528,0.35555555555555557
0.00423795761661,0.3611111111111111
0.00423795761661,0.36666666666666664
0.00424699143758,0.37222222222222223
0.00424699143758,0.37777777777777777
0.00428247317907,0.38333333333333336
0.00428247317907,0.3888888888888889
0.00428584035798,0.39444444444444443
0.00428584035798,0.4
0.00436924534242,0.40555555555555556
0.00436924534242,0.4111111111111111
0.00437241382182,0.4166666666666667
0.00437241382182,0.4222222222222222
0.00437981075133,0.42777777777777776
0.00437981075133,0.43333333333333335
0.00440432178079,0.4388888888888889
0.00440432178079,0.4444444444444444
0.133478538956,0.45
0.133478538956,0.45555555555555555
0.137354374082,0.46111111111111114
0.137354374082,0.4666666666666667
0.17806817264,0.4722222222222222
0.17806817264,0.4777777777777778
0.208969679918,0.48333333333333334
0.208969679918,0.4888888888888889
0.272595723634,0.49444444444444446
0.272595723634,0.5
0.325282940452,0.5055555555555555
0.325282940452,0.5111111111111111
0.333041619036,0.5166666666666667
0.333041619036,0.5222222222222223
0.340606361659,0.5277777777777778
0.340606361659,0.5333333333333333
0.394930259857,0.5388888888888889
0.394930259857,0.5444444444444444
0.421484376548,0.55
0.421484376548,0.5555555555555556
0.455047899259,0.5611111111111111
0.455047899259,0.5666666666666667
0.469381231314,0.5722222222222222
0.469381231314,0.5777777777777777
0.473346153201,0.5833333333333334
0.473346153201,0.5888888888888889
0.493632411938,0.5944444444444444
0.493632411938,0.6
0.500273901473,0.6055555555555555
0.500273901473,0.6111111111111112
0.518320947911,0.6166666666666667
0.518320947911,0.6222222222222222
0.538166845885,0.6277777777777778
0.538166845885,0.6333333333333333
0.538313532166,0.6388888888888888
0.538313532166,0.6444444444444445
0.558735385155,0.65
0.558735385155,0.6555555555555556
0.561674359141,0.6611111111111111
0.561674359141,0.6666666666666666
0.58582257858,0.6722222222222223
0.58582257858,0.6777777777777778
0.591560206809,0.6833333333333333
0.591560206809,0.6888888888888889
0.619503881362,0.6944444444444444
0.619503881362,0.7
0.631354997334,0.7055555555555556
0.631354997334,0.7111111111111111
0.647551742689,0.7166666666666667
0.647551742689,0.7222222222222222
0.653774001935,0.7277777777777777
0.653774001935,0.7333333333333333
0.661807211431,0.7388888888888889
0.661807211431,0.7444444444444445
0.795187242229,0.75
0.795187242229,0.7555555555555555
0.843002607248,0.7611111111111111
0.843002607248,0.7666666666666667
0.846707495505,0.7722222222222223
0.846707495505,0.7777777777777778
0.939938230288,0.7833333333333333
0.939938230288,0.7888888888888889
0.96002196696,0.7944444444444444
0.96002196696,0.8
0.995761924791,0.8055555555555556
0.995761924791,0.8111111111111111
1.00781669265,0.8166666666666667
1.00781669265,0.8222222222222222
1.02109633961,0.8277777777777777
1.02109633961,0.8333333333333334
1.07407793242,0.8388888888888889
1.07407793242,0.8444444444444444
1.20378744777,0.85
1.20378744777,0.8555555555555555
1.25280459929,0.8611111111111112
1.25280459929,0.8666666666666667
1.32704586211,0.8722222222222222
1.32704586211,0.8777777777777778
1.3989720118,0.8833333333333333
1.3989720118,0.8888888888888888
1.43380923006,0.8944444444444445
1.43380923006,0.9
1.46196698144,0.9055555555555556
1.46196698144,0.9111111111111111
1.56662486259,0.9166666666666666
1.56662486259,0.9222222222222223
1.58676020414,0.9277777777777778
1.58676020414,0.9333333333333333
1.77265243348,0.9388888888888889
1.77265243348,0.9444444444444444
1.8582584627,0.95
1.8582584627,0.9555555555555556
1.902851437,0.9611111111111111
1.902851437,0.9666666666666667
2.25159494283,0.9722222222222222
2.25159494283,0.9777777777777777
2.45014765992,0.9833333333333333
2.45014765992,0.9888888888888889
2.51402985811,0.9944444444444445
2.51402985811,1.0
