Congestion,CDF
0.0163551874759,0.005555555555555556
0.0163551874759,0.011111111111111112
0.0167817384091,0.016666666666666666
0.0167817384091,0.022222222222222223
0.017010766051,0.027777777777777776
0.017010766051,0.03333333333333333
0.0170743514422,0.03888888888888889
0.0170743514422,0.044444444444444446
0.0172411799226,0.05
0.0172411799226,0.05555555555555555
0.0173494949775,0.06111111111111111
0.0173494949775,0.06666666666666667
0.0174047163689,0.07222222222222222
0.0174047163689,0.07777777777777778
0.0174579163396,0.08333333333333333
0.0174579163396,0.08888888888888889
0.0174884125424,0.09444444444444444
0.0174884125424,0.1
0.017537010152,0.10555555555555556
0.017537010152,0.1111111111111111
0.0176317509916,0.11666666666666667
0.0176317509916,0.12222222222222222
0.0176820339705,0.12777777777777777
0.0176820339705,0.13333333333333333
0.0177614231345,0.1388888888888889
0.0177614231345,0.14444444444444443
0.0178545127585,0.15
0.0178545127585,0.15555555555555556
0.0179291367907,0.16111111111111112
0.0179291367907,0.16666666666666666
0.0179615297409,0.17222222222222222
0.0179615297409,0.17777777777777778
0.0179729708133,0.18333333333333332
0.0179729708133,0.18888888888888888
0.0180506381203,0.19444444444444445
0.0180506381203,0.2
0.0181130607885,0.20555555555555555
0.0181130607885,0.2111111111111111
0.0181411636683,0.21666666666666667
0.0181411636683,0.2222222222222222
0.0182079943425,0.22777777777777777
0.0182079943425,0.23333333333333334
0.0182100988256,0.2388888888888889
0.0182100988256,0.24444444444444444
0.018376651653,0.25
0.018376651653,0.25555555555555554
0.0184871526764,0.2611111111111111
0.0184871526764,0.26666666666666666
0.0189684564345,0.2722222222222222
0.0189684564345,0.2777777777777778
0.0192863886908,0.2833333333333333
0.0192863886908,0.28888888888888886
0.0194146904182,0.29444444444444445
0.0194146904182,0.3
0.0202326703484,0.3055555555555556
0.0202326703484,0.3111111111111111
0.0202919268632,0.31666666666666665
0.0202919268632,0.32222222222222224
0.02033884288,0.3277777777777778
0.02033884288,0.3333333333333333
0.0204477439414,0.3388888888888889
0.0204477439414,0.34444444444444444
0.0206495733169,0.35
0.0206495733169,0.35555555555555557
0.0208341193584,0.3611111111111111
0.0208341193584,0.36666666666666664
0.0208953690766,0.37222222222222223
0.0208953690766,0.37777777777777777
0.020994232902,0.38333333333333336
0.020994232902,0.3888888888888889
0.0210197470803,0.39444444444444443
0.0210197470803,0.4
0.0210490382897,0.40555555555555556
0.0210490382897,0.4111111111111111
0.021275662388,0.4166666666666667
0.021275662388,0.4222222222222222
0.0213486134231,0.42777777777777776
0.0213486134231,0.43333333333333335
0.0216769636783,0.4388888888888889
0.0216769636783,0.4444444444444444
0.48961517756,0.45
0.48961517756,0.45555555555555555
0.57974512145,0.46111111111111114
0.57974512145,0.4666666666666667
0.616430953788,0.4722222222222222
0.616430953788,0.4777777777777778
0.625184625674,0.48333333333333334
0.625184625674,0.4888888888888889
1.08990509306,0.49444444444444446
1.08990509306,0.5
1.26848048248,0.5055555555555555
1.26848048248,0.5111111111111111
1.49161659865,0.5166666666666667
1.49161659865,0.5222222222222223
1.52238576041,0.5277777777777778
1.52238576041,0.5333333333333333
1.79455389879,0.5388888888888889
1.79455389879,0.5444444444444444
2.14480667279,0.55
2.14480667279,0.5555555555555556
2.16786358155,0.5611111111111111
2.16786358155,0.5666666666666667
2.25176021727,0.5722222222222222
2.25176021727,0.5777777777777777
2.29831148573,0.5833333333333334
2.29831148573,0.5888888888888889
2.34075589175,0.5944444444444444
2.34075589175,0.6
2.3608507749,0.6055555555555555
2.3608507749,0.6111111111111112
2.38480893348,0.6166666666666667
2.38480893348,0.6222222222222222
2.49049376418,0.6277777777777778
2.49049376418,0.6333333333333333
2.58468289297,0.6388888888888888
2.58468289297,0.6444444444444445
2.63502334601,0.65
2.63502334601,0.6555555555555556
2.74565860569,0.6611111111111111
2.74565860569,0.6666666666666666
2.77501679597,0.6722222222222223
2.77501679597,0.6777777777777778
2.78534291123,0.6833333333333333
2.78534291123,0.6888888888888889
2.94588385333,0.6944444444444444
2.94588385333,0.7
3.04659813862,0.7055555555555556
3.04659813862,0.7111111111111111
3.12112561487,0.7166666666666667
3.12112561487,0.7222222222222222
3.16953932925,0.7277777777777777
3.16953932925,0.7333333333333333
3.511085195,0.7388888888888889
3.511085195,0.7444444444444445
4.26395621254,0.75
4.26395621254,0.7555555555555555
4.35627600502,0.7611111111111111
4.35627600502,0.7666666666666667
4.45076539237,0.7722222222222223
4.45076539237,0.7777777777777778
4.75821941304,0.7833333333333333
4.75821941304,0.7888888888888889
4.8289098463,0.7944444444444444
4.8289098463,0.8
4.88637504336,0.8055555555555556
4.88637504336,0.8111111111111111
5.27138349231,0.8166666666666667
5.27138349231,0.8222222222222222
5.40819343368,0.8277777777777777
5.40819343368,0.8333333333333334
5.49510565344,0.8388888888888889
5.49510565344,0.8444444444444444
6.10092065427,0.85
6.10092065427,0.8555555555555555
6.50299930525,0.8611111111111112
6.50299930525,0.8666666666666667
6.77303141464,0.8722222222222222
6.77303141464,0.8777777777777778
7.35332177893,0.8833333333333333
7.35332177893,0.8888888888888888
7.45360059976,0.8944444444444445
7.45360059976,0.9
7.94266908313,0.9055555555555556
7.94266908313,0.9111111111111111
8.22305555917,0.9166666666666666
8.22305555917,0.9222222222222223
8.72158016544,0.9277777777777778
8.72158016544,0.9333333333333333
9.5277657889,0.9388888888888889
9.5277657889,0.9444444444444444
9.56192824045,0.95
9.56192824045,0.9555555555555556
9.87353618931,0.9611111111111111
9.87353618931,0.9666666666666667
11.2319442687,0.9722222222222222
11.2319442687,0.9777777777777777
12.1889157289,0.9833333333333333
12.1889157289,0.9888888888888889
12.6010775163,0.9944444444444445
12.6010775163,1.0
