Congestion,CDF
0.0169367827205,0.005555555555555556
0.0169367827205,0.011111111111111112
0.0172803192197,0.016666666666666666
0.0172803192197,0.022222222222222223
0.017507110623,0.027777777777777776
0.017507110623,0.03333333333333333
0.017649770195,0.03888888888888889
0.017649770195,0.044444444444444446
0.0177337862885,0.05
0.0177337862885,0.05555555555555555
0.0179171405243,0.06111111111111111
0.0179171405243,0.06666666666666667
0.0179181164605,0.07222222222222222
0.0179181164605,0.07777777777777778
0.0180293208793,0.08333333333333333
0.0180293208793,0.08888888888888889
0.0180420548892,0.09444444444444444
0.0180420548892,0.1
0.0180933299938,0.10555555555555556
0.0180933299938,0.1111111111111111
0.0181198475556,0.11666666666666667
0.0181198475556,0.12222222222222222
0.0181593567987,0.12777777777777777
0.0181593567987,0.13333333333333333
0.0184055663862,0.1388888888888889
0.0184055663862,0.14444444444444443
0.0184514954205,0.15
0.0184514954205,0.15555555555555556
0.018516002587,0.16111111111111112
0.018516002587,0.16666666666666666
0.0185176496283,0.17222222222222222
0.0185176496283,0.17777777777777778
0.0185219448966,0.18333333333333332
0.0185219448966,0.18888888888888888
0.018532024779,0.19444444444444445
0.018532024779,0.2
0.0186667740285,0.20555555555555555
0.0186667740285,0.2111111111111111
0.0187388251346,0.21666666666666667
0.0187388251346,0.2222222222222222
0.0188027764155,0.22777777777777777
0.0188027764155,0.23333333333333334
0.0188130212099,0.2388888888888889
0.0188130212099,0.24444444444444444
0.0190381191373,0.25
0.0190381191373,0.25555555555555554
0.0191195707231,0.2611111111111111
0.0191195707231,0.26666666666666666
0.0195962886634,0.2722222222222222
0.0195962886634,0.2777777777777778
0.0198645411507,0.2833333333333333
0.0198645411507,0.28888888888888886
0.0200280260092,0.29444444444444445
0.0200280260092,0.3
0.0208578871563,0.3055555555555556
0.0208578871563,0.3111111111111111
0.0208748099586,0.31666666666666665
0.0208748099586,0.32222222222222224
0.0209155886628,0.3277777777777778
0.0209155886628,0.3333333333333333
0.0210056278814,0.3388888888888889
0.0210056278814,0.34444444444444444
0.0212076617143,0.35
0.0212076617143,0.35555555555555557
0.0213871535205,0.3611111111111111
0.0213871535205,0.36666666666666664
0.0214770057706,0.37222222222222223
0.0214770057706,0.37777777777777777
0.0216043903239,0.38333333333333336
0.0216043903239,0.3888888888888889
0.021604599156,0.39444444444444443
0.021604599156,0.4
0.0216242318503,0.40555555555555556
0.0216242318503,0.4111111111111111
0.0218362359435,0.4166666666666667
0.0218362359435,0.4222222222222222
0.0219254270227,0.42777777777777776
0.0219254270227,0.43333333333333335
0.0222834919761,0.4388888888888889
0.0222834919761,0.4444444444444444
0.507295434182,0.45
0.507295434182,0.45555555555555555
0.59940262757,0.46111111111111114
0.59940262757,0.4666666666666667
0.633846255036,0.4722222222222222
0.633846255036,0.4777777777777778
0.644432239143,0.48333333333333334
0.644432239143,0.4888888888888889
1.12071690793,0.49444444444444446
1.12071690793,0.5
1.30677102893,0.5055555555555555
1.30677102893,0.5111111111111111
1.54134281727,0.5166666666666667
1.54134281727,0.5222222222222223
1.57357294139,0.5277777777777778
1.57357294139,0.5333333333333333
1.85884884833,0.5388888888888889
1.85884884833,0.5444444444444444
2.20822653396,0.55
2.20822653396,0.5555555555555556
2.23669541537,0.5611111111111111
2.23669541537,0.5666666666666667
2.31919996902,0.5722222222222222
2.31919996902,0.5777777777777777
2.36389113339,0.5833333333333334
2.36389113339,0.5888888888888889
2.41063237934,0.5944444444444444
2.41063237934,0.6
2.44112940526,0.6055555555555555
2.44112940526,0.6111111111111112
2.4511675904,0.6166666666666667
2.4511675904,0.6222222222222222
2.5756013625,0.6277777777777778
2.5756013625,0.6333333333333333
2.65979429718,0.6388888888888888
2.65979429718,0.6444444444444445
2.72450007906,0.65
2.72450007906,0.6555555555555556
2.82128357933,0.6611111111111111
2.82128357933,0.6666666666666666
2.86648914001,0.6722222222222223
2.86648914001,0.6777777777777778
2.869126145,0.6833333333333333
2.869126145,0.6888888888888889
3.02845275919,0.6944444444444444
3.02845275919,0.7
3.15182258772,0.7055555555555556
3.15182258772,0.7111111111111111
3.21482699505,0.7166666666666667
3.21482699505,0.7222222222222222
3.25454551087,0.7277777777777777
3.25454551087,0.7333333333333333
3.60792939093,0.7388888888888889
3.60792939093,0.7444444444444445
4.37696042188,0.75
4.37696042188,0.7555555555555555
4.47371272642,0.7611111111111111
4.47371272642,0.7666666666666667
4.56483770539,0.7722222222222223
4.56483770539,0.7777777777777778
4.89138404628,0.7833333333333333
4.89138404628,0.7888888888888889
4.94854620297,0.7944444444444444
4.94854620297,0.8
5.02181603875,0.8055555555555556
5.02181603875,0.8111111111111111
5.40351366724,0.8166666666666667
5.40351366724,0.8222222222222222
5.54970462434,0.8277777777777777
5.54970462434,0.8333333333333334
5.64513005134,0.8388888888888889
5.64513005134,0.8444444444444444
6.25503081043,0.85
6.25503081043,0.8555555555555555
6.68829952133,0.8611111111111112
6.68829952133,0.8666666666666667
6.9358938808,0.8722222222222222
6.9358938808,0.8777777777777778
7.53461186777,0.8833333333333333
7.53461186777,0.8888888888888888
7.63995468573,0.8944444444444445
7.63995468573,0.9
8.13893621853,0.9055555555555556
8.13893621853,0.9111111111111111
8.43646378257,0.9166666666666666
8.43646378257,0.9222222222222223
8.93295747604,0.9277777777777778
8.93295747604,0.9333333333333333
9.76480829112,0.9388888888888889
9.76480829112,0.9444444444444444
9.81180610795,0.95
9.81180610795,0.9555555555555556
10.1314042307,0.9611111111111111
10.1314042307,0.9666666666666667
11.492382069,0.9722222222222222
11.492382069,0.9777777777777777
12.4708606866,0.9833333333333333
12.4708606866,0.9888888888888889
12.8992011095,0.9944444444444445
12.8992011095,1.0
