Congestion,CDF
0.0152045731407,0.007352941176470588
0.0152045731407,0.014705882352941176
0.0152335536711,0.022058823529411766
0.0152335536711,0.029411764705882353
0.0152641471571,0.03676470588235294
0.0152641471571,0.04411764705882353
0.0153149651634,0.051470588235294115
0.0153149651634,0.058823529411764705
0.0159426282156,0.0661764705882353
0.0159426282156,0.07352941176470588
0.0167998302467,0.08088235294117647
0.0167998302467,0.08823529411764706
0.017002682908,0.09558823529411764
0.017002682908,0.10294117647058823
0.0170418289249,0.11029411764705882
0.0170418289249,0.11764705882352941
0.0170683085128,0.125
0.0170683085128,0.1323529411764706
0.0175913030247,0.13970588235294118
0.0175913030247,0.14705882352941177
0.0176596124289,0.15441176470588236
0.0176596124289,0.16176470588235295
0.0177148772578,0.16911764705882354
0.0177148772578,0.17647058823529413
0.017779732469,0.18382352941176472
0.017779732469,0.19117647058823528
0.0188352320865,0.19852941176470587
0.0188352320865,0.20588235294117646
0.0201503731183,0.21323529411764705
0.0201503731183,0.22058823529411764
0.0204508381626,0.22794117647058823
0.0204508381626,0.23529411764705882
0.0205239440836,0.2426470588235294
0.0205239440836,0.25
0.0206219415418,0.25735294117647056
0.0206219415418,0.2647058823529412
0.0209547570938,0.27205882352941174
0.0209547570938,0.27941176470588236
0.022147830291,0.2867647058823529
0.022147830291,0.29411764705882354
0.0222788349587,0.3014705882352941
0.0222788349587,0.3088235294117647
0.0224685837587,0.3161764705882353
0.0224685837587,0.3235294117647059
0.023747212527,0.33088235294117646
0.023747212527,0.3382352941176471
0.0241164970821,0.34558823529411764
0.0241164970821,0.35294117647058826
0.0242300910152,0.3602941176470588
0.0242300910152,0.36764705882352944
0.0270442806685,0.375
0.0270442806685,0.38235294117647056
0.0274525658433,0.3897058823529412
0.0274525658433,0.39705882352941174
0.0283860718746,0.40441176470588236
0.0283860718746,0.4117647058823529
0.0309356779018,0.41911764705882354
0.0309356779018,0.4264705882352941
0.141474098801,0.4338235294117647
0.141474098801,0.4411764705882353
0.376397507554,0.4485294117647059
0.376397507554,0.45588235294117646
0.524156945938,0.4632352941176471
0.524156945938,0.47058823529411764
0.628571954814,0.47794117647058826
0.628571954814,0.4852941176470588
0.712846749969,0.49264705882352944
0.712846749969,0.5
0.76991503135,0.5073529411764706
0.76991503135,0.5147058823529411
1.00239902065,0.5220588235294118
1.00239902065,0.5294117647058824
1.06878282732,0.5367647058823529
1.06878282732,0.5441176470588235
1.09031205289,0.5514705882352942
1.09031205289,0.5588235294117647
1.17020000343,0.5661764705882353
1.17020000343,0.5735294117647058
1.39429400888,0.5808823529411765
1.39429400888,0.5882352941176471
1.39574522259,0.5955882352941176
1.39574522259,0.6029411764705882
1.54199978392,0.6102941176470589
1.54199978392,0.6176470588235294
1.61868782338,0.625
1.61868782338,0.6323529411764706
1.66031010516,0.6397058823529411
1.66031010516,0.6470588235294118
1.67324721459,0.6544117647058824
1.67324721459,0.6617647058823529
1.82361303493,0.6691176470588235
1.82361303493,0.6764705882352942
2.20120971534,0.6838235294117647
2.20120971534,0.6911764705882353
2.22280355105,0.6985294117647058
2.22280355105,0.7058823529411765
2.32346242011,0.7132352941176471
2.32346242011,0.7205882352941176
2.32858357268,0.7279411764705882
2.32858357268,0.7352941176470589
2.32862508314,0.7426470588235294
2.32862508314,0.75
2.4104976268,0.7573529411764706
2.4104976268,0.7647058823529411
2.67578827925,0.7720588235294118
2.67578827925,0.7794117647058824
2.71026193197,0.7867647058823529
2.71026193197,0.7941176470588235
2.71963006897,0.8014705882352942
2.71963006897,0.8088235294117647
2.83860718746,0.8161764705882353
2.83860718746,0.8235294117647058
3.08115100161,0.8308823529411765
3.08115100161,0.8382352941176471
3.38619121019,0.8455882352941176
3.38619121019,0.8529411764705882
3.47857115692,0.8602941176470589
3.47857115692,0.8676470588235294
3.56984567871,0.875
3.56984567871,0.8823529411764706
4.00269962145,0.8897058823529411
4.00269962145,0.8970588235294118
4.41633556884,0.9044117647058824
4.41633556884,0.9117647058823529
5.46558660661,0.9191176470588235
5.46558660661,0.9264705882352942
6.29412856817,0.9338235294117647
6.29412856817,0.9411764705882353
6.77689997351,0.9485294117647058
6.77689997351,0.9558823529411765
7.9262225971,0.9632352941176471
7.9262225971,0.9705882352941176
10.3156972652,0.9779411764705882
10.3156972652,0.9852941176470589
11.8873994259,0.9926470588235294
11.8873994259,1.0
