Congestion,CDF
0.0179880195212,0.007352941176470588
0.0179880195212,0.014705882352941176
0.0180663539593,0.022058823529411766
0.0180663539593,0.029411764705882353
0.0180946063423,0.03676470588235294
0.0180946063423,0.04411764705882353
0.0182782891977,0.051470588235294115
0.0182782891977,0.058823529411764705
0.018911277042,0.0661764705882353
0.018911277042,0.07352941176470588
0.0198367163407,0.08088235294117647
0.0198367163407,0.08823529411764706
0.0198396040242,0.09558823529411764
0.0198396040242,0.10294117647058823
0.0200805504547,0.11029411764705882
0.0200805504547,0.11764705882352941
0.0203130312819,0.125
0.0203130312819,0.1323529411764706
0.0206586310557,0.13970588235294118
0.0206586310557,0.14705882352941177
0.0206589153831,0.15441176470588236
0.0206589153831,0.16176470588235295
0.0206619306852,0.16911764705882354
0.0206619306852,0.17647058823529413
0.0208293003609,0.18382352941176472
0.0208293003609,0.19117647058823528
0.0220012781046,0.19852941176470587
0.0220012781046,0.20588235294117646
0.0234505385172,0.21323529411764705
0.0234505385172,0.22058823529411764
0.0237335647904,0.22794117647058823
0.0237335647904,0.23529411764705882
0.0237479392789,0.2426470588235294
0.0237479392789,0.25
0.0238268660522,0.25735294117647056
0.0238268660522,0.2647058823529412
0.0242943984533,0.27205882352941174
0.0242943984533,0.27941176470588236
0.025470739991,0.2867647058823529
0.025470739991,0.29411764705882354
0.0255030303275,0.3014705882352941
0.0255030303275,0.3088235294117647
0.0259922578892,0.3161764705882353
0.0259922578892,0.3235294117647059
0.027172388569,0.33088235294117646
0.027172388569,0.3382352941176471
0.0275148151214,0.34558823529411764
0.0275148151214,0.35294117647058826
0.0276486309406,0.3602941176470588
0.0276486309406,0.36764705882352944
0.0306172915993,0.375
0.0306172915993,0.38235294117647056
0.0309356779018,0.3897058823529412
0.0309356779018,0.39705882352941174
0.031050006106,0.40441176470588236
0.031050006106,0.4117647058823529
0.032229972355,0.41911764705882354
0.032229972355,0.4264705882352941
0.161583952662,0.4338235294117647
0.161583952662,0.4411764705882353
0.465151429355,0.4485294117647059
0.465151429355,0.45588235294117646
0.65221800532,0.4632352941176471
0.65221800532,0.47058823529411764
0.727060158209,0.47794117647058826
0.727060158209,0.4852941176470588
0.831266086458,0.49264705882352944
0.831266086458,0.5
0.900186591096,0.5073529411764706
0.900186591096,0.5147058823529411
1.15548636794,0.5220588235294118
1.15548636794,0.5294117647058824
1.2522566185,0.5367647058823529
1.2522566185,0.5441176470588235
1.31763119892,0.5514705882352942
1.31763119892,0.5588235294117647
1.3294802424,0.5661764705882353
1.3294802424,0.5735294117647058
1.58916025922,0.5808823529411765
1.58916025922,0.5882352941176471
1.63267722865,0.5955882352941176
1.63267722865,0.6029411764705882
1.84988180958,0.6102941176470589
1.84988180958,0.6176470588235294
1.89992731257,0.625
1.89992731257,0.6323529411764706
1.95506647775,0.6397058823529411
1.95506647775,0.6470588235294118
2.00036745029,0.6544117647058824
2.00036745029,0.6617647058823529
2.1887143528,0.6691176470588235
2.1887143528,0.6764705882352942
2.57751668779,0.6838235294117647
2.57751668779,0.6911764705882353
2.66296190943,0.6985294117647058
2.66296190943,0.7058823529411765
2.66441584139,0.7132352941176471
2.66441584139,0.7205882352941176
2.72383824188,0.7279411764705882
2.72383824188,0.7352941176470589
2.79680342875,0.7426470588235294
2.79680342875,0.75
2.90998781176,0.7573529411764706
2.90998781176,0.7647058823529411
3.08361649754,0.7720588235294118
3.08361649754,0.7794117647058824
3.15491198087,0.7867647058823529
3.15491198087,0.7941176470588235
3.2229972355,0.8014705882352942
3.2229972355,0.8088235294117647
3.31994517777,0.8161764705882353
3.31994517777,0.8235294117647058
3.53419444659,0.8308823529411765
3.53419444659,0.8382352941176471
3.96606542332,0.8455882352941176
3.96606542332,0.8529411764705882
3.98480768967,0.8602941176470589
3.98480768967,0.8676470588235294
4.10588513999,0.875
4.10588513999,0.8823529411764706
4.56479726094,0.8897058823529411
4.56479726094,0.8970588235294118
5.14768253759,0.9044117647058824
5.14768253759,0.9117647058823529
6.31712767846,0.9191176470588235
6.31712767846,0.9264705882352942
7.16085337113,0.9338235294117647
7.16085337113,0.9411764705882353
7.84173652043,0.9485294117647058
7.84173652043,0.9558823529411765
8.97233479156,0.9632352941176471
8.97233479156,0.9705882352941176
11.6690567419,0.9779411764705882
11.6690567419,0.9852941176470589
13.4481242378,0.9926470588235294
13.4481242378,1.0
