Congestion,CDF
0.0,0.007352941176470588
0.0,0.014705882352941176
0.0,0.022058823529411766
0.0,0.029411764705882353
0.0,0.03676470588235294
0.0,0.04411764705882353
0.0,0.051470588235294115
0.0,0.058823529411764705
0.0,0.0661764705882353
0.0,0.07352941176470588
0.00138845934505,0.08088235294117647
0.00138845934505,0.08823529411764706
0.00146021998366,0.09558823529411764
0.00146021998366,0.10294117647058823
0.00146346761451,0.11029411764705882
0.00146346761451,0.11764705882352941
0.00157948233792,0.125
0.00157948233792,0.1323529411764706
0.00174655486844,0.13970588235294118
0.00174655486844,0.14705882352941177
0.00176739375361,0.15441176470588236
0.00176739375361,0.16176470588235295
0.00179344057397,0.16911764705882354
0.00179344057397,0.17647058823529413
0.00196630871981,0.18382352941176472
0.00196630871981,0.19117647058823528
0.00208535900366,0.19852941176470587
0.00208535900366,0.20588235294117646
0.00225682704338,0.21323529411764705
0.00225682704338,0.22058823529411764
0.00225682704338,0.22794117647058823
0.00225682704338,0.23529411764705882
0.00237764154709,0.2426470588235294
0.00237764154709,0.25
0.00251613329305,0.25735294117647056
0.00251613329305,0.2647058823529412
0.00284912505498,0.27205882352941174
0.00284912505498,0.27941176470588236
0.00303187957942,0.2867647058823529
0.00303187957942,0.29411764705882354
0.00336043968026,0.3014705882352941
0.00336043968026,0.3088235294117647
0.00477669915335,0.3161764705882353
0.00477669915335,0.3235294117647059
0.00480258077346,0.33088235294117646
0.00480258077346,0.3382352941176471
0.00482482714064,0.34558823529411764
0.00482482714064,0.35294117647058826
0.00505072626055,0.3602941176470588
0.00505072626055,0.36764705882352944
0.00544122594911,0.375
0.00544122594911,0.38235294117647056
0.00583863657445,0.3897058823529412
0.00583863657445,0.39705882352941174
0.00611132175876,0.40441176470588236
0.00611132175876,0.4117647058823529
0.00663290924633,0.41911764705882354
0.00663290924633,0.4264705882352941
0.00696765228061,0.4338235294117647
0.00696765228061,0.4411764705882353
0.00733838917012,0.4485294117647059
0.00733838917012,0.45588235294117646
0.00798601213865,0.4632352941176471
0.00798601213865,0.47058823529411764
0.0115480670331,0.47794117647058826
0.0115480670331,0.4852941176470588
0.0129361025722,0.49264705882352944
0.0129361025722,0.5
0.0131324483073,0.5073529411764706
0.0131324483073,0.5147058823529411
0.0579190848558,0.5220588235294118
0.0579190848558,0.5294117647058824
0.0789741168962,0.5367647058823529
0.0789741168962,0.5441176470588235
0.0789741168962,0.5514705882352942
0.0789741168962,0.5588235294117647
0.116736401988,0.5661764705882353
0.116736401988,0.5735294117647058
0.144598784914,0.5808823529411765
0.144598784914,0.5882352941176471
0.144598784914,0.5955882352941176
0.144598784914,0.6029411764705882
0.146184379908,0.6102941176470589
0.146184379908,0.6176470588235294
0.146184379908,0.625
0.146184379908,0.6323529411764706
0.146346761451,0.6397058823529411
0.146346761451,0.6470588235294118
0.179344057397,0.6544117647058824
0.179344057397,0.6617647058823529
0.330587446201,0.6691176470588235
0.330587446201,0.6764705882352942
0.336043968026,0.6838235294117647
0.336043968026,0.6911764705882353
0.336944592565,0.6985294117647058
0.336944592565,0.7058823529411765
0.401766716402,0.7132352941176471
0.401766716402,0.7205882352941176
0.480258077346,0.7279411764705882
0.480258077346,0.7352941176470589
0.482482714064,0.7426470588235294
0.482482714064,0.75
0.581241929563,0.7573529411764706
0.581241929563,0.7647058823529411
0.611132175876,0.7720588235294118
0.611132175876,0.7794117647058824
0.696765228061,0.7867647058823529
0.696765228061,0.7941176470588235
0.720205353373,0.8014705882352942
0.720205353373,0.8088235294117647
0.720205353373,0.8161764705882353
0.720205353373,0.8235294117647058
0.732591194689,0.8308823529411765
0.732591194689,0.8382352941176471
0.970421778692,0.8455882352941176
0.970421778692,0.8529411764705882
1.02504812551,0.8602941176470589
1.02504812551,0.8676470588235294
1.28319706428,0.875
1.28319706428,0.8823529411764706
1.29361025722,0.8897058823529411
1.29361025722,0.8970588235294118
1.31324483073,0.9044117647058824
1.31324483073,0.9117647058823529
1.35779932565,0.9191176470588235
1.35779932565,0.9264705882352942
1.40973338974,0.9338235294117647
1.40973338974,0.9411764705882353
2.86377766013,0.9485294117647058
2.86377766013,0.9558823529411765
3.76166179126,0.9632352941176471
3.76166179126,0.9705882352941176
4.87115210244,0.9779411764705882
4.87115210244,0.9852941176470589
5.44354632255,0.9926470588235294
5.44354632255,1.0
