Congestion,CDF
0.0,0.007352941176470588
0.0,0.014705882352941176
0.0,0.022058823529411766
0.0,0.029411764705882353
0.00392665303282,0.03676470588235294
0.00392665303282,0.04411764705882353
0.00440379593783,0.051470588235294115
0.00440379593783,0.058823529411764705
0.00461432451542,0.0661764705882353
0.00461432451542,0.07352941176470588
0.00465374976501,0.08088235294117647
0.00465374976501,0.08823529411764706
0.00475935663187,0.09558823529411764
0.00475935663187,0.10294117647058823
0.00500811409731,0.11029411764705882
0.00500811409731,0.11764705882352941
0.005676229927,0.125
0.005676229927,0.1323529411764706
0.00574682999574,0.13970588235294118
0.00574682999574,0.14705882352941177
0.00609901900881,0.15441176470588236
0.00609901900881,0.16176470588235295
0.00610515023262,0.16911764705882354
0.00610515023262,0.17647058823529413
0.00681080498671,0.18382352941176472
0.00681080498671,0.19117647058823528
0.00698603462532,0.19852941176470587
0.00698603462532,0.20588235294117646
0.00716332805842,0.21323529411764705
0.00716332805842,0.22058823529411764
0.00719867368193,0.22794117647058823
0.00719867368193,0.23529411764705882
0.00723639045695,0.2426470588235294
0.00723639045695,0.25
0.00740748189317,0.25735294117647056
0.00740748189317,0.2647058823529412
0.00745207715478,0.27205882352941174
0.00745207715478,0.27941176470588236
0.00750996791812,0.2867647058823529
0.00750996791812,0.29411764705882354
0.00907319815587,0.3014705882352941
0.00907319815587,0.3088235294117647
0.0102210905316,0.3161764705882353
0.0102210905316,0.3235294117647059
0.0103551800132,0.33088235294117646
0.0103551800132,0.3382352941176471
0.0112227592732,0.34558823529411764
0.0112227592732,0.35294117647058826
0.0121042448787,0.3602941176470588
0.0121042448787,0.36764705882352944
0.0133833402951,0.375
0.0133833402951,0.38235294117647056
0.0144960941742,0.3897058823529412
0.0144960941742,0.39705882352941174
0.0183371483543,0.40441176470588236
0.0183371483543,0.4117647058823529
0.0191344466583,0.41911764705882354
0.0191344466583,0.4264705882352941
0.0191754871692,0.4338235294117647
0.0191754871692,0.4411764705882353
0.0198073389787,0.4485294117647059
0.0198073389787,0.45588235294117646
0.0232365905642,0.4632352941176471
0.0232365905642,0.47058823529411764
0.124650746931,0.47794117647058826
0.124650746931,0.4852941176470588
0.151365994516,0.49264705882352944
0.151365994516,0.5
0.230716225771,0.5073529411764706
0.230716225771,0.5147058823529411
0.230716225771,0.5220588235294118
0.230716225771,0.5294117647058824
0.247962975557,0.5367647058823529
0.247962975557,0.5441176470588235
0.315085169256,0.5514705882352942
0.315085169256,0.5588235294117647
0.380077978157,0.5661764705882353
0.380077978157,0.5735294117647058
0.388434191521,0.5808823529411765
0.388434191521,0.5882352941176471
0.406266108382,0.5955882352941176
0.406266108382,0.6029411764705882
0.495070109845,0.6102941176470589
0.495070109845,0.6176470588235294
0.542547916639,0.625
0.542547916639,0.6323529411764706
0.542547916639,0.6397058823529411
0.542547916639,0.6470588235294118
0.583167829732,0.6544117647058824
0.583167829732,0.6617647058823529
0.610515023262,0.6691176470588235
0.610515023262,0.6764705882352942
0.697198359184,0.6838235294117647
0.697198359184,0.6911764705882353
0.763984779881,0.6985294117647058
0.763984779881,0.7058823529411765
0.79833921847,0.7132352941176471
0.79833921847,0.7205882352941176
0.884083225023,0.7279411764705882
0.884083225023,0.7352941176470589
0.902239255031,0.7426470588235294
0.902239255031,0.75
1.0300432448,0.7573529411764706
1.0300432448,0.7647058823529411
1.0300432448,0.7720588235294118
1.0300432448,0.7794117647058824
1.25029838918,0.7867647058823529
1.25029838918,0.7941176470588235
1.44960941742,0.8014705882352942
1.44960941742,0.8088235294117647
1.86055191245,0.8161764705882353
1.86055191245,0.8235294117647058
1.89685865553,0.8308823529411765
1.89685865553,0.8382352941176471
1.91754871692,0.8455882352941176
1.91754871692,0.8529411764705882
1.95846216525,0.8602941176470589
1.95846216525,0.8676470588235294
1.98073389787,0.875
1.98073389787,0.8823529411764706
2.00635915235,0.8897058823529411
2.00635915235,0.8970588235294118
2.53998047138,0.9044117647058824
2.53998047138,0.9117647058823529
2.64683219776,0.9191176470588235
2.64683219776,0.9264705882352942
3.08325936676,0.9338235294117647
3.08325936676,0.9411764705882353
4.05482472103,0.9485294117647058
4.05482472103,0.9558823529411765
5.73199745022,0.9632352941176471
5.73199745022,0.9705882352941176
7.21967629684,0.9779411764705882
7.21967629684,0.9852941176470589
8.47878480163,0.9926470588235294
8.47878480163,1.0
