Congestion,CDF
0.0,0.007352941176470588
0.0,0.014705882352941176
0.0121250792232,0.022058823529411766
0.0121250792232,0.029411764705882353
0.0126653045764,0.03676470588235294
0.0126653045764,0.04411764705882353
0.0129291699085,0.051470588235294115
0.0129291699085,0.058823529411764705
0.0135279358499,0.0661764705882353
0.0135279358499,0.07352941176470588
0.0145575229949,0.08088235294117647
0.0145575229949,0.08823529411764706
0.0146052985593,0.09558823529411764
0.0146052985593,0.10294117647058823
0.0148121493782,0.11029411764705882
0.0148121493782,0.11764705882352941
0.0151194971577,0.125
0.0151194971577,0.1323529411764706
0.0152468754708,0.13970588235294118
0.0152468754708,0.14705882352941177
0.0152477423807,0.15441176470588236
0.0152477423807,0.16176470588235295
0.0164259944035,0.16911764705882354
0.0164259944035,0.17647058823529413
0.0166686098125,0.18382352941176472
0.0166686098125,0.19117647058823528
0.0169434668592,0.19852941176470587
0.0169434668592,0.20588235294117646
0.0178690325152,0.21323529411764705
0.0178690325152,0.22058823529411764
0.0186293490364,0.22794117647058823
0.0186293490364,0.23529411764705882
0.0195971833996,0.2426470588235294
0.0195971833996,0.25
0.0198136629163,0.25735294117647056
0.0198136629163,0.2647058823529412
0.0202458159322,0.27205882352941174
0.0202458159322,0.27941176470588236
0.0202623655378,0.2867647058823529
0.0202623655378,0.29411764705882354
0.0206370213545,0.3014705882352941
0.0206370213545,0.3088235294117647
0.0207862185614,0.3161764705882353
0.0207862185614,0.3235294117647059
0.0230708318522,0.33088235294117646
0.0230708318522,0.3382352941176471
0.0237853440791,0.34558823529411764
0.0237853440791,0.35294117647058826
0.0240715947521,0.3602941176470588
0.0240715947521,0.36764705882352944
0.0242337286181,0.375
0.0242337286181,0.38235294117647056
0.0245038486231,0.3897058823529412
0.0245038486231,0.39705882352941174
0.0281010377941,0.40441176470588236
0.0281010377941,0.4117647058823529
0.0281291224989,0.41911764705882354
0.0281291224989,0.4264705882352941
0.0300479574523,0.4338235294117647
0.0300479574523,0.4411764705882353
0.259670162702,0.4485294117647059
0.259670162702,0.45588235294117646
0.335820647226,0.4632352941176471
0.335820647226,0.47058823529411764
0.514714076217,0.47794117647058826
0.514714076217,0.4852941176470588
0.587134848491,0.49264705882352944
0.587134848491,0.5
0.658110940221,0.5073529411764706
0.658110940221,0.5147058823529411
0.895180464208,0.5220588235294118
0.895180464208,0.5294117647058824
0.956417832371,0.5367647058823529
0.956417832371,0.5441176470588235
0.992377749915,0.5514705882352942
0.992377749915,0.5588235294117647
1.15360460029,0.5661764705882353
1.15360460029,0.5735294117647058
1.39930199876,0.5808823529411765
1.39930199876,0.5882352941176471
1.41165872686,0.5955882352941176
1.41165872686,0.6029411764705882
1.45108260429,0.6102941176470589
1.45108260429,0.6176470588235294
1.4781791333,0.625
1.4781791333,0.6323529411764706
1.53113682884,0.6397058823529411
1.53113682884,0.6470588235294118
1.69434668592,0.6544117647058824
1.69434668592,0.6617647058823529
1.72526223032,0.6691176470588235
1.72526223032,0.6764705882352942
2.00268162848,0.6838235294117647
2.00268162848,0.6911764705882353
2.06815978259,0.6985294117647058
2.06815978259,0.7058823529411765
2.14193390747,0.7132352941176471
2.14193390747,0.7205882352941176
2.16544021375,0.7279411764705882
2.16544021375,0.7352941176470589
2.40253908002,0.7426470588235294
2.40253908002,0.75
2.45481806489,0.7573529411764706
2.45481806489,0.7647058823529411
2.53633032542,0.7720588235294118
2.53633032542,0.7794117647058824
2.64784334149,0.7867647058823529
2.64784334149,0.7941176470588235
2.83374603168,0.8014705882352942
2.83374603168,0.8088235294117647
3.00479574523,0.8161764705882353
3.00479574523,0.8235294117647058
3.29293886283,0.8308823529411765
3.29293886283,0.8382352941176471
3.36650477546,0.8455882352941176
3.36650477546,0.8529411764705882
3.49239370991,0.8602941176470589
3.49239370991,0.8676470588235294
3.75816578951,0.875
3.75816578951,0.8823529411764706
4.26578909384,0.8897058823529411
4.26578909384,0.8970588235294118
4.61391074248,0.9044117647058824
4.61391074248,0.9117647058823529
5.74964752819,0.9191176470588235
5.74964752819,0.9264705882352942
6.71312941898,0.9338235294117647
6.71312941898,0.9411764705882353
7.18949762888,0.9485294117647058
7.18949762888,0.9558823529411765
8.55883480325,0.9632352941176471
8.55883480325,0.9705882352941176
11.1276181563,0.9779411764705882
11.1276181563,0.9852941176470589
12.9369695683,0.9926470588235294
12.9369695683,1.0
