Congestion,CDF
0.0,0.007352941176470588
0.0,0.014705882352941176
0.0,0.022058823529411766
0.0,0.029411764705882353
0.00277789840989,0.03676470588235294
0.00277789840989,0.04411764705882353
0.00311125770472,0.051470588235294115
0.00311125770472,0.058823529411764705
0.00313536852058,0.0661764705882353
0.00313536852058,0.07352941176470588
0.00325619401441,0.08088235294117647
0.00325619401441,0.08823529411764706
0.00329106206947,0.09558823529411764
0.00329106206947,0.10294117647058823
0.00338177068857,0.11029411764705882
0.00338177068857,0.11764705882352941
0.00360928048285,0.125
0.00360928048285,0.1323529411764706
0.00384352684059,0.13970588235294118
0.00384352684059,0.14705882352941177
0.00397400741769,0.15441176470588236
0.00397400741769,0.16176470588235295
0.00402900575851,0.16911764705882354
0.00402900575851,0.17647058823529413
0.00413519868735,0.18382352941176472
0.00413519868735,0.19117647058823528
0.00422344381353,0.19852941176470587
0.00422344381353,0.20588235294117646
0.00484684962397,0.21323529411764705
0.00484684962397,0.22058823529411764
0.00487456622269,0.22794117647058823
0.00487456622269,0.23529411764705882
0.00533869923966,0.2426470588235294
0.00533869923966,0.25
0.00595848320979,0.25735294117647056
0.00595848320979,0.2647058823529412
0.00601640152457,0.27205882352941174
0.00601640152457,0.27941176470588236
0.00611532061585,0.2867647058823529
0.00611532061585,0.29411764705882354
0.00638201638539,0.3014705882352941
0.00638201638539,0.3088235294117647
0.00763697776371,0.3161764705882353
0.00763697776371,0.3235294117647059
0.00848655134625,0.33088235294117646
0.00848655134625,0.3382352941176471
0.00901763577968,0.34558823529411764
0.00901763577968,0.35294117647058826
0.00904943740077,0.3602941176470588
0.00904943740077,0.36764705882352944
0.00977494771566,0.375
0.00977494771566,0.38235294117647056
0.0101954009424,0.3897058823529412
0.0101954009424,0.39705882352941174
0.0109497100559,0.40441176470588236
0.0109497100559,0.4117647058823529
0.011409324973,0.41911764705882354
0.011409324973,0.4264705882352941
0.01575208575,0.4338235294117647
0.01575208575,0.4411764705882353
0.0168353913831,0.4485294117647059
0.0168353913831,0.45588235294117646
0.0172168862439,0.4632352941176471
0.0172168862439,0.47058823529411764
0.0361806734739,0.47794117647058826
0.0361806734739,0.4852941176470588
0.111031648058,0.49264705882352944
0.111031648058,0.5
0.133844201151,0.5073529411764706
0.133844201151,0.5147058823529411
0.162809700721,0.5220588235294118
0.162809700721,0.5294117647058824
0.162809700721,0.5367647058823529
0.162809700721,0.5441176470588235
0.163374634642,0.5514705882352942
0.163374634642,0.5588235294117647
0.230685019897,0.5661764705882353
0.230685019897,0.5735294117647058
0.260789674274,0.5808823529411765
0.260789674274,0.5882352941176471
0.263049363292,0.5955882352941176
0.263049363292,0.6029411764705882
0.316918622747,0.6102941176470589
0.316918622747,0.6176470588235294
0.332112533347,0.625
0.332112533347,0.6323529411764706
0.332112533347,0.6397058823529411
0.332112533347,0.6470588235294118
0.413519868735,0.6544117647058824
0.413519868735,0.6617647058823529
0.457926188778,0.6691176470588235
0.457926188778,0.6764705882352942
0.58256364739,0.6838235294117647
0.58256364739,0.6911764705882353
0.585154082074,0.6985294117647058
0.585154082074,0.7058823529411765
0.59246655029,0.7132352941176471
0.59246655029,0.7205882352941176
0.622481771641,0.7279411764705882
0.622481771641,0.7352941176470589
0.752748066315,0.7426470588235294
0.752748066315,0.75
0.840587394232,0.7573529411764706
0.840587394232,0.7647058823529411
0.890203900457,0.7720588235294118
0.890203900457,0.7794117647058824
0.890203900457,0.7867647058823529
0.890203900457,0.7941176470588235
1.1409324973,0.8014705882352942
1.1409324973,0.8088235294117647
1.30584284457,0.8161764705882353
1.30584284457,0.8235294117647058
1.40525895717,0.8308823529411765
1.40525895717,0.8382352941176471
1.62682672605,0.8455882352941176
1.62682672605,0.8529411764705882
1.68353913831,0.8602941176470589
1.68353913831,0.8676470588235294
1.72168862439,0.875
1.72168862439,0.8823529411764706
1.73024283788,0.8897058823529411
1.73024283788,0.8970588235294118
1.91087355511,0.9044117647058824
1.91087355511,0.9117647058823529
2.02662839039,0.9191176470588235
2.02662839039,0.9264705882352942
2.05803317388,0.9338235294117647
2.05803317388,0.9411764705882353
3.52539047842,0.9485294117647058
3.52539047842,0.9558823529411765
4.9804363377,0.9632352941176471
4.9804363377,0.9705882352941176
6.22024824917,0.9779411764705882
6.22024824917,0.9852941176470589
7.22161644952,0.9926470588235294
7.22161644952,1.0
