Congestion,CDF
0.0,0.007352941176470588
0.0,0.014705882352941176
0.0,0.022058823529411766
0.0,0.029411764705882353
0.0,0.03676470588235294
0.0,0.04411764705882353
0.0,0.051470588235294115
0.0,0.058823529411764705
0.0,0.0661764705882353
0.0,0.07352941176470588
0.0,0.08088235294117647
0.0,0.08823529411764706
0.0,0.09558823529411764
0.0,0.10294117647058823
6.43885674389e-06,0.11029411764705882
6.43885674389e-06,0.11764705882352941
6.43885674389e-06,0.125
6.43885674389e-06,0.1323529411764706
6.43885674389e-06,0.13970588235294118
6.43885674389e-06,0.14705882352941177
6.43885674389e-06,0.15441176470588236
6.43885674389e-06,0.16176470588235295
6.43885674389e-06,0.16911764705882354
6.43885674389e-06,0.17647058823529413
6.43885674389e-06,0.18382352941176472
6.43885674389e-06,0.19117647058823528
6.43885674389e-06,0.19852941176470587
6.43885674389e-06,0.20588235294117646
6.43885674389e-06,0.21323529411764705
6.43885674389e-06,0.22058823529411764
6.43885674389e-06,0.22794117647058823
6.43885674389e-06,0.23529411764705882
6.43885674389e-06,0.2426470588235294
6.43885674389e-06,0.25
6.43885674389e-06,0.25735294117647056
6.43885674389e-06,0.2647058823529412
6.43885674389e-06,0.27205882352941174
6.43885674389e-06,0.27941176470588236
6.43885674389e-06,0.2867647058823529
6.43885674389e-06,0.29411764705882354
6.43885674389e-06,0.3014705882352941
0.000160971418597,0.3088235294117647
0.000160971418597,0.3161764705882353
0.000173849132085,0.3235294117647059
0.000321942837195,0.33088235294117646
0.000321942837195,0.3382352941176471
0.000321942837195,0.34558823529411764
0.000321942837195,0.35294117647058826
0.000482914255792,0.3602941176470588
0.000536571395324,0.36764705882352944
0.000536571395324,0.375
0.000536571395324,0.38235294117647056
0.000643885674389,0.3897058823529412
0.000643885674389,0.39705882352941174
0.000643885674389,0.40441176470588236
0.000643885674389,0.4117647058823529
0.000643885674389,0.41911764705882354
0.000643885674389,0.4264705882352941
0.000643885674389,0.4338235294117647
0.000804857092986,0.4411764705882353
0.000965828511584,0.4485294117647059
0.000965828511584,0.45588235294117646
0.00118045706971,0.4632352941176471
0.00128777134878,0.47058823529411764
0.00128777134878,0.47794117647058826
0.00193165702317,0.4852941176470588
0.00262919983709,0.49264705882352944
0.00353924229266,0.5
0.00376836491827,0.5073529411764706
0.00466817113932,0.5147058823529411
0.00467307552955,0.5220588235294118
0.00467307552955,0.5294117647058824
0.00467307552955,0.5367647058823529
0.00467307552955,0.5441176470588235
0.00477548541839,0.5514705882352942
0.00479426075576,0.5588235294117647
0.00487813799408,0.5661764705882353
0.00491805635928,0.5735294117647058
0.00491805635928,0.5808823529411765
0.00494067358198,0.5882352941176471
0.00494067358198,0.5955882352941176
0.00494067358198,0.6029411764705882
0.00504260632382,0.6102941176470589
0.0050770679783,0.6176470588235294
0.00515752404802,0.625
0.00526738976722,0.6323529411764706
0.00526738976722,0.6397058823529411
0.00532667167996,0.6470588235294118
0.0053866793054,0.6544117647058824
0.00540718163615,0.6617647058823529
0.00540718163615,0.6691176470588235
0.00540718163615,0.6764705882352942
0.00540718163615,0.6838235294117647
0.00540763885363,0.6911764705882353
0.00540763885363,0.6985294117647058
0.00540763885363,0.7058823529411765
0.00617057104623,0.7132352941176471
0.00767297095314,0.7205882352941176
0.0077802852322,0.7279411764705882
0.00831685662753,0.7352941176470589
0.00842417090659,0.7426470588235294
0.00906805658098,0.75
0.126065158095,0.7573529411764706
0.1289381012,0.7647058823529411
0.134707413519,0.7720588235294118
0.239713037788,0.7794117647058824
0.239713037788,0.7867647058823529
0.266333583998,0.7941176470588235
0.266333583998,0.8014705882352942
0.378195474286,0.8088235294117647
0.424238858573,0.8161764705882353
0.424238858573,0.8235294117647058
0.424238858573,0.8308823529411765
0.467307552955,0.8382352941176471
0.494067358198,0.8455882352941176
0.515752404802,0.8529411764705882
0.540718163615,0.8602941176470589
0.540718163615,0.8676470588235294
0.540763885363,0.875
0.540763885363,0.8823529411764706
0.620132516293,0.8897058823529411
0.707020590744,0.8970588235294118
0.79307256072,0.9044117647058824
0.9160444945,0.9117647058823529
0.934615105911,0.9191176470588235
1.08143632723,0.9264705882352942
1.62229165609,0.9338235294117647
2.03250609126,0.9411764705882353
3.68006925948,0.9485294117647058
3.91410241175,0.9558823529411765
5.14334278486,0.9632352941176471
5.78901250909,0.9705882352941176
6.14293673835,0.9779411764705882
6.4631543223,0.9852941176470589
6.95096812171,0.9926470588235294
7.32780461354,1.0
