Congestion,CDF
0.0119745919585,0.009433962264150943
0.0119745919585,0.018867924528301886
0.0119841549587,0.02830188679245283
0.0119841549587,0.03773584905660377
0.0119853481295,0.04716981132075472
0.0119853481295,0.05660377358490566
0.0119867092448,0.0660377358490566
0.0119867092448,0.07547169811320754
0.0119910328815,0.08490566037735849
0.0119910328815,0.09433962264150944
0.0119931232684,0.10377358490566038
0.0119931232684,0.11320754716981132
0.0119990889478,0.12264150943396226
0.0119990889478,0.1320754716981132
0.0120111796269,0.14150943396226415
0.0120111796269,0.1509433962264151
0.0120205056397,0.16037735849056603
0.0120205056397,0.16981132075471697
0.0120229133414,0.1792452830188679
0.0120229133414,0.18867924528301888
0.0120299862393,0.19811320754716982
0.0120299862393,0.20754716981132076
0.0120408311999,0.2169811320754717
0.0120408311999,0.22641509433962265
0.0120420960145,0.2358490566037736
0.0120420960145,0.24528301886792453
0.0120451710468,0.25471698113207547
0.0120451710468,0.2641509433962264
0.0923533821524,0.27358490566037735
0.0923533821524,0.2830188679245283
0.122865164916,0.29245283018867924
0.122865164916,0.3018867924528302
0.169209127387,0.3113207547169811
0.169209127387,0.32075471698113206
0.17833189695,0.330188679245283
0.17833189695,0.33962264150943394
0.178469023898,0.3490566037735849
0.178469023898,0.3584905660377358
0.184423323975,0.36792452830188677
0.184423323975,0.37735849056603776
0.203922823656,0.3867924528301887
0.203922823656,0.39622641509433965
0.204180430276,0.4056603773584906
0.204180430276,0.41509433962264153
0.207293506205,0.42452830188679247
0.207293506205,0.4339622641509434
0.218563847755,0.44339622641509435
0.218563847755,0.4528301886792453
0.229109407824,0.46226415094339623
0.229109407824,0.4716981132075472
0.22960648833,0.4811320754716981
0.22960648833,0.49056603773584906
0.263293262434,0.5
0.263293262434,0.5094339622641509
0.272267177207,0.5188679245283019
0.272267177207,0.5283018867924528
0.272504053722,0.5377358490566038
0.272504053722,0.5471698113207547
0.284498330196,0.5566037735849056
0.284498330196,0.5660377358490566
0.290859413739,0.5754716981132075
0.290859413739,0.5849056603773585
0.299687453148,0.5943396226415094
0.299687453148,0.6037735849056604
0.31170903464,0.6132075471698113
0.31170903464,0.6226415094339622
0.323093169139,0.6320754716981132
0.323093169139,0.6415094339622641
0.330270743509,0.6509433962264151
0.330270743509,0.660377358490566
0.338670385187,0.6698113207547169
0.338670385187,0.6792452830188679
0.347248398328,0.6886792452830188
0.347248398328,0.6981132075471698
0.380807214596,0.7075471698113207
0.380807214596,0.7169811320754716
0.387862466329,0.7264150943396226
0.387862466329,0.7358490566037735
0.388392117486,0.7452830188679245
0.388392117486,0.7547169811320755
0.417571691705,0.7641509433962265
0.417571691705,0.7735849056603774
0.418312625773,0.7830188679245284
0.418312625773,0.7924528301886793
0.474584238244,0.8018867924528302
0.474584238244,0.8113207547169812
0.475481878501,0.8207547169811321
0.475481878501,0.8301886792452831
0.488127899821,0.839622641509434
0.488127899821,0.8490566037735849
0.526056193648,0.8584905660377359
0.526056193648,0.8679245283018868
0.526937670169,0.8773584905660378
0.526937670169,0.8867924528301887
0.530083995832,0.8962264150943396
0.530083995832,0.9056603773584906
0.570744006042,0.9150943396226415
0.570744006042,0.9245283018867925
0.57172869206,0.9339622641509434
0.57172869206,0.9433962264150944
0.622777824642,0.9528301886792453
0.622777824642,0.9622641509433962
0.700872748284,0.9716981132075472
0.700872748284,0.9811320754716981
0.731865535821,0.9905660377358491
0.731865535821,1.0
