Congestion,CDF
0.0,0.007352941176470588
0.0,0.014705882352941176
0.0,0.022058823529411766
0.0,0.029411764705882353
0.0,0.03676470588235294
0.0,0.04411764705882353
0.0,0.051470588235294115
0.0,0.058823529411764705
0.0,0.0661764705882353
0.0,0.07352941176470588
0.0,0.08088235294117647
0.0,0.08823529411764706
0.0,0.09558823529411764
0.0,0.10294117647058823
1.86864056452e-06,0.11029411764705882
1.86864056452e-06,0.11764705882352941
1.86864056452e-06,0.125
1.86864056452e-06,0.1323529411764706
1.86864056452e-06,0.13970588235294118
1.86864056452e-06,0.14705882352941177
1.86864056452e-06,0.15441176470588236
1.86864056452e-06,0.16176470588235295
1.86864056452e-06,0.16911764705882354
1.86864056452e-06,0.17647058823529413
1.86864056452e-06,0.18382352941176472
1.86864056452e-06,0.19117647058823528
1.86864056452e-06,0.19852941176470587
1.86864056452e-06,0.20588235294117646
1.86864056452e-06,0.21323529411764705
1.86864056452e-06,0.22058823529411764
1.86864056452e-06,0.22794117647058823
1.86864056452e-06,0.23529411764705882
1.86864056452e-06,0.2426470588235294
1.86864056452e-06,0.25
1.86864056452e-06,0.25735294117647056
1.86864056452e-06,0.2647058823529412
1.86864056452e-06,0.27205882352941174
1.86864056452e-06,0.27941176470588236
1.86864056452e-06,0.2867647058823529
1.86864056452e-06,0.29411764705882354
1.86864056452e-06,0.3014705882352941
4.6716014113e-05,0.3088235294117647
4.6716014113e-05,0.3161764705882353
5.0453295242e-05,0.3235294117647059
9.3432028226e-05,0.33088235294117646
9.3432028226e-05,0.3382352941176471
9.3432028226e-05,0.34558823529411764
9.3432028226e-05,0.35294117647058826
0.000140148042339,0.3602941176470588
0.000155720047043,0.36764705882352944
0.000155720047043,0.375
0.000155720047043,0.38235294117647056
0.000186864056452,0.3897058823529412
0.000186864056452,0.39705882352941174
0.000186864056452,0.40441176470588236
0.000186864056452,0.4117647058823529
0.000186864056452,0.41911764705882354
0.000186864056452,0.4264705882352941
0.000186864056452,0.4338235294117647
0.000233580070565,0.4411764705882353
0.000280296084678,0.4485294117647059
0.000280296084678,0.45588235294117646
0.000342584103495,0.4632352941176471
0.000373728112904,0.47058823529411764
0.000373728112904,0.47794117647058826
0.000560592169356,0.4852941176470588
0.000763028230512,0.49264705882352944
0.00135476440928,0.5
0.00138590841869,0.5073529411764706
0.001790780541,0.5147058823529411
0.00222679667272,0.5220588235294118
0.00225794068213,0.5294117647058824
0.00241366072917,0.5367647058823529
0.00244480473858,0.5441176470588235
0.00263166879503,0.5514705882352942
0.00951386074262,0.5588235294117647
0.0101645777343,0.5661764705882353
0.0170659586399,0.5735294117647058
0.0172485049468,0.5808823529411765
0.017298257436,0.5882352941176471
0.017370932072,0.5955882352941176
0.0174091973594,0.6029411764705882
0.0175293823645,0.6102941176470589
0.0177611974219,0.6176470588235294
0.017789197024,0.625
0.0178295060713,0.6323529411764706
0.0178309974921,0.6397058823529411
0.0178319891188,0.6470588235294118
0.0178622049637,0.6544117647058824
0.0178717959456,0.6617647058823529
0.0179021412036,0.6691176470588235
0.0179087558676,0.6764705882352942
0.0179122699209,0.6838235294117647
0.0179533144689,0.6911764705882353
0.0179943756959,0.6985294117647058
0.018016604083,0.7058823529411765
0.018016630299,0.7132352941176471
0.0180167940588,0.7205882352941176
0.0180168023075,0.7279411764705882
0.0180173280752,0.7352941176470589
0.0180173335751,0.7426470588235294
0.0180173335751,0.75
0.446555124092,0.7573529411764706
0.44771889669,0.7647058823529411
0.464167242463,0.7720588235294118
0.876469118225,0.7794117647058824
0.876469118225,0.7867647058823529
0.897665723445,0.7941176470588235
0.897665723445,0.8014705882352942
1.33966537228,0.8088235294117647
1.4900005523,0.8161764705882353
1.4900005523,0.8235294117647058
1.4900005523,0.8308823529411765
1.74091973594,0.8382352941176471
1.78309974921,0.8455882352941176
1.79087558676,0.8529411764705882
1.8016630299,0.8602941176470589
1.80168023075,0.8676470588235294
1.80173335751,0.875
1.80173335751,0.8823529411764706
2.22975403597,0.8897058823529411
2.60629486183,0.8970588235294118
2.68889271554,0.9044117647058824
3.2689202547,0.9117647058823529
3.47801294314,0.9191176470588235
3.60335963664,0.9264705882352942
5.40519952253,0.9338235294117647
7.28580494462,0.9411764705882353
13.0596014941,0.9485294117647058
13.2073140597,0.9558823529411765
17.2467053394,0.9632352941176471
20.9982177287,0.9705882352941176
21.7258121753,0.9779411764705882
21.949603803,0.9852941176470589
23.45066267,0.9926470588235294
24.4671204434,1.0
