Congestion,CDF
0.0,0.007352941176470588
0.0,0.014705882352941176
0.0,0.022058823529411766
0.0,0.029411764705882353
0.0,0.03676470588235294
0.0,0.04411764705882353
0.0,0.051470588235294115
0.0,0.058823529411764705
0.0,0.0661764705882353
0.0,0.07352941176470588
0.0,0.08088235294117647
0.0,0.08823529411764706
0.0,0.09558823529411764
0.0,0.10294117647058823
1.42099874064e-05,0.11029411764705882
1.42099874064e-05,0.11764705882352941
1.42099874064e-05,0.125
1.42099874064e-05,0.1323529411764706
1.42099874064e-05,0.13970588235294118
1.42099874064e-05,0.14705882352941177
1.42099874064e-05,0.15441176470588236
1.42099874064e-05,0.16176470588235295
1.42099874064e-05,0.16911764705882354
1.42099874064e-05,0.17647058823529413
1.42099874064e-05,0.18382352941176472
1.42099874064e-05,0.19117647058823528
1.42099874064e-05,0.19852941176470587
1.42099874064e-05,0.20588235294117646
1.42099874064e-05,0.21323529411764705
1.42099874064e-05,0.22058823529411764
1.42099874064e-05,0.22794117647058823
1.42099874064e-05,0.23529411764705882
1.42099874064e-05,0.2426470588235294
1.42099874064e-05,0.25
1.42099874064e-05,0.25735294117647056
1.42099874064e-05,0.2647058823529412
1.42099874064e-05,0.27205882352941174
1.42099874064e-05,0.27941176470588236
1.42099874064e-05,0.2867647058823529
1.42099874064e-05,0.29411764705882354
1.42099874064e-05,0.3014705882352941
0.00035524968516,0.3088235294117647
0.00035524968516,0.3161764705882353
0.000383669659973,0.3235294117647059
0.00071049937032,0.33088235294117646
0.00071049937032,0.3382352941176471
0.00071049937032,0.34558823529411764
0.00071049937032,0.35294117647058826
0.00106574905548,0.3602941176470588
0.0011841656172,0.36764705882352944
0.0011841656172,0.375
0.0011841656172,0.38235294117647056
0.00142099874064,0.3897058823529412
0.00142099874064,0.39705882352941174
0.00142099874064,0.40441176470588236
0.00142099874064,0.4117647058823529
0.00142099874064,0.41911764705882354
0.00142099874064,0.4264705882352941
0.00142099874064,0.4338235294117647
0.0017762484258,0.4411764705882353
0.00213149811096,0.4485294117647059
0.00213149811096,0.45588235294117646
0.00226069931631,0.4632352941176471
0.00226069931631,0.47058823529411764
0.00226069931631,0.47794117647058826
0.00226069931631,0.4852941176470588
0.00226069931631,0.49264705882352944
0.00226069931631,0.5
0.00226069931631,0.5073529411764706
0.00226069931631,0.5147058823529411
0.00226069931631,0.5220588235294118
0.00226069931631,0.5294117647058824
0.00226069931631,0.5367647058823529
0.00226069931631,0.5441176470588235
0.00226069931631,0.5514705882352942
0.00226069931631,0.5588235294117647
0.00226069931631,0.5661764705882353
0.00226069931631,0.5735294117647058
0.00226069931631,0.5808823529411765
0.00226069931631,0.5882352941176471
0.00226069931631,0.5955882352941176
0.00226069931631,0.6029411764705882
0.00226069931631,0.6102941176470589
0.00226069931631,0.6176470588235294
0.00226069931631,0.625
0.00226069931631,0.6323529411764706
0.00226069931631,0.6397058823529411
0.00226069931631,0.6470588235294118
0.00226069931631,0.6544117647058824
0.00260516435784,0.6617647058823529
0.00284199748128,0.6691176470588235
0.00284199748128,0.6764705882352942
0.00426299622192,0.6838235294117647
0.00580241152428,0.6911764705882353
0.0103022408696,0.6985294117647058
0.0105390739931,0.7058823529411765
0.0136179045978,0.7132352941176471
0.016933568326,0.7205882352941176
0.0171704014494,0.7279411764705882
0.0183545670666,0.7352941176470589
0.01859140019,0.7426470588235294
0.0200123989307,0.75
0.0565174829077,0.7573529411764706
0.0565174829077,0.7647058823529411
0.0610388815403,0.7720588235294118
0.113034965815,0.7794117647058824
0.113034965815,0.7867647058823529
0.113034965815,0.7941176470588235
0.113034965815,0.8014705882352942
0.169552448723,0.8088235294117647
0.188391609692,0.8161764705882353
0.188391609692,0.8235294117647058
0.188391609692,0.8308823529411765
0.226069931631,0.8382352941176471
0.226069931631,0.8455882352941176
0.226069931631,0.8529411764705882
0.226069931631,0.8602941176470589
0.226069931631,0.8676470588235294
0.226069931631,0.875
0.226069931631,0.8823529411764706
0.282587414538,0.8897058823529411
0.339104897446,0.8970588235294118
0.339104897446,0.9044117647058824
0.414461541323,0.9117647058823529
0.452139863261,0.9191176470588235
0.452139863261,0.9264705882352942
0.678209794892,0.9338235294117647
0.923118887492,0.9411764705882353
1.63900700432,0.9485294117647058
1.67668532626,0.9558823529411765
2.16650351146,0.9632352941176471
2.6940000186,0.9705882352941176
2.73167834054,0.9779411764705882
2.92006995023,0.9852941176470589
2.95774827217,0.9926470588235294
3.1838182038,1.0
