Congestion,CDF
0.0,0.007352941176470588
0.0,0.014705882352941176
0.0,0.022058823529411766
0.0,0.029411764705882353
0.0,0.03676470588235294
0.0,0.04411764705882353
0.0,0.051470588235294115
0.0,0.058823529411764705
0.0,0.0661764705882353
0.0,0.07352941176470588
0.0,0.08088235294117647
0.0,0.08823529411764706
0.0,0.09558823529411764
0.0,0.10294117647058823
3.7696793198e-06,0.11029411764705882
3.7696793198e-06,0.11764705882352941
3.7696793198e-06,0.125
3.7696793198e-06,0.1323529411764706
3.7696793198e-06,0.13970588235294118
3.7696793198e-06,0.14705882352941177
3.7696793198e-06,0.15441176470588236
3.7696793198e-06,0.16176470588235295
3.7696793198e-06,0.16911764705882354
3.7696793198e-06,0.17647058823529413
3.7696793198e-06,0.18382352941176472
3.7696793198e-06,0.19117647058823528
3.7696793198e-06,0.19852941176470587
3.7696793198e-06,0.20588235294117646
3.7696793198e-06,0.21323529411764705
3.7696793198e-06,0.22058823529411764
3.7696793198e-06,0.22794117647058823
3.7696793198e-06,0.23529411764705882
3.7696793198e-06,0.2426470588235294
3.7696793198e-06,0.25
3.7696793198e-06,0.25735294117647056
3.7696793198e-06,0.2647058823529412
3.7696793198e-06,0.27205882352941174
3.7696793198e-06,0.27941176470588236
3.7696793198e-06,0.2867647058823529
3.7696793198e-06,0.29411764705882354
3.7696793198e-06,0.3014705882352941
9.4241982995e-05,0.3088235294117647
9.4241982995e-05,0.3161764705882353
0.000101781341635,0.3235294117647059
0.000179939160065,0.33088235294117646
0.00018848396599,0.3382352941176471
0.00018848396599,0.34558823529411764
0.00018848396599,0.35294117647058826
0.00018848396599,0.3602941176470588
0.000282725948985,0.36764705882352944
0.000314139943317,0.375
0.000314139943317,0.38235294117647056
0.000314139943317,0.3897058823529412
0.00037696793198,0.39705882352941174
0.00037696793198,0.40441176470588236
0.00037696793198,0.4117647058823529
0.00037696793198,0.41911764705882354
0.00037696793198,0.4264705882352941
0.00037696793198,0.4338235294117647
0.00037696793198,0.4411764705882353
0.000471209914975,0.4485294117647059
0.00056545189797,0.45588235294117646
0.00056545189797,0.4632352941176471
0.000691107875297,0.47058823529411764
0.00075393586396,0.47794117647058826
0.00075393586396,0.4852941176470588
0.00113090379594,0.49264705882352944
0.00127569242197,0.5
0.00153928572225,0.5073529411764706
0.00273301750686,0.5147058823529411
0.00279584549552,0.5220588235294118
0.00361260934814,0.5294117647058824
0.00449220118943,0.5367647058823529
0.00455502917809,0.5441176470588235
0.00486916912141,0.5514705882352942
0.00493199711007,0.5588235294117647
0.00530896504205,0.5661764705882353
0.00829873471671,0.5735294117647058
0.0085278342598,0.5808823529411765
0.00864430744985,0.5882352941176471
0.00874748105824,0.5955882352941176
0.0088053354138,0.6029411764705882
0.00892375282285,0.6102941176470589
0.0092058822395,0.6176470588235294
0.00924855565907,0.625
0.00929459384822,0.6323529411764706
0.00929711837966,0.6397058823529411
0.00929884223438,0.6470588235294118
0.00932778885538,0.6544117647058824
0.00933673838502,0.6617647058823529
0.00935978764061,0.6691176470588235
0.00937563658603,0.6764705882352942
0.00937595870886,0.6838235294117647
0.00941956129652,0.6911764705882353
0.00946319727883,0.6985294117647058
0.00948627816129,0.7058823529411765
0.00948632611953,0.7132352941176471
0.00948652951166,0.7205882352941176
0.00948654563954,0.7279411764705882
0.00948707673876,0.7352941176470589
0.00948708749235,0.7426470588235294
0.00948708749235,0.75
0.231813669571,0.7573529411764706
0.233194721385,0.7647058823529411
0.234390914651,0.7720588235294118
0.446187641142,0.7794117647058824
0.446187641142,0.7867647058823529
0.470978064826,0.7941176470588235
0.470978064826,0.8014705882352942
0.699584164154,0.8088235294117647
0.778810248869,0.8161764705882353
0.778810248869,0.8235294117647058
0.778810248869,0.8308823529411765
0.88053354138,0.8382352941176471
0.929711837966,0.8455882352941176
0.937563658603,0.8529411764705882
0.948632611953,0.8602941176470589
0.948654563954,0.8676470588235294
0.948708749235,0.875
0.948708749235,0.8823529411764706
1.16307894482,0.8897058823529411
1.31061838613,0.8970588235294118
1.40857393571,0.9044117647058824
1.70366581478,0.9117647058823529
1.7552816472,0.9191176470588235
1.89730751512,0.9264705882352942
2.84612517235,0.9338235294117647
3.80106041648,0.9411764705882353
6.87150209635,0.9485294117647058
6.8750840302,0.9558823529411765
9.07119207178,0.9632352941176471
10.7672756014,0.9705882352941176
10.8948448435,0.9779411764705882
11.4157447715,0.9852941176470589
12.2685281975,0.9926470588235294
12.2865221135,1.0
