Congestion,CDF
0.0,0.005555555555555556
0.0,0.011111111111111112
0.0,0.016666666666666666
0.0,0.022222222222222223
0.0,0.027777777777777776
0.0,0.03333333333333333
0.0,0.03888888888888889
0.0,0.044444444444444446
0.0,0.05
0.0,0.05555555555555555
1.21576412604e-06,0.06111111111111111
1.39685451098e-06,0.06666666666666667
3.14420377023e-06,0.07222222222222222
4.59543670833e-06,0.07777777777777778
4.70226262364e-06,0.08333333333333333
6.20860539265e-06,0.08888888888888889
6.83028765657e-06,0.09444444444444444
9.41369391809e-06,0.1
9.46225963603e-06,0.10555555555555556
9.68077981132e-06,0.1111111111111111
9.88002136741e-06,0.11666666666666667
1.08758850644e-05,0.12222222222222222
1.11281486095e-05,0.12777777777777777
1.24267354211e-05,0.13333333333333333
1.27274736027e-05,0.1388888888888889
1.34021918209e-05,0.14444444444444443
1.54971371366e-05,0.15
1.69601797401e-05,0.15555555555555556
1.77098438799e-05,0.16111111111111112
1.84189658766e-05,0.16666666666666666
1.87103917322e-05,0.17222222222222222
1.88606609557e-05,0.17777777777777778
1.94855415569e-05,0.18333333333333332
2.01626269859e-05,0.18888888888888888
2.05029807487e-05,0.19444444444444445
2.07345248876e-05,0.2
2.0849560131e-05,0.20555555555555555
2.10889836795e-05,0.2111111111111111
2.12950612028e-05,0.21666666666666667
2.13417909745e-05,0.2222222222222222
2.20548750331e-05,0.22777777777777777
2.22388760718e-05,0.23333333333333334
2.24941645246e-05,0.2388888888888889
2.43599736826e-05,0.24444444444444444
2.56330622583e-05,0.25
2.78300497334e-05,0.25555555555555554
2.82709392747e-05,0.2611111111111111
2.86777785845e-05,0.26666666666666666
2.96489497223e-05,0.2722222222222222
6.35346848486e-05,0.2777777777777778
0.000104806792341,0.2833333333333333
0.000209613584682,0.28888888888888886
0.00020984558222,0.29444444444444445
0.000229771835416,0.3
0.000229771835416,0.3055555555555556
0.000236556490901,0.3111111111111111
0.000236556490901,0.31666666666666665
0.000315982218423,0.32222222222222224
0.000358132903505,0.3277777777777778
0.000470226262364,0.3333333333333333
0.000473112981802,0.3388888888888889
0.000629917522413,0.34444444444444444
0.000804507771772,0.35
0.000941369391809,0.35555555555555557
0.00097899344277,0.3611111111111111
0.000992998967807,0.36666666666666664
0.000999649446692,0.37222222222222223
0.00103672624438,0.37777777777777777
0.00103672624438,0.38333333333333336
0.00103759912153,0.3888888888888889
0.00105550522282,0.39444444444444443
0.00110454286819,0.4
0.00115270547079,0.40555555555555556
0.00125522060277,0.4111111111111111
0.0012574077493,0.4166666666666667
0.00127098322528,0.4222222222222222
0.00130288069016,0.42777777777777776
0.00132414499734,0.43333333333333335
0.00134960835307,0.4388888888888889
0.00135038475363,0.4444444444444444
0.00136204808773,0.45
0.00136621818577,0.45555555555555555
0.0014392338056,0.46111111111111114
0.0014975152753,0.4666666666666667
0.00150675475577,0.4722222222222222
0.00152059643985,0.4777777777777778
0.00152668275143,0.48333333333333334
0.00154328079006,0.4888888888888889
0.00157816878958,0.49444444444444446
0.00159777913196,0.5
0.00161071590596,0.5055555555555555
0.0016167115797,0.5111111111111111
0.00162177187423,0.5166666666666667
0.00162741764503,0.5222222222222223
0.00163549064707,0.5277777777777778
0.00166036050899,0.5333333333333333
0.00167362651425,0.5388888888888889
0.00173331303956,0.5444444444444444
0.00177086014298,0.55
0.00184392696558,0.5555555555555556
0.00185708780764,0.5611111111111111
0.00187228973798,0.5666666666666667
0.00189592371371,0.5722222222222222
0.00201626269859,0.5777777777777777
0.00205029807487,0.5833333333333334
0.00211583793099,0.5888888888888889
0.00227939978649,0.5944444444444444
0.0024116258926,0.6
0.0024116258926,0.6055555555555555
0.00274997783076,0.6111111111111112
0.00290622363063,0.6166666666666667
0.00312496976369,0.6222222222222222
0.00334089084025,0.6277777777777778
0.00415044179604,0.6333333333333333
0.00438829815444,0.6388888888888888
0.00461711339591,0.6444444444444445
0.00567628110739,0.65
0.00666428324413,0.6555555555555556
0.00697748991941,0.6611111111111111
0.00861596562648,0.6666666666666666
0.00976049489275,0.6722222222222223
0.0173652048837,0.6777777777777778
0.0211263287707,0.6833333333333333
0.022113325102,0.6888888888888889
0.0240912237429,0.6944444444444444
0.0246766313278,0.7
0.0259622629162,0.7055555555555556
0.0262466223453,0.7111111111111111
0.027796336059,0.7166666666666667
0.0300202236662,0.7222222222222222
0.0302076069674,0.7277777777777777
0.0307032524318,0.7333333333333333
0.0311756849485,0.7388888888888889
0.0314351937326,0.7444444444444445
0.0314351937326,0.75
0.0322884998095,0.7555555555555555
0.0351835074272,0.7611111111111111
0.0518799560765,0.7666666666666667
0.0518799560765,0.7722222222222223
0.052881130825,0.7777777777777778
0.0628703874652,0.7833333333333333
0.0703670148545,0.7888888888888889
0.0808355789852,0.7944444444444444
0.0808355789852,0.8
0.110454286819,0.8055555555555556
0.125522060277,0.8111111111111111
0.130735090513,0.8166666666666667
0.159777913196,0.8222222222222222
0.161071590596,0.8277777777777777
0.161723262748,0.8333333333333334
0.195803336636,0.8388888888888889
0.215874054348,0.8444444444444444
0.228335592445,0.85
0.228335592445,0.8555555555555555
0.246005637593,0.8611111111111112
0.250099361263,0.8666666666666667
0.283785590775,0.8722222222222222
0.323326977903,0.8777777777777778
0.346658297706,0.8833333333333333
0.378615818851,0.8888888888888888
0.394371643344,0.8944444444444445
0.398065281577,0.9
0.67495883482,0.9055555555555556
0.713260112897,0.9111111111111111
0.771785572265,0.9166666666666666
0.802057157348,0.9222222222222223
0.956178268823,0.9277777777777778
1.67749445767,0.9333333333333333
1.84382984634,0.9388888888888889
2.03342221771,0.9444444444444444
2.11560812745,0.95
2.18609049285,0.9555555555555556
2.29269414175,0.9611111111111111
2.4811959164,0.9666666666666667
2.53256930507,0.9722222222222222
2.56416752691,0.9777777777777777
2.5705209954,0.9833333333333333
2.61615675171,0.9888888888888889
2.69660752888,0.9944444444444445
2.71759208711,1.0
