Congestion,CDF
0.0,0.005555555555555556
0.0,0.011111111111111112
0.0,0.016666666666666666
0.0,0.022222222222222223
0.0,0.027777777777777776
0.0,0.03333333333333333
0.0,0.03888888888888889
0.0,0.044444444444444446
0.0,0.05
0.0,0.05555555555555555
7.71266785402e-07,0.06111111111111111
8.86148443835e-07,0.06666666666666667
1.99464672676e-06,0.07222222222222222
2.91529221964e-06,0.07777777777777778
2.98306135227e-06,0.08333333333333333
3.93866788834e-06,0.08888888888888889
4.33305596985e-06,0.09444444444444444
5.97193920389e-06,0.1
6.00274873705e-06,0.10555555555555556
6.1413754242e-06,0.1111111111111111
6.26777197694e-06,0.11666666666666667
6.89953645806e-06,0.12222222222222222
7.05956955113e-06,0.12777777777777777
7.88337809615e-06,0.13333333333333333
8.07416294135e-06,0.1388888888888889
8.50219642252e-06,0.14444444444444443
9.83120564779e-06,0.15
1.07593430567e-05,0.15555555555555556
1.12349213689e-05,0.16111111111111112
1.16847802117e-05,0.16666666666666666
1.18696574243e-05,0.17222222222222222
1.19649864923e-05,0.17777777777777778
1.23614035622e-05,0.18333333333333332
1.27909387748e-05,0.18888888888888888
1.30068552892e-05,0.19444444444444445
1.31537442292e-05,0.2
1.32267212652e-05,0.20555555555555555
1.3378608812e-05,0.2111111111111111
1.35093420237e-05,0.21666666666666667
1.35389868537e-05,0.2222222222222222
1.3991359183e-05,0.22777777777777777
1.41080873268e-05,0.23333333333333334
1.42700393865e-05,0.2388888888888889
1.54536872674e-05,0.24444444444444444
1.62613200246e-05,0.25
1.76550636228e-05,0.25555555555555554
1.79347588794e-05,0.2611111111111111
1.81928530606e-05,0.26666666666666666
1.88089528661e-05,0.2722222222222222
6.57405274858e-05,0.2777777777777778
6.64882242255e-05,0.2833333333333333
0.000132976448451,0.28888888888888886
0.000145764610982,0.29444444444444445
0.000145764610982,0.3
0.000150068718426,0.3055555555555556
0.000150068718426,0.3111111111111111
0.000227195396966,0.31666666666666665
0.000253199502642,0.32222222222222224
0.000298306135227,0.3277777777777778
0.000300137436853,0.3333333333333333
0.000399612434826,0.3388888888888889
0.000597193920389,0.34444444444444444
0.000621062185801,0.35
0.000657687211459,0.35555555555555557
0.000657687211459,0.3611111111111111
0.000840022364232,0.36666666666666664
0.00127909387748,0.37222222222222223
0.00130068552892,0.37777777777777777
0.00134226326021,0.38333333333333336
0.00144602502107,0.3888888888888889
0.00152990774275,0.39444444444444443
0.00152990774275,0.4
0.00157178458607,0.40555555555555556
0.0017445543227,0.4111111111111111
0.00184367486197,0.4166666666666667
0.00198244489412,0.4222222222222222
0.00205750764417,0.42777777777777776
0.00211942274291,0.43333333333333335
0.00218589806092,0.4388888888888889
0.00219220570014,0.4444444444444444
0.00224019495313,0.45
0.0022462075645,0.45555555555555555
0.00229379993324,0.46111111111111114
0.00234029404321,0.4666666666666667
0.00243940015599,0.4722222222222222
0.00244141694451,0.4777777777777778
0.00245451216512,0.48333333333333334
0.00248533469552,0.4888888888888889
0.00253170277982,0.49444444444444446
0.00254254289557,0.5
0.00254856830555,0.5055555555555555
0.0025506927011,0.5111111111111111
0.00263299256285,0.5166666666666667
0.00263999756747,0.5222222222222223
0.00267348496205,0.5277777777777778
0.00269595198464,0.5333333333333333
0.00270559027022,0.5388888888888889
0.00270787264899,0.5444444444444444
0.00271796065836,0.55
0.00275147765631,0.5555555555555556
0.00277090148884,0.5611111111111111
0.00278294078962,0.5666666666666667
0.00278388590227,0.5722222222222222
0.00278903905135,0.5777777777777777
0.00279364892321,0.5833333333333334
0.00279955859083,0.5888888888888889
0.0028073637575,0.5944444444444444
0.00283093199938,0.6
0.00284389332594,0.6055555555555555
0.00290167920186,0.6111111111111112
0.00292904366105,0.6166666666666667
0.00293885285704,0.6222222222222222
0.00300863769035,0.6277777777777778
0.00302161994084,0.6333333333333333
0.00303578829745,0.6388888888888888
0.00306055802136,0.6444444444444445
0.00360096748126,0.65
0.00422774467895,0.6555555555555556
0.00442643939319,0.6611111111111111
0.0054658695462,0.6666666666666666
0.00619194575547,0.6722222222222223
0.0110162863517,0.6777777777777778
0.0134023001085,0.6833333333333333
0.0140284392348,0.6888888888888889
0.0152831953951,0.6944444444444444
0.0156545712373,0.7
0.0164701611376,0.7055555555555556
0.0166505554905,0.7111111111111111
0.0176336760553,0.7166666666666667
0.019044484788,0.7222222222222222
0.0191633586002,0.7277777777777777
0.0194777903849,0.7333333333333333
0.0197774961426,0.7388888888888889
0.0204834530977,0.7444444444444445
0.0610354236127,0.75
0.0610354236127,0.7555555555555555
0.0748735854835,0.7611111111111111
0.0967187528423,0.7666666666666667
0.112009747657,0.7722222222222223
0.112009747657,0.7777777777777778
0.122070847225,0.7833333333333333
0.139451952567,0.7888888888888889
0.139451952567,0.7944444444444444
0.149747170967,0.8
0.229379993324,0.8055555555555556
0.243940015599,0.8111111111111111
0.277090148884,0.8166666666666667
0.278294078962,0.8222222222222222
0.279625229705,0.8277777777777777
0.309568893165,0.8333333333333334
0.376009504403,0.8388888888888889
0.392622230549,0.8444444444444444
0.414825568747,0.85
0.414825568747,0.8555555555555555
0.42564967697,0.8611111111111112
0.513654634026,0.8666666666666667
0.519547913511,0.8722222222222222
0.557826524634,0.8777777777777778
0.651790974853,0.8833333333333333
0.672578089633,0.8888888888888888
0.697918768685,0.8944444444444445
0.78324983249,0.9
1.25136061328,0.9055555555555556
1.28583711361,0.9111111111111111
1.45103113325,0.9166666666666666
1.53128833013,0.9222222222222223
1.75189490228,0.9277777777777778
3.06201383572,0.9333333333333333
3.28446151063,0.9388888888888889
3.59051731277,0.9444444444444444
3.85335781507,0.95
3.86130457767,0.9555555555555556
4.14724310078,0.9611111111111111
4.50787310909,0.9666666666666667
4.51432211854,0.9722222222222222
4.6650515677,0.9777777777777777
4.67162562045,0.9833333333333333
4.7691789491,0.9888888888888889
4.97492971351,0.9944444444444445
5.00024966378,1.0
