Congestion,CDF
0.0,0.005555555555555556
0.0,0.011111111111111112
0.0,0.016666666666666666
0.0,0.022222222222222223
0.0,0.027777777777777776
0.0,0.03333333333333333
0.0,0.03888888888888889
0.0,0.044444444444444446
0.0,0.05
0.0,0.05555555555555555
1.05745949563e-06,0.06111111111111111
1.21497010399e-06,0.06666666666666667
2.73479703983e-06,0.07222222222222222
3.99706495667e-06,0.07777777777777778
4.089981071e-06,0.08333333333333333
5.40018296843e-06,0.08888888888888889
5.94091599317e-06,0.09444444444444444
8.1879369603e-06,0.1
8.23017893677e-06,0.10555555555555556
8.42024560299e-06,0.1111111111111111
8.59354391875e-06,0.11666666666666667
9.45973621719e-06,0.12222222222222222
9.67915252954e-06,0.12777777777777777
1.080865037e-05,0.13333333333333333
1.1070229437e-05,0.1388888888888889
1.16570926051e-05,0.14444444444444443
1.34792551196e-05,0.15
1.47517949655e-05,0.15555555555555556
1.54038453478e-05,0.16111111111111112
1.60206325788e-05,0.16666666666666666
1.62741118777e-05,0.17222222222222222
1.64048145477e-05,0.17777777777777778
1.69483294543e-05,0.18333333333333332
1.75372515987e-05,0.18888888888888888
1.78332879026e-05,0.19444444444444445
1.80346826824e-05,0.2
1.81347391883e-05,0.20555555555555555
1.83429873997e-05,0.2111111111111111
1.85222315715e-05,0.21666666666666667
1.85628766603e-05,0.2222222222222222
1.91831100533e-05,0.22777777777777777
1.93431523192e-05,0.23333333333333334
1.9565199666e-05,0.2388888888888889
2.11880618388e-05,0.24444444444444444
2.22953815682e-05,0.25
2.42062993339e-05,0.25555555555555554
2.4589780654e-05,0.2611111111111111
2.49436454228e-05,0.26666666666666666
2.57883603799e-05,0.2722222222222222
9.11599013276e-05,0.2777777777777778
0.000182319802655,0.2833333333333333
0.000199853247834,0.28888888888888886
0.000199853247834,0.29444444444444445
0.000205754473419,0.3
0.000205754473419,0.3055555555555556
0.000311500422982,0.3111111111111111
0.0004089981071,0.31666666666666665
0.000411508946838,0.32222222222222224
0.000547895970337,0.3277777777777778
0.00081879369603,0.3333333333333333
0.000851518719824,0.3388888888888889
0.000901734134119,0.34444444444444444
0.000901734134119,0.35
0.00115172809514,0.35555555555555557
0.00175372515987,0.3611111111111111
0.00178332879026,0.36666666666666664
0.0018403347026,0.37222222222222223
0.00198259917112,0.37777777777777777
0.00209760811774,0.38333333333333336
0.00209760811774,0.3888888888888889
0.0023919032546,0.39444444444444443
0.00252780429098,0.4
0.00271806749302,0.40555555555555556
0.00290587348912,0.4111111111111111
0.0036100128259,0.4166666666666667
0.00381689791109,0.4222222222222222
0.00401591912306,0.42777777777777776
0.00493717262115,0.43333333333333335
0.00579652701303,0.4388888888888889
0.00606895105135,0.4444444444444444
0.00749408085876,0.45
0.00848958098475,0.45555555555555555
0.0122066775281,0.46111111111111114
0.0123783223494,0.4666666666666667
0.0149687158468,0.4722222222222222
0.0151040817906,0.4777777777777778
0.0151304884489,0.48333333333333334
0.0152803764227,0.4888888888888889
0.0152916007584,0.49444444444444446
0.015294667765,0.5
0.0153095422101,0.5055555555555555
0.0153219953888,0.5111111111111111
0.0153341879321,0.5166666666666667
0.0153580971949,0.5222222222222223
0.0153615223532,0.5277777777777778
0.0153630638031,0.5333333333333333
0.0153670312757,0.5388888888888889
0.0153730661792,0.5444444444444444
0.0153755286303,0.55
0.0153839685234,0.5555555555555556
0.0153862567655,0.5611111111111111
0.0153912763359,0.5666666666666667
0.0153916845227,0.5722222222222222
0.0154218761228,0.5777777777777777
0.0154274306836,0.5833333333333334
0.0154322892978,0.5888888888888889
0.0154389974642,0.5944444444444444
0.0154488782856,0.6
0.0154522340624,0.6055555555555555
0.0154575574941,0.6111111111111112
0.0154575999129,0.6166666666666667
0.0154601376264,0.6222222222222222
0.0154605092796,0.6277777777777778
0.0154622912401,0.6333333333333333
0.0154707959702,0.6388888888888888
0.0154730941234,0.6444444444444445
0.0154896758915,0.65
0.0154978250623,0.6555555555555556
0.0155183699485,0.6611111111111111
0.0155213872009,0.6666666666666666
0.0155273399384,0.6722222222222223
0.0155286970198,0.6777777777777778
0.0183754697871,0.6833333333333333
0.0192339493395,0.6888888888888889
0.0209543058251,0.6944444444444444
0.0214634874963,0.7
0.0225817170129,0.7055555555555556
0.0228290500046,0.7111111111111111
0.0241769755166,0.7166666666666667
0.0261112907485,0.7222222222222222
0.0262742748726,0.7277777777777777
0.0267053823478,0.7333333333333333
0.0271162994329,0.7388888888888889
0.0280842146859,0.7444444444444445
0.384076595079,0.75
0.384076595079,0.7555555555555555
0.510318073671,0.7611111111111111
0.594215056859,0.7666666666666667
0.764018821133,0.7722222222222223
0.764018821133,0.7777777777777778
0.768153190157,0.7833333333333333
0.772879995645,0.7888888888888889
0.772879995645,0.7944444444444444
1.02063614734,0.8
1.53219953888,0.8055555555555556
1.53615223532,0.8111111111111111
1.54522340624,0.8166666666666667
1.54575574941,0.8222222222222222
1.91323667092,0.8277777777777777
1.92162945811,0.8333333333333334
2.30132543905,0.8388888888888889
2.31150567219,0.8444444444444444
2.320887184,0.85
2.44032548247,0.8555555555555555
2.44032548247,0.8611111111111112
3.08116712804,0.8666666666666667
3.09145253025,0.8722222222222222
3.44665546413,0.8777777777777778
3.85751943483,0.8833333333333333
3.97469060014,0.8888888888888888
3.98740507949,0.8944444444444445
4.98988439392,0.9
7.07804865746,0.9055555555555556
7.9444828591,0.9111111111111111
8.84622603723,0.9166666666666666
9.48118598667,0.9222222222222223
10.3980630321,0.9277777777777778
18.1052855721,0.9333333333333333
18.8991737172,0.9388888888888889
20.4520434192,0.9444444444444444
21.9942310315,0.95
22.7303524465,0.9555555555555556
24.2801349528,0.9611111111111111
25.8347249228,0.9666666666666667
26.5825506262,0.9722222222222222
27.3315965075,0.9777777777777777
28.1183603457,0.9833333333333333
28.5522642603,0.9888888888888889
29.6314091906,0.9944444444444445
30.8692414256,1.0
