Congestion,CDF
0.0,0.005555555555555556
0.0,0.011111111111111112
0.0,0.016666666666666666
0.0,0.022222222222222223
0.0,0.027777777777777776
0.0,0.03333333333333333
0.0,0.03888888888888889
0.0,0.044444444444444446
0.0,0.05
0.0,0.05555555555555555
5.41055788067e-07,0.06111111111111111
6.21647079452e-07,0.06666666666666667
1.39927607034e-06,0.07222222222222222
2.0451233726e-06,0.07777777777777778
2.09266448569e-06,0.08333333333333333
2.76303750997e-06,0.08888888888888889
3.03970695598e-06,0.09444444444444444
4.18940933721e-06,0.1
4.2110227096e-06,0.10555555555555556
4.30827151233e-06,0.1111111111111111
4.39694068329e-06,0.11666666666666667
4.84013340943e-06,0.12222222222222222
4.9523991428e-06,0.12777777777777777
5.53031380214e-06,0.13333333333333333
5.66415237359e-06,0.1388888888888889
5.96442459697e-06,0.14444444444444443
6.8967454843e-06,0.15
7.54784848354e-06,0.15555555555555556
7.8814741542e-06,0.16111111111111112
8.19705721224e-06,0.16666666666666666
8.32675148647e-06,0.17222222222222222
8.39362632792e-06,0.17777777777777778
8.67171914125e-06,0.18333333333333332
8.9730448528e-06,0.18888888888888888
9.12451368576e-06,0.19444444444444445
9.22755858887e-06,0.2
9.27875312811e-06,0.20555555555555555
9.38530463258e-06,0.2111111111111111
9.47701603809e-06,0.21666666666666667
9.49781235288e-06,0.2222222222222222
9.81515866128e-06,0.22777777777777777
9.89704529115e-06,0.23333333333333334
1.00106572098e-05,0.2388888888888889
1.08410048264e-05,0.24444444444444444
1.1407571916e-05,0.25
1.23853049847e-05,0.25555555555555554
1.2581515609e-05,0.2611111111111111
1.2762572739e-05,0.26666666666666666
1.31947764487e-05,0.2722222222222222
4.66425356781e-05,0.2777777777777778
9.32850713562e-05,0.2833333333333333
0.00010225616863,0.28888888888888886
0.00010225616863,0.29444444444444445
0.00010527556774,0.3
0.00010527556774,0.3055555555555556
0.000128831553339,0.3111111111111111
0.000159381146547,0.31666666666666665
0.000209266448569,0.32222222222222224
0.00021055113548,0.3277777777777778
0.000280334412085,0.3333333333333333
0.000418940933721,0.3388888888888889
0.000435684897544,0.34444444444444444
0.000461377929444,0.35
0.000461377929444,0.35555555555555557
0.000589288908683,0.3611111111111111
0.000634621678225,0.36666666666666664
0.00089730448528,0.37222222222222223
0.000912451368576,0.37777777777777777
0.000941618801422,0.38333333333333336
0.00101440930966,0.3888888888888889
0.00107325435905,0.39444444444444443
0.00107325435905,0.4
0.00122383231296,0.40555555555555556
0.00129336693121,0.4111111111111111
0.00139071629272,0.4166666666666667
0.00148680840938,0.4222222222222222
0.00184708572057,0.42777777777777776
0.00195293977292,0.43333333333333335
0.00205477022518,0.4388888888888889
0.00252613535971,0.4444444444444444
0.00296582942804,0.45
0.00310521689711,0.45555555555555555
0.00368654904292,0.46111111111111114
0.00383439350788,0.4666666666666667
0.00399724296163,0.4722222222222222
0.00400574857835,0.4777777777777778
0.00408773197449,0.48333333333333334
0.00413875279491,0.4888888888888889
0.00416079370604,0.49444444444444446
0.00423150322102,0.5
0.00434374739558,0.5055555555555555
0.00435308001583,0.5111111111111111
0.00438187982336,0.5166666666666667
0.00438416827999,0.5222222222222223
0.00440377040327,0.5277777777777778
0.0044504975024,0.5333333333333333
0.00452317219033,0.5388888888888889
0.00453737116356,0.5444444444444444
0.00456618900518,0.55
0.00463304154671,0.5555555555555556
0.00473596794877,0.5611111111111111
0.00477113230118,0.5666666666666667
0.00479209667765,0.5722222222222222
0.00480436695326,0.5777777777777777
0.00481374268466,0.5833333333333334
0.00485445283517,0.5888888888888889
0.00488612966659,0.5944444444444444
0.00489566973222,0.6
0.00490219030153,0.6055555555555555
0.00491300544267,0.6111111111111112
0.00491844705123,0.6166666666666667
0.00492959642407,0.6222222222222222
0.00494145483733,0.6277777777777778
0.00497500427493,0.6333333333333333
0.00499560533127,0.6388888888888888
0.00508311718205,0.6444444444444445
0.0051425547229,0.65
0.0052459402302,0.6555555555555556
0.00526655701731,0.6611111111111111
0.0052857472468,0.6666666666666666
0.00533070393217,0.6722222222222223
0.00772809824873,0.6777777777777778
0.00940192444997,0.6833333333333333
0.00984117090116,0.6888888888888889
0.0107214020948,0.6944444444444444
0.0109819280928,0.7
0.0115540772435,0.7055555555555556
0.0116806267211,0.7111111111111111
0.0123703012695,0.7166666666666667
0.0133600057986,0.7222222222222222
0.0134433976487,0.7277777777777777
0.0136639764942,0.7333333333333333
0.0138742247999,0.7388888888888889
0.0143694647142,0.7444444444444445
0.109604207,0.75
0.109604207,0.7555555555555555
0.136257732483,0.7611111111111111
0.173788428236,0.7666666666666667
0.206937639746,0.7722222222222223
0.206937639746,0.7777777777777778
0.219208414,0.7833333333333333
0.245650272133,0.7888888888888889
0.245650272133,0.7944444444444444
0.272515464966,0.8
0.416079370604,0.8055555555555556
0.438187982336,0.8111111111111111
0.488612966659,0.8166666666666667
0.490219030153,0.8222222222222222
0.509328503163,0.8277777777777777
0.55465395724,0.8333333333333334
0.686147307511,0.8388888888888889
0.697967491167,0.8444444444444444
0.737017860001,0.85
0.737017860001,0.8555555555555555
0.74778313868,0.8611111111111112
0.92439108881,0.8666666666666667
0.932478825265,0.8722222222222222
0.982758450392,0.8777777777777778
1.1645084846,0.8833333333333333
1.19092713357,0.8888888888888888
1.23451828749,0.8944444444444445
1.40959205538,0.9
2.21018260116,0.9055555555555556
2.30210120244,0.9111111111111111
2.59299084298,0.9166666666666666
2.74247824276,0.9222222222222223
3.117584866,0.9277777777777778
5.44450554905,0.9333333333333333
5.8179261517,0.9388888888888889
6.35099654491,0.9444444444444444
6.83237081338,0.95
6.84933333318,0.9555555555555556
7.36358880548,0.9611111111111111
8.00808509411,0.9666666666666667
8.02714534574,0.9722222222222222
8.3767399984,0.9777777777777777
8.44020216623,0.9833333333333333
8.49044950041,0.9888888888888889
8.92575750199,0.9944444444444445
8.93864065733,1.0
