Congestion,CDF
0.0,0.005555555555555556
0.0,0.011111111111111112
0.0,0.016666666666666666
0.0,0.022222222222222223
0.0,0.027777777777777776
0.0,0.03333333333333333
0.0,0.03888888888888889
0.0,0.044444444444444446
0.0,0.05
0.0,0.05555555555555555
3.2221233858e-07,0.06111111111111111
3.70206480846e-07,0.06666666666666667
8.33304115561e-07,0.07222222222222222
1.21792243814e-06,0.07777777777777778
1.24623436745e-06,0.08333333333333333
1.64545837473e-06,0.08888888888888889
1.81022199279e-06,0.09444444444444444
2.49489869545e-06,0.1
2.50777000265e-06,0.10555555555555556
2.56568411214e-06,0.1111111111111111
2.61848883499e-06,0.11666666666666667
2.88242125727e-06,0.12222222222222222
2.94927832689e-06,0.12777777777777777
3.29344105094e-06,0.13333333333333333
3.37314528856e-06,0.1388888888888889
3.55196495456e-06,0.14444444444444443
4.10718550674e-06,0.15
4.49493372914e-06,0.15555555555555556
4.6936162124e-06,0.16111111111111112
4.88155386576e-06,0.16666666666666666
4.95879007009e-06,0.17222222222222222
4.99861572121e-06,0.17777777777777778
5.16422699033e-06,0.18333333333333332
5.34367403505e-06,0.18888888888888888
5.4338775371e-06,0.19444444444444445
5.49524337024e-06,0.2
5.52573100677e-06,0.20555555555555555
5.58918510927e-06,0.2111111111111111
5.64380155936e-06,0.21666666666666667
5.6561862882e-06,0.2222222222222222
5.84517400153e-06,0.22777777777777777
5.89393955046e-06,0.23333333333333334
5.96159830732e-06,0.2388888888888889
6.4560912104e-06,0.24444444444444444
6.79349617111e-06,0.25
7.37576082016e-06,0.25555555555555554
7.492609185e-06,0.2611111111111111
7.60043326258e-06,0.26666666666666666
7.85782144897e-06,0.2722222222222222
2.7776803852e-05,0.2777777777777778
5.55536077041e-05,0.2833333333333333
6.08961219069e-05,0.28888888888888886
6.08961219069e-05,0.29444444444444445
6.26942500663e-05,0.3
6.26942500663e-05,0.3055555555555556
9.49154839242e-05,0.3111111111111111
0.000124623436745,0.31666666666666665
0.000125388500133,0.32222222222222224
0.000166946197591,0.3277777777777778
0.000249489869545,0.3333333333333333
0.000259461321397,0.3388888888888889
0.000274762168512,0.34444444444444444
0.000274762168512,0.35
0.000350936375793,0.35555555555555557
0.000534367403505,0.3611111111111111
0.00054338775371,0.36666666666666664
0.000560757694028,0.37222222222222223
0.000604106273606,0.37777777777777777
0.000639149981475,0.38333333333333336
0.000639149981475,0.3888888888888889
0.000728822942637,0.39444444444444443
0.000770232557785,0.4
0.000828206552559,0.40555555555555556
0.00088543182639,0.4111111111111111
0.00109998603232,0.4166666666666667
0.00116302478453,0.4222222222222222
0.00122366738163,0.42777777777777776
0.00150437718212,0.43333333333333335
0.00176622606562,0.4388888888888889
0.00184923481143,0.4444444444444444
0.00228347783437,0.45
0.00258681089344,0.45555555555555555
0.00460227700067,0.46111111111111114
0.0055990826288,0.4666666666666667
0.00586066494503,0.4722222222222222
0.0063848647737,0.4777777777777778
0.00654001456214,0.48333333333333334
0.00688074378071,0.4888888888888889
0.0069561071795,0.49444444444444446
0.00736682573018,0.5
0.00795621968522,0.5055555555555555
0.00800588163067,0.5111111111111111
0.0081372418845,0.5166666666666667
0.00826245004188,0.5222222222222223
0.00855737787457,0.5277777777777778
0.0177564320501,0.5333333333333333
0.0178753187971,0.5388888888888889
0.0195951836657,0.5444444444444444
0.0196845405214,0.55
0.0197075263781,0.5555555555555556
0.0197085005512,0.5611111111111111
0.0197173628659,0.5666666666666667
0.0197178160839,0.5722222222222222
0.0197260888135,0.5777777777777777
0.019734146852,0.5833333333333334
0.0197512325333,0.5888888888888889
0.0197515003059,0.5944444444444444
0.0197537288659,0.6
0.0197590402265,0.6055555555555555
0.0197672297262,0.6111111111111112
0.0197689110464,0.6166666666666667
0.0197708837747,0.6222222222222222
0.0197709616976,0.6277777777777778
0.0197867186389,0.6333333333333333
0.019791480048,0.6388888888888888
0.0197954683143,0.6444444444444445
0.019798263226,0.65
0.0197984218608,0.6555555555555556
0.0197992219093,0.6611111111111111
0.0198049418054,0.6666666666666666
0.0198084746763,0.6722222222222223
0.0198103665169,0.6777777777777778
0.0198115582831,0.6833333333333333
0.0198122107848,0.6888888888888889
0.0198134140577,0.6944444444444444
0.0198147616048,0.7
0.0198186409126,0.7055555555555556
0.0198209740395,0.7111111111111111
0.0198308982363,0.7166666666666667
0.0198374946177,0.7222222222222222
0.0198494063484,0.7277777777777777
0.0198517046367,0.7333333333333333
0.0198539537752,0.7388888888888889
0.0198587161118,0.7444444444444445
0.493787507647,0.75
0.493787507647,0.7555555555555555
0.657260536131,0.7611111111111111
0.76748349516,0.7666666666666667
0.985868143294,0.7722222222222223
0.985868143294,0.7777777777777778
0.987575015295,0.7833333333333333
0.990577914153,0.7888888888888889
0.990577914153,0.7944444444444444
1.31452107226,0.8
1.97260888135,0.8055555555555556
1.97512325333,0.8111111111111111
1.98084746763,0.8166666666666667
1.98103665169,0.8222222222222222
2.46454014546,0.8277777777777777
2.46969153029,0.8333333333333334
2.96454000718,0.8388888888888889
2.96730088677,0.8444444444444444
2.97297039281,0.85
3.13219128486,0.8555555555555555
3.13219128486,0.8611111111111112
3.95569870498,0.8666666666666667
3.96232362811,0.8722222222222222
4.43795483066,0.8777777777777778
4.94864229254,0.8833333333333333
5.10610007123,0.8888888888888888
5.11405537611,0.8944444444444445
6.41750166209,0.9
9.07558620834,0.9055555555555556
10.2091414112,0.9111111111111111
11.3653002335,0.9166666666666666
12.1845142978,0.9222222222222223
13.3502408684,0.9277777777777778
23.2413215846,0.9333333333333333
24.2463772527,0.9388888888888889
26.2322488639,0.9444444444444444
28.2120910499,0.95
29.1769424805,0.9555555555555556
31.1606919423,0.9611111111111111
33.1564573797,0.9666666666666667
34.1236562554,0.9722222222222222
35.1159757463,0.9777777777777777
36.1007446328,0.9833333333333333
36.8916189513,0.9888888888888889
38.069198685,0.9944444444444445
39.8567305647,1.0
