Congestion,CDF
0.0,0.005555555555555556
0.0,0.011111111111111112
0.0,0.016666666666666666
0.0,0.022222222222222223
0.0,0.027777777777777776
0.0,0.03333333333333333
0.0,0.03888888888888889
0.0,0.044444444444444446
0.0,0.05
0.0,0.05555555555555555
2.92953217713e-07,0.06111111111111111
3.36589158131e-07,0.06666666666666667
7.57634307435e-07,0.07222222222222222
1.10732661185e-06,0.07777777777777778
1.13306762112e-06,0.08333333333333333
1.49603931251e-06,0.08888888888888889
1.64584124835e-06,0.09444444444444444
2.26834454546e-06,0.1
2.28004704847e-06,0.10555555555555556
2.33270215411e-06,0.1111111111111111
2.38071184094e-06,0.11666666666666667
2.62067736401e-06,0.12222222222222222
2.68146334681e-06,0.12777777777777777
2.99437370236e-06,0.13333333333333333
3.06684024098e-06,0.1388888888888889
3.22942183787e-06,0.14444444444444443
3.73422450315e-06,0.15
4.08676249073e-06,0.15555555555555556
4.26740322296e-06,0.16111111111111112
4.43827483056e-06,0.16666666666666666
4.50849745046e-06,0.17222222222222222
4.54470665554e-06,0.17777777777777778
4.69527926983e-06,0.18333333333333332
4.85843127509e-06,0.18888888888888888
4.94044367192e-06,0.19444444444444445
4.9962370607e-06,0.2
5.02395620784e-06,0.20555555555555555
5.0816482366e-06,0.2111111111111111
5.13130513324e-06,0.21666666666666667
5.14256524258e-06,0.2222222222222222
5.3143915574e-06,0.22777777777777777
5.3587288554e-06,0.23333333333333334
5.42024372666e-06,0.2388888888888889
5.86983323565e-06,0.24444444444444444
6.17659947977e-06,0.25
6.70599044987e-06,0.25555555555555554
6.81222817067e-06,0.2611111111111111
6.91026107224e-06,0.26666666666666666
7.14427662154e-06,0.2722222222222222
2.52544769145e-05,0.2777777777777778
5.0508953829e-05,0.2833333333333333
5.53663305927e-05,0.28888888888888886
5.53663305927e-05,0.29444444444444445
5.70011762118e-05,0.3
5.70011762118e-05,0.3055555555555556
8.62964979831e-05,0.3111111111111111
0.000113306762112,0.31666666666666665
0.000114002352424,0.32222222222222224
0.000151786321979,0.3277777777777778
0.000226834454546,0.3333333333333333
0.000235900429234,0.3388888888888889
0.000249811853035,0.34444444444444444
0.000249811853035,0.35
0.000319068912613,0.35555555555555557
0.000485843127509,0.3611111111111111
0.000494044367192,0.36666666666666664
0.000509836996146,0.37222222222222223
0.000549249223271,0.37777777777777777
0.000581110718788,0.38333333333333336
0.000581110718788,0.3888888888888889
0.000662640751529,0.39444444444444443
0.000700290085677,0.4
0.0007529996386,0.40555555555555556
0.000805028459648,0.4111111111111111
0.00100009965177,0.4166666666666667
0.00105741404693,0.4222222222222222
0.00111254987453,0.42777777777777776
0.0013677692732,0.43333333333333335
0.00160584045729,0.4388888888888889
0.00168131143178,0.4444444444444444
0.0020761221687,0.45
0.00235191047676,0.45555555555555555
0.00418435824678,0.46111111111111114
0.00509064699253,0.4666666666666667
0.00532847581551,0.4722222222222222
0.00580507465468,0.4777777777777778
0.00594613576349,0.48333333333333334
0.00625592439973,0.4888888888888889
0.00632444427787,0.49444444444444446
0.00669786672819,0.5
0.00723373961373,0.5055555555555555
0.0072788919092,0.5111111111111111
0.00739832373856,0.5166666666666667
0.00751216212461,0.5222222222222223
0.00778030845929,0.5277777777777778
0.0297436745071,0.5333333333333333
0.0301420653282,0.5388888888888889
0.0367755850436,0.5444444444444444
0.0368038197785,0.55
0.0368080708285,0.5555555555555556
0.0368490627149,0.5611111111111111
0.0368770541613,0.5666666666666667
0.0368855967431,0.5722222222222222
0.0369209499205,0.5777777777777777
0.0369961383792,0.5833333333333334
0.0369972812671,0.5888888888888889
0.0370070819844,0.5944444444444444
0.0370304453358,0.6
0.0370667930592,0.6055555555555555
0.0370738823901,0.6111111111111112
0.0370886736905,0.6166666666666667
0.0371024994355,0.6222222222222222
0.0371279828018,0.6277777777777778
0.0371731805612,0.6333333333333333
0.0371907644895,0.6388888888888888
0.0372065422078,0.6444444444444445
0.0372073849638,0.65
0.0372126378428,0.6555555555555556
0.0372324233984,0.6611111111111111
0.0372482689246,0.6666666666666666
0.0372562921325,0.6722222222222223
0.0372609959992,0.6777777777777778
0.0372617056424,0.6833333333333333
0.037264420959,0.6888888888888889
0.0372700058407,0.6944444444444444
0.037275931626,0.7
0.0372926992275,0.7055555555555556
0.0373030012009,0.7111111111111111
0.0373467590316,0.7166666666666667
0.0373765128834,0.7222222222222222
0.0374281708775,0.7277777777777777
0.0374384860163,0.7333333333333333
0.0374480704419,0.7388888888888889
0.0374706152847,0.7444444444444445
0.924932031678,0.75
0.924932031678,0.7555555555555555
1.2283020905,0.7611111111111111
1.43446152692,0.7666666666666667
1.84385270807,0.7722222222222223
1.84385270807,0.7777777777777778
1.84986406336,0.7833333333333333
1.86308528212,0.7888888888888889
1.86308528212,0.7944444444444444
2.45660418099,0.8
3.68855967431,0.8055555555555556
3.69961383792,0.8111111111111111
3.72482689246,0.8166666666666667
3.72562921325,0.8222222222222222
4.60531400953,0.8277777777777777
4.62797656526,0.8333333333333334
5.56450692884,0.8388888888888889
5.56976458804,0.8444444444444444
5.59467110754,0.85
5.87933176377,0.8555555555555555
5.87933176377,0.8611111111111112
7.42323557747,0.8666666666666667
7.45242005506,0.8722222222222222
8.29740900158,0.8777777777777778
9.29676517211,0.8833333333333333
9.57359671188,0.8888888888888888
9.60860168652,0.8944444444444445
12.0164854505,0.9
17.0574732396,0.9055555555555556
19.1337355585,0.9111111111111111
21.3094846907,0.9166666666666666
22.8344437569,0.9222222222222223
25.0523017784,0.9277777777777778
43.6183590925,0.9333333333333333
45.5453356072,0.9388888888888889
49.2923971357,0.9444444444444444
53.01366092,0.95
54.7623331663,0.9555555555555556
58.4999844546,0.9611111111111111
62.3042674487,0.9666666666666667
64.0527045318,0.9722222222222222
65.9818259531,0.9777777777777777
67.7655028119,0.9833333333333333
68.9561934038,0.9888888888888889
71.4757527555,0.9944444444444445
74.4899592883,1.0
