Congestion,CDF
0.0,0.005555555555555556
0.0,0.011111111111111112
0.0,0.016666666666666666
0.0,0.022222222222222223
0.0,0.027777777777777776
0.0,0.03333333333333333
0.0,0.03888888888888889
0.0,0.044444444444444446
0.0,0.05
0.0,0.05555555555555555
3.04822199062e-07,0.06111111111111111
3.50226046885e-07,0.06666666666666667
7.8832981416e-07,0.07222222222222222
1.15218988049e-06,0.07777777777777778
1.17897378513e-06,0.08333333333333333
1.55665125197e-06,0.08888888888888889
1.7125224039e-06,0.09444444444444444
2.36024638328e-06,0.1
2.37242301247e-06,0.10555555555555556
2.42721143643e-06,0.1111111111111111
2.47716623273e-06,0.11666666666666667
2.726853944e-06,0.12222222222222222
2.79010266711e-06,0.12777777777777777
3.1156905662e-06,0.13333333333333333
3.19109308212e-06,0.1388888888888889
3.36026166227e-06,0.14444444444444443
3.88551637606e-06,0.15
4.25233741822e-06,0.15555555555555556
4.44029679844e-06,0.16111111111111112
4.61809125857e-06,0.16666666666666666
4.69115894355e-06,0.17222222222222222
4.72883516231e-06,0.17777777777777778
4.88550821668e-06,0.18333333333333332
5.05527031526e-06,0.18888888888888888
5.14060543923e-06,0.19444444444444445
5.19865929368e-06,0.2
5.22750148034e-06,0.20555555555555555
5.28753089804e-06,0.2111111111111111
5.33919964076e-06,0.21666666666666667
5.35091595272e-06,0.2222222222222222
5.52970379998e-06,0.22777777777777777
5.57583742084e-06,0.23333333333333334
5.63984456328e-06,0.2388888888888889
6.10764916319e-06,0.24444444444444444
6.42684402255e-06,0.25
6.97768323481e-06,0.25555555555555554
7.08822517024e-06,0.2611111111111111
7.1902298687e-06,0.26666666666666666
7.43372654339e-06,0.2722222222222222
2.6277660472e-05,0.2777777777777778
5.2555320944e-05,0.2833333333333333
5.76094940244e-05,0.28888888888888886
5.76094940244e-05,0.29444444444444445
5.93105753118e-05,0.3
5.93105753118e-05,0.3055555555555556
8.9792795218e-05,0.3111111111111111
0.000117897378513,0.31666666666666665
0.000118621150624,0.32222222222222224
0.000157935935349,0.3277777777777778
0.000236024638328,0.3333333333333333
0.000245457920415,0.3388888888888889
0.000259932964684,0.34444444444444444
0.000259932964684,0.35
0.000331995969712,0.35555555555555557
0.000505527031526,0.3611111111111111
0.000514060543923,0.36666666666666664
0.000530493010255,0.37222222222222223
0.000571502021304,0.37777777777777777
0.000604654383325,0.38333333333333336
0.000604654383325,0.3888888888888889
0.000689487600259,0.39444444444444443
0.000728662294833,0.4
0.000783507372006,0.40555555555555556
0.000837644137494,0.4111111111111111
0.0010406186268,0.4166666666666667
0.00110025511111,0.4222222222222222
0.00115762476332,0.42777777777777776
0.00142318436002,0.43333333333333335
0.00167090098329,0.4388888888888889
0.0017494296596,0.4444444444444444
0.00216023612891,0.45
0.00244719798308,0.45555555555555555
0.00435388726024,0.46111111111111114
0.00529689423801,0.4666666666666667
0.00554435868093,0.4722222222222222
0.00604026689235,0.4777777777777778
0.00618704308318,0.48333333333333334
0.0065093827867,0.4888888888888889
0.00658067874344,0.49444444444444446
0.00696923038104,0.5
0.00752681412313,0.5055555555555555
0.00757379576104,0.5111111111111111
0.00769806636352,0.5166666666666667
0.00781651690468,0.5222222222222223
0.00809552717139,0.5277777777777778
0.0247863299739,0.5333333333333333
0.0249362619967,0.5388888888888889
0.0271350683889,0.5444444444444444
0.0272310505639,0.55
0.027232211933,0.5555555555555556
0.0272368583451,0.5611111111111111
0.0272433913501,0.5666666666666667
0.0272466880738,0.5722222222222222
0.027253342495,0.5777777777777777
0.0272629951447,0.5833333333333334
0.0272834998573,0.5888888888888889
0.0272838141392,0.5944444444444444
0.0272864871981,0.6
0.0272928595811,0.6055555555555555
0.0273027474094,0.6111111111111112
0.0273047056834,0.6166666666666667
0.0273080000654,0.6222222222222222
0.0273124943595,0.6277777777777778
0.0273317873693,0.6333333333333333
0.027332941478,0.6388888888888888
0.0273365808729,0.6444444444444445
0.0273411026392,0.65
0.0273414062128,0.6555555555555556
0.0273468471984,0.6611111111111111
0.0273479436448,0.6666666666666666
0.0273522370514,0.6722222222222223
0.0273544532994,0.6777777777777778
0.0273559163098,0.6833333333333333
0.027356668948,0.6888888888888889
0.0273581688965,0.6944444444444444
0.0273597814004,0.7
0.0273643826879,0.7055555555555556
0.0273671897062,0.7111111111111111
0.02737911396,0.7166666666666667
0.0273871472256,0.7222222222222222
0.0274013209641,0.7277777777777777
0.0274041138596,0.7333333333333333
0.0274067569683,0.7388888888888889
0.0274127326243,0.7444444444444445
0.682095353481,0.75
0.682095353481,0.7555555555555555
0.908113045003,0.7611111111111111
1.06057739988,0.7666666666666667
1.36233440369,0.7722222222222223
1.36233440369,0.7777777777777778
1.36419070696,0.7833333333333333
1.36779581549,0.7888888888888889
1.36779581549,0.7944444444444444
1.81622609001,0.8
2.7253342495,0.8055555555555556
2.72834998573,0.8111111111111111
2.73522370514,0.8166666666666667
2.73544532994,0.8222222222222222
3.40520040987,0.8277777777777777
3.41138131159,0.8333333333333334
4.09562855149,0.8388888888888889
4.09807055643,0.8444444444444444
4.10486640379,0.85
4.32578153107,0.8555555555555555
4.32578153107,0.8611111111111112
5.4632456455,0.8666666666666667
5.47120184518,0.8722222222222222
6.13149992435,0.8777777777777778
6.83388744608,0.8833333333333333
7.05267309353,0.8888888888888888
7.06221979986,0.8944444444444445
8.86515801163,0.9
12.5324594943,0.9055555555555556
14.1016758179,0.9111111111111111
15.6980227835,0.9166666666666666
16.8303245377,0.9222222222222223
18.4381548799,0.9277777777777778
32.0984509268,0.9333333333333333
33.4836555571,0.9388888888888889
36.2249288195,0.9444444444444444
38.9590694408,0.95
40.2958068362,0.9555555555555556
43.0345215588,0.9611111111111111
45.7893827121,0.9666666666666667
47.127655969,0.9722222222222222
48.502889551,0.9777777777777777
49.858905405,0.9833333333333333
50.9815225484,0.9888888888888889
52.5825912395,0.9944444444444445
55.0762174391,1.0
