Congestion,CDF
0.0,0.005555555555555556
0.0,0.011111111111111112
0.0,0.016666666666666666
0.0,0.022222222222222223
0.0,0.027777777777777776
0.0,0.03333333333333333
0.0,0.03888888888888889
0.0,0.044444444444444446
0.0,0.05
0.0,0.05555555555555555
2.84113190433e-07,0.06111111111111111
3.2643239193e-07,0.06666666666666667
7.34772268239e-07,0.07222222222222222
1.07391241169e-06,0.07777777777777778
1.09887667159e-06,0.08333333333333333
1.45089548907e-06,0.08888888888888889
1.59617706767e-06,0.09444444444444444
2.19989597945e-06,0.1
2.21124535288e-06,0.10555555555555556
2.26231156124e-06,0.1111111111111111
2.30887252891e-06,0.11666666666666667
2.54159695803e-06,0.12222222222222222
2.60054868979e-06,0.12777777777777777
2.90401680025e-06,0.13333333333333333
2.97429662052e-06,0.1388888888888889
3.13197222674e-06,0.14444444444444443
3.62154218911e-06,0.15
3.96344214563e-06,0.15555555555555556
4.13863194268e-06,0.16111111111111112
4.3043474039e-06,0.16666666666666666
4.37245101696e-06,0.17222222222222222
4.40756758901e-06,0.17777777777777778
4.5535965904e-06,0.18333333333333332
4.7118253926e-06,0.18888888888888888
4.79136301947e-06,0.19444444444444445
4.84547281152e-06,0.2
4.87235551788e-06,0.20555555555555555
4.92830665739e-06,0.2111111111111111
4.97646512939e-06,0.21666666666666667
4.98738545863e-06,0.2222222222222222
5.15402681825e-06,0.22777777777777777
5.19702621347e-06,0.23333333333333334
5.25668483906e-06,0.2388888888888889
5.69270773303e-06,0.24444444444444444
5.99021713406e-06,0.25
6.5036334354e-06,0.25555555555555554
6.60666537353e-06,0.2611111111111111
6.70174007743e-06,0.26666666666666666
6.92869407658e-06,0.2722222222222222
2.44924089413e-05,0.2777777777777778
4.89848178826e-05,0.2833333333333333
5.36956205843e-05,0.28888888888888886
5.36956205843e-05,0.29444444444444445
5.5281133822e-05,0.3
5.5281133822e-05,0.3055555555555556
8.36924528653e-05,0.3111111111111111
0.000109887667159,0.31666666666666665
0.000110562267644,0.32222222222222224
0.000147206084774,0.3277777777777778
0.000219989597945,0.3333333333333333
0.000228782001773,0.3388888888888889
0.000242273640576,0.34444444444444444
0.000242273640576,0.35
0.000309440829625,0.35555555555555557
0.00047118253926,0.3611111111111111
0.000479136301947,0.36666666666666664
0.000494452379485,0.37222222222222223
0.000532675320601,0.37777777777777777
0.000563575377661,0.38333333333333336
0.000563575377661,0.3888888888888889
0.000642645196041,0.39444444444444443
0.000679158440462,0.4
0.00073027745313,0.40555555555555556
0.000780736275387,0.4111111111111111
0.000969921085123,0.4166666666666667
0.00102550598634,0.4222222222222222
0.00107897805949,0.42777777777777776
0.00132649606998,0.43333333333333335
0.00155738332287,0.4388888888888889
0.00163057691847,0.4444444444444444
0.00201347402047,0.45
0.00228094026201,0.45555555555555555
0.00405809289513,0.46111111111111114
0.00493703387082,0.4666666666666667
0.00516768607599,0.4722222222222222
0.00562990327848,0.4777777777777778
0.00576670778939,0.48333333333333334
0.00606714838018,0.4888888888888889
0.00613360063265,0.49444444444444446
0.00649575485156,0.5
0.00701545747291,0.5055555555555555
0.0070592472726,0.5111111111111111
0.00717507517968,0.5166666666666667
0.00728547842873,0.5222222222222223
0.0075455332977,0.5277777777777778
0.0457552401651,0.5333333333333333
0.0460044834541,0.5388888888888889
0.0498406387486,0.5444444444444444
0.0499235954065,0.55
0.0499257223008,0.5555555555555556
0.0499462181146,0.5611111111111111
0.0499572109576,0.5666666666666667
0.0499644764104,0.5722222222222222
0.0499821604752,0.5777777777777777
0.0500139770177,0.5833333333333334
0.0500197538584,0.5888888888888889
0.0500203270797,0.5944444444444444
0.0500252275318,0.6
0.0500369095925,0.6055555555555555
0.0500550661378,0.6111111111111112
0.0500586278673,0.6166666666666667
0.0500655114049,0.6222222222222222
0.0500807263969,0.6277777777777778
0.0501082772048,0.6333333333333333
0.0501170677161,0.6388888888888888
0.050119442842,0.6444444444444445
0.0501253703266,0.65
0.0501272149497,0.6555555555555556
0.0501378980308,0.6611111111111111
0.0501458014745,0.6666666666666666
0.0501458656153,0.6722222222222223
0.0501498323978,0.6777777777777778
0.0501525299392,0.6833333333333333
0.0501538959144,0.6888888888888889
0.0501566724039,0.6944444444444444
0.0501596328081,0.7
0.0501680360696,0.7055555555555556
0.0501731852613,0.7111111111111111
0.0501950575075,0.7166666666666667
0.0502098783716,0.7222222222222222
0.0502357660248,0.7277777777777777
0.050240909617,0.7333333333333333
0.0502457218918,0.7388888888888889
0.0502568752626,0.7444444444444445
1.25050817699,0.75
1.25050817699,0.7555555555555555
1.66487393715,0.7611111111111111
1.94520080455,0.7666666666666667
2.49786054788,0.7722222222222223
2.49786054788,0.7777777777777778
2.50101635399,0.7833333333333333
2.50762649696,0.7888888888888889
2.50762649696,0.7944444444444444
3.32974787431,0.8
4.99644764104,0.8055555555555556
5.00197538584,0.8111111111111111
5.01458014745,0.8166666666666667
5.01498323978,0.8222222222222222
6.24286771764,0.8277777777777777
6.25419913624,0.8333333333333334
7.50980483207,0.8388888888888889
7.51313311074,0.8444444444444444
7.52558854316,0.85
7.9305996021,0.8555555555555555
7.9305996021,0.8611111111111112
10.0159533918,0.8666666666666667
10.0305434283,0.8722222222222222
11.2410837652,0.8777777777777778
12.5288003511,0.8833333333333333
12.9299007939,0.8888888888888888
12.9474032091,0.8944444444444445
16.2527905368,0.9
22.9761762519,0.9055555555555556
25.8530726261,0.9111111111111111
28.7797109457,0.9166666666666666
30.8555953792,0.9222222222222223
33.8032875482,0.9277777777777778
58.8471612226,0.9333333333333333
61.3867222893,0.9388888888888889
66.4124098155,0.9444444444444444
71.4251313105,0.95
73.8756516471,0.9555555555555556
78.8966394842,0.9611111111111111
83.9495227041,0.9666666666666667
86.4010511726,0.9722222222222222
88.933586579,0.9777777777777777
91.4091238123,0.9833333333333333
93.5091105955,0.9888888888888889
96.410521514,0.9944444444444445
101.010969859,1.0
