Congestion,CDF
0.0,0.005555555555555556
0.0,0.011111111111111112
0.0,0.016666666666666666
0.0,0.022222222222222223
0.0,0.027777777777777776
0.0,0.03333333333333333
0.0,0.03888888888888889
0.0,0.044444444444444446
0.0,0.05
0.0,0.05555555555555555
3.5478561466e-07,0.06111111111111111
4.07631608513e-07,0.06666666666666667
9.17544977146e-07,0.07222222222222222
1.34104535763e-06,0.07777777777777778
1.37221941287e-06,0.08333333333333333
1.81180200439e-06,0.08888888888888889
1.99322200141e-06,0.09444444444444444
2.74711443727e-06,0.1
2.76128693811e-06,0.10555555555555556
2.82505573424e-06,0.1111111111111111
2.88319862268e-06,0.11666666666666667
3.17381265403e-06,0.12222222222222222
3.2474284772e-06,0.12777777777777777
3.6263834984e-06,0.13333333333333333
3.71414524291e-06,0.1388888888888889
3.91104224999e-06,0.14444444444444443
4.52239147935e-06,0.15
4.94933816929e-06,0.15555555555555556
5.16810597706e-06,0.16111111111111112
5.37504273237e-06,0.16666666666666666
5.46008694373e-06,0.17222222222222222
5.50393867261e-06,0.17777777777777778
5.68629201192e-06,0.18333333333333332
5.88387982107e-06,0.18888888888888888
5.98320222772e-06,0.19444444444444445
6.05077169115e-06,0.2
6.08434140147e-06,0.20555555555555555
6.1542102428e-06,0.2111111111111111
6.21434801065e-06,0.21666666666666667
6.22798474365e-06,0.2222222222222222
6.4360777122e-06,0.22777777777777777
6.48977309621e-06,0.23333333333333334
6.56427165124e-06,0.2388888888888889
7.10875411687e-06,0.24444444444444444
7.480268215e-06,0.25
8.12139549871e-06,0.25555555555555554
8.25005636602e-06,0.2611111111111111
8.36878065761e-06,0.26666666666666666
8.6521888794e-06,0.2722222222222222
3.05848325715e-05,0.2777777777777778
6.11696651431e-05,0.2833333333333333
6.70522678815e-05,0.28888888888888886
6.70522678815e-05,0.29444444444444445
6.90321734526e-05,0.3
6.90321734526e-05,0.3055555555555556
0.000104510734919,0.3111111111111111
0.000137221941287,0.31666666666666665
0.000138064346905,0.32222222222222224
0.00018382321915,0.3277777777777778
0.000274711443727,0.3333333333333333
0.000285690935357,0.3388888888888889
0.000302538584558,0.34444444444444444
0.000302538584558,0.35
0.000386413438856,0.35555555555555557
0.000588387982107,0.3611111111111111
0.000598320222772,0.36666666666666664
0.000617446135143,0.37222222222222223
0.000665176934397,0.37777777777777777
0.00070376330105,0.38333333333333336
0.00070376330105,0.3888888888888889
0.000800378765119,0.39444444444444443
0.000802501533063,0.4
0.000848097352974,0.40555555555555556
0.000911932088357,0.4111111111111111
0.000974942412666,0.4166666666666667
0.00121118645647,0.4222222222222222
0.00128059795868,0.42777777777777776
0.00129880683749,0.43333333333333335
0.00134737107227,0.4388888888888889
0.00165645855026,0.4444444444444444
0.00194477841253,0.45
0.00203617872647,0.45555555555555555
0.00251432049623,0.46111111111111114
0.00284831827634,0.4666666666666667
0.00506753304891,0.4722222222222222
0.00616510832809,0.4777777777777778
0.00645313467512,0.48333333333333334
0.00703032721603,0.4888888888888889
0.00720116149662,0.49444444444444446
0.00757633591041,0.5
0.0076593179895,0.5055555555555555
0.00811155713743,0.5111111111111111
0.00876053444705,0.5166666666666667
0.00881521684661,0.5222222222222223
0.00895985664719,0.5277777777777778
0.00909772242004,0.5333333333333333
0.00942246526776,0.5388888888888889
0.0128687717372,0.5444444444444444
0.0129496822731,0.55
0.012957795424,0.5555555555555556
0.0130360528972,0.5611111111111111
0.0130939508444,0.5666666666666667
0.0131058154984,0.5722222222222222
0.0131732943663,0.5777777777777777
0.0133168375058,0.5833333333333334
0.0133190161532,0.5888888888888889
0.0133377264429,0.5944444444444444
0.0133823285055,0.6
0.0134517510629,0.6055555555555555
0.0134652542497,0.6111111111111112
0.0134921348712,0.6166666666666667
0.0134942874657,0.6222222222222222
0.0135732461085,0.6277777777777778
0.0136548230274,0.6333333333333333
0.0136883949859,0.6388888888888888
0.0137201386665,0.6444444444444445
0.0137265384727,0.65
0.0137313797509,0.6555555555555556
0.0137679240655,0.6611111111111111
0.013798209677,0.6666666666666666
0.0138134916496,0.6722222222222223
0.0138238432651,0.6777777777777778
0.0138284663946,0.6833333333333333
0.01382901194,0.6888888888888889
0.0138397029073,0.6944444444444444
0.0138510202728,0.7
0.013882995878,0.7055555555555556
0.0139026665422,0.7111111111111111
0.0139862162943,0.7166666666666667
0.0140431162118,0.7222222222222222
0.0141416342114,0.7277777777777777
0.0141613517943,0.7333333333333333
0.0141796132602,0.7388888888888889
0.0142228610447,0.7444444444444445
0.332975403831,0.75
0.332975403831,0.7555555555555555
0.434535096572,0.7611111111111111
0.505710531321,0.7666666666666667
0.654697542221,0.7722222222222223
0.654697542221,0.7777777777777778
0.665950807662,0.7833333333333333
0.691192163256,0.7888888888888889
0.691192163256,0.7944444444444444
0.869070193145,0.8
1.31058154984,0.8055555555555556
1.33168375058,0.8111111111111111
1.3798209677,0.8166666666666667
1.38134916496,0.8222222222222222
1.62794363114,0.8277777777777777
1.67120825439,0.8333333333333334
2.02735138949,0.8388888888888889
2.03636726955,0.8444444444444444
2.08391213368,0.85
2.1497538759,0.8555555555555555
2.1497538759,0.8611111111111112
2.70920317927,0.8666666666666667
2.76492299497,0.8722222222222222
2.94527306777,0.8777777777777778
3.42033756028,0.8833333333333333
3.47122565369,0.8888888888888888
3.5380534637,0.8944444444444445
4.31411256636,0.9
6.29619503521,0.9055555555555556
6.916759072,0.9111111111111111
7.72725513442,0.9166666666666666
8.25053171628,0.9222222222222223
9.14141855556,0.9277777777777778
15.9296279455,0.9333333333333333
16.7428142902,0.9388888888888889
18.1651003947,0.9444444444444444
19.5382383698,0.95
20.0108449914,0.9555555555555556
21.4151566126,0.9611111111111111
22.9484363987,0.9666666666666667
23.4192829014,0.9722222222222222
24.2353135725,0.9777777777777777
24.315351449,0.9833333333333333
24.7766075122,0.9888888888888889
26.1258209994,0.9944444444444445
26.2557016831,1.0
