Congestion,CDF
0.0,0.005555555555555556
0.0,0.011111111111111112
0.0,0.016666666666666666
0.0,0.022222222222222223
0.0,0.027777777777777776
0.0,0.03333333333333333
0.0,0.03888888888888889
0.0,0.044444444444444446
0.0,0.05
0.0,0.05555555555555555
2.86026601043e-07,0.06111111111111111
3.28630808699e-07,0.06666666666666667
7.3972072224e-07,0.07222222222222222
1.08114486506e-06,0.07777777777777778
1.10627725119e-06,0.08333333333333333
1.46066680176e-06,0.08888888888888889
1.60692680489e-06,0.09444444444444444
2.21471156862e-06,0.1
2.22613737642e-06,0.10555555555555556
2.2775474992e-06,0.1111111111111111
2.32442203996e-06,0.11666666666666667
2.55871379297e-06,0.12222222222222222
2.61806254561e-06,0.12777777777777777
2.92357441583e-06,0.13333333333333333
2.99432754799e-06,0.1388888888888889
3.15306504851e-06,0.14444444444444443
3.64593210652e-06,0.15
3.99013464886e-06,0.15555555555555556
4.16650429263e-06,0.16111111111111112
4.33333579399e-06,0.16666666666666666
4.40189806288e-06,0.17222222222222222
4.43725113371e-06,0.17777777777777778
4.58426359328e-06,0.18333333333333332
4.74355801538e-06,0.18888888888888888
4.82363130248e-06,0.19444444444444445
4.87810550651e-06,0.2
4.90516925922e-06,0.20555555555555555
4.96149721159e-06,0.2111111111111111
5.00998001535e-06,0.21666666666666667
5.02097388948e-06,0.2222222222222222
5.18873752486e-06,0.22777777777777777
5.23202650712e-06,0.23333333333333334
5.2920869143e-06,0.2388888888888889
5.73104628169e-06,0.24444444444444444
6.03055931248e-06,0.25
6.54743330685e-06,0.25555555555555554
6.65115913182e-06,0.2611111111111111
6.74687413316e-06,0.26666666666666666
6.97535659422e-06,0.2722222222222222
2.4657357408e-05,0.2777777777777778
4.9314714816e-05,0.2833333333333333
5.4057243253e-05,0.28888888888888886
5.4057243253e-05,0.29444444444444445
5.56534344104e-05,0.3
5.56534344104e-05,0.3055555555555556
8.42560945147e-05,0.3111111111111111
0.000110627725119,0.31666666666666665
0.000111306868821,0.32222222222222224
0.000148197470228,0.3277777777777778
0.000221471156862,0.3333333333333333
0.000230322774691,0.3388888888888889
0.000243905275326,0.34444444444444444
0.000243905275326,0.35
0.000311524813708,0.35555555555555557
0.000474355801538,0.3611111111111111
0.000482363130248,0.36666666666666664
0.000497782356624,0.37222222222222223
0.000536262716908,0.37777777777777777
0.000567370875876,0.38333333333333336
0.000567370875876,0.3888888888888889
0.000646973203954,0.39444444444444443
0.000683732353288,0.4
0.000735195636002,0.40555555555555556
0.000785994282137,0.4111111111111111
0.000976453190486,0.4166666666666667
0.00103241243807,0.4222222222222222
0.00108624462836,0.42777777777777776
0.00133542959275,0.43333333333333335
0.00156787179674,0.4388888888888889
0.00164155832757,0.4444444444444444
0.00202703411794,0.45
0.00229630165826,0.45555555555555555
0.0040854228406,0.46111111111111114
0.00497028319999,0.4666666666666667
0.00520248877329,0.4722222222222222
0.00566781885941,0.4777777777777778
0.00580554470454,0.48333333333333334
0.0061080086657,0.4888888888888889
0.00617490845264,0.49444444444444446
0.0065395016633,0.5
0.00706270431401,0.5055555555555555
0.00710678902386,0.5111111111111111
0.0072233969945,0.5166666666666667
0.00733454377378,0.5222222222222223
0.00759635002834,0.5277777777777778
0.0414415935429,0.5333333333333333
0.0417298559696,0.5388888888888889
0.0462798898117,0.5444444444444444
0.0463454747807,0.55
0.0463481809902,0.5555555555555556
0.046374266642,0.5611111111111111
0.0463898984733,0.5666666666666667
0.0463975092284,0.5722222222222222
0.0464200121421,0.5777777777777777
0.0464678587277,0.5833333333333334
0.0464685873126,0.5888888888888889
0.0464748242007,0.5944444444444444
0.046489692068,0.6
0.046494787405,0.6055555555555555
0.0465128098437,0.6111111111111112
0.0465173336462,0.6166666666666667
0.0465263745244,0.6222222222222222
0.0465481989671,0.6277777777777778
0.0465805235748,0.6333333333333333
0.0465917122907,0.6388888888888888
0.0465977526345,0.6444444444444445
0.0466022834097,0.65
0.0466050586027,0.6555555555555556
0.046618223131,0.6611111111111111
0.0466282925972,0.6666666666666666
0.0466318600971,0.6722222222222223
0.0466334123255,0.6777777777777778
0.0466368505855,0.6833333333333333
0.0466385845629,0.6888888888888889
0.0466421269777,0.6944444444444444
0.0466458961222,0.7
0.0466565805672,0.7055555555555556
0.046663135063,0.7111111111111111
0.046690976105,0.7166666666666667
0.0467098696143,0.7222222222222222
0.0467427855301,0.7277777777777777
0.0467493395446,0.7333333333333333
0.0467554533145,0.7388888888888889
0.0467697134729,0.7444444444444445
1.16171468282,0.75
1.16171468282,0.7555555555555555
1.54580888807,0.7611111111111111
1.8060175784,0.7666666666666667
2.31949492366,0.7722222222222223
2.31949492366,0.7777777777777778
2.32342936563,0.7833333333333333
2.33184252928,0.7888888888888889
2.33184252928,0.7944444444444444
3.09161777613,0.8
4.63975092284,0.8055555555555556
4.64678587277,0.8111111111111111
4.66282925972,0.8166666666666667
4.66334123255,0.8222222222222222
5.79626216089,0.8277777777777777
5.81068388961,0.8333333333333334
6.97927018712,0.8388888888888889
6.98312351364,0.8444444444444444
6.99897469709,0.85
7.37116291892,0.8555555555555555
7.37116291892,0.8611111111111112
9.30884853335,0.8666666666666667
9.32741887194,0.8722222222222222
10.4382633751,0.8777777777777778
11.6473362114,0.8833333333333333
12.0145451352,0.8888888888888888
12.0368209756,0.8944444444444445
15.0974346042,0.9
21.3619845213,0.9055555555555556
24.0205261531,0.9111111111111111
26.7423765125,0.9166666666666666
28.6680085732,0.9222222222222223
31.4166550655,0.9277777777777778
54.6938515507,0.9333333333333333
57.0663441033,0.9388888888888889
61.7433154506,0.9444444444444444
66.4038213109,0.95
68.6629284251,0.9555555555555556
73.3339153865,0.9611111111111111
78.0462775077,0.9666666666666667
80.3060477626,0.9722222222222222
82.6742664889,0.9777777777777777
84.9608676593,0.9833333333333333
86.8184258432,0.9888888888888889
89.6103463998,0.9944444444444445
93.7833319968,1.0
