Congestion,CDF
0.0,0.005555555555555556
0.0,0.011111111111111112
0.0,0.016666666666666666
0.0,0.022222222222222223
0.0,0.027777777777777776
0.0,0.03333333333333333
0.0,0.03888888888888889
0.0,0.044444444444444446
0.0,0.05
0.0,0.05555555555555555
3.04748218685e-07,0.06111111111111111
3.5014104699e-07,0.06666666666666667
7.88138486438e-07,0.07222222222222222
1.15191024389e-06,0.07777777777777778
1.17868764808e-06,0.08333333333333333
1.55627345256e-06,0.08888888888888889
1.71210677455e-06,0.09444444444444444
2.35967355126e-06,0.1
2.37184722518e-06,0.10555555555555556
2.42662235198e-06,0.1111111111111111
2.47656502425e-06,0.11666666666666667
2.72619213629e-06,0.12222222222222222
2.78942550893e-06,0.12777777777777777
3.11493438781e-06,0.13333333333333333
3.19031860352e-06,0.1388888888888889
3.35944612644e-06,0.14444444444444443
3.88457336086e-06,0.15
4.25130537552e-06,0.15555555555555556
4.43921913799e-06,0.16111111111111112
4.61697044738e-06,0.16666666666666666
4.69002039882e-06,0.17222222222222222
4.72768747356e-06,0.17777777777777778
4.88432250337e-06,0.18333333333333332
5.05404340067e-06,0.18888888888888888
5.1393578138e-06,0.19444444444444445
5.19739757857e-06,0.2
5.22623276523e-06,0.20555555555555555
5.28624761379e-06,0.2111111111111111
5.3379038165e-06,0.21666666666666667
5.34961728491e-06,0.2222222222222222
5.52836174034e-06,0.22777777777777777
5.57448416456e-06,0.23333333333333334
5.63847577246e-06,0.2388888888888889
6.10616683616e-06,0.24444444444444444
6.4252842269e-06,0.25
6.97598975042e-06,0.25555555555555554
7.08650485731e-06,0.2611111111111111
7.18848479923e-06,0.26666666666666666
7.43192237725e-06,0.2722222222222222
2.62712828813e-05,0.2777777777777778
5.25425657625e-05,0.2833333333333333
5.75955121947e-05,0.28888888888888886
5.75955121947e-05,0.29444444444444445
5.92961806295e-05,0.3
5.92961806295e-05,0.3055555555555556
8.9771002498e-05,0.3111111111111111
0.000117868764808,0.31666666666666665
0.000118592361259,0.32222222222222224
0.000157897604282,0.3277777777777778
0.000235967355126,0.3333333333333333
0.000245398347754,0.3388888888888889
0.000259869878929,0.34444444444444444
0.000259869878929,0.35
0.000331915394258,0.35555555555555557
0.000505404340067,0.3611111111111111
0.00051393578138,0.36666666666666664
0.000530364259551,0.37222222222222223
0.000571363317709,0.37777777777777777
0.000604507633648,0.38333333333333336
0.000604507633648,0.3888888888888889
0.000689320261553,0.39444444444444443
0.000728485448424,0.4
0.000783317214691,0.40555555555555556
0.000837440841182,0.4111111111111111
0.00104036606856,0.4166666666666667
0.00109998807909,0.4222222222222222
0.00115734380768,0.42777777777777776
0.00142283895304,0.43333333333333335
0.00167049545546,0.4388888888888889
0.00174900507285,0.4444444444444444
0.0021597118394,0.45
0.0024466040479,0.45555555555555555
0.00435283057138,0.46111111111111114
0.00529560868127,0.4666666666666667
0.00554301306455,0.4722222222222222
0.006038800919,0.4777777777777778
0.00618554148724,0.48333333333333334
0.00650780295888,0.4888888888888889
0.00657908161208,0.49444444444444446
0.00696753894816,0.5
0.00752498736462,0.5055555555555555
0.00757195760008,0.5111111111111111
0.00769619804207,0.5166666666666667
0.00781461983528,0.5222222222222223
0.00809356238617,0.5277777777777778
0.0177691400549,0.5333333333333333
0.0182740053721,0.5388888888888889
0.0272477540032,0.5444444444444444
0.0272621647764,0.55
0.0272679606667,0.5555555555555556
0.0273238587878,0.5611111111111111
0.0273641546222,0.5666666666666667
0.0273736842574,0.5722222222222222
0.0274218876989,0.5777777777777777
0.0275244180307,0.5833333333333334
0.0275259752216,0.5888888888888889
0.0275393397681,0.5944444444444444
0.0275711986037,0.6
0.0276207762744,0.6055555555555555
0.027630431134,0.6111111111111112
0.0276509628669,0.6166666666666667
0.0276896695898,0.6222222222222222
0.027707302389,0.6277777777777778
0.0277658375477,0.6333333333333333
0.0277898166883,0.6388888888888888
0.0278124865127,0.6444444444444445
0.0278151848149,0.65
0.0278202016855,0.6555555555555556
0.0278466236657,0.6611111111111111
0.0278682452513,0.6666666666666666
0.0278791719396,0.6722222222222223
0.0278865606991,0.6777777777777778
0.0278895384839,0.6833333333333333
0.0278902573549,0.6888888888888889
0.0278978847022,0.6944444444444444
0.0279059671279,0.7
0.0279288178878,0.7055555555555556
0.0279428673388,0.7111111111111111
0.0280025419573,0.7166666666666667
0.0280431559257,0.7222222222222222
0.0281135562242,0.7277777777777777
0.0281276324765,0.7333333333333333
0.0281406875692,0.7388888888888889
0.0281715166829,0.7444444444444445
0.68814938054,0.75
0.68814938054,0.7555555555555555
0.910795292927,0.7611111111111111
1.06230323665,0.7666666666666667
1.36820773111,0.7722222222222223
1.36820773111,0.7777777777777778
1.37629876108,0.7833333333333333
1.39432803496,0.7888888888888889
1.39432803496,0.7944444444444444
1.82159058585,0.8
2.73736842574,0.8055555555555556
2.75244180307,0.8111111111111111
2.78682452513,0.8166666666666667
2.78791719396,0.8222222222222222
3.41436585818,0.8277777777777777
3.44526924091,0.8333333333333334
4.1497262126,0.8388888888888889
4.1564056624,0.8444444444444444
4.190367518,0.85
4.38750060863,0.8555555555555555
4.38750060863,0.8611111111111112
5.53762262147,0.8666666666666667
5.57742123792,0.8722222222222222
6.15655462807,0.8777777777777778
6.94619413262,0.8833333333333333
7.13264828861,0.8888888888888888
7.18038239741,0.8944444444444445
8.9355362969,0.9
12.7529619579,0.9055555555555556
14.2469449639,0.9111111111111111
15.8765928688,0.9166666666666666
17.0008789407,0.9222222222222223
18.6879484912,0.9277777777777778
32.5428666341,0.9333333333333333
34.0243271094,0.9388888888888889
36.8414787777,0.9444444444444444
39.6234989463,0.95
40.8617379069,0.9555555555555556
43.6660534995,0.9611111111111111
46.5621790073,0.9666666666666667
47.7993575173,0.9722222222222222
49.2869544076,0.9777777777777777
50.5700877562,0.9833333333333333
51.0638684131,0.9888888888888889
53.3390547152,0.9944444444444445
55.1664552524,1.0
