Congestion,CDF
0.0,0.005555555555555556
0.0,0.011111111111111112
0.0,0.016666666666666666
0.0,0.022222222222222223
0.0,0.027777777777777776
0.0,0.03333333333333333
0.0,0.03888888888888889
0.0,0.044444444444444446
0.0,0.05
0.0,0.05555555555555555
3.13923001546e-07,0.06111111111111111
3.60682431254e-07,0.06666666666666667
8.11866269028e-07,0.07222222222222222
1.18658977839e-06,0.07777777777777778
1.21417334601e-06,0.08333333333333333
1.60312678959e-06,0.08888888888888889
1.76365164644e-06,0.09444444444444444
2.43071413863e-06,0.1
2.4432543145e-06,0.10555555555555556
2.4996785072e-06,0.1111111111111111
2.55112475896e-06,0.11666666666666667
2.80826717186e-06,0.12222222222222222
2.87340425526e-06,0.12777777777777777
3.20871293968e-06,0.13333333333333333
3.28636668076e-06,0.1388888888888889
3.46058597519e-06,0.14444444444444443
4.00152274697e-06,0.15
4.37929563536e-06,0.15555555555555556
4.57286674991e-06,0.16111111111111112
4.75596945947e-06,0.16666666666666666
4.83121866065e-06,0.17222222222222222
4.87001974442e-06,0.17777777777777778
5.03137044539e-06,0.18333333333333332
5.2062009784e-06,0.18888888888888888
5.29408387648e-06,0.19444444444444445
5.3538709927e-06,0.2
5.3835742946e-06,0.20555555555555555
5.44539595669e-06,0.2111111111111111
5.49860732663e-06,0.21666666666666667
5.51067344199e-06,0.2222222222222222
5.69479919734e-06,0.22777777777777777
5.74231018827e-06,0.23333333333333334
5.80822833444e-06,0.2388888888888889
6.28999975593e-06,0.24444444444444444
6.61872452938e-06,0.25
7.186009653e-06,0.25555555555555554
7.29985193967e-06,0.2611111111111111
7.40490210076e-06,0.26666666666666666
7.65566863686e-06,0.2722222222222222
2.70622089676e-05,0.2777777777777778
5.41244179352e-05,0.2833333333333333
5.93294889196e-05,0.28888888888888886
5.93294889196e-05,0.29444444444444445
6.10813578624e-05,0.3
6.10813578624e-05,0.3055555555555556
9.2473658017e-05,0.3111111111111111
0.000121417334601,0.31666666666666665
0.000122162715725,0.32222222222222224
0.00016265128665,0.3277777777777778
0.000243071413863,0.3333333333333333
0.000252786336976,0.3388888888888889
0.000267693549635,0.34444444444444444
0.000267693549635,0.35
0.000341908075048,0.35555555555555557
0.00052062009784,0.3611111111111111
0.000529408387648,0.36666666666666664
0.000546331463362,0.37222222222222223
0.000588564843603,0.37777777777777777
0.000622707005906,0.38333333333333336
0.000622707005906,0.3888888888888889
0.000710073011967,0.39444444444444443
0.000750417310194,0.4
0.000806899847552,0.40555555555555556
0.0008626529258,0.4111111111111111
0.00107168744204,0.4166666666666667
0.00113310443927,0.4222222222222222
0.00119218692564,0.42777777777777776
0.00146567509658,0.43333333333333335
0.00172078757248,0.4388888888888889
0.00180166080891,0.4444444444444444
0.00222473235783,0.45
0.00252026177421,0.45555555555555555
0.00448387735977,0.46111111111111114
0.00545503884949,0.4666666666666667
0.00570989161591,0.4722222222222222
0.00622060571317,0.4777777777777778
0.00637176406885,0.48333333333333334
0.00670372757924,0.4888888888888889
0.00677715215528,0.49444444444444446
0.00717730442998,0.5
0.00775153544881,0.5055555555555555
0.00779991977526,0.5111111111111111
0.00792790061345,0.5166666666666667
0.00804988762598,0.5222222222222223
0.00833722805151,0.5277777777777778
0.0207250135874,0.5333333333333333
0.0208459034122,0.5388888888888889
0.0226006931027,0.5444444444444444
0.022687211199,0.55
0.0226925415954,0.5555555555555556
0.0226935098594,0.5611111111111111
0.0227028259972,0.5666666666666667
0.0227046229662,0.5722222222222222
0.0227111157125,0.5777777777777777
0.0227191620786,0.5833333333333334
0.0227362490571,0.5888888888888889
0.0227365115511,0.5944444444444444
0.0227387391313,0.6
0.0227440495789,0.6055555555555555
0.0227522836643,0.6111111111111112
0.0227539212467,0.6166666666666667
0.0227565030792,0.6222222222222222
0.022759028843,0.6277777777777778
0.0227757187819,0.6333333333333333
0.0227764894022,0.6388888888888888
0.0227804835043,0.6444444444444445
0.0227842491067,0.65
0.0227842526233,0.6555555555555556
0.0227872744897,0.6611111111111111
0.0227899527676,0.6666666666666666
0.0227935241679,0.6722222222222223
0.0227953774798,0.6777777777777778
0.0227965935842,0.6833333333333333
0.0227972235549,0.6888888888888889
0.0227984681971,0.6944444444444444
0.0227998111214,0.7
0.0228036520116,0.7055555555555556
0.0228059905952,0.7111111111111111
0.0228159252516,0.7166666666666667
0.0228226011567,0.7222222222222222
0.0228344319527,0.7277777777777777
0.0228367547192,0.7333333333333333
0.0228389639836,0.7388888888888889
0.0228439043906,0.7444444444444445
0.568412788779,0.75
0.568412788779,0.7555555555555555
0.756760866573,0.7611111111111111
0.883921528504,0.7666666666666667
1.13523114831,0.7722222222222223
1.13523114831,0.7777777777777778
1.13682557756,0.7833333333333333
1.13982967921,0.7888888888888889
1.13982967921,0.7944444444444444
1.51352173315,0.8
2.27111157125,0.8055555555555556
2.27362490571,0.8111111111111111
2.27935241679,0.8166666666666667
2.27953774798,0.8222222222222222
2.83766694832,0.8277777777777777
2.84281774666,0.8333333333333334
3.4128030265,0.8388888888888889
3.41505804564,0.8444444444444444
3.42072197591,0.85
3.60481791686,0.8555555555555555
3.60481791686,0.8611111111111112
4.55270409641,0.8666666666666667
4.55933352893,0.8722222222222222
5.10958315618,0.8777777777777778
5.69490486535,0.8833333333333333
5.87722755346,0.8888888888888888
5.88518311802,0.8944444444444445
7.38763150661,0.9
10.4437161428,0.9055555555555556
11.7513964563,0.9111111111111111
13.081685151,0.9166666666666666
14.0252703694,0.9222222222222223
15.3651283463,0.9277777777777778
26.7487088677,0.9333333333333333
27.9030422125,0.9388888888888889
30.1874326516,0.9444444444444444
32.4658579139,0.95
33.5798378747,0.9555555555555556
35.8620979904,0.9611111111111111
38.1573883894,0.9666666666666667
39.2729794466,0.9722222222222222
40.4174576996,0.9777777777777777
41.5488823309,0.9833333333333333
42.4899590584,0.9888888888888889
43.8176034508,0.9944444444444445
45.902193792,1.0
