Congestion,CDF
0.0,0.005555555555555556
0.0,0.011111111111111112
0.0,0.016666666666666666
0.0,0.022222222222222223
0.0,0.027777777777777776
0.0,0.03333333333333333
0.0,0.03888888888888889
0.0,0.044444444444444446
0.0,0.05
0.0,0.05555555555555555
2.89971069822e-07,0.06111111111111111
3.33162813625e-07,0.06666666666666667
7.49921889835e-07,0.07222222222222222
1.0960544649e-06,0.07777777777777778
1.12153344087e-06,0.08333333333333333
1.480810224e-06,0.08888888888888889
1.62908723538e-06,0.09444444444444444
2.24525369514e-06,0.1
2.25683707129e-06,0.10555555555555556
2.30895616878e-06,0.1111111111111111
2.35647713599e-06,0.11666666666666667
2.59399990494e-06,0.12222222222222222
2.65416711048e-06,0.12777777777777777
2.96389216237e-06,0.13333333333333333
3.03562102029e-06,0.1388888888888889
3.19654760082e-06,0.14444444444444443
3.69621157463e-06,0.15
4.04516086492e-06,0.15555555555555556
4.22396274594e-06,0.16111111111111112
4.39309494815e-06,0.16666666666666666
4.46260272956e-06,0.17222222222222222
4.49844333925e-06,0.17777777777777778
4.64748318388e-06,0.18333333333333332
4.80897436625e-06,0.18888888888888888
4.89015190932e-06,0.19444444444444445
4.94537734347e-06,0.2
4.97281432065e-06,0.20555555555555555
5.02991906738e-06,0.2111111111111111
5.07907047645e-06,0.21666666666666667
5.09021596233e-06,0.2222222222222222
5.26029315323e-06,0.22777777777777777
5.30417911507e-06,0.23333333333333334
5.36506778927e-06,0.2388888888888889
5.81008065488e-06,0.24444444444444444
6.11372413995e-06,0.25
6.63772611936e-06,0.25555555555555554
6.74288238218e-06,0.2611111111111111
6.83991734759e-06,0.26666666666666666
7.07155071115e-06,0.2722222222222222
2.49973963278e-05,0.2777777777777778
4.99947926557e-05,0.2833333333333333
5.48027232451e-05,0.28888888888888886
5.48027232451e-05,0.29444444444444445
5.64209267824e-05,0.3
5.64209267824e-05,0.3055555555555556
8.54180337645e-05,0.3111111111111111
0.000112153344087,0.31666666666666665
0.000112841853565,0.32222222222222224
0.000150241197253,0.3277777777777778
0.000224525369514,0.3333333333333333
0.000233499056165,0.3388888888888889
0.000247268867173,0.34444444444444444
0.000247268867173,0.35
0.000315820917276,0.35555555555555557
0.000480897436625,0.3611111111111111
0.000489015190932,0.36666666666666664
0.00050464705717,0.37222222222222223
0.00054365808341,0.37777777777777777
0.000575195241504,0.38333333333333336
0.000575195241504,0.3888888888888889
0.000655895330758,0.39444444444444443
0.000693161409575,0.4
0.000745334400096,0.40555555555555556
0.000796833588323,0.4111111111111111
0.000989919032859,0.4166666666666667
0.00104664999015,0.4222222222222222
0.00110122455683,0.42777777777777776
0.00135384592296,0.43333333333333335
0.00158949363656,0.4388888888888889
0.00166419634637,0.4444444444444444
0.00205498806615,0.45
0.00232796895831,0.45555555555555555
0.00414176313477,0.46111111111111114
0.00503882621953,0.4666666666666667
0.00527423403916,0.4722222222222222
0.00574598129065,0.4777777777777778
0.00588560645316,0.48333333333333334
0.00619224156361,0.4888888888888889
0.00626006393649,0.49444444444444446
0.00662968509395,0.5
0.00716010300546,0.5055555555555555
0.00720479566842,0.5111111111111111
0.00732301172899,0.5166666666666667
0.0074356912853,0.5222222222222223
0.00770110799635,0.5277777777777778
0.0341646784037,0.5333333333333333
0.0345210567868,0.5388888888888889
0.0403415819672,0.5444444444444444
0.0403819404044,0.55
0.0403856121391,0.5555555555555556
0.0404210141875,0.5611111111111111
0.0404443735679,0.5666666666666667
0.0404525639251,0.5722222222222222
0.0404830982536,0.5777777777777777
0.0405480335099,0.5833333333333334
0.0405490210342,0.5888888888888889
0.0405574853155,0.5944444444444444
0.0405776628604,0.6
0.0406090493534,0.6055555555555555
0.0406151766112,0.6111111111111112
0.04062624321,0.6166666666666667
0.0406278120959,0.6222222222222222
0.0406605959116,0.6277777777777778
0.0407009341913,0.6333333333333333
0.0407161199149,0.6388888888888888
0.040728254831,0.6444444444444445
0.0407304718812,0.65
0.0407347965418,0.6555555555555556
0.0407520982981,0.6611111111111111
0.0407657778018,0.6666666666666666
0.0407727122049,0.6722222222222223
0.0407751109848,0.6777777777777778
0.0407773849961,0.6833333333333333
0.0407797323105,0.6888888888888889
0.0407845512671,0.6944444444444444
0.0407896683121,0.7
0.0408041547299,0.7055555555555556
0.0408130513992,0.7111111111111111
0.0408508404342,0.7166666666666667
0.0408765216689,0.7222222222222222
0.0409211513722,0.7277777777777777
0.0409300560899,0.7333333333333333
0.0409383390191,0.7388888888888889
0.0409577771261,0.7444444444444445
1.01372552585,0.75
1.01372552585,0.7555555555555555
1.34736713958,0.7611111111111111
1.57386650491,0.7666666666666667
2.0222186784,0.7722222222222223
2.0222186784,0.7777777777777778
2.02745105171,0.7833333333333333
2.0388692498,0.7888888888888889
2.0388692498,0.7944444444444444
2.69473427917,0.8
4.04525639251,0.8055555555555556
4.05480335099,0.8111111111111111
4.07657778018,0.8166666666666667
4.07727122049,0.8222222222222222
5.05191956629,0.8277777777777777
5.07149181189,0.8333333333333334
6.0950441615,0.8388888888888889
6.09977418514,0.8444444444444444
6.12128495362,0.85
6.43876844695,0.8555555555555555
6.43876844695,0.8611111111111112
8.13034043593,0.8666666666666667
8.1555446114,0.8722222222222222
9.10022939165,0.8777777777777778
10.1782293119,0.8833333333333333
10.4889523706,0.8888888888888888
10.5191839199,0.8944444444444445
13.1718413831,0.9
18.6716649702,0.9055555555555556
20.9662820315,0.9111111111111111
23.3468191239,0.9166666666666666
25.022030563,0.9222222222222223
27.4389342611,0.9277777777777778
47.7716687643,0.9333333333333333
49.8657137933,0.9388888888888889
53.9614915059,0.9444444444444444
58.0349711601,0.95
59.9750563884,0.9555555555555556
64.0627085553,0.9611111111111111
68.2075264201,0.9666666666666667
70.1477084432,0.9722222222222222
72.2416846168,0.9777777777777777
74.2137680344,0.9833333333333333
75.6581524572,0.9888888888888889
78.2763923554,0.9944444444444445
81.7284980341,1.0
