Congestion,CDF
0.0,0.005555555555555556
0.0,0.011111111111111112
0.0,0.016666666666666666
0.0,0.022222222222222223
0.0,0.027777777777777776
0.0,0.03333333333333333
0.0,0.03888888888888889
0.0,0.044444444444444446
0.0,0.05
0.0,0.05555555555555555
4.06666767032e-07,0.06111111111111111
4.67240557464e-07,0.06666666666666667
1.05171978244e-06,0.07222222222222222
1.5371496405e-06,0.07777777777777778
1.5728823527e-06,0.08333333333333333
2.07674616213e-06,0.08888888888888889
2.28469564096e-06,0.09444444444444444
3.14883157802e-06,0.1
3.16507655769e-06,0.10555555555555556
3.23817041801e-06,0.1111111111111111
3.30481568064e-06,0.11666666666666667
3.63792689964e-06,0.12222222222222222
3.72230774141e-06,0.12777777777777777
4.15667826533e-06,0.13333333333333333
4.25727362048e-06,0.1388888888888889
4.48296334972e-06,0.14444444444444443
5.1837116449e-06,0.15
5.67309177454e-06,0.15555555555555556
5.92385052415e-06,0.16111111111111112
6.1610481381e-06,0.16666666666666666
6.25852856871e-06,0.17222222222222222
6.30879284121e-06,0.17777777777777778
6.51781214721e-06,0.18333333333333332
6.74429369615e-06,0.18888888888888888
6.85814025682e-06,0.19444444444444445
6.93559056515e-06,0.2
6.97406925482e-06,0.20555555555555555
7.05415518458e-06,0.2111111111111111
7.12308704264e-06,0.21666666666666667
7.13871790785e-06,0.2222222222222222
7.37724081088e-06,0.22777777777777777
7.43878819983e-06,0.23333333333333334
7.52418085746e-06,0.2388888888888889
8.14828430149e-06,0.24444444444444444
8.5741257983e-06,0.25
9.30900666423e-06,0.25555555555555554
9.45648191912e-06,0.2611111111111111
9.59256754896e-06,0.26666666666666666
9.91741923556e-06,0.2722222222222222
3.50573260812e-05,0.2777777777777778
7.01146521624e-05,0.2833333333333333
7.50334620112e-05,0.28888888888888886
7.68574820251e-05,0.29444444444444445
7.68574820251e-05,0.3
7.91269139422e-05,0.3055555555555556
7.91269139422e-05,0.3111111111111111
0.000119793590645,0.31666666666666665
0.00015728823527,0.32222222222222224
0.000158253827884,0.3277777777777778
0.000210704129897,0.3333333333333333
0.000314883157802,0.3388888888888889
0.000327468206859,0.34444444444444444
0.000346779528257,0.35
0.000346779528257,0.35555555555555557
0.000442919603907,0.3611111111111111
0.000674429369615,0.36666666666666664
0.000685814025682,0.37222222222222223
0.000701821911988,0.37777777777777777
0.000707736766146,0.38333333333333336
0.00076244735479,0.3888888888888889
0.000806676298495,0.39444444444444443
0.000806676298495,0.4
0.000919853259274,0.40555555555555556
0.000972116665419,0.4111111111111111
0.00104528610744,0.4166666666666667
0.00111751058278,0.4222222222222222
0.0013883011604,0.42777777777777776
0.00146786287325,0.43333333333333335
0.00154440037958,0.4388888888888889
0.00189868646168,0.4444444444444444
0.00222916802975,0.45
0.00233393403108,0.45555555555555555
0.00288199561999,0.46111111111111114
0.0032648346975,0.4666666666666667
0.00580857057522,0.4722222222222222
0.00706664692306,0.4777777777777778
0.00739679205444,0.48333333333333334
0.00803410652975,0.4888888888888889
0.00805838884662,0.49444444444444446
0.00817885476857,0.5
0.00818774034158,0.5055555555555555
0.00825420463427,0.5111111111111111
0.00827345093235,0.5166666666666667
0.00833588857295,0.5222222222222223
0.00834985893919,0.5277777777777778
0.00842376325115,0.5333333333333333
0.00858097729928,0.5388888888888889
0.00858336312896,0.5444444444444444
0.0086038553258,0.55
0.00865270513902,0.5555555555555556
0.00868424170349,0.5611111111111111
0.00871931294891,0.5666666666666667
0.00872874231936,0.5722222222222222
0.00874352861992,0.5777777777777777
0.00877521694606,0.5833333333333334
0.00877935845127,0.5888888888888889
0.00885893165791,0.5944444444444444
0.00895115151999,0.6
0.00898792107483,0.6055555555555555
0.00902268865958,0.6111111111111112
0.0090276965343,0.6166666666666667
0.009034834704,0.6222222222222222
0.00907502418711,0.6277777777777778
0.00910819718286,0.6333333333333333
0.00912493154209,0.6388888888888888
0.0091362705933,0.6444444444444445
0.00913767516547,0.65
0.00914193007654,0.6555555555555556
0.00915364174335,0.6611111111111111
0.00916603728965,0.6666666666666666
0.00920105520383,0.6722222222222223
0.00922259957475,0.6777777777777778
0.00929772961576,0.6833333333333333
0.00931410739027,0.6888888888888889
0.00937642466277,0.6944444444444444
0.00948432665518,0.7
0.00950592332868,0.7055555555555556
0.00952592182276,0.7111111111111111
0.00957328852663,0.7166666666666667
0.0100416084357,0.7222222222222222
0.0101042871739,0.7277777777777777
0.0102700779998,0.7333333333333333
0.0104281042157,0.7388888888888889
0.0108003349898,0.7444444444444445
0.214584078224,0.75
0.214584078224,0.7555555555555555
0.275781697745,0.7611111111111111
0.330078799533,0.7666666666666667
0.416794428647,0.7722222222222223
0.416794428647,0.7777777777777778
0.429168156448,0.7833333333333333
0.456813529665,0.7888888888888889
0.456813529665,0.7944444444444444
0.55156339549,0.8
0.834985893919,0.8055555555555556
0.858097729928,0.8111111111111111
0.910819718286,0.8166666666666667
0.912493154209,0.8222222222222222
1.03246955508,0.8277777777777777
1.07985459213,0.8333333333333334
1.31956408208,0.8388888888888889
1.3296877616,0.8444444444444444
1.38176033872,0.85
1.4038382981,0.8555555555555555
1.4038382981,0.8611111111111112
1.76639663295,0.8666666666666667
1.82742344725,0.8722222222222222
1.8748458802,0.8777777777777778
2.24505193594,0.8833333333333333
2.25075144187,0.8888888888888888
2.32394381849,0.8944444444444445
2.77363798768,0.9
4.14393939141,0.9055555555555556
4.47336377413,0.9111111111111111
5.01080920475,0.9166666666666666
5.33374930671,0.9222222222222223
5.95924187026,0.9277777777777778
10.3918817058,0.9333333333333333
10.9823095863,0.9388888888888889
11.939638439,0.9444444444444444
12.8431219094,0.95
13.0605472047,0.9555555555555556
13.998189671,0.9611111111111111
15.076453508,0.9666666666666667
15.2925057942,0.9722222222222222
15.879864161,0.9777777777777777
15.9500463522,0.9833333333333333
16.17839896,0.9888888888888889
17.0503302549,0.9944444444444445
17.0578336011,1.0
