Congestion,CDF
0.0,0.007352941176470588
0.0,0.014705882352941176
0.0,0.022058823529411766
0.0,0.029411764705882353
0.0,0.03676470588235294
0.0,0.04411764705882353
0.0,0.051470588235294115
0.0,0.058823529411764705
0.0,0.0661764705882353
0.0,0.07352941176470588
0.0,0.08088235294117647
0.0,0.08823529411764706
0.0,0.09558823529411764
0.0,0.10294117647058823
1.51736300578e-05,0.11029411764705882
1.51736300578e-05,0.11764705882352941
1.51736300578e-05,0.125
1.51736300578e-05,0.1323529411764706
1.51736300578e-05,0.13970588235294118
1.51736300578e-05,0.14705882352941177
1.51736300578e-05,0.15441176470588236
1.51736300578e-05,0.16176470588235295
1.51736300578e-05,0.16911764705882354
1.51736300578e-05,0.17647058823529413
1.51736300578e-05,0.18382352941176472
1.51736300578e-05,0.19117647058823528
1.51736300578e-05,0.19852941176470587
1.51736300578e-05,0.20588235294117646
1.51736300578e-05,0.21323529411764705
1.51736300578e-05,0.22058823529411764
1.51736300578e-05,0.22794117647058823
1.51736300578e-05,0.23529411764705882
1.51736300578e-05,0.2426470588235294
1.51736300578e-05,0.25
1.51736300578e-05,0.25735294117647056
1.51736300578e-05,0.2647058823529412
1.51736300578e-05,0.27205882352941174
1.51736300578e-05,0.27941176470588236
1.51736300578e-05,0.2867647058823529
1.51736300578e-05,0.29411764705882354
1.51736300578e-05,0.3014705882352941
0.000379340751444,0.3088235294117647
0.000379340751444,0.3161764705882353
0.00040968801156,0.3235294117647059
0.000758681502889,0.33088235294117646
0.000758681502889,0.3382352941176471
0.000758681502889,0.34558823529411764
0.000758681502889,0.35294117647058826
0.00113802225433,0.3602941176470588
0.00126446917148,0.36764705882352944
0.00126446917148,0.375
0.00126446917148,0.38235294117647056
0.00151736300578,0.3897058823529412
0.00151736300578,0.39705882352941174
0.00151736300578,0.40441176470588236
0.00151736300578,0.4117647058823529
0.00151736300578,0.41911764705882354
0.00151736300578,0.4264705882352941
0.00151736300578,0.4338235294117647
0.00189670375722,0.4411764705882353
0.00227604450867,0.4485294117647059
0.00227604450867,0.45588235294117646
0.00278183217726,0.4632352941176471
0.00303472601155,0.47058823529411764
0.00303472601155,0.47794117647058826
0.00455208901733,0.4852941176470588
0.00619589894026,0.49264705882352944
0.0110008817919,0.5
0.0112537756262,0.5073529411764706
0.014541395472,0.5147058823529411
0.0180819091522,0.5220588235294118
0.0183348029865,0.5294117647058824
0.019599272158,0.5367647058823529
0.0198521659923,0.5441176470588235
0.0203800090375,0.5514705882352942
0.0206629553863,0.5588235294117647
0.021369528998,0.5661764705882353
0.0235383988424,0.5735294117647058
0.0236020437375,0.5808823529411765
0.023619498169,0.5882352941176471
0.02365171384,0.5955882352941176
0.0236640668504,0.6029411764705882
0.023724813354,0.6102941176470589
0.0238308179863,0.6176470588235294
0.0238426056922,0.625
0.0238707053538,0.6323529411764706
0.0238718310907,0.6397058823529411
0.0238723808114,0.6470588235294118
0.0238726951189,0.6544117647058824
0.0238728905303,0.6617647058823529
0.0238729466476,0.6691176470588235
0.0238750530478,0.6764705882352942
0.0238824111033,0.6838235294117647
0.0238892360379,0.6911764705882353
0.0239034280656,0.6985294117647058
0.0239094532891,0.7058823529411765
0.0239094643865,0.7132352941176471
0.0239095425098,0.7205882352941176
0.0239095464097,0.7279411764705882
0.0239100015902,0.7352941176470589
0.0239100041905,0.7426470588235294
0.0239100041905,0.75
0.59682366619,0.7573529411764706
0.597060277581,0.7647058823529411
0.636668517269,0.7720588235294118
1.1862406677,0.7794117647058824
1.1862406677,0.7867647058823529
1.1944618019,0.7941176470588235
1.1944618019,0.8014705882352942
1.79047099857,0.8088235294117647
1.98964696145,0.8161764705882353
1.98964696145,0.8235294117647058
1.98964696145,0.8308823529411765
2.36640668504,0.8382352941176471
2.38723808114,0.8455882352941176
2.38824111033,0.8529411764705882
2.39094643865,0.8602941176470589
2.39095464097,0.8676470588235294
2.39100041905,0.875
2.39100041905,0.8823529411764706
2.98409317808,0.8897058823529411
3.5481904846,0.8970588235294118
3.58196710668,0.9044117647058824
4.37390753066,0.9117647058823529
4.73157806904,0.9191176470588235
4.78190889195,0.9264705882352942
7.17300099712,0.9338235294117647
9.74816132974,0.9411764705882353
17.3338619342,0.9485294117647058
17.6913913267,0.9558823529411765
22.9083135041,0.9632352941176471
28.3249997646,0.9705882352941176
28.8773511462,0.9779411764705882
30.3630006684,0.9852941176470589
31.2375555199,0.9926470588235294
33.3038510586,1.0
