Congestion,CDF
0.0,0.007352941176470588
0.0,0.014705882352941176
0.0,0.022058823529411766
0.0,0.029411764705882353
0.0,0.03676470588235294
0.0,0.04411764705882353
0.0,0.051470588235294115
0.0,0.058823529411764705
0.0,0.0661764705882353
0.0,0.07352941176470588
0.0,0.08088235294117647
0.0,0.08823529411764706
0.0,0.09558823529411764
0.0,0.10294117647058823
1.53100085651e-05,0.11029411764705882
1.53100085651e-05,0.11764705882352941
1.53100085651e-05,0.125
1.53100085651e-05,0.1323529411764706
1.53100085651e-05,0.13970588235294118
1.53100085651e-05,0.14705882352941177
1.53100085651e-05,0.15441176470588236
1.53100085651e-05,0.16176470588235295
1.53100085651e-05,0.16911764705882354
1.53100085651e-05,0.17647058823529413
1.53100085651e-05,0.18382352941176472
1.53100085651e-05,0.19117647058823528
1.53100085651e-05,0.19852941176470587
1.53100085651e-05,0.20588235294117646
1.53100085651e-05,0.21323529411764705
1.53100085651e-05,0.22058823529411764
1.53100085651e-05,0.22794117647058823
1.53100085651e-05,0.23529411764705882
1.53100085651e-05,0.2426470588235294
1.53100085651e-05,0.25
1.53100085651e-05,0.25735294117647056
1.53100085651e-05,0.2647058823529412
1.53100085651e-05,0.27205882352941174
1.53100085651e-05,0.27941176470588236
1.53100085651e-05,0.2867647058823529
1.53100085651e-05,0.29411764705882354
1.53100085651e-05,0.3014705882352941
0.000382750214128,0.3088235294117647
0.000382750214128,0.3161764705882353
0.000413370231258,0.3235294117647059
0.000765500428256,0.33088235294117646
0.000765500428256,0.3382352941176471
0.000765500428256,0.34558823529411764
0.000765500428256,0.35294117647058826
0.00114825064238,0.3602941176470588
0.00127583404709,0.36764705882352944
0.00127583404709,0.375
0.00127583404709,0.38235294117647056
0.00153100085651,0.3897058823529412
0.00153100085651,0.39705882352941174
0.00153100085651,0.40441176470588236
0.00153100085651,0.4117647058823529
0.00153100085651,0.41911764705882354
0.00153100085651,0.4264705882352941
0.00153100085651,0.4338235294117647
0.00191375107064,0.4411764705882353
0.00229650128477,0.4485294117647059
0.00229650128477,0.45588235294117646
0.00280683490361,0.4632352941176471
0.00306200171303,0.47058823529411764
0.00306200171303,0.47794117647058826
0.00459300256954,0.4852941176470588
0.00625158683076,0.49264705882352944
0.0110997562097,0.5
0.0113549230191,0.5073529411764706
0.0137650184845,0.5147058823529411
0.0139433167669,0.5220588235294118
0.0146720915416,0.5294117647058824
0.015641552766,0.5367647058823529
0.0156773791728,0.5441176470588235
0.0156924375389,0.5514705882352942
0.01570247651,0.5588235294117647
0.0157059423822,0.5661764705882353
0.0157713442669,0.5735294117647058
0.0158658694425,0.5808823529411765
0.0158736984258,0.5882352941176471
0.0159019137806,0.5955882352941176
0.015902122496,0.6029411764705882
0.0159023401648,0.6102941176470589
0.0159026959558,0.6176470588235294
0.0159028145418,0.625
0.0159028951419,0.6323529411764706
0.0159054439964,0.6397058823529411
0.0159119688015,0.6470588235294118
0.0159191497937,0.6544117647058824
0.0159328638562,0.6617647058823529
0.0159387260965,0.6691176470588235
0.0159387313407,0.6764705882352942
0.0159388052362,0.6838235294117647
0.0159388074298,0.6911764705882353
0.0159392629073,0.6985294117647058
0.01593926437,0.7058823529411765
0.01593926437,0.7132352941176471
0.0182444268734,0.7205882352941176
0.0184995936829,0.7279411764705882
0.01977542773,0.7352941176470589
0.0200305945394,0.7426470588235294
0.0215615953959,0.75
0.397567398895,0.7573529411764706
0.397799220039,0.7647058823529411
0.424296106036,0.7720588235294118
0.788567213347,0.7794117647058824
0.788567213347,0.7867647058823529
0.795957489686,0.7941176470588235
0.795957489686,0.8014705882352942
1.19270219669,0.8088235294117647
1.32546043699,0.8161764705882353
1.32546043699,0.8235294117647058
1.32546043699,0.8308823529411765
1.57059423822,0.8382352941176471
1.5902122496,0.8455882352941176
1.59119688015,0.8529411764705882
1.59387313407,0.8602941176470589
1.59388074298,0.8676470588235294
1.593926437,0.875
1.593926437,0.8823529411764706
1.98780141537,0.8897058823529411
2.35630513062,0.8970588235294118
2.38650188933,0.9044117647058824
2.91283027957,0.9117647058823529
3.14084188922,0.9191176470588235
3.1877612666,0.9264705882352942
4.78177916473,0.9338235294117647
6.49366548003,0.9411764705882353
11.5550853951,0.9485294117647058
11.7816499172,0.9558823529411765
15.2697897074,0.9632352941176471
18.8429522136,0.9705882352941176
19.2465811109,0.9779411764705882
20.2194540621,0.9852941176470589
20.8158248648,0.9926470588235294
22.2101565415,1.0
