Congestion,CDF
0.0,0.007352941176470588
0.0,0.014705882352941176
0.0,0.022058823529411766
0.0,0.029411764705882353
0.0,0.03676470588235294
0.0,0.04411764705882353
0.0,0.051470588235294115
0.0,0.058823529411764705
0.0,0.0661764705882353
0.0,0.07352941176470588
0.0,0.08088235294117647
0.0,0.08823529411764706
0.0,0.09558823529411764
0.0,0.10294117647058823
1.65206821144e-05,0.11029411764705882
1.65206821144e-05,0.11764705882352941
1.65206821144e-05,0.125
1.65206821144e-05,0.1323529411764706
1.65206821144e-05,0.13970588235294118
1.65206821144e-05,0.14705882352941177
1.65206821144e-05,0.15441176470588236
1.65206821144e-05,0.16176470588235295
1.65206821144e-05,0.16911764705882354
1.65206821144e-05,0.17647058823529413
1.65206821144e-05,0.18382352941176472
1.65206821144e-05,0.19117647058823528
1.65206821144e-05,0.19852941176470587
1.65206821144e-05,0.20588235294117646
1.65206821144e-05,0.21323529411764705
1.65206821144e-05,0.22058823529411764
1.65206821144e-05,0.22794117647058823
1.65206821144e-05,0.23529411764705882
1.65206821144e-05,0.2426470588235294
1.65206821144e-05,0.25
1.65206821144e-05,0.25735294117647056
1.65206821144e-05,0.2647058823529412
1.65206821144e-05,0.27205882352941174
1.65206821144e-05,0.27941176470588236
1.65206821144e-05,0.2867647058823529
1.65206821144e-05,0.29411764705882354
1.65206821144e-05,0.3014705882352941
0.000318221011172,0.3088235294117647
0.000413017052859,0.3161764705882353
0.000413017052859,0.3235294117647059
0.000446058417088,0.33088235294117646
0.000826034105719,0.3382352941176471
0.000826034105719,0.34558823529411764
0.000826034105719,0.35294117647058826
0.000826034105719,0.3602941176470588
0.000855493871829,0.36764705882352944
0.00123905115858,0.375
0.00137672350953,0.38235294117647056
0.00137672350953,0.3897058823529412
0.00137672350953,0.39705882352941174
0.00165206821144,0.40441176470588236
0.00165206821144,0.4117647058823529
0.00165206821144,0.41911764705882354
0.00165206821144,0.4264705882352941
0.00165206821144,0.4338235294117647
0.00165206821144,0.4411764705882353
0.00165206821144,0.4485294117647059
0.0020650852643,0.45588235294117646
0.00247810231716,0.4632352941176471
0.00247810231716,0.47058823529411764
0.00302879172097,0.47794117647058826
0.00330413642287,0.4852941176470588
0.00330413642287,0.49264705882352944
0.00331304400532,0.5
0.00354167468709,0.5073529411764706
0.00384659228026,0.5147058823529411
0.00397936896166,0.5220588235294118
0.0040595316583,0.5294117647058824
0.0041452694033,0.5367647058823529
0.00442162173143,0.5441176470588235
0.00447677217016,0.5514705882352942
0.00451113667182,0.5588235294117647
0.00453224555377,0.5661764705882353
0.00453478119574,0.5735294117647058
0.00453550574311,0.5808823529411765
0.00453667077834,0.5882352941176471
0.00453827017607,0.5955882352941176
0.0045398466712,0.6029411764705882
0.00455176314606,0.6102941176470589
0.00455958810665,0.6176470588235294
0.0045863244096,0.625
0.00459645546686,0.6323529411764706
0.00459650136457,0.6397058823529411
0.00459681601826,0.6470588235294118
0.00459683029473,0.6544117647058824
0.00459745697761,0.6617647058823529
0.00459746649655,0.6691176470588235
0.00459746649655,0.6764705882352942
0.00495620463431,0.6838235294117647
0.0067459451967,0.6911764705882353
0.0119774945329,0.6985294117647058
0.0122528392348,0.7058823529411765
0.0158323203596,0.7132352941176471
0.0196871461863,0.7205882352941176
0.0199624908882,0.7279411764705882
0.0213392143977,0.7352941176470589
0.0216145590996,0.7426470588235294
0.0232666273111,0.75
0.110562715348,0.7573529411764706
0.113416769459,0.7647058823529411
0.113794078651,0.7720588235294118
0.207263470165,0.7794117647058824
0.207263470165,0.7867647058823529
0.227979405332,0.7941176470588235
0.227979405332,0.8014705882352942
0.340250308376,0.8088235294117647
0.378370221301,0.8161764705882353
0.378370221301,0.8235294117647058
0.378370221301,0.8308823529411765
0.40595316583,0.8382352941176471
0.453827017607,0.8455882352941176
0.455176314606,0.8529411764705882
0.459650136457,0.8602941176470589
0.459683029473,0.8676470588235294
0.459746649655,0.875
0.459746649655,0.8823529411764706
0.567401436579,0.8897058823529411
0.591922698191,0.8970588235294118
0.68120396071,0.9044117647058824
0.803890061996,0.9117647058823529
0.826047438318,0.9191176470588235
0.919364631299,0.9264705882352942
1.37923899707,0.9338235294117647
1.8531492498,0.9411764705882353
3.32862233142,0.9485294117647058
3.33169339016,0.9558823529411765
4.39667545776,0.9632352941176471
5.05573949214,0.9705882352941176
5.08756159326,0.9779411764705882
5.52899308565,0.9852941176470589
5.88316055436,0.9926470588235294
5.96870994154,1.0
