Congestion,CDF
0.0,0.007352941176470588
0.0,0.014705882352941176
0.0,0.022058823529411766
0.0,0.029411764705882353
0.0,0.03676470588235294
0.0,0.04411764705882353
0.0,0.051470588235294115
0.0,0.058823529411764705
0.0,0.0661764705882353
0.0,0.07352941176470588
0.0,0.08088235294117647
0.0,0.08823529411764706
0.0,0.09558823529411764
0.0,0.10294117647058823
1.52421329226e-05,0.11029411764705882
1.52421329226e-05,0.11764705882352941
1.52421329226e-05,0.125
1.52421329226e-05,0.1323529411764706
1.52421329226e-05,0.13970588235294118
1.52421329226e-05,0.14705882352941177
1.52421329226e-05,0.15441176470588236
1.52421329226e-05,0.16176470588235295
1.52421329226e-05,0.16911764705882354
1.52421329226e-05,0.17647058823529413
1.52421329226e-05,0.18382352941176472
1.52421329226e-05,0.19117647058823528
1.52421329226e-05,0.19852941176470587
1.52421329226e-05,0.20588235294117646
1.52421329226e-05,0.21323529411764705
1.52421329226e-05,0.22058823529411764
1.52421329226e-05,0.22794117647058823
1.52421329226e-05,0.23529411764705882
1.52421329226e-05,0.2426470588235294
1.52421329226e-05,0.25
1.52421329226e-05,0.25735294117647056
1.52421329226e-05,0.2647058823529412
1.52421329226e-05,0.27205882352941174
1.52421329226e-05,0.27941176470588236
1.52421329226e-05,0.2867647058823529
1.52421329226e-05,0.29411764705882354
1.52421329226e-05,0.3014705882352941
0.000381053323064,0.3088235294117647
0.000381053323064,0.3161764705882353
0.00041153758891,0.3235294117647059
0.000762106646129,0.33088235294117646
0.000762106646129,0.3382352941176471
0.000762106646129,0.34558823529411764
0.000762106646129,0.35294117647058826
0.00114315996919,0.3602941176470588
0.00127017774355,0.36764705882352944
0.00127017774355,0.375
0.00127017774355,0.38235294117647056
0.00152421329226,0.3897058823529412
0.00152421329226,0.39705882352941174
0.00152421329226,0.40441176470588236
0.00152421329226,0.4117647058823529
0.00152421329226,0.41911764705882354
0.00152421329226,0.4264705882352941
0.00152421329226,0.4338235294117647
0.00190526661532,0.4411764705882353
0.00228631993839,0.4485294117647059
0.00228631993839,0.45588235294117646
0.00279439103581,0.4632352941176471
0.00304842658452,0.47058823529411764
0.00304842658452,0.47794117647058826
0.00457263987677,0.4852941176470588
0.00607898231723,0.49264705882352944
0.00622387094339,0.5
0.00698543151789,0.5073529411764706
0.0110505463689,0.5147058823529411
0.0113045819176,0.5220588235294118
0.0146070440508,0.5294117647058824
0.0181635417327,0.5367647058823529
0.0184175772815,0.5441176470588235
0.0191839048584,0.5514705882352942
0.0193156279165,0.5588235294117647
0.0195707349705,0.5661764705882353
0.0196256325419,0.5735294117647058
0.0196819643566,0.5808823529411765
0.019687755025,0.5882352941176471
0.0197280730299,0.5955882352941176
0.0198546299435,0.6029411764705882
0.0198812820242,0.6102941176470589
0.0199036063479,0.6176470588235294
0.0199124614299,0.625
0.0199140203877,0.6323529411764706
0.019914309645,0.6397058823529411
0.0199144515794,0.6470588235294118
0.0199147485411,0.6544117647058824
0.0199150856554,0.6617647058823529
0.0199244017418,0.6691176470588235
0.019930531501,0.6764705882352942
0.0199417905737,0.6838235294117647
0.0199453090089,0.6911764705882353
0.019951659962,0.6985294117647058
0.0199516818212,0.7058823529411765
0.0199517632232,0.7132352941176471
0.0199517691236,0.7205882352941176
0.0199522233966,0.7279411764705882
0.0199522273305,0.7352941176470589
0.0199522273305,0.7426470588235294
0.021466003866,0.75
0.497868713526,0.7573529411764706
0.498110043546,0.7647058823529411
0.508758741503,0.7720588235294118
0.986403651497,0.7794117647058824
0.986403651497,0.7867647058823529
0.996526575052,0.7941176470588235
0.996526575052,0.8014705882352942
1.49360614058,0.8088235294117647
1.65978907857,0.8161764705882353
1.65978907857,0.8235294117647058
1.65978907857,0.8308823529411765
1.96819643566,0.8382352941176471
1.99140203877,0.8455882352941176
1.99244017418,0.8529411764705882
1.99516818212,0.8602941176470589
1.99517691236,0.8676470588235294
1.99522273305,0.875
1.99522273305,0.8823529411764706
2.48931387146,0.8897058823529411
2.94347714855,0.8970588235294118
2.98803514059,0.9044117647058824
3.64791728099,0.9117647058823529
3.93075968986,0.9191176470588235
3.99035323469,0.9264705882352942
5.98566780576,0.9338235294117647
8.13175113179,0.9411764705882353
14.4644652623,0.9485294117647058
14.7515350586,0.9558823529411765
19.1153118168,0.9632352941176471
23.5441623829,0.9705882352941176
24.0937075922,0.9779411764705882
24.1520606146,0.9852941176470589
26.0252703839,0.9926470588235294
26.7238135357,1.0
