Congestion,CDF
0.0,0.005555555555555556
0.0,0.011111111111111112
0.0,0.016666666666666666
0.0,0.022222222222222223
0.0,0.027777777777777776
0.0,0.03333333333333333
0.0,0.03888888888888889
0.0,0.044444444444444446
0.0,0.05
0.0,0.05555555555555555
1.04900400701e-06,0.06111111111111111
1.20525515422e-06,0.06666666666666667
2.7129294928e-06,0.07222222222222222
3.96510426466e-06,0.07777777777777778
4.057277418e-06,0.08333333333333333
5.35700288841e-06,0.08888888888888889
5.89341219015e-06,0.09444444444444444
8.12246588734e-06,0.1
8.16437009527e-06,0.10555555555555556
8.35291698079e-06,0.1111111111111111
8.52482959625e-06,0.11666666666666667
9.38409578627e-06,0.12222222222222222
9.60175763696e-06,0.12777777777777777
1.07222239673e-05,0.13333333333333333
1.09817114376e-05,0.1388888888888889
1.15638820242e-05,0.14444444444444443
1.3371474454e-05,0.15
1.46338390202e-05,0.15555555555555556
1.52806755814e-05,0.16111111111111112
1.5892530957e-05,0.16666666666666666
1.61439834252e-05,0.17222222222222222
1.62736409914e-05,0.17777777777777778
1.68128099309e-05,0.18333333333333332
1.73970230302e-05,0.18888888888888888
1.76906922159e-05,0.19444444444444445
1.78904766349e-05,0.2
1.7989733085e-05,0.20555555555555555
1.81963161354e-05,0.2111111111111111
1.83741270636e-05,0.21666666666666667
1.84144471526e-05,0.2222222222222222
1.90297211344e-05,0.22777777777777777
1.9188483696e-05,0.23333333333333334
1.94087555433e-05,0.2388888888888889
2.10186412449e-05,0.24444444444444444
2.21171068013e-05,0.25
2.40127447917e-05,0.25555555555555554
2.43931597798e-05,0.2611111111111111
2.47441950316e-05,0.26666666666666666
2.5582155614e-05,0.2722222222222222
9.04309830934e-05,0.2777777777777778
0.000180861966187,0.2833333333333333
0.000198255213233,0.28888888888888886
0.000198255213233,0.29444444444444445
0.000204109252382,0.3
0.000204109252382,0.3055555555555556
0.000309009653082,0.3111111111111111
0.0004057277418,0.31666666666666665
0.000408218504763,0.32222222222222224
0.000543514972142,0.3277777777777778
0.000812246588734,0.3333333333333333
0.000844709941923,0.3388888888888889
0.000894523831747,0.34444444444444444
0.000894523831747,0.35
0.00114251883101,0.35555555555555557
0.00173970230302,0.3611111111111111
0.00176906922159,0.36666666666666664
0.00182561931237,0.37222222222222223
0.00196674622847,0.37777777777777777
0.00208083555894,0.38333333333333336
0.00208083555894,0.3888888888888889
0.00237277750006,0.39444444444444443
0.00250759186629,0.4
0.00269633371612,0.40555555555555556
0.00288263800793,0.4111111111111111
0.00358114701828,0.4166666666666667
0.00378637784201,0.4222222222222222
0.00398380767238,0.42777777777777776
0.00489769479048,0.43333333333333335
0.0057501777501,0.4388888888888889
0.00602042347487,0.4444444444444444
0.00743415788707,0.45
0.00842169795404,0.45555555555555555
0.0149833089457,0.46111111111111114
0.0182285387923,0.4666666666666667
0.0183862939419,0.4722222222222222
0.018816600585,0.4777777777777778
0.0190801539077,0.48333333333333334
0.0207867543537,0.4888888888888889
0.0212918645878,0.49444444444444446
0.0224011526962,0.5
0.0226465080034,0.5055555555555555
0.0239836554488,0.5111111111111111
0.0259025038184,0.5166666666666667
0.0260447897987,0.5222222222222223
0.026064184715,0.5277777777777778
0.0261758686516,0.5333333333333333
0.0261799480509,0.5388888888888889
0.0262190748601,0.5444444444444444
0.0262401789076,0.55
0.0262539010193,0.5555555555555556
0.0262876746562,0.5611111111111111
0.0263594431844,0.5666666666666667
0.0263605512383,0.5722222222222222
0.0263699103723,0.5777777777777777
0.0263712292865,0.5833333333333334
0.026392214549,0.5888888888888889
0.0264267933663,0.5944444444444444
0.026433674568,0.6
0.0264464540999,0.6055555555555555
0.0264766509526,0.6111111111111112
0.0264918450375,0.6166666666666667
0.0265284618021,0.6222222222222222
0.0265452248653,0.6277777777777778
0.0265502976024,0.6333333333333333
0.0265610617254,0.6388888888888888
0.0265640529942,0.6444444444444445
0.0265850066527,0.65
0.0266000239645,0.6555555555555556
0.0266012213258,0.6611111111111111
0.0266077904417,0.6666666666666666
0.0266128925331,0.6722222222222223
0.0266155449795,0.6777777777777778
0.0266207687944,0.6833333333333333
0.0266264292068,0.6888888888888889
0.0266425424665,0.6944444444444444
0.0266523575793,0.7
0.0266941010331,0.7055555555555556
0.0267222965138,0.7111111111111111
0.0267718122249,0.7166666666666667
0.0267815933176,0.7222222222222222
0.0267908540395,0.7277777777777777
0.0268119060523,0.7333333333333333
0.026899476413,0.7388888888888889
0.0278596521767,0.7444444444444445
0.659013780957,0.75
0.659013780957,0.7555555555555555
0.873969162002,0.7611111111111111
1.0177274922,0.7666666666666667
1.31200894538,0.7722222222222223
1.31200894538,0.7777777777777778
1.31802756191,0.7833333333333333
1.33064462665,0.7888888888888889
1.33064462665,0.7944444444444444
1.747938324,0.8
2.62539010193,0.8055555555555556
2.63594431844,0.8111111111111111
2.66000239645,0.8166666666666667
2.66077904417,0.8222222222222222
3.27660064612,0.8277777777777777
3.29823523586,0.8333333333333334
3.96703870562,0.8388888888888889
3.97332396329,0.8444444444444444
3.99711296586,0.85
4.19420937333,0.8555555555555555
4.19420937333,0.8611111111111112
5.29480020524,0.8666666666666667
5.32264531713,0.8722222222222222
5.90536811174,0.8777777777777778
6.63540084272,0.8833333333333333
6.82505057807,0.8888888888888888
6.85846361998,0.8944444444444445
8.55989059827,0.9
12.1777433294,0.9055555555555556
13.6372547565,0.9111111111111111
15.1917153013,0.9166666666666666
16.2742457937,0.9222222222222223
17.8688965238,0.9277777777777778
31.1135436211,0.9333333333333333
32.5051020154,0.9388888888888889
35.1862926206,0.9444444444444444
37.8426979201,0.95
39.0644499989,0.9555555555555556
41.7366796503,0.9611111111111111
44.4698587582,0.9666666666666667
45.6933340056,0.9722222222222222
47.0743377381,0.9777777777777777
48.3409991009,0.9833333333333333
48.9129671323,0.9888888888888889
50.9781220295,0.9944444444444445
52.859782088,1.0
