Congestion,CDF
0.0,0.005555555555555556
0.0,0.011111111111111112
0.0,0.016666666666666666
0.0,0.022222222222222223
0.0,0.027777777777777776
0.0,0.03333333333333333
0.0,0.03888888888888889
0.0,0.044444444444444446
0.0,0.05
0.0,0.05555555555555555
1.05089386661e-06,0.06111111111111111
1.20742651202e-06,0.06666666666666667
2.71781703931e-06,0.07222222222222222
3.97224769819e-06,0.07777777777777778
4.0645869084e-06,0.08333333333333333
5.36665393199e-06,0.08888888888888889
5.90402961543e-06,0.09444444444444444
8.13709912049e-06,0.1
8.179078822e-06,0.10555555555555556
8.36796538891e-06,0.1111111111111111
8.54018771788e-06,0.11666666666666667
9.40100194056e-06,0.12222222222222222
9.61905592544e-06,0.12777777777777777
1.07415408601e-05,0.13333333333333333
1.10014958166e-05,0.1388888888888889
1.15847152273e-05,0.14444444444444443
1.33955641708e-05,0.15
1.46602029817e-05,0.15555555555555556
1.53082048676e-05,0.16111111111111112
1.59211625467e-05,0.16666666666666666
1.61730680254e-05,0.17222222222222222
1.63029591795e-05,0.17777777777777778
1.68430994724e-05,0.18333333333333332
1.74283650755e-05,0.18888888888888888
1.77225633284e-05,0.19444444444444445
1.7922707674e-05,0.2
1.80221429421e-05,0.20555555555555555
1.82290981674e-05,0.2111111111111111
1.84072294353e-05,0.21666666666666667
1.8447622164e-05,0.2222222222222222
1.90640046082e-05,0.22777777777777777
1.92230531924e-05,0.23333333333333334
1.94437218761e-05,0.2388888888888889
2.10565079078e-05,0.24444444444444444
2.21569524325e-05,0.25
2.40560055574e-05,0.25555555555555554
2.44371058916e-05,0.2611111111111111
2.47887735599e-05,0.26666666666666666
2.56282437913e-05,0.2722222222222222
9.05939013103e-05,0.2777777777777778
0.000181187802621,0.2833333333333333
0.000198612384909,0.28888888888888886
0.000198612384909,0.29444444444444445
0.00020447697055,0.3
0.00020447697055,0.3055555555555556
0.000309566357211,0.3111111111111111
0.00040645869084,0.31666666666666665
0.0004089539411,0.32222222222222224
0.000544494155239,0.3277777777777778
0.000813709912049,0.3333333333333333
0.00084623175041,0.3388888888888889
0.000896135383702,0.34444444444444444
0.000896135383702,0.35
0.00114457716461,0.35555555555555557
0.00174283650755,0.3611111111111111
0.00177225633284,0.36666666666666664
0.00182890830286,0.37222222222222223
0.00197028946971,0.37777777777777777
0.00208458434069,0.38333333333333336
0.00208458434069,0.3888888888888889
0.00237705223717,0.39444444444444443
0.00251210948162,0.4
0.00270119136409,0.40555555555555556
0.00288783129709,0.4111111111111111
0.00358759872395,0.4166666666666667
0.00379319928645,0.4222222222222222
0.0039909848015,0.42777777777777776
0.00490651835597,0.43333333333333335
0.00576053712776,0.4388888888888889
0.00603126972053,0.4444444444444444
0.00744755108158,0.45
0.00843687027626,0.45555555555555555
0.013765628154,0.46111111111111114
0.0142360568189,0.4666666666666667
0.0150103025036,0.4722222222222222
0.0182613788758,0.4777777777777778
0.0191145282398,0.48333333333333334
0.0208242032549,0.4888888888888889
0.0213302234831,0.49444444444444446
0.0224415100575,0.5
0.0224583884725,0.5055555555555555
0.0225977480258,0.5111111111111111
0.0226024067402,0.5166666666666667
0.0226471233874,0.5222222222222223
0.0226727742929,0.5277777777777778
0.0226869338364,0.5333333333333333
0.0226873073907,0.5388888888888889
0.0227255263231,0.5444444444444444
0.0228075480537,0.55
0.0228088114712,0.5555555555555556
0.0228195070412,0.5611111111111111
0.022829726663,0.5666666666666667
0.0228449970245,0.5722222222222222
0.0228845370712,0.5777777777777777
0.0228923803469,0.5833333333333334
0.0229073029728,0.5888888888888889
0.022943548772,0.5944444444444444
0.023000708172,0.6
0.0230198694399,0.6055555555555555
0.0230283977352,0.6111111111111112
0.0230379747982,0.6166666666666667
0.0230418746709,0.6222222222222222
0.0230653317529,0.6277777777777778
0.0230825150855,0.6333333333333333
0.0230864809231,0.6388888888888888
0.0230913703694,0.6444444444444445
0.023097213179,0.65
0.0231002336276,0.6555555555555556
0.0231062233645,0.6611111111111111
0.0231126925163,0.6666666666666666
0.0231310869641,0.6722222222222223
0.0231423073809,0.6777777777777778
0.0231900196286,0.6833333333333333
0.0232222873792,0.6888888888888889
0.0232788317288,0.6944444444444444
0.0232900232224,0.7
0.0233005854623,0.7055555555555556
0.0233247435732,0.7111111111111111
0.0240268638078,0.7166666666666667
0.0259491691271,0.7222222222222222
0.0261111413039,0.7277777777777777
0.0265395720886,0.7333333333333333
0.0269479378428,0.7388888888888889
0.0279098434353,0.7444444444444445
0.57022028678,0.75
0.57022028678,0.7555555555555555
0.754904112913,0.7611111111111111
0.877881716442,0.7666666666666667
1.13363871464,0.7722222222222223
1.13363871464,0.7777777777777778
1.14044057356,0.7833333333333333
1.15486065895,0.7888888888888889
1.15486065895,0.7944444444444444
1.50980822583,0.8
2.26869338364,0.8055555555555556
2.28075480537,0.8111111111111111
2.30825150855,0.8166666666666667
2.30913703694,0.8222222222222222
2.82999508936,0.8277777777777777
2.85471998923,0.8333333333333334
3.43647848816,0.8388888888888889
3.44331436607,0.8444444444444444
3.47049911979,0.85
3.63477269015,0.8555555555555555
3.63477269015,0.8611111111111112
4.5876953465,0.8666666666666667
4.61952076018,0.8722222222222222
5.10254772167,0.8777777777777778
5.75393670252,0.8833333333333333
5.90969491934,0.8888888888888888
5.94788138656,0.8944444444444445
7.40453466566,0.9
10.5635515988,0.9055555555555556
11.8047082835,0.9111111111111111
13.1543808681,0.9166666666666666
14.0866589876,0.9222222222222223
15.4822640409,0.9277777777777778
26.9602339492,0.9333333333333333
28.1847238259,0.9388888888888889
30.5171981832,0.9444444444444444
32.8213856503,0.95
33.8517267755,0.9555555555555556
36.1739555134,0.9611111111111111
38.5665122308,0.9666666666666667
39.5983245253,0.9722222222222222
40.812351078,0.9777777777777777
41.8926794026,0.9833333333333333
42.1889138934,0.9888888888888889
44.1756520689,0.9944444444444445
45.5992577507,1.0
