Congestion,CDF
0.0,0.005555555555555556
0.0,0.011111111111111112
0.0,0.016666666666666666
0.0,0.022222222222222223
0.0,0.027777777777777776
0.0,0.03333333333333333
0.0,0.03888888888888889
0.0,0.044444444444444446
0.0,0.05
0.0,0.05555555555555555
1.05729258919e-06,0.06111111111111111
1.21477833653e-06,0.06666666666666667
2.73436538715e-06,0.07222222222222222
3.99643407118e-06,0.07777777777777778
4.08933551989e-06,0.08333333333333333
5.39933061874e-06,0.08888888888888889
5.9399782957e-06,0.09444444444444444
8.18664459936e-06,0.1
8.22887990848e-06,0.10555555555555556
8.41891657511e-06,0.1111111111111111
8.59218753795e-06,0.11666666666666667
9.45824311904e-06,0.12222222222222222
9.67762479933e-06,0.12777777777777777
1.0806944363e-05,0.13333333333333333
1.10684821431e-05,0.1388888888888889
1.16552526824e-05,0.14444444444444443
1.34771275919e-05,0.15
1.47494665837e-05,0.15555555555555556
1.54014140481e-05,0.16111111111111112
1.60181039273e-05,0.16666666666666666
1.62715432177e-05,0.17222222222222222
1.64022252579e-05,0.17777777777777778
1.69456543776e-05,0.18333333333333332
1.75344835683e-05,0.18888888888888888
1.78304731466e-05,0.19444444444444445
1.80318361388e-05,0.2
1.8131876852e-05,0.20555555555555555
1.83400921942e-05,0.2111111111111111
1.85193080746e-05,0.21666666666666667
1.85599467481e-05,0.2222222222222222
1.91800822451e-05,0.22777777777777777
1.93400992505e-05,0.23333333333333334
1.956211155e-05,0.2388888888888889
2.11847175747e-05,0.24444444444444444
2.22918625279e-05,0.25
2.42024786797e-05,0.25555555555555554
2.45858994722e-05,0.2611111111111111
2.4939708388e-05,0.26666666666666666
2.57842900176e-05,0.2722222222222222
9.11455129052e-05,0.2777777777777778
0.00018229102581,0.2833333333333333
0.000199821703559,0.28888888888888886
0.000199821703559,0.29444444444444445
0.000205721997712,0.3
0.000205721997712,0.3055555555555556
0.000311451256631,0.3111111111111111
0.000408933551989,0.31666666666666665
0.000411443995424,0.32222222222222224
0.000547809491979,0.3277777777777778
0.000818664459936,0.3333333333333333
0.000851384318505,0.3388888888888889
0.000901591806939,0.34444444444444444
0.000901591806939,0.35
0.00115154630962,0.35555555555555557
0.00175344835683,0.3611111111111111
0.00178304731466,0.36666666666666664
0.00184004422935,0.37222222222222223
0.00198228624324,0.37777777777777777
0.00209727703717,0.38333333333333336
0.00209727703717,0.3888888888888889
0.00239152572332,0.39444444444444443
0.00252740530946,0.4
0.00271763848089,0.40555555555555556
0.00290541483422,0.4111111111111111
0.00360944303163,0.4166666666666667
0.00381629546266,0.4222222222222222
0.00401528526169,0.42777777777777776
0.00493639335171,0.43333333333333335
0.0050482006943,0.4388888888888889
0.00553806248979,0.4444444444444444
0.00579561210551,0.45
0.00606799314519,0.45555555555555555
0.00749289801411,0.46111111111111114
0.00848824101316,0.4666666666666667
0.0151016978048,0.4722222222222222
0.0152657618529,0.4777777777777778
0.0154415067742,0.48333333333333334
0.0154473241189,0.4888888888888889
0.0155032204421,0.49444444444444446
0.0155376563938,0.5
0.0155529994613,0.5055555555555555
0.0156012296568,0.5111111111111111
0.0157037577916,0.5166666666666667
0.015705331937,0.5222222222222223
0.0157187003787,0.5277777777777778
0.0157288708132,0.5333333333333333
0.0157505619754,0.5388888888888889
0.0158000244701,0.5444444444444444
0.0158097919048,0.55
0.0158289650298,0.5555555555555556
0.0158764540075,0.5611111111111111
0.0159452009118,0.5666666666666667
0.0159691585888,0.5722222222222222
0.0159840715637,0.5777777777777777
0.015991800886,0.5833333333333334
0.0159974630804,0.5888888888888889
0.016025981953,0.5944444444444444
0.0160474973071,0.6
0.016055859645,0.6055555555555555
0.0160585302245,0.6111111111111112
0.0160658544647,0.6166666666666667
0.0160696109211,0.6222222222222222
0.0160771324756,0.6277777777777778
0.0160852190992,0.6333333333333333
0.0161081759592,0.6388888888888888
0.0161222069831,0.6444444444444445
0.0161818568025,0.65
0.0162222676588,0.6555555555555556
0.0162928707258,0.6611111111111111
0.0163068829048,0.6666666666666666
0.0163200483078,0.6722222222222223
0.0163504159774,0.6777777777777778
0.0183725694547,0.6833333333333333
0.019230913507,0.6888888888888889
0.0209509984564,0.6944444444444444
0.0214600997598,0.7
0.0225781527782,0.7055555555555556
0.0228254467316,0.7111111111111111
0.0241731594908,0.7166666666666667
0.0261071694158,0.7222222222222222
0.026270127815,0.7277777777777777
0.0267011672454,0.7333333333333333
0.0271120194725,0.7388888888888889
0.0280797819525,0.7444444444444445
0.392633298426,0.75
0.392633298426,0.7555555555555555
0.516774014736,0.7611111111111111
0.599136526632,0.7666666666666667
0.776882819689,0.7722222222222223
0.776882819689,0.7777777777777778
0.785266596852,0.7833333333333333
0.803292723233,0.7888888888888889
0.803292723233,0.7944444444444444
1.03354802947,0.8
1.55529994613,0.8055555555555556
1.57037577916,0.8111111111111111
1.60474973071,0.8166666666666667
1.60585302245,0.8222222222222222
1.93678397584,0.8277777777777777
1.96768949597,0.8333333333333334
2.37528997606,0.8388888888888889
2.38329517024,0.8444444444444444
2.41727142763,0.85
2.51589932379,0.8555555555555555
2.51589932379,0.8611111111111112
3.17348562638,0.8666666666666667
3.21327164063,0.8722222222222222
3.49690694153,0.8777777777777778
3.99100841781,0.8833333333333333
4.07898360188,0.8888888888888888
4.12671691971,0.8944444444444445
5.0938228004,0.9
7.33516813746,0.9055555555555556
8.13961533756,0.9111111111111111
9.07971200111,0.9166666666666666
9.71148537543,0.9222222222222223
10.7089990737,0.9277777777777778
18.653614605,0.9333333333333333
19.5439674226,0.9388888888888889
21.1790090203,0.9444444444444444
22.7787553284,0.95
23.42628032,0.9555555555555556
25.0485070859,0.9611111111111111
26.7596312689,0.9666666666666667
27.4082864085,0.9722222222222222
28.2862074542,0.9777777777777777
28.7910275237,0.9833333333333333
28.9959318093,0.9888888888888889
30.5688188906,0.9944444444444445
31.1226251396,1.0
