Congestion,CDF
0.0,0.005555555555555556
0.0,0.011111111111111112
0.0,0.016666666666666666
0.0,0.022222222222222223
0.0,0.027777777777777776
0.0,0.03333333333333333
0.0,0.03888888888888889
0.0,0.044444444444444446
0.0,0.05
0.0,0.05555555555555555
1.05584573622e-06,0.06111111111111111
1.21311597205e-06,0.06666666666666667
2.73062354244e-06,0.07222222222222222
3.99096514746e-06,0.07777777777777778
4.0837394651e-06,0.08333333333333333
5.3919419e-06,0.08888888888888889
5.93184972717e-06,0.09444444444444444
8.17544157836e-06,0.1
8.21761909053e-06,0.10555555555555556
8.40739570132e-06,0.1111111111111111
8.58042955136e-06,0.11666666666666667
9.44529997792e-06,0.12222222222222222
9.66438144516e-06,0.12777777777777777
1.07921555905e-05,0.13333333333333333
1.1053335469e-05,0.1388888888888889
1.16393030416e-05,0.14444444444444443
1.34586848048e-05,0.15
1.47292826632e-05,0.15555555555555556
1.53803379695e-05,0.16111111111111112
1.59961839389e-05,0.16666666666666666
1.624927641e-05,0.17222222222222222
1.63797796183e-05,0.17777777777777778
1.6922465082e-05,0.18333333333333332
1.75104884888e-05,0.18888888888888888
1.780607302e-05,0.19444444444444445
1.80071604568e-05,0.2
1.81070642692e-05,0.20555555555555555
1.83149946789e-05,0.2111111111111111
1.84939653112e-05,0.21666666666666667
1.85345483726e-05,0.2222222222222222
1.91538352447e-05,0.22777777777777777
1.93136332746e-05,0.23333333333333334
1.95353417612e-05,0.2388888888888889
2.11557273293e-05,0.24444444444444444
2.22613572091e-05,0.25
2.41693587765e-05,0.25555555555555554
2.45522548764e-05,0.2611111111111111
2.49055796221e-05,0.26666666666666666
2.57490054833e-05,0.2722222222222222
9.10207847479e-05,0.2777777777777778
0.000182041569496,0.2833333333333333
0.000199548257373,0.28888888888888886
0.000199548257373,0.29444444444444445
0.000205440477263,0.3
0.000205440477263,0.3055555555555556
0.000311025050885,0.3111111111111111
0.00040837394651,0.31666666666666665
0.000410880954526,0.32222222222222224
0.000547059841598,0.3277777777777778
0.000817544157836,0.3333333333333333
0.000850219240886,0.3388888888888889
0.000900358022838,0.34444444444444444
0.000900358022838,0.35
0.00114997047506,0.35555555555555557
0.00175104884888,0.3611111111111111
0.001780607302,0.36666666666666664
0.00183752621921,0.37222222222222223
0.00197957358189,0.37777777777777777
0.00209440701657,0.38333333333333336
0.00209440701657,0.3888888888888889
0.00238825303784,0.39444444444444443
0.00252394667944,0.4
0.00271391952612,0.40555555555555556
0.00290143891673,0.4111111111111111
0.00360450368614,0.4166666666666667
0.00381107304978,0.4222222222222222
0.00400979054104,0.42777777777777776
0.00492963813989,0.43333333333333335
0.00578768109503,0.4388888888888889
0.00605968939464,0.4444444444444444
0.00643789124039,0.45
0.00693150784233,0.45555555555555555
0.00748264435124,0.46111111111111114
0.00847662527228,0.4666666666666667
0.0150810318732,0.4722222222222222
0.0164669202175,0.4777777777777778
0.0166342136494,0.48333333333333334
0.0166398378891,0.4888888888888889
0.016693870933,0.49444444444444446
0.0167268887291,0.5
0.0167419885262,0.5055555555555555
0.0167886124346,0.5111111111111111
0.0168877228355,0.5166666666666667
0.0168892451927,0.5222222222222223
0.0169021681558,0.5277777777777778
0.0169145223636,0.5333333333333333
0.0169329678169,0.5388888888888889
0.0169807765731,0.5444444444444444
0.0169902233118,0.55
0.0170086938015,0.5555555555555556
0.0170544293279,0.5611111111111111
0.0171211187885,0.5666666666666667
0.017144277064,0.5722222222222222
0.0171582112674,0.5777777777777777
0.0171661632167,0.5833333333333334
0.0171715405711,0.5888888888888889
0.0171992069198,0.5944444444444444
0.0172200002753,0.6
0.017227791561,0.6055555555555555
0.0172306702487,0.6111111111111112
0.0172377475853,0.6166666666666667
0.0172413813729,0.6222222222222222
0.0172486476305,0.6277777777777778
0.0172564646771,0.6333333333333333
0.0172786611267,0.6388888888888888
0.0172922237163,0.6444444444444445
0.0173498839441,0.65
0.01738893788,0.6555555555555556
0.0174571975622,0.6611111111111111
0.0174707396507,0.6666666666666666
0.0174834711668,0.6722222222222223
0.0175128043956,0.6777777777777778
0.0183474274958,0.6833333333333333
0.0192045969465,0.6888888888888889
0.0209223280442,0.6944444444444444
0.0214307326674,0.7
0.0225472556852,0.7055555555555556
0.022794211229,0.7111111111111111
0.0241400797094,0.7166666666666667
0.0260714430369,0.7222222222222222
0.0262341784355,0.7277777777777777
0.0266646280096,0.7333333333333333
0.0270749180056,0.7388888888888889
0.0280413561501,0.7444444444444445
0.422231129819,0.75
0.422231129819,0.7555555555555555
0.556462364433,0.7611111111111111
0.645479621461,0.7666666666666667
0.836344436457,0.7722222222222223
0.836344436457,0.7777777777777778
0.844462259637,0.7833333333333333
0.861887379264,0.7888888888888889
0.861887379264,0.7944444444444444
1.11292472887,0.8
1.67419885262,0.8055555555555556
1.68877228355,0.8111111111111111
1.72200002753,0.8166666666666667
1.72306702487,0.8222222222222222
2.08565249476,0.8277777777777777
2.11552791151,0.8333333333333334
2.5521655632,0.8388888888888889
2.55996503657,0.8444444444444444
2.59280937632,0.85
2.70237821818,0.8555555555555555
2.70237821818,0.8611111111111112
3.40918724703,0.8666666666666667
3.44764649524,0.8722222222222222
3.76451373822,0.8777777777777778
4.28482979962,0.8833333333333333
4.38410215479,0.8888888888888888
4.43024433086,0.8944444444444445
5.47894144462,0.9
7.8732320477,0.9055555555555556
8.75046416189,0.9111111111111111
9.75882347907,0.9166666666666666
10.4406809775,0.9222222222222223
11.5045432353,0.9277777777777778
20.0380511625,0.9333333333333333
20.9840934952,0.9388888888888889
22.7353739348,0.9444444444444444
24.4525279919,0.95
25.1638547312,0.9555555555555556
26.9027485192,0.9611111111111111
28.7274727112,0.9666666666666667
29.4399623358,0.9722222222222222
30.3741647329,0.9777777777777777
31.017953857,0.9833333333333333
31.1454052686,0.9888888888888889
32.8368575049,0.9944444444444445
33.5300082892,1.0
