Congestion,CDF
0.0,0.005555555555555556
0.0,0.011111111111111112
0.0,0.016666666666666666
0.0,0.022222222222222223
0.0,0.027777777777777776
0.0,0.03333333333333333
0.0,0.03888888888888889
0.0,0.044444444444444446
0.0,0.05
0.0,0.05555555555555555
1.05166412509e-06,0.06111111111111111
1.20831150197e-06,0.06666666666666667
2.71980907835e-06,0.07222222222222222
3.97515917912e-06,0.07777777777777778
4.06756606987e-06,0.08333333333333333
5.37058745069e-06,0.08888888888888889
5.90835700661e-06,0.09444444444444444
8.14306325232e-06,0.1
8.18507372308e-06,0.10555555555555556
8.37409873545e-06,0.1111111111111111
8.54644729573e-06,0.11666666666666667
9.40789245696e-06,0.12222222222222222
9.62610626572e-06,0.12777777777777777
1.07494139319e-05,0.13333333333333333
1.10095594239e-05,0.1388888888888889
1.15932063085e-05,0.14444444444444443
1.34053825237e-05,0.15
1.46709482586e-05,0.15555555555555556
1.53194251011e-05,0.16111111111111112
1.59328320509e-05,0.16666666666666666
1.61849221651e-05,0.17222222222222222
1.63149085236e-05,0.17777777777777778
1.68554447154e-05,0.18333333333333332
1.74411392922e-05,0.18888888888888888
1.77355531793e-05,0.19444444444444445
1.79358442218e-05,0.2
1.80353523715e-05,0.20555555555555555
1.82424592857e-05,0.2111111111111111
1.8420721116e-05,0.21666666666666667
1.84611434507e-05,0.2222222222222222
1.90779776759e-05,0.22777777777777777
1.92371428357e-05,0.23333333333333334
1.94579732596e-05,0.2388888888888889
2.10719413918e-05,0.24444444444444444
2.21731924934e-05,0.25
2.40736375398e-05,0.25555555555555554
2.44550172036e-05,0.2611111111111111
2.48069426286e-05,0.26666666666666666
2.56470281544e-05,0.2722222222222222
9.06603026116e-05,0.2777777777777778
0.000181320605223,0.2833333333333333
0.000198757958956,0.28888888888888886
0.000198757958956,0.29444444444444445
0.000204626843077,0.3
0.000204626843077,0.3055555555555556
0.000309793255586,0.3111111111111111
0.000406756606987,0.31666666666666665
0.000409253686154,0.32222222222222224
0.000544893245244,0.3277777777777778
0.000814306325232,0.3333333333333333
0.000846852000655,0.3388888888888889
0.000896792211091,0.34444444444444444
0.000896792211091,0.35
0.00114541608877,0.35555555555555557
0.00174411392922,0.3611111111111111
0.00177355531793,0.36666666666666664
0.00183024881132,0.37222222222222223
0.00197173360428,0.37777777777777777
0.00208611224831,0.38333333333333336
0.00208611224831,0.3888888888888889
0.00237879451076,0.39444444444444443
0.00251395074617,0.4
0.00270317121725,0.40555555555555556
0.00288994794902,0.4111111111111111
0.00359022827429,0.4166666666666667
0.00379597953286,0.4222222222222222
0.0039939100159,0.42777777777777776
0.00491011461576,0.43333333333333335
0.00576475934533,0.4388888888888889
0.00603569037305,0.4444444444444444
0.00745300980537,0.45
0.00844305412702,0.45555555555555555
0.012257205877,0.46111111111111114
0.0127371376595,0.4666666666666667
0.0150213043878,0.4722222222222222
0.0182747636545,0.4777777777777778
0.0191285383391,0.48333333333333334
0.02083946647,0.4888888888888889
0.0212616649005,0.49444444444444446
0.0213458575884,0.5
0.0214050411505,0.5055555555555555
0.02140989297,0.5111111111111111
0.0214564728965,0.5166666666666667
0.0214836245049,0.5222222222222223
0.0214979447752,0.5277777777777778
0.0215381435454,0.5333333333333333
0.0216235830101,0.5388888888888889
0.0216248982155,0.5444444444444444
0.0216360392642,0.55
0.0216481043108,0.5555555555555556
0.021662591183,0.5611111111111111
0.0217037849725,0.5666666666666667
0.0217119489399,0.5722222222222222
0.0217275841938,0.5777777777777777
0.0217657989026,0.5833333333333334
0.0218247902953,0.5888888888888889
0.0218447509647,0.5944444444444444
0.0218544055159,0.6
0.021863612487,0.6055555555555555
0.0218678125542,0.6111111111111112
0.0218921067863,0.6166666666666667
0.0219100121252,0.6222222222222222
0.0219148378689,0.6277777777777778
0.0219192303453,0.6333333333333333
0.0219253200608,0.6388888888888888
0.0219284631769,0.6444444444444445
0.0219347082202,0.65
0.0219414469517,0.6555555555555556
0.0219606017966,0.6611111111111111
0.0219722906481,0.6666666666666666
0.0220219924932,0.6722222222222223
0.0220556176062,0.6777777777777778
0.0221145048965,0.6833333333333333
0.0221261665194,0.6888888888888889
0.0221371626032,0.6944444444444444
0.0221623559681,0.7
0.0224579586865,0.7055555555555556
0.0227039361782,0.7111111111111111
0.0240444744306,0.7166666666666667
0.0259681887142,0.7222222222222222
0.0261302796094,0.7277777777777777
0.0265590244148,0.7333333333333333
0.0269676894829,0.7388888888888889
0.0279303001095,0.7444444444444445
0.540622455388,0.75
0.540622455388,0.7555555555555555
0.715215763217,0.7611111111111111
0.831323651156,0.7666666666666667
1.07418122524,0.7722222222222223
1.07418122524,0.7777777777777778
1.08124491078,0.7833333333333333
1.09626600304,0.7888888888888889
1.09626600304,0.7944444444444444
1.43043152643,0.8
2.14979447752,0.8055555555555556
2.16235830101,0.8111111111111111
2.19100121252,0.8166666666666667
2.19192303453,0.8222222222222222
2.68112657044,0.8277777777777777
2.70688157368,0.8333333333333334
3.25962177683,0.8388888888888889
3.26664450029,0.8444444444444444
3.29496117109,0.85
3.44829379576,0.8555555555555555
3.44829379576,0.8611111111111112
4.35199372684,0.8666666666666667
4.38514590769,0.8722222222222222
4.83494092498,0.8777777777777778
5.46011532232,0.8833333333333333
5.60457636643,0.8888888888888888
5.64435397542,0.8944444444444445
7.01941602145,0.9
10.0254876886,0.9055555555555556
11.1938594592,0.9111111111111111
12.4752693903,0.9166666666666666
13.3574633856,0.9222222222222223
14.68671988,0.9277777777777778
25.5757973919,0.9333333333333333
26.7445977619,0.9388888888888889
28.9608333587,0.9444444444444444
31.1476146141,0.95
32.1141523674,0.9555555555555556
34.319714128,0.9611111111111111
36.5987201779,0.9666666666666667
37.5666537727,0.9722222222222222
38.7248866679,0.9777777777777777
39.7432336629,0.9833333333333333
39.9506072556,0.9888888888888889
41.908044094,0.9944444444444445
43.18175786,1.0
