Congestion,CDF
0.0,0.005555555555555556
0.0,0.011111111111111112
0.0,0.016666666666666666
0.0,0.022222222222222223
0.0,0.027777777777777776
0.0,0.03333333333333333
0.0,0.03888888888888889
0.0,0.044444444444444446
0.0,0.05
0.0,0.05555555555555555
4.27951174549e-07,0.06111111111111111
4.91695318069e-07,0.06666666666666667
1.1067654224e-06,0.07222222222222222
1.61760204531e-06,0.07777777777777778
1.655204961e-06,0.08333333333333333
2.18544034422e-06,0.08888888888888889
2.40427362721e-06,0.09444444444444444
3.31363731073e-06,0.1
3.33073253142e-06,0.10555555555555556
3.40765202894e-06,0.1111111111111111
3.47778541758e-06,0.11666666666666667
3.82833124277e-06,0.12222222222222222
3.91712846761e-06,0.12777777777777777
4.3742333775e-06,0.13333333333333333
4.48009376217e-06,0.1388888888888889
4.71759579711e-06,0.14444444444444443
5.45502034294e-06,0.15
5.97001398948e-06,0.15555555555555556
6.23389712458e-06,0.16111111111111112
6.48350935189e-06,0.16666666666666666
6.58609178093e-06,0.17222222222222222
6.63898681981e-06,0.17777777777777778
6.85894592333e-06,0.18333333333333332
7.09728122078e-06,0.18888888888888888
7.21708636177e-06,0.19444444444444445
7.29859031809e-06,0.2
7.33908293212e-06,0.20555555555555555
7.42336045487e-06,0.2111111111111111
7.49590011635e-06,0.21666666666666667
7.51234908064e-06,0.2222222222222222
7.76335596093e-06,0.22777777777777777
7.82812465984e-06,0.23333333333333334
7.91798665765e-06,0.2388888888888889
8.57475486092e-06,0.24444444444444444
9.02288434557e-06,0.25
9.79622791633e-06,0.25555555555555554
9.95142183348e-06,0.2611111111111111
1.00946300075e-05,0.26666666666666666
1.04364840071e-05,0.2722222222222222
3.68921807467e-05,0.2777777777777778
7.37843614934e-05,0.2833333333333333
8.08801022655e-05,0.28888888888888886
8.08801022655e-05,0.29444444444444445
8.32683132855e-05,0.3
8.32683132855e-05,0.3055555555555556
0.00012606343074,0.3111111111111111
0.0001655204961,0.31666666666666665
0.000166536626571,0.32222222222222224
0.000221732108895,0.3277777777777778
0.000331363731073,0.3333333333333333
0.000344607465162,0.3388888888888889
0.000364929515904,0.34444444444444444
0.000364929515904,0.35
0.000466101437563,0.35555555555555557
0.000709728122078,0.3611111111111111
0.000721708636177,0.36666666666666664
0.000744778784247,0.37222222222222223
0.000802352853654,0.37777777777777777
0.000848896682514,0.38333333333333336
0.000848896682514,0.3888888888888889
0.000967997177621,0.39444444444444443
0.00102299598219,0.4
0.00109999501726,0.40555555555555556
0.00117599962732,0.4111111111111111
0.00131967312407,0.4166666666666667
0.00146096303014,0.4222222222222222
0.00154468889914,0.42777777777777776
0.0015839166221,0.43333333333333335
0.00162523227861,0.4388888888888889
0.00199806123158,0.4444444444444444
0.00234583977334,0.45
0.00245608909036,0.45555555555555555
0.00303283550712,0.46111111111111114
0.003435711882,0.4666666666666667
0.00611258357367,0.4722222222222222
0.00682917844005,0.4777777777777778
0.00717129012292,0.48333333333333334
0.00740768800826,0.4888888888888889
0.00741414742154,0.49444444444444446
0.00742641997208,0.5
0.00743650599463,0.5055555555555555
0.0074599479737,0.5111111111111111
0.00748742535816,0.5166666666666667
0.00750993659218,0.5222222222222223
0.00757142432847,0.5277777777777778
0.00757899199377,0.5333333333333333
0.00758902197774,0.5388888888888889
0.00758921686242,0.5444444444444444
0.0076083401698,0.55
0.00762755852055,0.5555555555555556
0.00762890737658,0.5611111111111111
0.00762933113706,0.5666666666666667
0.00764386503464,0.5722222222222222
0.00766923901207,0.5777777777777777
0.00771179215691,0.5833333333333334
0.00772510900712,0.5888888888888889
0.00773059116565,0.5944444444444444
0.00775064664911,0.6
0.00777355386965,0.6055555555555555
0.0077773127614,0.6111111111111112
0.00778393049105,0.6166666666666667
0.00778845535237,0.6222222222222222
0.00779308039044,0.6277777777777778
0.00779509217127,0.6333333333333333
0.00779971580655,0.6388888888888888
0.00779993493977,0.6444444444444445
0.00782237708989,0.65
0.00782286449582,0.6555555555555556
0.00786465756872,0.6611111111111111
0.00788199178302,0.6666666666666666
0.00792465232225,0.6722222222222223
0.00793286486009,0.6777777777777778
0.00794845146925,0.6833333333333333
0.00794998068969,0.6888888888888889
0.00848015439534,0.6944444444444444
0.0086862189256,0.7
0.00913876357343,0.7055555555555556
0.00923885860758,0.7111111111111111
0.00978436064187,0.7166666666666667
0.0105671731079,0.7222222222222222
0.0106331323693,0.7277777777777777
0.0108076004706,0.7333333333333333
0.0109738975722,0.7388888888888889
0.011365610419,0.7444444444444445
0.189474799844,0.75
0.189474799844,0.7555555555555555
0.248664932457,0.7611111111111111
0.286338644597,0.7666666666666667
0.370384400413,0.7722222222222223
0.370384400413,0.7777777777777778
0.378949599689,0.7833333333333333
0.389422767619,0.7888888888888889
0.389422767619,0.7944444444444444
0.497329864914,0.8
0.748742535816,0.8055555555555556
0.757142432847,0.8111111111111111
0.77773127614,0.8166666666666667
0.779308039044,0.8222222222222222
0.930889541999,0.8277777777777777
0.950308816824,0.8333333333333334
1.13331751412,0.8388888888888889
1.15231350528,0.8444444444444444
1.17394766866,0.85
1.21783201852,0.8555555555555555
1.21783201852,0.8611111111111112
1.53520829269,0.8666666666666667
1.55772477012,0.8722222222222222
1.68188320122,0.8777777777777778
1.9318227224,0.8833333333333333
1.97148464999,0.8888888888888888
2.0001184681,0.8944444444444445
2.45494231778,0.9
3.55678189411,0.9055555555555556
3.93195866572,0.9111111111111111
4.38374522724,0.9166666666666666
4.69088035196,0.9222222222222223
5.17621045946,0.9277777777777778
9.02763382672,0.9333333333333333
9.45904443799,0.9388888888888889
10.2538895849,0.9444444444444444
11.0250688006,0.95
11.3379067843,0.9555555555555556
12.1261059626,0.9611111111111111
12.9253102159,0.9666666666666667
13.2592462151,0.9722222222222222
13.6082280599,0.9777777777777777
13.7401953723,0.9833333333333333
14.0181484129,0.9888888888888889
14.7352774252,0.9944444444444445
14.8936690874,1.0
