Congestion,CDF
0.0,0.005555555555555556
0.0,0.011111111111111112
0.0,0.016666666666666666
0.0,0.022222222222222223
0.0,0.027777777777777776
0.0,0.03333333333333333
0.0,0.03888888888888889
0.0,0.044444444444444446
0.0,0.05
0.0,0.05555555555555555
4.60380898833e-07,0.06111111111111111
5.28955511626e-07,0.06666666666666667
1.19063503097e-06,0.07222222222222222
1.74018235692e-06,0.07777777777777778
1.78063478504e-06,0.08333333333333333
2.35105089051e-06,0.08888888888888889
2.5864671471e-06,0.09444444444444444
3.56474152719e-06,0.1
3.58313220709e-06,0.10555555555555556
3.66588058941e-06,0.1111111111111111
3.74132861811e-06,0.11666666666666667
4.11843846541e-06,0.12222222222222222
4.21396465768e-06,0.12777777777777777
4.7057085336e-06,0.13333333333333333
4.81959091539e-06,0.1388888888888889
5.07509062382e-06,0.14444444444444443
5.86839648538e-06,0.15
6.42241585018e-06,0.15555555555555556
6.70629579291e-06,0.16111111111111112
6.97482339233e-06,0.16666666666666666
7.08517941819e-06,0.17222222222222222
7.14208279173e-06,0.17777777777777778
7.37871018244e-06,0.18333333333333332
7.6351062972e-06,0.18888888888888888
7.76399015539e-06,0.19444444444444445
7.85167040235e-06,0.2
7.89523150734e-06,0.20555555555555555
7.98589549889e-06,0.2111111111111111
8.06393214546e-06,0.21666666666666667
8.08162759628e-06,0.2222222222222222
8.35165553412e-06,0.22777777777777777
8.42133234212e-06,0.23333333333333334
8.51800399483e-06,0.2388888888888889
9.22454145454e-06,0.24444444444444444
9.70662975621e-06,0.25
1.05385765515e-05,0.25555555555555554
1.07055309129e-05,0.2611111111111111
1.08595912632e-05,0.26666666666666666
1.12273506269e-05,0.2722222222222222
3.96878343656e-05,0.2777777777777778
4.14915696273e-05,0.2833333333333333
7.93756687313e-05,0.28888888888888886
8.70091178462e-05,0.29444444444444445
8.70091178462e-05,0.3
8.95783051773e-05,0.3055555555555556
8.95783051773e-05,0.3111111111111111
0.000135616395061,0.31666666666666665
0.000178063478504,0.32222222222222224
0.000179156610355,0.3277777777777778
0.000238534752711,0.3333333333333333
0.000290848457247,0.3388888888888889
0.000356474152719,0.34444444444444444
0.000370721484112,0.35
0.000392583520117,0.35555555555555557
0.000392583520117,0.3611111111111111
0.000501422151718,0.36666666666666664
0.00076351062972,0.37222222222222223
0.000776399015539,0.37777777777777777
0.00080121739702,0.38333333333333336
0.000863154373477,0.3888888888888889
0.000913225248474,0.39444444444444443
0.000913225248474,0.4
0.0010413510634,0.40555555555555556
0.00110051762396,0.4111111111111111
0.0011833515711,0.4166666666666667
0.00126511573668,0.4222222222222222
0.00157167338935,0.42777777777777776
0.00166174392337,0.43333333333333335
0.00174839080189,0.4388888888888889
0.00214947237074,0.4444444444444444
0.00252360523255,0.45
0.00264220913572,0.45555555555555555
0.00326266083567,0.46111111111111114
0.00369606679087,0.4666666666666667
0.00560897456925,0.4722222222222222
0.00596832453315,0.4777777777777778
0.00621714195786,0.48333333333333334
0.00622144051565,0.4888888888888889
0.00623390619391,0.49444444444444446
0.00626929747361,0.5
0.00629843542785,0.5055555555555555
0.00632255378347,0.5111111111111111
0.0063874591558,0.5166666666666667
0.00639507872413,0.5222222222222223
0.00640574905342,0.5277777777777778
0.00640907718424,0.5333333333333333
0.00642593432415,0.5388888888888889
0.00644765960779,0.5444444444444444
0.00644815395245,0.55
0.0064526543555,0.5555555555555556
0.00646343361555,0.5611111111111111
0.00649477027849,0.5666666666666667
0.00653745118555,0.5722222222222222
0.00654919112624,0.5777777777777777
0.0065554726368,0.5833333333333334
0.00657578921895,0.5888888888888889
0.00657628296152,0.5944444444444444
0.0066003288599,0.6
0.00660480787042,0.6055555555555555
0.00661656149117,0.6111111111111112
0.00662094032305,0.6166666666666667
0.00662357546783,0.6222222222222222
0.006627945202,0.6277777777777778
0.00662868744027,0.6333333333333333
0.00665236022374,0.6388888888888888
0.00665237930664,0.6444444444444445
0.00669662952111,0.65
0.00671530626735,0.6555555555555556
0.00676032489828,0.6611111111111111
0.00676900509987,0.6666666666666666
0.00678603512263,0.6722222222222223
0.00678655781991,0.6777777777777778
0.00800003719488,0.6833333333333333
0.00837378918214,0.6888888888888889
0.00912277225757,0.6944444444444444
0.00934445215776,0.7
0.00983129019939,0.7055555555555556
0.00993897033799,0.7111111111111111
0.0105258099865,0.7166666666666667
0.0113679432207,0.7222222222222222
0.011438900811,0.7277777777777777
0.0116265899355,0.7333333333333333
0.0118054888699,0.7388888888888889
0.0122268853357,0.7444444444444445
0.159876968103,0.75
0.159876968103,0.7555555555555555
0.208976582454,0.7611111111111111
0.240162227557,0.7666666666666667
0.310857097893,0.7722222222222223
0.310857097893,0.7777777777777778
0.319753936206,0.7833333333333333
0.330828074558,0.7888888888888889
0.330828074558,0.7944444444444444
0.417953164908,0.8
0.629843542785,0.8055555555555556
0.63874591558,0.8111111111111111
0.660480787042,0.8166666666666667
0.662094032305,0.8222222222222222
0.782021019668,0.8277777777777777
0.802470400518,0.8333333333333334
0.956122533443,0.8388888888888889
0.975643469803,0.8444444444444444
0.998409718197,0.85
1.03135312233,0.8555555555555555
1.03135312233,0.8611111111111112
1.2995064949,0.8666666666666667
1.32334953107,0.8722222222222222
1.41427639802,0.8777777777777778
1.63800101659,0.8833333333333333
1.6663660956,0.8888888888888888
1.69659105299,0.8944444444444445
2.0698236617,0.9
3.01871797129,0.9055555555555556
3.32110983732,0.9111111111111111
3.70463367421,0.9166666666666666
3.96168474266,0.9222222222222223
4.38066616404,0.9277777777777778
7.64319723415,0.9333333333333333
8.01891722168,0.9388888888888889
8.69752073394,0.9444444444444444
9.3512658525,0.95
9.6003320252,0.9555555555555556
10.2718626519,0.9611111111111111
10.9568654138,0.9666666666666667
11.2274857106,0.9722222222222222
11.5177628707,0.9777777777777777
11.5219120277,0.9833333333333333
11.868393429,0.9888888888888889
12.4652258823,0.9944444444444445
12.4943107281,1.0
