Congestion,CDF
0.0,0.005555555555555556
0.0,0.011111111111111112
0.0,0.016666666666666666
0.0,0.022222222222222223
0.0,0.027777777777777776
0.0,0.03333333333333333
0.0,0.03888888888888889
0.0,0.044444444444444446
0.0,0.05
0.0,0.05555555555555555
6.93986310696e-07,0.06111111111111111
7.97356895054e-07,0.06666666666666667
1.79478430713e-06,0.07222222222222222
2.62318166735e-06,0.07777777777777778
2.68416037307e-06,0.08333333333333333
3.54401570069e-06,0.08888888888888889
3.89888633022e-06,0.09444444444444444
5.3735544357e-06,0.1
5.40127687191e-06,0.10555555555555556
5.52601324717e-06,0.1111111111111111
5.63974494026e-06,0.11666666666666667
6.20820699487e-06,0.12222222222222222
6.35220486688e-06,0.12777777777777777
7.09346828402e-06,0.13333333333333333
7.26513660082e-06,0.1388888888888889
7.65028138091e-06,0.14444444444444443
8.84612466963e-06,0.15
9.68126326031e-06,0.15555555555555556
1.01091889076e-05,0.16111111111111112
1.0513972161e-05,0.16666666666666666
1.06803247865e-05,0.17222222222222222
1.07661019384e-05,0.17777777777777778
1.11227982529e-05,0.18333333333333332
1.15092942917e-05,0.18888888888888888
1.17035760994e-05,0.19444444444444445
1.18357468547e-05,0.2
1.19014116349e-05,0.20555555555555555
1.20380801396e-05,0.2111111111111111
1.2155713961e-05,0.21666666666666667
1.21823883966e-05,0.2222222222222222
1.25894332867e-05,0.22777777777777777
1.26944653396e-05,0.23333333333333334
1.28401898989e-05,0.2388888888888889
1.39052369638e-05,0.24444444444444444
1.46319453976e-05,0.25
1.58860367133e-05,0.25555555555555554
1.6137706671e-05,0.2611111111111111
1.63699399683e-05,0.26666666666666666
1.69243069385e-05,0.2722222222222222
5.9826143571e-05,0.2777777777777778
0.000119652287142,0.2833333333333333
0.000131159083368,0.28888888888888886
0.000131159083368,0.29444444444444445
0.000135031921798,0.3
0.000135031921798,0.3055555555555556
0.000204430552867,0.3111111111111111
0.000268416037307,0.31666666666666665
0.000270063843595,0.32222222222222224
0.000359571505739,0.3277777777777778
0.00053735544357,0.3333333333333333
0.000558832122937,0.3388888888888889
0.000591787342735,0.34444444444444444
0.000591787342735,0.35
0.000755852621284,0.35555555555555557
0.00115092942917,0.3611111111111111
0.00117035760994,0.36666666666666664
0.00120776927721,0.37222222222222223
0.00130113417114,0.37777777777777777
0.00137661189382,0.38333333333333336
0.00137661189382,0.3888888888888889
0.0015697510137,0.39444444444444443
0.00165893973369,0.4
0.00178380509089,0.40555555555555556
0.00190705784042,0.4111111111111111
0.00235839513693,0.4166666666666667
0.00236916826883,0.4222222222222222
0.00238937564259,0.42777777777777776
0.00250494218509,0.43333333333333335
0.00263555522249,0.4388888888888889
0.00268039943066,0.4444444444444444
0.00273512598327,0.45
0.00281996470659,0.45555555555555555
0.00282061914059,0.46111111111111114
0.00282565871876,0.4666666666666667
0.00283171509019,0.4722222222222222
0.00285631872498,0.4777777777777778
0.00286433905479,0.48333333333333334
0.00286539516729,0.4888888888888889
0.00286692280802,0.49444444444444446
0.00286745001769,0.5
0.0028691175827,0.5055555555555555
0.0028701903834,0.5111111111111111
0.00287372995911,0.5166666666666667
0.00288012922971,0.5222222222222223
0.00288039106929,0.5277777777777778
0.00288346702309,0.5333333333333333
0.00288558853095,0.5388888888888889
0.00288953300612,0.5444444444444444
0.00289134979888,0.55
0.00289655916051,0.5555555555555556
0.00289777379012,0.5611111111111111
0.00289852661006,0.5666666666666667
0.00289855002255,0.5722222222222222
0.00289906353672,0.5777777777777777
0.0028993884919,0.5833333333333334
0.00290151101385,0.5888888888888889
0.00290392985008,0.5944444444444444
0.00290609732063,0.6
0.00290683564545,0.6055555555555555
0.00290727056779,0.6111111111111112
0.00290845674521,0.6166666666666667
0.00290940335129,0.6222222222222222
0.00291203483901,0.6277777777777778
0.00291284367331,0.6333333333333333
0.00291378005984,0.6388888888888888
0.00292351225189,0.6444444444444445
0.00324015267422,0.65
0.00380412716824,0.6555555555555556
0.0039829127899,0.6611111111111111
0.00491819265773,0.6666666666666666
0.00557151646123,0.6722222222222223
0.00991246098946,0.6777777777777778
0.0120593975823,0.6833333333333333
0.0126227979393,0.6888888888888889
0.0137518282761,0.6944444444444444
0.014085992479,0.7
0.0148198607548,0.7055555555555556
0.0149821797005,0.7111111111111111
0.0158667921674,0.7166666666666667
0.0171362387014,0.7222222222222222
0.0172432014281,0.7277777777777777
0.0175261273344,0.7333333333333333
0.0177958027528,0.7388888888888889
0.0184310232395,0.7444444444444445
0.0720097767322,0.75
0.0720097767322,0.7555555555555555
0.0956372527565,0.7611111111111111
0.111100713136,0.7666666666666667
0.140998235329,0.7722222222222223
0.140998235329,0.7777777777777778
0.144019553464,0.7833333333333333
0.144888689506,0.7888888888888889
0.144888689506,0.7944444444444444
0.191274505513,0.8
0.28701903834,0.8055555555555556
0.287372995911,0.8111111111111111
0.289655916051,0.8166666666666667
0.290609732063,0.8222222222222222
0.35764164923,0.8277777777777777
0.360568629827,0.8333333333333334
0.423060149388,0.8388888888888889
0.432901612477,0.8444444444444444
0.436370778653,0.85
0.458299292389,0.8555555555555555
0.458299292389,0.8611111111111112
0.578222522241,0.8666666666666667
0.579562269723,0.8722222222222222
0.644333930032,0.8777777777777778
0.722754273483,0.8833333333333333
0.746060884838,0.8888888888888888
0.749239627518,0.8944444444444445
0.93346890992,0.9
1.33024234459,0.9055555555555556
1.49089969396,0.9111111111111111
1.65588169672,0.9166666666666666
1.77924639627,0.9222222222222223
1.94716606405,0.9277777777777778
3.4001723054,0.9333333333333333
3.54086061324,0.9388888888888889
3.83158767002,0.9444444444444444
4.1180215755,0.95
4.26833367683,0.9555555555555556
4.55917935135,0.9611111111111111
4.82364759677,0.9666666666666667
4.98692258845,0.9722222222222222
5.09168753983,0.9777777777777777
5.27009409747,0.9833333333333333
5.32752705352,0.9888888888888889
5.5436066958,0.9944444444444445
5.78254426006,1.0
