Congestion,CDF
0.0,0.009433962264150943
0.0,0.018867924528301886
0.0,0.02830188679245283
0.0,0.03773584905660377
0.0,0.04716981132075472
0.0,0.05660377358490566
0.0,0.0660377358490566
0.0,0.07547169811320754
0.0,0.08490566037735849
0.0,0.09433962264150944
0.0,0.10377358490566038
0.0,0.11320754716981132
0.0,0.12264150943396226
0.0,0.1320754716981132
0.0,0.14150943396226415
0.0,0.1509433962264151
0.0,0.16037735849056603
0.0,0.16981132075471697
0.0,0.1792452830188679
0.0,0.18867924528301888
0.0,0.19811320754716982
0.0,0.20754716981132076
0.0,0.2169811320754717
0.0,0.22641509433962265
0.0,0.2358490566037736
0.0,0.24528301886792453
0.0,0.25471698113207547
0.0,0.2641509433962264
0.0,0.27358490566037735
0.0,0.2830188679245283
4.62463428634e-08,0.29245283018867924
1.19141737188e-06,0.3018867924528302
1.33976954635e-06,0.3113207547169811
1.81627751233e-06,0.32075471698113206
2.05024961042e-06,0.330188679245283
2.72811153905e-06,0.33962264150943394
4.16041202757e-06,0.3490566037735849
5.32554717386e-06,0.3584905660377358
5.63610379608e-06,0.36792452830188677
6.57356166244e-06,0.37735849056603776
7.60590712598e-06,0.3867924528301887
8.09362865101e-06,0.39622641509433965
8.27908397225e-06,0.4056603773584906
8.73524833828e-06,0.41509433962264153
5.59756575444e-05,0.42452830188679247
7.67281370358e-05,0.4339622641509434
7.67281370358e-05,0.44339622641509435
0.00019970801902,0.4528301886792453
0.00019970801902,0.46226415094339623
0.00019970801902,0.4716981132075472
0.000204608365429,0.4811320754716981
0.000204608365429,0.49056603773584906
0.000204608365429,0.5
0.000315886104593,0.5094339622641509
0.000345129285956,0.5188679245283019
0.000377233225265,0.5283018867924528
0.000377233225265,0.5377358490566038
0.00039941603804,0.5471698113207547
0.00039941603804,0.5566037735849056
0.000544883253698,0.5660377358490566
0.000694555504403,0.5754716981132075
0.000694555504403,0.5849056603773585
0.00086057082836,0.5943396226415094
0.00086057082836,0.6037735849056604
0.00108680343923,0.6132075471698113
0.0013218769907,0.6226415094339622
0.00178647685112,0.6320754716981132
0.0022817721378,0.6415094339622641
0.00278573739341,0.6509433962264151
0.00282600170447,0.660377358490566
0.00603268972699,0.6698113207547169
0.0125563983077,0.6792452830188679
0.0129544451867,0.6886792452830188
0.0296867592286,0.6981132075471698
0.0373706188668,0.7075471698113207
0.0402538965549,0.7169811320754716
0.0428471345724,0.7264150943396226
0.0487098284906,0.7358490566037735
0.0490634066282,0.7452830188679245
0.0498948462375,0.7547169811320755
0.0527566954686,0.7641509433962265
0.0534790299639,0.7735849056603774
0.429925794699,0.7830188679245284
1.37990831142,0.7924528301886793
1.37990831142,0.8018867924528302
1.8266185684,0.8113207547169812
1.8266185684,0.8207547169811321
1.8266185684,0.8301886792452831
3.51586047478,0.839622641509434
3.65323713679,0.8490566037735849
3.65323713679,0.8584905660377359
3.67975549711,0.8679245283018868
3.67975549711,0.8773584905660378
3.67975549711,0.8867924528301887
6.95406686023,0.8962264150943396
6.95406686023,0.9056603773584906
7.57017487711,0.9150943396226415
7.57017487711,0.9245283018867925
8.36304243943,0.9339622641509434
8.36304243943,0.9433962264150944
10.3953644963,0.9528301886792453
10.4849250441,0.9622641509433962
19.4935049575,0.9716981132075472
19.7102053061,0.9811320754716981
29.3288401681,0.9905660377358491
62.4306024827,1.0
