Congestion,CDF
0.0,0.009433962264150943
0.0,0.018867924528301886
0.0,0.02830188679245283
0.0,0.03773584905660377
0.0,0.04716981132075472
0.0,0.05660377358490566
0.0,0.0660377358490566
0.0,0.07547169811320754
0.0,0.08490566037735849
0.0,0.09433962264150944
0.0,0.10377358490566038
0.0,0.11320754716981132
0.0,0.12264150943396226
0.0,0.1320754716981132
0.0,0.14150943396226415
0.0,0.1509433962264151
0.0,0.16037735849056603
0.0,0.16981132075471697
0.0,0.1792452830188679
0.0,0.18867924528301888
0.0,0.19811320754716982
0.0,0.20754716981132076
0.0,0.2169811320754717
0.0,0.22641509433962265
0.0,0.2358490566037736
0.0,0.24528301886792453
0.0,0.25471698113207547
0.0,0.2641509433962264
0.0,0.27358490566037735
0.0,0.2830188679245283
4.83135279894e-08,0.29245283018867924
1.24467304828e-06,0.3018867924528302
1.39965648025e-06,0.3113207547169811
1.8974640803e-06,0.32075471698113206
2.14189459761e-06,0.330188679245283
2.85005656749e-06,0.33962264150943394
4.34638007022e-06,0.3490566037735849
5.56359609242e-06,0.3584905660377358
5.88803441837e-06,0.36792452830188677
6.86739611621e-06,0.37735849056603776
7.60590712598e-06,0.3867924528301887
8.45540923142e-06,0.39622641509433965
8.64915429966e-06,0.4056603773584906
9.12570895244e-06,0.41509433962264153
5.84777374827e-05,0.42452830188679247
8.01578409607e-05,0.4339622641509434
8.01578409607e-05,0.44339622641509435
0.000144027520573,0.4528301886792453
0.000208634853466,0.46226415094339623
0.000208634853466,0.4716981132075472
0.000208634853466,0.4811320754716981
0.000213754242562,0.49056603773584906
0.000213754242562,0.5
0.000213754242562,0.5094339622641509
0.000330006033144,0.5188679245283019
0.000394095335089,0.5283018867924528
0.000394095335089,0.5377358490566038
0.000417269706932,0.5471698113207547
0.000417269706932,0.5566037735849056
0.000569239224089,0.5660377358490566
0.000725601738959,0.5754716981132075
0.000725601738959,0.5849056603773585
0.000899037853127,0.5943396226415094
0.000899037853127,0.6037735849056604
0.00113538293255,0.6132075471698113
0.00138096413759,0.6226415094339622
0.00186633134655,0.6320754716981132
0.0022817721378,0.6415094339622641
0.00251811012812,0.6509433962264151
0.00288811239694,0.660377358490566
0.00291025826464,0.6698113207547169
0.00295232236743,0.6792452830188679
0.006302347514,0.6886792452830188
0.0195005315429,0.6981132075471698
0.027402247008,0.7075471698113207
0.0315182699586,0.7169811320754716
0.0340562571184,0.7264150943396226
0.0415655649014,0.7358490566037735
0.0420814965802,0.7452830188679245
0.0428995155698,0.7547169811320755
0.0462053684793,0.7641509433962265
0.0470650813847,0.7735849056603774
0.337852188496,0.7830188679245284
1.18354209132,0.7924528301886793
1.18354209132,0.8018867924528302
1.5587086838,0.8113207547169812
1.5587086838,0.8207547169811321
1.5587086838,0.8301886792452831
2.73386629235,0.839622641509434
3.1174173676,0.8490566037735849
3.1174173676,0.8584905660377359
3.15611224352,0.8679245283018868
3.15611224352,0.8773584905660378
3.15611224352,0.8867924528301887
5.43532639257,0.8962264150943396
5.43532639257,0.9056603773584906
6.18390252999,0.9150943396226415
6.18390252999,0.9245283018867925
6.75047730882,0.9339622641509434
6.8337278193,0.9433962264150944
7.17876910577,0.9528301886792453
7.17876910577,0.9622641509433962
16.9983753493,0.9716981132075472
17.256289221,0.9811320754716981
22.6689534607,0.9905660377358491
53.2818376989,1.0
