Congestion,CDF
0.0,0.009433962264150943
0.0,0.018867924528301886
0.0,0.02830188679245283
0.0,0.03773584905660377
0.0,0.04716981132075472
0.0,0.05660377358490566
0.0,0.0660377358490566
0.0,0.07547169811320754
0.0,0.08490566037735849
0.0,0.09433962264150944
0.0,0.10377358490566038
0.0,0.11320754716981132
0.0,0.12264150943396226
0.0,0.1320754716981132
0.0,0.14150943396226415
0.0,0.1509433962264151
0.0,0.16037735849056603
0.0,0.16981132075471697
0.0,0.1792452830188679
0.0,0.18867924528301888
0.0,0.19811320754716982
0.0,0.20754716981132076
0.0,0.2169811320754717
0.0,0.22641509433962265
0.0,0.2358490566037736
0.0,0.24528301886792453
0.0,0.25471698113207547
0.0,0.2641509433962264
0.0,0.27358490566037735
0.0,0.2830188679245283
4.83997976691e-08,0.29245283018867924
1.24689556337e-06,0.3018867924528302
1.40215573711e-06,0.3113207547169811
1.90085223317e-06,0.32075471698113206
2.1457192109e-06,0.330188679245283
2.85514569009e-06,0.33962264150943394
4.3541410604e-06,0.3490566037735849
5.57353056985e-06,0.3584905660377358
5.89854821988e-06,0.36792452830188677
6.87965868713e-06,0.37735849056603776
8.47050739288e-06,0.3867924528301887
8.6645984165e-06,0.39622641509433965
9.14200401557e-06,0.4056603773584906
5.85821565945e-05,0.41509433962264153
8.03009725339e-05,0.42452830188679247
8.03009725339e-05,0.4339622641509434
0.000209007396369,0.44339622641509435
0.000209007396369,0.4528301886792453
0.000209007396369,0.46226415094339623
0.000214135926757,0.4716981132075472
0.000214135926757,0.4811320754716981
0.000214135926757,0.49056603773584906
0.000330595299048,0.5
0.000394799040236,0.5094339622641509
0.000394799040236,0.5188679245283019
0.000418014792739,0.5283018867924528
0.000418014792739,0.5377358490566038
0.00057025566995,0.5471698113207547
0.000726897389106,0.5566037735849056
0.000726897389106,0.5660377358490566
0.000900643194548,0.5754716981132075
0.000900643194548,0.5849056603773585
0.00113741029686,0.5943396226415094
0.001383430017,0.6037735849056604
0.00186966390813,0.6132075471698113
0.0029154548847,0.6226415094339622
0.00295759409805,0.6320754716981132
0.00631360112193,0.6415094339622641
0.0144032537853,0.6509433962264151
0.0185447842233,0.660377358490566
0.0220706430769,0.6698113207547169
0.0221887578625,0.6792452830188679
0.024438283122,0.6886792452830188
0.0264356296798,0.6981132075471698
0.0264835050182,0.7075471698113207
0.0280264472016,0.7169811320754716
0.0281060876427,0.7264150943396226
0.0289021614195,0.7358490566037735
0.0296567975952,0.7452830188679245
0.0311268182685,0.7547169811320755
0.031298457896,0.7641509433962265
0.331681626792,0.7735849056603774
0.79048371495,0.7830188679245284
0.79048371495,0.7924528301886793
1.05099177006,0.8018867924528302
1.05099177006,0.8113207547169812
1.05099177006,0.8207547169811321
2.10198354012,0.8301886792452831
2.10198354012,0.839622641509434
2.1079565732,0.8490566037735849
2.1079565732,0.8584905660377359
2.1079565732,0.8679245283018868
3.78438324771,0.8773584905660378
4.32803439372,0.8867924528301887
4.32803439372,0.8962264150943396
4.55273588147,0.9056603773584906
4.55273588147,0.9150943396226415
4.91511727196,0.9245283018867925
4.91511727196,0.9339622641509434
5.563435267,0.9433962264150944
9.51863057377,0.9528301886792453
9.54520640053,0.9622641509433962
11.4430155372,0.9716981132075472
11.4945074254,0.9811320754716981
20.2692537264,0.9905660377358491
38.1616610845,1.0
