Congestion,CDF
0.0,0.009433962264150943
0.0,0.018867924528301886
0.0,0.02830188679245283
0.0,0.03773584905660377
0.0,0.04716981132075472
0.0,0.05660377358490566
0.0,0.0660377358490566
0.0,0.07547169811320754
0.0,0.08490566037735849
0.0,0.09433962264150944
0.0,0.10377358490566038
0.0,0.11320754716981132
0.0,0.12264150943396226
0.0,0.1320754716981132
0.0,0.14150943396226415
0.0,0.1509433962264151
0.0,0.16037735849056603
0.0,0.16981132075471697
0.0,0.1792452830188679
0.0,0.18867924528301888
0.0,0.19811320754716982
0.0,0.20754716981132076
0.0,0.2169811320754717
0.0,0.22641509433962265
0.0,0.2358490566037736
0.0,0.24528301886792453
0.0,0.25471698113207547
0.0,0.2641509433962264
0.0,0.27358490566037735
0.0,0.2830188679245283
5.37399735099e-08,0.29245283018867924
1.38447137741e-06,0.3018867924528302
1.55686213162e-06,0.3113207547169811
2.11058214241e-06,0.32075471698113206
2.38246643801e-06,0.330188679245283
3.17016725569e-06,0.33962264150943394
4.83455378975e-06,0.3490566037735849
6.18848424177e-06,0.3584905660377358
6.54936260789e-06,0.36792452830188677
7.60590712598e-06,0.37735849056603776
7.63872357754e-06,0.3867924528301887
9.40509805477e-06,0.39622641509433965
9.62060404797e-06,0.4056603773584906
1.01506840376e-05,0.41509433962264153
5.25309963026e-05,0.42452830188679247
6.5045799676e-05,0.4339622641509434
8.91609540662e-05,0.44339622641509435
8.91609540662e-05,0.4528301886792453
0.000213608567,0.46226415094339623
0.000232068159066,0.4716981132075472
0.000232068159066,0.4811320754716981
0.000232068159066,0.49056603773584906
0.000237762544176,0.5
0.000237762544176,0.5094339622641509
0.000237762544176,0.5188679245283019
0.000367071423207,0.5283018867924528
0.000425206839109,0.5377358490566038
0.000438359063173,0.5471698113207547
0.000438359063173,0.5566037735849056
0.000464136318133,0.5660377358490566
0.000464136318133,0.5754716981132075
0.000633174642723,0.5849056603773585
0.000807099374713,0.5943396226415094
0.000807099374713,0.6037735849056604
0.00100001536675,0.6132075471698113
0.00100001536675,0.6226415094339622
0.00126290608983,0.6320754716981132
0.00153607031531,0.6415094339622641
0.00207595266374,0.6509433962264151
0.0022817721378,0.660377358490566
0.00323713064555,0.6698113207547169
0.00328391927522,0.6792452830188679
0.00567700786165,0.6886792452830188
0.00701021023608,0.6981132075471698
0.0108120556596,0.7075471698113207
0.018647553035,0.7169811320754716
0.0188750101095,0.7264150943396226
0.0292254128534,0.7358490566037735
0.0304099446301,0.7452830188679245
0.0320010333142,0.7547169811320755
0.0363066458441,0.7641509433962265
0.0373718129056,0.7735849056603774
0.220025428523,0.7830188679245284
0.85527969272,0.7924528301886793
0.85527969272,0.8018867924528302
1.095952982,0.8113207547169812
1.095952982,0.8207547169811321
1.095952982,0.8301886792452831
1.45271008255,0.839622641509434
2.191905964,0.8490566037735849
2.191905964,0.8584905660377359
2.28074584725,0.8679245283018868
2.28074584725,0.8773584905660378
2.28074584725,0.8867924528301887
2.89360069093,0.8962264150943396
2.89360069093,0.9056603773584906
3.77509414566,0.9150943396226415
3.77509414566,0.9245283018867925
3.82315607323,0.9339622641509434
3.87076568446,0.9433962264150944
5.27736067707,0.9528301886792453
5.27736067707,0.9622641509433962
12.5977175158,0.9716981132075472
13.1283196589,0.9811320754716981
13.4478697773,0.9905660377358491
39.2751733718,1.0
