Congestion,CDF
0.0,0.007352941176470588
0.0,0.014705882352941176
0.0,0.022058823529411766
0.0,0.029411764705882353
0.0,0.03676470588235294
0.0,0.04411764705882353
0.0,0.051470588235294115
0.0,0.058823529411764705
0.0,0.0661764705882353
0.0,0.07352941176470588
0.0,0.08088235294117647
0.0,0.08823529411764706
0.0,0.09558823529411764
0.0,0.10294117647058823
1.56045014026e-05,0.11029411764705882
1.56045014026e-05,0.11764705882352941
1.56045014026e-05,0.125
1.56045014026e-05,0.1323529411764706
1.56045014026e-05,0.13970588235294118
1.56045014026e-05,0.14705882352941177
1.56045014026e-05,0.15441176470588236
1.56045014026e-05,0.16176470588235295
1.56045014026e-05,0.16911764705882354
1.56045014026e-05,0.17647058823529413
1.56045014026e-05,0.18382352941176472
1.56045014026e-05,0.19117647058823528
1.56045014026e-05,0.19852941176470587
1.56045014026e-05,0.20588235294117646
1.56045014026e-05,0.21323529411764705
1.56045014026e-05,0.22058823529411764
1.56045014026e-05,0.22794117647058823
1.56045014026e-05,0.23529411764705882
1.56045014026e-05,0.2426470588235294
1.56045014026e-05,0.25
1.56045014026e-05,0.25735294117647056
1.56045014026e-05,0.2647058823529412
1.56045014026e-05,0.27205882352941174
1.56045014026e-05,0.27941176470588236
1.56045014026e-05,0.2867647058823529
1.56045014026e-05,0.29411764705882354
1.56045014026e-05,0.3014705882352941
0.000390112535066,0.3088235294117647
0.000390112535066,0.3161764705882353
0.000421321537871,0.3235294117647059
0.000780225070132,0.33088235294117646
0.000780225070132,0.3382352941176471
0.000780225070132,0.34558823529411764
0.000780225070132,0.35294117647058826
0.0011703376052,0.3602941176470588
0.00130037511689,0.36764705882352944
0.00130037511689,0.375
0.00130037511689,0.38235294117647056
0.00156045014026,0.3897058823529412
0.00156045014026,0.39705882352941174
0.00156045014026,0.40441176470588236
0.00156045014026,0.4117647058823529
0.00156045014026,0.41911764705882354
0.00156045014026,0.4264705882352941
0.00156045014026,0.4338235294117647
0.00195056267533,0.4411764705882353
0.0023406752104,0.4485294117647059
0.0023406752104,0.45588235294117646
0.00286082525715,0.4632352941176471
0.00312090028053,0.47058823529411764
0.00312090028053,0.47794117647058826
0.00468135042079,0.4852941176470588
0.00536896177962,0.49264705882352944
0.00596737440791,0.5
0.00637183807274,0.5073529411764706
0.00840777302877,0.5147058823529411
0.00841696847624,0.5220588235294118
0.00846490933299,0.5294117647058824
0.00846490933299,0.5367647058823529
0.00874465548018,0.5441176470588235
0.00899328093196,0.5514705882352942
0.00909292796959,0.5588235294117647
0.00910503476446,0.5661764705882353
0.00919230207348,0.5735294117647058
0.00919230207348,0.5808823529411765
0.00919239434004,0.5882352941176471
0.00934894097106,0.5955882352941176
0.00940344961951,0.6029411764705882
0.009549952493,0.6102941176470589
0.0098088338226,0.6176470588235294
0.00981134935465,0.625
0.00989790920353,0.6323529411764706
0.00998596884987,0.6397058823529411
0.0100322413584,0.6470588235294118
0.0100322413584,0.6544117647058824
0.0100325314463,0.6617647058823529
0.0100325314463,0.6691176470588235
0.0100336644278,0.6764705882352942
0.0100336644278,0.6838235294117647
0.0100336644278,0.6911764705882353
0.0113132635169,0.6985294117647058
0.0115733385403,0.7058823529411765
0.0149543138442,0.7132352941176471
0.0185953641715,0.7205882352941176
0.0188554391949,0.7279411764705882
0.0201558143117,0.7352941176470589
0.0204158893351,0.7426470588235294
0.0219763394754,0.75
0.233723524277,0.7573529411764706
0.238748812325,0.7647058823529411
0.246640737199,0.7720588235294118
0.437232774009,0.7794117647058824
0.437232774009,0.7867647058823529
0.494895460176,0.7941176470588235
0.494895460176,0.8014705882352942
0.70117057283,0.8088235294117647
0.785920657252,0.8161764705882353
0.785920657252,0.8235294117647058
0.785920657252,0.8308823529411765
0.846490933299,0.8382352941176471
0.919230207348,0.8455882352941176
0.9549952493,0.8529411764705882
1.00322413584,0.8602941176470589
1.00325314463,0.8676470588235294
1.00336644278,0.875
1.00336644278,0.8823529411764706
1.15296295828,0.8897058823529411
1.27892962163,0.8970588235294118
1.47603039564,0.9044117647058824
1.6929818666,0.9117647058823529
1.6964241337,0.9191176470588235
2.00650628926,0.9264705882352942
3.01009932834,0.9338235294117647
3.77734403023,0.9411764705882353
6.8202937349,0.9485294117647058
7.26180270159,0.9558823529411765
9.54121570401,0.9632352941176471
10.632982526,0.9705882352941176
11.169878704,0.9779411764705882
11.9981294819,0.9852941176470589
12.8974575751,0.9926470588235294
13.4941950159,1.0
