Congestion,CDF
0.0,0.007352941176470588
0.0,0.014705882352941176
0.0,0.022058823529411766
0.0,0.029411764705882353
0.0,0.03676470588235294
0.0,0.04411764705882353
0.0,0.051470588235294115
0.0,0.058823529411764705
0.0,0.0661764705882353
0.0,0.07352941176470588
0.0,0.08088235294117647
0.0,0.08823529411764706
0.0,0.09558823529411764
0.0,0.10294117647058823
1.55346931073e-05,0.11029411764705882
1.55346931073e-05,0.11764705882352941
1.55346931073e-05,0.125
1.55346931073e-05,0.1323529411764706
1.55346931073e-05,0.13970588235294118
1.55346931073e-05,0.14705882352941177
1.55346931073e-05,0.15441176470588236
1.55346931073e-05,0.16176470588235295
1.55346931073e-05,0.16911764705882354
1.55346931073e-05,0.17647058823529413
1.55346931073e-05,0.18382352941176472
1.55346931073e-05,0.19117647058823528
1.55346931073e-05,0.19852941176470587
1.55346931073e-05,0.20588235294117646
1.55346931073e-05,0.21323529411764705
1.55346931073e-05,0.22058823529411764
1.55346931073e-05,0.22794117647058823
1.55346931073e-05,0.23529411764705882
1.55346931073e-05,0.2426470588235294
1.55346931073e-05,0.25
1.55346931073e-05,0.25735294117647056
1.55346931073e-05,0.2647058823529412
1.55346931073e-05,0.27205882352941174
1.55346931073e-05,0.27941176470588236
1.55346931073e-05,0.2867647058823529
1.55346931073e-05,0.29411764705882354
1.55346931073e-05,0.3014705882352941
0.000388367327683,0.3088235294117647
0.000388367327683,0.3161764705882353
0.000419436713897,0.3235294117647059
0.000776734655365,0.33088235294117646
0.000776734655365,0.3382352941176471
0.000776734655365,0.34558823529411764
0.000776734655365,0.35294117647058826
0.00116510198305,0.3602941176470588
0.00129455775894,0.36764705882352944
0.00129455775894,0.375
0.00129455775894,0.38235294117647056
0.00155346931073,0.3897058823529412
0.00155346931073,0.39705882352941174
0.00155346931073,0.40441176470588236
0.00155346931073,0.4117647058823529
0.00155346931073,0.41911764705882354
0.00155346931073,0.4264705882352941
0.00155346931073,0.4338235294117647
0.00194183663841,0.4411764705882353
0.0023302039661,0.4485294117647059
0.0023302039661,0.45588235294117646
0.00284802706967,0.4632352941176471
0.00310693862146,0.47058823529411764
0.00310693862146,0.47794117647058826
0.00466040793219,0.4852941176470588
0.00594172680511,0.49264705882352944
0.00634333301882,0.5
0.006578585833,0.5073529411764706
0.00939041144286,0.5147058823529411
0.00941498557514,0.5220588235294118
0.00947624016211,0.5294117647058824
0.00947624016211,0.5367647058823529
0.00976390237272,0.5441176470588235
0.00999503684036,0.5514705882352942
0.0101351320035,0.5588235294117647
0.010151838243,0.5661764705882353
0.01024272717,0.5735294117647058
0.01024272717,0.5808823529411765
0.010243217978,0.5882352941176471
0.0103991257775,0.5955882352941176
0.0104534162048,0.6029411764705882
0.0106007277945,0.6102941176470589
0.0108575657867,0.6176470588235294
0.0108615954311,0.625
0.0109494844596,0.6323529411764706
0.0110388969496,0.6397058823529411
0.0110856013303,0.6470588235294118
0.0110856015532,0.6544117647058824
0.0110859261998,0.6617647058823529
0.0110859263118,0.6691176470588235
0.0110870707009,0.6764705882352942
0.0110870707782,0.6838235294117647
0.0110870707782,0.6911764705882353
0.0112626525028,0.6985294117647058
0.0115215640546,0.7058823529411765
0.0148874142278,0.7132352941176471
0.0185121759529,0.7205882352941176
0.0187710875047,0.7279411764705882
0.0200656452636,0.7352941176470589
0.0203245568154,0.7426470588235294
0.0218780261261,0.75
0.259978144438,0.7573529411764706
0.265018194864,0.7647058823529411
0.273817851814,0.7720588235294118
0.488195118636,0.7794117647058824
0.488195118636,0.7867647058823529
0.54747422298,0.7941176470588235
0.54747422298,0.8014705882352942
0.779934433313,0.8088235294117647
0.873443546129,0.8161764705882353
0.873443546129,0.8235294117647058
0.873443546129,0.8308823529411765
0.947624016211,0.8382352941176471
1.024272717,0.8455882352941176
1.06007277945,0.8529411764705882
1.10856015532,0.8602941176470589
1.10859263118,0.8676470588235294
1.10870707782,0.875
1.10870707782,0.8823529411764706
1.28429994224,0.8897058823529411
1.42969367615,0.8970588235294118
1.63363376609,0.9044117647058824
1.88862737042,0.9117647058823529
1.89524803242,0.9191176470588235
2.21718525116,0.9264705882352942
3.32612122572,0.9338235294117647
4.20628892236,0.9411764705882353
7.59662461178,0.9485294117647058
8.02544496009,0.9558823529411765
10.5502524242,0.9632352941176471
11.8606074646,0.9705882352941176
12.4547801451,0.9779411764705882
13.2696427689,0.9852941176470589
14.269146453,0.9926470588235294
14.9270050363,1.0
