Congestion,CDF
0.0,0.007352941176470588
0.0,0.014705882352941176
0.0,0.022058823529411766
0.0,0.029411764705882353
0.0,0.03676470588235294
0.0,0.04411764705882353
0.0,0.051470588235294115
0.0,0.058823529411764705
0.0,0.0661764705882353
0.0,0.07352941176470588
0.0,0.08088235294117647
0.0,0.08823529411764706
0.0,0.09558823529411764
0.0,0.10294117647058823
1.7634501531e-05,0.11029411764705882
1.7634501531e-05,0.11764705882352941
1.7634501531e-05,0.125
1.7634501531e-05,0.1323529411764706
1.7634501531e-05,0.13970588235294118
1.7634501531e-05,0.14705882352941177
1.7634501531e-05,0.15441176470588236
1.7634501531e-05,0.16176470588235295
1.7634501531e-05,0.16911764705882354
1.7634501531e-05,0.17647058823529413
1.7634501531e-05,0.18382352941176472
1.7634501531e-05,0.19117647058823528
1.7634501531e-05,0.19852941176470587
1.7634501531e-05,0.20588235294117646
1.7634501531e-05,0.21323529411764705
1.7634501531e-05,0.22058823529411764
1.7634501531e-05,0.22794117647058823
1.7634501531e-05,0.23529411764705882
1.7634501531e-05,0.2426470588235294
1.7634501531e-05,0.25
1.7634501531e-05,0.25735294117647056
1.7634501531e-05,0.2647058823529412
1.7634501531e-05,0.27205882352941174
1.7634501531e-05,0.27941176470588236
1.7634501531e-05,0.2867647058823529
1.7634501531e-05,0.29411764705882354
1.7634501531e-05,0.3014705882352941
0.000440862538275,0.3088235294117647
0.000440862538275,0.3161764705882353
0.000476131541337,0.3235294117647059
0.000881725076551,0.33088235294117646
0.000881725076551,0.3382352941176471
0.000881725076551,0.34558823529411764
0.000881725076551,0.35294117647058826
0.00132258761483,0.3602941176470588
0.00146954179425,0.36764705882352944
0.00146954179425,0.375
0.00146954179425,0.38235294117647056
0.00169317084961,0.3897058823529412
0.0017634501531,0.39705882352941174
0.0017634501531,0.40441176470588236
0.0017634501531,0.4117647058823529
0.0017634501531,0.41911764705882354
0.0017634501531,0.4264705882352941
0.0017634501531,0.4338235294117647
0.0017634501531,0.4411764705882353
0.00185457801025,0.4485294117647059
0.00211071205276,0.45588235294117646
0.00211071205276,0.4632352941176471
0.00211071205276,0.47058823529411764
0.00211071205276,0.47794117647058826
0.0021338008467,0.4852941176470588
0.00215688964064,0.49264705882352944
0.00215688964064,0.5
0.00215688964064,0.5073529411764706
0.00215688964064,0.5147058823529411
0.00215688964064,0.5220588235294118
0.00220431269138,0.5294117647058824
0.00227449818375,0.5367647058823529
0.002314907714,0.5441176470588235
0.00233731562405,0.5514705882352942
0.00240195307765,0.5588235294117647
0.00259468933964,0.5661764705882353
0.00259468933964,0.5735294117647058
0.0026272522046,0.5808823529411765
0.00264517522965,0.5882352941176471
0.00264517522965,0.5955882352941176
0.00265988424711,0.6029411764705882
0.00267875636432,0.6102941176470589
0.00267875636432,0.6176470588235294
0.00267875636432,0.625
0.00267875636432,0.6323529411764706
0.00267875636432,0.6397058823529411
0.00267875636432,0.6470588235294118
0.00267875636432,0.6544117647058824
0.00323299194735,0.6617647058823529
0.0035269003062,0.6691176470588235
0.0035269003062,0.6764705882352942
0.0052903504593,0.6838235294117647
0.00720075479183,0.6911764705882353
0.01278501361,0.6985294117647058
0.0130789219688,0.7058823529411765
0.0168997306339,0.7132352941176471
0.0210144476578,0.7205882352941176
0.0213083560166,0.7279411764705882
0.0227778978109,0.7352941176470589
0.0230718061697,0.7426470588235294
0.0248352563228,0.75
0.0568624545937,0.7573529411764706
0.0600488269413,0.7647058823529411
0.0634653304015,0.7720588235294118
0.106690042335,0.7794117647058824
0.106690042335,0.7867647058823529
0.13136261023,0.7941176470588235
0.13136261023,0.8014705882352942
0.170587363781,0.8088235294117647
0.194074872002,0.8161764705882353
0.194074872002,0.8235294117647058
0.194074872002,0.8308823529411765
0.211071205276,0.8382352941176471
0.215688964064,0.8455882352941176
0.240195307765,0.8529411764705882
0.267875636432,0.8602941176470589
0.267875636432,0.8676470588235294
0.267875636432,0.875
0.267875636432,0.8823529411764706
0.272551418658,0.8897058823529411
0.317761247611,0.8970588235294118
0.390831544194,0.9044117647058824
0.409763836066,0.9117647058823529
0.422142410552,0.9191176470588235
0.535751272864,0.9264705882352942
0.803626909295,0.9338235294117647
0.898004218788,0.9411764705882353
1.63014706125,0.9485294117647058
1.93517828196,0.9558823529411765
2.52660418891,0.9632352941176471
2.58112192469,0.9705882352941176
2.75043900965,0.9779411764705882
3.17690466706,0.9852941176470589
3.41063622947,0.9926470588235294
3.59609403049,1.0
