Congestion,CDF
0.00369174229795,0.007352941176470588
0.00369174229795,0.014705882352941176
0.00369174229795,0.022058823529411766
0.00369174229795,0.029411764705882353
0.00372079753149,0.03676470588235294
0.00372079753149,0.04411764705882353
0.00382901941526,0.051470588235294115
0.00382901941526,0.058823529411764705
0.00382902002868,0.0661764705882353
0.00382902002868,0.07352941176470588
0.00382902002868,0.08088235294117647
0.00382902002868,0.08823529411764706
0.00402196410937,0.09558823529411764
0.00402196410937,0.10294117647058823
0.00427534672215,0.11029411764705882
0.00427534672215,0.11764705882352941
0.00428611766689,0.125
0.00428611766689,0.1323529411764706
0.00462741660073,0.13970588235294118
0.00462741660073,0.14705882352941177
0.00507121793287,0.15441176470588236
0.00507121793287,0.16176470588235295
0.0053947695835,0.16911764705882354
0.0053947695835,0.17647058823529413
0.00543025823822,0.18382352941176472
0.00543025823822,0.19117647058823528
0.00543025823822,0.19852941176470587
0.00543025823822,0.20588235294117646
0.00546140241105,0.21323529411764705
0.00546140241105,0.22058823529411764
0.00569476285465,0.22794117647058823
0.00569476285465,0.23529411764705882
0.00573661463,0.2426470588235294
0.00573661463,0.25
0.00581041334059,0.25735294117647056
0.00581041334059,0.2647058823529412
0.00599280942374,0.27205882352941174
0.00599280942374,0.27941176470588236
0.00651328855151,0.2867647058823529
0.00651328855151,0.29411764705882354
0.00651328855151,0.3014705882352941
0.00651328855151,0.3088235294117647
0.00652892338892,0.3161764705882353
0.00652892338892,0.3235294117647059
0.00666700956105,0.33088235294117646
0.00666700956105,0.3382352941176471
0.00668028815693,0.34558823529411764
0.00668028815693,0.35294117647058826
0.00694503843678,0.3602941176470588
0.00694503843678,0.36764705882352944
0.0081575311467,0.375
0.0081575311467,0.38235294117647056
0.00827722379214,0.3897058823529412
0.00827722379214,0.39705882352941174
0.00827722379214,0.40441176470588236
0.00827722379214,0.4117647058823529
0.0223123207294,0.41911764705882354
0.0223123207294,0.4264705882352941
0.0517863277701,0.4338235294117647
0.0517863277701,0.4411764705882353
0.109579301385,0.4485294117647059
0.109579301385,0.45588235294117646
0.134619962168,0.4632352941176471
0.134619962168,0.47058823529411764
0.164143132584,0.47794117647058826
0.164143132584,0.4852941176470588
0.170715325118,0.49264705882352944
0.170715325118,0.5
0.217400218471,0.5073529411764706
0.217400218471,0.5147058823529411
0.265469489955,0.5220588235294118
0.265469489955,0.5294117647058824
0.267402055717,0.5367647058823529
0.267402055717,0.5441176470588235
0.279438284908,0.5514705882352942
0.279438284908,0.5588235294117647
0.281554301121,0.5661764705882353
0.281554301121,0.5735294117647058
0.360589682139,0.5808823529411765
0.360589682139,0.5882352941176471
0.362294457928,0.5955882352941176
0.362294457928,0.6029411764705882
0.383863921131,0.6102941176470589
0.383863921131,0.6176470588235294
0.411601155192,0.625
0.411601155192,0.6323529411764706
0.426554855734,0.6397058823529411
0.426554855734,0.6470588235294118
0.45745013052,0.6544117647058824
0.45745013052,0.6617647058823529
0.498409916566,0.6691176470588235
0.498409916566,0.6764705882352942
0.524044409488,0.6838235294117647
0.524044409488,0.6911764705882353
0.570983350541,0.6985294117647058
0.570983350541,0.7058823529411765
0.604394857929,0.7132352941176471
0.604394857929,0.7205882352941176
0.623285520864,0.7279411764705882
0.623285520864,0.7352941176470589
0.637741704474,0.7426470588235294
0.637741704474,0.75
0.662544314947,0.7573529411764706
0.662544314947,0.7647058823529411
0.682521868381,0.7720588235294118
0.682521868381,0.7794117647058824
0.710465177213,0.7867647058823529
0.710465177213,0.7941176470588235
0.725433197248,0.8014705882352942
0.725433197248,0.8088235294117647
0.770057838707,0.8161764705882353
0.770057838707,0.8235294117647058
0.808591428359,0.8308823529411765
0.808591428359,0.8382352941176471
0.827722379214,0.8455882352941176
0.827722379214,0.8529411764705882
0.872406984306,0.8602941176470589
0.872406984306,0.8676470588235294
1.06415434421,0.875
1.06415434421,0.8823529411764706
1.07628216832,0.8897058823529411
1.07628216832,0.8970588235294118
1.12652591654,0.9044117647058824
1.12652591654,0.9117647058823529
1.16355726327,0.9191176470588235
1.16355726327,0.9264705882352942
1.36001605679,0.9338235294117647
1.36001605679,0.9411764705882353
2.00718736354,0.9485294117647058
2.00718736354,0.9558823529411765
2.35247458314,0.9632352941176471
2.35247458314,0.9705882352941176
3.35145007593,0.9779411764705882
3.35145007593,0.9852941176470589
3.72056977888,0.9926470588235294
3.72056977888,1.0
