Congestion,CDF
0.0,0.009433962264150943
0.0,0.018867924528301886
0.0,0.02830188679245283
0.0,0.03773584905660377
0.0,0.04716981132075472
0.0,0.05660377358490566
0.0,0.0660377358490566
0.0,0.07547169811320754
0.0,0.08490566037735849
0.0,0.09433962264150944
0.0,0.10377358490566038
0.0,0.11320754716981132
0.0,0.12264150943396226
0.0,0.1320754716981132
0.0,0.14150943396226415
0.0,0.1509433962264151
0.0,0.16037735849056603
0.0,0.16981132075471697
0.0,0.1792452830188679
0.0,0.18867924528301888
0.0,0.19811320754716982
0.0,0.20754716981132076
0.0,0.2169811320754717
0.0,0.22641509433962265
0.0,0.2358490566037736
0.0,0.24528301886792453
0.0,0.25471698113207547
0.0,0.2641509433962264
0.0,0.27358490566037735
0.0,0.2830188679245283
9.54687414526e-08,0.29245283018867924
2.45950511966e-06,0.3018867924528302
2.76575626324e-06,0.3113207547169811
3.74943654989e-06,0.32075471698113206
4.23243737454e-06,0.330188679245283
5.63178316488e-06,0.33962264150943394
7.60590712598e-06,0.3490566037735849
8.5856968531e-06,0.3584905660377358
8.58855588581e-06,0.36792452830188677
1.09938052342e-05,0.37735849056603776
1.16349034928e-05,0.3867924528301887
1.35701467385e-05,0.39622641509433965
1.67081004303e-05,0.4056603773584906
1.7090945538e-05,0.41509433962264153
1.80326294686e-05,0.42452830188679247
2.36019450412e-05,0.4339622641509434
2.75276763337e-05,0.44339622641509435
3.65800309327e-05,0.4528301886792453
0.000115553474002,0.46226415094339623
0.000158393901512,0.4716981132075472
0.000158393901512,0.4811320754716981
0.000412267696284,0.49056603773584906
0.000412267696284,0.5
0.000412267696284,0.5094339622641509
0.000422383737366,0.5188679245283019
0.000422383737366,0.5283018867924528
0.000422383737366,0.5377358490566038
0.000652100187402,0.5471698113207547
0.000778742253339,0.5566037735849056
0.000778742253339,0.5660377358490566
0.000824535392567,0.5754716981132075
0.000824535392567,0.5849056603773585
0.00112483096497,0.5943396226415094
0.00120919846719,0.6037735849056604
0.00123465717267,0.6132075471698113
0.00143380721088,0.6226415094339622
0.00143380721088,0.6320754716981132
0.00143923237492,0.6415094339622641
0.00177652131666,0.6509433962264151
0.00177652131666,0.660377358490566
0.00224354511352,0.6698113207547169
0.0022817721378,0.6792452830188679
0.00272881972593,0.6886792452830188
0.00368791748819,0.6981132075471698
0.0053153854299,0.7075471698113207
0.00575074322638,0.7169811320754716
0.00583386294709,0.7264150943396226
0.00940459661876,0.7358490566037735
0.0124535965473,0.7452830188679245
0.0126328122858,0.7547169811320755
0.0171666565741,0.7641509433962265
0.0175605830229,0.7735849056603774
0.0340087068897,0.7830188679245284
0.0340087068897,0.7924528301886793
0.0462996439753,0.8018867924528302
0.0462996439753,0.8113207547169812
0.0462996439753,0.8207547169811321
0.0660670232025,0.8301886792452831
0.0713886586883,0.839622641509434
0.0713886586883,0.8490566037735849
0.0733204404803,0.8584905660377359
0.0796191656482,0.8679245283018868
0.0906898850393,0.8773584905660378
0.0906898850393,0.8867924528301887
0.0906898850393,0.8962264150943396
0.0925992879505,0.9056603773584906
0.0925992879505,0.9150943396226415
0.118420404612,0.9245283018867925
0.230647082049,0.9339622641509434
0.230647082049,0.9433962264150944
1.12675055948,0.9528301886792453
1.12675055948,0.9622641509433962
3.40447915101,0.9716981132075472
5.24164155874,0.9811320754716981
5.35981949336,0.9905660377358491
15.8936388171,1.0
