Congestion,CDF
0.0,0.009433962264150943
0.0,0.018867924528301886
0.0,0.02830188679245283
0.0,0.03773584905660377
0.0,0.04716981132075472
0.0,0.05660377358490566
0.0,0.0660377358490566
0.0,0.07547169811320754
0.0,0.08490566037735849
0.0,0.09433962264150944
0.0,0.10377358490566038
0.0,0.11320754716981132
0.0,0.12264150943396226
0.0,0.1320754716981132
0.0,0.14150943396226415
0.0,0.1509433962264151
0.0,0.16037735849056603
0.0,0.16981132075471697
0.0,0.1792452830188679
0.0,0.18867924528301888
0.0,0.19811320754716982
0.0,0.20754716981132076
0.0,0.2169811320754717
0.0,0.22641509433962265
0.0,0.2358490566037736
0.0,0.24528301886792453
0.0,0.25471698113207547
0.0,0.2641509433962264
0.0,0.27358490566037735
0.0,0.2830188679245283
8.09100476302e-08,0.29245283018867924
2.08443804067e-06,0.3018867924528302
2.34398681272e-06,0.3113207547169811
3.17765883599e-06,0.32075471698113206
3.58700349827e-06,0.330188679245283
4.77295329529e-06,0.33962264150943394
7.27882713465e-06,0.3490566037735849
9.3172832448e-06,0.3584905660377358
9.86061596129e-06,0.36792452830188677
1.15007404754e-05,0.37735849056603776
1.41601657365e-05,0.3867924528301887
1.44846281253e-05,0.39622641509433965
1.52827081095e-05,0.4056603773584906
9.7931919318e-05,0.41509433962264153
0.00013423931143,0.42452830188679247
0.00013423931143,0.4339622641509434
0.00034939812168,0.44339622641509435
0.00034939812168,0.4528301886792453
0.00034939812168,0.46226415094339623
0.000357971497147,0.4716981132075472
0.000357971497147,0.4811320754716981
0.000357971497147,0.49056603773584906
0.000552656884543,0.5
0.000659986419121,0.5094339622641509
0.000659986419121,0.5188679245283019
0.00069879624336,0.5283018867924528
0.00069879624336,0.5377358490566038
0.000953297650797,0.5471698113207547
0.00121515595534,0.5566037735849056
0.00121515595534,0.5660377358490566
0.00150560719834,0.5754716981132075
0.00150560719834,0.5849056603773585
0.00190141128115,0.5943396226415094
0.00207721162849,0.6037735849056604
0.00207819141822,0.6132075471698113
0.00209320766641,0.6226415094339622
0.0020971333977,0.6320754716981132
0.0021061857523,0.6415094339622641
0.00231268298545,0.6509433962264151
0.00312552124481,0.660377358490566
0.0033186361738,0.6698113207547169
0.00446748063626,0.6792452830188679
0.00449083123025,0.6886792452830188
0.00487377230783,0.6981132075471698
0.00494421652297,0.7075471698113207
0.00673131277976,0.7169811320754716
0.00856419383829,0.7264150943396226
0.0105544608055,0.7358490566037735
0.0110931124027,0.7452830188679245
0.0133240717407,0.7547169811320755
0.0135810987211,0.7641509433962265
0.0760226673859,0.7735849056603774
0.125647892895,0.7830188679245284
0.125647892895,0.7924528301886793
0.168406171134,0.8018867924528302
0.168406171134,0.8113207547169812
0.168406171134,0.8207547169811321
0.335061047719,0.8301886792452831
0.335061047719,0.839622641509434
0.335061047719,0.8490566037735849
0.336812342268,0.8584905660377359
0.336812342268,0.8679245283018868
0.487438383716,0.8773584905660378
0.487438383716,0.8867924528301887
0.54857705264,0.8962264150943396
0.623163488548,0.9056603773584906
0.625299090798,0.9150943396226415
0.625299090798,0.9245283018867925
0.955031452816,0.9339622641509434
0.961330177984,0.9433962264150944
1.21542432805,0.9528301886792453
1.21542432805,0.9622641509433962
4.33315821719,0.9716981132075472
4.41026631131,0.9811320754716981
4.47369172573,0.9905660377358491
13.6919240201,1.0
