Congestion,CDF
0.0,0.007352941176470588
0.0,0.014705882352941176
0.0,0.022058823529411766
0.0,0.029411764705882353
0.0203121729827,0.03676470588235294
0.0203121729827,0.04411764705882353
0.0213535046543,0.051470588235294115
0.0213535046543,0.058823529411764705
0.0216121023446,0.0661764705882353
0.0216121023446,0.07352941176470588
0.0216579104557,0.08088235294117647
0.0216579104557,0.08823529411764706
0.0218958330784,0.09558823529411764
0.0218958330784,0.10294117647058823
0.0225042464199,0.11029411764705882
0.0225042464199,0.11764705882352941
0.0237662551152,0.125
0.0237662551152,0.1323529411764706
0.0238911466231,0.13970588235294118
0.0238911466231,0.14705882352941177
0.0253669870855,0.15441176470588236
0.0253669870855,0.16176470588235295
0.0254655918317,0.16911764705882354
0.0254655918317,0.17647058823529413
0.0263110016846,0.18382352941176472
0.0263110016846,0.19117647058823528
0.0269427960748,0.19852941176470587
0.0269427960748,0.20588235294117646
0.0269773598368,0.21323529411764705
0.0269773598368,0.22058823529411764
0.0274505008627,0.22794117647058823
0.0274505008627,0.23529411764705882
0.0277224730394,0.2426470588235294
0.0277224730394,0.25
0.0279477922559,0.25735294117647056
0.0279477922559,0.2647058823529412
0.0282101332048,0.27205882352941174
0.0282101332048,0.27941176470588236
0.029053484206,0.2867647058823529
0.029053484206,0.29411764705882354
0.0291276830845,0.3014705882352941
0.0291276830845,0.3088235294117647
0.0297355965732,0.3161764705882353
0.0297355965732,0.3235294117647059
0.03053831407,0.33088235294117646
0.03053831407,0.3382352941176471
0.0306146709309,0.34558823529411764
0.0306146709309,0.35294117647058826
0.0319441953019,0.3602941176470588
0.0319441953019,0.36764705882352944
0.0327730349227,0.375
0.0327730349227,0.38235294117647056
0.0327798083923,0.3897058823529412
0.0327798083923,0.39705882352941174
0.034550882174,0.40441176470588236
0.034550882174,0.4117647058823529
0.0351641990057,0.41911764705882354
0.0351641990057,0.4264705882352941
0.037485803364,0.4338235294117647
0.037485803364,0.4411764705882353
0.588781865209,0.4485294117647059
0.588781865209,0.45588235294117646
0.832985988774,0.4632352941176471
0.832985988774,0.47058823529411764
0.874772790058,0.47794117647058826
0.874772790058,0.4852941176470588
0.93207594583,0.49264705882352944
0.93207594583,0.5
1.12778779069,0.5073529411764706
1.12778779069,0.5147058823529411
1.42391835659,0.5220588235294118
1.42391835659,0.5294117647058824
1.45878634008,0.5367647058823529
1.45878634008,0.5441176470588235
1.55219269073,0.5514705882352942
1.55219269073,0.5588235294117647
1.88893737465,0.5661764705882353
1.88893737465,0.5735294117647058
2.08768489247,0.5808823529411765
2.08768489247,0.5882352941176471
2.2367182486,0.5955882352941176
2.2367182486,0.6029411764705882
2.24563365906,0.6102941176470589
2.24563365906,0.6176470588235294
2.35674260435,0.625
2.35674260435,0.6323529411764706
2.52902192523,0.6397058823529411
2.52902192523,0.6470588235294118
3.06146709309,0.6544117647058824
3.06146709309,0.6617647058823529
3.1811020917,0.6691176470588235
3.1811020917,0.6764705882352942
3.19441953019,0.6838235294117647
3.19441953019,0.6911764705882353
3.21239769862,0.6985294117647058
3.21239769862,0.7058823529411765
3.42961249774,0.7132352941176471
3.42961249774,0.7205882352941176
3.51641990057,0.7279411764705882
3.51641990057,0.7352941176470589
3.60243722325,0.7426470588235294
3.60243722325,0.75
3.62981192951,0.7573529411764706
3.62981192951,0.7647058823529411
3.7485803364,0.7720588235294118
3.7485803364,0.7794117647058824
4.15524829992,0.7867647058823529
4.15524829992,0.7941176470588235
4.52210203411,0.8014705882352942
4.52210203411,0.8088235294117647
4.70357884632,0.8161764705882353
4.70357884632,0.8235294117647058
4.99940276812,0.8308823529411765
4.99940276812,0.8382352941176471
5.16691821387,0.8455882352941176
5.16691821387,0.8529411764705882
5.41881803012,0.8602941176470589
5.41881803012,0.8676470588235294
5.52246537094,0.875
5.52246537094,0.8823529411764706
5.59695023241,0.8897058823529411
5.59695023241,0.8970588235294118
7.1619163273,0.9044117647058824
7.1619163273,0.9117647058823529
8.32533792233,0.9191176470588235
8.32533792233,0.9264705882352942
8.69358391918,0.9338235294117647
8.69358391918,0.9411764705882353
10.5825723938,0.9485294117647058
10.5825723938,0.9558823529411765
10.7200884544,0.9632352941176471
10.7200884544,0.9705882352941176
14.1616115619,0.9779411764705882
14.1616115619,0.9852941176470589
16.3899959243,0.9926470588235294
16.3899959243,1.0
