Congestion,CDF
0.0,0.007352941176470588
0.0,0.014705882352941176
0.0374188234166,0.022058823529411766
0.0374188234166,0.029411764705882353
0.0385227853136,0.03676470588235294
0.0385227853136,0.04411764705882353
0.0393965125427,0.051470588235294115
0.0393965125427,0.058823529411764705
0.0397150371914,0.0661764705882353
0.0397150371914,0.07352941176470588
0.0401008648678,0.08088235294117647
0.0401008648678,0.08823529411764706
0.0401568461452,0.09558823529411764
0.0401568461452,0.10294117647058823
0.042240061422,0.11029411764705882
0.042240061422,0.11764705882352941
0.0425725873068,0.125
0.0425725873068,0.1323529411764706
0.0426009242816,0.13970588235294118
0.0426009242816,0.14705882352941177
0.0439143505139,0.15441176470588236
0.0439143505139,0.16176470588235295
0.044078315473,0.16911764705882354
0.044078315473,0.17647058823529413
0.0442675707189,0.18382352941176472
0.0442675707189,0.19117647058823528
0.044513988228,0.19852941176470587
0.044513988228,0.20588235294117646
0.0445829623808,0.21323529411764705
0.0445829623808,0.22058823529411764
0.0445907925665,0.22794117647058823
0.0445907925665,0.23529411764705882
0.0455830690062,0.2426470588235294
0.0455830690062,0.25
0.0460130037715,0.25735294117647056
0.0460130037715,0.2647058823529412
0.0464524231724,0.27205882352941174
0.0464524231724,0.27941176470588236
0.0465518797467,0.2867647058823529
0.0465518797467,0.29411764705882354
0.0468726756757,0.3014705882352941
0.0468726756757,0.3088235294117647
0.0471089849905,0.3161764705882353
0.0471089849905,0.3235294117647059
0.0471230013991,0.33088235294117646
0.0471230013991,0.3382352941176471
0.0474121933808,0.34558823529411764
0.0474121933808,0.35294117647058826
0.0480428071398,0.3602941176470588
0.0480428071398,0.36764705882352944
0.0490780633841,0.375
0.0490780633841,0.38235294117647056
0.0501642051864,0.3897058823529412
0.0501642051864,0.39705882352941174
0.0501722902633,0.40441176470588236
0.0501722902633,0.4117647058823529
0.0545133553077,0.41911764705882354
0.0545133553077,0.4264705882352941
0.104156738159,0.4338235294117647
0.104156738159,0.4411764705882353
1.23776966766,0.4485294117647059
1.23776966766,0.45588235294117646
1.32384415999,0.4632352941176471
1.32384415999,0.47058823529411764
1.75803605527,0.47794117647058826
1.75803605527,0.4852941176470588
1.88890320056,0.49264705882352944
1.88890320056,0.5
1.92212129113,0.5073529411764706
1.92212129113,0.5147058823529411
2.244835814,0.5220588235294118
2.244835814,0.5294117647058824
2.27058988236,0.5367647058823529
2.27058988236,0.5441176470588235
2.71239717659,0.5514705882352942
2.71239717659,0.5588235294117647
2.76889836193,0.5661764705882353
2.76889836193,0.5735294117647058
3.42329908997,0.5808823529411765
3.42329908997,0.5882352941176471
3.44400722333,0.5955882352941176
3.44400722333,0.6029411764705882
3.96090864148,0.6102941176470589
3.96090864148,0.6176470588235294
4.08803903675,0.625
4.08803903675,0.6323529411764706
4.39322583613,0.6397058823529411
4.39322583613,0.6470588235294118
4.64252146288,0.6544117647058824
4.64252146288,0.6617647058823529
4.71230013991,0.6691176470588235
4.71230013991,0.6764705882352942
5.0856060625,0.6838235294117647
5.0856060625,0.6911764705882353
5.25557957509,0.6985294117647058
5.25557957509,0.7058823529411765
5.45133553077,0.7132352941176471
5.45133553077,0.7205882352941176
5.46568783755,0.7279411764705882
5.46568783755,0.7352941176470589
5.53063964007,0.7426470588235294
5.53063964007,0.75
5.59575781211,0.7573529411764706
5.59575781211,0.7647058823529411
6.3479824572,0.7720588235294118
6.3479824572,0.7794117647058824
6.4937572888,0.7867647058823529
6.4937572888,0.7941176470588235
6.74192431112,0.8014705882352942
6.74192431112,0.8088235294117647
7.31566818327,0.8161764705882353
7.31566818327,0.8235294117647058
7.620203515,0.8308823529411765
7.620203515,0.8382352941176471
8.05989664097,0.8455882352941176
8.05989664097,0.8529411764705882
8.49152707493,0.8602941176470589
8.49152707493,0.8676470588235294
8.49806904192,0.875
8.49806904192,0.8823529411764706
9.00358085847,0.8897058823529411
9.00358085847,0.8970588235294118
10.6300139272,0.9044117647058824
10.6300139272,0.9117647058823529
12.3859123352,0.9191176470588235
12.3859123352,0.9264705882352942
12.5881741059,0.9338235294117647
12.5881741059,0.9411764705882353
15.2082945632,0.9485294117647058
15.2082945632,0.9558823529411765
15.5338716169,0.9632352941176471
15.5338716169,0.9705882352941176
19.9670698244,0.9779411764705882
19.9670698244,0.9852941176470589
22.9475830385,0.9926470588235294
22.9475830385,1.0
