Congestion,CDF
0.0157180921427,0.007352941176470588
0.0157180921427,0.014705882352941176
0.0164691938511,0.022058823529411766
0.0164691938511,0.029411764705882353
0.0164859105059,0.03676470588235294
0.0164859105059,0.04411764705882353
0.0167898879197,0.051470588235294115
0.0167898879197,0.058823529411764705
0.016873731954,0.0661764705882353
0.016873731954,0.07352941176470588
0.0171321551372,0.08088235294117647
0.0171321551372,0.08823529411764706
0.0171941255292,0.09558823529411764
0.0171941255292,0.10294117647058823
0.0174431586427,0.11029411764705882
0.0174431586427,0.11764705882352941
0.0179075505626,0.125
0.0179075505626,0.1323529411764706
0.0179654205235,0.13970588235294118
0.0179654205235,0.14705882352941177
0.0181985223156,0.15441176470588236
0.0181985223156,0.16176470588235295
0.0182062026407,0.16911764705882354
0.0182062026407,0.17647058823529413
0.0182833068522,0.18382352941176472
0.0182833068522,0.19117647058823528
0.0183575253931,0.19852941176470587
0.0183575253931,0.20588235294117646
0.0185109376786,0.21323529411764705
0.0185109376786,0.22058823529411764
0.0189784987253,0.22794117647058823
0.0189784987253,0.23529411764705882
0.0190671692465,0.2426470588235294
0.0190671692465,0.25
0.0191854145039,0.25735294117647056
0.0191854145039,0.2647058823529412
0.0196320776183,0.27205882352941174
0.0196320776183,0.27941176470588236
0.0197957879352,0.2867647058823529
0.0197957879352,0.29411764705882354
0.0199298207362,0.3014705882352941
0.0199298207362,0.3088235294117647
0.02017296412,0.3161764705882353
0.02017296412,0.3235294117647059
0.0202276860635,0.33088235294117646
0.0202276860635,0.3382352941176471
0.0206829001773,0.34558823529411764
0.0206829001773,0.35294117647058826
0.0209593102583,0.3602941176470588
0.0209593102583,0.36764705882352944
0.0219597476218,0.375
0.0219597476218,0.38235294117647056
0.0224355789322,0.3897058823529412
0.0224355789322,0.39705882352941174
0.0228321009863,0.40441176470588236
0.0228321009863,0.4117647058823529
0.049414300414,0.41911764705882354
0.049414300414,0.4264705882352941
0.158018758458,0.4338235294117647
0.158018758458,0.4411764705882353
0.481393154432,0.4485294117647059
0.481393154432,0.45588235294117646
0.603559043455,0.4632352941176471
0.603559043455,0.47058823529411764
0.723946106674,0.47794117647058826
0.723946106674,0.4852941176470588
0.735777673836,0.49264705882352944
0.735777673836,0.5
0.801605750997,0.5073529411764706
0.801605750997,0.5147058823529411
0.907932357967,0.5220588235294118
0.907932357967,0.5294117647058824
0.996631483974,0.5367647058823529
0.996631483974,0.5441176470588235
1.10782667802,0.5514705882352942
1.10782667802,0.5588235294117647
1.15379887896,0.5661764705882353
1.15379887896,0.5735294117647058
1.29324166467,0.5808823529411765
1.29324166467,0.5882352941176471
1.36607238116,0.5955882352941176
1.36607238116,0.6029411764705882
1.52109067257,0.6102941176470589
1.52109067257,0.6176470588235294
1.60033585291,0.625
1.60033585291,0.6323529411764706
1.67615802376,0.6397058823529411
1.67615802376,0.6470588235294118
1.7863382389,0.6544117647058824
1.7863382389,0.6617647058823529
1.96925998184,0.6691176470588235
1.96925998184,0.6764705882352942
2.00087530034,0.6838235294117647
2.00087530034,0.6911764705882353
2.14878765111,0.6985294117647058
2.14878765111,0.7058823529411765
2.1852269981,0.7132352941176471
2.1852269981,0.7205882352941176
2.18730571952,0.7279411764705882
2.18730571952,0.7352941176470589
2.19459689193,0.7426470588235294
2.19459689193,0.75
2.28321009863,0.7573529411764706
2.28321009863,0.7647058823529411
2.41587256211,0.7720588235294118
2.41587256211,0.7794117647058824
2.56575741082,0.7867647058823529
2.56575741082,0.7941176470588235
2.66059851224,0.8014705882352942
2.66059851224,0.8088235294117647
2.95319383144,0.8161764705882353
2.95319383144,0.8235294117647058
3.03454907165,0.8308823529411765
3.03454907165,0.8382352941176471
3.08093012633,0.8455882352941176
3.08093012633,0.8529411764705882
3.30489440332,0.8602941176470589
3.30489440332,0.8676470588235294
3.31599682771,0.875
3.31599682771,0.8823529411764706
3.32870205175,0.8897058823529411
3.32870205175,0.8970588235294118
4.21129479697,0.9044117647058824
4.21129479697,0.9117647058823529
4.93812529048,0.9191176470588235
4.93812529048,0.9264705882352942
5.10489208237,0.9338235294117647
5.10489208237,0.9411764705882353
6.21750103389,0.9485294117647058
6.21750103389,0.9558823529411765
6.33641111894,0.9632352941176471
6.33641111894,0.9705882352941176
8.2305271916,0.9779411764705882
8.2305271916,0.9852941176470589
9.46719827175,0.9926470588235294
9.46719827175,1.0
