Congestion,CDF
0.0,0.007352941176470588
0.0,0.014705882352941176
0.0,0.022058823529411766
0.0,0.029411764705882353
0.00937660962688,0.03676470588235294
0.00937660962688,0.04411764705882353
0.00968405572295,0.051470588235294115
0.00968405572295,0.058823529411764705
0.0108924626405,0.0661764705882353
0.0108924626405,0.07352941176470588
0.0118703999634,0.08088235294117647
0.0118703999634,0.08823529411764706
0.0119345678232,0.09558823529411764
0.0119345678232,0.10294117647058823
0.0126204445476,0.11029411764705882
0.0126204445476,0.11764705882352941
0.0126263225746,0.125
0.0126263225746,0.1323529411764706
0.0130076773644,0.13970588235294118
0.0130076773644,0.14705882352941177
0.0133287200791,0.15441176470588236
0.0133287200791,0.16176470588235295
0.0137294625001,0.16911764705882354
0.0137294625001,0.17647058823529413
0.0137395877435,0.18382352941176472
0.0137395877435,0.19117647058823528
0.0140839250544,0.19852941176470587
0.0140839250544,0.20588235294117646
0.0149679623762,0.21323529411764705
0.0149679623762,0.22058823529411764
0.0155250320495,0.22794117647058823
0.0155250320495,0.23529411764705882
0.015831534162,0.2426470588235294
0.015831534162,0.25
0.0159702418,0.25735294117647056
0.0159702418,0.2647058823529412
0.0162287026138,0.27205882352941174
0.0162287026138,0.27941176470588236
0.0164409307783,0.2867647058823529
0.0164409307783,0.29411764705882354
0.0165115008035,0.3014705882352941
0.0165115008035,0.3088235294117647
0.0166694219102,0.3161764705882353
0.0166694219102,0.3235294117647059
0.0174958702591,0.33088235294117646
0.0174958702591,0.3382352941176471
0.0185907576266,0.34558823529411764
0.0185907576266,0.35294117647058826
0.0199096487676,0.3602941176470588
0.0199096487676,0.36764705882352944
0.0213002369299,0.375
0.0213002369299,0.38235294117647056
0.0221903331563,0.3897058823529412
0.0221903331563,0.39705882352941174
0.0238489694134,0.40441176470588236
0.0238489694134,0.4117647058823529
0.0248365648245,0.41911764705882354
0.0248365648245,0.4264705882352941
0.0258754745839,0.4338235294117647
0.0258754745839,0.4411764705882353
0.207555836159,0.4485294117647059
0.207555836159,0.45588235294117646
0.33089325301,0.4632352941176471
0.33089325301,0.47058823529411764
0.384615607593,0.47794117647058826
0.384615607593,0.4852941176470588
0.567118336567,0.49264705882352944
0.567118336567,0.5
0.601112977323,0.5073529411764706
0.601112977323,0.5147058823529411
0.702945338087,0.5220588235294118
0.702945338087,0.5294117647058824
0.819943683091,0.5367647058823529
0.819943683091,0.5441176470588235
0.875638358903,0.5514705882352942
0.875638358903,0.5588235294117647
0.950721557427,0.5661764705882353
0.950721557427,0.5735294117647058
1.16755831096,0.5808823529411765
1.16755831096,0.5882352941176471
1.21720710661,0.5955882352941176
1.21720710661,0.6029411764705882
1.28232658342,0.6102941176470589
1.28232658342,0.6176470588235294
1.3355730555,0.625
1.3355730555,0.6323529411764706
1.3456050846,0.6397058823529411
1.3456050846,0.6470588235294118
1.73252635053,0.6544117647058824
1.73252635053,0.6617647058823529
1.74958702591,0.6691176470588235
1.74958702591,0.6764705882352942
1.8191070553,0.6838235294117647
1.8191070553,0.6911764705882353
1.83061719802,0.6985294117647058
1.83061719802,0.7058823529411765
1.98163978759,0.7132352941176471
1.98163978759,0.7205882352941176
2.03846536661,0.7279411764705882
2.03846536661,0.7352941176470589
2.21903331563,0.7426470588235294
2.21903331563,0.75
2.28200156602,0.7573529411764706
2.28200156602,0.7647058823529411
2.29477806166,0.7720588235294118
2.29477806166,0.7794117647058824
2.48365648245,0.7867647058823529
2.48365648245,0.7941176470588235
2.58754745839,0.8014705882352942
2.58754745839,0.8088235294117647
2.72923675167,0.8161764705882353
2.72923675167,0.8235294117647058
2.84636224915,0.8308823529411765
2.84636224915,0.8382352941176471
3.01906151348,0.8455882352941176
3.01906151348,0.8529411764705882
3.05831545432,0.8602941176470589
3.05831545432,0.8676470588235294
3.27329146019,0.875
3.27329146019,0.8823529411764706
3.78193867206,0.8897058823529411
3.78193867206,0.8970588235294118
4.43464949645,0.9044117647058824
4.43464949645,0.9117647058823529
5.14143927573,0.9191176470588235
5.14143927573,0.9264705882352942
5.70780855725,0.9338235294117647
5.70780855725,0.9411764705882353
6.67558676678,0.9485294117647058
6.67558676678,0.9558823529411765
7.45610088219,0.9632352941176471
7.45610088219,0.9705882352941176
9.74601297733,0.9779411764705882
9.74601297733,0.9852941176470589
11.4192667327,0.9926470588235294
11.4192667327,1.0
