Congestion,CDF
0.00228026235714,0.007352941176470588
0.00228026235714,0.014705882352941176
0.0497037446089,0.022058823529411766
0.0497037446089,0.029411764705882353
0.0502214542655,0.03676470588235294
0.0502214542655,0.04411764705882353
0.0507545437157,0.051470588235294115
0.0507545437157,0.058823529411764705
0.0513004969114,0.0661764705882353
0.0513004969114,0.07352941176470588
0.051482947575,0.08088235294117647
0.051482947575,0.08823529411764706
0.0525805435109,0.09558823529411764
0.0525805435109,0.10294117647058823
0.0527134449745,0.11029411764705882
0.0527134449745,0.11764705882352941
0.052793082221,0.125
0.052793082221,0.1323529411764706
0.0534315725799,0.13970588235294118
0.0534315725799,0.14705882352941177
0.0536519286848,0.15441176470588236
0.0536519286848,0.16176470588235295
0.0537671682032,0.16911764705882354
0.0537671682032,0.17647058823529413
0.0538911077729,0.18382352941176472
0.0538911077729,0.19117647058823528
0.0547588433881,0.19852941176470587
0.0547588433881,0.20588235294117646
0.0553934996852,0.21323529411764705
0.0553934996852,0.22058823529411764
0.0556464576838,0.22794117647058823
0.0556464576838,0.23529411764705882
0.0557308404656,0.2426470588235294
0.0557308404656,0.25
0.0557998967123,0.25735294117647056
0.0557998967123,0.2647058823529412
0.0563626111492,0.27205882352941174
0.0563626111492,0.27941176470588236
0.0566860288829,0.2867647058823529
0.0566860288829,0.29411764705882354
0.0568820172272,0.3014705882352941
0.0568820172272,0.3088235294117647
0.0571082884675,0.3161764705882353
0.0571082884675,0.3235294117647059
0.0574225613196,0.33088235294117646
0.0574225613196,0.3382352941176471
0.0574510723925,0.34558823529411764
0.0574510723925,0.35294117647058826
0.0574649808248,0.3602941176470588
0.0574649808248,0.36764705882352944
0.058431700862,0.375
0.058431700862,0.38235294117647056
0.0594739567493,0.3897058823529412
0.0594739567493,0.39705882352941174
0.0602334827177,0.40441176470588236
0.0602334827177,0.4117647058823529
0.063950788864,0.41911764705882354
0.063950788864,0.4264705882352941
0.307225625516,0.4338235294117647
0.307225625516,0.4411764705882353
1.59518782999,0.4485294117647059
1.59518782999,0.45588235294117646
1.68103173462,0.4632352941176471
1.68103173462,0.47058823529411764
2.11599323084,0.47794117647058826
2.11599323084,0.4852941176470588
2.42427251369,0.49264705882352944
2.42427251369,0.5
2.57962657618,0.5073529411764706
2.57962657618,0.5147058823529411
2.66686459747,0.5220588235294118
2.66686459747,0.5294117647058824
2.74007646392,0.5367647058823529
2.74007646392,0.5441176470588235
3.22740898288,0.5514705882352942
3.22740898288,0.5588235294117647
3.48505375982,0.5661764705882353
3.48505375982,0.5735294117647058
4.05892821128,0.5808823529411765
4.05892821128,0.5882352941176471
4.17483113732,0.5955882352941176
4.17483113732,0.6029411764705882
4.81684890504,0.6102941176470589
4.81684890504,0.6176470588235294
5.13895680779,0.625
5.13895680779,0.6323529411764706
5.41169591176,0.6397058823529411
5.41169591176,0.6470588235294118
5.56236550602,0.6544117647058824
5.56236550602,0.6617647058823529
5.56825312718,0.6691176470588235
5.56825312718,0.6764705882352942
6.04774543603,0.6838235294117647
6.04774543603,0.6911764705882353
6.38519932153,0.6985294117647058
6.38519932153,0.7058823529411765
6.3950788864,0.7132352941176471
6.3950788864,0.7205882352941176
6.54956837857,0.7279411764705882
6.54956837857,0.7352941176470589
6.55059611089,0.7426470588235294
6.55059611089,0.75
6.87991127848,0.7573529411764706
6.87991127848,0.7647058823529411
7.56624706895,0.7720588235294118
7.56624706895,0.7794117647058824
7.77673345428,0.7867647058823529
7.77673345428,0.7941176470588235
8.08345926354,0.8014705882352942
8.08345926354,0.8088235294117647
8.70136159078,0.8161764705882353
8.70136159078,0.8235294117647058
8.92703653685,0.8308823529411765
8.92703653685,0.8382352941176471
9.39379846549,0.8455882352941176
9.39379846549,0.8529411764705882
10.0674463083,0.8602941176470589
10.0674463083,0.8676470588235294
10.2778584281,0.875
10.2778584281,0.8823529411764706
10.7503514041,0.8897058823529411
10.7503514041,0.8970588235294118
12.4458383818,0.9044117647058824
12.4458383818,0.9117647058823529
14.4142109477,0.9191176470588235
14.4142109477,0.9264705882352942
14.5625902997,0.9338235294117647
14.5625902997,0.9411764705882353
17.5424102504,0.9485294117647058
17.5424102504,0.9558823529411765
18.025863594,0.9632352941176471
18.025863594,0.9705882352941176
22.9023330611,0.9779411764705882
22.9023330611,0.9852941176470589
26.2324712885,0.9926470588235294
26.2324712885,1.0
