Congestion,CDF
0.0,0.007352941176470588
0.0,0.014705882352941176
0.0316477796145,0.022058823529411766
0.0316477796145,0.029411764705882353
0.0319615875978,0.03676470588235294
0.0319615875978,0.04411764705882353
0.032283385026,0.051470588235294115
0.032283385026,0.058823529411764705
0.0325365600938,0.0661764705882353
0.0325365600938,0.07352941176470588
0.0335405728963,0.08088235294117647
0.0335405728963,0.08823529411764706
0.0335620028908,0.09558823529411764
0.0335620028908,0.10294117647058823
0.0354229679599,0.11029411764705882
0.0354229679599,0.11764705882352941
0.0358500468514,0.125
0.0358500468514,0.1323529411764706
0.0363029603064,0.13970588235294118
0.0363029603064,0.14705882352941177
0.0369400887754,0.15441176470588236
0.0369400887754,0.16176470588235295
0.0375527367678,0.16911764705882354
0.0375527367678,0.17647058823529413
0.0382224023812,0.18382352941176472
0.0382224023812,0.19117647058823528
0.0382840369965,0.19852941176470587
0.0382840369965,0.20588235294117646
0.0383112799894,0.21323529411764705
0.0383112799894,0.22058823529411764
0.0385195992923,0.22794117647058823
0.0385195992923,0.23529411764705882
0.0386338439866,0.2426470588235294
0.0386338439866,0.25
0.0396606993771,0.25735294117647056
0.0396606993771,0.2647058823529412
0.0401673963895,0.27205882352941174
0.0401673963895,0.27941176470588236
0.0402918060359,0.2867647058823529
0.0402918060359,0.29411764705882354
0.0405444232828,0.3014705882352941
0.0405444232828,0.3088235294117647
0.0414175559396,0.3161764705882353
0.0414175559396,0.3235294117647059
0.0416322981267,0.33088235294117646
0.0416322981267,0.3382352941176471
0.041899583667,0.34558823529411764
0.041899583667,0.35294117647058826
0.0422315556902,0.3602941176470588
0.0422315556902,0.36764705882352944
0.0434374939255,0.375
0.0434374939255,0.38235294117647056
0.0444628897084,0.3897058823529412
0.0444628897084,0.39705882352941174
0.0446146489408,0.40441176470588236
0.0446146489408,0.4117647058823529
0.047283197234,0.41911764705882354
0.047283197234,0.4264705882352941
0.0483844377551,0.4338235294117647
0.0483844377551,0.4411764705882353
1.00496581867,0.4485294117647059
1.00496581867,0.45588235294117646
1.15138122296,0.4632352941176471
1.15138122296,0.47058823529411764
1.5235290735,0.47794117647058826
1.5235290735,0.4852941176470588
1.52710869833,0.49264705882352944
1.52710869833,0.5
1.55496626117,0.5073529411764706
1.55496626117,0.5147058823529411
1.96039123358,0.5220588235294118
1.96039123358,0.5294117647058824
1.96138226867,0.5367647058823529
1.96138226867,0.5441176470588235
2.32951238778,0.5514705882352942
2.32951238778,0.5588235294117647
2.41110367653,0.5661764705882353
2.41110367653,0.5735294117647058
2.96328806576,0.5808823529411765
2.96328806576,0.5882352941176471
3.01109979143,0.5955882352941176
3.01109979143,0.6029411764705882
3.38902238222,0.6102941176470589
3.38902238222,0.6176470588235294
3.40109725243,0.625
3.40109725243,0.6323529411764706
3.7262042287,0.6397058823529411
3.7262042287,0.6470588235294118
4.11807705151,0.6544117647058824
4.11807705151,0.6617647058823529
4.14175559396,0.6691176470588235
4.14175559396,0.6764705882352942
4.50661765524,0.6838235294117647
4.50661765524,0.6911764705882353
4.50728995435,0.6985294117647058
4.50728995435,0.7058823529411765
4.74094198039,0.7132352941176471
4.74094198039,0.7205882352941176
4.75205626213,0.7279411764705882
4.75205626213,0.7352941176470589
4.83844377551,0.7426470588235294
4.83844377551,0.75
4.85537831276,0.7573529411764706
4.85537831276,0.7647058823529411
5.38609426012,0.7720588235294118
5.38609426012,0.7794117647058824
5.8035708692,0.7867647058823529
5.8035708692,0.7941176470588235
5.83885114886,0.8014705882352942
5.83885114886,0.8088235294117647
6.39254253652,0.8161764705882353
6.39254253652,0.8235294117647058
6.75485306908,0.8308823529411765
6.75485306908,0.8382352941176471
7.18985139757,0.8455882352941176
7.18985139757,0.8529411764705882
7.28208504729,0.8602941176470589
7.28208504729,0.8676470588235294
7.42793929467,0.875
7.42793929467,0.8823529411764706
7.80024773514,0.8897058823529411
7.80024773514,0.8970588235294118
9.40176774369,0.9044117647058824
9.40176774369,0.9117647058823529
10.9710208705,0.9191176470588235
10.9710208705,0.9264705882352942
11.2200678646,0.9338235294117647
11.2200678646,0.9411764705882353
13.6064784848,0.9485294117647058
13.6064784848,0.9558823529411765
13.7992608407,0.9632352941176471
13.7992608407,0.9705882352941176
17.9246273682,0.9779411764705882
17.9246273682,0.9852941176470589
20.6520570761,0.9926470588235294
20.6520570761,1.0
