Congestion,CDF
0.0367050435819,0.007352941176470588
0.0367050435819,0.014705882352941176
0.0380774130704,0.022058823529411766
0.0380774130704,0.029411764705882353
0.038127896486,0.03676470588235294
0.038127896486,0.04411764705882353
0.038299910951,0.051470588235294115
0.038299910951,0.058823529411764705
0.0385158031699,0.0661764705882353
0.0385158031699,0.07352941176470588
0.0386186765282,0.08088235294117647
0.0386186765282,0.08823529411764706
0.0387563612636,0.09558823529411764
0.0387563612636,0.10294117647058823
0.039557096048,0.11029411764705882
0.039557096048,0.11764705882352941
0.0399537061916,0.125
0.0399537061916,0.1323529411764706
0.0401894098839,0.13970588235294118
0.0401894098839,0.14705882352941177
0.0404549563619,0.15441176470588236
0.0404549563619,0.16176470588235295
0.0405839214408,0.16911764705882354
0.0405839214408,0.17647058823529413
0.0408572612084,0.18382352941176472
0.0408572612084,0.19117647058823528
0.04089380554,0.19852941176470587
0.04089380554,0.20588235294117646
0.0413213245189,0.21323529411764705
0.0413213245189,0.22058823529411764
0.041667609836,0.22794117647058823
0.041667609836,0.23529411764705882
0.0418046165158,0.2426470588235294
0.0418046165158,0.25
0.042239351385,0.25735294117647056
0.042239351385,0.2647058823529412
0.042546222295,0.27205882352941174
0.042546222295,0.27941176470588236
0.0430099527971,0.2867647058823529
0.0430099527971,0.29411764705882354
0.0430657714074,0.3014705882352941
0.0430657714074,0.3088235294117647
0.0433999395587,0.3161764705882353
0.0433999395587,0.3235294117647059
0.0434874344788,0.33088235294117646
0.0434874344788,0.3382352941176471
0.0435947570169,0.34558823529411764
0.0435947570169,0.35294117647058826
0.0440290711173,0.3602941176470588
0.0440290711173,0.36764705882352944
0.0453819204105,0.375
0.0453819204105,0.38235294117647056
0.0462220885181,0.3897058823529412
0.0462220885181,0.39705882352941174
0.0479532703894,0.40441176470588236
0.0479532703894,0.4117647058823529
0.057038204574,0.41911764705882354
0.057038204574,0.4264705882352941
0.324486915539,0.4338235294117647
0.324486915539,0.4411764705882353
1.16295616214,0.4485294117647059
1.16295616214,0.45588235294117646
1.28858913383,0.4632352941176471
1.28858913383,0.47058823529411764
1.60646065523,0.47794117647058826
1.60646065523,0.4852941176470588
1.75597161762,0.49264705882352944
1.75597161762,0.5
1.87980127226,0.5073529411764706
1.87980127226,0.5147058823529411
1.98451941454,0.5220588235294118
1.98451941454,0.5294117647058824
2.07572324472,0.5367647058823529
2.07572324472,0.5441176470588235
2.44053775367,0.5514705882352942
2.44053775367,0.5588235294117647
2.55537996861,0.5661764705882353
2.55537996861,0.5735294117647058
3.01160280363,0.5808823529411765
3.01160280363,0.5882352941176471
3.03995375562,0.5955882352941176
3.03995375562,0.6029411764705882
3.51722842837,0.6102941176470589
3.51722842837,0.6176470588235294
3.74854156623,0.625
3.74854156623,0.6323529411764706
3.93954791253,0.6397058823529411
3.93954791253,0.6470588235294118
4.07509424732,0.6544117647058824
4.07509424732,0.6617647058823529
4.20603281269,0.6691176470588235
4.20603281269,0.6764705882352942
4.58374020765,0.6838235294117647
4.58374020765,0.6911764705882353
4.65458672116,0.6985294117647058
4.65458672116,0.7058823529411765
4.79532703894,0.7132352941176471
4.79532703894,0.7205882352941176
4.81299652425,0.7279411764705882
4.81299652425,0.7352941176470589
4.82737651218,0.7426470588235294
4.82737651218,0.75
5.01898197306,0.7573529411764706
5.01898197306,0.7647058823529411
5.63935344993,0.7720588235294118
5.63935344993,0.7794117647058824
5.64186074272,0.7867647058823529
5.64186074272,0.7941176470588235
5.90029012241,0.8014705882352942
5.90029012241,0.8088235294117647
6.4223634753,0.8161764705882353
6.4223634753,0.8235294117647058
6.60198769204,0.8308823529411765
6.60198769204,0.8382352941176471
6.99940254755,0.8455882352941176
6.99940254755,0.8529411764705882
7.38594290625,0.8602941176470589
7.38594290625,0.8676470588235294
7.40446404209,0.875
7.40446404209,0.8823529411764706
7.77864261225,0.8897058823529411
7.77864261225,0.8970588235294118
9.17984294039,0.9044117647058824
9.17984294039,0.9117647058823529
10.6446364918,0.9191176470588235
10.6446364918,0.9264705882352942
10.8095344637,0.9338235294117647
10.8095344637,0.9411764705882353
13.1153452329,0.9485294117647058
13.1153452329,0.9558823529411765
13.3344577924,0.9632352941176471
13.3344577924,0.9705882352941176
17.0719633232,0.9779411764705882
17.0719633232,0.9852941176470589
19.5771799859,0.9926470588235294
19.5771799859,1.0
