Congestion,CDF
0.00667093055589,0.007352941176470588
0.00667093055589,0.014705882352941176
0.00667093055589,0.022058823529411766
0.00667093055589,0.029411764705882353
0.00667093055589,0.03676470588235294
0.00667093055589,0.04411764705882353
0.00667093055589,0.051470588235294115
0.00667093055589,0.058823529411764705
0.00667093055589,0.0661764705882353
0.00667093055589,0.07352941176470588
0.00667093055589,0.08088235294117647
0.00667093055589,0.08823529411764706
0.00667093055589,0.09558823529411764
0.00667093055589,0.10294117647058823
0.00667093055589,0.11029411764705882
0.00667093055589,0.11764705882352941
0.00667093055589,0.125
0.00667093055589,0.1323529411764706
0.00667093055589,0.13970588235294118
0.00667093055589,0.14705882352941177
0.00667093055589,0.15441176470588236
0.00667093055589,0.16176470588235295
0.00667093055589,0.16911764705882354
0.00667093055589,0.17647058823529413
0.00667093055589,0.18382352941176472
0.00667093055589,0.19117647058823528
0.00667093055589,0.19852941176470587
0.00667093055589,0.20588235294117646
0.00667093055589,0.21323529411764705
0.00667093055589,0.22058823529411764
0.00667093055589,0.22794117647058823
0.00667093055589,0.23529411764705882
0.00667093055589,0.2426470588235294
0.00667093055589,0.25
0.00667093055589,0.25735294117647056
0.00667093055589,0.2647058823529412
0.00667093055589,0.27205882352941174
0.00667093055589,0.27941176470588236
0.00667093055589,0.2867647058823529
0.00667093055589,0.29411764705882354
0.00667093055589,0.3014705882352941
0.00667093055589,0.3088235294117647
0.00667093055589,0.3161764705882353
0.00667093055589,0.3235294117647059
0.00667093055589,0.33088235294117646
0.00667093055589,0.3382352941176471
0.00667093055589,0.34558823529411764
0.00667093055589,0.35294117647058826
0.00667093055589,0.3602941176470588
0.00667093055589,0.36764705882352944
0.00667093055589,0.375
0.00667093055589,0.38235294117647056
0.00667093055589,0.3897058823529412
0.00667093055589,0.39705882352941174
0.00667093055589,0.40441176470588236
0.00667093055589,0.4117647058823529
0.049414300414,0.41911764705882354
0.049414300414,0.4264705882352941
0.111182175931,0.4338235294117647
0.111182175931,0.4411764705882353
0.230600068599,0.4485294117647059
0.230600068599,0.45588235294117646
0.230600068599,0.4632352941176471
0.230600068599,0.47058823529411764
0.286191156564,0.47794117647058826
0.286191156564,0.4852941176470588
0.312957235955,0.49264705882352944
0.312957235955,0.5
0.317075094323,0.5073529411764706
0.317075094323,0.5147058823529411
0.343841173714,0.5220588235294118
0.343841173714,0.5294117647058824
0.372666182289,0.5367647058823529
0.372666182289,0.5441176470588235
0.374725111473,0.5514705882352942
0.374725111473,0.5588235294117647
0.448846562094,0.5661764705882353
0.448846562094,0.5735294117647058
0.457082278829,0.5808823529411765
0.457082278829,0.5882352941176471
0.500319791692,0.5955882352941176
0.500319791692,0.6029411764705882
0.568264454761,0.6102941176470589
0.568264454761,0.6176470588235294
0.617678755175,0.625
0.617678755175,0.6323529411764706
0.630032330278,0.6397058823529411
0.630032330278,0.6470588235294118
0.634150188646,0.6544117647058824
0.634150188646,0.6617647058823529
0.650621622118,0.6691176470588235
0.650621622118,0.6764705882352942
0.654739480485,0.6838235294117647
0.654739480485,0.6911764705882353
0.667093055589,0.6985294117647058
0.667093055589,0.7058823529411765
0.716507356003,0.7132352941176471
0.716507356003,0.7205882352941176
0.735037718658,0.7279411764705882
0.735037718658,0.7352941176470589
0.74121450621,0.7426470588235294
0.74121450621,0.75
0.784452019072,0.7573529411764706
0.784452019072,0.7647058823529411
0.807100240095,0.7720588235294118
0.807100240095,0.7794117647058824
0.905928840923,0.7867647058823529
0.905928840923,0.7941176470588235
0.912105628475,0.8014705882352942
0.912105628475,0.8088235294117647
0.94093063705,0.8161764705882353
0.94093063705,0.8235294117647058
0.942989566234,0.8308823529411765
0.942989566234,0.8382352941176471
0.967696716441,0.8455882352941176
0.967696716441,0.8529411764705882
1.09123246748,0.8602941176470589
1.09123246748,0.8676470588235294
1.19211999749,0.875
1.19211999749,0.8823529411764706
1.20859143096,0.8897058823529411
1.20859143096,0.8970588235294118
1.30947896097,0.9044117647058824
1.30947896097,0.9117647058823529
1.47625222487,0.9191176470588235
1.47625222487,0.9264705882352942
1.49066472916,0.9338235294117647
1.49066472916,0.9411764705882353
1.74185408959,0.9485294117647058
1.74185408959,0.9558823529411765
1.8475457877,0.9632352941176471
1.8475457877,0.9705882352941176
2.26276317312,0.9779411764705882
2.26276317312,0.9852941176470589
2.56748469234,0.9926470588235294
2.56748469234,1.0
