Congestion,CDF
0.0,0.007352941176470588
0.0,0.014705882352941176
0.0,0.022058823529411766
0.0,0.029411764705882353
0.0194476091685,0.03676470588235294
0.0194476091685,0.04411764705882353
0.0205975405861,0.051470588235294115
0.0205975405861,0.058823529411764705
0.0207164737309,0.0661764705882353
0.0207164737309,0.07352941176470588
0.0208677664565,0.08088235294117647
0.0208677664565,0.08823529411764706
0.0210916296922,0.09558823529411764
0.0210916296922,0.10294117647058823
0.0217999951314,0.11029411764705882
0.0217999951314,0.11764705882352941
0.0228757402232,0.125
0.0228757402232,0.1323529411764706
0.0231276832678,0.13970588235294118
0.0231276832678,0.14705882352941177
0.0245526935819,0.15441176470588236
0.0245526935819,0.16176470588235295
0.0246211355623,0.16911764705882354
0.0246211355623,0.17647058823529413
0.0254591081415,0.18382352941176472
0.0254591081415,0.19117647058823528
0.0261554672445,0.19852941176470587
0.0261554672445,0.20588235294117646
0.0261668993723,0.21323529411764705
0.0261668993723,0.22058823529411764
0.0265691091744,0.22794117647058823
0.0265691091744,0.23529411764705882
0.026876798132,0.2426470588235294
0.026876798132,0.25
0.0271578103224,0.25735294117647056
0.0271578103224,0.2647058823529412
0.0273368917902,0.27205882352941174
0.0273368917902,0.27941176470588236
0.028203492959,0.2867647058823529
0.028203492959,0.29411764705882354
0.0282835416361,0.3014705882352941
0.0282835416361,0.3088235294117647
0.0289709586017,0.3161764705882353
0.0289709586017,0.3235294117647059
0.0296370658177,0.33088235294117646
0.0296370658177,0.3382352941176471
0.0297652980169,0.34558823529411764
0.0297652980169,0.35294117647058826
0.0312518505226,0.3602941176470588
0.0312518505226,0.36764705882352944
0.0319412501195,0.375
0.0319412501195,0.38235294117647056
0.0320325874493,0.3897058823529412
0.0320325874493,0.39705882352941174
0.0338088244463,0.40441176470588236
0.0338088244463,0.4117647058823529
0.0344742775446,0.41911764705882354
0.0344742775446,0.4264705882352941
0.0367142550624,0.4338235294117647
0.0367142550624,0.4411764705882353
0.557370191939,0.4485294117647059
0.557370191939,0.45588235294117646
0.784135876881,0.4632352941176471
0.784135876881,0.47058823529411764
0.85379931972,0.47794117647058826
0.85379931972,0.4852941176470588
0.88354506222,0.49264705882352944
0.88354506222,0.5
1.09557178979,0.5073529411764706
1.09557178979,0.5147058823529411
1.38361426413,0.5220588235294118
1.38361426413,0.5294117647058824
1.41973492768,0.5367647058823529
1.41973492768,0.5441176470588235
1.49282718794,0.5514705882352942
1.49282718794,0.5588235294117647
1.8501441168,0.5661764705882353
1.8501441168,0.5735294117647058
2.01994875594,0.5808823529411765
2.01994875594,0.5882352941176471
2.16061705908,0.5955882352941176
2.16061705908,0.6029411764705882
2.18596608783,0.6102941176470589
2.18596608783,0.6176470588235294
2.28008136288,0.625
2.28008136288,0.6323529411764706
2.43972529002,0.6397058823529411
2.43972529002,0.6470588235294118
2.97652980169,0.6544117647058824
2.97652980169,0.6617647058823529
3.08070697812,0.6691176470588235
3.08070697812,0.6764705882352942
3.10345407792,0.6838235294117647
3.10345407792,0.6911764705882353
3.12518505226,0.6985294117647058
3.12518505226,0.7058823529411765
3.3246419747,0.7132352941176471
3.3246419747,0.7205882352941176
3.44742775446,0.7279411764705882
3.44742775446,0.7352941176470589
3.50023499945,0.7426470588235294
3.50023499945,0.75
3.50397451479,0.7573529411764706
3.50397451479,0.7647058823529411
3.67142550624,0.7720588235294118
3.67142550624,0.7794117647058824
4.02762514806,0.7867647058823529
4.02762514806,0.7941176470588235
4.42293063763,0.8014705882352942
4.42293063763,0.8088235294117647
4.57554001985,0.8161764705882353
4.57554001985,0.8235294117647058
4.81866866236,0.8308823529411765
4.81866866236,0.8382352941176471
5.04426912874,0.8455882352941176
5.04426912874,0.8529411764705882
5.26212733932,0.8602941176470589
5.26212733932,0.8676470588235294
5.34438909101,0.875
5.34438909101,0.8823529411764706
5.47464447747,0.8897058823529411
5.47464447747,0.8970588235294118
6.98588593294,0.9044117647058824
6.98588593294,0.9117647058823529
8.11715319394,0.9191176470588235
8.11715319394,0.9264705882352942
8.49648758484,0.9338235294117647
8.49648758484,0.9411764705882353
10.3313146714,0.9485294117647058
10.3313146714,0.9558823529411765
10.4997357053,0.9632352941176471
10.4997357053,0.9705882352941176
13.8721028056,0.9779411764705882
13.8721028056,0.9852941176470589
16.0628537481,0.9926470588235294
16.0628537481,1.0
