Congestion,CDF
0.0,0.007352941176470588
0.0,0.014705882352941176
0.0,0.022058823529411766
0.0,0.029411764705882353
0.0,0.03676470588235294
0.0,0.04411764705882353
0.0,0.051470588235294115
0.0,0.058823529411764705
0.0,0.0661764705882353
0.0,0.07352941176470588
0.0,0.08088235294117647
0.0,0.08823529411764706
0.0,0.09558823529411764
0.0,0.10294117647058823
1.5042415903e-05,0.11029411764705882
1.5042415903e-05,0.11764705882352941
1.5042415903e-05,0.125
1.5042415903e-05,0.1323529411764706
1.5042415903e-05,0.13970588235294118
1.5042415903e-05,0.14705882352941177
1.5042415903e-05,0.15441176470588236
1.5042415903e-05,0.16176470588235295
1.5042415903e-05,0.16911764705882354
1.5042415903e-05,0.17647058823529413
1.5042415903e-05,0.18382352941176472
1.5042415903e-05,0.19117647058823528
1.5042415903e-05,0.19852941176470587
1.5042415903e-05,0.20588235294117646
1.5042415903e-05,0.21323529411764705
1.5042415903e-05,0.22058823529411764
1.5042415903e-05,0.22794117647058823
1.5042415903e-05,0.23529411764705882
1.5042415903e-05,0.2426470588235294
1.5042415903e-05,0.25
1.5042415903e-05,0.25735294117647056
1.5042415903e-05,0.2647058823529412
1.5042415903e-05,0.27205882352941174
1.5042415903e-05,0.27941176470588236
1.5042415903e-05,0.2867647058823529
1.5042415903e-05,0.29411764705882354
1.5042415903e-05,0.3014705882352941
0.000376060397575,0.3088235294117647
0.000376060397575,0.3161764705882353
0.000406145229381,0.3235294117647059
0.00075212079515,0.33088235294117646
0.00075212079515,0.3382352941176471
0.00075212079515,0.34558823529411764
0.00075212079515,0.35294117647058826
0.00112818119273,0.3602941176470588
0.00125353465858,0.36764705882352944
0.00125353465858,0.375
0.00125353465858,0.38235294117647056
0.0015042415903,0.3897058823529412
0.0015042415903,0.39705882352941174
0.0015042415903,0.40441176470588236
0.0015042415903,0.4117647058823529
0.0015042415903,0.41911764705882354
0.0015042415903,0.4264705882352941
0.0015042415903,0.4338235294117647
0.00188030198788,0.4411764705882353
0.00225636238545,0.4485294117647059
0.00225636238545,0.45588235294117646
0.00275777624888,0.4632352941176471
0.0030084831806,0.47058823529411764
0.0030084831806,0.47794117647058826
0.0045127247709,0.4852941176470588
0.00614231982706,0.49264705882352944
0.0109057515297,0.5
0.0111564584614,0.5073529411764706
0.0144156485737,0.5147058823529411
0.0179255456177,0.5220588235294118
0.0181762525495,0.5294117647058824
0.019429787208,0.5367647058823529
0.0196804941398,0.5441176470588235
0.0211847357301,0.5514705882352942
0.0382914166492,0.5588235294117647
0.0388955837858,0.5661764705882353
0.045676941951,0.5735294117647058
0.0457514615568,0.5808823529411765
0.0458520494402,0.5882352941176471
0.0458824241859,0.5955882352941176
0.0459061494267,0.6029411764705882
0.0459567567853,0.6102941176470589
0.0460504948803,0.6176470588235294
0.0460645576013,0.625
0.0460837289699,0.6323529411764706
0.0460895500041,0.6397058823529411
0.0460896744576,0.6470588235294118
0.0460901235844,0.6544117647058824
0.0460901632036,0.6617647058823529
0.0460908404702,0.6691176470588235
0.0460913802064,0.6764705882352942
0.0460967240589,0.6838235294117647
0.0461010673732,0.6911764705882353
0.0461122406586,0.6985294117647058
0.0461167008878,0.7058823529411765
0.046116712086,0.7132352941176471
0.046116766268,0.7205882352941176
0.0461167695379,0.7279411764705882
0.0461171964167,0.7352941176470589
0.0461171985967,0.7426470588235294
0.0461171985967,0.75
1.15225408009,0.7573529411764706
1.15241810147,0.7647058823529411
1.22808187164,0.7720588235294118
2.29783783927,0.7794117647058824
2.29783783927,0.7867647058823529
2.30505336866,0.7941176470588235
2.30505336866,0.8014705882352942
3.45676224027,0.8088235294117647
3.84099051503,0.8161764705882353
3.84099051503,0.8235294117647058
3.84099051503,0.8308823529411765
4.59061494267,0.8382352941176471
4.60908404702,0.8455882352941176
4.60967240589,0.8529411764705882
4.6116712086,0.8602941176470589
4.61167695379,0.8676470588235294
4.61171985967,0.875
4.61171985967,0.8823529411764706
5.76139210073,0.8897058823529411
6.88304278329,0.8970588235294118
6.91402081443,0.9044117647058824
8.44744627517,0.9117647058823529
9.17885736126,0.9191176470588235
9.22335358059,0.9264705882352942
13.835159361,0.9338235294117647
18.8204790212,0.9411764705882353
33.4342723404,0.9485294117647058
34.1708126237,0.9558823529411765
44.19154029,0.9632352941176471
54.8004069633,0.9705882352941176
55.7139340014,0.9779411764705882
58.6295486282,0.9852941176470589
60.2890801571,0.9926470588235294
64.1786385357,1.0
