Congestion,CDF
0.0,0.007352941176470588
0.0,0.014705882352941176
0.0,0.022058823529411766
0.0,0.029411764705882353
0.0,0.03676470588235294
0.0,0.04411764705882353
0.0,0.051470588235294115
0.0,0.058823529411764705
0.0,0.0661764705882353
0.0,0.07352941176470588
0.0,0.08088235294117647
0.0,0.08823529411764706
0.0,0.09558823529411764
0.0,0.10294117647058823
1.53052813501e-05,0.11029411764705882
1.53052813501e-05,0.11764705882352941
1.53052813501e-05,0.125
1.53052813501e-05,0.1323529411764706
1.53052813501e-05,0.13970588235294118
1.53052813501e-05,0.14705882352941177
1.53052813501e-05,0.15441176470588236
1.53052813501e-05,0.16176470588235295
1.53052813501e-05,0.16911764705882354
1.53052813501e-05,0.17647058823529413
1.53052813501e-05,0.18382352941176472
1.53052813501e-05,0.19117647058823528
1.53052813501e-05,0.19852941176470587
1.53052813501e-05,0.20588235294117646
1.53052813501e-05,0.21323529411764705
1.53052813501e-05,0.22058823529411764
1.53052813501e-05,0.22794117647058823
1.53052813501e-05,0.23529411764705882
1.53052813501e-05,0.2426470588235294
1.53052813501e-05,0.25
1.53052813501e-05,0.25735294117647056
1.53052813501e-05,0.2647058823529412
1.53052813501e-05,0.27205882352941174
1.53052813501e-05,0.27941176470588236
1.53052813501e-05,0.2867647058823529
1.53052813501e-05,0.29411764705882354
1.53052813501e-05,0.3014705882352941
0.000382632033752,0.3088235294117647
0.000382632033752,0.3161764705882353
0.000413242596452,0.3235294117647059
0.000765264067504,0.33088235294117646
0.000765264067504,0.3382352941176471
0.000765264067504,0.34558823529411764
0.000765264067504,0.35294117647058826
0.00114789610126,0.3602941176470588
0.00127544011251,0.36764705882352944
0.00127544011251,0.375
0.00127544011251,0.38235294117647056
0.00153052813501,0.3897058823529412
0.00153052813501,0.39705882352941174
0.00153052813501,0.40441176470588236
0.00153052813501,0.4117647058823529
0.00153052813501,0.41911764705882354
0.00153052813501,0.4264705882352941
0.00153052813501,0.4338235294117647
0.00172271451756,0.4411764705882353
0.00191316016876,0.4485294117647059
0.00229579220251,0.45588235294117646
0.00229579220251,0.4632352941176471
0.00264836817422,0.47058823529411764
0.00280596824751,0.47794117647058826
0.00306105627002,0.4852941176470588
0.00306105627002,0.49264705882352944
0.00459158440502,0.5
0.00624965655128,0.5073529411764706
0.0110963289788,0.5147058823529411
0.0113514170013,0.5220588235294118
0.0146675612938,0.5294117647058824
0.01630764043,0.5367647058823529
0.0164453164668,0.5441176470588235
0.0167588007128,0.5514705882352942
0.0168117412817,0.5588235294117647
0.0168767006208,0.5661764705882353
0.0169118343931,0.5735294117647058
0.0170294187865,0.5808823529411765
0.0170579028854,0.5882352941176471
0.0170717111981,0.5955882352941176
0.0170845130899,0.6029411764705882
0.0170856114816,0.6102941176470589
0.0170857905748,0.6176470588235294
0.0170868220099,0.625
0.0170873533948,0.6323529411764706
0.017088037598,0.6397058823529411
0.0170936297863,0.6470588235294118
0.0170971758432,0.6544117647058824
0.0171091007686,0.6617647058823529
0.0171139148299,0.6691176470588235
0.0171139381179,0.6764705882352942
0.0171139969286,0.6838235294117647
0.0171140027388,0.6911764705882353
0.0171144286202,0.6985294117647058
0.0171144324938,0.7058823529411765
0.0171144324938,0.7132352941176471
0.0182387936088,0.7205882352941176
0.0184938816313,0.7279411764705882
0.0197693217438,0.7352941176470589
0.0200244097663,0.7426470588235294
0.0215549379014,0.75
0.427170550247,0.7573529411764706
0.427340744657,0.7647058823529411
0.429259330237,0.7720588235294118
0.845591719655,0.7794117647058824
0.845591719655,0.7867647058823529
0.854858792159,0.7941176470588235
0.854858792159,0.8014705882352942
1.28151165074,0.8088235294117647
1.4240376474,0.8161764705882353
1.4240376474,0.8235294117647058
1.4240376474,0.8308823529411765
1.68767006208,0.8382352941176471
1.70873533948,0.8455882352941176
1.70936297863,0.8529411764705882
1.71139381179,0.8602941176470589
1.71140027388,0.8676470588235294
1.71144324938,0.875
1.71144324938,0.8823529411764706
2.13597431004,0.8897058823529411
2.52147179093,0.8970588235294118
2.56331010115,0.9044117647058824
3.12982793594,0.9117647058823529
3.36884419024,0.9191176470588235
3.42279996674,0.9264705882352942
5.13432936077,0.9338235294117647
6.97730844508,0.9411764705882353
12.4072553669,0.9485294117647058
12.6556699793,0.9558823529411765
16.3970618834,0.9632352941176471
20.1767500035,0.9705882352941176
20.3490214553,0.9779411764705882
20.6675431043,0.9852941176470589
22.312074751,0.9926470588235294
22.5769115684,1.0
