Congestion,CDF
0.0,0.007352941176470588
0.0,0.014705882352941176
0.0,0.022058823529411766
0.0,0.029411764705882353
0.0,0.03676470588235294
0.0,0.04411764705882353
0.0,0.051470588235294115
0.0,0.058823529411764705
0.0,0.0661764705882353
0.0,0.07352941176470588
0.0,0.08088235294117647
0.0,0.08823529411764706
0.0,0.09558823529411764
0.0,0.10294117647058823
1.54140161699e-05,0.11029411764705882
1.54140161699e-05,0.11764705882352941
1.54140161699e-05,0.125
1.54140161699e-05,0.1323529411764706
1.54140161699e-05,0.13970588235294118
1.54140161699e-05,0.14705882352941177
1.54140161699e-05,0.15441176470588236
1.54140161699e-05,0.16176470588235295
1.54140161699e-05,0.16911764705882354
1.54140161699e-05,0.17647058823529413
1.54140161699e-05,0.18382352941176472
1.54140161699e-05,0.19117647058823528
1.54140161699e-05,0.19852941176470587
1.54140161699e-05,0.20588235294117646
1.54140161699e-05,0.21323529411764705
1.54140161699e-05,0.22058823529411764
1.54140161699e-05,0.22794117647058823
1.54140161699e-05,0.23529411764705882
1.54140161699e-05,0.2426470588235294
1.54140161699e-05,0.25
1.54140161699e-05,0.25735294117647056
1.54140161699e-05,0.2647058823529412
1.54140161699e-05,0.27205882352941174
1.54140161699e-05,0.27941176470588236
1.54140161699e-05,0.2867647058823529
1.54140161699e-05,0.29411764705882354
1.54140161699e-05,0.3014705882352941
0.000385350404248,0.3088235294117647
0.000385350404248,0.3161764705882353
0.000416178436588,0.3235294117647059
0.000770700808496,0.33088235294117646
0.000770700808496,0.3382352941176471
0.000770700808496,0.34558823529411764
0.000770700808496,0.35294117647058826
0.000802719643956,0.3602941176470588
0.00115605121274,0.36764705882352944
0.00128450134749,0.375
0.00128450134749,0.38235294117647056
0.00128450134749,0.3897058823529412
0.00154140161699,0.39705882352941174
0.00154140161699,0.40441176470588236
0.00154140161699,0.4117647058823529
0.00154140161699,0.41911764705882354
0.00154140161699,0.4264705882352941
0.00154140161699,0.4338235294117647
0.00154140161699,0.4411764705882353
0.00158478139699,0.4485294117647059
0.00192675202124,0.45588235294117646
0.00231210242549,0.4632352941176471
0.00231210242549,0.47058823529411764
0.00282590296449,0.47794117647058826
0.00308280323398,0.4852941176470588
0.00308280323398,0.49264705882352944
0.00462420485098,0.5
0.00629405660272,0.5073529411764706
0.0111751617232,0.5147058823529411
0.0114320619927,0.5220588235294118
0.0128119532245,0.5294117647058824
0.0129642420831,0.5367647058823529
0.0133105051993,0.5441176470588235
0.0133724654206,0.5514705882352942
0.0134474220603,0.5588235294117647
0.0134778240874,0.5661764705882353
0.0136099982849,0.5735294117647058
0.0136433222792,0.5808823529411765
0.0136559411148,0.5882352941176471
0.0136708978491,0.5955882352941176
0.0136724024089,0.6029411764705882
0.0136727408867,0.6102941176470589
0.01367399326,0.6176470588235294
0.0136745663547,0.625
0.013675389964,0.6323529411764706
0.0136810851713,0.6397058823529411
0.0136842033257,0.6470588235294118
0.0136967720138,0.6544117647058824
0.0137018043752,0.6617647058823529
0.0137018353771,0.6691176470588235
0.0137019005752,0.6764705882352942
0.01370190878,0.6838235294117647
0.0137023343959,0.6911764705882353
0.013702339866,0.6985294117647058
0.013702339866,0.7058823529411765
0.0147717654962,0.7132352941176471
0.0183683692692,0.7205882352941176
0.0186252695387,0.7279411764705882
0.0199097708861,0.7352941176470589
0.0201666711556,0.7426470588235294
0.0217080727726,0.75
0.341697689265,0.7573529411764706
0.3418498315,0.7647058823529411
0.342027129283,0.7720588235294118
0.67389120437,0.7794117647058824
0.67389120437,0.7867647058823529
0.684210166286,0.7941176470588235
0.684210166286,0.8014705882352942
1.0255494945,0.8088235294117647
1.13963499034,0.8161764705882353
1.13963499034,0.8235294117647058
1.13963499034,0.8308823529411765
1.34474220603,0.8382352941176471
1.36745663547,0.8455882352941176
1.36810851713,0.8529411764705882
1.37018353771,0.8602941176470589
1.370190878,0.8676470588235294
1.3702339866,0.875
1.3702339866,0.8823529411764706
1.7093888279,0.8897058823529411
2.0049417243,0.8970588235294118
2.05129995119,0.9044117647058824
2.50396721826,0.9117647058823529
2.68198874809,0.9191176470588235
2.74038093552,0.9264705882352942
4.11070141279,0.9338235294117647
5.58372069459,0.9411764705882353
9.93347345283,0.9485294117647058
10.1225789457,0.9558823529411765
13.1269958108,0.9632352941176471
16.0907047405,0.9705882352941176
16.2491828802,0.9779411764705882
16.5438898735,0.9852941176470589
17.8403140818,0.9926470588235294
17.9205860462,1.0
