Congestion,CDF
0.0,0.009433962264150943
0.0,0.018867924528301886
0.0,0.02830188679245283
0.0,0.03773584905660377
0.0,0.04716981132075472
0.0,0.05660377358490566
0.0,0.0660377358490566
0.0,0.07547169811320754
0.0,0.08490566037735849
0.0,0.09433962264150944
0.0,0.10377358490566038
0.0,0.11320754716981132
0.0,0.12264150943396226
0.0,0.1320754716981132
0.0,0.14150943396226415
0.0,0.1509433962264151
0.0,0.16037735849056603
0.0,0.16981132075471697
0.0,0.1792452830188679
0.0,0.18867924528301888
0.0,0.19811320754716982
0.0,0.20754716981132076
0.0,0.2169811320754717
0.0,0.22641509433962265
0.0,0.2358490566037736
0.0,0.24528301886792453
0.0,0.25471698113207547
0.0,0.2641509433962264
0.0,0.27358490566037735
0.0,0.2830188679245283
6.65520021267e-08,0.29245283018867924
1.71454014648e-06,0.3018867924528302
1.92803020038e-06,0.3113207547169811
2.61376137828e-06,0.32075471698113206
2.95046500944e-06,0.330188679245283
3.9259598426e-06,0.33962264150943394
5.98714910118e-06,0.3490566037735849
7.60590712598e-06,0.3584905660377358
7.66386712757e-06,0.36792452830188677
8.11078170942e-06,0.37735849056603776
9.45985482639e-06,0.3867924528301887
1.16473467488e-05,0.39622641509433965
1.19142310508e-05,0.4056603773584906
1.25706862422e-05,0.41509433962264153
2.75276763337e-05,0.42452830188679247
7.17372222966e-05,0.4339622641509434
8.05532253857e-05,0.44339622641509435
8.41621095798e-05,0.4528301886792453
0.000110417620573,0.46226415094339623
0.000110417620573,0.4716981132075472
0.000287395017284,0.4811320754716981
0.000287395017284,0.49056603773584906
0.000287395017284,0.5
0.000294446988195,0.5094339622641509
0.000294446988195,0.5188679245283019
0.000294446988195,0.5283018867924528
0.000317709043787,0.5377358490566038
0.00045458411202,0.5471698113207547
0.000542867281079,0.5566037735849056
0.000542867281079,0.5660377358490566
0.000574790034568,0.5754716981132075
0.000574790034568,0.5849056603773585
0.000784128413485,0.5943396226415094
0.000999518157419,0.6037735849056604
0.000999518157419,0.6132075471698113
0.00123842682585,0.6226415094339622
0.00123842682585,0.6320754716981132
0.00156399274668,0.6415094339622641
0.00190228145297,0.6509433962264151
0.0022817721378,0.660377358490566
0.00257087596194,0.6698113207547169
0.00400888782662,0.6792452830188679
0.00406683123035,0.6886792452830188
0.00420328538985,0.6981132075471698
0.0046787352854,0.7075471698113207
0.00868149900473,0.7169811320754716
0.00964525393357,0.7264150943396226
0.0111325184209,0.7358490566037735
0.0155093188864,0.7452830188679245
0.0219295849036,0.7547169811320755
0.0274286548794,0.7641509433962265
0.0281830733435,0.7735849056603774
0.123219167002,0.7830188679245284
0.300018405986,0.7924528301886793
0.313102080587,0.8018867924528302
0.313102080587,0.8113207547169812
0.361697022509,0.8207547169811321
0.361697022509,0.8301886792452831
0.361697022509,0.839622641509434
0.593843084796,0.8490566037735849
0.593843084796,0.8584905660377359
0.723394045018,0.8679245283018868
0.723394045018,0.8773584905660378
0.834938881565,0.8867924528301887
0.834938881565,0.8962264150943396
0.834938881565,0.9056603773584906
1.11073256708,0.9150943396226415
1.11073256708,0.9245283018867925
1.12687344209,0.9339622641509434
1.18221710193,0.9433962264150944
3.05145314912,0.9528301886792453
3.05145314912,0.9622641509433962
6.12138059551,0.9716981132075472
9.00776292712,0.9811320754716981
9.23408846633,0.9905660377358491
26.9632512582,1.0
