Congestion,CDF
0.0323417381155,0.007352941176470588
0.0323417381155,0.014705882352941176
0.0331615980358,0.022058823529411766
0.0331615980358,0.029411764705882353
0.0333037816723,0.03676470588235294
0.0333037816723,0.04411764705882353
0.0336027515609,0.051470588235294115
0.0336027515609,0.058823529411764705
0.0337629777714,0.0661764705882353
0.0337629777714,0.07352941176470588
0.0344473495002,0.08088235294117647
0.0344473495002,0.08823529411764706
0.034463071169,0.09558823529411764
0.034463071169,0.10294117647058823
0.0345832342927,0.11029411764705882
0.0345832342927,0.11764705882352941
0.0354532367168,0.125
0.0354532367168,0.1323529411764706
0.0356196694227,0.13970588235294118
0.0356196694227,0.14705882352941177
0.0358670799002,0.15441176470588236
0.0358670799002,0.16176470588235295
0.035960166692,0.16911764705882354
0.035960166692,0.17647058823529413
0.0364857191086,0.18382352941176472
0.0364857191086,0.19117647058823528
0.0365656344402,0.19852941176470587
0.0365656344402,0.20588235294117646
0.0378235712144,0.21323529411764705
0.0378235712144,0.22058823529411764
0.0379777023767,0.22794117647058823
0.0379777023767,0.23529411764705882
0.0382499076308,0.2426470588235294
0.0382499076308,0.25
0.0390984592973,0.25735294117647056
0.0390984592973,0.2647058823529412
0.0392180322469,0.27205882352941174
0.0392180322469,0.27941176470588236
0.0396188662631,0.2867647058823529
0.0396188662631,0.29411764705882354
0.0401552373852,0.3014705882352941
0.0401552373852,0.3088235294117647
0.0403566089018,0.3161764705882353
0.0403566089018,0.3235294117647059
0.0407990156259,0.33088235294117646
0.0407990156259,0.3382352941176471
0.0411993607834,0.34558823529411764
0.0411993607834,0.35294117647058826
0.0415610555363,0.3602941176470588
0.0415610555363,0.36764705882352944
0.0437203907128,0.375
0.0437203907128,0.38235294117647056
0.0438742196492,0.3897058823529412
0.0438742196492,0.39705882352941174
0.0444366847391,0.40441176470588236
0.0444366847391,0.4117647058823529
0.0462842253426,0.41911764705882354
0.0462842253426,0.4264705882352941
0.276390229002,0.4338235294117647
0.276390229002,0.4411764705882353
0.967758124176,0.4485294117647059
0.967758124176,0.45588235294117646
1.18278697621,0.4632352941176471
1.18278697621,0.47058823529411764
1.41495417333,0.47794117647058826
1.41495417333,0.4852941176470588
1.43490157079,0.49264705882352944
1.43490157079,0.5
1.62984701899,0.5073529411764706
1.62984701899,0.5147058823529411
1.83971077005,0.5220588235294118
1.83971077005,0.5294117647058824
1.96832004553,0.5367647058823529
1.96832004553,0.5441176470588235
2.26332822807,0.5514705882352942
2.26332822807,0.5588235294117647
2.31989254635,0.5661764705882353
2.31989254635,0.5735294117647058
2.58966762164,0.5808823529411765
2.58966762164,0.5882352941176471
2.76345698368,0.5955882352941176
2.76345698368,0.6029411764705882
3.19278254916,0.6102941176470589
3.19278254916,0.6176470588235294
3.3397676032,0.625
3.3397676032,0.6323529411764706
3.44327825577,0.6397058823529411
3.44327825577,0.6470588235294118
3.60469769121,0.6544117647058824
3.60469769121,0.6617647058823529
3.99441559987,0.6691176470588235
3.99441559987,0.6764705882352942
4.07575155431,0.6838235294117647
4.07575155431,0.6911764705882353
4.37260885296,0.6985294117647058
4.37260885296,0.7058823529411765
4.41796599893,0.7132352941176471
4.41796599893,0.7205882352941176
4.48237735467,0.7279411764705882
4.48237735467,0.7352941176470589
4.51548603566,0.7426470588235294
4.51548603566,0.75
4.62842253426,0.7573529411764706
4.62842253426,0.7647058823529411
4.87719233956,0.7720588235294118
4.87719233956,0.7794117647058824
5.2997014666,0.7867647058823529
5.2997014666,0.7941176470588235
5.36059271415,0.8014705882352942
5.36059271415,0.8088235294117647
6.03597712881,0.8161764705882353
6.03597712881,0.8235294117647058
6.14145858347,0.8308823529411765
6.14145858347,0.8382352941176471
6.20431252496,0.8455882352941176
6.20431252496,0.8529411764705882
6.60940123841,0.8602941176470589
6.60940123841,0.8676470588235294
6.71230459411,0.875
6.71230459411,0.8823529411764706
6.7259431356,0.8897058823529411
6.7259431356,0.8970588235294118
8.4596068078,0.9044117647058824
8.4596068078,0.9117647058823529
9.96532287726,0.9191176470588235
9.96532287726,0.9264705882352942
10.3617463241,0.9338235294117647
10.3617463241,0.9411764705882353
12.4790493325,0.9485294117647058
12.4790493325,0.9558823529411765
12.7231701923,0.9632352941176471
12.7231701923,0.9705882352941176
16.5351288161,0.9779411764705882
16.5351288161,0.9852941176470589
19.01906961,0.9926470588235294
19.01906961,1.0
