Congestion,CDF
0.0,0.007352941176470588
0.0,0.014705882352941176
0.0,0.022058823529411766
0.0,0.029411764705882353
0.0123785839466,0.03676470588235294
0.0123785839466,0.04411764705882353
0.012920571431,0.051470588235294115
0.012920571431,0.058823529411764705
0.0138956208265,0.0661764705882353
0.0138956208265,0.07352941176470588
0.0142406496564,0.08088235294117647
0.0142406496564,0.08823529411764706
0.0147962522148,0.09558823529411764
0.0147962522148,0.10294117647058823
0.0149536098007,0.11029411764705882
0.0149536098007,0.11764705882352941
0.0152363573348,0.125
0.0152363573348,0.1323529411764706
0.0160070124406,0.13970588235294118
0.0160070124406,0.14705882352941177
0.016328835635,0.15441176470588236
0.016328835635,0.16176470588235295
0.0167647306278,0.16911764705882354
0.0167647306278,0.17647058823529413
0.0177049995313,0.18382352941176472
0.0177049995313,0.19117647058823528
0.0179685311456,0.19852941176470587
0.0179685311456,0.20588235294117646
0.0182090178101,0.21323529411764705
0.0182090178101,0.22058823529411764
0.0190610889694,0.22794117647058823
0.0190610889694,0.23529411764705882
0.0191301922476,0.2426470588235294
0.0191301922476,0.25
0.0198777780182,0.25735294117647056
0.0198777780182,0.2647058823529412
0.0199003868336,0.27205882352941174
0.0199003868336,0.27941176470588236
0.0202247060627,0.2867647058823529
0.0202247060627,0.29411764705882354
0.020430517119,0.3014705882352941
0.020430517119,0.3088235294117647
0.0210973145733,0.3161764705882353
0.0210973145733,0.3235294117647059
0.0212171911921,0.33088235294117646
0.0212171911921,0.3382352941176471
0.0232015901382,0.34558823529411764
0.0232015901382,0.35294117647058826
0.0239262181343,0.3602941176470588
0.0239262181343,0.36764705882352944
0.0254115371867,0.375
0.0254115371867,0.38235294117647056
0.0256727900902,0.3897058823529412
0.0256727900902,0.39705882352941174
0.0282365827542,0.40441176470588236
0.0282365827542,0.4117647058823529
0.0288760630488,0.41911764705882354
0.0288760630488,0.4264705882352941
0.0305164166175,0.4338235294117647
0.0305164166175,0.4411764705882353
0.274167179565,0.4485294117647059
0.274167179565,0.45588235294117646
0.411615547262,0.4632352941176471
0.411615547262,0.47058823529411764
0.457485832359,0.47794117647058826
0.457485832359,0.4852941176470588
0.655891574118,0.49264705882352944
0.655891574118,0.5
0.738301797653,0.5073529411764706
0.738301797653,0.5147058823529411
0.94064229234,0.5220588235294118
0.94064229234,0.5294117647058824
1.04150427087,0.5367647058823529
1.04150427087,0.5441176470588235
1.10329122317,0.5514705882352942
1.10329122317,0.5588235294117647
1.14966508166,0.5661764705882353
1.14966508166,0.5735294117647058
1.5014036775,0.5808823529411765
1.5014036775,0.5882352941176471
1.51224143126,0.5955882352941176
1.51224143126,0.6029411764705882
1.55639133194,0.6102941176470589
1.55639133194,0.6176470588235294
1.58382079287,0.625
1.58382079287,0.6323529411764706
1.59565206285,0.6397058823529411
1.59565206285,0.6470588235294118
1.99003868336,0.6544117647058824
1.99003868336,0.6617647058823529
2.0117557463,0.6691176470588235
2.0117557463,0.6764705882352942
2.19921307208,0.6838235294117647
2.19921307208,0.6911764705882353
2.23251732827,0.6985294117647058
2.23251732827,0.7058823529411765
2.29730793425,0.7132352941176471
2.29730793425,0.7205882352941176
2.54115371867,0.7279411764705882
2.54115371867,0.7352941176470589
2.57841110956,0.7426470588235294
2.57841110956,0.75
2.58779839354,0.7573529411764706
2.58779839354,0.7647058823529411
2.75854070924,0.7720588235294118
2.75854070924,0.7794117647058824
2.88760630488,0.7867647058823529
2.88760630488,0.7941176470588235
3.05164166175,0.8014705882352942
3.05164166175,0.8088235294117647
3.11102209196,0.8161764705882353
3.11102209196,0.8235294117647058
3.49768180274,0.8308823529411765
3.49768180274,0.8382352941176471
3.54260797748,0.8455882352941176
3.54260797748,0.8529411764705882
3.7001551595,0.8602941176470589
3.7001551595,0.8676470588235294
3.89402549093,0.875
3.89402549093,0.8823529411764706
4.45254115357,0.8897058823529411
4.45254115357,0.8970588235294118
5.1722638127,0.9044117647058824
5.1722638127,0.9117647058823529
6.18383449364,0.9191176470588235
6.18383449364,0.9264705882352942
6.82090434148,0.9338235294117647
6.82090434148,0.9411764705882353
7.90539267882,0.9485294117647058
7.90539267882,0.9558823529411765
8.76290624204,0.9632352941176471
8.76290624204,0.9705882352941176
11.4319510569,0.9779411764705882
11.4319510569,0.9852941176470589
13.3518737225,0.9926470588235294
13.3518737225,1.0
