Congestion,CDF
0.0,0.007352941176470588
0.0,0.014705882352941176
0.0,0.022058823529411766
0.0,0.029411764705882353
0.000563066297565,0.03676470588235294
0.000563066297565,0.04411764705882353
0.00204316779017,0.051470588235294115
0.00204316779017,0.058823529411764705
0.00229282426866,0.0661764705882353
0.00229282426866,0.07352941176470588
0.00235106876997,0.08088235294117647
0.00235106876997,0.08823529411764706
0.0023765109136,0.09558823529411764
0.0023765109136,0.10294117647058823
0.00240376364145,0.11029411764705882
0.00240376364145,0.11764705882352941
0.00250824148203,0.125
0.00250824148203,0.1323529411764706
0.0026558510151,0.13970588235294118
0.0026558510151,0.14705882352941177
0.00286735594424,0.15441176470588236
0.00286735594424,0.16176470588235295
0.00290396778579,0.16911764705882354
0.00290396778579,0.17647058823529413
0.00305796185323,0.18382352941176472
0.00305796185323,0.19117647058823528
0.00307794604503,0.19852941176470587
0.00307794604503,0.20588235294117646
0.00321070027556,0.21323529411764705
0.00321070027556,0.22058823529411764
0.00327654945185,0.22794117647058823
0.00327654945185,0.23529411764705882
0.00357234417115,0.2426470588235294
0.00357234417115,0.25
0.0049062795783,0.25735294117647056
0.0049062795783,0.2647058823529412
0.00492253605469,0.27205882352941174
0.00492253605469,0.27941176470588236
0.00503394345918,0.2867647058823529
0.00503394345918,0.29411764705882354
0.00517829601258,0.3014705882352941
0.00517829601258,0.3088235294117647
0.00522664980188,0.3161764705882353
0.00522664980188,0.3235294117647059
0.00629603830395,0.33088235294117646
0.00629603830395,0.3382352941176471
0.00636070372996,0.34558823529411764
0.00636070372996,0.35294117647058826
0.00640268455471,0.3602941176470588
0.00640268455471,0.36764705882352944
0.00741537379706,0.375
0.00741537379706,0.38235294117647056
0.00746699737027,0.3897058823529412
0.00746699737027,0.39705882352941174
0.00822169870292,0.40441176470588236
0.00822169870292,0.4117647058823529
0.00852780111382,0.41911764705882354
0.00852780111382,0.4264705882352941
0.012950383168,0.4338235294117647
0.012950383168,0.4411764705882353
0.0142935714556,0.4485294117647059
0.0142935714556,0.45588235294117646
0.0144926186806,0.4632352941176471
0.0144926186806,0.47058823529411764
0.0150436748466,0.47794117647058826
0.0150436748466,0.4852941176470588
0.0615454183861,0.49264705882352944
0.0615454183861,0.5
0.0719255097283,0.5073529411764706
0.0719255097283,0.5147058823529411
0.08304087148,0.5220588235294118
0.08304087148,0.5294117647058824
0.117553438499,0.5367647058823529
0.117553438499,0.5441176470588235
0.117553438499,0.5514705882352942
0.117553438499,0.5588235294117647
0.168065053597,0.5661764705882353
0.168065053597,0.5735294117647058
0.168065053597,0.5808823529411765
0.168065053597,0.5882352941176471
0.171808181797,0.5955882352941176
0.171808181797,0.6029411764705882
0.240939430443,0.6102941176470589
0.240939430443,0.6176470588235294
0.246817098325,0.625
0.246817098325,0.6323529411764706
0.246817098325,0.6397058823529411
0.246817098325,0.6470588235294118
0.305796185323,0.6544117647058824
0.305796185323,0.6617647058823529
0.346854325773,0.6691176470588235
0.346854325773,0.6764705882352942
0.388872318454,0.6838235294117647
0.388872318454,0.6911764705882353
0.438623466054,0.6985294117647058
0.438623466054,0.7058823529411765
0.490064891533,0.7132352941176471
0.490064891533,0.7205882352941176
0.50862099572,0.7279411764705882
0.50862099572,0.7352941176470589
0.622942059139,0.7426470588235294
0.622942059139,0.75
0.624377180593,0.7573529411764706
0.624377180593,0.7647058823529411
0.737947908937,0.7720588235294118
0.737947908937,0.7794117647058824
0.737947908937,0.7867647058823529
0.737947908937,0.7941176470588235
0.852780111382,0.8014705882352942
0.852780111382,0.8088235294117647
0.960563500725,0.8161764705882353
0.960563500725,0.8235294117647058
1.05651451254,0.8308823529411765
1.05651451254,0.8382352941176471
1.3347934766,0.8455882352941176
1.3347934766,0.8529411764705882
1.42935714556,0.8602941176470589
1.42935714556,0.8676470588235294
1.4315314949,0.875
1.4315314949,0.8823529411764706
1.44654705088,0.8897058823529411
1.44654705088,0.8970588235294118
1.44926186806,0.9044117647058824
1.44926186806,0.9117647058823529
1.49887475833,0.9191176470588235
1.49887475833,0.9264705882352942
1.5327720727,0.9338235294117647
1.5327720727,0.9411764705882353
2.93119469685,0.9485294117647058
2.93119469685,0.9558823529411765
4.17365733042,0.9632352941176471
4.17365733042,0.9705882352941176
5.06164843803,0.9779411764705882
5.06164843803,0.9852941176470589
5.8549899969,0.9926470588235294
5.8549899969,1.0
