Congestion,CDF
0.0,0.007352941176470588
0.0,0.014705882352941176
0.0,0.022058823529411766
0.0,0.029411764705882353
0.0032024661853,0.03676470588235294
0.0032024661853,0.04411764705882353
0.0036707325984,0.051470588235294115
0.0036707325984,0.058823529411764705
0.00369472157408,0.0661764705882353
0.00369472157408,0.07352941176470588
0.00372110702241,0.08088235294117647
0.00372110702241,0.08823529411764706
0.00380546179011,0.09558823529411764
0.00380546179011,0.10294117647058823
0.00386930838095,0.11029411764705882
0.00386930838095,0.11764705882352941
0.00392139391844,0.125
0.00392139391844,0.1323529411764706
0.00453637436417,0.13970588235294118
0.00453637436417,0.14705882352941177
0.00454810847995,0.15441176470588236
0.00454810847995,0.16176470588235295
0.00458408932509,0.16911764705882354
0.00458408932509,0.17647058823529413
0.0046268295351,0.18382352941176472
0.0046268295351,0.19117647058823528
0.00492162881921,0.19852941176470587
0.00492162881921,0.20588235294117646
0.00501984858774,0.21323529411764705
0.00501984858774,0.22058823529411764
0.00524118369596,0.22794117647058823
0.00524118369596,0.23529411764705882
0.00597148339169,0.2426470588235294
0.00597148339169,0.25
0.00601364421319,0.25735294117647056
0.00601364421319,0.2647058823529412
0.00612574091276,0.27205882352941174
0.00612574091276,0.27941176470588236
0.00619301693115,0.2867647058823529
0.00619301693115,0.29411764705882354
0.00751432832384,0.3014705882352941
0.00751432832384,0.3088235294117647
0.00820903120716,0.3161764705882353
0.00820903120716,0.3235294117647059
0.00869614549954,0.33088235294117646
0.00869614549954,0.3382352941176471
0.00931264424783,0.34558823529411764
0.00931264424783,0.35294117647058826
0.00953494141068,0.3602941176470588
0.00953494141068,0.36764705882352944
0.0104331907072,0.375
0.0104331907072,0.38235294117647056
0.0112064821521,0.3897058823529412
0.0112064821521,0.39705882352941174
0.0121953559657,0.40441176470588236
0.0121953559657,0.4117647058823529
0.0156683600616,0.41911764705882354
0.0156683600616,0.4264705882352941
0.0168735743108,0.4338235294117647
0.0168735743108,0.4411764705882353
0.01720552488,0.4485294117647059
0.01720552488,0.45588235294117646
0.0179263064197,0.4632352941176471
0.0179263064197,0.47058823529411764
0.0823545462051,0.47794117647058826
0.0823545462051,0.4852941176470588
0.12360513257,0.49264705882352944
0.12360513257,0.5
0.184736078704,0.5073529411764706
0.184736078704,0.5147058823529411
0.184736078704,0.5220588235294118
0.184736078704,0.5294117647058824
0.187947640248,0.5367647058823529
0.187947640248,0.5441176470588235
0.25933058687,0.5514705882352942
0.25933058687,0.5588235294117647
0.26357373028,0.5661764705882353
0.26357373028,0.5735294117647058
0.26357373028,0.5808823529411765
0.26357373028,0.5882352941176471
0.264077988618,0.5955882352941176
0.264077988618,0.6029411764705882
0.403345873997,0.6102941176470589
0.403345873997,0.6176470588235294
0.433123299606,0.625
0.433123299606,0.6323529411764706
0.433123299606,0.6397058823529411
0.433123299606,0.6470588235294118
0.447988021225,0.6544117647058824
0.447988021225,0.6617647058823529
0.501984858774,0.6691176470588235
0.501984858774,0.6764705882352942
0.585941857016,0.6838235294117647
0.585941857016,0.6911764705882353
0.600699853882,0.6985294117647058
0.600699853882,0.7058823529411765
0.637227999535,0.7132352941176471
0.637227999535,0.7205882352941176
0.639546926699,0.7279411764705882
0.639546926699,0.7352941176470589
0.733506525964,0.7426470588235294
0.733506525964,0.75
0.871089865832,0.7573529411764706
0.871089865832,0.7647058823529411
0.871089865832,0.7720588235294118
0.871089865832,0.7794117647058824
1.01270050501,0.7867647058823529
1.01270050501,0.7941176470588235
1.21953559657,0.8014705882352942
1.21953559657,0.8088235294117647
1.55056887469,0.8161764705882353
1.55056887469,0.8235294117647058
1.57825316959,0.8308823529411765
1.57825316959,0.8382352941176471
1.59140663008,0.8455882352941176
1.59140663008,0.8529411764705882
1.68700066703,0.8602941176470589
1.68700066703,0.8676470588235294
1.68735743108,0.875
1.68735743108,0.8823529411764706
1.720552488,0.8897058823529411
1.720552488,0.8970588235294118
2.07490702704,0.9044117647058824
2.07490702704,0.9117647058823529
2.11996176307,0.9191176470588235
2.11996176307,0.9264705882352942
2.46054511582,0.9338235294117647
2.46054511582,0.9411764705882353
3.42770508282,0.9485294117647058
3.42770508282,0.9558823529411765
4.97474592524,0.9632352941176471
4.97474592524,0.9705882352941176
6.06860398525,0.9779411764705882
6.06860398525,0.9852941176470589
7.16971711482,0.9926470588235294
7.16971711482,1.0
