Congestion,CDF
0.0,0.007352941176470588
0.0,0.014705882352941176
0.00343835644997,0.022058823529411766
0.00343835644997,0.029411764705882353
0.0154446368508,0.03676470588235294
0.0154446368508,0.04411764705882353
0.0164833403431,0.051470588235294115
0.0164833403431,0.058823529411764705
0.0167025111884,0.0661764705882353
0.0167025111884,0.07352941176470588
0.0176001041373,0.08088235294117647
0.0176001041373,0.08823529411764706
0.0177390889383,0.09558823529411764
0.0177390889383,0.10294117647058823
0.0179816159678,0.11029411764705882
0.0179816159678,0.11764705882352941
0.0181850470126,0.125
0.0181850470126,0.1323529411764706
0.0189716069256,0.13970588235294118
0.0189716069256,0.14705882352941177
0.0198395957028,0.15441176470588236
0.0198395957028,0.16176470588235295
0.020668356936,0.16911764705882354
0.020668356936,0.17647058823529413
0.0212066053706,0.18382352941176472
0.0212066053706,0.19117647058823528
0.0212575911953,0.19852941176470587
0.0212575911953,0.20588235294117646
0.0216279813384,0.21323529411764705
0.0216279813384,0.22058823529411764
0.0221757619556,0.22794117647058823
0.0221757619556,0.23529411764705882
0.0228837564177,0.2426470588235294
0.0228837564177,0.25
0.0232308334999,0.25735294117647056
0.0232308334999,0.2647058823529412
0.0235992450771,0.27205882352941174
0.0235992450771,0.27941176470588236
0.023854713001,0.2867647058823529
0.023854713001,0.29411764705882354
0.0238763672578,0.3014705882352941
0.0238763672578,0.3088235294117647
0.0246165509187,0.3161764705882353
0.0246165509187,0.3235294117647059
0.0251737039694,0.33088235294117646
0.0251737039694,0.3382352941176471
0.0265310428835,0.34558823529411764
0.0265310428835,0.35294117647058826
0.0275217589183,0.3602941176470588
0.0275217589183,0.36764705882352944
0.0281865041801,0.375
0.0281865041801,0.38235294117647056
0.0287688550675,0.3897058823529412
0.0287688550675,0.39705882352941174
0.0312608498135,0.40441176470588236
0.0312608498135,0.4117647058823529
0.0317002322753,0.41911764705882354
0.0317002322753,0.4264705882352941
0.0337197347358,0.4338235294117647
0.0337197347358,0.4411764705882353
0.379729265657,0.4485294117647059
0.379729265657,0.45588235294117646
0.554377745994,0.4632352941176471
0.554377745994,0.47058823529411764
0.605167083631,0.47794117647058826
0.605167083631,0.4852941176470588
0.739264998341,0.49264705882352944
0.739264998341,0.5
0.883911887927,0.5073529411764706
0.883911887927,0.5147058823529411
1.18605539074,0.5220588235294118
1.18605539074,0.5294117647058824
1.21477434332,0.5367647058823529
1.21477434332,0.5441176470588235
1.27383226109,0.5514705882352942
1.27383226109,0.5588235294117647
1.46989213353,0.5661764705882353
1.46989213353,0.5735294117647058
1.66319844956,0.5808823529411765
1.66319844956,0.5882352941176471
1.78799513958,0.5955882352941176
1.78799513958,0.6029411764705882
1.85090403735,0.6102941176470589
1.85090403735,0.6176470588235294
1.88861333345,0.625
1.88861333345,0.6323529411764706
1.90732714976,0.6397058823529411
1.90732714976,0.6470588235294118
2.35992450771,0.6544117647058824
2.35992450771,0.6617647058823529
2.41322678798,0.6691176470588235
2.41322678798,0.6764705882352942
2.58342060214,0.6838235294117647
2.58342060214,0.6911764705882353
2.68013686552,0.6985294117647058
2.68013686552,0.7058823529411765
2.7597416939,0.7132352941176471
2.7597416939,0.7205882352941176
2.81521206156,0.7279411764705882
2.81521206156,0.7352941176470589
3.01639378927,0.7426470588235294
3.01639378927,0.75
3.17346158398,0.7573529411764706
3.17346158398,0.7647058823529411
3.30024063404,0.7720588235294118
3.30024063404,0.7794117647058824
3.34899617742,0.7867647058823529
3.34899617742,0.7941176470588235
3.37197347358,0.8014705882352942
3.37197347358,0.8088235294117647
3.90682539194,0.8161764705882353
3.90682539194,0.8235294117647058
3.94810661033,0.8308823529411765
3.94810661033,0.8382352941176471
4.02470012468,0.8455882352941176
4.02470012468,0.8529411764705882
4.37979050955,0.8602941176470589
4.37979050955,0.8676470588235294
4.41537434139,0.875
4.41537434139,0.8823529411764706
4.95283256997,0.8897058823529411
4.95283256997,0.8970588235294118
5.93042776987,0.9044117647058824
5.93042776987,0.9117647058823529
7.06501111073,0.9191176470588235
7.06501111073,0.9264705882352942
7.64674870525,0.9338235294117647
7.64674870525,0.9411764705882353
8.97822953969,0.9485294117647058
8.97822953969,0.9558823529411765
9.65776661312,0.9632352941176471
9.65776661312,0.9705882352941176
12.6287236471,0.9779411764705882
12.6287236471,0.9852941176470589
14.7040290349,0.9926470588235294
14.7040290349,1.0
