Congestion,CDF
0.0,0.007352941176470588
0.0,0.014705882352941176
0.0,0.022058823529411766
0.0,0.029411764705882353
0.0,0.03676470588235294
0.0,0.04411764705882353
0.0,0.051470588235294115
0.0,0.058823529411764705
0.0,0.0661764705882353
0.0,0.07352941176470588
0.0,0.08088235294117647
0.0,0.08823529411764706
0.0,0.09558823529411764
0.0,0.10294117647058823
5.07033688155e-06,0.11029411764705882
5.07033688155e-06,0.11764705882352941
5.07033688155e-06,0.125
5.07033688155e-06,0.1323529411764706
5.07033688155e-06,0.13970588235294118
5.07033688155e-06,0.14705882352941177
5.07033688155e-06,0.15441176470588236
5.07033688155e-06,0.16176470588235295
5.07033688155e-06,0.16911764705882354
5.07033688155e-06,0.17647058823529413
5.07033688155e-06,0.18382352941176472
5.07033688155e-06,0.19117647058823528
5.07033688155e-06,0.19852941176470587
5.07033688155e-06,0.20588235294117646
5.07033688155e-06,0.21323529411764705
5.07033688155e-06,0.22058823529411764
5.07033688155e-06,0.22794117647058823
5.07033688155e-06,0.23529411764705882
5.07033688155e-06,0.2426470588235294
5.07033688155e-06,0.25
5.07033688155e-06,0.25735294117647056
5.07033688155e-06,0.2647058823529412
5.07033688155e-06,0.27205882352941174
5.07033688155e-06,0.27941176470588236
5.07033688155e-06,0.2867647058823529
5.07033688155e-06,0.29411764705882354
5.07033688155e-06,0.3014705882352941
0.000126758422039,0.3088235294117647
0.000126758422039,0.3161764705882353
0.000136899095802,0.3235294117647059
0.000253516844077,0.33088235294117646
0.000253516844077,0.3382352941176471
0.000253516844077,0.34558823529411764
0.000253516844077,0.35294117647058826
0.000380275266116,0.3602941176470588
0.000422528073462,0.36764705882352944
0.000422528073462,0.375
0.000422528073462,0.38235294117647056
0.000507033688155,0.3897058823529412
0.000507033688155,0.39705882352941174
0.000507033688155,0.40441176470588236
0.000507033688155,0.4117647058823529
0.000507033688155,0.41911764705882354
0.000507033688155,0.4264705882352941
0.000507033688155,0.4338235294117647
0.000633792110193,0.4411764705882353
0.000760550532232,0.4485294117647059
0.000760550532232,0.45588235294117646
0.000929561761617,0.4632352941176471
0.00101406737631,0.47058823529411764
0.00101406737631,0.47794117647058826
0.00152110106446,0.4852941176470588
0.00207038755997,0.49264705882352944
0.00367599423912,0.5
0.00376049985381,0.5073529411764706
0.00485907284482,0.5147058823529411
0.00604215145051,0.5220588235294118
0.0061266570652,0.5294117647058824
0.00654918513867,0.5367647058823529
0.00663369075336,0.5441176470588235
0.00714072444151,0.5514705882352942
0.0112749041751,0.5588235294117647
0.0119326071244,0.5661764705882353
0.0190362014872,0.5735294117647058
0.0192019891558,0.5808823529411765
0.0192694945446,0.5882352941176471
0.0193352291174,0.5955882352941176
0.0193728335049,0.6029411764705882
0.0194857269227,0.6102941176470589
0.0196983574895,0.6176470588235294
0.0197244709744,0.625
0.0197592560792,0.6323529411764706
0.0197606288602,0.6397058823529411
0.01976154366,0.6470588235294118
0.0197875958058,0.6544117647058824
0.0197958118017,0.6617647058823529
0.0198188674267,0.6691176470588235
0.0198277215199,0.6764705882352942
0.0198288552482,0.6838235294117647
0.019865133846,0.6911764705882353
0.0199012993247,0.6985294117647058
0.0199206159158,0.7058823529411765
0.0199206388921,0.7132352941176471
0.0199207736171,0.7205882352941176
0.0199207805611,0.7279411764705882
0.0199212262906,0.7352941176470589
0.0199212309202,0.7426470588235294
0.0199212309202,0.75
0.494689895146,0.7573529411764706
0.495693037997,0.7647058823529411
0.515885025186,0.7720588235294118
0.974286346133,0.7794117647058824
0.974286346133,0.7867647058823529
0.993256692302,0.7941176470588235
0.993256692302,0.8014705882352942
1.48406968544,0.8088235294117647
1.65024332653,0.8161764705882353
1.65024332653,0.8235294117647058
1.65024332653,0.8308823529411765
1.93728335049,0.8382352941176471
1.97606288602,0.8455882352941176
1.98277215199,0.8529411764705882
1.99206388921,0.8602941176470589
1.99207805611,0.8676470588235294
1.99212309202,0.875
1.99212309202,0.8823529411764706
2.47084426114,0.8897058823529411
2.90123580059,0.8970588235294118
2.97614221712,0.9044117647058824
3.62269042398,0.9117647058823529
3.87080626223,0.9191176470588235
3.98415541782,0.9264705882352942
5.9763688131,0.9338235294117647
8.07307608162,0.9411764705882353
14.4403427497,0.9485294117647058
14.6398886007,0.9558823529411765
19.073972701,0.9632352941176471
23.3155508122,0.9705882352941176
24.0320016608,0.9779411764705882
24.4430412297,0.9852941176470589
25.9522005764,0.9926470588235294
27.1454612888,1.0
