Congestion,CDF
0.0,0.007352941176470588
0.0,0.014705882352941176
0.0,0.022058823529411766
0.0,0.029411764705882353
0.0,0.03676470588235294
0.0,0.04411764705882353
0.0,0.051470588235294115
0.0,0.058823529411764705
0.0,0.0661764705882353
0.0,0.07352941176470588
0.0,0.08088235294117647
0.0,0.08823529411764706
0.0,0.09558823529411764
0.0,0.10294117647058823
4.21753710903e-06,0.11029411764705882
4.21753710903e-06,0.11764705882352941
4.21753710903e-06,0.125
4.21753710903e-06,0.1323529411764706
4.21753710903e-06,0.13970588235294118
4.21753710903e-06,0.14705882352941177
4.21753710903e-06,0.15441176470588236
4.21753710903e-06,0.16176470588235295
4.21753710903e-06,0.16911764705882354
4.21753710903e-06,0.17647058823529413
4.21753710903e-06,0.18382352941176472
4.21753710903e-06,0.19117647058823528
4.21753710903e-06,0.19852941176470587
4.21753710903e-06,0.20588235294117646
4.21753710903e-06,0.21323529411764705
4.21753710903e-06,0.22058823529411764
4.21753710903e-06,0.22794117647058823
4.21753710903e-06,0.23529411764705882
4.21753710903e-06,0.2426470588235294
4.21753710903e-06,0.25
4.21753710903e-06,0.25735294117647056
4.21753710903e-06,0.2647058823529412
4.21753710903e-06,0.27205882352941174
4.21753710903e-06,0.27941176470588236
4.21753710903e-06,0.2867647058823529
4.21753710903e-06,0.29411764705882354
4.21753710903e-06,0.3014705882352941
0.000105438427726,0.3088235294117647
0.000105438427726,0.3161764705882353
0.000113873501944,0.3235294117647059
0.000210876855451,0.33088235294117646
0.000210876855451,0.3382352941176471
0.000210876855451,0.34558823529411764
0.000210876855451,0.35294117647058826
0.000316315283177,0.3602941176470588
0.000351461425752,0.36764705882352944
0.000351461425752,0.375
0.000351461425752,0.38235294117647056
0.000421753710903,0.3897058823529412
0.000421753710903,0.39705882352941174
0.000421753710903,0.40441176470588236
0.000421753710903,0.4117647058823529
0.000421753710903,0.41911764705882354
0.000421753710903,0.4264705882352941
0.000421753710903,0.4338235294117647
0.000527192138628,0.4411764705882353
0.000632630566354,0.4485294117647059
0.000632630566354,0.45588235294117646
0.000773215136655,0.4632352941176471
0.000843507421806,0.47058823529411764
0.000843507421806,0.47794117647058826
0.00126526113271,0.4852941176470588
0.00172216098619,0.49264705882352944
0.00305771440405,0.5
0.0031280066892,0.5073529411764706
0.00404180639615,0.5147058823529411
0.00502589838826,0.5220588235294118
0.00509619067341,0.5294117647058824
0.00544765209916,0.5367647058823529
0.00551794438431,0.5441176470588235
0.00593969809521,0.5514705882352942
0.043172903586,0.5588235294117647
0.0439263475527,0.5661764705882353
0.052600068,0.5735294117647058
0.0526594572254,0.5808823529411765
0.0527789986064,0.5882352941176471
0.0528151712937,0.5955882352941176
0.0528378023778,0.6029411764705882
0.052855493069,0.6102941176470589
0.052918307735,0.6176470588235294
0.0529304731904,0.625
0.0529368992962,0.6323529411764706
0.0529414007732,0.6397058823529411
0.0529434442806,0.6470588235294118
0.0529441194625,0.6544117647058824
0.0529447483741,0.6617647058823529
0.0529453841736,0.6691176470588235
0.0529456508897,0.6764705882352942
0.0529469049077,0.6838235294117647
0.0529477327388,0.6911764705882353
0.0529538427881,0.6985294117647058
0.0529558605197,0.7058823529411765
0.052955870865,0.7132352941176471
0.0529559694251,0.7205882352941176
0.0529559727407,0.7279411764705882
0.0529561067267,0.7352941176470589
0.0529561089371,0.7426470588235294
0.0529561089371,0.75
1.32360298656,0.7573529411764706
1.32367262269,0.7647058823529411
1.40963714847,0.7720588235294118
2.64277465345,0.7794117647058824
2.64277465345,0.7867647058823529
2.64738663694,0.7941176470588235
2.64738663694,0.8014705882352942
3.97080895969,0.8088235294117647
4.41205708527,0.8161764705882353
4.41205708527,0.8235294117647058
4.41205708527,0.8308823529411765
5.28378023778,0.8382352941176471
5.29453841736,0.8455882352941176
5.29469049077,0.8529411764705882
5.2955870865,0.8602941176470589
5.29559727407,0.8676470588235294
5.29561089371,0.875
5.29561089371,0.8823529411764706
6.61816807554,0.8897058823529411
7.92067451409,0.8970588235294118
7.94152671426,0.9044117647058824
9.70510440432,0.9117647058823529
10.5652973672,0.9191176470588235
10.5911942166,0.9264705882352942
15.8868324601,0.9338235294117647
21.6192384156,0.9411764705882353
38.3928724378,0.9485294117647058
39.2589482469,0.9558823529411765
50.7477004388,0.9632352941176471
63.0049269281,0.9705882352941176
63.9829170827,0.9779411764705882
67.3222172867,0.9852941176470589
69.2488628053,0.9926470588235294
73.6414975605,1.0
