Congestion,CDF
0.0,0.007352941176470588
0.0,0.014705882352941176
0.0,0.022058823529411766
0.0,0.029411764705882353
0.0,0.03676470588235294
0.0,0.04411764705882353
0.0,0.051470588235294115
0.0,0.058823529411764705
0.0,0.0661764705882353
0.0,0.07352941176470588
0.0,0.08088235294117647
0.0,0.08823529411764706
0.0,0.09558823529411764
0.0,0.10294117647058823
4.4287336229e-06,0.11029411764705882
4.4287336229e-06,0.11764705882352941
4.4287336229e-06,0.125
4.4287336229e-06,0.1323529411764706
4.4287336229e-06,0.13970588235294118
4.4287336229e-06,0.14705882352941177
4.4287336229e-06,0.15441176470588236
4.4287336229e-06,0.16176470588235295
4.4287336229e-06,0.16911764705882354
4.4287336229e-06,0.17647058823529413
4.4287336229e-06,0.18382352941176472
4.4287336229e-06,0.19117647058823528
4.4287336229e-06,0.19852941176470587
4.4287336229e-06,0.20588235294117646
4.4287336229e-06,0.21323529411764705
4.4287336229e-06,0.22058823529411764
4.4287336229e-06,0.22794117647058823
4.4287336229e-06,0.23529411764705882
4.4287336229e-06,0.2426470588235294
4.4287336229e-06,0.25
4.4287336229e-06,0.25735294117647056
4.4287336229e-06,0.2647058823529412
4.4287336229e-06,0.27205882352941174
4.4287336229e-06,0.27941176470588236
4.4287336229e-06,0.2867647058823529
4.4287336229e-06,0.29411764705882354
4.4287336229e-06,0.3014705882352941
0.000110718340573,0.3088235294117647
0.000110718340573,0.3161764705882353
0.000119575807818,0.3235294117647059
0.000221436681145,0.33088235294117646
0.000221436681145,0.3382352941176471
0.000221436681145,0.34558823529411764
0.000221436681145,0.35294117647058826
0.000332155021718,0.3602941176470588
0.000369061135242,0.36764705882352944
0.000369061135242,0.375
0.000369061135242,0.38235294117647056
0.00044287336229,0.3897058823529412
0.00044287336229,0.39705882352941174
0.00044287336229,0.40441176470588236
0.00044287336229,0.4117647058823529
0.00044287336229,0.41911764705882354
0.00044287336229,0.4264705882352941
0.00044287336229,0.4338235294117647
0.000553591702863,0.4411764705882353
0.000664310043435,0.4485294117647059
0.000664310043435,0.45588235294117646
0.000811934497532,0.4632352941176471
0.00088574672458,0.47058823529411764
0.00088574672458,0.47794117647058826
0.00132862008687,0.4852941176470588
0.00180839956268,0.49264705882352944
0.0032108318766,0.5
0.00328464410365,0.5073529411764706
0.00424420305528,0.5147058823529411
0.00527757423396,0.5220588235294118
0.00535138646101,0.5294117647058824
0.00572044759625,0.5367647058823529
0.0057942598233,0.5441176470588235
0.00623713318559,0.5514705882352942
0.0234785118368,0.5588235294117647
0.0245025084541,0.5661764705882353
0.0371371701429,0.5735294117647058
0.0372148083459,0.5808823529411765
0.0374083235618,0.5882352941176471
0.0374485599835,0.5955882352941176
0.0374806410575,0.6029411764705882
0.0374966694257,0.6102941176470589
0.0375606114557,0.6176470588235294
0.0375756639717,0.625
0.0375808166826,0.6323529411764706
0.0375867441051,0.6397058823529411
0.0375889826129,0.6470588235294118
0.0375896940775,0.6544117647058824
0.0375901619471,0.6617647058823529
0.0375909380877,0.6691176470588235
0.0375912130514,0.6764705882352942
0.0375924900187,0.6838235294117647
0.0375932617515,0.6911764705882353
0.0375993985241,0.6985294117647058
0.0376014544384,0.7058823529411765
0.0376014657355,0.7132352941176471
0.037601564437,0.7205882352941176
0.0376015678612,0.7279411764705882
0.0376017017856,0.7352941176470589
0.0376017040686,0.7426470588235294
0.0376017040686,0.75
0.939742351939,0.7573529411764706
0.939812250467,0.7647058823529411
0.986418331489,0.7720588235294118
1.87483347129,0.7794117647058824
1.87483347129,0.7867647058823529
1.87966308757,0.7941176470588235
1.87966308757,0.8014705882352942
2.81922705582,0.8088235294117647
3.1325206895,0.8161764705882353
3.1325206895,0.8235294117647058
3.1325206895,0.8308823529411765
3.74806410575,0.8382352941176471
3.75909380877,0.8455882352941176
3.75924900187,0.8529411764705882
3.76014657355,0.8602941176470589
3.76015678612,0.8676470588235294
3.76017040686,0.875
3.76017040686,0.8823529411764706
4.69886365708,0.8897058823529411
5.61566582747,0.8970588235294118
5.63833749809,0.9044117647058824
6.89008708667,0.9117647058823529
7.4929201041,0.9191176470588235
7.52031322982,0.9264705882352942
11.2805109923,0.9338235294117647
15.3494943501,0.9411764705882353
27.26092849,0.9485294117647058
27.8704760536,0.9558823529411765
36.0330521194,0.9632352941176471
44.6927789995,0.9705882352941176
45.4294712858,0.9779411764705882
47.0406301831,0.9852941176470589
49.1509521204,0.9926470588235294
51.6012029658,1.0
