Congestion,CDF
0.0,0.007352941176470588
0.0,0.014705882352941176
0.0,0.022058823529411766
0.0,0.029411764705882353
0.0,0.03676470588235294
0.0,0.04411764705882353
0.0,0.051470588235294115
0.0,0.058823529411764705
0.0,0.0661764705882353
0.0,0.07352941176470588
0.0,0.08088235294117647
0.0,0.08823529411764706
0.0,0.09558823529411764
0.0,0.10294117647058823
4.86056537623e-06,0.11029411764705882
4.86056537623e-06,0.11764705882352941
4.86056537623e-06,0.125
4.86056537623e-06,0.1323529411764706
4.86056537623e-06,0.13970588235294118
4.86056537623e-06,0.14705882352941177
4.86056537623e-06,0.15441176470588236
4.86056537623e-06,0.16176470588235295
4.86056537623e-06,0.16911764705882354
4.86056537623e-06,0.17647058823529413
4.86056537623e-06,0.18382352941176472
4.86056537623e-06,0.19117647058823528
4.86056537623e-06,0.19852941176470587
4.86056537623e-06,0.20588235294117646
4.86056537623e-06,0.21323529411764705
4.86056537623e-06,0.22058823529411764
4.86056537623e-06,0.22794117647058823
4.86056537623e-06,0.23529411764705882
4.86056537623e-06,0.2426470588235294
4.86056537623e-06,0.25
4.86056537623e-06,0.25735294117647056
4.86056537623e-06,0.2647058823529412
4.86056537623e-06,0.27205882352941174
4.86056537623e-06,0.27941176470588236
4.86056537623e-06,0.2867647058823529
4.86056537623e-06,0.29411764705882354
4.86056537623e-06,0.3014705882352941
0.000121514134406,0.3088235294117647
0.000121514134406,0.3161764705882353
0.000131235265158,0.3235294117647059
0.000243028268811,0.33088235294117646
0.000243028268811,0.3382352941176471
0.000243028268811,0.34558823529411764
0.000243028268811,0.35294117647058826
0.000364542403217,0.3602941176470588
0.000405047114686,0.36764705882352944
0.000405047114686,0.375
0.000405047114686,0.38235294117647056
0.000486056537623,0.3897058823529412
0.000486056537623,0.39705882352941174
0.000486056537623,0.40441176470588236
0.000486056537623,0.4117647058823529
0.000486056537623,0.41911764705882354
0.000486056537623,0.4264705882352941
0.000486056537623,0.4338235294117647
0.000607570672028,0.4411764705882353
0.000729084806434,0.4485294117647059
0.000729084806434,0.45588235294117646
0.000891103652308,0.4632352941176471
0.000972113075245,0.47058823529411764
0.000972113075245,0.47794117647058826
0.00145816961287,0.4852941176470588
0.00198473086196,0.49264705882352944
0.00352390989776,0.5
0.0036049193207,0.5073529411764706
0.00465804181888,0.5147058823529411
0.00579217374,0.5220588235294118
0.00587318316294,0.5294117647058824
0.00627823027763,0.5367647058823529
0.00635923970056,0.5441176470588235
0.00664849083539,0.5514705882352942
0.00684529623819,0.5588235294117647
0.00775326640544,0.5661764705882353
0.0233168301686,0.5735294117647058
0.0234238453964,0.5808823529411765
0.0237218853392,0.5882352941176471
0.02377162938,0.5955882352941176
0.023822751807,0.6029411764705882
0.0238330305346,0.6102941176470589
0.023904546949,0.6176470588235294
0.0239259085148,0.625
0.0239285480477,0.6323529411764706
0.0239375195833,0.6397058823529411
0.0239403319748,0.6470588235294118
0.0239411753577,0.6544117647058824
0.0239411926421,0.6617647058823529
0.0239423671267,0.6691176470588235
0.0239426843081,0.6764705882352942
0.0239440540687,0.6838235294117647
0.0239445651176,0.6911764705882353
0.0239509033138,0.6985294117647058
0.02395308829,0.7058823529411765
0.0239531037257,0.7132352941176471
0.0239532035001,0.7205882352941176
0.0239532076261,0.7279411764705882
0.0239533412065,0.7352941176470589
0.0239533439572,0.7426470588235294
0.0239533439572,0.75
0.598529816052,0.7573529411764706
0.598601351718,0.7647058823529411
0.611208159134,0.7720588235294118
1.19165152673,0.7794117647058824
1.19165152673,0.7867647058823529
1.19722825588,0.7941176470588235
1.19722825588,0.8014705882352942
1.79558944816,0.8088235294117647
1.9951422336,0.8161764705882353
1.9951422336,0.8235294117647058
1.9951422336,0.8308823529411765
2.3822751807,0.8382352941176471
2.39423671267,0.8455882352941176
2.39440540687,0.8529411764705882
2.39531037257,0.8602941176470589
2.39532076261,0.8676470588235294
2.39533439572,0.875
2.39533439572,0.8823529411764706
2.99279824686,0.8897058823529411
3.56384006065,0.8970588235294118
3.59098021421,0.9044117647058824
4.38773308508,0.9117647058823529
4.75943811869,0.9191176470588235
4.79064111262,0.9264705882352942
7.18600291208,0.9338235294117647
9.7762947289,0.9411764705882353
17.365864578,0.9485294117647058
17.7461340356,0.9558823529411765
22.9533253988,0.9632352941176471
28.4010952318,0.9705882352941176
28.9371604178,0.9779411764705882
29.0659443154,0.9852941176470589
31.2795449575,0.9926470588235294
32.054871598,1.0
