Congestion,CDF
0.0,0.007352941176470588
0.0,0.014705882352941176
0.0,0.022058823529411766
0.0,0.029411764705882353
0.0,0.03676470588235294
0.0,0.04411764705882353
0.0,0.051470588235294115
0.0,0.058823529411764705
0.0,0.0661764705882353
0.0,0.07352941176470588
0.0,0.08088235294117647
0.0,0.08823529411764706
0.0,0.09558823529411764
0.0,0.10294117647058823
4.36744084988e-06,0.11029411764705882
4.36744084988e-06,0.11764705882352941
4.36744084988e-06,0.125
4.36744084988e-06,0.1323529411764706
4.36744084988e-06,0.13970588235294118
4.36744084988e-06,0.14705882352941177
4.36744084988e-06,0.15441176470588236
4.36744084988e-06,0.16176470588235295
4.36744084988e-06,0.16911764705882354
4.36744084988e-06,0.17647058823529413
4.36744084988e-06,0.18382352941176472
4.36744084988e-06,0.19117647058823528
4.36744084988e-06,0.19852941176470587
4.36744084988e-06,0.20588235294117646
4.36744084988e-06,0.21323529411764705
4.36744084988e-06,0.22058823529411764
4.36744084988e-06,0.22794117647058823
4.36744084988e-06,0.23529411764705882
4.36744084988e-06,0.2426470588235294
4.36744084988e-06,0.25
4.36744084988e-06,0.25735294117647056
4.36744084988e-06,0.2647058823529412
4.36744084988e-06,0.27205882352941174
4.36744084988e-06,0.27941176470588236
4.36744084988e-06,0.2867647058823529
4.36744084988e-06,0.29411764705882354
4.36744084988e-06,0.3014705882352941
0.000109186021247,0.3088235294117647
0.000109186021247,0.3161764705882353
0.000117920902947,0.3235294117647059
0.000218372042494,0.33088235294117646
0.000218372042494,0.3382352941176471
0.000218372042494,0.34558823529411764
0.000218372042494,0.35294117647058826
0.000327558063741,0.3602941176470588
0.000363953404156,0.36764705882352944
0.000363953404156,0.375
0.000363953404156,0.38235294117647056
0.000436744084988,0.3897058823529412
0.000436744084988,0.39705882352941174
0.000436744084988,0.40441176470588236
0.000436744084988,0.4117647058823529
0.000436744084988,0.41911764705882354
0.000436744084988,0.4264705882352941
0.000436744084988,0.4338235294117647
0.000545930106234,0.4411764705882353
0.000655116127481,0.4485294117647059
0.000655116127481,0.45588235294117646
0.000800697489144,0.4632352941176471
0.000873488169975,0.47058823529411764
0.000873488169975,0.47794117647058826
0.00131023225496,0.4852941176470588
0.00178337168037,0.49264705882352944
0.00316639461616,0.5
0.00323918529699,0.5073529411764706
0.0041854641478,0.5147058823529411
0.00520453367944,0.5220588235294118
0.00527732436027,0.5294117647058824
0.00564127776442,0.5367647058823529
0.00571406844525,0.5441176470588235
0.00615081253024,0.5514705882352942
0.0278955717258,0.5588235294117647
0.0288650567291,0.5661764705882353
0.0405805215425,0.5735294117647058
0.0406528796876,0.5808823529411765
0.0408256642327,0.5882352941176471
0.0408645893212,0.5955882352941176
0.0408937174373,0.6029411764705882
0.0409103407117,0.6102941176470589
0.0409737636712,0.6176470588235294
0.0409878985987,0.625
0.0409934475375,0.6323529411764706
0.0409989240652,0.6397058823529411
0.0410010949218,0.6470588235294118
0.0410017928319,0.6544117647058824
0.041002316873,0.6617647058823529
0.0410030442705,0.6691176470588235
0.0410033159909,0.6764705882352942
0.0410045842899,0.6838235294117647
0.0410053777015,0.6911764705882353
0.0410115025767,0.6985294117647058
0.0410135448893,0.7058823529411765
0.0410135558225,0.7132352941176471
0.0410136544635,0.7205882352941176
0.0410136578423,0.7279411764705882
0.041013791792,0.7352941176470589
0.0410137940446,0.7426470588235294
0.0410137940446,0.75
1.0250448208,0.7573529411764706
1.02511460725,0.7647058823529411
1.08057119762,0.7720588235294118
2.04551703558,0.7794117647058824
2.04551703558,0.7867647058823529
2.05026888508,0.7941176470588235
2.05026888508,0.8014705882352942
3.07513446239,0.8088235294117647
3.41686259211,0.8161764705882353
3.41686259211,0.8235294117647058
3.41686259211,0.8308823529411765
4.08937174373,0.8382352941176471
4.10030442705,0.8455882352941176
4.10045842899,0.8529411764705882
4.10135558225,0.8602941176470589
4.10136578423,0.8676470588235294
4.10137940446,0.875
4.10137940446,0.8823529411764706
5.12537641989,0.8897058823529411
6.12808345886,0.8970588235294118
6.1501612916,0.9044117647058824
7.51565245198,0.9117647058823529
8.17583067585,0.9191176470588235
8.20273123058,0.9264705882352942
12.3041379881,0.9338235294117647
16.7427751263,0.9411764705882353
29.7346938971,0.9485294117647058
30.401320981,0.9558823529411765
39.302975632,0.9632352941176471
48.76328727,0.9705882352941176
49.5524816773,0.9779411764705882
51.5528444426,0.9852941176470589
53.6177696461,0.9926470588235294
56.504275319,1.0
