Congestion,CDF
0.0,0.007352941176470588
0.0,0.014705882352941176
0.0,0.022058823529411766
0.0,0.029411764705882353
0.0,0.03676470588235294
0.0,0.04411764705882353
0.0,0.051470588235294115
0.0,0.058823529411764705
0.0,0.0661764705882353
0.0,0.07352941176470588
0.0,0.08088235294117647
0.0,0.08823529411764706
0.0,0.09558823529411764
0.0,0.10294117647058823
4.26022663573e-06,0.11029411764705882
4.26022663573e-06,0.11764705882352941
4.26022663573e-06,0.125
4.26022663573e-06,0.1323529411764706
4.26022663573e-06,0.13970588235294118
4.26022663573e-06,0.14705882352941177
4.26022663573e-06,0.15441176470588236
4.26022663573e-06,0.16176470588235295
4.26022663573e-06,0.16911764705882354
4.26022663573e-06,0.17647058823529413
4.26022663573e-06,0.18382352941176472
4.26022663573e-06,0.19117647058823528
4.26022663573e-06,0.19852941176470587
4.26022663573e-06,0.20588235294117646
4.26022663573e-06,0.21323529411764705
4.26022663573e-06,0.22058823529411764
4.26022663573e-06,0.22794117647058823
4.26022663573e-06,0.23529411764705882
4.26022663573e-06,0.2426470588235294
4.26022663573e-06,0.25
4.26022663573e-06,0.25735294117647056
4.26022663573e-06,0.2647058823529412
4.26022663573e-06,0.27205882352941174
4.26022663573e-06,0.27941176470588236
4.26022663573e-06,0.2867647058823529
4.26022663573e-06,0.29411764705882354
4.26022663573e-06,0.3014705882352941
0.000106505665893,0.3088235294117647
0.000106505665893,0.3161764705882353
0.000115026119165,0.3235294117647059
0.000213011331786,0.33088235294117646
0.000213011331786,0.3382352941176471
0.000213011331786,0.34558823529411764
0.000213011331786,0.35294117647058826
0.00031951699768,0.3602941176470588
0.000355018886311,0.36764705882352944
0.000355018886311,0.375
0.000355018886311,0.38235294117647056
0.000426022663573,0.3897058823529412
0.000426022663573,0.39705882352941174
0.000426022663573,0.40441176470588236
0.000426022663573,0.4117647058823529
0.000426022663573,0.41911764705882354
0.000426022663573,0.4264705882352941
0.000426022663573,0.4338235294117647
0.000532528329466,0.4411764705882353
0.000639033995359,0.4485294117647059
0.000639033995359,0.45588235294117646
0.000781041549884,0.4632352941176471
0.000852045327146,0.47058823529411764
0.000852045327146,0.47794117647058826
0.00127806799072,0.4852941176470588
0.00173959254292,0.49264705882352944
0.0030886643109,0.5
0.00315966808817,0.5073529411764706
0.00408271719257,0.5147058823529411
0.00507677007424,0.5220588235294118
0.00514777385151,0.5294117647058824
0.00550279273782,0.5367647058823529
0.00557379651508,0.5441176470588235
0.00599981917865,0.5514705882352942
0.0434802576694,0.5588235294117647
0.043872082068,0.5661764705882353
0.0481627397002,0.5735294117647058
0.0482089210676,0.5808823529411765
0.0482716547329,0.5882352941176471
0.0483055227555,0.5955882352941176
0.0483224489824,0.6029411764705882
0.0483408729909,0.6102941176470589
0.0484036043739,0.6176470588235294
0.0484140821689,0.625
0.0484212833963,0.6323529411764706
0.0484249426976,0.6397058823529411
0.0484268942734,0.6470588235294118
0.0484275554266,0.6544117647058824
0.048428258987,0.6617647058823529
0.0484288288043,0.6691176470588235
0.0484290926838,0.6764705882352942
0.0484303380489,0.6838235294117647
0.0484311859967,0.6911764705882353
0.0484372906846,0.6985294117647058
0.0484392913928,0.7058823529411765
0.0484393013884,0.7132352941176471
0.0484393999105,0.7205882352941176
0.0484394031949,0.7279411764705882
0.0484395371994,0.7352941176470589
0.0484395393891,0.7426470588235294
0.0484395393891,0.75
1.21068888567,0.7573529411764706
1.21075845122,0.7647058823529411
1.29714386937,0.7720588235294118
2.41704364954,0.7794117647058824
2.41704364954,0.7867647058823529
2.42155929984,0.7941176470588235
2.42155929984,0.8014705882352942
3.632066657,0.8088235294117647
4.035677146,0.8161764705882353
4.035677146,0.8235294117647058
4.035677146,0.8308823529411765
4.83224489824,0.8382352941176471
4.84288288043,0.8455882352941176
4.84303380489,0.8529411764705882
4.84393013884,0.8602941176470589
4.84394031949,0.8676470588235294
4.84395393891,0.875
4.84395393891,0.8823529411764706
6.05359815405,0.8897058823529411
7.24420912283,0.8970588235294118
7.26405356959,0.9044117647058824
8.87708536289,0.9117647058823529
9.66279717379,0.9191176470588235
9.68788031055,0.9264705882352942
14.5318615978,0.9338235294117647
19.7749840792,0.9411764705882353
35.1183596376,0.9485294117647058
35.909473529,0.9558823529411765
46.4193251519,0.9632352941176471
57.6327537956,0.9705882352941176
58.5255070612,0.9779411764705882
61.9807795626,0.9852941176470589
63.3463991679,0.9926470588235294
67.7336073747,1.0
