Congestion,CDF
0.0,0.007352941176470588
0.0,0.014705882352941176
0.0,0.022058823529411766
0.0,0.029411764705882353
0.0,0.03676470588235294
0.0,0.04411764705882353
0.0,0.051470588235294115
0.0,0.058823529411764705
0.0,0.0661764705882353
0.0,0.07352941176470588
0.0,0.08088235294117647
0.0,0.08823529411764706
0.0,0.09558823529411764
0.0,0.10294117647058823
4.11407996515e-06,0.11029411764705882
4.11407996515e-06,0.11764705882352941
4.11407996515e-06,0.125
4.11407996515e-06,0.1323529411764706
4.11407996515e-06,0.13970588235294118
4.11407996515e-06,0.14705882352941177
4.11407996515e-06,0.15441176470588236
4.11407996515e-06,0.16176470588235295
4.11407996515e-06,0.16911764705882354
4.11407996515e-06,0.17647058823529413
4.11407996515e-06,0.18382352941176472
4.11407996515e-06,0.19117647058823528
4.11407996515e-06,0.19852941176470587
4.11407996515e-06,0.20588235294117646
4.11407996515e-06,0.21323529411764705
4.11407996515e-06,0.22058823529411764
4.11407996515e-06,0.22794117647058823
4.11407996515e-06,0.23529411764705882
4.11407996515e-06,0.2426470588235294
4.11407996515e-06,0.25
4.11407996515e-06,0.25735294117647056
4.11407996515e-06,0.2647058823529412
4.11407996515e-06,0.27205882352941174
4.11407996515e-06,0.27941176470588236
4.11407996515e-06,0.2867647058823529
4.11407996515e-06,0.29411764705882354
4.11407996515e-06,0.3014705882352941
0.000102851999129,0.3088235294117647
0.000102851999129,0.3161764705882353
0.000111080159059,0.3235294117647059
0.000205703998257,0.33088235294117646
0.000205703998257,0.3382352941176471
0.000205703998257,0.34558823529411764
0.000205703998257,0.35294117647058826
0.000308555997386,0.3602941176470588
0.000342839997096,0.36764705882352944
0.000342839997096,0.375
0.000342839997096,0.38235294117647056
0.000411407996515,0.3897058823529412
0.000411407996515,0.39705882352941174
0.000411407996515,0.40441176470588236
0.000411407996515,0.4117647058823529
0.000411407996515,0.41911764705882354
0.000411407996515,0.4264705882352941
0.000411407996515,0.4338235294117647
0.000514259995644,0.4411764705882353
0.000617111994772,0.4485294117647059
0.000617111994772,0.45588235294117646
0.000754247993611,0.4632352941176471
0.00082281599303,0.47058823529411764
0.00082281599303,0.47794117647058826
0.00123422398954,0.4852941176470588
0.00167991598577,0.49264705882352944
0.00298270797473,0.5
0.00305127597415,0.5073529411764706
0.0039426599666,0.5147058823529411
0.00490261195847,0.5220588235294118
0.00497117995789,0.5294117647058824
0.00531401995498,0.5367647058823529
0.0053825879544,0.5441176470588235
0.00579399595092,0.5514705882352942
0.0601891235288,0.5588235294117647
0.0606926855201,0.5661764705882353
0.0663024135661,0.5735294117647058
0.0663528014079,0.5808823529411765
0.0664334011511,0.5882352941176471
0.0664680642616,0.5955882352941176
0.0664869244143,0.6029411764705882
0.066505074688,0.6102941176470589
0.0665678899212,0.6176470588235294
0.0665789449497,0.625
0.0665858837339,0.6323529411764706
0.0665898304999,0.6397058823529411
0.0665918158084,0.6470588235294118
0.0665924824445,0.6544117647058824
0.0665931584819,0.6617647058823529
0.0665937525017,0.6691176470588235
0.0665940175249,0.6764705882352942
0.0665952662941,0.6838235294117647
0.066596106214,0.6911764705882353
0.0666022135873,0.6985294117647058
0.0666042206376,0.7058823529411765
0.0666042307718,0.7132352941176471
0.0666043293104,0.7205882352941176
0.0666043326082,0.7279411764705882
0.0666044666048,0.7352941176470589
0.0666044688034,0.7426470588235294
0.0666044688034,0.75
1.66481206111,0.7573529411764706
1.66488165735,0.7647058823529411
1.78474236804,0.7720588235294118
3.3252537344,0.7794117647058824
3.3252537344,0.7867647058823529
3.3298053107,0.7941176470588235
3.3298053107,0.8014705882352942
4.99443618334,0.8088235294117647
5.54942091208,0.8161764705882353
5.54942091208,0.8235294117647058
5.54942091208,0.8308823529411765
6.64869244143,0.8382352941176471
6.65937525017,0.8455882352941176
6.65952662941,0.8529411764705882
6.66042307718,0.8602941176470589
6.66043326082,0.8676470588235294
6.66044688034,0.875
6.66044688034,0.8823529411764706
8.32421381361,0.8897058823529411
9.96859384951,0.8970588235294118
9.98878836069,0.9044117647058824
12.207315407,0.9117647058823529
13.2954988676,0.9191176470588235
13.3208661919,0.9264705882352942
19.9813404212,0.9338235294117647
27.192325824,0.9411764705882353
48.2879334113,0.9485294117647058
49.3816839576,0.9558823529411765
63.8273809928,0.9632352941176471
79.2760180313,0.9705882352941176
80.4747577269,0.9779411764705882
85.2949303842,0.9852941176470589
87.1100378677,0.9926470588235294
93.1793064197,1.0
