Congestion,CDF
0.0,0.009433962264150943
0.0,0.018867924528301886
0.0,0.02830188679245283
0.0,0.03773584905660377
0.0,0.04716981132075472
0.0,0.05660377358490566
0.0,0.0660377358490566
0.0,0.07547169811320754
0.0,0.08490566037735849
0.0,0.09433962264150944
0.0,0.10377358490566038
0.0,0.11320754716981132
0.0,0.12264150943396226
0.0,0.1320754716981132
0.0,0.14150943396226415
0.0,0.1509433962264151
0.0,0.16037735849056603
0.0,0.16981132075471697
0.0,0.1792452830188679
0.0,0.18867924528301888
0.0,0.19811320754716982
0.0,0.20754716981132076
0.0,0.2169811320754717
0.0,0.22641509433962265
0.0,0.2358490566037736
0.0,0.24528301886792453
0.0,0.25471698113207547
0.0,0.2641509433962264
0.0,0.27358490566037735
0.0,0.2830188679245283
4.8782805194e-08,0.29245283018867924
1.25676276131e-06,0.3018867924528302
1.41325157272e-06,0.3113207547169811
1.91589445946e-06,0.32075471698113206
2.16269917039e-06,0.330188679245283
2.87773963338e-06,0.33962264150943394
4.38859717119e-06,0.3490566037735849
5.61763621183e-06,0.3584905660377358
5.94522586035e-06,0.36792452830188677
6.93410025863e-06,0.37735849056603776
8.53753800514e-06,0.3867924528301887
8.73316495094e-06,0.39622641509433965
9.21434845706e-06,0.4056603773584906
1.71132910335e-05,0.41509433962264153
3.59717454173e-05,0.42452830188679247
3.59717454173e-05,0.4339622641509434
5.90457413176e-05,0.44339622641509435
7.02204526479e-05,0.4528301886792453
7.02204526479e-05,0.46226415094339623
7.19434908346e-05,0.4716981132075472
7.19434908346e-05,0.4811320754716981
7.19434908346e-05,0.49056603773584906
0.000111070478585,0.5
0.000140440905296,0.5094339622641509
0.000140440905296,0.5188679245283019
0.000140440905296,0.5283018867924528
0.000176854776701,0.5377358490566038
0.000176854776701,0.5471698113207547
0.000191589445946,0.5566037735849056
0.000325622056625,0.5660377358490566
0.000325622056625,0.5754716981132075
0.000403453491083,0.5849056603773585
0.000403453491083,0.5943396226415094
0.000598765920141,0.6037735849056604
0.000619723408122,0.6132075471698113
0.000628153109456,0.6226415094339622
0.000739155516917,0.6320754716981132
0.000979508693159,0.6415094339622641
0.00101903208249,0.6509433962264151
0.0011829276595,0.660377358490566
0.00132488833679,0.6698113207547169
0.00137294130192,0.6792452830188679
0.00171132910335,0.6886792452830188
0.00212118774896,0.6981132075471698
0.0275055467894,0.7075471698113207
0.0334467467965,0.7169811320754716
0.0437550783043,0.7264150943396226
0.0588424817931,0.7358490566037735
0.0596490476001,0.7452830188679245
0.0603914013877,0.7547169811320755
0.0701903683054,0.7641509433962265
0.0725778072952,0.7735849056603774
0.430269381961,0.7830188679245284
0.745613095002,0.7924528301886793
0.745613095002,0.8018867924528302
0.754892517346,0.8113207547169812
0.754892517346,0.8207547169811321
1.49122619,0.8301886792452831
1.49122619,0.839622641509434
1.49122619,0.8490566037735849
1.50978503469,0.8584905660377359
1.50978503469,0.8679245283018868
1.50978503469,0.8773584905660378
3.17284295217,0.8867924528301887
3.17284295217,0.8962264150943396
3.24675850387,0.9056603773584906
3.29113571812,0.9150943396226415
3.68825952756,0.9245283018867925
3.68825952756,0.9339622641509434
3.82555365776,0.9433962264150944
4.442629702,0.9528301886792453
4.442629702,0.9622641509433962
8.19076582158,0.9716981132075472
8.51954244289,0.9811320754716981
8.75828634187,0.9905660377358491
24.4710131657,1.0
