Congestion,CDF
0.0,0.009433962264150943
0.0,0.018867924528301886
0.0,0.02830188679245283
0.0,0.03773584905660377
0.0,0.04716981132075472
0.0,0.05660377358490566
0.0,0.0660377358490566
0.0,0.07547169811320754
0.0,0.08490566037735849
0.0,0.09433962264150944
0.0,0.10377358490566038
0.0,0.11320754716981132
0.0,0.12264150943396226
0.0,0.1320754716981132
0.0,0.14150943396226415
0.0,0.1509433962264151
0.0,0.16037735849056603
0.0,0.16981132075471697
0.0,0.1792452830188679
0.0,0.18867924528301888
0.0,0.19811320754716982
0.0,0.20754716981132076
0.0,0.2169811320754717
0.0,0.22641509433962265
0.0,0.2358490566037736
0.0,0.24528301886792453
0.0,0.25471698113207547
0.0,0.2641509433962264
0.0,0.27358490566037735
0.0,0.2830188679245283
4.2260291846e-07,0.29245283018867924
1.08872708043e-05,0.3018867924528302
1.12257472159e-05,0.3113207547169811
1.22429252843e-05,0.32075471698113206
1.65972946166e-05,0.330188679245283
1.71132910335e-05,0.33962264150943394
1.87353510632e-05,0.3490566037735849
1.93178179195e-05,0.3584905660377358
2.49297096138e-05,0.36792452830188677
3.80181903257e-05,0.37735849056603776
3.92001450019e-05,0.3867924528301887
4.86652919717e-05,0.39622641509433965
5.15031841546e-05,0.4056603773584906
5.31043763426e-05,0.41509433962264153
6.00697519246e-05,0.42452830188679247
6.19372717508e-05,0.4339622641509434
7.39602501964e-05,0.44339622641509435
7.56549563105e-05,0.4528301886792453
7.98234241383e-05,0.46226415094339623
8.23050695986e-05,0.4716981132075472
0.000164796571178,0.4811320754716981
0.000266203614208,0.49056603773584906
0.000311621370173,0.5
0.000311621370173,0.5094339622641509
0.000511510203322,0.5188679245283019
0.000608316149646,0.5283018867924528
0.000608316149646,0.5377358490566038
0.000623242740346,0.5471698113207547
0.000623242740346,0.5566037735849056
0.000623242740346,0.5660377358490566
0.000962197811665,0.5754716981132075
0.00121663229929,0.5849056603773585
0.00121663229929,0.5943396226415094
0.00121663229929,0.6037735849056604
0.00153208378404,0.6132075471698113
0.00153208378404,0.6226415094339622
0.00155149462322,0.6320754716981132
0.00165972946166,0.6415094339622641
0.00171132910335,0.6509433962264151
0.00205995713972,0.660377358490566
0.00205995713972,0.6698113207547169
0.0028208470361,0.6792452830188679
0.0028208470361,0.6886792452830188
0.0033275451776,0.6981132075471698
0.0033275451776,0.7075471698113207
0.00349509672755,0.7169811320754716
0.00349509672755,0.7264150943396226
0.00411991427945,0.7358490566037735
0.00411991427945,0.7452830188679245
0.00411991427945,0.7547169811320755
0.00466133896665,0.7641509433962265
0.00536863183387,0.7735849056603774
0.00544165790057,0.7830188679245284
0.0066550903552,0.7924528301886793
0.0066550903552,0.8018867924528302
0.0066550903552,0.8113207547169812
0.00734750956742,0.8207547169811321
0.00734750956742,0.8301886792452831
0.00804272113445,0.839622641509434
0.00804272113445,0.8490566037735849
0.00848543315087,0.8584905660377359
0.00882782222856,0.8679245283018868
0.0099745029264,0.8773584905660378
0.0114774391414,0.8867924528301887
0.0135412367425,0.8962264150943396
0.0162732280943,0.9056603773584906
0.0183757397662,0.9150943396226415
0.0369581429289,0.9245283018867925
0.039947750474,0.9339622641509434
0.083833930897,0.9433962264150944
0.23845445065,0.9528301886792453
0.23845445065,0.9622641509433962
0.246924534939,0.9716981132075472
3.7012017952,0.9811320754716981
4.00016254972,0.9905660377358491
8.09496825789,1.0
