Congestion,CDF
0.0,0.009433962264150943
0.0,0.018867924528301886
0.0,0.02830188679245283
0.0,0.03773584905660377
0.0,0.04716981132075472
0.0,0.05660377358490566
0.0,0.0660377358490566
0.0,0.07547169811320754
0.0,0.08490566037735849
0.0,0.09433962264150944
0.0,0.10377358490566038
0.0,0.11320754716981132
0.0,0.12264150943396226
0.0,0.1320754716981132
0.0,0.14150943396226415
0.0,0.1509433962264151
0.0,0.16037735849056603
0.0,0.16981132075471697
0.0,0.1792452830188679
0.0,0.18867924528301888
0.0,0.19811320754716982
0.0,0.20754716981132076
0.0,0.2169811320754717
0.0,0.22641509433962265
0.0,0.2358490566037736
0.0,0.24528301886792453
0.0,0.25471698113207547
0.0,0.2641509433962264
0.0,0.27358490566037735
0.0,0.2830188679245283
2.56831040107e-07,0.29245283018867924
6.61658725591e-06,0.3018867924528302
7.44046739239e-06,0.3113207547169811
1.00867747314e-05,0.32075471698113206
1.13861487703e-05,0.330188679245283
1.515068394e-05,0.33962264150943394
1.71132910335e-05,0.3490566037735849
1.93178179195e-05,0.3584905660377358
2.31050258714e-05,0.36792452830188677
2.95756536651e-05,0.37735849056603776
3.13003431294e-05,0.3867924528301887
3.65065554256e-05,0.39622641509433965
4.49483123632e-05,0.4056603773584906
4.59782464099e-05,0.41509433962264153
4.85115746978e-05,0.42452830188679247
5.31043763426e-05,0.4339622641509434
6.19372717508e-05,0.44339622641509435
8.23050695986e-05,0.4528301886792453
0.00010775933438,0.46226415094339623
0.00018938354925,0.4716981132075472
0.00018938354925,0.4811320754716981
0.000286714223216,0.49056603773584906
0.000310863204692,0.5
0.000369695670814,0.5094339622641509
0.000369695670814,0.5188679245283019
0.0003787670985,0.5283018867924528
0.0003787670985,0.5377358490566038
0.0003787670985,0.5471698113207547
0.000390511378443,0.5566037735849056
0.000584762324074,0.5660377358490566
0.000606508434498,0.5754716981132075
0.000739391341627,0.5849056603773585
0.000739391341627,0.5943396226415094
0.000739391341627,0.6037735849056604
0.000931102589683,0.6132075471698113
0.000931102589683,0.6226415094339622
0.00100867747314,0.6320754716981132
0.00164434572135,0.6415094339622641
0.00171132910335,0.6509433962264151
0.00171433051363,0.660377358490566
0.00171433051363,0.6698113207547169
0.00212409637653,0.6792452830188679
0.00212409637653,0.6886792452830188
0.00326271125356,0.6981132075471698
0.00330709182891,0.7075471698113207
0.00488139223054,0.7169811320754716
0.00488139223054,0.7264150943396226
0.00515690386105,0.7358490566037735
0.0053649860562,0.7452830188679245
0.00697525384631,0.7547169811320755
0.00758135543122,0.7641509433962265
0.00758135543122,0.7735849056603774
0.00976278446109,0.7830188679245284
0.00976278446109,0.7924528301886793
0.00976278446109,0.8018867924528302
0.0111676000111,0.8113207547169812
0.0151179664789,0.8207547169811321
0.0151179664789,0.8301886792452831
0.0151627108624,0.839622641509434
0.0151627108624,0.8490566037735849
0.0151627108624,0.8584905660377359
0.0170497482708,0.8679245283018868
0.0183484772038,0.8773584905660378
0.0233484734388,0.8867924528301887
0.0267984588226,0.8962264150943396
0.0267984588226,0.9056603773584906
0.0329921859976,0.9150943396226415
0.0415650803675,0.9245283018867925
0.0444773173873,0.9339622641509434
0.107660491877,0.9433962264150944
0.929886607853,0.9528301886792453
0.929886607853,0.9622641509433962
0.967461000114,0.9716981132075472
4.16897078441,0.9811320754716981
4.4601944864,0.9905660377358491
9.7234864508,1.0
