Congestion,CDF
0.0,0.005555555555555556
0.0,0.011111111111111112
0.0,0.016666666666666666
0.0,0.022222222222222223
0.0,0.027777777777777776
0.0,0.03333333333333333
0.0,0.03888888888888889
0.0,0.044444444444444446
0.0,0.05
0.0,0.05555555555555555
3.06063535883e-07,0.06111111111111111
3.51652283192e-07,0.06666666666666667
7.9154015392e-07,0.07222222222222222
1.15688197879e-06,0.07777777777777778
1.18377495636e-06,0.08333333333333333
1.56299045076e-06,0.08888888888888889
1.71949636158e-06,0.09444444444444444
2.36985808726e-06,0.1
2.38208430371e-06,0.10555555555555556
2.43709584425e-06,0.1111111111111111
2.48725407301e-06,0.11666666666666667
2.73795859523e-06,0.12222222222222222
2.80146488806e-06,0.12777777777777777
3.12837868877e-06,0.13333333333333333
3.20408826867e-06,0.1388888888888889
3.37394575923e-06,0.14444444444444443
3.90133948396e-06,0.15
4.26965434273e-06,0.15555555555555556
4.45837915573e-06,0.16111111111111112
4.63689765371e-06,0.16666666666666666
4.71026289446e-06,0.17222222222222222
4.74809254325e-06,0.17777777777777778
4.90540362212e-06,0.18333333333333332
5.07585704812e-06,0.18888888888888888
5.16153968494e-06,0.19444444444444445
5.21982995389e-06,0.2
5.24878959547e-06,0.20555555555555555
5.30906347282e-06,0.2111111111111111
5.36094262775e-06,0.21666666666666667
5.37270665241e-06,0.2222222222222222
5.55222258292e-06,0.22777777777777777
5.59854407514e-06,0.23333333333333334
5.66281187584e-06,0.2388888888888889
6.13252153082e-06,0.24444444444444444
6.45301625723e-06,0.25
7.00609866895e-06,0.25555555555555554
7.11709076771e-06,0.2611111111111111
7.21951086305e-06,0.26666666666666666
7.46399913674e-06,0.2722222222222222
2.63846717973e-05,0.2777777777777778
5.27693435946e-05,0.2833333333333333
5.78440989396e-05,0.28888888888888886
5.78440989396e-05,0.29444444444444445
5.95521075927e-05,0.3
5.95521075927e-05,0.3055555555555556
9.0158461181e-05,0.3111111111111111
0.000118377495636,0.31666666666666665
0.000119104215185,0.32222222222222224
0.000158579102718,0.3277777777777778
0.000236985808726,0.3333333333333333
0.000246457506257,0.3388888888888889
0.000260991497694,0.34444444444444444
0.000260991497694,0.35
0.000333347967115,0.35555555555555557
0.000507585704812,0.3611111111111111
0.000516153968494,0.36666666666666664
0.000532653353265,0.37222222222222223
0.000573829366571,0.37777777777777777
0.000607116735976,0.38333333333333336
0.000607116735976,0.3888888888888889
0.00069229542183,0.39444444444444443
0.000731629648718,0.4
0.000786698073186,0.40555555555555556
0.00084105530149,0.4111111111111111
0.00104485637005,0.4166666666666667
0.00110473571385,0.4222222222222222
0.00116233899427,0.42777777777777776
0.00142898003748,0.43333333333333335
0.00167770544478,0.4388888888888889
0.00175655391583,0.4444444444444444
0.00216903332497,0.45
0.00245716378273,0.45555555555555555
0.0043716177293,0.46111111111111114
0.00531846494341,0.4666666666666667
0.00556693714339,0.4722222222222222
0.00606486485708,0.4777777777777778
0.00621223876912,0.48333333333333334
0.00653589114653,0.4888888888888889
0.00660747744398,0.49444444444444446
0.00699761139237,0.5
0.00755746579989,0.5055555555555555
0.00760463876257,0.5111111111111111
0.00772941543605,0.5166666666666667
0.00784834834699,0.5222222222222223
0.0081284948358,0.5277777777777778
0.0180983546922,0.5333333333333333
0.0185587069172,0.5388888888888889
0.026447225546,0.5444444444444444
0.0265379744414,0.55
0.0265426200119,0.5555555555555556
0.0265873376125,0.5611111111111111
0.0266154022933,0.5666666666666667
0.0266271720591,0.5722222222222222
0.0266657527647,0.5777777777777777
0.0267477750752,0.5833333333333334
0.0267490287599,0.5888888888888889
0.0267597218623,0.5944444444444444
0.0267852102996,0.6
0.0268119881958,0.6055555555555555
0.0268248079488,0.6111111111111112
0.0268325950622,0.6166666666666667
0.0268481189018,0.6222222222222222
0.026887543133,0.6277777777777778
0.026940921452,0.6333333333333333
0.0269600959612,0.6388888888888888
0.0269728960009,0.6444444444444445
0.0269782133855,0.65
0.0269830188793,0.6555555555555556
0.027005547934,0.6611111111111111
0.0270227864234,0.6666666666666666
0.0270315219649,0.6722222222222223
0.0270315865522,0.6777777777777778
0.0270374622468,0.6833333333333333
0.0270404521528,0.6888888888888889
0.0270464943869,0.6944444444444444
0.0270529638818,0.7
0.0270713031318,0.7055555555555556
0.0270825344734,0.7111111111111111
0.0271302580416,0.7166666666666667
0.0271626231148,0.7222222222222222
0.0272190719256,0.7277777777777777
0.0272302952507,0.7333333333333333
0.0272408001981,0.7388888888888889
0.0272651830465,0.7444444444444445
0.668725718997,0.75
0.668725718997,0.7555555555555555
0.886244587082,0.7611111111111111
1.03243336598,0.7666666666666667
1.33077011466,0.7722222222222223
1.33077011466,0.7777777777777778
1.33745143799,0.7833333333333333
1.35187311234,0.7888888888888889
1.35187311234,0.7944444444444444
1.77248917416,0.8
2.66271720591,0.8055555555555556
2.67477750752,0.8111111111111111
2.70227864234,0.8166666666666667
2.70315865522,0.8222222222222222
3.32252316314,0.8277777777777777
3.34724674896,0.8333333333333334
4.02805971475,0.8388888888888889
4.03435390723,0.8444444444444444
4.0615314578,0.85
4.25864006909,0.8555555555555555
4.25864006909,0.8611111111111112
5.37574301007,0.8666666666666667
5.40757503052,0.8722222222222222
5.98909843961,0.8777777777777778
6.73900334592,0.8833333333333333
6.92758348124,0.8888888888888888
6.96577038228,0.8944444444444445
8.68510803573,0.9
12.3694838309,0.9055555555555556
13.8404855515,0.9111111111111111
15.4200121029,0.9166666666666666
16.5164577378,0.9222222222222223
18.1419192955,0.9277777777777778
31.5899867839,0.9333333333333333
33.011527197,0.9388888888888889
35.7380455016,0.9444444444444444
38.4363473896,0.95
39.6635511326,0.9555555555555556
42.379813444,0.9611111111111111
45.1675593008,0.9666666666666667
46.3953954489,0.9722222222222222
47.8122818554,0.9777777777777777
49.0841497622,0.9833333333333333
49.6221173246,0.9888888888888889
51.7653485818,0.9944444444444445
53.6212192735,1.0
