Congestion,CDF
0.0,0.005555555555555556
0.0,0.011111111111111112
0.0,0.016666666666666666
0.0,0.022222222222222223
0.0,0.027777777777777776
0.0,0.03333333333333333
0.0,0.03888888888888889
0.0,0.044444444444444446
0.0,0.05
0.0,0.05555555555555555
4.49639619337e-07,0.06111111111111111
5.16614298066e-07,0.06666666666666667
1.16285598176e-06,0.07222222222222222
1.69958166059e-06,0.07777777777777778
1.73909028144e-06,0.08333333333333333
2.29619784429e-06,0.08888888888888889
2.52612153632e-06,0.09444444444444444
3.48157151476e-06,0.1
3.49953311641e-06,0.10555555555555556
3.58035087237e-06,0.1111111111111111
3.65403860136e-06,0.11666666666666667
4.02234999007e-06,0.12222222222222222
4.1156474332e-06,0.12777777777777777
4.59591829097e-06,0.13333333333333333
4.70714365007e-06,0.1388888888888889
4.95668222113e-06,0.14444444444444443
5.7314792349e-06,0.15
6.27257261415e-06,0.15555555555555556
6.54982927209e-06,0.16111111111111112
6.81209177665e-06,0.16666666666666666
6.91987305425e-06,0.17222222222222222
6.97544879878e-06,0.17777777777777778
7.20655536761e-06,0.18333333333333332
7.45696943069e-06,0.18888888888888888
7.58284626242e-06,0.19444444444444445
7.66848081625e-06,0.2
7.71102558455e-06,0.20555555555555555
7.79957426837e-06,0.2111111111111111
7.87579021943e-06,0.21666666666666667
7.89307281259e-06,0.2222222222222222
8.15680065075e-06,0.22777777777777777
8.22485180905e-06,0.23333333333333334
8.31926798756e-06,0.2388888888888889
9.00932101807e-06,0.24444444444444444
9.48016157857e-06,0.25
1.02926979833e-05,0.25555555555555554
1.04557570844e-05,0.2611111111111111
1.06062230082e-05,0.26666666666666666
1.09654020721e-05,0.2722222222222222
3.87618660585e-05,0.2777777777777778
7.7523732117e-05,0.2833333333333333
8.49790830296e-05,0.28888888888888886
8.49790830296e-05,0.29444444444444445
8.74883279103e-05,0.3
8.74883279103e-05,0.3055555555555556
0.000132452289844,0.3111111111111111
0.00015941555776,0.31666666666666665
0.000173909028144,0.32222222222222224
0.000174976655821,0.3277777777777778
0.000232969429617,0.3333333333333333
0.000348157151476,0.3388888888888889
0.000362072074273,0.34444444444444444
0.000383424040813,0.35
0.000383424040813,0.35555555555555557
0.000489723326917,0.3611111111111111
0.000745696943069,0.36666666666666664
0.000758284626242,0.37222222222222223
0.000758663514774,0.37777777777777777
0.000782523962908,0.38333333333333336
0.000843015869909,0.3888888888888889
0.000891918526884,0.39444444444444443
0.000891918526884,0.4
0.00101705500148,0.40555555555555556
0.00107484112995,0.4111111111111111
0.00115574245439,0.4166666666666667
0.00123559895664,0.4222222222222222
0.00153500422433,0.42777777777777776
0.00162297329675,0.43333333333333335
0.00170759859196,0.4388888888888889
0.00209932241108,0.4444444444444444
0.00246472627122,0.45
0.00258056299253,0.45555555555555555
0.00318653875496,0.46111111111111114
0.00360983279086,0.4666666666666667
0.00600022406028,0.4722222222222222
0.00626195753457,0.4777777777777778
0.00626988590968,0.48333333333333334
0.0063462792588,0.4888888888888889
0.00639625904558,0.49444444444444446
0.00641435681665,0.5
0.00642236758463,0.5055555555555555
0.00648024551448,0.5111111111111111
0.00662036918523,0.5166666666666667
0.00662250340077,0.5222222222222223
0.00662606164081,0.5277777777777778
0.00664076961284,0.5333333333333333
0.00668431099003,0.5388888888888889
0.00675202072198,0.5444444444444444
0.00676526113136,0.55
0.00679242168372,0.5555555555555556
0.00685830498929,0.5611111111111111
0.00695031754401,0.5666666666666667
0.00698308182636,0.5722222222222222
0.00700799823651,0.5777777777777777
0.00701405169837,0.5833333333333334
0.00702323672514,0.5888888888888889
0.00706072344803,0.5944444444444444
0.00709023352758,0.6
0.00710404828351,0.6055555555555555
0.00710520608954,0.6111111111111112
0.00711527835105,0.6166666666666667
0.00712035426513,0.6222222222222222
0.00713073476235,0.6277777777777778
0.00714178660337,0.6333333333333333
0.00717305526126,0.6388888888888888
0.00719224985378,0.6444444444444445
0.00727379539069,0.65
0.00732920295114,0.6555555555555556
0.00742551493399,0.6611111111111111
0.0074447261038,0.6666666666666666
0.00746261158428,0.6722222222222223
0.00750453341835,0.6777777777777778
0.00781338602037,0.6833333333333333
0.00817841789225,0.6888888888888889
0.00890992622759,0.6944444444444444
0.00912643405011,0.7
0.00960191353301,0.7055555555555556
0.00970708135525,0.7111111111111111
0.0102802292787,0.7166666666666667
0.0111027144596,0.7222222222222222
0.0111720165179,0.7277777777777777
0.0113553266133,0.7333333333333333
0.0115300516051,0.7388888888888889
0.0119416163484,0.7444444444444445
0.165562585019,0.75
0.165562585019,0.7555555555555555
0.21154264196,0.7611111111111111
0.256102051427,0.7666666666666667
0.319812952279,0.7722222222222223
0.319812952279,0.7777777777777778
0.331125170039,0.7833333333333333
0.355763917553,0.7888888888888889
0.355763917553,0.7944444444444444
0.42308528392,0.8
0.641435681665,0.8055555555555556
0.662036918523,0.8111111111111111
0.709023352758,0.8166666666666667
0.710520608954,0.8222222222222222
0.791758338476,0.8277777777777777
0.833993684023,0.8333333333333334
1.02061277593,0.8388888888888889
1.03096598975,0.8444444444444444
1.07738632847,0.85
1.08849886276,0.8555555555555555
1.08849886276,0.8611111111111112
1.36881522073,0.8666666666666667
1.42320201309,0.8722222222222222
1.43978288992,0.8777777777777778
1.74056808038,0.8833333333333333
1.74403946599,0.8888888888888888
1.80580438889,0.8944444444444445
2.13809107256,0.9
3.22239734264,0.9055555555555556
3.45605553411,0.9111111111111111
3.87511689401,0.9166666666666666
4.1201324954,0.9222222222222223
4.61766838741,0.9277777777777778
8.05456526455,0.9333333333333333
8.52938247687,0.9388888888888889
9.27983581871,0.9444444444444444
9.98215949122,0.95
10.1247856551,0.9555555555555556
10.8577059502,0.9611111111111111
11.7131770955,0.9666666666666667
11.8567610709,0.9722222222222222
12.3131995015,0.9777777777777777
12.389065853,0.9833333333333333
12.5425915698,0.9888888888888889
13.2051977339,0.9944444444444445
13.2211392897,1.0
