Congestion,CDF
0.0,0.005555555555555556
0.0,0.011111111111111112
0.0,0.016666666666666666
0.0,0.022222222222222223
0.0,0.027777777777777776
0.0,0.03333333333333333
0.0,0.03888888888888889
0.0,0.044444444444444446
0.0,0.05
0.0,0.05555555555555555
2.93661155433e-07,0.06111111111111111
3.37402544525e-07,0.06666666666666667
7.59465172816e-07,0.07222222222222222
1.11000252811e-06,0.07777777777777778
1.13580574195e-06,0.08333333333333333
1.49965457459e-06,0.08888888888888889
1.64981851513e-06,0.09444444444444444
2.27382612604e-06,0.1
2.28555690879e-06,0.10555555555555556
2.33833925842e-06,0.1111111111111111
2.38646496333e-06,0.11666666666666667
2.62701037641e-06,0.12222222222222222
2.68794325191e-06,0.12777777777777777
3.00160977272e-06,0.13333333333333333
3.07425143075e-06,0.1388888888888889
3.2372259151e-06,0.14444444444444443
3.74324846406e-06,0.15
4.09663837926e-06,0.15555555555555556
4.27771563985e-06,0.16111111111111112
4.44900016818e-06,0.16666666666666666
4.51939248494e-06,0.17222222222222222
4.55568919157e-06,0.17777777777777778
4.70662567295e-06,0.18333333333333332
4.87017194409e-06,0.18888888888888888
4.95238252843e-06,0.19444444444444445
5.00831074503e-06,0.2
5.03609687703e-06,0.20555555555555555
5.09392832178e-06,0.2111111111111111
5.14370521708e-06,0.21666666666666667
5.15499253709e-06,0.2222222222222222
5.32723407975e-06,0.22777777777777777
5.37167852129e-06,0.23333333333333334
5.43334204666e-06,0.2388888888888889
5.88401801367e-06,0.24444444444444444
6.19152557544e-06,0.25
6.72219584823e-06,0.25555555555555554
6.82869029838e-06,0.2611111111111111
6.9269601019e-06,0.26666666666666666
7.16154116278e-06,0.2722222222222222
2.53155057605e-05,0.2777777777777778
5.06310115211e-05,0.2833333333333333
5.55001264055e-05,0.28888888888888886
5.55001264055e-05,0.29444444444444445
5.71389227198e-05,0.3
5.71389227198e-05,0.3055555555555556
8.65050382632e-05,0.3111111111111111
0.000113580574195,0.31666666666666665
0.00011427784544,0.32222222222222224
0.000152153122055,0.3277777777777778
0.000227382612604,0.3333333333333333
0.000236470495722,0.3388888888888889
0.000250415537252,0.34444444444444444
0.000250415537252,0.35
0.00031983996036,0.35555555555555557
0.000487017194409,0.3611111111111111
0.000495238252843,0.36666666666666664
0.000511069045563,0.37222222222222223
0.000550576514523,0.37777777777777777
0.000582515005113,0.38333333333333336
0.000582515005113,0.3888888888888889
0.000664242059707,0.39444444444444443
0.000701982375562,0.4
0.000754819304047,0.40555555555555556
0.00080697385563,0.4111111111111111
0.00100251644812,0.4166666666666667
0.0010599693467,0.4222222222222222
0.00111523841309,0.42777777777777776
0.00137107456361,0.43333333333333335
0.00160972105994,0.4388888888888889
0.00168537441423,0.4444444444444444
0.00208113923323,0.45
0.00235759399905,0.45555555555555555
0.00419446998087,0.46111111111111114
0.00510294882371,0.4666666666666667
0.00534135237325,0.4722222222222222
0.00581910293999,0.4777777777777778
0.0059605049308,0.48333333333333334
0.00627104218848,0.4888888888888889
0.00633972764871,0.49444444444444446
0.00671405249512,0.5
0.00725122034725,0.5055555555555555
0.00729648175575,0.5111111111111111
0.00741620219876,0.5166666666666667
0.00753031568159,0.5222222222222223
0.00779911000678,0.5277777777777778
0.0302426073402,0.5333333333333333
0.0305802122942,0.5388888888888889
0.0359779903535,0.5444444444444444
0.0360796294436,0.55
0.0360827301737,0.5555555555555556
0.0361125415395,0.5611111111111111
0.0361283122079,0.5666666666666667
0.0361390845448,0.5722222222222222
0.0361648149863,0.5777777777777777
0.0362194954237,0.5833333333333334
0.0362203348054,0.5888888888888889
0.0362272137638,0.5944444444444444
0.0362274640786,0.6
0.0362444570317,0.6055555555555555
0.0362708247337,0.6111111111111112
0.0362760463183,0.6166666666666667
0.0362858313662,0.6222222222222222
0.036308289497,0.6277777777777778
0.0363482644655,0.6333333333333333
0.0363610437623,0.6388888888888888
0.0363642774928,0.6444444444444445
0.0363731118377,0.65
0.0363754575839,0.6555555555555556
0.0363913476667,0.6611111111111111
0.0364028100969,0.6666666666666666
0.0364030637362,0.6722222222222223
0.0364087067452,0.6777777777777778
0.0364126071901,0.6833333333333333
0.0364146157569,0.6888888888888889
0.0364186155258,0.6944444444444444
0.0364229283803,0.7
0.0364351844715,0.7055555555555556
0.0364426683355,0.7111111111111111
0.0364744751161,0.7166666666666667
0.036495980114,0.7222222222222222
0.0365336865789,0.7277777777777777
0.0365411487929,0.7333333333333333
0.0365481830708,0.7388888888888889
0.0365642817251,0.7444444444444445
0.905508370136,0.75
0.905508370136,0.7555555555555555
1.20375138465,0.7611111111111111
1.40492033835,0.7666666666666667
1.8064156104,0.7722222222222223
1.8064156104,0.7777777777777778
1.81101674027,0.7833333333333333
1.82063035951,0.7888888888888889
1.82063035951,0.7944444444444444
2.4075027693,0.8
3.61390845448,0.8055555555555556
3.62194954237,0.8111111111111111
3.64028100969,0.8166666666666667
3.64087067452,0.8222222222222222
4.5134713145,0.8277777777777777
4.52995407331,0.8333333333333334
5.44284335967,0.8388888888888889
5.44771283288,0.8444444444444444
5.46583504735,0.85
5.75047122424,0.8555555555555555
5.75047122424,0.8611111111111112
7.26135596609,0.8666666666666667
7.28257384772,0.8722222222222222
8.12995281313,0.8777777777777778
9.08957438546,0.8833333333333333
9.36853190451,0.8888888888888888
9.39398967139,0.8944444444444445
11.7660571894,0.9
16.6739951126,0.9055555555555556
18.7272761461,0.9111111111111111
20.8529039248,0.9166666666666666
22.350022554,0.9222222222222223
24.5062725827,0.9277777777777778
42.6654792422,0.9333333333333333
44.5325356951,0.9388888888888889
48.1889638677,0.9444444444444444
51.826509626,0.95
53.5641463921,0.9555555555555556
57.2137444035,0.9611111111111111
60.9096593593,0.9666666666666667
62.6487431505,0.9722222222222222
64.5074583947,0.9777777777777777
66.2795721002,0.9833333333333333
67.5317191287,0.9888888888888889
69.9022934766,0.9944444444444445
72.960314706,1.0
