Congestion,CDF
0.0,0.005555555555555556
0.0,0.011111111111111112
0.0,0.016666666666666666
0.0,0.022222222222222223
0.0,0.027777777777777776
0.0,0.03333333333333333
0.0,0.03888888888888889
0.0,0.044444444444444446
0.0,0.05
0.0,0.05555555555555555
3.44345215582e-07,0.06111111111111111
3.95636092084e-07,0.06666666666666667
8.90544063531e-07,0.07222222222222222
1.30158195174e-06,0.07777777777777778
1.33183863727e-06,0.08333333333333333
1.75848547972e-06,0.08888888888888889
1.9345667677e-06,0.09444444444444444
2.66627414992e-06,0.1
2.68002959167e-06,0.10555555555555556
2.74192184137e-06,0.1111111111111111
2.7983537389e-06,0.11666666666666667
3.08041577057e-06,0.12222222222222222
3.15186527543e-06,0.12777777777777777
3.51966865606e-06,0.13333333333333333
3.60484780534e-06,0.1388888888888889
3.79595065605e-06,0.14444444444444443
4.38930950003e-06,0.15
4.80369228197e-06,0.15555555555555556
5.01602233373e-06,0.16111111111111112
5.21686948952e-06,0.16666666666666666
5.29941107544e-06,0.17222222222222222
5.34197236432e-06,0.17777777777777778
5.5189595288e-06,0.18333333333333332
5.71073285309e-06,0.18888888888888888
5.80713246491e-06,0.19444444444444445
5.87271353836e-06,0.2
5.90529538119e-06,0.20555555555555555
5.97310816794e-06,0.2111111111111111
6.03147624088e-06,0.21666666666666667
6.04471168103e-06,0.2222222222222222
6.24668102576e-06,0.22777777777777777
6.29879629712e-06,0.23333333333333334
6.37110255739e-06,0.2388888888888889
6.89956234905e-06,0.24444444444444444
7.26014377323e-06,0.25
7.88240438246e-06,0.25555555555555554
8.0072791019e-06,0.2611111111111111
8.12250965267e-06,0.26666666666666666
8.39757792262e-06,0.2722222222222222
2.96848021177e-05,0.2777777777777778
5.93696042354e-05,0.2833333333333333
6.5079097587e-05,0.28888888888888886
6.5079097587e-05,0.29444444444444445
6.70007397916e-05,0.3
6.70007397916e-05,0.3055555555555556
0.00010143526135,0.3111111111111111
0.000133183863727,0.31666666666666665
0.000134001479583,0.32222222222222224
0.000178413789656,0.3277777777777778
0.000266627414992,0.3333333333333333
0.000277283809322,0.3388888888888889
0.000293635676918,0.34444444444444444
0.000293635676918,0.35
0.000375042316849,0.35555555555555557
0.000571073285309,0.3611111111111111
0.000580713246491,0.36666666666666664
0.000599276334019,0.37222222222222223
0.000645602542523,0.37777777777777777
0.000683053414809,0.38333333333333336
0.000683053414809,0.3888888888888889
0.000778886042695,0.39444444444444443
0.000823140098632,0.4
0.000885096347163,0.40555555555555556
0.00094625244485,0.4111111111111111
0.00117554445341,0.4166666666666667
0.00124291335932,0.4222222222222222
0.00130772151739,0.42777777777777776
0.00160771337118,0.43333333333333335
0.00188754874507,0.4388888888888889
0.00197625939034,0.4444444444444444
0.00244033071676,0.45
0.00276449982859,0.45555555555555555
0.00351837440372,0.46111111111111114
0.00401878267202,0.4666666666666667
0.00491840899995,0.4722222222222222
0.00598368555151,0.4777777777777778
0.00626323604753,0.48333333333333334
0.00682344334377,0.4888888888888889
0.00698925042485,0.49444444444444446
0.00735338445131,0.5
0.00743392458805,0.5055555555555555
0.00787285553805,0.5111111111111111
0.00850273516776,0.5166666666666667
0.00855580840942,0.5222222222222223
0.00869619184453,0.5277777777777778
0.00883000059356,0.5333333333333333
0.0091451871211,0.5388888888888889
0.0144686878061,0.5444444444444444
0.0146109056887,0.55
0.0146174823097,0.5555555555555556
0.0146808327036,0.5611111111111111
0.014723668809,0.5666666666666667
0.0147372814362,0.5722222222222222
0.0147919249876,0.5777777777777777
0.0149081246386,0.5833333333333334
0.014909896203,0.5888888888888889
0.0149250440915,0.5944444444444444
0.0149611518845,0.6
0.014985122898,0.6055555555555555
0.0150172869498,0.6111111111111112
0.015028280992,0.6166666666666667
0.0150509032768,0.6222222222222222
0.0151094321671,0.6277777777777778
0.015181742685,0.6333333333333333
0.0152089112094,0.6388888888888888
0.0152325627428,0.6444444444444445
0.0152345902175,0.65
0.0152423549861,0.6555555555555556
0.0152732982676,0.6611111111111111
0.0152977567979,0.6666666666666666
0.0153101863108,0.6722222222222223
0.0153143067711,0.6777777777777778
0.0153185310578,0.6833333333333333
0.0153227476428,0.6888888888888889
0.015331342914,0.6944444444444444
0.0153405081973,0.7
0.0153664514571,0.7055555555555556
0.015382367144,0.7111111111111111
0.0154499866696,0.7166666666666667
0.0154959241054,0.7222222222222222
0.0155758035903,0.7277777777777777
0.0155917280966,0.7333333333333333
0.0156065716073,0.7388888888888889
0.0156413046834,0.7444444444444445
0.372747405074,0.75
0.372747405074,0.7555555555555555
0.48936109012,0.7611111111111111
0.567782161071,0.7666666666666667
0.736183440448,0.7722222222222223
0.736183440448,0.7777777777777778
0.745494810148,0.7833333333333333
0.76592655289,0.7888888888888889
0.76592655289,0.7944444444444444
0.978722180241,0.8
1.47372814362,0.8055555555555556
1.49081246386,0.8111111111111111
1.52977567979,0.8166666666666667
1.53101863108,0.8222222222222222
1.83383797394,0.8277777777777777
1.86886259352,0.8333333333333334
2.25943971473,0.8388888888888889
2.26765524787,0.8444444444444444
2.30615197087,0.85
2.39385112516,0.8555555555555555
2.39385112516,0.8611111111111112
3.01872681058,0.8666666666666667
3.06382649952,0.8722222222222222
3.31303047271,0.8777777777777778
3.80078953927,0.8833333333333333
3.87639795215,0.8888888888888888
3.93049627086,0.8944444444444445
4.83392159365,0.9
6.9888447287,0.9055555555555556
7.73199730828,0.9111111111111111
8.62889732479,0.9166666666666666
9.22450171743,0.9222222222222223
10.1864776838,0.9277777777777778
17.7456212104,0.9333333333333333
18.6102665323,0.9388888888888889
20.1743970006,0.9444444444444444
21.6986324992,0.95
22.2878070427,0.9555555555555556
23.8373994533,0.9611111111111111
25.4895028911,0.9666666666666667
26.0786732214,0.9722222222222222
26.9363716717,0.9777777777777777
27.288209112,0.9833333333333333
27.5896164381,0.9888888888888889
29.0881287279,0.9944444444444445
29.4900069951,1.0
