Congestion,CDF
0.0,0.007352941176470588
0.0,0.014705882352941176
0.0250898748771,0.022058823529411766
0.0250898748771,0.029411764705882353
0.0254499820232,0.03676470588235294
0.0254499820232,0.04411764705882353
0.0260124540173,0.051470588235294115
0.0260124540173,0.058823529411764705
0.0264159718763,0.0661764705882353
0.0264159718763,0.07352941176470588
0.0264183883237,0.08088235294117647
0.0264183883237,0.08823529411764706
0.026960048563,0.09558823529411764
0.026960048563,0.10294117647058823
0.028096082897,0.11029411764705882
0.028096082897,0.11764705882352941
0.0281917066632,0.125
0.0281917066632,0.1323529411764706
0.0293544341046,0.13970588235294118
0.0293544341046,0.14705882352941177
0.0303881474179,0.15441176470588236
0.0303881474179,0.16176470588235295
0.0309056850798,0.16911764705882354
0.0309056850798,0.17647058823529413
0.0309067143747,0.18382352941176472
0.0309067143747,0.19117647058823528
0.0314880658159,0.19852941176470587
0.0314880658159,0.20588235294117646
0.0316573566844,0.21323529411764705
0.0316573566844,0.22058823529411764
0.0320280410328,0.22794117647058823
0.0320280410328,0.23529411764705882
0.0322445683328,0.2426470588235294
0.0322445683328,0.25
0.0322930685976,0.25735294117647056
0.0322930685976,0.2647058823529412
0.0334889648648,0.27205882352941174
0.0334889648648,0.27941176470588236
0.0335590061642,0.2867647058823529
0.0335590061642,0.29411764705882354
0.0336886441307,0.3014705882352941
0.0336886441307,0.3088235294117647
0.0337537171364,0.3161764705882353
0.0337537171364,0.3235294117647059
0.0347786939087,0.33088235294117646
0.0347786939087,0.3382352941176471
0.0348468575446,0.34558823529411764
0.0348468575446,0.35294117647058826
0.0359685268085,0.3602941176470588
0.0359685268085,0.36764705882352944
0.0365362256093,0.375
0.0365362256093,0.38235294117647056
0.0366690860235,0.3897058823529412
0.0366690860235,0.39705882352941174
0.0389920268615,0.40441176470588236
0.0389920268615,0.4117647058823529
0.0391210405469,0.41911764705882354
0.0391210405469,0.4264705882352941
0.0422259902971,0.4338235294117647
0.0422259902971,0.4411764705882353
0.732428259217,0.4485294117647059
0.732428259217,0.45588235294117646
0.974307887478,0.4632352941176471
0.974307887478,0.47058823529411764
1.11196344793,0.47794117647058826
1.11196344793,0.4852941176470588
1.13372823494,0.49264705882352944
1.13372823494,0.5
1.25315122097,0.5073529411764706
1.25315122097,0.5147058823529411
1.64465942182,0.5220588235294118
1.64465942182,0.5294117647058824
1.68299248512,0.5367647058823529
1.68299248512,0.5441176470588235
1.84941196995,0.5514705882352942
1.84941196995,0.5588235294117647
2.09084065535,0.5661764705882353
2.09084065535,0.5735294117647058
2.31943041891,0.5808823529411765
2.31943041891,0.5882352941176471
2.52062226212,0.5955882352941176
2.52062226212,0.6029411764705882
2.6909129553,0.6102941176470589
2.6909129553,0.6176470588235294
2.76182456754,0.625
2.76182456754,0.6323529411764706
2.93786600072,0.6397058823529411
2.93786600072,0.6470588235294118
3.36886441307,0.6544117647058824
3.36886441307,0.6617647058823529
3.56336371598,0.6691176470588235
3.56336371598,0.6764705882352942
3.59986436454,0.6838235294117647
3.59986436454,0.6911764705882353
3.814677316,0.6985294117647058
3.814677316,0.7058823529411765
3.92004760015,0.7132352941176471
3.92004760015,0.7205882352941176
3.94559301956,0.7279411764705882
3.94559301956,0.7352941176470589
4.07876180335,0.7426470588235294
4.07876180335,0.75
4.20253195591,0.7573529411764706
4.20253195591,0.7647058823529411
4.22259902971,0.7720588235294118
4.22259902971,0.7794117647058824
4.7560081037,0.7867647058823529
4.7560081037,0.7941176470588235
5.0092805593,0.8014705882352942
5.0092805593,0.8088235294117647
5.39825321057,0.8161764705882353
5.39825321057,0.8235294117647058
5.57126841009,0.8308823529411765
5.57126841009,0.8382352941176471
5.7577492577,0.8455882352941176
5.7577492577,0.8529411764705882
6.11390903108,0.8602941176470589
6.11390903108,0.8676470588235294
6.14109620136,0.875
6.14109620136,0.8823529411764706
6.24267838944,0.8897058823529411
6.24267838944,0.8970588235294118
7.91557040658,0.9044117647058824
7.91557040658,0.9117647058823529
9.31818381419,0.9191176470588235
9.31818381419,0.9264705882352942
9.71009382119,0.9338235294117647
9.71009382119,0.9411764705882353
11.7568978961,0.9485294117647058
11.7568978961,0.9558823529411765
11.933438876,0.9632352941176471
11.933438876,0.9705882352941176
15.6737160971,0.9779411764705882
15.6737160971,0.9852941176470589
18.1226851891,0.9926470588235294
18.1226851891,1.0
