Congestion,CDF
0.0,0.007352941176470588
0.0,0.014705882352941176
0.0,0.022058823529411766
0.0,0.029411764705882353
0.0158671611425,0.03676470588235294
0.0158671611426,0.04411764705882353
0.0169688537948,0.051470588235294115
0.0169688537948,0.058823529411764705
0.0172914715031,0.0661764705882353
0.0172914715031,0.07352941176470588
0.0178516530037,0.08088235294117647
0.0178516530037,0.08823529411764706
0.0180140546043,0.09558823529411764
0.0180140546043,0.10294117647058823
0.0187056508998,0.11029411764705882
0.0187056508998,0.11764705882352941
0.0187829837663,0.125
0.0187829837663,0.1323529411764706
0.0196654673882,0.13970588235294118
0.0196654673882,0.14705882352941177
0.0206863645859,0.15441176470588236
0.0206863645859,0.16176470588235295
0.0214346088645,0.16911764705882354
0.0214346088645,0.17647058823529413
0.0220583764095,0.18382352941176472
0.0220583764095,0.19117647058823528
0.0221944160148,0.19852941176470587
0.0221944160148,0.20588235294117646
0.0224525010228,0.21323529411764705
0.0224525010228,0.22058823529411764
0.0226261591956,0.22794117647058823
0.0226261591956,0.23529411764705882
0.0231330672843,0.2426470588235294
0.0231330672843,0.25
0.0232661742456,0.25735294117647056
0.0232661742456,0.2647058823529412
0.0241198308709,0.27205882352941174
0.0241198308709,0.27941176470588236
0.0244371584624,0.2867647058823529
0.0244371584624,0.29411764705882354
0.024995819494,0.3014705882352941
0.024995819494,0.3088235294117647
0.0250041539638,0.3161764705882353
0.0250041539638,0.3235294117647059
0.0257170569828,0.33088235294117646
0.0257170569828,0.3382352941176471
0.0263890503362,0.34558823529411764
0.0263890503362,0.35294117647058826
0.0281838724832,0.3602941176470588
0.0281838724832,0.36764705882352944
0.0285321291407,0.375
0.0285321291407,0.38235294117647056
0.029094757587,0.3897058823529412
0.029094757587,0.39705882352941174
0.031271870758,0.40441176470588236
0.031271870758,0.4117647058823529
0.0318511219064,0.41911764705882354
0.0318511219064,0.4264705882352941
0.0338118478771,0.4338235294117647
0.0338118478771,0.4411764705882353
0.40819944196,0.4485294117647059
0.40819944196,0.45588235294117646
0.609887637191,0.4632352941176471
0.609887637191,0.47058823529411764
0.626694313549,0.47794117647058826
0.626694313549,0.4852941176470588
0.76033540703,0.49264705882352944
0.76033540703,0.5
0.926728200669,0.5073529411764706
0.926728200669,0.5147058823529411
1.22634934282,0.5220588235294118
1.22634934282,0.5294117647058824
1.24287523512,0.5367647058823529
1.24287523512,0.5441176470588235
1.26069093034,0.5514705882352942
1.26069093034,0.5588235294117647
1.60365686211,0.5661764705882353
1.60365686211,0.5735294117647058
1.68661241489,0.5808823529411765
1.68661241489,0.5882352941176471
1.83833081101,0.5955882352941176
1.83833081101,0.6029411764705882
1.91162756378,0.6102941176470589
1.91162756378,0.6176470588235294
1.9385592199,0.625
1.9385592199,0.6323529411764706
2.00651430445,0.6397058823529411
2.00651430445,0.6470588235294118
2.50041539638,0.6544117647058824
2.50041539638,0.6617647058823529
2.55579487821,0.6691176470588235
2.55579487821,0.6764705882352942
2.64822715021,0.6838235294117647
2.64822715021,0.6911764705882353
2.84613591503,0.6985294117647058
2.84613591503,0.7058823529411765
2.84743088112,0.7132352941176471
2.84743088112,0.7205882352941176
2.85321291407,0.7279411764705882
2.85321291407,0.7352941176470589
3.07686232462,0.7426470588235294
3.07686232462,0.75
3.18511219064,0.7573529411764706
3.18511219064,0.7647058823529411
3.38118478771,0.7720588235294118
3.38118478771,0.7794117647058824
3.42060117821,0.7867647058823529
3.42060117821,0.7941176470588235
3.71399815006,0.8014705882352942
3.71399815006,0.8088235294117647
4.00988123035,0.8161764705882353
4.00988123035,0.8235294117647058
4.06651870189,0.8308823529411765
4.06651870189,0.8382352941176471
4.2638224227,0.8455882352941176
4.2638224227,0.8529411764705882
4.50499966321,0.8602941176470589
4.50499966321,0.8676470588235294
4.52804375149,0.875
4.52804375149,0.8823529411764706
5.00235326574,0.8897058823529411
5.00235326574,0.8970588235294118
6.13277515408,0.9044117647058824
6.13277515408,0.9117647058823529
7.21337955953,0.9191176470588235
7.21337955953,0.9264705882352942
7.71754803939,0.9338235294117647
7.71754803939,0.9411764705882353
9.20234636887,0.9485294117647058
9.20234636887,0.9558823529411765
9.69348405415,0.9632352941176471
9.69348405415,0.9705882352941176
12.7312378478,0.9779411764705882
12.7312378478,0.9852941176470589
14.8000016727,0.9926470588235294
14.8000016727,1.0
