Congestion,CDF
0.0240188551476,0.007352941176470588
0.0240188551476,0.014705882352941176
0.025061063603,0.022058823529411766
0.025061063603,0.029411764705882353
0.025261535515,0.03676470588235294
0.025261535515,0.04411764705882353
0.0253428388038,0.051470588235294115
0.0253428388038,0.058823529411764705
0.0256840910803,0.0661764705882353
0.0256840910803,0.07352941176470588
0.0258602377658,0.08088235294117647
0.0258602377658,0.08823529411764706
0.0259642482827,0.09558823529411764
0.0259642482827,0.10294117647058823
0.0262413930341,0.11029411764705882
0.0262413930341,0.11764705882352941
0.0271332589694,0.125
0.0271332589694,0.1323529411764706
0.0271511617511,0.13970588235294118
0.0271511617511,0.14705882352941177
0.0272443140935,0.15441176470588236
0.0272443140935,0.16176470588235295
0.0272546645826,0.16911764705882354
0.0272546645826,0.17647058823529413
0.0276832768762,0.18382352941176472
0.0276832768762,0.19117647058823528
0.0277401563991,0.19852941176470587
0.0277401563991,0.20588235294117646
0.0286912084303,0.21323529411764705
0.0286912084303,0.22058823529411764
0.0288299662664,0.22794117647058823
0.0288299662664,0.23529411764705882
0.0289035521435,0.2426470588235294
0.0289035521435,0.25
0.029417705794,0.25735294117647056
0.029417705794,0.2647058823529412
0.0298358385666,0.27205882352941174
0.0298358385666,0.27941176470588236
0.0302783076284,0.2867647058823529
0.0302783076284,0.29411764705882354
0.0305643984596,0.3014705882352941
0.0305643984596,0.3088235294117647
0.0306604806246,0.3161764705882353
0.0306604806246,0.3235294117647059
0.0310992498739,0.33088235294117646
0.0310992498739,0.3382352941176471
0.0315380096643,0.34558823529411764
0.0315380096643,0.35294117647058826
0.0318188555834,0.3602941176470588
0.0318188555834,0.36764705882352944
0.0334763753488,0.375
0.0334763753488,0.38235294117647056
0.0340958747771,0.3897058823529412
0.0340958747771,0.39705882352941174
0.0351991776653,0.40441176470588236
0.0351991776653,0.4117647058823529
0.0432547595766,0.41911764705882354
0.0432547595766,0.4264705882352941
0.219571487925,0.4338235294117647
0.219571487925,0.4411764705882353
0.726214644652,0.4485294117647059
0.726214644652,0.45588235294117646
0.908747517017,0.4632352941176471
0.908747517017,0.47058823529411764
1.06405258847,0.47794117647058826
1.06405258847,0.4852941176470588
1.09298349393,0.49264705882352944
1.09298349393,0.5
1.20237830916,0.5073529411764706
1.20237830916,0.5147058823529411
1.38715058156,0.5220588235294118
1.38715058156,0.5294117647058824
1.50202157647,0.5367647058823529
1.50202157647,0.5441176470588235
1.68802807309,0.5514705882352942
1.68802807309,0.5588235294117647
1.76416366295,0.5661764705882353
1.76416366295,0.5735294117647058
1.95604180378,0.5808823529411765
1.95604180378,0.5882352941176471
2.10014269431,0.5955882352941176
2.10014269431,0.6029411764705882
2.37960518182,0.6102941176470589
2.37960518182,0.6176470588235294
2.49154659059,0.625
2.49154659059,0.6323529411764706
2.5855063068,0.6397058823529411
2.5855063068,0.6470588235294118
2.73076088033,0.6544117647058824
2.73076088033,0.6617647058823529
3.04403720047,0.6691176470588235
3.04403720047,0.6764705882352942
3.07388516998,0.6838235294117647
3.07388516998,0.6911764705882353
3.30705443873,0.6985294117647058
3.30705443873,0.7058823529411765
3.37027056223,0.7132352941176471
3.37027056223,0.7205882352941176
3.38184239361,0.7279411764705882
3.38184239361,0.7352941176470589
3.38221544323,0.7426470588235294
3.38221544323,0.75
3.51991776653,0.7573529411764706
3.51991776653,0.7647058823529411
3.67423516203,0.7720588235294118
3.67423516203,0.7794117647058824
3.98316307275,0.7867647058823529
3.98316307275,0.7941176470588235
4.088042829,0.8014705882352942
4.088042829,0.8088235294117647
4.56027635566,0.8161764705882353
4.56027635566,0.8235294117647058
4.64632023108,0.8308823529411765
4.64632023108,0.8382352941176471
4.70082638131,0.8455882352941176
4.70082638131,0.8529411764705882
5.01091624752,0.8602941176470589
5.01091624752,0.8676470588235294
5.0991240283,0.875
5.0991240283,0.8823529411764706
5.11032779774,0.8897058823529411
5.11032779774,0.8970588235294118
6.44567722083,0.9044117647058824
6.44567722083,0.9117647058823529
7.58193104557,0.9191176470588235
7.58193104557,0.9264705882352942
7.87621963621,0.9338235294117647
7.87621963621,0.9411764705882353
9.52362986501,0.9485294117647058
9.52362986501,0.9558823529411765
9.71624700099,0.9632352941176471
9.71624700099,0.9705882352941176
12.6224344278,0.9779411764705882
12.6224344278,0.9852941176470589
14.5306184455,0.9926470588235294
14.5306184455,1.0
