Congestion,CDF
0.0,0.007352941176470588
0.0,0.014705882352941176
0.0,0.022058823529411766
0.0,0.029411764705882353
0.0101720813745,0.03676470588235294
0.0101720813745,0.04411764705882353
0.0105401186926,0.051470588235294115
0.0105401186926,0.058823529411764705
0.0117883779135,0.0661764705882353
0.0117883779135,0.07352941176470588
0.0123758389015,0.08088235294117647
0.0123758389015,0.08823529411764706
0.0126867859761,0.09558823529411764
0.0126867859761,0.10294117647058823
0.0131547195146,0.11029411764705882
0.0131547195146,0.11764705882352941
0.0132627370994,0.125
0.0132627370994,0.1323529411764706
0.0138271386039,0.13970588235294118
0.0138271386039,0.14705882352941177
0.0140542521482,0.15441176470588236
0.0140542521482,0.16176470588235295
0.0142536195822,0.16911764705882354
0.0142536195822,0.17647058823529413
0.0149043229521,0.18382352941176472
0.0149043229521,0.19117647058823528
0.0155538772806,0.19852941176470587
0.0155538772806,0.20588235294117646
0.0158025367943,0.21323529411764705
0.0158025367943,0.22058823529411764
0.0163494485015,0.22794117647058823
0.0163494485015,0.23529411764705882
0.0170353540335,0.2426470588235294
0.0170353540335,0.25
0.0172014263697,0.25735294117647056
0.0172014263697,0.2647058823529412
0.0172260957852,0.27205882352941174
0.0172260957852,0.27941176470588236
0.0176622159799,0.2867647058823529
0.0176622159799,0.29411764705882354
0.0177504266647,0.3014705882352941
0.0177504266647,0.3088235294117647
0.0177656352835,0.3161764705882353
0.0177656352835,0.3235294117647059
0.0180710311315,0.33088235294117646
0.0180710311315,0.3382352941176471
0.0202850675071,0.34558823529411764
0.0202850675071,0.35294117647058826
0.0211174637824,0.3602941176470588
0.0211174637824,0.36764705882352944
0.0228771782474,0.375
0.0228771782474,0.38235294117647056
0.0233089251949,0.3897058823529412
0.0233089251949,0.39705882352941174
0.0255013987333,0.40441176470588236
0.0255013987333,0.4117647058823529
0.0262985417806,0.41911764705882354
0.0262985417806,0.4264705882352941
0.0275690804955,0.4338235294117647
0.0275690804955,0.4411764705882353
0.218106505771,0.4485294117647059
0.218106505771,0.45588235294117646
0.363525448242,0.4632352941176471
0.363525448242,0.47058823529411764
0.366133588037,0.47794117647058826
0.366133588037,0.4852941176470588
0.594685439632,0.49264705882352944
0.594685439632,0.5
0.634408896243,0.5073529411764706
0.634408896243,0.5147058823529411
0.764523715642,0.5220588235294118
0.764523715642,0.5294117647058824
0.889948042098,0.5367647058823529
0.889948042098,0.5441176470588235
0.9520705193,0.5514705882352942
0.9520705193,0.5588235294117647
0.963705599141,0.5661764705882353
0.963705599141,0.5735294117647058
1.28331685399,0.5808823529411765
1.28331685399,0.5882352941176471
1.30421556972,0.5955882352941176
1.30421556972,0.6029411764705882
1.35908413028,0.6102941176470589
1.35908413028,0.6176470588235294
1.39397024213,0.625
1.39397024213,0.6323529411764706
1.40883651832,0.6397058823529411
1.40883651832,0.6470588235294118
1.77390552411,0.6544117647058824
1.77390552411,0.6617647058823529
1.77656352835,0.6691176470588235
1.77656352835,0.6764705882352942
1.92258457464,0.6838235294117647
1.92258457464,0.6911764705882353
1.95208865429,0.6985294117647058
1.95208865429,0.7058823529411765
1.99847029839,0.7132352941176471
1.99847029839,0.7205882352941176
2.21186844944,0.7279411764705882
2.21186844944,0.7352941176470589
2.22485175049,0.7426470588235294
2.22485175049,0.75
2.33089251949,0.7573529411764706
2.33089251949,0.7647058823529411
2.39989927683,0.7720588235294118
2.39989927683,0.7794117647058824
2.62985417806,0.7867647058823529
2.62985417806,0.7941176470588235
2.7063375913,0.8014705882352942
2.7063375913,0.8088235294117647
2.75690804955,0.8161764705882353
2.75690804955,0.8235294117647058
3.05765636463,0.8308823529411765
3.05765636463,0.8382352941176471
3.19952371372,0.8455882352941176
3.19952371372,0.8529411764705882
3.22580670137,0.8602941176470589
3.22580670137,0.8676470588235294
3.47083050852,0.875
3.47083050852,0.8823529411764706
4.0239249046,0.8897058823529411
4.0239249046,0.8970588235294118
4.63739113253,0.9044117647058824
4.63739113253,0.9117647058823529
5.46746378711,0.9191176470588235
5.46746378711,0.9264705882352942
6.09320509004,0.9338235294117647
6.09320509004,0.9411764705882353
7.06192659007,0.9485294117647058
7.06192659007,0.9558823529411765
7.93690210094,0.9632352941176471
7.93690210094,0.9705882352941176
10.3537207191,0.9779411764705882
10.3537207191,0.9852941176470589
12.1198364755,0.9926470588235294
12.1198364755,1.0
