Congestion,CDF
0.0,0.007352941176470588
0.0,0.014705882352941176
0.0328258768688,0.022058823529411766
0.0328258768688,0.029411764705882353
0.0332679920987,0.03676470588235294
0.0332679920987,0.04411764705882353
0.0336467723581,0.051470588235294115
0.0336467723581,0.058823529411764705
0.0343947572267,0.0661764705882353
0.0343947572267,0.07352941176470588
0.0349952207408,0.08088235294117647
0.0349952207408,0.08823529411764706
0.0352084402022,0.09558823529411764
0.0352084402022,0.10294117647058823
0.0361403298263,0.11029411764705882
0.0361403298263,0.11764705882352941
0.0362935739085,0.125
0.0362935739085,0.1323529411764706
0.0369089012759,0.13970588235294118
0.0369089012759,0.14705882352941177
0.0380113584319,0.15441176470588236
0.0380113584319,0.16176470588235295
0.0384046546592,0.16911764705882354
0.0384046546592,0.17647058823529413
0.0385872706732,0.18382352941176472
0.0385872706732,0.19117647058823528
0.0388875630379,0.19852941176470587
0.0388875630379,0.20588235294117646
0.0392150143848,0.21323529411764705
0.0392150143848,0.22058823529411764
0.0396134066343,0.22794117647058823
0.0396134066343,0.23529411764705882
0.0397565391276,0.2426470588235294
0.0397565391276,0.25
0.0404152058481,0.25735294117647056
0.0404152058481,0.2647058823529412
0.0409789704236,0.27205882352941174
0.0409789704236,0.27941176470588236
0.0410682170188,0.2867647058823529
0.0410682170188,0.29411764705882354
0.0412863552417,0.3014705882352941
0.0412863552417,0.3088235294117647
0.0421299910462,0.3161764705882353
0.0421299910462,0.3235294117647059
0.0423374590222,0.33088235294117646
0.0423374590222,0.3382352941176471
0.0423822216131,0.34558823529411764
0.0423822216131,0.35294117647058826
0.0426847985001,0.3602941176470588
0.0426847985001,0.36764705882352944
0.0433773146388,0.375
0.0433773146388,0.38235294117647056
0.0455209060575,0.3897058823529412
0.0455209060575,0.39705882352941174
0.0456722252497,0.40441176470588236
0.0456722252497,0.4117647058823529
0.0493404976429,0.41911764705882354
0.0493404976429,0.4264705882352941
0.100871344515,0.4338235294117647
0.100871344515,0.4411764705882353
1.01300775704,0.4485294117647059
1.01300775704,0.45588235294117646
1.1809213332,0.4632352941176471
1.1809213332,0.47058823529411764
1.52161127862,0.47794117647058826
1.52161127862,0.4852941176470588
1.52445261718,0.49264705882352944
1.52445261718,0.5
1.62222345477,0.5073529411764706
1.62222345477,0.5147058823529411
1.97925458327,0.5220588235294118
1.97925458327,0.5294117647058824
2.0464660521,0.5367647058823529
2.0464660521,0.5441176470588235
2.37807459232,0.5514705882352942
2.37807459232,0.5588235294117647
2.43972938481,0.5661764705882353
2.43972938481,0.5735294117647058
2.89307645628,0.5808823529411765
2.89307645628,0.5882352941176471
3.00638234577,0.5955882352941176
3.00638234577,0.6029411764705882
3.44372503248,0.6102941176470589
3.44372503248,0.6176470588235294
3.5103435038,0.625
3.5103435038,0.6323529411764706
3.73304686968,0.6397058823529411
3.73304686968,0.6470588235294118
4.04152058481,0.6544117647058824
4.04152058481,0.6617647058823529
4.17510551067,0.6691176470588235
4.17510551067,0.6764705882352942
4.48616072134,0.6838235294117647
4.48616072134,0.6911764705882353
4.61520725639,0.6985294117647058
4.61520725639,0.7058823529411765
4.76678645423,0.7132352941176471
4.76678645423,0.7205882352941176
4.83720057077,0.7279411764705882
4.83720057077,0.7352941176470589
4.87609577401,0.7426470588235294
4.87609577401,0.75
4.93404976429,0.7573529411764706
4.93404976429,0.7647058823529411
5.36207674454,0.7720588235294118
5.36207674454,0.7794117647058824
5.81797852935,0.7867647058823529
5.81797852935,0.7941176470588235
5.83422468282,0.8014705882352942
5.83422468282,0.8088235294117647
6.50060402837,0.8161764705882353
6.50060402837,0.8235294117647058
6.77746084869,0.8308823529411765
6.77746084869,0.8382352941176471
7.02589298749,0.8455882352941176
7.02589298749,0.8529411764705882
7.26266402748,0.8602941176470589
7.26266402748,0.8676470588235294
7.41955346006,0.875
7.41955346006,0.8823529411764706
7.55702295588,0.8897058823529411
7.55702295588,0.8970588235294118
9.35711450717,0.9044117647058824
9.35711450717,0.9117647058823529
10.9818553657,0.9191176470588235
10.9818553657,0.9264705882352942
11.3069359246,0.9338235294117647
11.3069359246,0.9411764705882353
13.7833996556,0.9485294117647058
13.7833996556,0.9558823529411765
13.7870358474,0.9632352941176471
13.7870358474,0.9705882352941176
18.0403896712,0.9779411764705882
18.0403896712,0.9852941176470589
20.7706482958,0.9926470588235294
20.7706482958,1.0
