Congestion,CDF
0.0029939807267,0.009433962264150943
0.0029939807267,0.018867924528301886
0.00300354441772,0.02830188679245283
0.00300354441772,0.03773584905660377
0.00300473689774,0.04716981132075472
0.00300473689774,0.05660377358490566
0.00300609801303,0.0660377358490566
0.00300609801303,0.07547169811320754
0.00301042026812,0.08490566037735849
0.00301042026812,0.09433962264150944
0.00301251341826,0.10377358490566038
0.00301251341826,0.11320754716981132
0.00301847702523,0.12264150943396226
0.00301847702523,0.1320754716981132
0.00303056770432,0.14150943396226415
0.00303056770432,0.1509433962264151
0.00303989371718,0.16037735849056603
0.00303989371718,0.16981132075471697
0.00304230210966,0.1792452830188679
0.00304230210966,0.18867924528301888
0.00304937569833,0.19811320754716982
0.00304937569833,0.20754716981132076
0.0030602178957,0.2169811320754717
0.0030602178957,0.22641509433962265
0.00306148616437,0.2358490566037736
0.00306148616437,0.24528301886792453
0.00306455981506,0.25471698113207547
0.00306455981506,0.2641509433962264
0.0232717626067,0.27358490566037735
0.0232717626067,0.2830188679245283
0.0307563158284,0.29245283018867924
0.0307563158284,0.3018867924528302
0.0425594685263,0.3113207547169811
0.0425594685263,0.32075471698113206
0.044691803215,0.330188679245283
0.044691803215,0.33962264150943394
0.0448289301631,0.3490566037735849
0.0448289301631,0.3584905660377358
0.0462600848842,0.36792452830188677
0.0462600848842,0.37735849056603776
0.0513675574657,0.3867924528301887
0.0513675574657,0.39622641509433965
0.0516251640856,0.4056603773584906
0.0516251640856,0.41509433962264153
0.051859862227,0.42452830188679247
0.051859862227,0.4339622641509434
0.0549061586854,0.44339622641509435
0.0549061586854,0.4528301886792453
0.0580501265291,0.46226415094339623
0.0580501265291,0.4716981132075472
0.0585472070354,0.4811320754716981
0.0585472070354,0.49056603773584906
0.0675619840274,0.5
0.0675619840274,0.5094339622641509
0.0683118537086,0.5188679245283019
0.0683118537086,0.5283018867924528
0.0685487302237,0.5377358490566038
0.0685487302237,0.5471698113207547
0.0719078042549,0.5566037735849056
0.0719078042549,0.5660377358490566
0.0729232895745,0.5754716981132075
0.0729232895745,0.5849056603773585
0.0751721896249,0.5943396226415094
0.0751721896249,0.6037735849056604
0.0785585686737,0.6132075471698113
0.0785585686737,0.6226415094339622
0.0813075007289,0.6320754716981132
0.0813075007289,0.6415094339622641
0.0827282504435,0.6509433962264151
0.0827282504435,0.660377358490566
0.0853711365465,0.6698113207547169
0.0853711365465,0.6792452830188679
0.0881923250318,0.6886792452830188
0.0881923250318,0.6981132075471698
0.0958455339704,0.7075471698113207
0.0958455339704,0.7169811320754716
0.0975551183982,0.7264150943396226
0.0975551183982,0.7358490566037735
0.0980847695557,0.7452830188679245
0.0980847695557,0.7547169811320755
0.105470793532,0.7641509433962265
0.105470793532,0.7735849056603774
0.106211727599,0.7830188679245284
0.106211727599,0.7924528301886793
0.119793672596,0.8018867924528302
0.119793672596,0.8113207547169812
0.120540938072,0.8207547169811321
0.120540938072,0.8301886792452831
0.122982107689,0.839622641509434
0.122982107689,0.8490566037735849
0.132126416399,0.8584905660377359
0.132126416399,0.8679245283018868
0.132596735569,0.8773584905660378
0.132596735569,0.8867924528301887
0.133275840796,0.8962264150943396
0.133275840796,0.9056603773584906
0.143258105038,0.9150943396226415
0.143258105038,0.9245283018867925
0.145151865889,0.9339622641509434
0.145151865889,0.9433962264150944
0.15647696179,0.9528301886792453
0.15647696179,0.9622641509433962
0.177415003468,0.9716981132075472
0.177415003468,0.9811320754716981
0.185380561463,0.9905660377358491
0.185380561463,1.0
