Congestion,CDF
0.0029939804964,0.009433962264150943
0.0029939804964,0.018867924528301886
0.00300354441772,0.02830188679245283
0.00300354441772,0.03773584905660377
0.00300473666584,0.04716981132075472
0.00300473666584,0.05660377358490566
0.00300609778182,0.0660377358490566
0.00300609778182,0.07547169811320754
0.00301041957422,0.08490566037735849
0.00301041957422,0.09433962264150944
0.00301251365362,0.10377358490566038
0.00301251365362,0.11320754716981132
0.00301847656014,0.12264150943396226
0.00301847656014,0.1320754716981132
0.0030305672428,0.14150943396226415
0.0030305672428,0.1509433962264151
0.00303989324775,0.16037735849056603
0.00303989324775,0.16981132075471697
0.00304230187153,0.1792452830188679
0.00304230187153,0.18867924528301888
0.00304937569833,0.19811320754716982
0.00304937569833,0.20754716981132076
0.00306021695012,0.2169811320754717
0.00306021695012,0.22641509433962265
0.0030614863925,0.2358490566037736
0.0030614863925,0.24528301886792453
0.00306455957289,0.25471698113207547
0.00306455957289,0.2641509433962264
0.0232717626067,0.27358490566037735
0.0232717626067,0.2830188679245283
0.0307563081317,0.29245283018867924
0.0307563081317,0.3018867924528302
0.0425594608296,0.3113207547169811
0.0425594608296,0.32075471698113206
0.044691784437,0.330188679245283
0.044691784437,0.33962264150943394
0.0448289112559,0.3490566037735849
0.0448289112559,0.3584905660377358
0.0462600848842,0.36792452830188677
0.0462600848842,0.37735849056603776
0.0513675496223,0.3867924528301887
0.0513675496223,0.39622641509433965
0.0516251560131,0.4056603773584906
0.0516251560131,0.41509433962264153
0.051859862227,0.42452830188679247
0.051859862227,0.4339622641509434
0.0549061443744,0.44339622641509435
0.0549061443744,0.4528301886792453
0.0580501152613,0.46226415094339623
0.0580501152613,0.4716981132075472
0.0585471956383,0.4811320754716981
0.0585471956383,0.49056603773584906
0.0675619759549,0.5
0.0675619759549,0.5094339622641509
0.0683118315989,0.5188679245283019
0.0683118315989,0.5283018867924528
0.0685487079734,0.5377358490566038
0.0685487079734,0.5471698113207547
0.0719077818714,0.5566037735849056
0.0719077818714,0.5660377358490566
0.0729232686159,0.5754716981132075
0.0729232686159,0.5849056603773585
0.0751721896992,0.5943396226415094
0.0751721896992,0.6037735849056604
0.0785585686737,0.6132075471698113
0.0785585686737,0.6226415094339622
0.0813075007289,0.6320754716981132
0.0813075007289,0.6415094339622641
0.0827282427136,0.6509433962264151
0.0827282427136,0.660377358490566
0.0853711443918,0.6698113207547169
0.0853711443918,0.6792452830188679
0.0881923251259,0.6886792452830188
0.0881923251259,0.6981132075471698
0.0958455338038,0.7075471698113207
0.0958455338038,0.7169811320754716
0.0975550964113,0.7264150943396226
0.0975550964113,0.7358490566037735
0.0980847475461,0.7452830188679245
0.0980847475461,0.7547169811320755
0.105470790064,0.7641509433962265
0.105470790064,0.7735849056603774
0.10621172412,0.7830188679245284
0.10621172412,0.7924528301886793
0.119793636951,0.8018867924528302
0.119793636951,0.8113207547169812
0.120540937771,0.8207547169811321
0.120540937771,0.8301886792452831
0.122982077628,0.839622641509434
0.122982077628,0.8490566037735849
0.132126394068,0.8584905660377359
0.132126394068,0.8679245283018868
0.132596727537,0.8773584905660378
0.132596727537,0.8867924528301887
0.133275826475,0.8962264150943396
0.133275826475,0.9056603773584906
0.143258082987,0.9150943396226415
0.143258082987,0.9245283018867925
0.145151859099,0.9339622641509434
0.145151859099,0.9433962264150944
0.156476985103,0.9528301886792453
0.156476985103,0.9622641509433962
0.177415004625,0.9716981132075472
0.177415004625,0.9811320754716981
0.185380554849,0.9905660377358491
0.185380554849,1.0
