Congestion,CDF
0.0,0.007352941176470588
0.0,0.014705882352941176
0.0,0.022058823529411766
0.0,0.029411764705882353
0.0,0.03676470588235294
0.0,0.04411764705882353
0.0,0.051470588235294115
0.0,0.058823529411764705
0.0,0.0661764705882353
0.0,0.07352941176470588
0.0,0.08088235294117647
0.0,0.08823529411764706
0.0,0.09558823529411764
0.0,0.10294117647058823
1.52470597937e-05,0.11029411764705882
1.52470597937e-05,0.11764705882352941
1.52470597937e-05,0.125
1.52470597937e-05,0.1323529411764706
1.52470597937e-05,0.13970588235294118
1.52470597937e-05,0.14705882352941177
1.52470597937e-05,0.15441176470588236
1.52470597937e-05,0.16176470588235295
1.52470597937e-05,0.16911764705882354
1.52470597937e-05,0.17647058823529413
1.52470597937e-05,0.18382352941176472
1.52470597937e-05,0.19117647058823528
1.52470597937e-05,0.19852941176470587
1.52470597937e-05,0.20588235294117646
1.52470597937e-05,0.21323529411764705
1.52470597937e-05,0.22058823529411764
1.52470597937e-05,0.22794117647058823
1.52470597937e-05,0.23529411764705882
1.52470597937e-05,0.2426470588235294
1.52470597937e-05,0.25
1.52470597937e-05,0.25735294117647056
1.52470597937e-05,0.2647058823529412
1.52470597937e-05,0.27205882352941174
1.52470597937e-05,0.27941176470588236
1.52470597937e-05,0.2867647058823529
1.52470597937e-05,0.29411764705882354
1.52470597937e-05,0.3014705882352941
0.000381176494841,0.3088235294117647
0.000381176494841,0.3161764705882353
0.000411670614429,0.3235294117647059
0.000762352989683,0.33088235294117646
0.000762352989683,0.3382352941176471
0.000762352989683,0.34558823529411764
0.000762352989683,0.35294117647058826
0.00114352948452,0.3602941176470588
0.00127058831614,0.36764705882352944
0.00127058831614,0.375
0.00127058831614,0.38235294117647056
0.00152470597937,0.3897058823529412
0.00152470597937,0.39705882352941174
0.00152470597937,0.40441176470588236
0.00152470597937,0.4117647058823529
0.00152470597937,0.41911764705882354
0.00152470597937,0.4264705882352941
0.00152470597937,0.4338235294117647
0.00190588247421,0.4411764705882353
0.00228705896905,0.4485294117647059
0.00228705896905,0.45588235294117646
0.0027952942955,0.4632352941176471
0.00304941195873,0.47058823529411764
0.00304941195873,0.47794117647058826
0.0045741179381,0.4852941176470588
0.00622588274907,0.49264705882352944
0.0110541183504,0.5
0.0113082360136,0.5073529411764706
0.0126091501866,0.5147058823529411
0.013168433874,0.5220588235294118
0.0146117656356,0.5294117647058824
0.0181694129208,0.5367647058823529
0.0183125101975,0.5441176470588235
0.018423530584,0.5514705882352942
0.0184707424936,0.5588235294117647
0.0185206855926,0.5661764705882353
0.0185391834977,0.5735294117647058
0.0185629586766,0.5808823529411765
0.0187200616428,0.5882352941176471
0.0189763741258,0.5955882352941176
0.0190003402329,0.6029411764705882
0.019054999565,0.6102941176470589
0.0190561061585,0.6176470588235294
0.0190571434378,0.625
0.0190998240441,0.6323529411764706
0.0191137815092,0.6397058823529411
0.0191644620066,0.6470588235294118
0.0191736931096,0.6544117647058824
0.0191823842788,0.6617647058823529
0.0192342770554,0.6691176470588235
0.0192864772273,0.6764705882352942
0.0193150492181,0.6838235294117647
0.0193150711084,0.6911764705882353
0.0193152914774,0.6985294117647058
0.0193152990005,0.7058823529411765
0.0193159439828,0.7132352941176471
0.019315948999,0.7205882352941176
0.019315948999,0.7279411764705882
0.0196941189001,0.7352941176470589
0.0199482365634,0.7426470588235294
0.0214729425427,0.75
0.477495601102,0.7573529411764706
0.479111550165,0.7647058823529411
0.501512141698,0.7720588235294118
0.936003082142,0.7794117647058824
0.936003082142,0.7867647058823529
0.961713852772,0.7941176470588235
0.961713852772,0.8014705882352942
1.43248680331,0.8088235294117647
1.59373320157,0.8161764705882353
1.59373320157,0.8235294117647058
1.59373320157,0.8308823529411765
1.85629586766,0.8382352941176471
1.90561061585,0.8455882352941176
1.91644620066,0.8529411764705882
1.93150711084,0.8602941176470589
1.93152990005,0.8676470588235294
1.9315948999,0.875
1.9315948999,0.8823529411764706
2.38320994488,0.8897058823529411
2.7830773315,0.8970588235294118
2.87995228065,0.9044117647058824
3.49376722487,0.9117647058823529
3.71021421743,0.9191176470588235
3.86305904779,0.9264705882352942
5.79478419808,0.9338235294117647
7.78805371881,0.9411764705882353
13.9999668287,0.9485294117647058
14.1154614384,0.9558823529411765
18.4840616058,0.9632352941176471
22.4400040071,0.9705882352941176
23.2813831974,0.9779411764705882
23.7009190257,0.9852941176470589
25.1334517566,0.9926470588235294
26.450295144,1.0
