Congestion,CDF
0.0,0.007352941176470588
0.0,0.014705882352941176
0.0,0.022058823529411766
0.0,0.029411764705882353
0.0,0.03676470588235294
0.0,0.04411764705882353
0.0,0.051470588235294115
0.0,0.058823529411764705
0.0,0.0661764705882353
0.0,0.07352941176470588
0.0,0.08088235294117647
0.0,0.08823529411764706
0.0,0.09558823529411764
0.0,0.10294117647058823
1.54861484528e-05,0.11029411764705882
1.54861484528e-05,0.11764705882352941
1.54861484528e-05,0.125
1.54861484528e-05,0.1323529411764706
1.54861484528e-05,0.13970588235294118
1.54861484528e-05,0.14705882352941177
1.54861484528e-05,0.15441176470588236
1.54861484528e-05,0.16176470588235295
1.54861484528e-05,0.16911764705882354
1.54861484528e-05,0.17647058823529413
1.54861484528e-05,0.18382352941176472
1.54861484528e-05,0.19117647058823528
1.54861484528e-05,0.19852941176470587
1.54861484528e-05,0.20588235294117646
1.54861484528e-05,0.21323529411764705
1.54861484528e-05,0.22058823529411764
1.54861484528e-05,0.22794117647058823
1.54861484528e-05,0.23529411764705882
1.54861484528e-05,0.2426470588235294
1.54861484528e-05,0.25
1.54861484528e-05,0.25735294117647056
1.54861484528e-05,0.2647058823529412
1.54861484528e-05,0.27205882352941174
1.54861484528e-05,0.27941176470588236
1.54861484528e-05,0.2867647058823529
1.54861484528e-05,0.29411764705882354
1.54861484528e-05,0.3014705882352941
0.000387153711321,0.3088235294117647
0.000387153711321,0.3161764705882353
0.000418126008226,0.3235294117647059
0.000774307422641,0.33088235294117646
0.000774307422641,0.3382352941176471
0.000774307422641,0.34558823529411764
0.000774307422641,0.35294117647058826
0.00116146113396,0.3602941176470588
0.00129051237107,0.36764705882352944
0.00129051237107,0.375
0.00129051237107,0.38235294117647056
0.00154861484528,0.3897058823529412
0.00154861484528,0.39705882352941174
0.00154861484528,0.40441176470588236
0.00154861484528,0.4117647058823529
0.00154861484528,0.41911764705882354
0.00154861484528,0.4264705882352941
0.00154861484528,0.4338235294117647
0.0019357685566,0.4411764705882353
0.00232292226792,0.4485294117647059
0.00232292226792,0.45588235294117646
0.00283912721635,0.4632352941176471
0.00309722969056,0.47058823529411764
0.00309722969056,0.47794117647058826
0.00464584453585,0.4852941176470588
0.00632351061823,0.49264705882352944
0.00821501224004,0.5
0.00851580567442,0.5073529411764706
0.010696576355,0.5147058823529411
0.0107194279067,0.5220588235294118
0.0107579767125,0.5294117647058824
0.0107579767125,0.5367647058823529
0.010854311781,0.5441176470588235
0.0109209712022,0.5514705882352942
0.0111282091738,0.5588235294117647
0.0111371709828,0.5661764705882353
0.0111865466163,0.5735294117647058
0.0111865466163,0.5808823529411765
0.0111869380496,0.5882352941176471
0.0112274576283,0.5955882352941176
0.0112306942168,0.6029411764705882
0.0112452930943,0.6102941176470589
0.0112941603527,0.6176470588235294
0.0113128498534,0.625
0.0113152275027,0.6323529411764706
0.0113647493106,0.6397058823529411
0.0114145782617,0.6470588235294118
0.0114423578049,0.6544117647058824
0.0114423578049,0.6617647058823529
0.0114425447436,0.6691176470588235
0.0114425447436,0.6764705882352942
0.0114431861055,0.6838235294117647
0.0114431861055,0.6911764705882353
0.0114431861055,0.6985294117647058
0.0114855601025,0.7058823529411765
0.0148408922673,0.7132352941176471
0.0184543269063,0.7205882352941176
0.0187124293805,0.7279411764705882
0.0200029417516,0.7352941176470589
0.0202610442258,0.7426470588235294
0.0218096590711,0.75
0.280767355421,0.7573529411764706
0.282354008818,0.7647058823529411
0.296540386029,0.7720588235294118
0.546048560109,0.7794117647058824
0.546048560109,0.7867647058823529
0.568237465528,0.7941176470588235
0.568237465528,0.8014705882352942
0.842302066264,0.8088235294117647
0.937964467383,0.8161764705882353
0.937964467383,0.8235294117647058
0.937964467383,0.8308823529411765
1.07579767125,0.8382352941176471
1.11865466163,0.8455882352941176
1.12941603527,0.8529411764705882
1.14423578049,0.8602941176470589
1.14425447436,0.8676470588235294
1.14431861055,0.875
1.14431861055,0.8823529411764706
1.39946116038,0.8897058823529411
1.61799135078,0.8970588235294118
1.6997602158,0.9044117647058824
2.05168156566,0.9117647058823529
2.1515953425,0.9191176470588235
2.28850894872,0.9264705882352942
3.43295583166,0.9338235294117647
4.57473495102,0.9411764705882353
8.28528599416,0.9485294117647058
8.29229035017,0.9558823529411765
10.9399501093,0.9632352941176471
13.1245303229,0.9705882352941176
13.7709953104,0.9779411764705882
13.946031547,0.9852941176470589
14.8564264885,0.9926470588235294
15.7080070559,1.0
