Congestion,CDF
0.0,0.009433962264150943
0.0,0.018867924528301886
0.0,0.02830188679245283
0.0,0.03773584905660377
0.0,0.04716981132075472
0.0,0.05660377358490566
0.0,0.0660377358490566
0.0,0.07547169811320754
0.0,0.08490566037735849
0.0,0.09433962264150944
0.0,0.10377358490566038
0.0,0.11320754716981132
0.0,0.12264150943396226
0.0,0.1320754716981132
0.0,0.14150943396226415
0.0,0.1509433962264151
0.0,0.16037735849056603
0.0,0.16981132075471697
0.0,0.1792452830188679
0.0,0.18867924528301888
0.0,0.19811320754716982
0.0,0.20754716981132076
0.0,0.2169811320754717
0.0,0.22641509433962265
0.0,0.2358490566037736
0.0,0.24528301886792453
0.0,0.25471698113207547
0.0,0.2641509433962264
0.0,0.27358490566037735
0.0,0.2830188679245283
1.76831646081e-07,0.29245283018867924
4.55560984922e-06,0.3018867924528302
4.98922098485e-06,0.3113207547169811
5.12286247042e-06,0.32075471698113206
6.94488087832e-06,0.330188679245283
7.60590712598e-06,0.33962264150943394
7.83951748483e-06,0.3490566037735849
8.5856968531e-06,0.3584905660377358
1.0431450884e-05,0.36792452830188677
1.59081229273e-05,0.37735849056603776
1.74222866675e-05,0.3867924528301887
2.03632377119e-05,0.39622641509433965
2.15507097434e-05,0.4056603773584906
2.36019450412e-05,0.41509433962264153
2.51352573503e-05,0.42452830188679247
2.75276763337e-05,0.4339622641509434
3.09475212202e-05,0.44339622641509435
3.16566447466e-05,0.4528301886792453
3.34008755491e-05,0.46226415094339623
3.65800309327e-05,0.4716981132075472
8.18381489013e-05,0.4811320754716981
9.34798695428e-05,0.49056603773584906
0.000214033522462,0.5
0.000293384556111,0.5094339622641509
0.000293384556111,0.5188679245283019
0.000320376653069,0.5283018867924528
0.000763621414198,0.5377358490566038
0.000763621414198,0.5471698113207547
0.000763621414198,0.5566037735849056
0.000782358816297,0.5660377358490566
0.000782358816297,0.5754716981132075
0.000782358816297,0.5849056603773585
0.00120785031617,0.5943396226415094
0.00144242264468,0.6037735849056604
0.00144242264468,0.6132075471698113
0.0015272428284,0.6226415094339622
0.0015272428284,0.6320754716981132
0.0020834642635,0.6415094339622641
0.0022817721378,0.6509433962264151
0.00230169793785,0.660377358490566
0.00230169793785,0.6698113207547169
0.00265576444608,0.6792452830188679
0.00265576444608,0.6886792452830188
0.00329055546289,0.6981132075471698
0.00329055546289,0.7075471698113207
0.00350549510786,0.7169811320754716
0.00350549510786,0.7264150943396226
0.00350549510786,0.7358490566037735
0.00415559867495,0.7452830188679245
0.00450942181246,0.7547169811320755
0.00505444689698,0.7641509433962265
0.0061378611676,0.7735849056603774
0.0061378611676,0.7830188679245284
0.0061378611676,0.7924528301886793
0.00654227684696,0.8018867924528302
0.00683093240912,0.8113207547169812
0.00689082651884,0.8207547169811321
0.00689082651884,0.8301886792452831
0.00701099021571,0.839622641509434
0.00701099021571,0.8490566037735849
0.00758603808587,0.8584905660377359
0.00758603808587,0.8679245283018868
0.00951781987782,0.8773584905660378
0.0106517942463,0.8867924528301887
0.0108057524614,0.8962264150943396
0.0158133766441,0.9056603773584906
0.0158165450457,0.9150943396226415
0.0166016720402,0.9245283018867925
0.0230671311215,0.9339622641509434
0.0375464779321,0.9433962264150944
0.040973192739,0.9528301886792453
0.040973192739,0.9622641509433962
0.0653154586392,0.9716981132075472
4.75058741891,0.9811320754716981
4.98707603774,0.9905660377358491
11.145120924,1.0
