Congestion,CDF
0.0,0.009433962264150943
0.0,0.018867924528301886
0.0,0.02830188679245283
0.0,0.03773584905660377
0.0,0.04716981132075472
0.0,0.05660377358490566
0.0,0.0660377358490566
0.0,0.07547169811320754
0.0,0.08490566037735849
0.0,0.09433962264150944
0.0,0.10377358490566038
0.0,0.11320754716981132
0.0,0.12264150943396226
0.0,0.1320754716981132
0.0,0.14150943396226415
0.0,0.1509433962264151
0.0,0.16037735849056603
0.0,0.16981132075471697
0.0,0.1792452830188679
0.0,0.18867924528301888
0.0,0.19811320754716982
0.0,0.20754716981132076
0.0,0.2169811320754717
0.0,0.22641509433962265
0.0,0.2358490566037736
0.0,0.24528301886792453
0.0,0.25471698113207547
0.0,0.2641509433962264
0.0,0.27358490566037735
0.0,0.2830188679245283
6.82451387576e-08,0.29245283018867924
1.75815943117e-06,0.3018867924528302
1.97708084429e-06,0.3113207547169811
2.68025757663e-06,0.32075471698113206
3.02552721983e-06,0.330188679245283
4.02583942862e-06,0.33962264150943394
6.13946700498e-06,0.3490566037735849
7.85884209081e-06,0.3584905660377358
8.3171265402e-06,0.36792452830188677
9.70052116576e-06,0.37735849056603776
1.19436646477e-05,0.3867924528301887
1.22173387016e-05,0.39622641509433965
1.28904946428e-05,0.4056603773584906
8.26025644331e-05,0.41509433962264153
0.00011322673393,0.42452830188679247
0.00011322673393,0.4339622641509434
0.000294706578405,0.44339622641509435
0.000294706578405,0.4528301886792453
0.000294706578405,0.46226415094339623
0.000301937957146,0.4716981132075472
0.000301937957146,0.4811320754716981
0.000301937957146,0.49056603773584906
0.000466149098606,0.5
0.000556678262716,0.5094339622641509
0.000556678262716,0.5188679245283019
0.00058941315681,0.5283018867924528
0.00058941315681,0.5377358490566038
0.00080407727299,0.5471698113207547
0.00102494670579,0.5566037735849056
0.00102494670579,0.5660377358490566
0.00126993340351,0.5754716981132075
0.00126993340351,0.5849056603773585
0.00160378198404,0.5943396226415094
0.00195067702797,0.6037735849056604
0.0026362811207,0.6132075471698113
0.00352993735865,0.6226415094339622
0.00404006235774,0.6320754716981132
0.00411087716746,0.6415094339622641
0.00417029469813,0.6509433962264151
0.00566723468379,0.660377358490566
0.00660047131406,0.6698113207547169
0.00667967411524,0.6792452830188679
0.0066903744775,0.6886792452830188
0.00849516599456,0.6981132075471698
0.00852146287507,0.7075471698113207
0.00890236334398,0.7169811320754716
0.00987571604704,0.7264150943396226
0.0110161194398,0.7358490566037735
0.0117600047253,0.7452830188679245
0.0128174034438,0.7547169811320755
0.012953101061,0.7641509433962265
0.108646727894,0.7735849056603774
0.238926543597,0.7830188679245284
0.238926543597,0.7924528301886793
0.319554857815,0.8018867924528302
0.319554857815,0.8113207547169812
0.319554857815,0.8207547169811321
0.637137449592,0.8301886792452831
0.637137449592,0.839622641509434
0.637137449592,0.8490566037735849
0.63910971563,0.8584905660377359
0.63910971563,0.8679245283018868
0.95519624729,0.8773584905660378
1.11615658888,0.8867924528301887
1.11615658888,0.8962264150943396
1.21201870732,0.9056603773584906
1.23125981568,0.9150943396226415
1.23125981568,0.9245283018867925
1.71790612394,0.9339622641509434
1.71790612394,0.9433962264150944
2.71636586134,0.9528301886792453
2.73418649161,0.9622641509433962
4.48334461576,0.9716981132075472
4.52405390092,0.9811320754716981
6.74146509788,0.9905660377358491
14.8259414329,1.0
