Congestion,CDF
0.00498967211153,0.009433962264150943
0.00498967211153,0.018867924528301886
0.00499923564904,0.02830188679245283
0.00499923564904,0.03773584905660377
0.00500042828257,0.04716981132075472
0.00500042828257,0.05660377358490566
0.00500178939787,0.0660377358490566
0.00500178939787,0.07547169811320754
0.00500611195999,0.08490566037735849
0.00500611195999,0.09433962264150944
0.00500820449606,0.10377358490566038
0.00500820449606,0.11320754716981132
0.00501416856358,0.12264150943396226
0.00501416856358,0.1320754716981132
0.00502625924266,0.14150943396226415
0.00502625924266,0.1509433962264151
0.00503558525553,0.16037735849056603
0.00503558525553,0.16981132075471697
0.00503799349449,0.1792452830188679
0.00503799349449,0.18867924528301888
0.00504506692965,0.19811320754716982
0.00504506692965,0.20754716981132076
0.00505590974108,0.2169811320754717
0.00505590974108,0.22641509433962265
0.00505717724217,0.2358490566037736
0.00505717724217,0.24528301886792453
0.00506025119989,0.25471698113207547
0.00506025119989,0.2641509433962264
0.0386232336169,0.27358490566037735
0.0386232336169,0.2830188679245283
0.051224948959,0.29245283018867924
0.051224948959,0.3018867924528302
0.070703837162,0.3113207547169811
0.070703837162,0.32075471698113206
0.0743896018227,0.330188679245283
0.0743896018227,0.33962264150943394
0.0745267287708,0.3490566037735849
0.0745267287708,0.3584905660377358
0.0769630269045,0.36792452830188677
0.0769630269045,0.37735849056603776
0.0852687277302,0.3867924528301887
0.0852687277302,0.39622641509433965
0.0855263343501,0.4056603773584906
0.0855263343501,0.41509433962264153
0.0864006719998,0.42452830188679247
0.0864006719998,0.4339622641509434
0.0912745340341,0.44339622641509435
0.0912745340341,0.4528301886792453
0.0960633001501,0.46226415094339623
0.0960633001501,0.4716981132075472
0.0965603806564,0.4811320754716981
0.0965603806564,0.49056603773584906
0.111057823673,0.5
0.111057823673,0.5094339622641509
0.11363525893,0.5188679245283019
0.11363525893,0.5283018867924528
0.113872135446,0.5377358490566038
0.113872135446,0.5471698113207547
0.119150143353,0.5566037735849056
0.119150143353,0.5660377358490566
0.121353539389,0.5754716981132075
0.121353539389,0.5849056603773585
0.125064470408,0.5943396226415094
0.125064470408,0.6037735849056604
0.130369783333,0.6132075471698113
0.130369783333,0.6226415094339622
0.135037649264,0.6320754716981132
0.135037649264,0.6415094339622641
0.137737693347,0.6509433962264151
0.137737693347,0.660377358490566
0.141659858466,0.6698113207547169
0.141659858466,0.6792452830188679
0.14576034132,0.6886792452830188
0.14576034132,0.6981132075471698
0.159170351887,0.7075471698113207
0.159170351887,0.7169811320754716
0.162067862383,0.7264150943396226
0.162067862383,0.7358490566037735
0.16259751354,0.7452830188679245
0.16259751354,0.7547169811320755
0.174826548681,0.7641509433962265
0.174826548681,0.7735849056603774
0.175567482749,0.7830188679245284
0.175567482749,0.7924528301886793
0.198835496131,0.8018867924528302
0.198835496131,0.8113207547169812
0.199217226999,0.8207547169811321
0.199217226999,0.8301886792452831
0.204125617052,0.839622641509434
0.204125617052,0.8490566037735849
0.219666366899,0.8584905660377359
0.219666366899,0.8679245283018868
0.220228054369,0.8773584905660378
0.220228054369,0.8867924528301887
0.221455430804,0.8962264150943396
0.221455430804,0.9056603773584906
0.238473791043,0.9150943396226415
0.238473791043,0.9245283018867925
0.239727897034,0.9339622641509434
0.239727897034,0.9433962264150944
0.260099375757,0.9528301886792453
0.260099375757,0.9622641509433962
0.293738946761,0.9716981132075472
0.293738946761,0.9811320754716981
0.306821666876,0.9905660377358491
0.306821666876,1.0
