Congestion,CDF
0.0,0.005555555555555556
0.0,0.011111111111111112
0.0,0.016666666666666666
0.0,0.022222222222222223
0.0,0.027777777777777776
0.0,0.03333333333333333
0.0,0.03888888888888889
0.0,0.044444444444444446
0.0,0.05
0.0,0.05555555555555555
1.29642551902e-06,0.06111111111111111
1.48953057226e-06,0.06666666666666667
3.35280990566e-06,0.07222222222222222
4.90032670986e-06,0.07777777777777778
5.01424012426e-06,0.08333333333333333
5.61943523141e-06,0.08888888888888889
6.6205230901e-06,0.09444444444444444
7.28345164211e-06,0.1
1.00382572263e-05,0.10555555555555556
1.00900450976e-05,0.1111111111111111
1.03230632675e-05,0.11666666666666667
1.0535523754e-05,0.12222222222222222
1.15974592747e-05,0.12777777777777777
1.18664595606e-05,0.13333333333333333
1.32512027399e-05,0.1388888888888889
1.35718937727e-05,0.14444444444444443
1.42913770157e-05,0.15
1.65253141011e-05,0.15555555555555556
1.80854240978e-05,0.16111111111111112
1.88848256434e-05,0.16666666666666666
1.96409952267e-05,0.17222222222222222
1.99517560955e-05,0.17777777777777778
2.01119951188e-05,0.18333333333333332
2.07783342059e-05,0.18888888888888888
2.15003417153e-05,0.19444444444444445
2.18632766745e-05,0.2
2.21101828992e-05,0.20555555555555555
2.22328502999e-05,0.2111111111111111
2.24881587034e-05,0.21666666666666667
2.2707908698e-05,0.2222222222222222
2.27577388149e-05,0.22777777777777777
2.35181333281e-05,0.23333333333333334
2.37143421461e-05,0.2388888888888889
2.39865680309e-05,0.24444444444444444
2.59761666333e-05,0.25
2.73337198643e-05,0.25555555555555554
2.96764692239e-05,0.2611111111111111
3.01466101338e-05,0.26666666666666666
3.0580441707e-05,0.2722222222222222
3.16160464098e-05,0.2777777777777778
0.000111760330189,0.2833333333333333
0.000116571575882,0.28888888888888886
0.000143511766316,0.29444444444444445
0.000196825581958,0.3
0.000223520660377,0.3055555555555556
0.000239542315911,0.3111111111111111
0.00024395364479,0.31666666666666665
0.000244420772939,0.32222222222222224
0.000245016335493,0.3277777777777778
0.000245016335493,0.3333333333333333
0.000252251127439,0.3388888888888889
0.000252251127439,0.34444444444444444
0.000260956859231,0.35
0.000263470774923,0.35555555555555557
0.000268144845778,0.3611111111111111
0.00027372306578,0.36666666666666664
0.000278829707985,0.37222222222222223
0.000278993841274,0.37777777777777777
0.000285204623266,0.38333333333333336
0.000287773003213,0.3888888888888889
0.000288647893372,0.39444444444444443
0.000291690538722,0.4
0.000293968202466,0.40555555555555556
0.000308409112976,0.4111111111111111
0.000381893679341,0.4166666666666667
0.000501424012426,0.4222222222222222
0.000504502254879,0.42777777777777776
0.000671710189044,0.43333333333333335
0.00095649906615,0.4388888888888889
0.000961823163721,0.4444444444444444
0.000965240897858,0.45
0.000965525703899,0.45555555555555555
0.000967069100192,0.46111111111111114
0.000968453843371,0.4666666666666667
0.000974087466275,0.4722222222222222
0.000975154396727,0.4777777777777778
0.00097531463575,0.48333333333333334
0.000976702982347,0.4888888888888889
0.000977312823531,0.49444444444444446
0.000977690799335,0.5
0.000977910549329,0.5055555555555555
0.000977960379446,0.5111111111111111
0.000979189208662,0.5166666666666667
0.000984879109855,0.5222222222222223
0.000985349250765,0.5277777777777778
0.000986818687041,0.5333333333333333
0.00100382572263,0.5388888888888889
0.00102557645222,0.5444444444444444
0.00104394598835,0.55
0.00110550914496,0.5555555555555556
0.00110550914496,0.5611111111111111
0.00114170862453,0.5666666666666667
0.00141199705491,0.5722222222222222
0.00215003417153,0.5777777777777777
0.00218632766745,0.5833333333333334
0.00225621584738,0.5888888888888889
0.00243062941895,0.5944444444444444
0.00257162823161,0.6
0.00257162823161,0.6055555555555555
0.00293242855269,0.6111111111111112
0.00309904067576,0.6166666666666667
0.00333229979487,0.6222222222222222
0.00356254642557,0.6277777777777778
0.0035877941579,0.6333333333333333
0.0035877941579,0.6388888888888888
0.00442580805302,0.6444444444444445
0.00467944528929,0.65
0.00492344156442,0.6555555555555556
0.00605288108371,0.6611111111111111
0.00710643345911,0.6666666666666666
0.00717558831579,0.6722222222222223
0.00744042022337,0.6777777777777778
0.00813178815967,0.6833333333333333
0.00918760265246,0.6888888888888889
0.0104080671458,0.6944444444444444
0.0162635763193,0.7
0.0185173211416,0.7055555555555556
0.0225279815015,0.7111111111111111
0.02358046134,0.7166666666666667
0.024270524703,0.7222222222222222
0.0244420772939,0.7277777777777777
0.0256895861424,0.7333333333333333
0.0263138333264,0.7388888888888889
0.027684761752,0.7444444444444445
0.0279879873635,0.75
0.0287773003213,0.7555555555555555
0.0296405187736,0.7611111111111111
0.0299348716502,0.7666666666666667
0.0320119529882,0.7722222222222223
0.0322117684692,0.7777777777777778
0.0327402981524,0.7833333333333333
0.0332440747959,0.7888888888888889
0.034430720752,0.7944444444444444
0.0380164996134,0.8
0.0405472802553,0.8055555555555556
0.0405472802553,0.8111111111111111
0.0488656411765,0.8166666666666667
0.0488656411765,0.8222222222222222
0.0538388975404,0.8277777777777777
0.0570854312264,0.8333333333333334
0.0570854312264,0.8388888888888889
0.0659496306083,0.8444444444444444
0.0697163341274,0.85
0.0965240897858,0.8555555555555555
0.0976702982347,0.8611111111111112
0.0992377007729,0.8666666666666667
0.127014096775,0.8722222222222222
0.130451142455,0.8777777777777778
0.145711025514,0.8833333333333333
0.154616894801,0.8888888888888888
0.156546828378,0.8944444444444445
0.195420017145,0.9
0.195466336179,0.9055555555555556
0.243480105447,0.9111111111111111
0.292828763773,0.9166666666666666
0.31242571449,0.9222222222222223
0.394163996158,0.9277777777777778
0.421536302736,0.9333333333333333
0.498304292158,0.9388888888888889
0.509961449746,0.9444444444444444
0.51052339327,0.95
0.536137415601,0.9555555555555556
0.613081038492,0.9611111111111111
0.634625326587,0.9666666666666667
1.17210669329,0.9722222222222222
1.27078856199,0.9777777777777777
1.36830400167,0.9833333333333333
1.6207119514,0.9888888888888889
1.71726452179,0.9944444444444445
1.81397143181,1.0
