Congestion,CDF
0.0,0.005555555555555556
0.0,0.011111111111111112
0.0,0.016666666666666666
0.0,0.022222222222222223
0.0,0.027777777777777776
0.0,0.03333333333333333
0.0,0.03888888888888889
0.0,0.044444444444444446
0.0,0.05
0.0,0.05555555555555555
1.0539372339e-06,0.06111111111111111
1.21092319467e-06,0.06666666666666667
2.72568778224e-06,0.07222222222222222
3.98375124683e-06,0.07777777777777778
4.07635786952e-06,0.08333333333333333
5.38219565276e-06,0.08888888888888889
5.92112756526e-06,0.09444444444444444
8.16066399424e-06,0.1
8.20276526812e-06,0.10555555555555556
8.39219884669e-06,0.1111111111111111
8.56491992803e-06,0.11666666666666667
9.42822705121e-06,0.12222222222222222
9.646912516e-06,0.12777777777777777
1.07726481442e-05,0.13333333333333333
1.1033355925e-05,0.1388888888888889
1.16182643273e-05,0.14444444444444443
1.34343574526e-05,0.15
1.47026586317e-05,0.15555555555555556
1.53525371179e-05,0.16111111111111112
1.596726991e-05,0.16666666666666666
1.62199049019e-05,0.17222222222222222
1.63501722181e-05,0.17777777777777778
1.68918767463e-05,0.18333333333333332
1.74788372668e-05,0.18888888888888888
1.77738875118e-05,0.19444444444444445
1.79746114714e-05,0.2
1.80743347019e-05,0.20555555555555555
1.82818892653e-05,0.2111111111111111
1.84605363978e-05,0.21666666666666667
1.8501046103e-05,0.2222222222222222
1.91192135783e-05,0.22777777777777777
1.9278722764e-05,0.23333333333333334
1.95000304996e-05,0.2388888888888889
2.1117487127e-05,0.24444444444444444
2.22211185167e-05,0.25
2.41256712608e-05,0.25555555555555554
2.45078752538e-05,0.2611111111111111
2.48605613445e-05,0.26666666666666666
2.57024626647e-05,0.2722222222222222
9.08562594081e-05,0.2777777777777778
0.000181712518816,0.2833333333333333
0.000199187562342,0.28888888888888886
0.000199187562342,0.29444444444444445
0.000205069131703,0.3
0.000205069131703,0.3055555555555556
0.000310462855093,0.3111111111111111
0.000407635786952,0.31666666666666665
0.000410138263406,0.32222222222222224
0.000546070999252,0.3277777777777778
0.000816066399424,0.3333333333333333
0.000848682420369,0.3388888888888889
0.000898730573569,0.34444444444444444
0.000898730573569,0.35
0.00114789183682,0.35555555555555557
0.00174788372668,0.3611111111111111
0.00177738875118,0.36666666666666664
0.00183420478415,0.37222222222222223
0.00197599538799,0.37777777777777777
0.00209062125459,0.38333333333333336
0.00209062125459,0.3888888888888889
0.00238393613216,0.39444444444444443
0.00251938449965,0.4
0.00270901395941,0.40555555555555556
0.00289619439786,0.4111111111111111
0.00359798833698,0.4166666666666667
0.00380418431453,0.4222222222222222
0.00400254261242,0.42777777777777776
0.00492072753346,0.43333333333333335
0.00577721952626,0.4388888888888889
0.00604873615512,0.4444444444444444
0.00746911903823,0.45
0.0084613032812,0.45555555555555555
0.00974958543078,0.46111111111111114
0.0102032447429,0.4666666666666667
0.0150537720347,0.4722222222222222
0.0183142634581,0.4777777777777778
0.0183245468741,0.48333333333333334
0.0185367783817,0.4888888888888889
0.0185412961002,0.49444444444444446
0.0185841463867,0.5
0.0186036075149,0.5055555555555555
0.0186222310414,0.5111111111111111
0.0186592324634,0.5166666666666667
0.0186910397962,0.5222222222222223
0.018737839764,0.5277777777777778
0.0187390849061,0.5333333333333333
0.0187493459598,0.5388888888888889
0.0187737784335,0.5444444444444444
0.0188115051911,0.55
0.0188191826652,0.5555555555555556
0.0188320835614,0.5611111111111111
0.0188604455945,0.5666666666666667
0.0189230015934,0.5722222222222222
0.0189406448208,0.5777777777777777
0.0189413109473,0.5833333333333334
0.0189586444638,0.5888888888888889
0.0189602807084,0.5944444444444444
0.0189849228971,0.6
0.0189952673924,0.6055555555555555
0.0190012324749,0.6111111111111112
0.0190098765637,0.6166666666666667
0.0190153772319,0.6222222222222222
0.0190183650741,0.6277777777777778
0.0190239539453,0.6333333333333333
0.0190301524166,0.6388888888888888
0.0190479383424,0.6444444444444445
0.0190586504854,0.65
0.0191043542913,0.6555555555555556
0.0191350324374,0.6611111111111111
0.0191698835253,0.6666666666666666
0.0191894500791,0.6722222222222223
0.0192000929846,0.6777777777777778
0.0192103791435,0.6833333333333333
0.0192329489219,0.6888888888888889
0.0208845097246,0.6944444444444444
0.021391995377,0.7
0.0225065002147,0.7055555555555556
0.0227530093721,0.7111111111111111
0.0240964451173,0.7166666666666667
0.0260243173937,0.7222222222222222
0.0261867586387,0.7277777777777777
0.0266164301503,0.7333333333333333
0.0270259785233,0.7388888888888889
0.0279906697749,0.7444444444444445
0.468477122652,0.75
0.468477122652,0.7555555555555555
0.619471546224,0.7611111111111111
0.718820852023,0.7666666666666667
0.930180375743,0.7722222222222223
0.930180375743,0.7777777777777778
0.936954245303,0.7833333333333333
0.950768861596,0.7888888888888889
0.950768861596,0.7944444444444444
1.23894309245,0.8
1.86222310414,0.8055555555555556
1.8737839764,0.8111111111111111
1.90012324749,0.8166666666666667
1.90098765637,0.8222222222222222
2.32215496082,0.8277777777777777
2.345854966,0.8333333333333334
2.82424485782,0.8388888888888889
2.83191938071,0.8444444444444444
2.85799215965,0.85
2.98942675931,0.8555555555555555
2.98942675931,0.8611111111111112
3.77265853327,0.8666666666666667
3.80313848915,0.8722222222222222
4.18807820716,0.8777777777777778
4.73431477524,0.8833333333333333
4.85762667156,0.8888888888888888
4.89422059355,0.8944444444444445
6.08220930189,0.9
8.69370053963,0.9055555555555556
9.70118304089,0.9111111111111111
10.8126271884,0.9166666666666666
11.5761176369,0.9222222222222223
12.7315721963,0.9277777777777778
22.1716546839,0.9333333333333333
23.1890347592,0.9388888888888889
25.1123296514,0.9444444444444444
27.0083577222,0.95
27.8401776636,0.9555555555555556
29.7536809073,0.9611111111111111
31.7321293193,0.9666666666666667
32.5670696392,0.9722222222222222
33.5645840067,0.9777777777777777
34.4531141986,0.9833333333333333
34.5395425498,0.9888888888888889
36.3222181783,0.9944444444444445
37.3425426526,1.0
