Congestion,CDF
0.0,0.005555555555555556
0.0,0.011111111111111112
0.0,0.016666666666666666
0.0,0.022222222222222223
0.0,0.027777777777777776
0.0,0.03333333333333333
0.0,0.03888888888888889
0.0,0.044444444444444446
0.0,0.05
0.0,0.05555555555555555
1.0512043629e-06,0.06111111111111111
1.20778325732e-06,0.06666666666666667
2.71862004342e-06,0.07222222222222222
3.97342133542e-06,0.07777777777777778
4.0657878281e-06,0.08333333333333333
5.3682395594e-06,0.08888888888888889
5.90577401544e-06,0.09444444444444444
8.13950330149e-06,0.1
8.18149540629e-06,0.10555555555555556
8.37043778148e-06,0.1111111111111111
8.54271099513e-06,0.11666666666666667
9.40377955331e-06,0.12222222222222222
9.62189796425e-06,0.12777777777777777
1.07447145475e-05,0.13333333333333333
1.10047463101e-05,0.1388888888888889
1.15881380383e-05,0.14444444444444443
1.33995220138e-05,0.15
1.46645344739e-05,0.15555555555555556
1.5312727818e-05,0.16111111111111112
1.5925866601e-05,0.16666666666666666
1.61778465076e-05,0.17222222222222222
1.63077760391e-05,0.17777777777777778
1.68480759215e-05,0.18333333333333332
1.74335144468e-05,0.18888888888888888
1.77277996232e-05,0.19444444444444445
1.79280031034e-05,0.2
1.80274677504e-05,0.20555555555555555
1.82344841226e-05,0.2111111111111111
1.8412668021e-05,0.21666666666666667
1.84530726841e-05,0.2222222222222222
1.90696372442e-05,0.22777777777777777
1.92287328208e-05,0.23333333333333334
1.94494667031e-05,0.2388888888888889
2.10627292473e-05,0.24444444444444444
2.21634989085e-05,0.25
2.40631131261e-05,0.25555555555555554
2.444432606e-05,0.2611111111111111
2.47960976317e-05,0.26666666666666666
2.56358158923e-05,0.2722222222222222
9.06206681141e-05,0.2777777777777778
0.000181241336228,0.2833333333333333
0.000198671066771,0.28888888888888886
0.000198671066771,0.29444444444444445
0.000204537385157,0.3
0.000204537385157,0.3055555555555556
0.000309657821447,0.3111111111111111
0.00040657878281,0.31666666666666665
0.000409074770314,0.32222222222222224
0.00054465503106,0.3277777777777778
0.000813950330149,0.3333333333333333
0.000846481777387,0.3388888888888889
0.000896400155168,0.34444444444444444
0.000896400155168,0.35
0.00114491534049,0.35555555555555557
0.00174335144468,0.3611111111111111
0.00177277996232,0.36666666666666664
0.00182944867069,0.37222222222222223
0.00197087160991,0.37777777777777777
0.00208520025036,0.38333333333333336
0.00208520025036,0.3888888888888889
0.00237775455918,0.39444444444444443
0.00251285170754,0.4
0.00270198945599,0.40555555555555556
0.00288868453348,0.4111111111111111
0.00358865871309,0.4166666666666667
0.00379432002217,0.4222222222222222
0.00399216397478,0.42777777777777776
0.00490796803209,0.43333333333333335
0.0057622391316,0.4388888888888889
0.0060330517148,0.4444444444444444
0.00744975152926,0.45
0.00843936302742,0.45555555555555555
0.0142742618819,0.46111111111111114
0.014699468774,0.4666666666666667
0.0150147374359,0.4722222222222222
0.0182667743687,0.4777777777777778
0.0191201758035,0.48333333333333334
0.0208303559579,0.4888888888888889
0.0213365256944,0.49444444444444446
0.0219178901942,0.5
0.0221148990075,0.5055555555555555
0.0221188374109,0.5111111111111111
0.0221560978594,0.5166666666666667
0.0221711116572,0.5222222222222223
0.0221891982263,0.5277777777777778
0.0222213807965,0.5333333333333333
0.0222386431142,0.5388888888888889
0.0222897348948,0.5444444444444444
0.0222908246731,0.55
0.022299749291,0.5555555555555556
0.0223209959581,0.5611111111111111
0.0223537614887,0.5666666666666667
0.0223604768863,0.5722222222222222
0.0223712456515,0.5777777777777777
0.0223938387691,0.5833333333333334
0.0224481406087,0.5888888888888889
0.0224507552234,0.5944444444444444
0.0224627062588,0.6
0.0224666663728,0.6055555555555555
0.0224817314062,0.6111111111111112
0.0224824759469,0.6166666666666667
0.022504597797,0.6222222222222222
0.0225103803282,0.6277777777777778
0.0225187413585,0.6333333333333333
0.0225262966361,0.6388888888888888
0.0225310565874,0.6444444444444445
0.0225336764266,0.65
0.0225384993823,0.6555555555555556
0.0225438891159,0.6611111111111111
0.0225593938448,0.6666666666666666
0.022568700684,0.6722222222222223
0.0226084356999,0.6777777777777778
0.0226350419838,0.6833333333333333
0.0226824305778,0.6888888888888889
0.0226916631133,0.6944444444444444
0.022694010565,0.7
0.0227006477207,0.7055555555555556
0.0227201121528,0.7111111111111111
0.0240339627664,0.7166666666666667
0.0259568360485,0.7222222222222222
0.0261188560815,0.7277777777777777
0.02654741345,0.7333333333333333
0.0269558998596,0.7388888888888889
0.027918089656,0.7444444444444445
0.557270616828,0.75
0.557270616828,0.7555555555555555
0.738536595312,0.7611111111111111
0.858500315152,0.7666666666666667
1.10855558286,0.7722222222222223
1.10855558286,0.7777777777777778
1.11454123366,0.7833333333333333
1.12655282937,0.7888888888888889
1.12655282937,0.7944444444444444
1.47707319062,0.8
2.21891982263,0.8055555555555556
2.22897348948,0.8111111111111111
2.25187413585,0.8166666666666667
2.25262966361,0.8222222222222222
2.76876051758,0.8277777777777777
2.78937021263,0.8333333333333334
3.35482620874,0.8388888888888889
3.36192897824,0.8444444444444444
3.38460600573,0.85
3.54886344249,0.8555555555555555
3.54886344249,0.8611111111111112
4.47976339262,0.8666666666666667
4.50626304744,0.8722222222222222
4.99089859723,0.8777777777777778
5.61577891646,0.8833333333333333
5.77298233029,0.8888888888888888
5.80480282697,0.8944444444444445
7.23756523451,0.9
10.3078922703,0.9055555555555556
11.5337295139,0.9111111111111111
12.8499616218,0.9166666666666666
13.763704443,0.9222222222222223
15.1182046795,0.9277777777777778
26.3249643559,0.9333333333333333
27.5094129548,0.9388888888888889
29.7814241701,0.9444444444444444
32.0296717647,0.95
33.0529008891,0.9555555555555556
35.3164050875,0.9611111111111111
37.6355360063,0.9666666666666667
38.6620852355,0.9722222222222222
39.8273250257,0.9777777777777777
40.9014691125,0.9833333333333333
41.2547512139,0.9888888888888889
43.1253334239,0.9944444444444445
44.5952803013,1.0
