Congestion,CDF
0.0,0.005555555555555556
0.0,0.011111111111111112
0.0,0.016666666666666666
0.0,0.022222222222222223
0.0,0.027777777777777776
0.0,0.03333333333333333
0.0,0.03888888888888889
0.0,0.044444444444444446
0.0,0.05
0.0,0.05555555555555555
3.03711530345e-07,0.06111111111111111
3.48949941945e-07,0.06666666666666667
7.85457407668e-07,0.07222222222222222
1.14799169131e-06,0.07777777777777778
1.17467800449e-06,0.08333333333333333
1.55097934272e-06,0.08888888888888889
1.70628255304e-06,0.09444444444444444
2.35164644591e-06,0.1
2.36377870759e-06,0.10555555555555556
2.41836750111e-06,0.1111111111111111
2.46814027908e-06,0.11666666666666667
2.71691821301e-06,0.12222222222222222
2.77993647922e-06,0.12777777777777777
3.10433804643e-06,0.13333333333333333
3.17946582114e-06,0.1388888888888889
3.34801800836e-06,0.14444444444444443
3.8713588721e-06,0.15
4.23684334279e-06,0.15555555555555556
4.42411786278e-06,0.16111111111111112
4.60126450019e-06,0.16666666666666666
4.6740659513e-06,0.17222222222222222
4.7116048907e-06,0.17777777777777778
4.86770708159e-06,0.18333333333333332
5.03685062466e-06,0.18888888888888888
5.12187481638e-06,0.19444444444444445
5.17971714227e-06,0.2
5.20845423778e-06,0.20555555555555555
5.26826492865e-06,0.2111111111111111
5.31974540799e-06,0.21666666666666667
5.33141902969e-06,0.2222222222222222
5.50955543466e-06,0.22777777777777777
5.55552096025e-06,0.23333333333333334
5.61929488237e-06,0.2388888888888889
6.08539496097e-06,0.24444444444444444
6.40342678252e-06,0.25
6.95225892349e-06,0.25555555555555554
7.0623980816e-06,0.2611111111111111
7.16403110953e-06,0.26666666666666666
7.40664056492e-06,0.2722222222222222
2.61819135889e-05,0.2777777777777778
5.23638271779e-05,0.2833333333333333
5.73995845657e-05,0.28888888888888886
5.73995845657e-05,0.29444444444444445
5.90944676897e-05,0.3
5.90944676897e-05,0.3055555555555556
8.94656207242e-05,0.3111111111111111
0.000117467800449,0.31666666666666665
0.000118188935379,0.32222222222222224
0.000157360470363,0.3277777777777778
0.000235164644591,0.3333333333333333
0.000244563554997,0.3388888888888889
0.000258985857113,0.34444444444444444
0.000258985857113,0.35
0.00033078628899,0.35555555555555557
0.000503685062466,0.3611111111111111
0.000512187481638,0.36666666666666664
0.000528560073635,0.37222222222222223
0.000569419661756,0.37777777777777777
0.000602451227813,0.38333333333333336
0.000602451227813,0.3888888888888889
0.000686975341275,0.39444444444444443
0.000726007296546,0.4
0.000780652536858,0.40555555555555556
0.000834592046333,0.4111111111111111
0.00103682696543,0.4166666666666667
0.00109624615462,0.4222222222222222
0.00115340677128,0.42777777777777776
0.00141799875887,0.43333333333333335
0.00166481278677,0.4388888888888889
0.00174305533122,0.4444444444444444
0.00215236496108,0.45
0.00243828122356,0.45555555555555555
0.00433802317163,0.46111111111111114
0.00527759415178,0.4666666666666667
0.00552415691819,0.4722222222222222
0.00601825820827,0.4777777777777778
0.00616449959644,0.48333333333333334
0.0064856648034,0.4888888888888889
0.00655670098184,0.49444444444444446
0.00694383686906,0.5
0.00749938896508,0.5055555555555555
0.00754619941783,0.5111111111111111
0.00767001722038,0.5166666666666667
0.00778803616795,0.5222222222222223
0.00806602981587,0.5277777777777778
0.0222989445785,0.5333333333333333
0.0226222898275,0.5388888888888889
0.0277573712995,0.5444444444444444
0.0279577068745,0.55
0.027960510929,0.5555555555555556
0.0279865902731,0.5611111111111111
0.0279908047582,0.5666666666666667
0.0279909882716,0.5722222222222222
0.0280096955472,0.5777777777777777
0.0280322440161,0.5833333333333334
0.028080091543,0.5888888888888889
0.0280808879235,0.5944444444444444
0.0280871450103,0.6
0.0281020218888,0.6055555555555555
0.028124797324,0.6111111111111112
0.0281296540513,0.6166666666666667
0.0281356709725,0.6222222222222222
0.0281443855252,0.6277777777777778
0.0281904956039,0.6333333333333333
0.0281928533515,0.6388888888888888
0.028203943611,0.6444444444444445
0.028212699075,0.65
0.0282144679602,0.6555555555555556
0.0282235796317,0.6611111111111111
0.028230534121,0.6666666666666666
0.0282402815772,0.6722222222222223
0.0282457233012,0.6777777777777778
0.0282489599084,0.6833333333333333
0.028250884009,0.6888888888888889
0.0282541131751,0.6944444444444444
0.028257884914,0.7
0.0282688913854,0.7055555555555556
0.0282753673041,0.7111111111111111
0.0283031611748,0.7166666666666667
0.0283215341872,0.7222222222222222
0.0283549438485,0.7277777777777777
0.0283613253745,0.7333333333333333
0.0283677735481,0.7388888888888889
0.0283808094537,0.7444444444444445
0.702022198087,0.75
0.702022198087,0.7555555555555555
0.932886342438,0.7611111111111111
1.08709202713,0.7666666666666667
1.39954941358,0.7722222222222223
1.39954941358,0.7777777777777778
1.40404439617,0.7833333333333333
1.41244799542,0.7888888888888889
1.41244799542,0.7944444444444444
1.86577268488,0.8
2.80096955472,0.8055555555555556
2.8080091543,0.8111111111111111
2.82402815772,0.8166666666666667
2.82457233012,0.8222222222222222
3.49779288554,0.8277777777777777
3.51222438696,0.8333333333333334
4.21859897397,0.8388888888888889
4.22492772782,0.8444444444444444
4.24082175098,0.85
4.4597799205,0.8555555555555555
4.4597799205,0.8611111111111112
5.63128567221,0.8666666666666667
5.64981664912,0.8722222222222222
6.30101728714,0.8777777777777778
7.05033904533,0.8833333333333333
7.26439606455,0.8888888888888888
7.28666905904,0.8944444444444445
9.12141164825,0.9
12.9342948013,0.9055555555555556
14.520227078,0.9111111111111111
16.1694055284,0.9166666666666666
17.328941579,0.9222222222222223
19.0048999132,0.9277777777777778
33.0883247811,0.9333333333333333
34.5411881451,0.9388888888888889
37.3792690905,0.9444444444444444
40.200538998,0.95
41.5410572494,0.9555555555555556
44.3732106681,0.9611111111111111
47.2414959351,0.9666666666666667
48.5863271789,0.9722222222222222
50.0172330651,0.9777777777777777
51.4007657314,0.9833333333333333
52.2471275229,0.9888888888888889
54.1998462073,0.9944444444444445
56.46207519,1.0
