Congestion,CDF
0.0,0.009433962264150943
0.0,0.018867924528301886
0.0,0.02830188679245283
0.0,0.03773584905660377
0.0,0.04716981132075472
0.0,0.05660377358490566
0.0,0.0660377358490566
0.0,0.07547169811320754
0.0,0.08490566037735849
0.0,0.09433962264150944
0.0,0.10377358490566038
0.0,0.11320754716981132
0.0,0.12264150943396226
0.0,0.1320754716981132
0.0,0.14150943396226415
0.0,0.1509433962264151
0.0,0.16037735849056603
0.0,0.16981132075471697
0.0,0.1792452830188679
0.0,0.18867924528301888
0.0,0.19811320754716982
0.0,0.20754716981132076
0.0,0.2169811320754717
0.0,0.22641509433962265
0.0,0.2358490566037736
0.0,0.24528301886792453
0.0,0.25471698113207547
0.0,0.2641509433962264
0.0,0.27358490566037735
0.0,0.2830188679245283
1.8743235789e-07,0.29245283018867924
4.82870976204e-06,0.3018867924528302
5.42996806997e-06,0.3113207547169811
7.36121292281e-06,0.32075471698113206
8.30948124655e-06,0.330188679245283
1.10567959906e-05,0.33962264150943394
1.68617838264e-05,0.3490566037735849
2.1583974041e-05,0.3584905660377358
2.28426327015e-05,0.36792452830188677
2.66420669364e-05,0.37735849056603776
3.28027646733e-05,0.3867924528301887
3.355439877e-05,0.39622641509433965
3.54031928024e-05,0.4056603773584906
0.000226864414101,0.41509433962264153
0.000310972387236,0.42452830188679247
0.000310972387236,0.4339622641509434
0.000809399026537,0.44339622641509435
0.000809399026537,0.4528301886792453
0.000809399026537,0.46226415094339623
0.000829259699295,0.4716981132075472
0.000829259699295,0.4811320754716981
0.000829259699295,0.49056603773584906
0.00111987452697,0.5
0.00112200898786,0.5094339622641509
0.00112298877759,0.5188679245283019
0.00113206915806,0.5283018867924528
0.00113800502578,0.5377358490566038
0.00114193075707,0.5471698113207547
0.00115098311167,0.5566037735849056
0.00128025858355,0.5660377358490566
0.00152889306501,0.5754716981132075
0.00152889306501,0.5849056603773585
0.00157504190894,0.5943396226415094
0.00159025907922,0.6037735849056604
0.00161879805307,0.6132075471698113
0.00161879805307,0.6226415094339622
0.00176570071224,0.6320754716981132
0.00220836387684,0.6415094339622641
0.00281497233761,0.6509433962264151
0.00281497233761,0.660377358490566
0.00348781783605,0.6698113207547169
0.00348781783605,0.6792452830188679
0.00380083801943,0.6886792452830188
0.00390776232687,0.6981132075471698
0.00409589284222,0.7075471698113207
0.00440471869915,0.7169811320754716
0.00535745111653,0.7264150943396226
0.00724043346543,0.7358490566037735
0.0112903485072,0.7452830188679245
0.0114535362166,0.7547169811320755
0.0244499605794,0.7641509433962265
0.0246633552339,0.7735849056603774
0.0442980536889,0.7830188679245284
0.0442980536889,0.7924528301886793
0.0596347154706,0.8018867924528302
0.0596347154706,0.8113207547169812
0.0596347154706,0.8207547169811321
0.11812814317,0.8301886792452831
0.11812814317,0.839622641509434
0.11812814317,0.8490566037735849
0.119269430941,0.8584905660377359
0.119269430941,0.8679245283018868
0.216381870574,0.8773584905660378
0.216381870574,0.8867924528301887
0.217049655692,0.8962264150943396
0.217049655692,0.9056603773584906
0.236658145457,0.9150943396226415
0.287665420418,0.9245283018867925
0.287665420418,0.9339622641509434
0.336602696359,0.9433962264150944
0.469722130649,0.9528301886792453
0.476020855817,0.9622641509433962
1.00802541275,0.9716981132075472
1.29102748512,0.9811320754716981
1.34746663972,0.9905660377358491
4.16229942456,1.0
