Congestion,CDF
0.0113093614968,0.009433962264150943
0.0113093614968,0.018867924528301886
0.0113189245482,0.02830188679245283
0.0113189245482,0.03773584905660377
0.0113201176679,0.04716981132075472
0.0113201176679,0.05660377358490566
0.0113214787832,0.0660377358490566
0.0113214787832,0.07547169811320754
0.0113258023176,0.08490566037735849
0.0113258023176,0.09433962264150944
0.0113278929091,0.10377358490566038
0.0113278929091,0.11320754716981132
0.011333858435,0.12264150943396226
0.011333858435,0.1320754716981132
0.0113459491141,0.14150943396226415
0.0113459491141,0.1509433962264151
0.011355275127,0.16037735849056603
0.011355275127,0.16981132075471697
0.0113576828798,0.1792452830188679
0.0113576828798,0.18867924528301888
0.0113647558288,0.19811320754716982
0.0113647558288,0.20754716981132076
0.0113756005848,0.2169811320754717
0.0113756005848,0.22641509433962265
0.0113768656552,0.2358490566037736
0.0113768656552,0.24528301886792453
0.0113799405852,0.25471698113207547
0.0113799405852,0.2641509433962264
0.087236225149,0.27358490566037735
0.087236225149,0.2830188679245283
0.116042287206,0.29245283018867924
0.116042287206,0.3018867924528302
0.159827671175,0.3113207547169811
0.159827671175,0.32075471698113206
0.168432630747,0.330188679245283
0.168432630747,0.33962264150943394
0.168569757695,0.3490566037735849
0.168569757695,0.3584905660377358
0.174189009969,0.36792452830188677
0.174189009969,0.37735849056603776
0.192622433568,0.3867924528301887
0.192622433568,0.39622641509433965
0.192880040188,0.4056603773584906
0.192880040188,0.41509433962264153
0.195779902947,0.42452830188679247
0.195779902947,0.4339622641509434
0.206441055972,0.44339622641509435
0.206441055972,0.4528301886792453
0.21643834995,0.46226415094339623
0.21643834995,0.4716981132075472
0.216935430457,0.4811320754716981
0.216935430457,0.49056603773584906
0.248794649219,0.5
0.248794649219,0.5094339622641509
0.257159375466,0.5188679245283019
0.257159375466,0.5283018867924528
0.257396251981,0.5377358490566038
0.257396251981,0.5471698113207547
0.26875088383,0.5566037735849056
0.26875088383,0.5660377358490566
0.274715997134,0.5754716981132075
0.274715997134,0.5849056603773585
0.283056692887,0.5943396226415094
0.283056692887,0.6037735849056604
0.294438629754,0.6132075471698113
0.294438629754,0.6226415094339622
0.305183119627,0.6320754716981132
0.305183119627,0.6415094339622641
0.311934262541,0.6509433962264151
0.311934262541,0.660377358490566
0.31990747788,0.6698113207547169
0.31990747788,0.6792452830188679
0.328059059565,0.6886792452830188
0.328059059565,0.6981132075471698
0.359698941957,0.7075471698113207
0.359698941957,0.7169811320754716
0.366358218334,0.7264150943396226
0.366358218334,0.7358490566037735
0.366887869491,0.7452830188679245
0.366887869491,0.7547169811320755
0.394453106655,0.7641509433962265
0.394453106655,0.7735849056603774
0.395194040723,0.7830188679245284
0.395194040723,0.7924528301886793
0.448358808601,0.8018867924528302
0.448358808601,0.8113207547169812
0.449134603989,0.8207547169811321
0.449134603989,0.8301886792452831
0.461080063367,0.839622641509434
0.461080063367,0.8490566037735849
0.496876210148,0.8584905660377359
0.496876210148,0.8679245283018868
0.497727230569,0.8773584905660378
0.497727230569,0.8867924528301887
0.500690799163,0.8962264150943396
0.500690799163,0.9056603773584906
0.539218662327,0.9150943396226415
0.539218662327,0.9245283018867925
0.539990130058,0.9339622641509434
0.539990130058,0.9433962264150944
0.588237019986,0.9528301886792453
0.588237019986,0.9622641509433962
0.66209810052,0.9716981132075472
0.66209810052,0.9811320754716981
0.69138516735,0.9905660377358491
0.69138516735,1.0
