Congestion,CDF
0.0218625425361,0.005555555555555556
0.0218625425361,0.011111111111111112
0.0219611184818,0.016666666666666666
0.0219611184818,0.022222222222222223
0.0223780664574,0.027777777777777776
0.0223780664574,0.03333333333333333
0.0224510549711,0.03888888888888889
0.0224510549711,0.044444444444444446
0.0224987963902,0.05
0.0224987963902,0.05555555555555555
0.0226042339144,0.06111111111111111
0.0226042339144,0.06666666666666667
0.0228720164957,0.07222222222222222
0.0228720164957,0.07777777777777778
0.0229544084185,0.08333333333333333
0.0229544084185,0.08888888888888889
0.0231235648085,0.09444444444444444
0.0231235648085,0.1
0.023240322987,0.10555555555555556
0.023240322987,0.1111111111111111
0.0232512570258,0.11666666666666667
0.0232512570258,0.12222222222222222
0.0234580766399,0.12777777777777777
0.0234580766399,0.13333333333333333
0.0234838980103,0.1388888888888889
0.0234838980103,0.14444444444444443
0.0236142899847,0.15
0.0236142899847,0.15555555555555556
0.023628152121,0.16111111111111112
0.023628152121,0.16666666666666666
0.0237439806705,0.17222222222222222
0.0237439806705,0.17777777777777778
0.0237482379427,0.18333333333333332
0.0237482379427,0.18888888888888888
0.0237564833756,0.19444444444444445
0.0237564833756,0.2
0.0238578406431,0.20555555555555555
0.0238578406431,0.2111111111111111
0.024014905061,0.21666666666666667
0.024014905061,0.2222222222222222
0.0242085111134,0.22777777777777777
0.0242085111134,0.23333333333333334
0.0242179694982,0.2388888888888889
0.0242179694982,0.24444444444444444
0.024225823671,0.25
0.024225823671,0.25555555555555554
0.0242807559676,0.2611111111111111
0.0242807559676,0.26666666666666666
0.0245920698415,0.2722222222222222
0.0245920698415,0.2777777777777778
0.0246392850209,0.2833333333333333
0.0246392850209,0.28888888888888886
0.0246857461102,0.29444444444444445
0.0246857461102,0.3
0.0249709944449,0.3055555555555556
0.0249709944449,0.3111111111111111
0.0249897726049,0.31666666666666665
0.0249897726049,0.32222222222222224
0.0250113069062,0.3277777777777778
0.0250113069062,0.3333333333333333
0.0251403262316,0.3388888888888889
0.0251403262316,0.34444444444444444
0.0252219734677,0.35
0.0252219734677,0.35555555555555557
0.0253387323955,0.3611111111111111
0.0253387323955,0.36666666666666664
0.025464215703,0.37222222222222223
0.025464215703,0.37777777777777777
0.0254744240331,0.38333333333333336
0.0254744240331,0.3888888888888889
0.0255004947518,0.39444444444444443
0.0255004947518,0.4
0.0255700068675,0.40555555555555556
0.0255700068675,0.4111111111111111
0.0256161387236,0.4166666666666667
0.0256161387236,0.4222222222222222
0.025854550519,0.42777777777777776
0.025854550519,0.43333333333333335
0.0260048266378,0.4388888888888889
0.0260048266378,0.4444444444444444
0.715974772698,0.45
0.715974772698,0.45555555555555555
0.787972734684,0.46111111111111114
0.787972734684,0.4666666666666667
0.892649455306,0.4722222222222222
0.892649455306,0.4777777777777778
0.971272160493,0.48333333333333334
0.971272160493,0.4888888888888889
1.42291854366,0.49444444444444446
1.42291854366,0.5
1.82105498336,0.5055555555555555
1.82105498336,0.5111111111111111
1.98387723994,0.5166666666666667
1.98387723994,0.5222222222222223
2.03229882803,0.5277777777777778
2.03229882803,0.5333333333333333
2.45298314911,0.5388888888888889
2.45298314911,0.5444444444444444
2.68358548956,0.55
2.68358548956,0.5555555555555556
2.76883258973,0.5611111111111111
2.76883258973,0.5666666666666667
2.80294278461,0.5722222222222222
2.80294278461,0.5777777777777777
2.83566209668,0.5833333333333334
2.83566209668,0.5888888888888889
2.99014737572,0.5944444444444444
2.99014737572,0.6
3.02171774703,0.6055555555555555
3.02171774703,0.6111111111111112
3.13684132562,0.6166666666666667
3.13684132562,0.6222222222222222
3.24855083173,0.6277777777777778
3.24855083173,0.6333333333333333
3.27111477195,0.6388888888888888
3.27111477195,0.6444444444444445
3.34399492058,0.65
3.34399492058,0.6555555555555556
3.42232526914,0.6611111111111111
3.42232526914,0.6666666666666666
3.42567993324,0.6722222222222223
3.42567993324,0.6777777777777778
3.6499890691,0.6833333333333333
3.6499890691,0.6888888888888889
3.67980650361,0.6944444444444444
3.67980650361,0.7
3.71067244743,0.7055555555555556
3.71067244743,0.7111111111111111
3.86050655115,0.7166666666666667
3.86050655115,0.7222222222222222
4.03246106807,0.7277777777777777
4.03246106807,0.7333333333333333
4.23922080464,0.7388888888888889
4.23922080464,0.7444444444444445
5.04398005309,0.75
5.04398005309,0.7555555555555555
5.17688100623,0.7611111111111111
5.17688100623,0.7666666666666667
5.18062168213,0.7722222222222223
5.18062168213,0.7777777777777778
5.49542846036,0.7833333333333333
5.49542846036,0.7888888888888889
5.72799487045,0.7944444444444444
5.72799487045,0.8
5.77506878661,0.8055555555555556
5.77506878661,0.8111111111111111
6.05555631775,0.8166666666666667
6.05555631775,0.8222222222222222
6.38540905241,0.8277777777777777
6.38540905241,0.8333333333333334
6.51621003739,0.8388888888888889
6.51621003739,0.8444444444444444
7.00844131279,0.85
7.00844131279,0.8555555555555555
7.64557572047,0.8611111111111112
7.64557572047,0.8666666666666667
7.89756318756,0.8722222222222222
7.89756318756,0.8777777777777778
8.46354095214,0.8833333333333333
8.46354095214,0.8888888888888888
8.53531502733,0.8944444444444445
8.53531502733,0.9
9.22203259406,0.9055555555555556
9.22203259406,0.9111111111111111
9.63109775958,0.9166666666666666
9.63109775958,0.9222222222222223
10.0529239397,0.9277777777777778
10.0529239397,0.9333333333333333
11.0450398365,0.9388888888888889
11.0450398365,0.9444444444444444
11.2149928791,0.95
11.2149928791,0.9555555555555556
11.5900035753,0.9611111111111111
11.5900035753,0.9666666666666667
12.4597704556,0.9722222222222222
12.4597704556,0.9777777777777777
13.5155553514,0.9833333333333333
13.5155553514,0.9888888888888889
14.1026517911,0.9944444444444445
14.1026517911,1.0
