Congestion,CDF
0.0399492477197,0.005555555555555556
0.0399492477197,0.011111111111111112
0.0399685281446,0.016666666666666666
0.0399685281446,0.022222222222222223
0.0409270361273,0.027777777777777776
0.0409270361273,0.03333333333333333
0.0411593948993,0.03888888888888889
0.0411593948993,0.044444444444444446
0.0412987740303,0.05
0.0412987740303,0.05555555555555555
0.0416897501922,0.06111111111111111
0.0416897501922,0.06666666666666667
0.0418826799476,0.07222222222222222
0.0418826799476,0.07777777777777778
0.0426410411744,0.08333333333333333
0.0426410411744,0.08888888888888889
0.0427432580276,0.09444444444444444
0.0427432580276,0.1
0.0432415358699,0.10555555555555556
0.0432415358699,0.1111111111111111
0.043277693223,0.11666666666666667
0.043277693223,0.12222222222222222
0.0437180650298,0.12777777777777777
0.0437180650298,0.13333333333333333
0.0437500374726,0.1388888888888889
0.0437500374726,0.14444444444444443
0.0439617517604,0.15
0.0439617517604,0.15555555555555556
0.0440425766534,0.16111111111111112
0.0440425766534,0.16666666666666666
0.0441390786824,0.17222222222222222
0.0441390786824,0.17777777777777778
0.044163639052,0.18333333333333332
0.044163639052,0.18888888888888888
0.0442977126798,0.19444444444444445
0.0442977126798,0.2
0.0445414628534,0.20555555555555555
0.0445414628534,0.2111111111111111
0.0445494234913,0.21666666666666667
0.0445494234913,0.2222222222222222
0.0446714099121,0.22777777777777777
0.0446714099121,0.23333333333333334
0.0447778945854,0.2388888888888889
0.0447778945854,0.24444444444444444
0.0450594311953,0.25
0.0450594311953,0.25555555555555554
0.0453051965133,0.2611111111111111
0.0453051965133,0.26666666666666666
0.0453538472852,0.2722222222222222
0.0453538472852,0.2777777777777778
0.045538071294,0.2833333333333333
0.045538071294,0.28888888888888886
0.0457138886447,0.29444444444444445
0.0457138886447,0.3
0.0457512773114,0.3055555555555556
0.0457512773114,0.3111111111111111
0.0457522301949,0.31666666666666665
0.0457522301949,0.32222222222222224
0.0458066661375,0.3277777777777778
0.0458066661375,0.3333333333333333
0.0460645036518,0.3388888888888889
0.0460645036518,0.34444444444444444
0.0460845202733,0.35
0.0460845202733,0.35555555555555557
0.0463701467084,0.3611111111111111
0.0463701467084,0.36666666666666664
0.046449962762,0.37222222222222223
0.046449962762,0.37777777777777777
0.0465840297174,0.38333333333333336
0.0465840297174,0.3888888888888889
0.0465870789127,0.39444444444444443
0.0465870789127,0.4
0.0468008680511,0.40555555555555556
0.0468008680511,0.4111111111111111
0.0469871244782,0.4166666666666667
0.0469871244782,0.4222222222222222
0.0472892586174,0.42777777777777776
0.0472892586174,0.43333333333333335
0.0476205834881,0.4388888888888889
0.0476205834881,0.4444444444444444
1.29652884066,0.45
1.29652884066,0.45555555555555555
1.43013479178,0.46111111111111114
1.43013479178,0.4666666666666667
1.67103075926,0.4722222222222222
1.67103075926,0.4777777777777778
1.81421330507,0.48333333333333334
1.81421330507,0.4888888888888889
2.66285019709,0.49444444444444446
2.66285019709,0.5
3.46245281724,0.5055555555555555
3.46245281724,0.5111111111111111
3.75640589111,0.5166666666666667
3.75640589111,0.5222222222222223
3.8474461749,0.5277777777777778
3.8474461749,0.5333333333333333
4.73272643777,0.5388888888888889
4.73272643777,0.5444444444444444
5.01715184218,0.55
5.01715184218,0.5555555555555556
5.20113129276,0.5611111111111111
5.20113129276,0.5666666666666667
5.22034072937,0.5722222222222222
5.22034072937,0.5777777777777777
5.32149883986,0.5833333333333334
5.32149883986,0.5888888888888889
5.50518155104,0.5944444444444444
5.50518155104,0.6
5.6154704812,0.6055555555555555
5.6154704812,0.6111111111111112
5.95047594295,0.6166666666666667
5.95047594295,0.6222222222222222
6.00904047294,0.6277777777777778
6.00904047294,0.6333333333333333
6.16429987107,0.6388888888888888
6.16429987107,0.6444444444444445
6.18236458104,0.65
6.18236458104,0.6555555555555556
6.37441426725,0.6611111111111111
6.37441426725,0.6666666666666666
6.58307210151,0.6722222222222223
6.58307210151,0.6777777777777778
6.8205443314,0.6833333333333333
6.8205443314,0.6888888888888889
6.82868680159,0.6944444444444444
6.82868680159,0.7
6.89364148394,0.7055555555555556
6.89364148394,0.7111111111111111
7.29047586707,0.7166666666666667
7.29047586707,0.7222222222222222
7.75859686266,0.7277777777777777
7.75859686266,0.7333333333333333
7.82111703071,0.7388888888888889
7.82111703071,0.7444444444444445
9.27610996015,0.75
9.27610996015,0.7555555555555555
9.50462786644,0.7611111111111111
9.50462786644,0.7666666666666667
9.59114400179,0.7722222222222223
9.59114400179,0.7777777777777778
10.0275980224,0.7833333333333333
10.0275980224,0.7888888888888889
10.5249109087,0.7944444444444444
10.5249109087,0.8
10.6169469309,0.8055555555555556
10.6169469309,0.8111111111111111
11.0640590131,0.8166666666666667
11.0640590131,0.8222222222222222
11.6906556874,0.8277777777777777
11.6906556874,0.8333333333333334
11.9934495127,0.8388888888888889
11.9934495127,0.8444444444444444
12.7870537776,0.85
12.7870537776,0.8555555555555555
13.8996975053,0.8611111111111112
13.8996975053,0.8666666666666667
14.5369212376,0.8722222222222222
14.5369212376,0.8777777777777778
15.3452739511,0.8833333333333333
15.3452739511,0.8888888888888888
15.5509330473,0.8944444444444445
15.5509330473,0.9
16.7586665011,0.9055555555555556
16.7586665011,0.9111111111111111
17.5906207954,0.9166666666666666
17.5906207954,0.9222222222222223
18.2272156632,0.9277777777777778
18.2272156632,0.9333333333333333
20.057808951,0.9388888888888889
20.057808951,0.9444444444444444
20.4874660853,0.95
20.4874660853,0.9555555555555556
21.1924507565,0.9611111111111111
21.1924507565,0.9666666666666667
22.5089236689,0.9722222222222222
22.5089236689,0.9777777777777777
24.4250140329,0.9833333333333333
24.4250140329,0.9888888888888889
25.5498973987,0.9944444444444445
25.5498973987,1.0
