Congestion,CDF
0.0337369866359,0.005555555555555556
0.0337369866359,0.011111111111111112
0.0337405936795,0.016666666666666666
0.0337405936795,0.022222222222222223
0.0341851687772,0.027777777777777776
0.0341851687772,0.03333333333333333
0.0343026739618,0.03888888888888889
0.0343026739618,0.044444444444444446
0.0344755819681,0.05
0.0344755819681,0.05555555555555555
0.0345160473728,0.06111111111111111
0.0345160473728,0.06666666666666667
0.035108425366,0.07222222222222222
0.035108425366,0.07777777777777778
0.0353296117338,0.08333333333333333
0.0353296117338,0.08888888888888889
0.0363326742981,0.09444444444444444
0.0363326742981,0.1
0.0364606101616,0.10555555555555556
0.0364606101616,0.1111111111111111
0.0364897947232,0.11666666666666667
0.0364897947232,0.12222222222222222
0.0367426055382,0.12777777777777777
0.0367426055382,0.13333333333333333
0.0367965096277,0.1388888888888889
0.0367965096277,0.14444444444444443
0.0370327604259,0.15
0.0370327604259,0.15555555555555556
0.0372905962758,0.16111111111111112
0.0372905962758,0.16666666666666666
0.0373025706077,0.17222222222222222
0.0373025706077,0.17777777777777778
0.0375127193078,0.18333333333333332
0.0375127193078,0.18888888888888888
0.0376432526599,0.19444444444444445
0.0376432526599,0.2
0.0376705420055,0.20555555555555555
0.0376705420055,0.2111111111111111
0.0376945097468,0.21666666666666667
0.0376945097468,0.2222222222222222
0.0379389677816,0.22777777777777777
0.0379389677816,0.23333333333333334
0.0379921552614,0.2388888888888889
0.0379921552614,0.24444444444444444
0.0381854668135,0.25
0.0381854668135,0.25555555555555554
0.0383180315333,0.2611111111111111
0.0383180315333,0.26666666666666666
0.0387050604553,0.2722222222222222
0.0387050604553,0.2777777777777778
0.0389478186813,0.2833333333333333
0.0389478186813,0.28888888888888886
0.0390631022451,0.29444444444444445
0.0390631022451,0.3
0.0392571089178,0.3055555555555556
0.0392571089178,0.3111111111111111
0.0393187896159,0.31666666666666665
0.0393187896159,0.32222222222222224
0.0393296751585,0.3277777777777778
0.0393296751585,0.3333333333333333
0.0394473755344,0.3388888888888889
0.0394473755344,0.34444444444444444
0.0396188566778,0.35
0.0396188566778,0.35555555555555557
0.0396998752629,0.3611111111111111
0.0396998752629,0.36666666666666664
0.0399737794926,0.37222222222222223
0.0399737794926,0.37777777777777777
0.0400125377649,0.38333333333333336
0.0400125377649,0.3888888888888889
0.0401466366371,0.39444444444444443
0.0401466366371,0.4
0.0402943477364,0.40555555555555556
0.0402943477364,0.4111111111111111
0.0405619317924,0.4166666666666667
0.0405619317924,0.4222222222222222
0.040883849907,0.42777777777777776
0.040883849907,0.43333333333333335
0.0413472171437,0.4388888888888889
0.0413472171437,0.4444444444444444
1.0581302378,0.45
1.0581302378,0.45555555555555555
1.20974758489,0.46111111111111114
1.20974758489,0.4666666666666667
1.31179609959,0.4722222222222222
1.31179609959,0.4777777777777778
1.40579496829,0.48333333333333334
1.40579496829,0.4888888888888889
2.20554728296,0.49444444444444446
2.20554728296,0.5
2.78914523238,0.5055555555555555
2.78914523238,0.5111111111111111
3.20351764566,0.5166666666666667
3.20351764566,0.5222222222222223
3.28684785457,0.5277777777777778
3.28684785457,0.5333333333333333
4.04789000318,0.5388888888888889
4.04789000318,0.5444444444444444
4.335883466,0.55
4.335883466,0.5555555555555556
4.51320389841,0.5611111111111111
4.51320389841,0.5666666666666667
4.51359025628,0.5722222222222222
4.51359025628,0.5777777777777777
4.60265207513,0.5833333333333334
4.60265207513,0.5888888888888889
4.68031753275,0.5944444444444444
4.68031753275,0.6
4.76254758519,0.6055555555555555
4.76254758519,0.6111111111111112
5.09857087462,0.6166666666666667
5.09857087462,0.6222222222222222
5.13764870898,0.6277777777777778
5.13764870898,0.6333333333333333
5.28276846188,0.6388888888888888
5.28276846188,0.6444444444444445
5.3216541911,0.65
5.3216541911,0.6555555555555556
5.53384483766,0.6611111111111111
5.53384483766,0.6666666666666666
5.69630451235,0.6722222222222223
5.69630451235,0.6777777777777778
5.85573188679,0.6833333333333333
5.85573188679,0.6888888888888889
5.93773075014,0.6944444444444444
5.93773075014,0.7
5.94704404028,0.7055555555555556
5.94704404028,0.7111111111111111
6.34388646577,0.7166666666666667
6.34388646577,0.7222222222222222
6.69210104719,0.7277777777777777
6.69210104719,0.7333333333333333
6.82590005676,0.7388888888888889
6.82590005676,0.7444444444444445
8.12502776813,0.75
8.12502776813,0.7555555555555555
8.33796637376,0.7611111111111111
8.33796637376,0.7666666666666667
8.40176451817,0.7722222222222223
8.40176451817,0.7777777777777778
8.80548919632,0.7833333333333333
8.80548919632,0.7888888888888889
9.18982996736,0.7944444444444444
9.18982996736,0.8
9.25873088683,0.8055555555555556
9.25873088683,0.8111111111111111
9.71752538858,0.8166666666666667
9.71752538858,0.8222222222222222
10.2578009904,0.8277777777777777
10.2578009904,0.8333333333333334
10.5068874479,0.8388888888888889
10.5068874479,0.8444444444444444
11.233549205,0.85
11.233549205,0.8555555555555555
12.2456674844,0.8611111111111112
12.2456674844,0.8666666666666667
12.6977904543,0.8722222222222222
12.6977904543,0.8777777777777778
13.5333679731,0.8833333333333333
13.5333679731,0.8888888888888888
13.6916024725,0.8944444444444445
13.6916024725,0.9
14.7880210106,0.9055555555555556
14.7880210106,0.9111111111111111
15.4847334896,0.9166666666666666
15.4847334896,0.9222222222222223
16.1079115097,0.9277777777777778
16.1079115097,0.9333333333333333
17.7030261026,0.9388888888888889
17.7030261026,0.9444444444444444
18.0408437249,0.95
18.0408437249,0.9555555555555556
18.6639979435,0.9611111111111111
18.6639979435,0.9666666666666667
19.8975333549,0.9722222222222222
19.8975333549,0.9777777777777777
21.6019195886,0.9833333333333333
21.6019195886,0.9888888888888889
22.5763530294,0.9944444444444445
22.5763530294,1.0
