Congestion,CDF
0.0230146677846,0.005555555555555556
0.0230146677846,0.011111111111111112
0.0231554506905,0.016666666666666666
0.0231554506905,0.022222222222222223
0.0233035710958,0.027777777777777776
0.0233035710958,0.03333333333333333
0.0233528407383,0.03888888888888889
0.0233528407383,0.044444444444444446
0.0233817097441,0.05
0.0233817097441,0.05555555555555555
0.0235704104355,0.06111111111111111
0.0235704104355,0.06666666666666667
0.0238054672015,0.07222222222222222
0.0238054672015,0.07777777777777778
0.0239880558548,0.08333333333333333
0.0239880558548,0.08888888888888889
0.0242871523239,0.09444444444444444
0.0242871523239,0.1
0.0242955067157,0.10555555555555556
0.0242955067157,0.1111111111111111
0.0245245740747,0.11666666666666667
0.0245245740747,0.12222222222222222
0.024550974907,0.12777777777777777
0.024550974907,0.13333333333333333
0.024581228168,0.1388888888888889
0.024581228168,0.14444444444444443
0.0248191001046,0.15
0.0248191001046,0.15555555555555556
0.0249219090433,0.16111111111111112
0.0249219090433,0.16666666666666666
0.0251823321303,0.17222222222222222
0.0251823321303,0.17777777777777778
0.0252347861482,0.18333333333333332
0.0252347861482,0.18888888888888888
0.0253544730554,0.19444444444444445
0.0253544730554,0.2
0.025448437919,0.20555555555555555
0.025448437919,0.2111111111111111
0.0254875583647,0.21666666666666667
0.0254875583647,0.2222222222222222
0.0255747360963,0.22777777777777777
0.0255747360963,0.23333333333333334
0.0255778042772,0.2388888888888889
0.0255778042772,0.24444444444444444
0.0255844650186,0.25
0.0255844650186,0.25555555555555554
0.0257553586741,0.2611111111111111
0.0257553586741,0.26666666666666666
0.0261285439786,0.2722222222222222
0.0261285439786,0.2777777777777778
0.0266652588924,0.2833333333333333
0.0266652588924,0.28888888888888886
0.0271929165551,0.29444444444444445
0.0271929165551,0.3
0.0272762703872,0.3055555555555556
0.0272762703872,0.3111111111111111
0.0274203022478,0.31666666666666665
0.0274203022478,0.32222222222222224
0.0274523494867,0.3277777777777778
0.0274523494867,0.3333333333333333
0.0275266734954,0.3388888888888889
0.0275266734954,0.34444444444444444
0.0275562548224,0.35
0.0275562548224,0.35555555555555557
0.0278232176266,0.3611111111111111
0.0278232176266,0.36666666666666664
0.0280962139122,0.37222222222222223
0.0280962139122,0.37777777777777777
0.0281520684073,0.38333333333333336
0.0281520684073,0.3888888888888889
0.028194307799,0.39444444444444443
0.028194307799,0.4
0.0282346853116,0.40555555555555556
0.0282346853116,0.4111111111111111
0.0282837046759,0.4166666666666667
0.0282837046759,0.4222222222222222
0.0286407520457,0.42777777777777776
0.0286407520457,0.43333333333333335
0.0290553163777,0.4388888888888889
0.0290553163777,0.4444444444444444
0.69479635113,0.45
0.69479635113,0.45555555555555555
0.805221901523,0.46111111111111114
0.805221901523,0.4666666666666667
0.836547633768,0.4722222222222222
0.836547633768,0.4777777777777778
0.865952703734,0.48333333333333334
0.865952703734,0.4888888888888889
1.45823929518,0.49444444444444446
1.45823929518,0.5
1.77462564748,0.5055555555555555
1.77462564748,0.5111111111111111
2.17813940814,0.5166666666666667
2.17813940814,0.5222222222222223
2.2366644711,0.5277777777777778
2.2366644711,0.5333333333333333
2.7042039572,0.5388888888888889
2.7042039572,0.5444444444444444
3.0104707444,0.55
3.0104707444,0.5555555555555556
3.12817746792,0.5611111111111111
3.12817746792,0.5666666666666667
3.14114767273,0.5722222222222222
3.14114767273,0.5777777777777777
3.19078333106,0.5833333333333334
3.19078333106,0.5888888888888889
3.19374843211,0.5944444444444444
3.19374843211,0.6
3.25767930899,0.6055555555555555
3.25767930899,0.6111111111111112
3.44320985967,0.6166666666666667
3.44320985967,0.6222222222222222
3.50584244702,0.6277777777777778
3.50584244702,0.6333333333333333
3.6029982688,0.6388888888888888
3.6029982688,0.6444444444444445
3.66046033147,0.65
3.66046033147,0.6555555555555556
3.85934144466,0.6611111111111111
3.85934144466,0.6666666666666666
3.90680504303,0.6722222222222223
3.90680504303,0.6777777777777778
4.00376908597,0.6833333333333333
4.00376908597,0.6888888888888889
4.03697821808,0.6944444444444444
4.03697821808,0.7
4.19077363404,0.7055555555555556
4.19077363404,0.7111111111111111
4.43907860431,0.7166666666666667
4.43907860431,0.7222222222222222
4.55724804943,0.7277777777777777
4.55724804943,0.7333333333333333
4.82916703668,0.7388888888888889
4.82916703668,0.7444444444444445
5.78621356387,0.75
5.78621356387,0.7555555555555555
5.96844212175,0.7611111111111111
5.96844212175,0.7666666666666667
5.98052779583,0.7722222222222223
5.98052779583,0.7777777777777778
6.31911453737,0.7833333333333333
6.31911453737,0.7888888888888889
6.45216119031,0.7944444444444444
6.45216119031,0.8
6.47506365267,0.8055555555555556
6.47506365267,0.8111111111111111
6.96589875613,0.8166666666666667
6.96589875613,0.8222222222222222
7.3224002347,0.8277777777777777
7.3224002347,0.8333333333333334
7.4424810703,0.8388888888888889
7.4424810703,0.8444444444444444
8.03593364182,0.85
8.03593364182,0.8555555555555555
8.8405889594,0.8611111111111112
8.8405889594,0.8666666666666667
8.8834832262,0.8722222222222222
8.8834832262,0.8777777777777778
9.78690806937,0.8833333333333333
9.78690806937,0.8888888888888888
9.84493197822,0.8944444444444445
9.84493197822,0.9
10.70956764,0.9055555555555556
10.70956764,0.9111111111111111
11.1010655247,0.9166666666666666
11.1010655247,0.9222222222222223
11.7117246539,0.9277777777777778
11.7117246539,0.9333333333333333
12.8019270572,0.9388888888888889
12.8019270572,0.9444444444444444
12.9315743788,0.95
12.9315743788,0.9555555555555556
13.3835193534,0.9611111111111111
13.3835193534,0.9666666666666667
14.4585067185,0.9722222222222222
14.4585067185,0.9777777777777777
15.7122944813,0.9833333333333333
15.7122944813,0.9888888888888889
16.3640877554,0.9944444444444445
16.3640877554,1.0
