Congestion,CDF
0.0191469934659,0.005555555555555556
0.0191469934659,0.011111111111111112
0.0193158370803,0.016666666666666666
0.0193158370803,0.022222222222222223
0.0193449696195,0.027777777777777776
0.0193449696195,0.03333333333333333
0.0194131070338,0.03888888888888889
0.0194131070338,0.044444444444444446
0.0194871345361,0.05
0.0194871345361,0.05555555555555555
0.0194950206163,0.06111111111111111
0.0194950206163,0.06666666666666667
0.0198239855732,0.07222222222222222
0.0198239855732,0.07777777777777778
0.0198872554257,0.08333333333333333
0.0198872554257,0.08888888888888889
0.0201038945538,0.09444444444444444
0.0201038945538,0.1
0.0201211221696,0.10555555555555556
0.0201211221696,0.1111111111111111
0.0203349971764,0.11666666666666667
0.0203349971764,0.12222222222222222
0.0203476350751,0.12777777777777777
0.0203476350751,0.13333333333333333
0.0205251760643,0.1388888888888889
0.0205251760643,0.14444444444444443
0.0205442821374,0.15
0.0205442821374,0.15555555555555556
0.0205529232074,0.16111111111111112
0.0205529232074,0.16666666666666666
0.0206637717183,0.17222222222222222
0.0206637717183,0.17777777777777778
0.0208827936668,0.18333333333333332
0.0208827936668,0.18888888888888888
0.0210242538597,0.19444444444444445
0.0210242538597,0.2
0.0210510696783,0.20555555555555555
0.0210510696783,0.2111111111111111
0.0210575104656,0.21666666666666667
0.0210575104656,0.2222222222222222
0.0211835931927,0.22777777777777777
0.0211835931927,0.23333333333333334
0.0212137051188,0.2388888888888889
0.0212137051188,0.24444444444444444
0.021262821021,0.25
0.021262821021,0.25555555555555554
0.0213908330023,0.2611111111111111
0.0213908330023,0.26666666666666666
0.0215933418077,0.2722222222222222
0.0215933418077,0.2777777777777778
0.022295331458,0.2833333333333333
0.022295331458,0.28888888888888886
0.0228291604592,0.29444444444444445
0.0228291604592,0.3
0.0228553905026,0.3055555555555556
0.0228553905026,0.3111111111111111
0.0230722217602,0.31666666666666665
0.0230722217602,0.32222222222222224
0.023110073248,0.3277777777777778
0.023110073248,0.3333333333333333
0.0231595795869,0.3388888888888889
0.0231595795869,0.34444444444444444
0.0231769176146,0.35
0.0231769176146,0.35555555555555557
0.0232511154916,0.3611111111111111
0.0232511154916,0.36666666666666664
0.0236382707477,0.37222222222222223
0.0236382707477,0.37777777777777777
0.0237194508254,0.38333333333333336
0.0237194508254,0.3888888888888889
0.023756070993,0.39444444444444443
0.023756070993,0.4
0.0239974136837,0.40555555555555556
0.0239974136837,0.4111111111111111
0.0240087782491,0.4166666666666667
0.0240087782491,0.4222222222222222
0.0241478905165,0.42777777777777776
0.0241478905165,0.43333333333333335
0.0246397152688,0.4388888888888889
0.0246397152688,0.4444444444444444
0.565444137194,0.45
0.565444137194,0.45555555555555555
0.652861907997,0.46111111111111114
0.652861907997,0.4666666666666667
0.700807481553,0.4722222222222222
0.700807481553,0.4777777777777778
0.716393264601,0.48333333333333334
0.716393264601,0.4888888888888889
1.21410599504,0.49444444444444446
1.21410599504,0.5
1.47500763754,0.5055555555555555
1.47500763754,0.5111111111111111
1.80023812852,0.5166666666666667
1.80023812852,0.5222222222222223
1.84523099336,0.5277777777777778
1.84523099336,0.5333333333333333
2.21918310252,0.5388888888888889
2.21918310252,0.5444444444444444
2.52887771575,0.55
2.52887771575,0.5555555555555556
2.60960371257,0.5611111111111111
2.60960371257,0.5666666666666667
2.64127196042,0.5722222222222222
2.64127196042,0.5777777777777777
2.65815591701,0.5833333333333334
2.65815591701,0.5888888888888889
2.67033858194,0.5944444444444444
2.67033858194,0.6
2.74114127467,0.6055555555555555
2.74114127467,0.6111111111111112
2.83460683448,0.6166666666666667
2.83460683448,0.6222222222222222
2.9268827912,0.6277777777777778
2.9268827912,0.6333333333333333
2.96832229601,0.6388888888888888
2.96832229601,0.6444444444444445
3.07309437398,0.65
3.07309437398,0.6555555555555556
3.23266944315,0.6611111111111111
3.23266944315,0.6666666666666666
3.24399791443,0.6722222222222223
3.24399791443,0.6777777777777778
3.33078154071,0.6833333333333333
3.33078154071,0.6888888888888889
3.36258446801,0.6944444444444444
3.36258446801,0.7
3.53984761687,0.7055555555555556
3.53984761687,0.7111111111111111
3.7261948365,0.7166666666666667
3.7261948365,0.7222222222222222
3.77511320936,0.7277777777777777
3.77511320936,0.7333333333333333
4.08261854717,0.7388888888888889
4.08261854717,0.7444444444444445
4.89819772583,0.75
4.89819772583,0.7555555555555555
5.06054409152,0.7611111111111111
5.06054409152,0.7666666666666667
5.06883547839,0.7722222222222223
5.06883547839,0.7777777777777778
5.37738284651,0.7833333333333333
5.37738284651,0.7888888888888889
5.41701268175,0.7944444444444444
5.41701268175,0.8
5.42962438773,0.8055555555555556
5.42962438773,0.8111111111111111
5.92036688955,0.8166666666666667
5.92036688955,0.8222222222222222
6.20751535288,0.8277777777777777
6.20751535288,0.8333333333333334
6.26978086455,0.8388888888888889
6.26978086455,0.8444444444444444
6.81669216381,0.85
6.81669216381,0.8555555555555555
7.44990141857,0.8611111111111112
7.44990141857,0.8666666666666667
7.54771370006,0.8722222222222222
7.54771370006,0.8777777777777778
8.36541294485,0.8833333333333333
8.36541294485,0.8888888888888888
8.38257860546,0.8944444444444445
8.38257860546,0.9
9.16261726257,0.9055555555555556
9.16261726257,0.9111111111111111
9.43581758319,0.9166666666666666
9.43581758319,0.9222222222222223
10.0434234689,0.9277777777777778
10.0434234689,0.9333333333333333
10.9431486395,0.9388888888888889
10.9431486395,0.9444444444444444
10.9862510304,0.95
10.9862510304,0.9555555555555556
11.3706849653,0.9611111111111111
11.3706849653,0.9666666666666667
12.398026563,0.9722222222222222
12.398026563,0.9777777777777777
13.4811104033,0.9833333333333333
13.4811104033,0.9888888888888889
14.0080007136,0.9944444444444445
14.0080007136,1.0
