Congestion,CDF
0.0,0.009433962264150943
0.0,0.018867924528301886
0.0,0.02830188679245283
0.0,0.03773584905660377
0.0,0.04716981132075472
0.0,0.05660377358490566
0.0,0.0660377358490566
0.0,0.07547169811320754
0.0,0.08490566037735849
0.0,0.09433962264150944
0.0,0.10377358490566038
0.0,0.11320754716981132
0.0,0.12264150943396226
0.0,0.1320754716981132
0.0,0.14150943396226415
0.0,0.1509433962264151
0.0,0.16037735849056603
0.0,0.16981132075471697
0.0,0.1792452830188679
0.0,0.18867924528301888
0.0,0.19811320754716982
0.0,0.20754716981132076
0.0,0.2169811320754717
0.0,0.22641509433962265
0.0,0.2358490566037736
0.0,0.24528301886792453
0.0,0.25471698113207547
0.0,0.2641509433962264
0.0,0.27358490566037735
0.0,0.2830188679245283
4.46419774334e-08,0.29245283018867924
1.15008504751e-06,0.3018867924528302
1.29329062907e-06,0.3113207547169811
1.75326771152e-06,0.32075471698113206
1.97912291382e-06,0.330188679245283
2.63346864252e-06,0.33962264150943394
4.01608015573e-06,0.3490566037735849
5.14079475341e-06,0.3584905660377358
5.44057763055e-06,0.36792452830188677
6.34551346598e-06,0.37735849056603776
7.8128467079e-06,0.3867924528301887
7.99186826406e-06,0.39622641509433965
8.43220750113e-06,0.4056603773584906
5.40337654006e-05,0.41509433962264153
7.4066305571e-05,0.42452830188679247
7.4066305571e-05,0.4339622641509434
0.000192779803253,0.44339622641509435
0.000192779803253,0.4528301886792453
0.000192779803253,0.46226415094339623
0.000197510148189,0.4716981132075472
0.000197510148189,0.4811320754716981
0.000197510148189,0.49056603773584906
0.000304927470577,0.5
0.000364146353781,0.5094339622641509
0.000364146353781,0.5188679245283019
0.000385559606505,0.5283018867924528
0.000385559606505,0.5377358490566038
0.000525980313455,0.5471698113207547
0.00067046017553,0.5566037735849056
0.00067046017553,0.5660377358490566
0.000830716141447,0.5754716981132075
0.000830716141447,0.5849056603773585
0.00104910035269,0.5943396226415094
0.00127601879706,0.6037735849056604
0.00172450088667,0.6132075471698113
0.00268909535657,0.6226415094339622
0.0027279628292,0.6320754716981132
0.00582340531122,0.6415094339622641
0.0213718839767,0.6509433962264151
0.0264155330525,0.660377358490566
0.0341697171401,0.6698113207547169
0.0343715553712,0.6792452830188679
0.0417016791315,0.6886792452830188
0.0424541107744,0.6981132075471698
0.0450096451141,0.7075471698113207
0.0471989963865,0.7169811320754716
0.0477636351542,0.7264150943396226
0.0480000050172,0.7358490566037735
0.0498512466772,0.7452830188679245
0.0519910149857,0.7547169811320755
0.0523001683622,0.7641509433962265
0.542599191144,0.7735849056603774
1.35000014111,0.7830188679245284
1.35000014111,0.7924528301886793
1.79113631828,0.8018867924528302
1.79113631828,0.8113207547169812
1.79113631828,0.8207547169811321
3.58227263656,0.8301886792452831
3.58227263656,0.839622641509434
3.60000037629,0.8490566037735849
3.60000037629,0.8584905660377359
3.60000037629,0.8679245283018868
6.09673258844,0.8773584905660378
7.38479128211,0.8867924528301887
7.38479128211,0.8962264150943396
7.75693745515,0.9056603773584906
7.75693745515,0.9150943396226415
7.92465991575,0.9245283018867925
8.30161763101,0.9339622641509434
8.30161763101,0.9433962264150944
15.4451238117,0.9528301886792453
15.4905374137,0.9622641509433962
19.1884410021,0.9716981132075472
19.2811870151,0.9811320754716981
33.6514451165,0.9905660377358491
63.6981504412,1.0
