Congestion,CDF
0.0,0.009433962264150943
0.0,0.018867924528301886
0.0,0.02830188679245283
0.0,0.03773584905660377
0.0,0.04716981132075472
0.0,0.05660377358490566
0.0,0.0660377358490566
0.0,0.07547169811320754
0.0,0.08490566037735849
0.0,0.09433962264150944
0.0,0.10377358490566038
0.0,0.11320754716981132
0.0,0.12264150943396226
0.0,0.1320754716981132
0.0,0.14150943396226415
0.0,0.1509433962264151
0.0,0.16037735849056603
0.0,0.16981132075471697
0.0,0.1792452830188679
0.0,0.18867924528301888
0.0,0.19811320754716982
0.0,0.20754716981132076
0.0,0.2169811320754717
0.0,0.22641509433962265
0.0,0.2358490566037736
0.0,0.24528301886792453
0.0,0.25471698113207547
0.0,0.2641509433962264
0.0,0.27358490566037735
0.0,0.2830188679245283
4.63819769098e-08,0.29245283018867924
1.19491163217e-06,0.3018867924528302
1.34369890278e-06,0.3113207547169811
1.82160439989e-06,0.32075471698113206
2.05626270538e-06,0.330188679245283
2.7361127081e-06,0.33962264150943394
4.17261393336e-06,0.3490566037735849
5.34116625785e-06,0.3584905660377358
5.65263369914e-06,0.36792452830188677
6.59284099812e-06,0.37735849056603776
8.11736613027e-06,0.3867924528301887
8.303365366e-06,0.39622641509433965
8.76086759822e-06,0.4056603773584906
5.61398263082e-05,0.41509433962264153
7.69531699154e-05,0.42452830188679247
7.69531699154e-05,0.4339622641509434
0.000200293734669,0.44339622641509435
0.000200293734669,0.4528301886792453
0.000200293734669,0.46226415094339623
0.000205208453108,0.4716981132075472
0.000205208453108,0.4811320754716981
0.000205208453108,0.49056603773584906
0.000316812554296,0.5
0.00037833959748,0.5094339622641509
0.00037833959748,0.5188679245283019
0.000400587469338,0.5283018867924528
0.000400587469338,0.5377358490566038
0.000546481319966,0.5471698113207547
0.00069659253842,0.5566037735849056
0.00069659253842,0.5660377358490566
0.000863094762071,0.5754716981132075
0.000863094762071,0.5849056603773585
0.0010899908815,0.5943396226415094
0.00132575387078,0.6037735849056604
0.00179171633752,0.6132075471698113
0.00279390757102,0.6226415094339622
0.00283428997167,0.6320754716981132
0.00605038276104,0.6415094339622641
0.0166526532367,0.6509433962264151
0.0212861553371,0.660377358490566
0.0268540562141,0.6698113207547169
0.0270130140379,0.6792452830188679
0.0312174804577,0.6886792452830188
0.0332196603361,0.6981132075471698
0.0340904547558,0.7075471698113207
0.0362804442306,0.7169811320754716
0.0364607347926,0.7264150943396226
0.0368425047134,0.7358490566037735
0.0383914642434,0.7452830188679245
0.0403130829513,0.7547169811320755
0.0405533972711,0.7641509433962265
0.419175102578,0.7735849056603774
1.02545816604,0.7830188679245284
1.02545816604,0.7924528301886793
1.36051665865,0.8018867924528302
1.36051665865,0.8113207547169812
1.36051665865,0.8207547169811321
2.72103331729,0.8301886792452831
2.72103331729,0.839622641509434
2.73455510945,0.8490566037735849
2.73455510945,0.8584905660377359
2.73455510945,0.8679245283018868
4.65232959489,0.8773584905660378
5.55781221152,0.8867924528301887
5.55781221152,0.8962264150943396
5.88102182005,0.9056603773584906
5.88102182005,0.9150943396226415
6.36488538741,0.9245283018867925
6.36488538741,0.9339622641509434
6.38584660114,0.9433962264150944
11.9231844682,0.9528301886792453
11.9589499786,0.9622641509433962
14.8217190988,0.9716981132075472
14.8938133947,0.9811320754716981
25.8628282327,0.9905660377358491
49.2547977574,1.0
