Congestion,CDF
0.0,0.009433962264150943
0.0,0.018867924528301886
0.0,0.02830188679245283
0.0,0.03773584905660377
0.0,0.04716981132075472
0.0,0.05660377358490566
0.0,0.0660377358490566
0.0,0.07547169811320754
0.0,0.08490566037735849
0.0,0.09433962264150944
0.0,0.10377358490566038
0.0,0.11320754716981132
0.0,0.12264150943396226
0.0,0.1320754716981132
0.0,0.14150943396226415
0.0,0.1509433962264151
0.0,0.16037735849056603
0.0,0.16981132075471697
0.0,0.1792452830188679
0.0,0.18867924528301888
0.0,0.19811320754716982
0.0,0.20754716981132076
0.0,0.2169811320754717
0.0,0.22641509433962265
0.0,0.2358490566037736
0.0,0.24528301886792453
0.0,0.25471698113207547
0.0,0.2641509433962264
0.0,0.27358490566037735
0.0,0.2830188679245283
4.4034300068e-08,0.29245283018867924
1.13442981242e-06,0.3018867924528302
1.27568604506e-06,0.3113207547169811
1.7294018085e-06,0.32075471698113206
1.95218261531e-06,0.330188679245283
2.59762123211e-06,0.33962264150943394
3.96141230389e-06,0.3490566037735849
5.07081701516e-06,0.3584905660377358
5.36651917546e-06,0.36792452830188677
6.25913680601e-06,0.37735849056603776
7.7064963539e-06,0.3867924528301887
7.88308102545e-06,0.39622641509433965
8.31742625861e-06,0.4056603773584906
5.3298244752e-05,0.41509433962264153
7.30580971532e-05,0.42452830188679247
7.30580971532e-05,0.4339622641509434
0.000190155638068,0.44339622641509435
0.000190155638068,0.4528301886792453
0.000190155638068,0.46226415094339623
0.000194821592409,0.4716981132075472
0.000194821592409,0.4811320754716981
0.000194821592409,0.49056603773584906
0.000300776724293,0.5
0.000359189505774,0.5094339622641509
0.000359189505774,0.5188679245283019
0.000380311276137,0.5283018867924528
0.000380311276137,0.5377358490566038
0.000518820542551,0.5471698113207547
0.000661333709892,0.5566037735849056
0.000661333709892,0.5660377358490566
0.000819408232944,0.5754716981132075
0.000819408232944,0.5849056603773585
0.00103481974562,0.5943396226415094
0.00125864932139,0.6037735849056604
0.00170102656461,0.6132075471698113
0.00265249074191,0.6226415094339622
0.00269082914113,0.6320754716981132
0.0057441357134,0.6415094339622641
0.0237843627281,0.6509433962264151
0.0289802219102,0.660377358490566
0.0378563887079,0.6698113207547169
0.0380796773853,0.6792452830188679
0.0470624996252,0.6886792452830188
0.0470879326942,0.6981132075471698
0.0505485289979,0.7075471698113207
0.0523823267606,0.7169811320754716
0.0535625056187,0.7264150943396226
0.0538139664035,0.7358490566037735
0.0556109134521,0.7452830188679245
0.0578390884294,0.7547169811320755
0.058182670815,0.7641509433962265
0.604791083528,0.7735849056603774
1.5135178051,0.7830188679245284
1.5135178051,0.7924528301886793
2.0085939607,0.8018867924528302
2.0085939607,0.8113207547169812
2.0085939607,0.8207547169811321
4.0171879214,0.8301886792452831
4.0171879214,0.839622641509434
4.03604748026,0.8490566037735849
4.03604748026,0.8584905660377359
4.03604748026,0.8679245283018868
6.83298804863,0.8773584905660378
8.31449448345,0.8867924528301887
8.31449448345,0.8962264150943396
8.69406657306,0.9056603773584906
8.70667278789,0.9150943396226415
8.70667278789,0.9245283018867925
9.27619103899,0.9339622641509434
9.27619103899,0.9433962264150944
17.2243602472,0.9528301886792453
17.2746001996,0.9622641509433962
21.3783442297,0.9716981132075472
21.4814189453,0.9811320754716981
37.5806271715,0.9905660377358491
70.9427159218,1.0
