Congestion,CDF
0.0,0.009433962264150943
0.0,0.018867924528301886
0.0,0.02830188679245283
0.0,0.03773584905660377
0.0,0.04716981132075472
0.0,0.05660377358490566
0.0,0.0660377358490566
0.0,0.07547169811320754
0.0,0.08490566037735849
0.0,0.09433962264150944
0.0,0.10377358490566038
0.0,0.11320754716981132
0.0,0.12264150943396226
0.0,0.1320754716981132
0.0,0.14150943396226415
0.0,0.1509433962264151
0.0,0.16037735849056603
0.0,0.16981132075471697
0.0,0.1792452830188679
0.0,0.18867924528301888
0.0,0.19811320754716982
0.0,0.20754716981132076
0.0,0.2169811320754717
0.0,0.22641509433962265
0.0,0.2358490566037736
0.0,0.24528301886792453
0.0,0.25471698113207547
0.0,0.2641509433962264
0.0,0.27358490566037735
0.0,0.2830188679245283
4.54029823584e-08,0.29245283018867924
1.16969037047e-06,0.3018867924528302
1.31533715556e-06,0.3113207547169811
1.78315539661e-06,0.32075471698113206
2.01286071781e-06,0.330188679245283
2.67836097754e-06,0.33962264150943394
4.08454165661e-06,0.3490566037735849
5.2284290911e-06,0.3584905660377358
5.53332232085e-06,0.36792452830188677
6.45368445832e-06,0.37735849056603776
7.94603110439e-06,0.3867924528301887
8.12810441349e-06,0.39622641509433965
8.57595004583e-06,0.4056603773584906
5.4954870691e-05,0.41509433962264153
7.53289024933e-05,0.42452830188679247
7.53289024933e-05,0.4339622641509434
0.000196066090916,0.44339622641509435
0.000196066090916,0.4528301886792453
0.000196066090916,0.46226415094339623
0.000200877073315,0.4716981132075472
0.000200877073315,0.4811320754716981
0.000200877073315,0.49056603773584906
0.000310125522281,0.5
0.000370353900681,0.5094339622641509
0.000370353900681,0.5188679245283019
0.000392132181832,0.5283018867924528
0.000392132181832,0.5377358490566038
0.000534946618982,0.5471698113207547
0.000681889407049,0.5566037735849056
0.000681889407049,0.5660377358490566
0.000844877231776,0.5754716981132075
0.000844877231776,0.5849056603773585
0.00106698420509,0.5943396226415094
0.00129777089328,0.6037735849056604
0.00175389818812,0.6132075471698113
0.00273493595162,0.6226415094339622
0.00277446599209,0.6320754716981132
0.00592267600613,0.6415094339622641
0.0189911746954,0.6509433962264151
0.0238508441948,0.660377358490566
0.0305008028275,0.6698113207547169
0.0306811988278,0.6792452830188679
0.0364130679515,0.6886792452830188
0.0378306100175,0.6981132075471698
0.0395190304412,0.7075471698113207
0.0419976263103,0.7169811320754716
0.0420188158648,0.7264150943396226
0.0422114692831,0.7358490566037735
0.0441096501979,0.7452830188679245
0.0461484725812,0.7547169811320755
0.0464232027303,0.7641509433962265
0.480695965923,0.7735849056603774
1.18719757359,0.7830188679245284
1.18719757359,0.7924528301886793
1.57491098664,0.8018867924528302
1.57491098664,0.8113207547169812
1.57491098664,0.8207547169811321
3.14982197327,0.8301886792452831
3.14982197327,0.839622641509434
3.16586019623,0.8490566037735849
3.16586019623,0.8584905660377359
3.16586019623,0.8679245283018868
5.36893263229,0.8773584905660378
6.46485095811,0.8867924528301887
6.46485095811,0.8962264150943396
6.8142717382,0.9056603773584906
6.8142717382,0.9150943396226415
7.15525325845,0.9245283018867925
7.33071646083,0.9339622641509434
7.33071646083,0.9433962264150944
13.6769523744,0.9528301886792453
13.7175414744,0.9622641509433962
17.0023828591,0.9716981132075472
17.0848019038,0.9811320754716981
29.7432728972,0.9905660377358491
56.4671181368,1.0
