Congestion,CDF
0.0,0.007352941176470588
0.0,0.014705882352941176
0.0,0.022058823529411766
0.0,0.029411764705882353
0.0,0.03676470588235294
0.0,0.04411764705882353
0.0,0.051470588235294115
0.0,0.058823529411764705
0.0,0.0661764705882353
0.0,0.07352941176470588
0.0,0.08088235294117647
0.0,0.08823529411764706
0.0,0.09558823529411764
0.0,0.10294117647058823
6.61879599138e-06,0.11029411764705882
6.61879599138e-06,0.11764705882352941
6.61879599138e-06,0.125
6.61879599138e-06,0.1323529411764706
6.61879599138e-06,0.13970588235294118
6.61879599138e-06,0.14705882352941177
6.61879599138e-06,0.15441176470588236
6.61879599138e-06,0.16176470588235295
6.61879599138e-06,0.16911764705882354
6.61879599138e-06,0.17647058823529413
6.61879599138e-06,0.18382352941176472
6.61879599138e-06,0.19117647058823528
6.61879599138e-06,0.19852941176470587
6.61879599138e-06,0.20588235294117646
6.61879599138e-06,0.21323529411764705
6.61879599138e-06,0.22058823529411764
6.61879599138e-06,0.22794117647058823
6.61879599138e-06,0.23529411764705882
6.61879599138e-06,0.2426470588235294
6.61879599138e-06,0.25
6.61879599138e-06,0.25735294117647056
6.61879599138e-06,0.2647058823529412
6.61879599138e-06,0.27205882352941174
6.61879599138e-06,0.27941176470588236
6.61879599138e-06,0.2867647058823529
6.61879599138e-06,0.29411764705882354
6.61879599138e-06,0.3014705882352941
0.000165469899785,0.3088235294117647
0.000165469899785,0.3161764705882353
0.000178707491767,0.3235294117647059
0.000330939799569,0.33088235294117646
0.000330939799569,0.3382352941176471
0.000330939799569,0.34558823529411764
0.000330939799569,0.35294117647058826
0.000496409699354,0.3602941176470588
0.000551566332615,0.36764705882352944
0.000551566332615,0.375
0.000551566332615,0.38235294117647056
0.000661879599138,0.3897058823529412
0.000661879599138,0.39705882352941174
0.000661879599138,0.40441176470588236
0.000661879599138,0.4117647058823529
0.000661879599138,0.41911764705882354
0.000661879599138,0.4264705882352941
0.000661879599138,0.4338235294117647
0.000713374941476,0.4411764705882353
0.000827349498923,0.4485294117647059
0.000992819398707,0.45588235294117646
0.000992819398707,0.4632352941176471
0.00121344593175,0.47058823529411764
0.00132375919828,0.47794117647058826
0.00132375919828,0.4852941176470588
0.00136281526793,0.49264705882352944
0.00198563879741,0.5
0.00270267502981,0.5073529411764706
0.00479862709375,0.5147058823529411
0.00490894036027,0.5220588235294118
0.00634301282507,0.5294117647058824
0.0078873985564,0.5367647058823529
0.00799771182292,0.5441176470588235
0.00854927815553,0.5514705882352942
0.00865959142206,0.5588235294117647
0.00875983962909,0.5661764705882353
0.00896715691335,0.5735294117647058
0.00915159095242,0.5808823529411765
0.00924224878021,0.5882352941176471
0.00930750491183,0.5955882352941176
0.00932147102119,0.6029411764705882
0.00940744107037,0.6102941176470589
0.0096574625839,0.6176470588235294
0.00969888145394,0.625
0.0097427292677,0.6323529411764706
0.00974534029884,0.6397058823529411
0.00974679673441,0.6470588235294118
0.00976454440355,0.6544117647058824
0.00976968910725,0.6617647058823529
0.0097758453285,0.6691176470588235
0.00979283027542,0.6764705882352942
0.00979887625654,0.6838235294117647
0.00982776496979,0.6911764705882353
0.00986248765947,0.6985294117647058
0.00988015354283,0.7058823529411765
0.00988020071988,0.7132352941176471
0.00988037946776,0.7205882352941176
0.0098803947638,0.7279411764705882
0.00988073648384,0.7352941176470589
0.00988074668242,0.7426470588235294
0.00988074668242,0.75
0.243258579149,0.7573529411764706
0.244113610089,0.7647058823529411
0.244971906413,0.7720588235294118
0.470372053518,0.7794117647058824
0.470372053518,0.7867647058823529
0.49138824849,0.7941176470588235
0.49138824849,0.8014705882352942
0.732340830266,0.8088235294117647
0.814741820077,0.8161764705882353
0.814741820077,0.8235294117647058
0.814741820077,0.8308823529411765
0.930750491183,0.8382352941176471
0.974534029884,0.8455882352941176
0.979887625654,0.8529411764705882
0.988020071988,0.8602941176470589
0.98803947638,0.8676470588235294
0.988074668242,0.875
0.988074668242,0.8823529411764706
1.21879328353,0.8897058823529411
1.38553114876,0.8970588235294118
1.47067127603,0.9044117647058824
1.78462996547,0.9117647058823529
1.8549753692,0.9191176470588235
1.97607742316,0.9264705882352942
2.96422298487,0.9338235294117647
3.98234206026,0.9411764705882353
7.16130774071,0.9485294117647058
7.20309033764,0.9558823529411765
9.45368657522,0.9632352941176471
11.3195808185,0.9705882352941176
11.3909183127,0.9779411764705882
11.9019423841,0.9852941176470589
12.7986580754,0.9926470588235294
12.9349396022,1.0
