Congestion,CDF
0.0,0.007352941176470588
0.0,0.014705882352941176
0.0,0.022058823529411766
0.0,0.029411764705882353
0.0,0.03676470588235294
0.0,0.04411764705882353
0.0,0.051470588235294115
0.0,0.058823529411764705
0.0,0.0661764705882353
0.0,0.07352941176470588
0.0,0.08088235294117647
0.0,0.08823529411764706
0.0,0.09558823529411764
0.0,0.10294117647058823
4.8541550057e-06,0.11029411764705882
4.8541550057e-06,0.11764705882352941
4.8541550057e-06,0.125
4.8541550057e-06,0.1323529411764706
4.8541550057e-06,0.13970588235294118
4.8541550057e-06,0.14705882352941177
4.8541550057e-06,0.15441176470588236
4.8541550057e-06,0.16176470588235295
4.8541550057e-06,0.16911764705882354
4.8541550057e-06,0.17647058823529413
4.8541550057e-06,0.18382352941176472
4.8541550057e-06,0.19117647058823528
4.8541550057e-06,0.19852941176470587
4.8541550057e-06,0.20588235294117646
4.8541550057e-06,0.21323529411764705
4.8541550057e-06,0.22058823529411764
4.8541550057e-06,0.22794117647058823
4.8541550057e-06,0.23529411764705882
4.8541550057e-06,0.2426470588235294
4.8541550057e-06,0.25
4.8541550057e-06,0.25735294117647056
4.8541550057e-06,0.2647058823529412
4.8541550057e-06,0.27205882352941174
4.8541550057e-06,0.27941176470588236
4.8541550057e-06,0.2867647058823529
4.8541550057e-06,0.29411764705882354
4.8541550057e-06,0.3014705882352941
0.000121353875143,0.3088235294117647
0.000121353875143,0.3161764705882353
0.000131062185154,0.3235294117647059
0.000242707750285,0.33088235294117646
0.000242707750285,0.3382352941176471
0.000242707750285,0.34558823529411764
0.000242707750285,0.35294117647058826
0.000364061625428,0.3602941176470588
0.000404512917142,0.36764705882352944
0.000404512917142,0.375
0.000404512917142,0.38235294117647056
0.00048541550057,0.3897058823529412
0.00048541550057,0.39705882352941174
0.00048541550057,0.40441176470588236
0.00048541550057,0.4117647058823529
0.00048541550057,0.41911764705882354
0.00048541550057,0.4264705882352941
0.00048541550057,0.4338235294117647
0.000606769375713,0.4411764705882353
0.000728123250855,0.4485294117647059
0.000728123250855,0.45588235294117646
0.000889928417712,0.4632352941176471
0.00097083100114,0.47058823529411764
0.00097083100114,0.47794117647058826
0.00145624650171,0.4852941176470588
0.00198211329399,0.49264705882352944
0.00351926237913,0.5
0.00360016496256,0.5073529411764706
0.00465189854713,0.5147058823529411
0.00578453471513,0.5220588235294118
0.00586543729856,0.5294117647058824
0.0062699502157,0.5367647058823529
0.00635085279913,0.5441176470588235
0.0068362682997,0.5514705882352942
0.0152814206192,0.5588235294117647
0.0159148888095,0.5661764705882353
0.0227304062411,0.5735294117647058
0.0228771268237,0.5808823529411765
0.0229452485205,0.5882352941176471
0.0229999537047,0.5955882352941176
0.0230325500682,0.6029411764705882
0.0231430466261,0.6102941176470589
0.0233352705157,0.6176470588235294
0.0233581744576,0.625
0.023396006418,0.6323529411764706
0.0233972004641,0.6397058823529411
0.0233979560708,0.6470588235294118
0.0234168532699,0.6544117647058824
0.0234227725594,0.6617647058823529
0.0234386450938,0.6691176470588235
0.0234476843827,0.6764705882352942
0.0234498719578,0.6838235294117647
0.0234798518772,0.6911764705882353
0.0235118646631,0.6985294117647058
0.0235286121641,0.7058823529411765
0.0235286328327,0.7132352941176471
0.0235287754561,0.7205882352941176
0.0235287819337,0.7279411764705882
0.0235291204307,0.7352941176470589
0.0235291247498,0.7426470588235294
0.0235291247498,0.75
0.585421331748,0.7573529411764706
0.586246798945,0.7647058823529411
0.61467896546,0.7720588235294118
1.15715233131,0.7794117647058824
1.15715233131,0.7867647058823529
1.17399259386,0.7941176470588235
1.17399259386,0.8014705882352942
1.75626399524,0.8088235294117647
1.95242721601,0.8161764705882353
1.95242721601,0.8235294117647058
1.95242721601,0.8308823529411765
2.30325500682,0.8382352941176471
2.33972004641,0.8455882352941176
2.34498719578,0.8529411764705882
2.35286328327,0.8602941176470589
2.35287819337,0.8676470588235294
2.35291247498,0.875
2.35291247498,0.8823529411764706
2.92521693883,0.8897058823529411
3.45167718336,0.8970588235294118
3.51876103213,0.9044117647058824
4.28824466177,0.9117647058823529
4.6032503773,0.9191176470588235
4.70575573898,0.9264705882352942
7.05873699303,0.9338235294117647
9.55696484305,0.9411764705882353
17.0564640306,0.9485294117647058
17.3358888877,0.9558823529411765
22.5340703068,0.9632352941176471
27.6638570725,0.9705882352941176
28.3966958483,0.9779411764705882
29.1919991344,0.9852941176470589
30.6844085307,0.9926470588235294
32.2758974116,1.0
