Congestion,CDF
0.0,0.007352941176470588
0.0,0.014705882352941176
0.0,0.022058823529411766
0.0,0.029411764705882353
0.0,0.03676470588235294
0.0,0.04411764705882353
0.0,0.051470588235294115
0.0,0.058823529411764705
0.0,0.0661764705882353
0.0,0.07352941176470588
0.0,0.08088235294117647
0.0,0.08823529411764706
0.0,0.09558823529411764
0.0,0.10294117647058823
4.77363375123e-06,0.11029411764705882
4.77363375123e-06,0.11764705882352941
4.77363375123e-06,0.125
4.77363375123e-06,0.1323529411764706
4.77363375123e-06,0.13970588235294118
4.77363375123e-06,0.14705882352941177
4.77363375123e-06,0.15441176470588236
4.77363375123e-06,0.16176470588235295
4.77363375123e-06,0.16911764705882354
4.77363375123e-06,0.17647058823529413
4.77363375123e-06,0.18382352941176472
4.77363375123e-06,0.19117647058823528
4.77363375123e-06,0.19852941176470587
4.77363375123e-06,0.20588235294117646
4.77363375123e-06,0.21323529411764705
4.77363375123e-06,0.22058823529411764
4.77363375123e-06,0.22794117647058823
4.77363375123e-06,0.23529411764705882
4.77363375123e-06,0.2426470588235294
4.77363375123e-06,0.25
4.77363375123e-06,0.25735294117647056
4.77363375123e-06,0.2647058823529412
4.77363375123e-06,0.27205882352941174
4.77363375123e-06,0.27941176470588236
4.77363375123e-06,0.2867647058823529
4.77363375123e-06,0.29411764705882354
4.77363375123e-06,0.3014705882352941
0.000119340843781,0.3088235294117647
0.000119340843781,0.3161764705882353
0.000128888111283,0.3235294117647059
0.000238681687562,0.33088235294117646
0.000238681687562,0.3382352941176471
0.000238681687562,0.34558823529411764
0.000238681687562,0.35294117647058826
0.000358022531342,0.3602941176470588
0.000397802812603,0.36764705882352944
0.000397802812603,0.375
0.000397802812603,0.38235294117647056
0.000477363375123,0.3897058823529412
0.000477363375123,0.39705882352941174
0.000477363375123,0.40441176470588236
0.000477363375123,0.4117647058823529
0.000477363375123,0.41911764705882354
0.000477363375123,0.4264705882352941
0.000477363375123,0.4338235294117647
0.000596704218904,0.4411764705882353
0.000716045062685,0.4485294117647059
0.000716045062685,0.45588235294117646
0.000875166187726,0.4632352941176471
0.000954726750246,0.47058823529411764
0.000954726750246,0.47794117647058826
0.00143209012537,0.4852941176470588
0.00194923378175,0.49264705882352944
0.00346088446964,0.5
0.00354044503216,0.5073529411764706
0.00457473234493,0.5147058823529411
0.00568858022022,0.5220588235294118
0.00576814078274,0.5294117647058824
0.00616594359534,0.5367647058823529
0.00624550415786,0.5441176470588235
0.00672286753298,0.5514705882352942
0.0175452353502,0.5588235294117647
0.0181432975058,0.5661764705882353
0.024462634269,0.5735294117647058
0.0246046912701,0.5808823529411765
0.0246584103465,0.5882352941176471
0.0247113471453,0.5955882352941176
0.0247407594243,0.6029411764705882
0.0248525531779,0.6102941176470589
0.0250427564491,0.6176470588235294
0.0250645328912,0.625
0.0251021922653,0.6323529411764706
0.0251033015634,0.6397058823529411
0.0251040459401,0.6470588235294118
0.0251229402055,0.6544117647058824
0.0251288947447,0.6617647058823529
0.0251454121263,0.6691176470588235
0.0251539207174,0.6764705882352942
0.0251559403912,0.6838235294117647
0.0251859848134,0.6911764705882353
0.0252179396072,0.6985294117647058
0.025234658786,0.7058823529411765
0.0252346784651,0.7132352941176471
0.0252348207638,0.7205882352941176
0.0252348270454,0.7279411764705882
0.0252351656301,0.7352941176470589
0.0252351698186,0.7426470588235294
0.0252351698186,0.75
0.628073505137,0.7573529411764706
0.628898509779,0.7647058823529411
0.661891280532,0.7720588235294118
1.24262765889,0.7794117647058824
1.24262765889,0.7867647058823529
1.25929924067,0.7941176470588235
1.25929924067,0.8014705882352942
1.88422051541,0.8088235294117647
2.09460183974,0.8161764705882353
2.09460183974,0.8235294117647058
2.09460183974,0.8308823529411765
2.47407594243,0.8382352941176471
2.51033015634,0.8455882352941176
2.51559403912,0.8529411764705882
2.52346784651,0.8602941176470589
2.52348270454,0.8676470588235294
2.52351698186,0.875
2.52351698186,0.8823529411764706
3.13847809915,0.8897058823529411
3.70846869355,0.8970588235294118
3.77469131241,0.9044117647058824
4.60105512886,0.9117647058823529
4.94521065696,0.9191176470588235
5.04696478092,0.9264705882352942
7.57055052673,0.9338235294117647
10.2536293218,0.9411764705882353
18.2933475425,0.9485294117647058
18.6015877544,0.9558823529411765
24.1690425837,0.9632352941176471
29.7015305318,0.9705882352941176
30.4582751087,0.9779411764705882
31.4560540669,0.9852941176470589
32.9187442357,0.9926470588235294
34.7330739863,1.0
