Congestion,CDF
0.0,0.007352941176470588
0.0,0.014705882352941176
0.0,0.022058823529411766
0.0,0.029411764705882353
0.0,0.03676470588235294
0.0,0.04411764705882353
0.0,0.051470588235294115
0.0,0.058823529411764705
0.0,0.0661764705882353
0.0,0.07352941176470588
0.0,0.08088235294117647
0.0,0.08823529411764706
0.0,0.09558823529411764
0.0,0.10294117647058823
7.25290449196e-06,0.11029411764705882
7.25290449196e-06,0.11764705882352941
7.25290449196e-06,0.125
7.25290449196e-06,0.1323529411764706
7.25290449196e-06,0.13970588235294118
7.25290449196e-06,0.14705882352941177
7.25290449196e-06,0.15441176470588236
7.25290449196e-06,0.16176470588235295
7.25290449196e-06,0.16911764705882354
7.25290449196e-06,0.17647058823529413
7.25290449196e-06,0.18382352941176472
7.25290449196e-06,0.19117647058823528
7.25290449196e-06,0.19852941176470587
7.25290449196e-06,0.20588235294117646
7.25290449196e-06,0.21323529411764705
7.25290449196e-06,0.22058823529411764
7.25290449196e-06,0.22794117647058823
7.25290449196e-06,0.23529411764705882
7.25290449196e-06,0.2426470588235294
7.25290449196e-06,0.25
7.25290449196e-06,0.25735294117647056
7.25290449196e-06,0.2647058823529412
7.25290449196e-06,0.27205882352941174
7.25290449196e-06,0.27941176470588236
7.25290449196e-06,0.2867647058823529
7.25290449196e-06,0.29411764705882354
7.25290449196e-06,0.3014705882352941
0.000181322612299,0.3088235294117647
0.000181322612299,0.3161764705882353
0.000195828421283,0.3235294117647059
0.000362645224598,0.33088235294117646
0.000362645224598,0.3382352941176471
0.000362645224598,0.34558823529411764
0.000362645224598,0.35294117647058826
0.000543967836897,0.3602941176470588
0.000604408707664,0.36764705882352944
0.000604408707664,0.375
0.000604408707664,0.38235294117647056
0.000669374752877,0.3897058823529412
0.000725290449196,0.39705882352941174
0.000725290449196,0.40441176470588236
0.000725290449196,0.4117647058823529
0.000725290449196,0.41911764705882354
0.000725290449196,0.4264705882352941
0.000725290449196,0.4338235294117647
0.000725290449196,0.4411764705882353
0.000906613061495,0.4485294117647059
0.00108793567379,0.45588235294117646
0.00108793567379,0.4632352941176471
0.00127608249009,0.47058823529411764
0.00132969915686,0.47794117647058826
0.00145058089839,0.4852941176470588
0.00145058089839,0.49264705882352944
0.00217587134759,0.5
0.00296160266755,0.5073529411764706
0.00525835575667,0.5147058823529411
0.00537923749821,0.5220588235294118
0.00695070013813,0.5294117647058824
0.00698585753531,0.5367647058823529
0.00720694603488,0.5441176470588235
0.00739431987752,0.5514705882352942
0.00749756261322,0.5588235294117647
0.0075625459136,0.5661764705882353
0.00767000251512,0.5735294117647058
0.00794101947456,0.5808823529411765
0.00798698499363,0.5882352941176471
0.00803405017337,0.5955882352941176
0.00803666049857,0.6029411764705882
0.00803858960376,0.6102941176470589
0.00805569407172,0.6176470588235294
0.00806062410003,0.625
0.00806483890675,0.6323529411764706
0.00808340584316,0.6397058823529411
0.00809054112195,0.6470588235294118
0.00811976043303,0.6544117647058824
0.00815591320987,0.6617647058823529
0.00817403449307,0.6691176470588235
0.00817408166977,0.6764705882352942
0.0081742970022,0.6838235294117647
0.00817431229818,0.6911764705882353
0.00817466651247,0.6985294117647058
0.00817467671103,0.7058823529411765
0.00817467671103,0.7132352941176471
0.00864304451959,0.7205882352941176
0.00876392626112,0.7279411764705882
0.00936833496879,0.7352941176470589
0.00948921671032,0.7426470588235294
0.0102145071595,0.75
0.200151519561,0.7573529411764706
0.201392351793,0.7647058823529411
0.202263528049,0.7720588235294118
0.383500125756,0.7794117647058824
0.383500125756,0.7867647058823529
0.405988021651,0.7941176470588235
0.405988021651,0.8014705882352942
0.604177055379,0.8088235294117647
0.672343349843,0.8161764705882353
0.672343349843,0.8235294117647058
0.672343349843,0.8308823529411765
0.75625459136,0.8382352941176471
0.803666049857,0.8455882352941176
0.809054112195,0.8529411764705882
0.817408166977,0.8602941176470589
0.817431229818,0.8676470588235294
0.817467671103,0.875
0.817467671103,0.8823529411764706
1.00525131217,0.8897058823529411
1.12293211351,0.8970588235294118
1.21432860597,0.9044117647058824
1.47104184921,0.9117647058823529
1.50601085268,0.9191176470588235
1.63486093004,0.9264705882352942
2.45240199345,0.9338235294117647
3.28466572921,0.9411764705882353
5.92433806782,0.9485294117647058
5.93330965162,0.9558823529411765
7.8182607603,0.9632352941176471
9.26083837134,0.9705882352941176
9.32777584663,0.9779411764705882
9.83907325695,0.9852941176470589
10.5597678604,0.9926470588235294
10.6873761094,1.0
