Congestion,CDF
0.0,0.009433962264150943
0.0,0.018867924528301886
0.0,0.02830188679245283
0.0,0.03773584905660377
0.0,0.04716981132075472
0.0,0.05660377358490566
0.0,0.0660377358490566
0.0,0.07547169811320754
0.0,0.08490566037735849
0.0,0.09433962264150944
0.0,0.10377358490566038
0.0,0.11320754716981132
0.0,0.12264150943396226
0.0,0.1320754716981132
0.0,0.14150943396226415
0.0,0.1509433962264151
0.0,0.16037735849056603
0.0,0.16981132075471697
0.0,0.1792452830188679
0.0,0.18867924528301888
0.0,0.19811320754716982
0.0,0.20754716981132076
0.0,0.2169811320754717
0.0,0.22641509433962265
0.0,0.2358490566037736
0.0,0.24528301886792453
0.0,0.25471698113207547
0.0,0.2641509433962264
0.0,0.27358490566037735
0.0,0.2830188679245283
7.91968716942e-08,0.29245283018867924
2.04030249514e-06,0.3018867924528302
2.29435562451e-06,0.3113207547169811
3.11037561456e-06,0.32075471698113206
3.51105288082e-06,0.330188679245283
4.67189157344e-06,0.33962264150943394
7.12470645552e-06,0.3490566037735849
7.60590712598e-06,0.3584905660377358
8.5856968531e-06,0.36792452830188677
9.12000063391e-06,0.37735849056603776
9.65182891353e-06,0.3867924528301887
1.12572257031e-05,0.39622641509433965
1.38603407346e-05,0.4056603773584906
1.41779330105e-05,0.41509433962264153
1.49591145814e-05,0.42452830188679247
2.36019450412e-05,0.4339622641509434
2.75276763337e-05,0.44339622641509435
3.65800309327e-05,0.4528301886792453
9.58583250926e-05,0.46226415094339623
0.000131396950503,0.4716981132075472
0.000131396950503,0.4811320754716981
0.00016464112484,0.49056603773584906
0.000342000023772,0.5
0.000342000023772,0.5094339622641509
0.000342000023772,0.5188679245283019
0.000350391868008,0.5283018867924528
0.000350391868008,0.5377358490566038
0.000350391868008,0.5471698113207547
0.000540955019284,0.5566037735849056
0.00064601197609,0.5660377358490566
0.00064601197609,0.5754716981132075
0.000684000047543,0.5849056603773585
0.000684000047543,0.5943396226415094
0.000933112684368,0.6037735849056604
0.00106329422093,0.6132075471698113
0.00118942644458,0.6226415094339622
0.00118942644458,0.6320754716981132
0.0014737277211,0.6415094339622641
0.0014737277211,0.6509433962264151
0.00186115111388,0.660377358490566
0.00226371461929,0.6698113207547169
0.0022817721378,0.6792452830188679
0.0030593419761,0.6886792452830188
0.00414604650155,0.6981132075471698
0.00477057586092,0.7075471698113207
0.00483952850192,0.7169811320754716
0.00553350192305,0.7264150943396226
0.00828490563826,0.7358490566037735
0.010330982402,0.7452830188679245
0.0188141424684,0.7547169811320755
0.0255713943454,0.7641509433962265
0.026703514476,0.7735849056603774
0.0903853419547,0.7830188679245284
0.148476576581,0.7924528301886793
0.155476743808,0.8018867924528302
0.155476743808,0.8113207547169812
0.155476743808,0.8207547169811321
0.155629741586,0.8301886792452831
0.155629741586,0.839622641509434
0.274892518259,0.8490566037735849
0.274892518259,0.8584905660377359
0.276824300051,0.8679245283018868
0.283123025219,0.8773584905660378
0.290759425986,0.8867924528301887
0.290759425986,0.8962264150943396
0.310953487616,0.9056603773584906
0.310953487616,0.9150943396226415
0.415012644229,0.9245283018867925
0.415012644229,0.9339622641509434
0.415012644229,0.9433962264150944
2.38882832714,0.9528301886792453
2.38882832714,0.9622641509433962
3.89177193711,0.9716981132075472
8.03440136954,0.9811320754716981
8.37403740873,0.9905660377358491
22.0790149059,1.0
