Congestion,CDF
0.0,0.009433962264150943
0.0,0.018867924528301886
0.0,0.02830188679245283
0.0,0.03773584905660377
0.0,0.04716981132075472
0.0,0.05660377358490566
0.0,0.0660377358490566
0.0,0.07547169811320754
0.0,0.08490566037735849
0.0,0.09433962264150944
0.0,0.10377358490566038
0.0,0.11320754716981132
0.0,0.12264150943396226
0.0,0.1320754716981132
0.0,0.14150943396226415
0.0,0.1509433962264151
0.0,0.16037735849056603
0.0,0.16981132075471697
0.0,0.1792452830188679
0.0,0.18867924528301888
0.0,0.19811320754716982
0.0,0.20754716981132076
0.0,0.2169811320754717
0.0,0.22641509433962265
0.0,0.2358490566037736
0.0,0.24528301886792453
0.0,0.25471698113207547
0.0,0.2641509433962264
0.0,0.27358490566037735
0.0,0.2830188679245283
1.1854309458e-07,0.29245283018867924
3.05395612831e-06,0.3018867924528302
3.43422675643e-06,0.3113207547169811
4.65565801741e-06,0.32075471698113206
5.2553979068e-06,0.330188679245283
6.99295910068e-06,0.33962264150943394
7.60590712598e-06,0.3490566037735849
8.5856968531e-06,0.3584905660377358
1.06643701089e-05,0.36792452830188677
1.36509570971e-05,0.37735849056603776
1.44470058387e-05,0.3867924528301887
1.68499884236e-05,0.39622641509433965
2.07463710051e-05,0.4056603773584906
2.12217480042e-05,0.41509433962264153
2.23910325841e-05,0.42452830188679247
2.36019450412e-05,0.4339622641509434
2.75276763337e-05,0.44339622641509435
2.89933771599e-05,0.4528301886792453
3.65800309327e-05,0.46226415094339623
0.000143482214066,0.4716981132075472
0.000196676974706,0.4811320754716981
0.000196676974706,0.49056603773584906
0.000269087187915,0.5
0.000285628317483,0.5094339622641509
0.000479284741346,0.5188679245283019
0.00051191089114,0.5283018867924528
0.00051191089114,0.5377358490566038
0.00051191089114,0.5471698113207547
0.000524471932551,0.5566037735849056
0.000524471932551,0.5660377358490566
0.000524471932551,0.5754716981132075
0.000809709785789,0.5849056603773585
0.000966960653159,0.5943396226415094
0.000966960653159,0.6037735849056604
0.00102382178228,0.6132075471698113
0.00102382178228,0.6226415094339622
0.00139669740522,0.6320754716981132
0.00178035178031,0.6415094339622641
0.00178035178031,0.6509433962264151
0.00220589829991,0.660377358490566
0.00220589829991,0.6698113207547169
0.0022817721378,0.6792452830188679
0.00264265151558,0.6886792452830188
0.00278579958781,0.6981132075471698
0.00338836282894,0.7075471698113207
0.00457927008312,0.7169811320754716
0.00714067125867,0.7264150943396226
0.00724388063132,0.7358490566037735
0.00888676462531,0.7452830188679245
0.0100907695468,0.7547169811320755
0.0100907695468,0.7641509433962265
0.0100907695468,0.7735849056603774
0.0134798833504,0.7830188679245284
0.0134798833504,0.7924528301886793
0.015251721308,0.8018867924528302
0.0154635732169,0.8113207547169812
0.0201815390936,0.8207547169811321
0.0201815390936,0.8301886792452831
0.0202861735229,0.839622641509434
0.021521267829,0.8490566037735849
0.0237031793276,0.8584905660377359
0.0237031793276,0.8679245283018868
0.024309715441,0.8773584905660378
0.024309715441,0.8867924528301887
0.0256349611195,0.8962264150943396
0.0319336862875,0.9056603773584906
0.035946355601,0.9150943396226415
0.035946355601,0.9245283018867925
0.035946355601,0.9339622641509434
0.054503752373,0.9433962264150944
1.02080898086,0.9528301886792453
1.02080898086,0.9622641509433962
1.47918009031,0.9716981132075472
6.11391600422,0.9811320754716981
6.48444429605,0.9905660377358491
14.7522343961,1.0
