Congestion,CDF
0.0,0.009433962264150943
0.0,0.018867924528301886
0.0,0.02830188679245283
0.0,0.03773584905660377
0.0,0.04716981132075472
0.0,0.05660377358490566
0.0,0.0660377358490566
0.0,0.07547169811320754
0.0,0.08490566037735849
0.0,0.09433962264150944
0.0,0.10377358490566038
0.0,0.11320754716981132
0.0,0.12264150943396226
0.0,0.1320754716981132
0.0,0.14150943396226415
0.0,0.1509433962264151
0.0,0.16037735849056603
0.0,0.16981132075471697
0.0,0.1792452830188679
0.0,0.18867924528301888
0.0,0.19811320754716982
0.0,0.20754716981132076
0.0,0.2169811320754717
0.0,0.22641509433962265
0.0,0.2358490566037736
0.0,0.24528301886792453
0.0,0.25471698113207547
0.0,0.2641509433962264
0.0,0.27358490566037735
0.0,0.2830188679245283
4.99085548743e-08,0.29245283018867924
1.28576478919e-06,0.3018867924528302
1.44586485726e-06,0.3113207547169811
1.96010711936e-06,0.32075471698113206
2.21260728638e-06,0.330188679245283
2.94414857521e-06,0.33962264150943394
4.48987182816e-06,0.3490566037735849
5.74727312272e-06,0.3584905660377358
6.0824224829e-06,0.36792452830188677
7.09411691037e-06,0.37735849056603776
8.73455682441e-06,0.3867924528301887
8.93469820866e-06,0.39622641509433965
9.42698587691e-06,0.4056603773584906
6.04083264364e-05,0.41509433962264153
8.28041786778e-05,0.42452830188679247
8.28041786778e-05,0.4339622641509434
0.000215522742102,0.44339622641509435
0.000215522742102,0.4528301886792453
0.000215522742102,0.46226415094339623
0.000220811143141,0.4716981132075472
0.000220811143141,0.4811320754716981
0.000220811143141,0.49056603773584906
0.000340900880135,0.5
0.000407106031695,0.5094339622641509
0.000407106031695,0.5188679245283019
0.000431045484204,0.5283018867924528
0.000431045484204,0.5377358490566038
0.000588032135809,0.5471698113207547
0.000749556815923,0.5566037735849056
0.000749556815923,0.5660377358490566
0.000928718764581,0.5754716981132075
0.000928718764581,0.5849056603773585
0.00117286656038,0.5943396226415094
0.00142655540402,0.6037735849056604
0.00192794656692,0.6132075471698113
0.00300633777627,0.6226415094339622
0.00304979058689,0.6320754716981132
0.00651041374599,0.6415094339622641
0.0114661403092,0.6509433962264151
0.0153607754212,0.660377358490566
0.0188588949127,0.6698113207547169
0.0189741643512,0.6792452830188679
0.0202319282473,0.6886792452830188
0.0225861317471,0.6981132075471698
0.0232412848632,0.7075471698113207
0.0241680363498,0.7169811320754716
0.0242084413211,0.7264150943396226
0.0257078156325,0.7358490566037735
0.0262184320418,0.7452830188679245
0.0278555785828,0.7547169811320755
0.0280270457507,0.7641509433962265
0.286904669531,0.7735849056603774
0.680862412155,0.7830188679245284
0.680862412155,0.7924528301886793
0.906301363119,0.8018867924528302
0.906301363119,0.8113207547169812
0.906301363119,0.8207547169811321
1.81260272624,0.8301886792452831
1.81260272624,0.839622641509434
1.81563309908,0.8490566037735849
1.81563309908,0.8584905660377359
1.81563309908,0.8679245283018868
3.10828096594,0.8773584905660378
3.63668036232,0.8867924528301887
3.63668036232,0.8962264150943396
3.90152825604,0.9056603773584906
3.90152825604,0.9150943396226415
4.3101620392,0.9245283018867925
4.3101620392,0.9339622641509434
4.60823262637,0.9433962264150944
8.14477961141,0.9528301886792453
8.17071523506,0.9622641509433962
10.1707914875,0.9716981132075472
10.2222316379,0.9811320754716981
17.5681753276,0.9905660377358491
33.852250534,1.0
