Congestion,CDF
0.0,0.009433962264150943
0.0,0.018867924528301886
0.0,0.02830188679245283
0.0,0.03773584905660377
0.0,0.04716981132075472
0.0,0.05660377358490566
0.0,0.0660377358490566
0.0,0.07547169811320754
0.0,0.08490566037735849
0.0,0.09433962264150944
0.0,0.10377358490566038
0.0,0.11320754716981132
0.0,0.12264150943396226
0.0,0.1320754716981132
0.0,0.14150943396226415
0.0,0.1509433962264151
0.0,0.16037735849056603
0.0,0.16981132075471697
0.0,0.1792452830188679
0.0,0.18867924528301888
0.0,0.19811320754716982
0.0,0.20754716981132076
0.0,0.2169811320754717
0.0,0.22641509433962265
0.0,0.2358490566037736
0.0,0.24528301886792453
0.0,0.25471698113207547
0.0,0.2641509433962264
0.0,0.27358490566037735
0.0,0.2830188679245283
4.48631232336e-08,0.29245283018867924
1.15578229689e-06,0.3018867924528302
1.29969728504e-06,0.3113207547169811
1.76195298519e-06,0.32075471698113206
1.98892702075e-06,0.330188679245283
2.64651422347e-06,0.33962264150943394
4.03597486718e-06,0.3490566037735849
5.16626103503e-06,0.3584905660377358
5.46752896566e-06,0.36792452830188677
6.37694763924e-06,0.37735849056603776
7.85154970308e-06,0.3867924528301887
8.0314580897e-06,0.39622641509433965
8.47397866323e-06,0.4056603773584906
5.43014358977e-05,0.41509433962264153
7.44332125352e-05,0.42452830188679247
7.44332125352e-05,0.4339622641509434
0.000193734788814,0.44339622641509435
0.000193734788814,0.4528301886792453
0.000193734788814,0.46226415094339623
0.00019848856676,0.4716981132075472
0.00019848856676,0.4811320754716981
0.00019848856676,0.49056603773584906
0.000306438009164,0.5
0.000365950248712,0.5094339622641509
0.000365950248712,0.5188679245283019
0.000387469577627,0.5283018867924528
0.000387469577627,0.5377358490566038
0.000528585895556,0.5471698113207547
0.000673781476704,0.5566037735849056
0.000673781476704,0.5660377358490566
0.000834831312782,0.5754716981132075
0.000834831312782,0.5849056603773585
0.00105429734777,0.5943396226415094
0.00128233989245,0.6037735849056604
0.00173304365629,0.6132075471698113
0.0027024164991,0.6226415094339622
0.00274147651201,0.6320754716981132
0.00585225308414,0.6415094339622641
0.0201636970158,0.6509433962264151
0.0249827290916,0.660377358490566
0.0327530576032,0.6698113207547169
0.0329532016419,0.6792452830188679
0.0399080809194,0.6886792452830188
0.0409998222696,0.6981132075471698
0.0433596162304,0.7075471698113207
0.0457638114051,0.7169811320754716
0.0461011939103,0.7264150943396226
0.0463373472715,0.7358490566037735
0.0483411597093,0.7452830188679245
0.0505266906281,0.7547169811320755
0.0508357804427,0.7641509433962265
0.523026188139,0.7735849056603774
1.30323789201,0.7830188679245284
1.30323789201,0.7924528301886793
1.72879477164,0.8018867924528302
1.72879477164,0.8113207547169812
1.72879477164,0.8207547169811321
3.45758954327,0.8301886792452831
3.45758954327,0.839622641509434
3.47530104536,0.8490566037735849
3.47530104536,0.8584905660377359
3.47530104536,0.8679245283018868
5.81316245136,0.8773584905660378
7.08949307417,0.8867924528301887
7.08949307417,0.8962264150943396
7.47779079666,0.9056603773584906
7.47779079666,0.9150943396226415
7.49481872747,0.9245283018867925
8.03821443804,0.9339622641509434
8.03821443804,0.9433962264150944
14.8472287574,0.9528301886792453
14.8922611661,0.9622641509433962
18.6244524828,0.9716981132075472
18.7171794271,0.9811320754716981
32.4702233638,0.9905660377358491
61.7883945821,1.0
