Congestion,CDF
0.0,0.009433962264150943
0.0,0.018867924528301886
0.0,0.02830188679245283
0.0,0.03773584905660377
0.0,0.04716981132075472
0.0,0.05660377358490566
0.0,0.0660377358490566
0.0,0.07547169811320754
0.0,0.08490566037735849
0.0,0.09433962264150944
0.0,0.10377358490566038
0.0,0.11320754716981132
0.0,0.12264150943396226
0.0,0.1320754716981132
0.0,0.14150943396226415
0.0,0.1509433962264151
0.0,0.16037735849056603
0.0,0.16981132075471697
0.0,0.1792452830188679
0.0,0.18867924528301888
0.0,0.19811320754716982
0.0,0.20754716981132076
0.0,0.2169811320754717
0.0,0.22641509433962265
0.0,0.2358490566037736
0.0,0.24528301886792453
0.0,0.25471698113207547
0.0,0.2641509433962264
0.0,0.27358490566037735
0.0,0.2830188679245283
6.03469000234e-08,0.29245283018867924
1.55468174509e-06,0.3018867924528302
1.74826664903e-06,0.3113207547169811
2.37006238039e-06,0.32075471698113206
2.6753728101e-06,0.330188679245283
3.55991553291e-06,0.33962264150943394
5.42892590288e-06,0.3490566037735849
6.94931194496e-06,0.3584905660377358
7.3545575984e-06,0.36792452830188677
7.60590712598e-06,0.37735849056603776
8.57784732542e-06,0.3867924528301887
1.05613842909e-05,0.39622641509433965
1.0803385129e-05,0.4056603773584906
1.1398634476e-05,0.41509433962264153
2.75276763337e-05,0.42452830188679247
4.37470146678e-05,0.4339622641509434
7.3042692685e-05,0.44339622641509435
0.000100122624363,0.4528301886792453
0.000100122624363,0.46226415094339623
0.000172571775469,0.4716981132075472
0.000260599197936,0.4811320754716981
0.000260599197936,0.49056603773584906
0.000260599197936,0.5
0.000266993664969,0.5094339622641509
0.000266993664969,0.5188679245283019
0.000266993664969,0.5283018867924528
0.000412200100427,0.5377358490566038
0.000492252020831,0.5471698113207547
0.000492252020831,0.5566037735849056
0.000521198395872,0.5660377358490566
0.000521198395872,0.5754716981132075
0.000711018714118,0.5849056603773585
0.000906326186889,0.5943396226415094
0.000906326186889,0.6037735849056604
0.00112295975264,0.6132075471698113
0.00112295975264,0.6226415094339622
0.00141817091755,0.6320754716981132
0.00143595591125,0.6415094339622641
0.00172491863491,0.6509433962264151
0.00176804817303,0.660377358490566
0.0022817721378,0.6698113207547169
0.00233117546716,0.6792452830188679
0.00363511156911,0.6886792452830188
0.00368765250973,0.6981132075471698
0.00787206298458,0.7075471698113207
0.00933546871495,0.7169811320754716
0.0142477711753,0.7264150943396226
0.0189192630373,0.7358490566037735
0.0208675339853,0.7452830188679245
0.0255389922082,0.7547169811320755
0.0306608036156,0.7641509433962265
0.0316907746963,0.7735849056603774
0.154716063891,0.7830188679245284
0.586899393337,0.7924528301886793
0.586899393337,0.8018867924528302
0.643371216726,0.8113207547169812
0.709472363898,0.8207547169811321
0.709472363898,0.8301886792452831
0.709472363898,0.839622641509434
1.28054870628,0.8490566037735849
1.28054870628,0.8584905660377359
1.4189447278,0.8679245283018868
1.4189447278,0.8773584905660378
1.5650650489,0.8867924528301887
1.5650650489,0.8962264150943396
1.5650650489,0.9056603773584906
2.16924389669,0.9150943396226415
2.16924389669,0.9245283018867925
2.17908697499,0.9339622641509434
2.20807254617,0.9433962264150944
3.99214028968,0.9528301886792453
3.99214028968,0.9622641509433962
7.56066644652,0.9716981132075472
10.690245973,0.9811320754716981
10.9992372972,0.9905660377358491
31.2866683424,1.0
