Congestion,CDF
0.0,0.009433962264150943
0.0,0.018867924528301886
0.0,0.02830188679245283
0.0,0.03773584905660377
0.0,0.04716981132075472
0.0,0.05660377358490566
0.0,0.0660377358490566
0.0,0.07547169811320754
0.0,0.08490566037735849
0.0,0.09433962264150944
0.0,0.10377358490566038
0.0,0.11320754716981132
0.0,0.12264150943396226
0.0,0.1320754716981132
0.0,0.14150943396226415
0.0,0.1509433962264151
0.0,0.16037735849056603
0.0,0.16981132075471697
0.0,0.1792452830188679
0.0,0.18867924528301888
0.0,0.19811320754716982
0.0,0.20754716981132076
0.0,0.2169811320754717
0.0,0.22641509433962265
0.0,0.2358490566037736
0.0,0.24528301886792453
0.0,0.25471698113207547
0.0,0.2641509433962264
0.0,0.27358490566037735
0.0,0.2830188679245283
4.56546100096e-08,0.29245283018867924
1.17617290588e-06,0.3018867924528302
1.32262687932e-06,0.3113207547169811
1.7930378136e-06,0.32075471698113206
2.02401618357e-06,0.330188679245283
2.6932047091e-06,0.33962264150943394
4.10717857538e-06,0.3490566037735849
5.25740554294e-06,0.3584905660377358
5.56398852001e-06,0.36792452830188677
6.48945139208e-06,0.37735849056603776
7.99006876536e-06,0.3867924528301887
8.17315114207e-06,0.39622641509433965
8.62347877755e-06,0.4056603773584906
5.52594358168e-05,0.41509433962264153
7.57463824433e-05,0.42452830188679247
7.57463824433e-05,0.4339622641509434
0.00019715270786,0.44339622641509435
0.00019715270786,0.4528301886792453
0.00019715270786,0.46226415094339623
0.000201990353182,0.4716981132075472
0.000201990353182,0.4811320754716981
0.000201990353182,0.49056603773584906
0.000311844267454,0.5
0.000372406437262,0.5094339622641509
0.000372406437262,0.5188679245283019
0.000394305415721,0.5283018867924528
0.000394305415721,0.5377358490566038
0.000537911344079,0.5471698113207547
0.000685668503069,0.5566037735849056
0.000685668503069,0.5660377358490566
0.000849559621839,0.5754716981132075
0.000849559621839,0.5849056603773585
0.00107289753314,0.5943396226415094
0.00130496326314,0.6037735849056604
0.00176361845887,0.6132075471698113
0.00275009322707,0.6226415094339622
0.00278984234679,0.6320754716981132
0.00595550004048,0.6415094339622641
0.0179059914808,0.6509433962264151
0.022577240674,0.660377358490566
0.0292378480623,0.6698113207547169
0.0294167767297,0.6792452830188679
0.0348060956244,0.6886792452830188
0.0365371988051,0.6981132075471698
0.0380450878817,0.7075471698113207
0.0405065944911,0.7169811320754716
0.0407175020963,0.7264150943396226
0.040742663359,0.7358490566037735
0.0427644029207,0.7452830188679245
0.044844911359,0.7547169811320755
0.0451195808931,0.7641509433962265
0.463221894377,0.7735849056603774
1.14517974646,0.7830188679245284
1.14517974646,0.7924528301886793
1.51899729341,0.8018867924528302
1.51899729341,0.8113207547169812
1.51899729341,0.8207547169811321
3.03799458683,0.8301886792452831
3.03799458683,0.839622641509434
3.05381265723,0.8490566037735849
3.05381265723,0.8584905660377359
3.05381265723,0.8679245283018868
5.11448077872,0.8773584905660378
6.20011347426,0.8867924528301887
6.20011347426,0.8962264150943396
6.56450010321,0.9056603773584906
6.56450010321,0.9150943396226415
6.77317220219,0.9245283018867925
7.0954230451,0.9339622641509434
7.0954230451,0.9433962264150944
13.1430159172,0.9528301886792453
13.1832748674,0.9622641509433962
16.4993770297,0.9716981132075472
16.58177789,0.9811320754716981
28.6885416673,0.9905660377358491
54.7645179876,1.0
