Congestion,CDF
0.00555805897047,0.007352941176470588
0.00555805897047,0.014705882352941176
0.0329487424579,0.022058823529411766
0.0329487424579,0.029411764705882353
0.0334785858074,0.03676470588235294
0.0334785858074,0.04411764705882353
0.0338255196937,0.051470588235294115
0.0338255196937,0.058823529411764705
0.0338462537196,0.0661764705882353
0.0338462537196,0.07352941176470588
0.0344893214458,0.08088235294117647
0.0344893214458,0.08823529411764706
0.0350472625215,0.09558823529411764
0.0350472625215,0.10294117647058823
0.0352371358377,0.11029411764705882
0.0352371358377,0.11764705882352941
0.0352806547347,0.125
0.0352806547347,0.1323529411764706
0.03603288162,0.13970588235294118
0.03603288162,0.14705882352941177
0.0361198815491,0.15441176470588236
0.0361198815491,0.16176470588235295
0.0367219677,0.16911764705882354
0.0367219677,0.17647058823529413
0.036736321165,0.18382352941176472
0.036736321165,0.19117647058823528
0.0373485271975,0.19852941176470587
0.0373485271975,0.20588235294117646
0.0375407091936,0.21323529411764705
0.0375407091936,0.22058823529411764
0.0385482352145,0.22794117647058823
0.0385482352145,0.23529411764705882
0.0389600334508,0.2426470588235294
0.0389600334508,0.25
0.0394721853688,0.25735294117647056
0.0394721853688,0.2647058823529412
0.0402193299345,0.27205882352941174
0.0402193299345,0.27941176470588236
0.0403604993936,0.2867647058823529
0.0403604993936,0.29411764705882354
0.0406428463529,0.3014705882352941
0.0406428463529,0.3088235294117647
0.0412257055684,0.3161764705882353
0.0412257055684,0.3235294117647059
0.0417057057475,0.33088235294117646
0.0417057057475,0.3382352941176471
0.0419075415397,0.34558823529411764
0.0419075415397,0.35294117647058826
0.0422622808908,0.3602941176470588
0.0422622808908,0.36764705882352944
0.0426547227658,0.375
0.0426547227658,0.38235294117647056
0.0450911679043,0.3897058823529412
0.0450911679043,0.39705882352941174
0.0458439854911,0.40441176470588236
0.0458439854911,0.4117647058823529
0.0482083840232,0.41911764705882354
0.0482083840232,0.4264705882352941
0.225051822547,0.4338235294117647
0.225051822547,0.4411764705882353
0.966319667965,0.4485294117647059
0.966319667965,0.45588235294117646
1.1882608946,0.4632352941176471
1.1882608946,0.47058823529411764
1.41839843312,0.47794117647058826
1.41839843312,0.4852941176470588
1.44643410865,0.49264705882352944
1.44643410865,0.5
1.64293118217,0.5073529411764706
1.64293118217,0.5147058823529411
1.8969673134,0.5220588235294118
1.8969673134,0.5294117647058824
2.02496838294,0.5367647058823529
2.02496838294,0.5441176470588235
2.31126078513,0.5514705882352942
2.31126078513,0.5588235294117647
2.39151218402,0.5661764705882353
2.39151218402,0.5735294117647058
2.65997934937,0.5808823529411765
2.65997934937,0.5882352941176471
2.85219052976,0.5955882352941176
2.85219052976,0.6029411764705882
3.30442030701,0.6102941176470589
3.30442030701,0.6176470588235294
3.43249057441,0.625
3.43249057441,0.6323529411764706
3.54015515394,0.6397058823529411
3.54015515394,0.6470588235294118
3.72929466078,0.6544117647058824
3.72929466078,0.6617647058823529
4.12119693057,0.6691176470588235
4.12119693057,0.6764705882352942
4.20193355308,0.6838235294117647
4.20193355308,0.6911764705882353
4.52504406369,0.6985294117647058
4.52504406369,0.7058823529411765
4.57867401383,0.7132352941176471
4.57867401383,0.7205882352941176
4.65453415869,0.7279411764705882
4.65453415869,0.7352941176470589
4.66633499502,0.7426470588235294
4.66633499502,0.75
4.82083840232,0.7573529411764706
4.82083840232,0.7647058823529411
5.02461590757,0.7720588235294118
5.02461590757,0.7794117647058824
5.50022168772,0.7867647058823529
5.50022168772,0.7941176470588235
5.58020110644,0.8014705882352942
5.58020110644,0.8088235294117647
6.27965133117,0.8161764705882353
6.27965133117,0.8235294117647058
6.32553771675,0.8308823529411765
6.32553771675,0.8382352941176471
6.46720577983,0.8455882352941176
6.46720577983,0.8529411764705882
6.83249377859,0.8602941176470589
6.83249377859,0.8676470588235294
6.97972076492,0.875
6.97972076492,0.8823529411764706
6.99692636527,0.8897058823529411
6.99692636527,0.8970588235294118
8.79132737916,0.9044117647058824
8.79132737916,0.9117647058823529
10.3807360964,0.9191176470588235
10.3807360964,0.9264705882352942
10.8296681993,0.9338235294117647
10.8296681993,0.9411764705882353
12.9978725597,0.9485294117647058
12.9978725597,0.9558823529411765
13.2992065059,0.9632352941176471
13.2992065059,0.9705882352941176
17.2968895073,0.9779411764705882
17.2968895073,0.9852941176470589
19.904188281,0.9926470588235294
19.904188281,1.0
