Congestion,CDF
0.0,0.007352941176470588
0.0,0.014705882352941176
0.0,0.022058823529411766
0.0,0.029411764705882353
0.00364368543113,0.03676470588235294
0.00364368543113,0.04411764705882353
0.00410159788154,0.051470588235294115
0.00410159788154,0.058823529411764705
0.00424054295322,0.0661764705882353
0.00424054295322,0.07352941176470588
0.00431543317381,0.08088235294117647
0.00431543317381,0.08823529411764706
0.00446099690851,0.09558823529411764
0.00446099690851,0.10294117647058823
0.00461415699305,0.11029411764705882
0.00461415699305,0.11764705882352941
0.00463684410344,0.125
0.00463684410344,0.1323529411764706
0.00517355369505,0.13970588235294118
0.00517355369505,0.14705882352941177
0.00525467491861,0.15441176470588236
0.00525467491861,0.16176470588235295
0.00559781592258,0.16911764705882354
0.00559781592258,0.17647058823529413
0.00567108296945,0.18382352941176472
0.00567108296945,0.19117647058823528
0.0057886037602,0.19852941176470587
0.0057886037602,0.20588235294117646
0.00583613394486,0.21323529411764705
0.00583613394486,0.22058823529411764
0.00618226639282,0.22794117647058823
0.00618226639282,0.23529411764705882
0.00652016990793,0.2426470588235294
0.00652016990793,0.25
0.006562716637,0.25735294117647056
0.006562716637,0.2647058823529412
0.00659735839601,0.27205882352941174
0.00659735839601,0.27941176470588236
0.00676801786549,0.2867647058823529
0.00676801786549,0.29411764705882354
0.0081312126218,0.3014705882352941
0.0081312126218,0.3088235294117647
0.00903262702066,0.3161764705882353
0.00903262702066,0.3235294117647059
0.00928889218907,0.33088235294117646
0.00928889218907,0.3382352941176471
0.0101526209089,0.34558823529411764
0.0101526209089,0.35294117647058826
0.0105285725067,0.3602941176470588
0.0105285725067,0.36764705882352944
0.0117692044279,0.375
0.0117692044279,0.38235294117647056
0.0135476066912,0.3897058823529412
0.0135476066912,0.39705882352941174
0.0167934860725,0.40441176470588236
0.0167934860725,0.4117647058823529
0.017965292226,0.41911764705882354
0.017965292226,0.4264705882352941
0.0181374058702,0.4338235294117647
0.0181374058702,0.4411764705882353
0.0183656106369,0.4485294117647059
0.0183656106369,0.45588235294117646
0.0228494990831,0.4632352941176471
0.0228494990831,0.47058823529411764
0.12040559963,0.47794117647058826
0.12040559963,0.4852941176470588
0.138905464205,0.49264705882352944
0.138905464205,0.5
0.212027147661,0.5073529411764706
0.212027147661,0.5147058823529411
0.212027147661,0.5220588235294118
0.212027147661,0.5294117647058824
0.233220750976,0.5367647058823529
0.233220750976,0.5441176470588235
0.292470258863,0.5514705882352942
0.292470258863,0.5588235294117647
0.311991026465,0.5661764705882353
0.311991026465,0.5735294117647058
0.316658506252,0.5808823529411765
0.316658506252,0.5882352941176471
0.354046578962,0.5955882352941176
0.354046578962,0.6029411764705882
0.481821816214,0.6102941176470589
0.481821816214,0.6176470588235294
0.497400811296,0.625
0.497400811296,0.6323529411764706
0.524163553347,0.6397058823529411
0.524163553347,0.6470588235294118
0.524163553347,0.6544117647058824
0.524163553347,0.6617647058823529
0.583613394486,0.6691176470588235
0.583613394486,0.6764705882352942
0.633879584922,0.6838235294117647
0.633879584922,0.6911764705882353
0.699651285632,0.6985294117647058
0.699651285632,0.7058823529411765
0.723617569073,0.7132352941176471
0.723617569073,0.7205882352941176
0.729382517166,0.7279411764705882
0.729382517166,0.7352941176470589
0.790271763097,0.7426470588235294
0.790271763097,0.75
0.934698467312,0.7573529411764706
0.934698467312,0.7647058823529411
0.934698467312,0.7720588235294118
0.934698467312,0.7794117647058824
1.18100235532,0.7867647058823529
1.18100235532,0.7941176470588235
1.35476066912,0.8014705882352942
1.35476066912,0.8088235294117647
1.7121238362,0.8161764705882353
1.7121238362,0.8235294117647058
1.73746662086,0.8308823529411765
1.73746662086,0.8382352941176471
1.7965292226,0.8455882352941176
1.7965292226,0.8529411764705882
1.80553385398,0.8602941176470589
1.80553385398,0.8676470588235294
1.83656106369,0.875
1.83656106369,0.8823529411764706
1.84527158736,0.8897058823529411
1.84527158736,0.8970588235294118
2.29846036093,0.9044117647058824
2.29846036093,0.9117647058823529
2.42434561814,0.9191176470588235
2.42434561814,0.9264705882352942
2.87946999983,0.9338235294117647
2.87946999983,0.9411764705882353
3.6691215402,0.9485294117647058
3.6691215402,0.9558823529411765
5.31243889354,0.9632352941176471
5.31243889354,0.9705882352941176
6.54204246845,0.9779411764705882
6.54204246845,0.9852941176470589
7.75019130145,0.9926470588235294
7.75019130145,1.0
