Congestion,CDF
0.0,0.007352941176470588
0.0,0.014705882352941176
0.0,0.022058823529411766
0.0,0.029411764705882353
0.0,0.03676470588235294
0.0,0.04411764705882353
0.00177492821539,0.051470588235294115
0.00177492821539,0.058823529411764705
0.00201999367693,0.0661764705882353
0.00201999367693,0.07352941176470588
0.00203032308355,0.08088235294117647
0.00203032308355,0.08823529411764706
0.00204017090129,0.09558823529411764
0.00204017090129,0.10294117647058823
0.00205743157745,0.11029411764705882
0.00205743157745,0.11764705882352941
0.00221795645834,0.125
0.00221795645834,0.1323529411764706
0.00235300045198,0.13970588235294118
0.00235300045198,0.14705882352941177
0.0024354446325,0.15441176470588236
0.0024354446325,0.16176470588235295
0.00251073422078,0.16911764705882354
0.00251073422078,0.17647058823529413
0.00254661330706,0.18382352941176472
0.00254661330706,0.19117647058823528
0.00265498046053,0.19852941176470587
0.00265498046053,0.20588235294117646
0.0028239805465,0.21323529411764705
0.0028239805465,0.22058823529411764
0.00292611783173,0.22794117647058823
0.00292611783173,0.23529411764705882
0.00296300270049,0.2426470588235294
0.00296300270049,0.25
0.0033361500492,0.25735294117647056
0.0033361500492,0.2647058823529412
0.00473932031599,0.27205882352941174
0.00473932031599,0.27941176470588236
0.00474975470818,0.2867647058823529
0.00474975470818,0.29411764705882354
0.00483510075219,0.3014705882352941
0.00483510075219,0.3088235294117647
0.0050068192835,0.3161764705882353
0.0050068192835,0.3235294117647059
0.00579136082776,0.33088235294117646
0.00579136082776,0.3382352941176471
0.00596913271297,0.34558823529411764
0.00596913271297,0.35294117647058826
0.00607418688593,0.3602941176470588
0.00607418688593,0.36764705882352944
0.00667337842348,0.375
0.00667337842348,0.38235294117647056
0.00683642370581,0.3897058823529412
0.00683642370581,0.39705882352941174
0.00724718855116,0.40441176470588236
0.00724718855116,0.4117647058823529
0.00769335047002,0.41911764705882354
0.00769335047002,0.4264705882352941
0.00797205870338,0.4338235294117647
0.00797205870338,0.4411764705882353
0.0122831378822,0.4485294117647059
0.0122831378822,0.45588235294117646
0.013673759929,0.4632352941176471
0.013673759929,0.47058823529411764
0.0138521417173,0.47794117647058826
0.0138521417173,0.4852941176470588
0.0328569467879,0.49264705882352944
0.0328569467879,0.5
0.0370195909906,0.5073529411764706
0.0370195909906,0.5147058823529411
0.0731772919655,0.5220588235294118
0.0731772919655,0.5294117647058824
0.101516154178,0.5367647058823529
0.101516154178,0.5441176470588235
0.101516154178,0.5514705882352942
0.101516154178,0.5588235294117647
0.150050019001,0.5661764705882353
0.150050019001,0.5735294117647058
0.150050019001,0.5808823529411765
0.150050019001,0.5882352941176471
0.150363732685,0.5955882352941176
0.150363732685,0.6029411764705882
0.204017090129,0.6102941176470589
0.204017090129,0.6176470588235294
0.206344918123,0.625
0.206344918123,0.6323529411764706
0.206344918123,0.6397058823529411
0.206344918123,0.6470588235294118
0.254661330706,0.6544117647058824
0.254661330706,0.6617647058823529
0.329452360718,0.6691176470588235
0.329452360718,0.6764705882352942
0.351993408793,0.6838235294117647
0.351993408793,0.6911764705882353
0.39412793735,0.6985294117647058
0.39412793735,0.7058823529411765
0.474975470818,0.7132352941176471
0.474975470818,0.7205882352941176
0.48602080944,0.7279411764705882
0.48602080944,0.7352941176470589
0.534201472347,0.7426470588235294
0.534201472347,0.75
0.604907954372,0.7573529411764706
0.604907954372,0.7647058823529411
0.714127466717,0.7720588235294118
0.714127466717,0.7794117647058824
0.714127466717,0.7867647058823529
0.714127466717,0.7941176470588235
0.769335047002,0.8014705882352942
0.769335047002,0.8088235294117647
0.806066866256,0.8161764705882353
0.806066866256,0.8235294117647058
0.928330595271,0.8308823529411765
0.928330595271,0.8382352941176471
1.26307733368,0.8455882352941176
1.26307733368,0.8529411764705882
1.28190614566,0.8602941176470589
1.28190614566,0.8676470588235294
1.28624130822,0.875
1.28624130822,0.8823529411764706
1.3673759929,0.8897058823529411
1.3673759929,0.8970588235294118
1.38521417173,0.9044117647058824
1.38521417173,0.9117647058823529
1.40211382471,0.9191176470588235
1.40211382471,0.9264705882352942
1.42012047079,0.9338235294117647
1.42012047079,0.9411764705882353
2.84096014654,0.9485294117647058
2.84096014654,0.9558823529411765
3.98090395285,0.9632352941176471
3.98090395285,0.9705882352941176
4.8703649771,0.9779411764705882
4.8703649771,0.9852941176470589
5.58191274604,0.9926470588235294
5.58191274604,1.0
