Congestion,CDF
0.0,0.007352941176470588
0.0,0.014705882352941176
0.0,0.022058823529411766
0.0,0.029411764705882353
0.00855337132786,0.03676470588235294
0.00855337132786,0.04411764705882353
0.00861442233629,0.051470588235294115
0.00861442233629,0.058823529411764705
0.00996929593104,0.0661764705882353
0.00996929593104,0.07352941176470588
0.0105539260774,0.08088235294117647
0.0105539260774,0.08823529411764706
0.0108997983181,0.09558823529411764
0.0108997983181,0.10294117647058823
0.0109836965854,0.11029411764705882
0.0109836965854,0.11764705882352941
0.011036702265,0.125
0.011036702265,0.1323529411764706
0.0114038993498,0.13970588235294118
0.0114038993498,0.14705882352941177
0.0115993374422,0.15441176470588236
0.0115993374422,0.16176470588235295
0.0118308944877,0.16911764705882354
0.0118308944877,0.17647058823529413
0.0121606473095,0.18382352941176472
0.0121606473095,0.19117647058823528
0.0134710892928,0.19852941176470587
0.0134710892928,0.20588235294117646
0.0140246396349,0.21323529411764705
0.0140246396349,0.22058823529411764
0.014075960445,0.22794117647058823
0.014075960445,0.23529411764705882
0.0140805649424,0.2426470588235294
0.0140805649424,0.25
0.0146494244141,0.25735294117647056
0.0146494244141,0.2647058823529412
0.0147363700848,0.27205882352941174
0.0147363700848,0.27941176470588236
0.0152626952987,0.2867647058823529
0.0152626952987,0.29411764705882354
0.0155861994305,0.3014705882352941
0.0155861994305,0.3088235294117647
0.0156323921635,0.3161764705882353
0.0156323921635,0.3235294117647059
0.0159770085601,0.33088235294117646
0.0159770085601,0.3382352941176471
0.0186088543769,0.34558823529411764
0.0186088543769,0.35294117647058826
0.0189313624564,0.3602941176470588
0.0189313624564,0.36764705882352944
0.0211649872773,0.375
0.0211649872773,0.38235294117647056
0.0216224489611,0.3897058823529412
0.0216224489611,0.39705882352941174
0.0242847046751,0.40441176470588236
0.0242847046751,0.4117647058823529
0.0250312506326,0.41911764705882354
0.0250312506326,0.4264705882352941
0.0262042476472,0.4338235294117647
0.0262042476472,0.4411764705882353
0.142268602954,0.4485294117647059
0.142268602954,0.45588235294117646
0.203810223326,0.4632352941176471
0.203810223326,0.47058823529411764
0.312011883438,0.47794117647058826
0.312011883438,0.4852941176470588
0.517407495966,0.49264705882352944
0.517407495966,0.5
0.527747773315,0.5073529411764706
0.527747773315,0.5147058823529411
0.634324972806,0.5220588235294118
0.634324972806,0.5294117647058824
0.659843888115,0.5367647058823529
0.659843888115,0.5441176470588235
0.777184334637,0.5514705882352942
0.777184334637,0.5588235294117647
0.888918080231,0.5661764705882353
0.888918080231,0.5735294117647058
1.05681359269,0.5808823529411765
1.05681359269,0.5882352941176471
1.12978535611,0.5955882352941176
1.12978535611,0.6029411764705882
1.15167375121,0.6102941176470589
1.15167375121,0.6176470588235294
1.20206890943,0.625
1.20206890943,0.6323529411764706
1.26113221808,0.6397058823529411
1.26113221808,0.6470588235294118
1.33528239998,0.6544117647058824
1.33528239998,0.6617647058823529
1.40246396349,0.6691176470588235
1.40246396349,0.6764705882352942
1.40986672556,0.6838235294117647
1.40986672556,0.6911764705882353
1.55091915261,0.6985294117647058
1.55091915261,0.7058823529411765
1.64620067465,0.7132352941176471
1.64620067465,0.7205882352941176
1.65687024093,0.7279411764705882
1.65687024093,0.7352941176470589
1.87000306618,0.7426470588235294
1.87000306618,0.75
1.94309294566,0.7573529411764706
1.94309294566,0.7647058823529411
1.97451467145,0.7720588235294118
1.97451467145,0.7794117647058824
2.16224489611,0.7867647058823529
2.16224489611,0.7941176470588235
2.50312506326,0.8014705882352942
2.50312506326,0.8088235294117647
2.62042476472,0.8161764705882353
2.62042476472,0.8235294117647058
2.75277396698,0.8308823529411765
2.75277396698,0.8382352941176471
2.79058093934,0.8455882352941176
2.79058093934,0.8529411764705882
2.95294831451,0.8602941176470589
2.95294831451,0.8676470588235294
3.12201765577,0.875
3.12201765577,0.8823529411764706
3.75099585052,0.8897058823529411
3.75099585052,0.8970588235294118
4.03474281434,0.9044117647058824
4.03474281434,0.9117647058823529
4.89607109713,0.9191176470588235
4.89607109713,0.9264705882352942
5.66269747375,0.9338235294117647
5.66269747375,0.9411764705882353
6.28340945207,0.9485294117647058
6.28340945207,0.9558823529411765
7.5520202955,0.9632352941176471
7.5520202955,0.9705882352941176
9.75749461533,0.9779411764705882
9.75749461533,0.9852941176470589
11.464336424,0.9926470588235294
11.464336424,1.0
