Congestion,CDF
0.0,0.007352941176470588
0.0,0.014705882352941176
0.0,0.022058823529411766
0.0,0.029411764705882353
0.00731493684794,0.03676470588235294
0.00731493684794,0.04411764705882353
0.00753954611127,0.051470588235294115
0.00753954611127,0.058823529411764705
0.00846578985559,0.0661764705882353
0.00846578985559,0.07352941176470588
0.00907382667726,0.08088235294117647
0.00907382667726,0.08823529411764706
0.00929365372565,0.09558823529411764
0.00929365372565,0.10294117647058823
0.00960830319505,0.11029411764705882
0.00960830319505,0.11764705882352941
0.00976666192608,0.125
0.00976666192608,0.1323529411764706
0.0100014154671,0.13970588235294118
0.0100014154671,0.14705882352941177
0.010186876245,0.15441176470588236
0.010186876245,0.16176470588235295
0.0102718438841,0.16911764705882354
0.0102718438841,0.17647058823529413
0.0104389910354,0.18382352941176472
0.0104389910354,0.19117647058823528
0.0116571788413,0.19852941176470587
0.0116571788413,0.20588235294117646
0.0118622682139,0.21323529411764705
0.0118622682139,0.22058823529411764
0.0123057091172,0.22794117647058823
0.0123057091172,0.23529411764705882
0.0126148522095,0.2426470588235294
0.0126148522095,0.25
0.012735023956,0.25735294117647056
0.012735023956,0.2647058823529412
0.0129647613867,0.27205882352941174
0.0129647613867,0.27941176470588236
0.0130953560692,0.2867647058823529
0.0130953560692,0.29411764705882354
0.0138542358851,0.3014705882352941
0.0138542358851,0.3088235294117647
0.0140013524443,0.3161764705882353
0.0140013524443,0.3235294117647059
0.0140232022535,0.33088235294117646
0.0140232022535,0.3382352941176471
0.0164916881339,0.34558823529411764
0.0164916881339,0.35294117647058826
0.017316898224,0.3602941176470588
0.017316898224,0.36764705882352944
0.0194463862769,0.375
0.0194463862769,0.38235294117647056
0.0202137829898,0.3897058823529412
0.0202137829898,0.39705882352941174
0.0228216526987,0.40441176470588236
0.0228216526987,0.4117647058823529
0.0236252533732,0.41911764705882354
0.0236252533732,0.4264705882352941
0.0246247646048,0.4338235294117647
0.0246247646048,0.4411764705882353
0.0998174240753,0.4485294117647059
0.0998174240753,0.45588235294117646
0.129524600732,0.4632352941176471
0.129524600732,0.47058823529411764
0.26613712176,0.47794117647058826
0.26613712176,0.4852941176470588
0.442800427005,0.49264705882352944
0.442800427005,0.5
0.478746736044,0.5073529411764706
0.478746736044,0.5147058823529411
0.509085286607,0.5220588235294118
0.509085286607,0.5294117647058824
0.550396138518,0.5367647058823529
0.550396138518,0.5441176470588235
0.679991196609,0.5514705882352942
0.679991196609,0.5588235294117647
0.813050579789,0.5661764705882353
0.813050579789,0.5735294117647058
0.865215518284,0.5808823529411765
0.865215518284,0.5882352941176471
0.875832218563,0.5955882352941176
0.875832218563,0.6029411764705882
0.993864910331,0.6102941176470589
0.993864910331,0.6176470588235294
1.01086451271,0.625
1.01086451271,0.6323529411764706
1.05111974477,0.6397058823529411
1.05111974477,0.6470588235294118
1.16695153793,0.6544117647058824
1.16695153793,0.6617647058823529
1.18622682139,0.6691176470588235
1.18622682139,0.6764705882352942
1.21668805699,0.6838235294117647
1.21668805699,0.6911764705882353
1.29524248486,0.6985294117647058
1.29524248486,0.7058823529411765
1.42548176953,0.7132352941176471
1.42548176953,0.7205882352941176
1.43919848247,0.7279411764705882
1.43919848247,0.7352941176470589
1.45156242922,0.7426470588235294
1.45156242922,0.75
1.66762683177,0.7573529411764706
1.66762683177,0.7647058823529411
1.70580530959,0.7720588235294118
1.70580530959,0.7794117647058824
2.02137829898,0.7867647058823529
2.02137829898,0.7941176470588235
2.36252533732,0.8014705882352942
2.36252533732,0.8088235294117647
2.42218419946,0.8161764705882353
2.42218419946,0.8235294117647058
2.46247646048,0.8308823529411765
2.46247646048,0.8382352941176471
2.5371399246,0.8455882352941176
2.5371399246,0.8529411764705882
2.73322841183,0.8602941176470589
2.73322841183,0.8676470588235294
2.81612035132,0.875
2.81612035132,0.8823529411764706
3.48727019063,0.8897058823529411
3.48727019063,0.8970588235294118
3.61662662229,0.9044117647058824
3.61662662229,0.9117647058823529
4.42582719414,0.9191176470588235
4.42582719414,0.9264705882352942
5.22708458685,0.9338235294117647
5.22708458685,0.9411764705882353
5.66723231259,0.9485294117647058
5.66723231259,0.9558823529411765
7.10716706767,0.9632352941176471
7.10716706767,0.9705882352941176
9.13359218824,0.9779411764705882
9.13359218824,0.9852941176470589
10.7661418677,0.9926470588235294
10.7661418677,1.0
