Congestion,CDF
0.0,0.009433962264150943
0.0,0.018867924528301886
0.0,0.02830188679245283
0.0,0.03773584905660377
0.0,0.04716981132075472
0.0,0.05660377358490566
0.0,0.0660377358490566
0.0,0.07547169811320754
0.0,0.08490566037735849
0.0,0.09433962264150944
0.0,0.10377358490566038
0.0,0.11320754716981132
0.0,0.12264150943396226
0.0,0.1320754716981132
0.0,0.14150943396226415
0.0,0.1509433962264151
0.0,0.16037735849056603
0.0,0.16981132075471697
0.0,0.1792452830188679
0.0,0.18867924528301888
0.0,0.19811320754716982
0.0,0.20754716981132076
0.0,0.2169811320754717
0.0,0.22641509433962265
0.0,0.2358490566037736
0.0,0.24528301886792453
0.0,0.25471698113207547
0.0,0.2641509433962264
0.0,0.27358490566037735
0.0,0.2830188679245283
1.66240825579e-07,0.29245283018867924
4.28276476037e-06,0.3018867924528302
4.81604342485e-06,0.3113207547169811
6.52893730478e-06,0.32075471698113206
7.36999223673e-06,0.330188679245283
9.80668927409e-06,0.33962264150943394
1.49553518698e-05,0.3490566037735849
1.91436404271e-05,0.3584905660377358
2.02599922524e-05,0.36792452830188677
2.36298537376e-05,0.37735849056603776
2.90940088571e-05,0.3867924528301887
2.97606614788e-05,0.39622641509433965
3.14004266172e-05,0.4056603773584906
0.000201214603066,0.41509433962264153
0.000275813135834,0.42452830188679247
0.000275813135834,0.4339622641509434
0.000717886516016,0.44339622641509435
0.000717886516016,0.4528301886792453
0.000717886516016,0.46226415094339623
0.000735501695557,0.4716981132075472
0.000735501695557,0.4811320754716981
0.000735501695557,0.49056603773584906
0.00113550961147,0.5
0.00135603290814,0.5094339622641509
0.00135603290814,0.5188679245283019
0.00143577303203,0.5283018867924528
0.00143577303203,0.5377358490566038
0.00195868119143,0.5471698113207547
0.0024967051082,0.5566037735849056
0.0024967051082,0.5660377358490566
0.00309347715124,0.5754716981132075
0.00309347715124,0.5849056603773585
0.00368913779875,0.5943396226415094
0.00390671109958,0.6037735849056604
0.00400509872575,0.6132075471698113
0.0047517254045,0.6226415094339622
0.00480449050815,0.6320754716981132
0.00482966438818,0.6415094339622641
0.00485052967546,0.6509433962264151
0.00485220905686,0.660377358490566
0.00568076258013,0.6698113207547169
0.00569758526242,0.6792452830188679
0.00600167586899,0.6886792452830188
0.00627792309515,0.6981132075471698
0.0064218134499,0.7075471698113207
0.00660369330529,0.7169811320754716
0.0067560009019,0.7264150943396226
0.00682388845103,0.7358490566037735
0.0100138358074,0.7452830188679245
0.0101585731401,0.7547169811320755
0.0216855919535,0.7641509433962265
0.0708726596181,0.7735849056603774
0.159771447566,0.7830188679245284
0.159771447566,0.7924528301886793
0.213659447341,0.8018867924528302
0.213659447341,0.8113207547169812
0.213659447341,0.8207547169811321
0.42605719351,0.8301886792452831
0.42605719351,0.839622641509434
0.42605719351,0.8490566037735849
0.427318894681,0.8584905660377359
0.427318894681,0.8679245283018868
0.84787831314,0.8773584905660378
0.863353276742,0.8867924528301887
0.863353276742,0.8962264150943396
0.865700621561,0.9056603773584906
0.865700621561,0.9150943396226415
1.02628238128,0.9245283018867925
1.02628238128,0.9339622641509434
1.20152961772,0.9433962264150944
1.94436364108,0.9528301886792453
1.95510031454,0.9622641509433962
2.45348831467,0.9716981132075472
2.47385457941,0.9811320754716981
4.32314676448,0.9905660377358491
8.27682739403,1.0
