Congestion,CDF
0.0,0.005555555555555556
0.0,0.011111111111111112
0.0,0.016666666666666666
0.0,0.022222222222222223
0.0,0.027777777777777776
0.0,0.03333333333333333
0.0,0.03888888888888889
0.0,0.044444444444444446
0.0,0.05
0.0,0.05555555555555555
1.28895428326e-06,0.06111111111111111
1.48094648169e-06,0.06666666666666667
3.33348782901e-06,0.07222222222222222
4.87208637086e-06,0.07777777777777778
4.98534330793e-06,0.08333333333333333
6.58236934497e-06,0.08888888888888889
7.24147747272e-06,0.09444444444444444
9.98040724937e-06,0.1
1.00318966697e-05,0.10555555555555556
1.02635719675e-05,0.1111111111111111
1.04748080549e-05,0.11666666666666667
1.1530623694e-05,0.12222222222222222
1.17980737446e-05,0.12777777777777777
1.31748367179e-05,0.13333333333333333
1.34936796242e-05,0.1388888888888889
1.42090165211e-05,0.14444444444444443
1.64300795382e-05,0.15
1.79811986986e-05,0.15555555555555556
1.87759933329e-05,0.16111111111111112
1.95278051485e-05,0.16666666666666666
1.98367751179e-05,0.17222222222222222
1.99960906917e-05,0.17777777777777778
2.06585896998e-05,0.18333333333333332
2.13764363158e-05,0.18888888888888888
2.17372796989e-05,0.19444444444444445
2.19827630154e-05,0.2
2.21047234899e-05,0.20555555555555555
2.23585605638e-05,0.2111111111111111
2.25770441501e-05,0.21666666666666667
2.26265870985e-05,0.2222222222222222
2.3382599496e-05,0.22777777777777777
2.35776775723e-05,0.23333333333333334
2.38483346329e-05,0.2388888888888889
2.58264672776e-05,0.24444444444444444
2.71761969969e-05,0.25
2.95054452085e-05,0.25555555555555554
2.99728767197e-05,0.2611111111111111
3.04042081431e-05,0.26666666666666666
3.14338447075e-05,0.2722222222222222
0.000111116260967,0.2777777777777778
0.000222232521934,0.2833333333333333
0.000243604318543,0.28888888888888886
0.000243604318543,0.29444444444444445
0.000250797416744,0.3
0.000250797416744,0.3055555555555556
0.00037969284507,0.3111111111111111
0.000498534330793,0.31666666666666665
0.000501594833487,0.32222222222222224
0.000667839156648,0.3277777777777778
0.000927919134242,0.3333333333333333
0.000959532831125,0.3388888888888889
0.000998040724937,0.34444444444444444
0.00103792977957,0.35
0.00104919335715,0.35555555555555557
0.00109913815077,0.3611111111111111
0.00109913815077,0.36666666666666664
0.00112639510365,0.37222222222222223
0.00112666509687,0.37777777777777777
0.00113475103337,0.38333333333333336
0.00114011501211,0.3888888888888889
0.0011405275477,0.39444444444444443
0.00114454744555,0.4
0.0011451575844,0.40555555555555556
0.00115399930009,0.4111111111111111
0.00115567379905,0.4166666666666667
0.00115810423396,0.4222222222222222
0.00115906135205,0.42777777777777776
0.00115965456793,0.43333333333333335
0.00116007766169,0.4388888888888889
0.00116200625343,0.4444444444444444
0.00117093629534,0.45
0.00117167416017,0.45555555555555555
0.00117398037378,0.46111111111111114
0.00117782749957,0.4666666666666667
0.00120398936777,0.4722222222222222
0.00125129074083,0.4777777777777778
0.00125481058997,0.48333333333333334
0.00127307053025,0.4888888888888889
0.00127637493361,0.49444444444444446
0.00127932106224,0.5
0.00128911221226,0.5055555555555555
0.00129099539209,0.5111111111111111
0.00129449674896,0.5166666666666667
0.00130250080299,0.5222222222222223
0.0013052593699,0.5277777777777778
0.00130536954043,0.5333333333333333
0.0013072762662,0.5388888888888889
0.00130920024533,0.5444444444444444
0.00130985562749,0.55
0.00131213487989,0.5555555555555556
0.0013164938251,0.5611111111111111
0.00132465880103,0.5666666666666667
0.00140385978614,0.5722222222222222
0.00213764363158,0.5777777777777777
0.00217372796989,0.5833333333333334
0.00224321338772,0.5888888888888889
0.00241662182256,0.5944444444444444
0.00255680806607,0.6
0.00255680806607,0.6055555555555555
0.00291552911286,0.6111111111111112
0.00308118105855,0.6166666666666667
0.00331309591697,0.6222222222222222
0.00354201564779,0.6277777777777778
0.00440030234143,0.6333333333333333
0.00465247787894,0.6388888888888888
0.00489506801567,0.6444444444444445
0.00601799863121,0.65
0.0070654794367,0.6555555555555556
0.00739754145185,0.6611111111111111
0.00913465495554,0.6666666666666666
0.0103480859727,0.6722222222222223
0.0184106067412,0.6777777777777778
0.022398153865,0.6833333333333333
0.0234445683146,0.6888888888888889
0.0255415383358,0.6944444444444444
0.0261621880143,0.7
0.0275252158476,0.7055555555555556
0.027826693985,0.7111111111111111
0.0294697019388,0.7166666666666667
0.0312822685207,0.7222222222222222
0.0312822685207,0.7277777777777777
0.031827469696,0.7333333333333333
0.0320261336503,0.7388888888888889
0.0325516174433,0.7444444444444445
0.0330524908471,0.75
0.0342322982215,0.7555555555555555
0.0425458311203,0.7611111111111111
0.0469040105796,0.7666666666666667
0.0579530676024,0.7722222222222223
0.0579530676024,0.7777777777777778
0.0588913749785,0.7833333333333333
0.0588913749785,0.7888888888888889
0.0625645370413,0.7944444444444444
0.0850916622407,0.8
0.114011501211,0.8055555555555556
0.115810423396,0.8111111111111111
0.127932106224,0.8166666666666667
0.130920024533,0.8222222222222222
0.143921778886,0.8277777777777777
0.16038180773,0.8333333333333334
0.172468826043,0.8388888888888889
0.172944129749,0.8444444444444444
0.195030417144,0.85
0.204785877141,0.8555555555555555
0.204785877141,0.8611111111111112
0.231818189566,0.8666666666666667
0.257396882223,0.8722222222222222
0.259581488734,0.8777777777777778
0.288434282836,0.8833333333333333
0.333177719149,0.8888888888888888
0.335999365129,0.8944444444444445
0.372796812232,0.9
0.597647016283,0.9055555555555556
0.660962006388,0.9111111111111111
0.665270649315,0.9166666666666666
0.778055635922,0.9222222222222223
0.794181870541,0.9277777777777778
1.41547552434,0.9333333333333333
1.52281444957,0.9388888888888889
1.53287356172,0.9444444444444444
1.64844094162,0.95
1.9129218753,0.9555555555555556
1.93583981593,0.9611111111111111
2.04075915164,0.9666666666666667
2.04345882934,0.9722222222222222
2.13355106507,0.9777777777777777
2.22783126332,0.9833333333333333
2.34823020009,0.9888888888888889
2.46089670978,0.9944444444444445
2.55684999289,1.0
