Congestion,CDF
0.0,0.005555555555555556
0.0,0.011111111111111112
0.0,0.016666666666666666
0.0,0.022222222222222223
0.0,0.027777777777777776
0.0,0.03333333333333333
0.0,0.03888888888888889
0.0,0.044444444444444446
0.0,0.05
0.0,0.05555555555555555
4.60972366623e-07,0.06111111111111111
5.29635079671e-07,0.06666666666666667
1.19216468233e-06,0.07222222222222222
1.74241803137e-06,0.07777777777777778
1.78292243017e-06,0.08333333333333333
2.35407136959e-06,0.08888888888888889
2.58979007386e-06,0.09444444444444444
3.56932127799e-06,0.1
3.58773558506e-06,0.10555555555555556
3.67059027719e-06,0.1111111111111111
3.74613523666e-06,0.11666666666666667
4.12372957046e-06,0.12222222222222222
4.21937848864e-06,0.12777777777777777
4.71175412549e-06,0.13333333333333333
4.82578281604e-06,0.1388888888888889
5.08161077407e-06,0.14444444444444443
5.87593582402e-06,0.15
6.43066695729e-06,0.15555555555555556
6.71491161073e-06,0.16111111111111112
6.98378419715e-06,0.16666666666666666
7.09428200134e-06,0.17222222222222222
7.15125848068e-06,0.17777777777777778
7.38818987505e-06,0.18333333333333332
7.64491539106e-06,0.18888888888888888
7.77396483095e-06,0.19444444444444445
7.86175772385e-06,0.2
7.90537479335e-06,0.20555555555555555
7.99615526417e-06,0.2111111111111111
8.07429216721e-06,0.21666666666666667
8.09201035201e-06,0.2222222222222222
8.36238520438e-06,0.22777777777777777
8.43215152867e-06,0.23333333333333334
8.52894737891e-06,0.2388888888888889
9.23639255253e-06,0.24444444444444444
9.71910021027e-06,0.25
1.05521158374e-05,0.25555555555555554
1.0719284691e-05,0.2611111111111111
1.08735429681e-05,0.26666666666666666
1.12417748054e-05,0.2722222222222222
3.97388227445e-05,0.2777777777777778
7.94776454889e-05,0.2833333333333333
8.71209015687e-05,0.28888888888888886
8.71209015687e-05,0.29444444444444445
8.96933896265e-05,0.3
8.96933896265e-05,0.3055555555555556
0.000135790626289,0.3111111111111111
0.000178292243017,0.31666666666666665
0.000179386779253,0.32222222222222224
0.000238841206831,0.3277777777777778
0.000356932127799,0.3333333333333333
0.000371197763248,0.3388888888888889
0.000393087886193,0.34444444444444444
0.000393087886193,0.35
0.000502066346672,0.35555555555555557
0.000764491539106,0.3611111111111111
0.000777396483095,0.36666666666666664
0.000802246749637,0.37222222222222223
0.000864263298741,0.37777777777777777
0.00091439850158,0.38333333333333336
0.00091439850158,0.3888888888888889
0.00104268892432,0.39444444444444443
0.00110193149827,0.4
0.00118487186515,0.40555555555555556
0.00126674107607,0.4111111111111111
0.00157369257431,0.4166666666666667
0.00166387882516,0.4222222222222222
0.00175063702202,0.42777777777777776
0.00215223387469,0.43333333333333335
0.00252684739836,0.4388888888888889
0.0026456036762,0.4444444444444444
0.00326685249262,0.45
0.00359323775763,0.45555555555555555
0.00370081525994,0.46111111111111114
0.00378566137254,0.4666666666666667
0.0054029518803,0.4722222222222222
0.00572471002916,0.4777777777777778
0.00604021631751,0.48333333333333334
0.00606150563459,0.4888888888888889
0.00606845618149,0.49444444444444446
0.00610979595762,0.5
0.00615512021854,0.5055555555555555
0.00617180429982,0.5111111111111111
0.00618420761875,0.5166666666666667
0.00619119532367,0.5222222222222223
0.00620996182862,0.5277777777777778
0.00625952645346,0.5333333333333333
0.00628015977149,0.5388888888888889
0.00628616767657,0.5444444444444444
0.0062885760871,0.55
0.00629086126198,0.5555555555555556
0.00629142123713,0.5611111111111111
0.00630295000865,0.5666666666666667
0.00630770513063,0.5722222222222222
0.00631311594047,0.5777777777777777
0.00631785137005,0.5833333333333334
0.00632039691061,0.5888888888888889
0.00634250805095,0.5944444444444444
0.00635101159909,0.6
0.00635374508109,0.6055555555555555
0.00637066652179,0.6111111111111112
0.00638000475556,0.6166666666666667
0.00639723860267,0.6222222222222222
0.0064368636543,0.6277777777777778
0.00644594542434,0.6333333333333333
0.00646032266189,0.6388888888888888
0.00646983061846,0.6444444444444445
0.00647304254116,0.65
0.00648433362454,0.6555555555555556
0.00648713623952,0.6611111111111111
0.00650142685995,0.6666666666666666
0.00654629563507,0.6722222222222223
0.00658423737031,0.6777777777777778
0.00801031512851,0.6833333333333333
0.0083845472883,0.6888888888888889
0.00913449260905,0.6944444444444444
0.00935645730932,0.7
0.00984392080918,0.7055555555555556
0.0099517392883,0.7111111111111111
0.0105393328707,0.7166666666666667
0.0113825480236,0.7222222222222222
0.0114535967755,0.7277777777777777
0.011641527031,0.7333333333333333
0.0118206558033,0.7388888888888889
0.0122425936521,0.7444444444444445
0.158009922765,0.75
0.158009922765,0.7555555555555555
0.210256837688,0.7611111111111111
0.239457928139,0.7666666666666667
0.303422809074,0.7722222222222223
0.303422809074,0.7777777777777778
0.314308383829,0.7833333333333333
0.314308383829,0.7888888888888889
0.31601984553,0.7944444444444444
0.420513675375,0.8
0.618420761875,0.8055555555555556
0.628015977149,0.8111111111111111
0.631785137005,0.8166666666666667
0.646983061846,0.8222222222222222
0.768989518527,0.8277777777777777
0.796010398321,0.8333333333333334
0.907444440826,0.8388888888888889
0.935304566691,0.8444444444444444
0.970649409037,0.85
1.01544347234,0.8555555555555555
1.01544347234,0.8611111111111112
1.25710210335,0.8666666666666667
1.281927823,0.8722222222222222
1.38450154038,0.8777777777777778
1.5641621754,0.8833333333333333
1.64995360144,0.8888888888888888
1.66387683479,0.8944444444444445
2.01045418573,0.9
2.95689216283,0.9055555555555556
3.29453919749,0.9111111111111111
3.5734783323,0.9166666666666666
3.93160584967,0.9222222222222223
4.2085794922,0.9277777777777778
7.53580226662,0.9333333333333333
7.66521827906,0.9388888888888889
8.29946908415,0.9444444444444444
8.91858861652,0.95
9.46232463205,0.9555555555555556
10.111038256,0.9611111111111111
10.4321836208,0.9666666666666667
10.9724788088,0.9722222222222222
11.0457726591,0.9777777777777777
11.3318025846,0.9833333333333333
11.6629530891,0.9888888888888889
12.235424092,0.9944444444444445
12.6139902293,1.0
