Congestion,CDF
0.0,0.005555555555555556
0.0,0.011111111111111112
0.0,0.016666666666666666
0.0,0.022222222222222223
0.0,0.027777777777777776
0.0,0.03333333333333333
0.0,0.03888888888888889
0.0,0.044444444444444446
0.0,0.05
0.0,0.05555555555555555
7.39967932373e-07,0.06111111111111111
8.50187566962e-07,0.06666666666666667
1.9137017724e-06,0.07222222222222222
2.79698646027e-06,0.07777777777777778
2.86200544709e-06,0.08333333333333333
3.77883242064e-06,0.08888888888888889
4.15721580075e-06,0.09444444444444444
5.7295913536e-06,0.1
5.75915060207e-06,0.10555555555555556
5.89215166604e-06,0.1111111111111111
6.01341890788e-06,0.11666666666666667
6.61954569266e-06,0.12222222222222222
6.77308446709e-06,0.12777777777777777
7.56346195678e-06,0.13333333333333333
7.74650454347e-06,0.1388888888888889
8.15716795598e-06,0.14444444444444443
9.4322445276e-06,0.15
1.03227171013e-05,0.15555555555555556
1.07789959235e-05,0.16111111111111112
1.12105990004e-05,0.16666666666666666
1.13879736928e-05,0.17222222222222222
1.14794342025e-05,0.17777777777777778
1.18597642324e-05,0.18333333333333332
1.22718684344e-05,0.18888888888888888
1.24790228196e-05,0.19444444444444445
1.26199508451e-05,0.2
1.26899663928e-05,0.20555555555555555
1.28356901762e-05,0.2111111111111111
1.29611180907e-05,0.21666666666666667
1.29895599009e-05,0.2222222222222222
1.34235744644e-05,0.22777777777777777
1.35355656519e-05,0.23333333333333334
1.36909455192e-05,0.2388888888888889
1.48265596694e-05,0.24444444444444444
1.56014178025e-05,0.25
1.69386017551e-05,0.25555555555555554
1.72069466711e-05,0.2611111111111111
1.7454567107e-05,0.26666666666666666
1.80456649059e-05,0.2722222222222222
6.379005908e-05,0.2777777777777778
0.00012758011816,0.2833333333333333
0.000139849323013,0.28888888888888886
0.000139849323013,0.29444444444444445
0.000143978765052,0.3
0.000143978765052,0.3055555555555556
0.000217975558289,0.3111111111111111
0.000286200544709,0.31666666666666665
0.000287957530104,0.32222222222222224
0.000383395723433,0.3277777777777778
0.00057295913536,0.3333333333333333
0.000595858800353,0.3388888888888889
0.000630997542255,0.34444444444444444
0.000630997542255,0.35
0.000805933334318,0.35555555555555557
0.00122718684344,0.3611111111111111
0.00124790228196,0.36666666666666664
0.00128779274326,0.37222222222222223
0.00138734373793,0.37777777777777777
0.00146782240666,0.38333333333333336
0.00146782240666,0.3888888888888889
0.00158520037497,0.39444444444444443
0.0016737583927,0.4
0.00170092920051,0.40555555555555556
0.00176885651165,0.4111111111111111
0.00190199510353,0.4166666666666667
0.0020334142408,0.4222222222222222
0.00211990020548,0.42777777777777776
0.00231625865561,0.43333333333333335
0.00242594916922,0.4388888888888889
0.00243449965787,0.4444444444444444
0.00250075963677,0.45
0.00252163359436,0.45555555555555555
0.0025246097604,0.46111111111111114
0.00252614283353,0.4666666666666667
0.00254033981299,0.4722222222222222
0.00255234802304,0.4777777777777778
0.00255480134803,0.48333333333333334
0.00256272586009,0.4888888888888889
0.00258343044419,0.49444444444444446
0.00259169891504,0.5
0.00259430178449,0.5055555555555555
0.00259516837724,0.5111111111111111
0.00259611521053,0.5166666666666667
0.00260135541781,0.5222222222222223
0.00260624058556,0.5277777777777778
0.00262117526008,0.5333333333333333
0.00262206678868,0.5388888888888889
0.00266792727941,0.5444444444444444
0.00267091275555,0.55
0.00268805984304,0.5555555555555556
0.00270199954168,0.5611111111111111
0.00270897870531,0.5666666666666667
0.00271111834735,0.5722222222222222
0.00273603324495,0.5777777777777777
0.00274004375631,0.5833333333333334
0.0027474233846,0.5888888888888889
0.00276446315354,0.5944444444444444
0.00276608642679,0.6
0.0027701127655,0.6055555555555555
0.00277449421129,0.6111111111111112
0.00277857756313,0.6166666666666667
0.00277996851168,0.6222222222222222
0.00278480587677,0.6277777777777778
0.00278989431874,0.6333333333333333
0.00281017985309,0.6388888888888888
0.00281143893911,0.6444444444444445
0.00345483626688,0.65
0.00405617815767,0.6555555555555556
0.00424680962223,0.6611111111111111
0.0052440585583,0.6666666666666666
0.00594066979774,0.6722222222222223
0.0105692333552,0.6777777777777778
0.0128584200539,0.6833333333333333
0.0134591497669,0.6888888888888889
0.0146629865445,0.6944444444444444
0.0150192915472,0.7
0.0158017839138,0.7055555555555556
0.0159748576658,0.7111111111111111
0.0169180821186,0.7166666666666667
0.0182716386837,0.7222222222222222
0.0183856884661,0.7277777777777777
0.0186873602638,0.7333333333333333
0.0189749036327,0.7388888888888889
0.0196522120794,0.7444444444444445
0.0672014960759,0.75
0.0672014960759,0.7555555555555555
0.0902992901771,0.7611111111111111
0.100472933952,0.7666666666666667
0.125037981838,0.7722222222222223
0.125037981838,0.7777777777777778
0.129715089224,0.7833333333333333
0.129715089224,0.7888888888888889
0.134402992152,0.7944444444444444
0.180598580354,0.8
0.255234802304,0.8055555555555556
0.259169891504,0.8111111111111111
0.271111834735,0.8166666666666667
0.277857756313,0.8222222222222222
0.319364855512,0.8277777777777777
0.341205871706,0.8333333333333334
0.36763289876,0.8388888888888889
0.385987675233,0.8444444444444444
0.415546886063,0.85
0.435443902439,0.8555555555555555
0.435443902439,0.8611111111111112
0.518781412557,0.8666666666666667
0.550101266609,0.8722222222222222
0.57339883681,0.8777777777777778
0.645504512958,0.8833333333333333
0.707951477237,0.8888888888888888
0.713924490116,0.8944444444444445
0.83174188123,0.9
1.26923166756,0.9055555555555556
1.41359533384,0.9111111111111111
1.47682731454,0.9166666666666666
1.68719865834,0.9222222222222223
1.73894484055,0.9277777777777778
3.16543744493,0.9333333333333333
3.23442717706,0.9388888888888889
3.42606150349,0.9444444444444444
3.67852247953,0.95
4.06113708635,0.9555555555555556
4.28960534408,0.9611111111111111
4.3381483629,0.9666666666666667
4.50159536462,0.9722222222222222
4.66011540212,0.9777777777777777
4.72997907268,0.9833333333333333
4.98545920749,0.9888888888888889
5.21708507305,0.9944444444444445
5.3871779931,1.0
