Congestion,CDF
0.0,0.007352941176470588
0.0,0.014705882352941176
0.0,0.022058823529411766
0.0,0.029411764705882353
0.0,0.03676470588235294
0.0,0.04411764705882353
0.0,0.051470588235294115
0.0,0.058823529411764705
0.0,0.0661764705882353
0.0,0.07352941176470588
0.0,0.08088235294117647
0.0,0.08823529411764706
0.0,0.09558823529411764
0.0,0.10294117647058823
1.67523360001e-05,0.11029411764705882
1.67523360001e-05,0.11764705882352941
1.67523360001e-05,0.125
1.67523360001e-05,0.1323529411764706
1.67523360001e-05,0.13970588235294118
1.67523360001e-05,0.14705882352941177
1.67523360001e-05,0.15441176470588236
1.67523360001e-05,0.16176470588235295
1.67523360001e-05,0.16911764705882354
1.67523360001e-05,0.17647058823529413
1.67523360001e-05,0.18382352941176472
1.67523360001e-05,0.19117647058823528
1.67523360001e-05,0.19852941176470587
1.67523360001e-05,0.20588235294117646
1.67523360001e-05,0.21323529411764705
1.67523360001e-05,0.22058823529411764
1.67523360001e-05,0.22794117647058823
1.67523360001e-05,0.23529411764705882
1.67523360001e-05,0.2426470588235294
1.67523360001e-05,0.25
1.67523360001e-05,0.25735294117647056
1.67523360001e-05,0.2647058823529412
1.67523360001e-05,0.27205882352941174
1.67523360001e-05,0.27941176470588236
1.67523360001e-05,0.2867647058823529
1.67523360001e-05,0.29411764705882354
1.67523360001e-05,0.3014705882352941
0.000418808400003,0.3088235294117647
0.000418808400003,0.3161764705882353
0.000452313072003,0.3235294117647059
0.000837616800005,0.33088235294117646
0.000837616800005,0.3382352941176471
0.000837616800005,0.34558823529411764
0.000837616800005,0.35294117647058826
0.00125642520001,0.3602941176470588
0.00139602800001,0.36764705882352944
0.00139602800001,0.375
0.00139602800001,0.38235294117647056
0.00167523360001,0.3897058823529412
0.00167523360001,0.39705882352941174
0.00167523360001,0.40441176470588236
0.00167523360001,0.4117647058823529
0.00167523360001,0.41911764705882354
0.00167523360001,0.4264705882352941
0.00167523360001,0.4338235294117647
0.00192335882162,0.4411764705882353
0.00209404200001,0.4485294117647059
0.00246086909159,0.45588235294117646
0.00251285040002,0.4632352941176471
0.00251285040002,0.47058823529411764
0.0027734721547,0.47794117647058826
0.0027734721547,0.4852941176470588
0.0027734721547,0.49264705882352944
0.0027734721547,0.5
0.00287020365824,0.5073529411764706
0.00296921780221,0.5147058823529411
0.00296921780221,0.5220588235294118
0.00296921780221,0.5294117647058824
0.00296921780221,0.5367647058823529
0.00296921780221,0.5441176470588235
0.00307126160002,0.5514705882352942
0.0032230242002,0.5588235294117647
0.0033169552025,0.5661764705882353
0.00335046720002,0.5735294117647058
0.00335046720002,0.5808823529411765
0.00352852879566,0.5882352941176471
0.00357734380479,0.5955882352941176
0.00410482471369,0.6029411764705882
0.00410482471369,0.6102941176470589
0.00418692246513,0.6176470588235294
0.00427109325994,0.625
0.00431441266136,0.6323529411764706
0.00431441266136,0.6397058823529411
0.00431441266136,0.6470588235294118
0.00431441266136,0.6544117647058824
0.00431458375458,0.6617647058823529
0.00431458375458,0.6691176470588235
0.00431458375458,0.6764705882352942
0.00502570080003,0.6838235294117647
0.00684053720004,0.6911764705882353
0.0121454436001,0.6985294117647058
0.0124246492001,0.7058823529411765
0.0160543220001,0.7132352941176471
0.0199632004001,0.7205882352941176
0.0202424060001,0.7279411764705882
0.0216384340001,0.7352941176470589
0.0219176396001,0.7426470588235294
0.0235928732002,0.75
0.0805756050051,0.7573529411764706
0.0882132198915,0.7647058823529411
0.0937093282661,0.7720588235294118
0.143510182912,0.7794117647058824
0.143510182912,0.7867647058823529
0.209346123257,0.7941176470588235
0.209346123257,0.8014705882352942
0.241726815015,0.8088235294117647
0.27734721547,0.8161764705882353
0.279353998313,0.8235294117647058
0.279353998313,0.8308823529411765
0.279353998313,0.8382352941176471
0.296921780221,0.8455882352941176
0.352852879566,0.8529411764705882
0.377497385226,0.8602941176470589
0.420857398382,0.8676470588235294
0.431441266136,0.875
0.431441266136,0.8823529411764706
0.431458375458,0.8897058823529411
0.431458375458,0.8970588235294118
0.55469443094,0.9044117647058824
0.576275778534,0.9117647058823529
0.619828594626,0.9191176470588235
0.862882532272,0.9264705882352942
1.25069494398,0.9338235294117647
1.29437512637,0.9411764705882353
2.26740268565,0.9485294117647058
3.10835341081,0.9558823529411765
3.52030173044,0.9632352941176471
3.7126376126,0.9705882352941176
4.02416285837,0.9779411764705882
5.05447392437,0.9852941176470589
5.41220830485,0.9926470588235294
5.65829521401,1.0
