Congestion,CDF
0.0,0.005555555555555556
0.0,0.011111111111111112
0.0,0.016666666666666666
0.0,0.022222222222222223
0.0,0.027777777777777776
0.0,0.03333333333333333
0.0,0.03888888888888889
0.0,0.044444444444444446
0.0,0.05
0.0,0.05555555555555555
1.05144038604e-06,0.06111111111111111
1.20805443655e-06,0.06666666666666667
2.7192304454e-06,0.07222222222222222
3.97431347341e-06,0.07777777777777778
4.06670070481e-06,0.08333333333333333
5.36944487091e-06,0.08888888888888889
5.90710001764e-06,0.09444444444444444
8.14133083488e-06,0.1
8.18333236802e-06,0.10555555555555556
8.37231716576e-06,0.1111111111111111
8.54462905929e-06,0.11666666666666667
9.4058909501e-06,0.12222222222222222
9.62405833439e-06,0.12777777777777777
1.07471270196e-05,0.13333333333333333
1.10072171662e-05,0.1388888888888889
1.15907398812e-05,0.14444444444444443
1.34025305603e-05,0.15
1.46678270491e-05,0.15555555555555556
1.53161659296e-05,0.16111111111111112
1.59294423786e-05,0.16666666666666666
1.61814788612e-05,0.17222222222222222
1.63114375654e-05,0.17777777777777778
1.68518587594e-05,0.18333333333333332
1.74374287311e-05,0.18888888888888888
1.77317799823e-05,0.19444444444444445
1.79320284134e-05,0.2
1.80315153929e-05,0.20555555555555555
1.82385782457e-05,0.2111111111111111
1.84168021512e-05,0.21666666666666667
1.84572158862e-05,0.2222222222222222
1.90739188813e-05,0.22777777777777777
1.9233050179e-05,0.23333333333333334
1.94538336218e-05,0.2388888888888889
2.10674583862e-05,0.24444444444444444
2.21684751992e-05,0.25
2.40685159303e-05,0.25555555555555554
2.44498144566e-05,0.2611111111111111
2.48016650103e-05,0.26666666666666666
2.56415718098e-05,0.2722222222222222
9.06410148468e-05,0.2777777777777778
0.000181282029694,0.2833333333333333
0.000198715673671,0.28888888888888886
0.000198715673671,0.29444444444444445
0.0002045833092,0.3
0.0002045833092,0.3055555555555556
0.000309727347804,0.3111111111111111
0.000406670070481,0.31666666666666665
0.000409166618401,0.32222222222222224
0.000544777320495,0.3277777777777778
0.000814133083488,0.3333333333333333
0.000846671834896,0.3388888888888889
0.00089660142067,0.34444444444444444
0.00089660142067,0.35
0.00114517240421,0.35555555555555557
0.00174374287311,0.3611111111111111
0.00177317799823,0.36666666666666664
0.00182985943021,0.37222222222222223
0.00197131412263,0.37777777777777777
0.00208566843287,0.38333333333333336
0.00208566843287,0.3888888888888889
0.00237828842786,0.39444444444444443
0.0025134159091,0.4
0.00270259612397,0.40555555555555556
0.00288933311943,0.4111111111111111
0.00358946446172,0.4166666666666667
0.0037951719472,0.4222222222222222
0.003993060321,0.42777777777777776
0.00490907000049,0.43333333333333335
0.00576353290642,0.4388888888888889
0.0060344062942,0.4444444444444444
0.00745142419517,0.45
0.00844125788724,0.45555555555555555
0.0148547083994,0.46111111111111114
0.0150181086409,0.4666666666666667
0.0152334519241,0.4722222222222222
0.0182708757418,0.4777777777777778
0.0191244687878,0.48333333333333334
0.0208350329228,0.4888888888888889
0.0213413163078,0.49444444444444446
0.0215100109836,0.5
0.0217526789046,0.5055555555555555
0.0217561426715,0.5111111111111111
0.0217878074716,0.5166666666666667
0.0217930533884,0.5222222222222223
0.0217930603647,0.5277777777777778
0.0218158224773,0.5333333333333333
0.0218431881162,0.5388888888888889
0.0219012883348,0.5444444444444444
0.0219022976815,0.55
0.0219099098196,0.5555555555555556
0.0219279773528,0.5611111111111111
0.0219555180516,0.5666666666666667
0.0219615261976,0.5722222222222222
0.0219684984627,0.5777777777777777
0.0219793205326,0.5833333333333334
0.0220355243587,0.5888888888888889
0.0220382726576,0.5944444444444444
0.0220516800525,0.6
0.0220618412248,0.6055555555555555
0.0220644745972,0.6111111111111112
0.0220754502334,0.6166666666666667
0.0220840188404,0.6222222222222222
0.0220957472766,0.6277777777777778
0.0221024628332,0.6333333333333333
0.0221063143558,0.6388888888888888
0.0221087292282,0.6444444444444445
0.022112543823,0.65
0.0221171226774,0.6555555555555556
0.022130595524,0.6611111111111111
0.0221384084415,0.6666666666666666
0.0221721729757,0.6722222222222223
0.0221943802652,0.6777777777777778
0.0222350173402,0.6833333333333333
0.0222427291975,0.6888888888888889
0.022250671153,0.6944444444444444
0.0222662222487,0.7
0.0224531808089,0.7055555555555556
0.0226991059696,0.7111111111111111
0.0240393590256,0.7166666666666667
0.0259626640435,0.7222222222222222
0.0261247204542,0.7277777777777777
0.0265533740453,0.7333333333333333
0.0269619521708,0.7388888888888889
0.0279243580043,0.7444444444444445
0.547557442037,0.75
0.547557442037,0.7555555555555555
0.726260249055,0.7611111111111111
0.844330640439,0.7666666666666667
1.08965301823,0.7722222222222223
1.08965301823,0.7777777777777778
1.09511488407,0.7833333333333333
1.10531571779,0.7888888888888889
1.10531571779,0.7944444444444444
1.45252049811,0.8
2.18158224773,0.8055555555555556
2.19012883348,0.8111111111111111
2.20957472766,0.8166666666666667
2.21024628332,0.8222222222222222
2.72282533249,0.8277777777777777
2.74035517732,0.8333333333333334
3.29320545411,0.8388888888888889
3.30086752295,0.8444444444444444
3.32018199938,0.85
3.48442755862,0.8555555555555555
3.48442755862,0.8611111111111112
4.3987995453,0.8666666666666667
4.4212869954,0.8722222222222222
4.90714414412,0.8777777777777778
5.51212190525,0.8833333333333333
5.67044269213,0.8888888888888888
5.69748711103,0.8944444444444445
7.11231214936,0.9
10.1161352784,0.9055555555555556
11.3304845179,0.9111111111111111
12.6215975448,0.9166666666666666
13.5214754999,0.9222222222222223
14.8450992788,0.9277777777777778
25.8484837011,0.9333333333333333
27.0027810992,0.9388888888888889
29.2294033241,0.9444444444444444
31.4355874466,0.95
32.4537307061,0.9555555555555556
34.6731687326,0.9611111111111111
36.936337924,0.9666666666666667
37.9596715971,0.9722222222222222
39.0873390224,0.9777777777777777
40.1576036504,0.9833333333333333
40.5728098623,0.9888888888888889
42.3369089892,0.9944444444444445
43.8602541816,1.0
