Congestion,CDF
0.0,0.005555555555555556
0.0,0.011111111111111112
0.0,0.016666666666666666
0.0,0.022222222222222223
0.0,0.027777777777777776
0.0,0.03333333333333333
0.0,0.03888888888888889
0.0,0.044444444444444446
0.0,0.05
0.0,0.05555555555555555
1.0478773404e-06,0.06111111111111111
1.20396066847e-06,0.06666666666666667
2.71001571264e-06,0.07222222222222222
3.96084560545e-06,0.07777777777777778
4.05291976164e-06,0.08333333333333333
5.35124928191e-06,0.08888888888888889
5.8870824615e-06,0.09444444444444444
8.11374207787e-06,0.1
8.15560127923e-06,0.10555555555555556
8.34394565887e-06,0.1111111111111111
8.51567363424e-06,0.11666666666666667
9.37401694263e-06,0.12222222222222222
9.59144501696e-06,0.12777777777777777
1.07107079277e-05,0.13333333333333333
1.09699166994e-05,0.1388888888888889
1.15514620147e-05,0.14444444444444443
1.33571130277e-05,0.15
1.46181217706e-05,0.15555555555555556
1.5264263607e-05,0.16111111111111112
1.58754618287e-05,0.16666666666666666
1.61266442283e-05,0.17222222222222222
1.62561625377e-05,0.17777777777777778
1.67947523912e-05,0.18333333333333332
1.73783380254e-05,0.18888888888888888
1.76716918002e-05,0.19444444444444445
1.78712616439e-05,0.2
1.79704114891e-05,0.20555555555555555
1.81767726621e-05,0.2111111111111111
1.83543926152e-05,0.21666666666666667
1.8394669399e-05,0.2222222222222222
1.90092825553e-05,0.22777777777777777
1.91678746004e-05,0.23333333333333334
1.93879098681e-05,0.2388888888888889
2.09960664968e-05,0.24444444444444444
2.20933522632e-05,0.25
2.39869542728e-05,0.25555555555555554
2.4366960682e-05,0.2611111111111111
2.47176189098e-05,0.26666666666666666
2.55546794935e-05,0.2722222222222222
9.03338570878e-05,0.2777777777777778
0.000180667714176,0.2833333333333333
0.000198042280273,0.28888888888888886
0.000198042280273,0.29444444444444445
0.000203890031981,0.3
0.000203890031981,0.3055555555555556
0.000308677766021,0.3111111111111111
0.000405291976164,0.31666666666666665
0.000407780063962,0.32222222222222224
0.000542931218252,0.3277777777777778
0.000811374207787,0.3333333333333333
0.000843802694212,0.3388888888888889
0.000893563082193,0.34444444444444444
0.000893563082193,0.35
0.00114129172624,0.35555555555555557
0.00173783380254,0.3611111111111111
0.00176716918002,0.36666666666666664
0.00182365853405,0.37222222222222223
0.00196463387496,0.37777777777777777
0.00207860066953,0.38333333333333336
0.00207860066953,0.3888888888888889
0.00237022905491,0.39444444444444443
0.00250489862585,0.4
0.00269343776039,0.40555555555555556
0.00287954195494,0.4111111111111111
0.00357730074244,0.4166666666666667
0.00378231114117,0.4222222222222222
0.00397952892507,0.42777777777777776
0.00489243449677,0.43333333333333335
0.0057440018602,0.4388888888888889
0.0060139573317,0.4444444444444444
0.00742617334421,0.45
0.00841265275898,0.45555555555555555
0.0149672163533,0.46111111111111114
0.0182089607108,0.4666666666666667
0.019059661162,0.4722222222222222
0.0207644286601,0.4777777777777778
0.0212689963883,0.48333333333333334
0.022377093083,0.4888888888888889
0.0226221848701,0.49444444444444446
0.0239578961729,0.5
0.0243686084843,0.5055555555555555
0.0246292911665,0.5111111111111111
0.0258746836329,0.5166666666666667
0.0260361908785,0.5222222222222223
0.026463391879,0.5277777777777778
0.0268705854444,0.5333333333333333
0.0278297299461,0.5388888888888889
0.0286788609534,0.5444444444444444
0.0288723297591,0.55
0.0289089201562,0.5555555555555556
0.0289112252928,0.5611111111111111
0.0289278506328,0.5666666666666667
0.0289317104169,0.5722222222222222
0.0289497568428,0.5777777777777777
0.0289674847824,0.5833333333333334
0.0290050785962,0.5888888888888889
0.0290057772156,0.5944444444444444
0.0290107164818,0.6
0.0290224124019,0.6055555555555555
0.0290400306417,0.6111111111111112
0.0290441146397,0.6166666666666667
0.0290454221041,0.6222222222222222
0.0290467979492,0.6277777777777778
0.0290792831891,0.6333333333333333
0.0290937799177,0.6388888888888888
0.0291023909034,0.6444444444444445
0.0291047991385,0.65
0.0291061936439,0.6555555555555556
0.0291106484493,0.6611111111111111
0.02912336864,0.6666666666666666
0.0291307650343,0.6722222222222223
0.0291353029779,0.6777777777777778
0.0291376730639,0.6833333333333333
0.0291393519318,0.6888888888888889
0.0291416346821,0.6944444444444444
0.0291445960574,0.7
0.0291535065288,0.7055555555555556
0.0291585088383,0.7111111111111111
0.0291803357844,0.7166666666666667
0.0291943984531,0.7222222222222222
0.0292209783321,0.7277777777777777
0.0292258693828,0.7333333333333333
0.0292312083075,0.7388888888888889
0.0292405470614,0.7444444444444445
0.725144430391,0.75
0.725144430391,0.7555555555555555
0.964390347231,0.7611111111111111
1.12452152884,0.7666666666666667
1.44639253164,0.7722222222222223
1.44639253164,0.7777777777777778
1.45028886078,0.7833333333333333
1.4568836532,0.7888888888888889
1.4568836532,0.7944444444444444
1.92878069446,0.8
2.89497568428,0.8055555555555556
2.90050785962,0.8111111111111111
2.91307650343,0.8166666666666667
2.91353029779,0.8222222222222222
3.61603644601,0.8277777777777777
3.62738567058,0.8333333333333334
4.35432085055,0.8388888888888889
4.36088671736,0.8444444444444444
4.37340969154,0.85
4.60330092498,0.8555555555555555
4.60330092498,0.8611111111111112
5.81300926272,0.8666666666666667
5.82753610917,0.8722222222222222
6.51278492425,0.8777777777777778
7.27505018557,0.8833333333333333
7.50115400958,0.8888888888888888
7.51865157786,0.8944444444444445
9.42302401459,0.9
13.3445187397,0.9055555555555556
14.9955774638,0.9111111111111111
16.6962664112,0.9166666666666666
17.896649112,0.9222222222222223
19.6183642444,0.9277777777777778
34.1551030449,0.9333333333333333
35.6435374775,0.9388888888888889
38.5675921836,0.9444444444444444
41.478211548,0.95
42.8791771525,0.9555555555555556
45.7986169978,0.9611111111111111
48.7430123124,0.9666666666666667
50.1496893244,0.9722222222222222
51.6108984077,0.9777777777777777
53.0542315348,0.9833333333333333
54.0477592562,0.9888888888888889
55.9414645107,0.9944444444444445
58.4043936273,1.0
