Congestion,CDF
0.0,0.005555555555555556
0.0,0.011111111111111112
0.0,0.016666666666666666
0.0,0.022222222222222223
0.0,0.027777777777777776
0.0,0.03333333333333333
0.0,0.03888888888888889
0.0,0.044444444444444446
0.0,0.05
0.0,0.05555555555555555
1.07328353874e-06,0.06111111111111111
1.23315116851e-06,0.06666666666666667
2.77572110969e-06,0.07222222222222222
4.05687786533e-06,0.07777777777777778
4.15118439566e-06,0.08333333333333333
5.4809924259e-06,0.08888888888888889
6.02981709172e-06,0.09444444444444444
8.31046294645e-06,0.1
8.35333704061e-06,0.10555555555555556
8.54624790383e-06,0.1111111111111111
8.72213949151e-06,0.11666666666666667
9.60129367108e-06,0.12222222222222222
9.82399337461e-06,0.12777777777777777
1.09703932549e-05,0.13333333333333333
1.12358866453e-05,0.1388888888888889
1.18315317555e-05,0.14444444444444443
1.36809614876e-05,0.15
1.49725438836e-05,0.15555555555555556
1.5634351683e-05,0.16111111111111112
1.62603686461e-05,0.16666666666666666
1.65176410617e-05,0.17222222222222222
1.66502995935e-05,0.17777777777777778
1.72019477699e-05,0.18333333333333332
1.77996826674e-05,0.18888888888888888
1.81001489199e-05,0.19444444444444445
1.83045574129e-05,0.2
1.84061111851e-05,0.20555555555555555
1.86174756659e-05,0.2111111111111111
1.87994020847e-05,0.21666666666666667
1.8840655395e-05,0.2222222222222222
1.9470170089e-05,0.22777777777777777
1.96326072606e-05,0.23333333333333334
1.985797737e-05,0.2388888888888889
2.15051243888e-05,0.24444444444444444
2.26290142802e-05,0.25
2.45685274155e-05,0.25555555555555554
2.49577472295e-05,0.2611111111111111
2.53169073041e-05,0.26666666666666666
2.61742627509e-05,0.2722222222222222
9.25240369898e-05,0.2777777777777778
0.00018504807398,0.2833333333333333
0.000202843893267,0.28888888888888886
0.000202843893267,0.29444444444444445
0.000208833426015,0.3
0.000208833426015,0.3055555555555556
0.00031616177989,0.3111111111111111
0.000415118439566,0.31666666666666665
0.000417666852031,0.32222222222222224
0.000522022883628,0.3277777777777778
0.000556094799224,0.3333333333333333
0.000831046294645,0.3388888888888889
0.00086426102248,0.34444444444444444
0.000889259288291,0.35
0.000915227870644,0.35555555555555557
0.000915227870644,0.3611111111111111
0.00116896279312,0.36666666666666664
0.00177996826674,0.37222222222222223
0.00181001489199,0.37777777777777777
0.00186787385262,0.38333333333333336
0.00201226719613,0.3888888888888889
0.00212899716047,0.39444444444444443
0.00212899716047,0.4
0.00242769619078,0.40555555555555556
0.00256563087844,0.4111111111111111
0.00275874121848,0.4166666666666667
0.00294935758244,0.4222222222222222
0.00366403380623,0.42777777777777776
0.00387401476273,0.43333333333333335
0.00407601416938,0.4388888888888889
0.0050110534958,0.4444444444444444
0.00588326744495,0.45
0.00615976809307,0.45555555555555555
0.00760622383835,0.46111111111111114
0.00827565915832,0.4666666666666667
0.00861662083461,0.4722222222222222
0.00863290327368,0.4777777777777778
0.00863849119762,0.48333333333333334
0.00869065207075,0.4888888888888889
0.00871053123959,0.49444444444444446
0.00873185062816,0.5
0.00873694249766,0.5055555555555555
0.00878197755765,0.5111111111111111
0.00887767282463,0.5166666666666667
0.00887925186758,0.5222222222222223
0.00889176426357,0.5277777777777778
0.00892151309579,0.5333333333333333
0.00896724461874,0.5388888888888889
0.00897678071888,0.5444444444444444
0.00899135379369,0.55
0.00901974022401,0.5555555555555556
0.00910317601341,0.5611111111111111
0.00911809141052,0.5666666666666667
0.00912537681611,0.5722222222222222
0.00914648837196,0.5777777777777777
0.00914679133136,0.5833333333333334
0.00917854419638,0.5888888888888889
0.00918182376422,0.5944444444444444
0.00919821406307,0.6
0.00920892255774,0.6055555555555555
0.00921548986053,0.6111111111111112
0.00921925421042,0.6166666666666667
0.00922587663302,0.6222222222222222
0.00923342071731,0.6277777777777778
0.00925525867795,0.6333333333333333
0.00926822434558,0.6388888888888888
0.00932387413024,0.6444444444444445
0.00936099897159,0.65
0.00942742195536,0.6555555555555556
0.00944030369753,0.6611111111111111
0.00945301970218,0.6666666666666666
0.00947993358214,0.6722222222222223
0.0153301024018,0.6777777777777778
0.0186504441265,0.6833333333333333
0.0195217701449,0.6888888888888889
0.0212678704016,0.6944444444444444
0.0217846715729,0.7
0.0229196345078,0.7055555555555556
0.0231706686417,0.7111111111111111
0.0245387647905,0.7166666666666667
0.0265020255165,0.7222222222222222
0.0266674485689,0.7277777777777777
0.0271050072257,0.7333333333333333
0.0275220733593,0.7388888888888889
0.0285044726967,0.7444444444444445
0.221981296689,0.75
0.221981296689,0.7555555555555555
0.289688402358,0.7611111111111111
0.336446116211,0.7666666666666667
0.435526561979,0.7722222222222223
0.435526561979,0.7777777777777778
0.443962593379,0.7833333333333333
0.460774493026,0.7888888888888889
0.460774493026,0.7944444444444444
0.579376804717,0.8
0.873694249766,0.8055555555555556
0.887767282463,0.8111111111111111
0.919821406307,0.8166666666666667
0.920892255774,0.8222222222222222
1.08527162406,0.8277777777777777
1.11413260627,0.8333333333333334
1.34733570303,0.8388888888888889
1.3574989549,0.8444444444444444
1.3892645636,0.85
1.4331597201,0.8555555555555555
1.4331597201,0.8611111111111112
1.80608166279,0.8666666666666667
1.84316347804,0.8722222222222222
1.96346937982,0.8777777777777778
2.2800866182,0.8833333333333333
2.31413860997,0.8888888888888888
2.3586855879,0.8944444444444445
2.87600706143,0.9
4.19743226331,0.9055555555555556
4.61114744983,0.9111111111111111
5.15137127148,0.9166666666666666
5.50032387619,0.9222222222222223
6.09411346702,0.9277777777777778
10.6196815605,0.9333333333333333
11.161393933,0.9388888888888889
12.1093872912,0.9444444444444444
13.0240664244,0.95
13.3404120605,0.9555555555555556
14.2765119577,0.9611111111111111
15.2895845038,0.9666666666666667
15.611173899,0.9722222222222222
16.1171504196,0.9777777777777777
16.169352708,0.9833333333333333
16.5131479214,0.9888888888888889
17.3863329842,0.9944444444444445
17.4752589131,1.0
