Congestion,CDF
0.0,0.005555555555555556
0.0,0.011111111111111112
0.0,0.016666666666666666
0.0,0.022222222222222223
0.0,0.027777777777777776
0.0,0.03333333333333333
0.0,0.03888888888888889
0.0,0.044444444444444446
0.0,0.05
0.0,0.05555555555555555
1.04834242435e-06,0.06111111111111111
1.20449502757e-06,0.06666666666666667
2.71121851069e-06,0.07222222222222222
3.96260356477e-06,0.07777777777777778
4.05471858663e-06,0.08333333333333333
5.35362435013e-06,0.08888888888888889
5.88969535089e-06,0.09444444444444444
8.11734323528e-06,0.1
8.15922101519e-06,0.10555555555555556
8.34764898853e-06,0.1111111111111111
8.51945318267e-06,0.11666666666666667
9.3781774533e-06,0.12222222222222222
9.59570202968e-06,0.12777777777777777
1.07154617077e-05,0.13333333333333333
1.09747855252e-05,0.1388888888888889
1.15565889503e-05,0.14444444444444443
1.33630413732e-05,0.15
1.46246097951e-05,0.15555555555555556
1.52710384114e-05,0.16111111111111112
1.58825079039e-05,0.16666666666666666
1.61338017868e-05,0.17222222222222222
1.6263377581e-05,0.17777777777777778
1.68022064791e-05,0.18333333333333332
1.73860511287e-05,0.18888888888888888
1.7679535104e-05,0.19444444444444445
1.78791935236e-05,0.2
1.79783873749e-05,0.20555555555555555
1.81848401381e-05,0.2111111111111111
1.8362538925e-05,0.21666666666666667
1.84028335851e-05,0.2222222222222222
1.90177195278e-05,0.22777777777777777
1.91763819615e-05,0.23333333333333334
1.93965148884e-05,0.2388888888888889
2.10053852723e-05,0.24444444444444444
2.21031580517e-05,0.25
2.39976005069e-05,0.25555555555555554
2.4377775576e-05,0.2611111111111111
2.4728589438e-05,0.26666666666666666
2.5566021538e-05,0.2722222222222222
9.03739503562e-05,0.2777777777777778
0.000180747900712,0.2833333333333333
0.000198130178239,0.28888888888888886
0.000198130178239,0.29444444444444445
0.00020398052538,0.3
0.00020398052538,0.3055555555555556
0.000308814767815,0.3111111111111111
0.000405471858663,0.31666666666666665
0.000407961050759,0.32222222222222224
0.000543172189774,0.3277777777777778
0.000811734323528,0.3333333333333333
0.000844177202828,0.3388888888888889
0.000893959676179,0.34444444444444444
0.000893959676179,0.35
0.00114179827071,0.35555555555555557
0.00173860511287,0.3611111111111111
0.0017679535104,0.36666666666666664
0.00182446793634,0.37222222222222223
0.00196550584695,0.37777777777777777
0.0020795232239,0.38333333333333336
0.0020795232239,0.3888888888888889
0.00237128104397,0.39444444444444443
0.00250601038589,0.4
0.00269463320058,0.40555555555555556
0.00288081999456,0.4111111111111111
0.00357888847138,0.4166666666666667
0.00378398986076,0.4222222222222222
0.00398129517668,0.42777777777777776
0.00489460592724,0.43333333333333335
0.0057465512455,0.4388888888888889
0.00601662653252,0.4444444444444444
0.007429469335,0.45
0.00841638658321,0.45555555555555555
0.014973859318,0.46111111111111114
0.018217042473,0.4666666666666667
0.0190681204943,0.4722222222222222
0.0207736446268,0.4777777777777778
0.0212784362994,0.48333333333333334
0.0223870248054,0.4888888888888889
0.0226322253727,0.49444444444444446
0.0227855262178,0.5
0.0230675649694,0.5055555555555555
0.02396852951,0.5111111111111111
0.0258861677062,0.5166666666666667
0.0260477466343,0.5222222222222223
0.0264751372413,0.5277777777777778
0.0268825115331,0.5333333333333333
0.0274860380045,0.5388888888888889
0.0276941823901,0.5444444444444444
0.0277162132809,0.55
0.0277187115226,0.5555555555555556
0.0277387316154,0.5611111111111111
0.0277410599261,0.5666666666666667
0.027760767782,0.5722222222222222
0.0277801020047,0.5777777777777777
0.0278211135527,0.5833333333333334
0.0278218639599,0.5888888888888889
0.0278272487048,0.5944444444444444
0.0278400065604,0.6
0.0278420817361,0.6055555555555555
0.0278592785435,0.6111111111111112
0.0278636832327,0.6166666666666667
0.027867083054,0.6222222222222222
0.0278677951091,0.6277777777777778
0.0279053482053,0.6333333333333333
0.027917862041,0.6388888888888888
0.0279272724282,0.6444444444444445
0.0279321375097,0.65
0.0279333133909,0.6555555555555556
0.0279362861422,0.6611111111111111
0.0279501436734,0.6666666666666666
0.0279582620751,0.6722222222222223
0.0279631629538,0.6777777777777778
0.027965779946,0.6833333333333333
0.0279675814812,0.6888888888888889
0.0279701195395,0.6944444444444444
0.0279733504948,0.7
0.0279830213613,0.7055555555555556
0.0279884921055,0.7111111111111111
0.02801230865,0.7166666666666667
0.028027728807,0.7222222222222222
0.0280566515003,0.7277777777777777
0.0280620126888,0.7333333333333333
0.0280677854485,0.7388888888888889
0.0280781596875,0.7444444444444445
0.695546598998,0.75
0.695546598998,0.7555555555555555
0.924701997535,0.7611111111111111
1.07783375056,0.7666666666666667
1.38693658077,0.7722222222222223
1.38693658077,0.7777777777777778
1.391093198,0.7833333333333333
1.3982889973,0.7888888888888889
1.3982889973,0.7944444444444444
1.84940399507,0.8
2.7760767782,0.8055555555555556
2.78211135527,0.8111111111111111
2.79582620751,0.8166666666666667
2.79631629538,0.8222222222222222
3.46716792709,0.8277777777777777
3.47954725504,0.8333333333333334
4.1774714013,0.8388888888888889
4.18421685165,0.8444444444444444
4.19787174284,0.85
4.41682203059,0.8555555555555555
4.41682203059,0.8611111111111112
5.5773076432,0.8666666666666667
5.59316125699,0.8722222222222222
6.24517812756,0.8777777777777778
6.9812288056,0.8833333333333333
7.19603545668,0.8888888888888888
7.21512416672,0.8944444444444445
9.03790537038,0.9
12.8064548294,0.9055555555555556
14.3847286395,0.9111111111111111
16.0171549335,0.9166666666666666
17.16745351,0.9222222222222223
18.8228200835,0.9277777777777778
32.7706664876,0.9333333333333333
34.203411415,0.9388888888888889
37.0112273838,0.9444444444444444
39.8044411347,0.95
41.141602745,0.9555555555555556
43.9443756257,0.9611111111111111
46.7752438751,0.9666666666666667
48.1180205119,0.9722222222222222
49.5238476756,0.9777777777777777
50.9048000228,0.9833333333333333
51.8024002973,0.9888888888888889
53.6742182618,0.9944444444444445
55.9809747587,1.0
