Congestion,CDF
0.0,0.007352941176470588
0.0,0.014705882352941176
0.0,0.022058823529411766
0.0,0.029411764705882353
0.0043413739273,0.03676470588235294
0.0043413739273,0.04411764705882353
0.00486695473157,0.051470588235294115
0.00486695473157,0.058823529411764705
0.00508632023867,0.0661764705882353
0.00508632023867,0.07352941176470588
0.00512135699834,0.08088235294117647
0.00512135699834,0.08823529411764706
0.00518156998723,0.09558823529411764
0.00518156998723,0.10294117647058823
0.00551323556756,0.11029411764705882
0.00551323556756,0.11764705882352941
0.00617957108474,0.125
0.00617957108474,0.1323529411764706
0.00629646384401,0.13970588235294118
0.00629646384401,0.14705882352941177
0.00660159872896,0.15441176470588236
0.00660159872896,0.16176470588235295
0.00744833298119,0.16911764705882354
0.00744833298119,0.17647058823529413
0.00763905051892,0.18382352941176472
0.00763905051892,0.19117647058823528
0.00767380756479,0.19852941176470587
0.00767380756479,0.20588235294117646
0.00788940435004,0.21323529411764705
0.00788940435004,0.22058823529411764
0.00790021251139,0.22794117647058823
0.00790021251139,0.23529411764705882
0.00794992672784,0.2426470588235294
0.00794992672784,0.25
0.00800556670849,0.25735294117647056
0.00800556670849,0.2647058823529412
0.00829328684148,0.27205882352941174
0.00829328684148,0.27941176470588236
0.00871001670155,0.2867647058823529
0.00871001670155,0.29411764705882354
0.00966960824732,0.3014705882352941
0.00966960824732,0.3088235294117647
0.0107413873382,0.3161764705882353
0.0107413873382,0.3235294117647059
0.0111398553663,0.33088235294117646
0.0111398553663,0.3382352941176471
0.0120087868187,0.34558823529411764
0.0120087868187,0.35294117647058826
0.0132641726028,0.3602941176470588
0.0132641726028,0.36764705882352944
0.0144973846395,0.375
0.0144973846395,0.38235294117647056
0.0152714924416,0.3897058823529412
0.0152714924416,0.39705882352941174
0.0191998677311,0.40441176470588236
0.0191998677311,0.4117647058823529
0.0199241166105,0.41911764705882354
0.0199241166105,0.4264705882352941
0.0206770285234,0.4338235294117647
0.0206770285234,0.4411764705882353
0.0240848663734,0.4485294117647059
0.0240848663734,0.45588235294117646
0.0261654234251,0.4632352941176471
0.0261654234251,0.47058823529411764
0.150683049283,0.47794117647058826
0.150683049283,0.4852941176470588
0.170606582871,0.49264705882352944
0.170606582871,0.5
0.256067849917,0.5073529411764706
0.256067849917,0.5147058823529411
0.256067849917,0.5220588235294118
0.256067849917,0.5294117647058824
0.27572507692,0.5367647058823529
0.27572507692,0.5441176470588235
0.346712085127,0.5514705882352942
0.346712085127,0.5588235294117647
0.439568473639,0.5661764705882353
0.439568473639,0.5735294117647058
0.464201525737,0.5808823529411765
0.464201525737,0.5882352941176471
0.481361078215,0.5955882352941176
0.481361078215,0.6029411764705882
0.542241865096,0.6102941176470589
0.542241865096,0.6176470588235294
0.600778469123,0.625
0.600778469123,0.6323529411764706
0.600778469123,0.6397058823529411
0.600778469123,0.6470588235294118
0.640852235331,0.6544117647058824
0.640852235331,0.6617647058823529
0.660159872896,0.6691176470588235
0.660159872896,0.6764705882352942
0.739820185519,0.6838235294117647
0.739820185519,0.6911764705882353
0.815105858429,0.6985294117647058
0.815105858429,0.7058823529411765
0.874024958391,0.7132352941176471
0.874024958391,0.7205882352941176
0.940795401307,0.7279411764705882
0.940795401307,0.7352941176470589
1.05349347104,0.7426470588235294
1.05349347104,0.75
1.09477770555,0.7573529411764706
1.09477770555,0.7647058823529411
1.09477770555,0.7720588235294118
1.09477770555,0.7794117647058824
1.38162794698,0.7867647058823529
1.38162794698,0.7941176470588235
1.52714924416,0.8014705882352942
1.52714924416,0.8088235294117647
1.97946901132,0.8161764705882353
1.97946901132,0.8235294117647058
1.99241166105,0.8308823529411765
1.99241166105,0.8382352941176471
2.01182210641,0.8455882352941176
2.01182210641,0.8529411764705882
2.06770285234,0.8602941176470589
2.06770285234,0.8676470588235294
2.14167408317,0.875
2.14167408317,0.8823529411764706
2.14665257634,0.8897058823529411
2.14665257634,0.8970588235294118
2.70116263119,0.9044117647058824
2.70116263119,0.9117647058823529
2.89213713672,0.9191176470588235
2.89213713672,0.9264705882352942
3.4002389541,0.9338235294117647
3.4002389541,0.9411764705882353
4.29265886259,0.9485294117647058
4.29265886259,0.9558823529411765
5.9801012865,0.9632352941176471
5.9801012865,0.9705882352941176
7.60434305556,0.9779411764705882
7.60434305556,0.9852941176470589
8.90392350388,0.9926470588235294
8.90392350388,1.0
