Congestion,CDF
0.0143028985741,0.009433962264150943
0.0143028985741,0.018867924528301886
0.0143124613952,0.02830188679245283
0.0143124613952,0.03773584905660377
0.0143136547451,0.04716981132075472
0.0143136547451,0.05660377358490566
0.0143150158604,0.0660377358490566
0.0143150158604,0.07547169811320754
0.0143193398554,0.08490566037735849
0.0143193398554,0.09433962264150944
0.0143214295258,0.10377358490566038
0.0143214295258,0.11320754716981132
0.0143273957425,0.12264150943396226
0.0143273957425,0.1320754716981132
0.0143394864216,0.14150943396226415
0.0143394864216,0.1509433962264151
0.0143488124345,0.16037735849056603
0.0143488124345,0.16981132075471697
0.0143512199571,0.1792452830188679
0.0143512199571,0.18867924528301888
0.0143582926758,0.19811320754716982
0.0143582926758,0.20754716981132076
0.0143691383528,0.2169811320754717
0.0143691383528,0.22641509433962265
0.0143704022719,0.2358490566037736
0.0143704022719,0.24528301886792453
0.0143734776625,0.25471698113207547
0.0143734776625,0.2641509433962264
0.110263431664,0.27358490566037735
0.110263431664,0.2830188679245283
0.146745236902,0.29245283018867924
0.146745236902,0.3018867924528302
0.202044224129,0.3113207547169811
0.202044224129,0.32075471698113206
0.212979328659,0.330188679245283
0.212979328659,0.33962264150943394
0.213116455607,0.3490566037735849
0.213116455607,0.3584905660377358
0.220243422999,0.36792452830188677
0.220243422999,0.37735849056603776
0.243474188965,0.3867924528301887
0.243474188965,0.39622641509433965
0.243731795585,0.4056603773584906
0.243731795585,0.41509433962264153
0.247591117606,0.42452830188679247
0.247591117606,0.4339622641509434
0.260993618995,0.44339622641509435
0.260993618995,0.4528301886792453
0.273458110382,0.46226415094339623
0.273458110382,0.4716981132075472
0.273955190888,0.4811320754716981
0.273955190888,0.49056603773584906
0.314038408688,0.5
0.314038408688,0.5094339622641509
0.325144483299,0.5188679245283019
0.325144483299,0.5283018867924528
0.325381359814,0.5377358490566038
0.325381359814,0.5471698113207547
0.339614392478,0.5566037735849056
0.339614392478,0.5660377358490566
0.347361371856,0.5754716981132075
0.347361371856,0.5849056603773585
0.357895114062,0.5943396226415094
0.357895114062,0.6037735849056604
0.372155451743,0.6132075471698113
0.372155451743,0.6226415094339622
0.38577834243,0.6320754716981132
0.38577834243,0.6415094339622641
0.394448426897,0.6509433962264151
0.394448426897,0.660377358490566
0.40434056076,0.6698113207547169
0.40434056076,0.6792452830188679
0.414411083997,0.6886792452830188
0.414411083997,0.6981132075471698
0.454686168833,0.7075471698113207
0.454686168833,0.7169811320754716
0.46312733431,0.7264150943396226
0.46312733431,0.7358490566037735
0.463656985468,0.7452830188679245
0.463656985468,0.7547169811320755
0.49848673938,0.7641509433962265
0.49848673938,0.7735849056603774
0.499227673447,0.7830188679245284
0.499227673447,0.7924528301886793
0.566373241992,0.8018867924528302
0.566373241992,0.8113207547169812
0.567697339291,0.8207547169811321
0.567697339291,0.8301886792452831
0.582795327411,0.839622641509434
0.582795327411,0.8490566037735849
0.628186135898,0.8584905660377359
0.628186135898,0.8679245283018868
0.629174208769,0.8773584905660378
0.629174208769,0.8867924528301887
0.632960184175,0.8962264150943396
0.632960184175,0.9056603773584906
0.681082709044,0.9150943396226415
0.681082709044,0.9245283018867925
0.682813659066,0.9339622641509434
0.682813659066,0.9433962264150944
0.743670640937,0.9528301886792453
0.743670640937,0.9622641509433962
0.836584015458,0.9716981132075472
0.836584015458,0.9811320754716981
0.873546825469,0.9905660377358491
0.873546825469,1.0
