Congestion,CDF
0.0,0.007352941176470588
0.0,0.014705882352941176
0.0,0.022058823529411766
0.0,0.029411764705882353
0.0,0.03676470588235294
0.0,0.04411764705882353
0.0,0.051470588235294115
0.0,0.058823529411764705
0.0,0.0661764705882353
0.0,0.07352941176470588
0.0,0.08088235294117647
0.0,0.08823529411764706
0.0,0.09558823529411764
0.0,0.10294117647058823
7.56262613012e-06,0.11029411764705882
7.56262613012e-06,0.11764705882352941
7.56262613012e-06,0.125
7.56262613012e-06,0.1323529411764706
7.56262613012e-06,0.13970588235294118
7.56262613012e-06,0.14705882352941177
7.56262613012e-06,0.15441176470588236
7.56262613012e-06,0.16176470588235295
7.56262613012e-06,0.16911764705882354
7.56262613012e-06,0.17647058823529413
7.56262613012e-06,0.18382352941176472
7.56262613012e-06,0.19117647058823528
7.56262613012e-06,0.19852941176470587
7.56262613012e-06,0.20588235294117646
7.56262613012e-06,0.21323529411764705
7.56262613012e-06,0.22058823529411764
7.56262613012e-06,0.22794117647058823
7.56262613012e-06,0.23529411764705882
7.56262613012e-06,0.2426470588235294
7.56262613012e-06,0.25
7.56262613012e-06,0.25735294117647056
7.56262613012e-06,0.2647058823529412
7.56262613012e-06,0.27205882352941174
7.56262613012e-06,0.27941176470588236
7.56262613012e-06,0.2867647058823529
7.56262613012e-06,0.29411764705882354
7.56262613012e-06,0.3014705882352941
0.000189065653253,0.3088235294117647
0.000189065653253,0.3161764705882353
0.000204190905513,0.3235294117647059
0.000378131306506,0.33088235294117646
0.000378131306506,0.3382352941176471
0.000378131306506,0.34558823529411764
0.000378131306506,0.35294117647058826
0.000567196959759,0.3602941176470588
0.000630218844177,0.36764705882352944
0.000630218844177,0.375
0.000630218844177,0.38235294117647056
0.000756262613012,0.3897058823529412
0.000756262613012,0.39705882352941174
0.000756262613012,0.40441176470588236
0.000756262613012,0.4117647058823529
0.000756262613012,0.41911764705882354
0.000756262613012,0.4264705882352941
0.000756262613012,0.4338235294117647
0.000945328266265,0.4411764705882353
0.00113439391952,0.4485294117647059
0.00113439391952,0.45588235294117646
0.00138648145719,0.4632352941176471
0.00151252522602,0.47058823529411764
0.00151252522602,0.47794117647058826
0.00226878783904,0.4852941176470588
0.0022862637431,0.49264705882352944
0.00290691773981,0.5
0.00308807233647,0.5073529411764706
0.00344222651478,0.5147058823529411
0.00344222651478,0.5220588235294118
0.00344222651478,0.5294117647058824
0.00344222651478,0.5367647058823529
0.00359293384293,0.5441176470588235
0.00374998384044,0.5514705882352942
0.00374998384044,0.5588235294117647
0.00377006760542,0.5661764705882353
0.00377006760542,0.5735294117647058
0.00377006760542,0.5808823529411765
0.00403202243501,0.5882352941176471
0.00412900068219,0.5955882352941176
0.00434149044594,0.6029411764705882
0.004354050871,0.6102941176470589
0.00495926779651,0.6176470588235294
0.00495926779651,0.625
0.00505099901365,0.6323529411764706
0.00514519853461,0.6397058823529411
0.00519314649922,0.6470588235294118
0.00519314649922,0.6544117647058824
0.00519314649922,0.6617647058823529
0.00519314649922,0.6691176470588235
0.00519382430553,0.6764705882352942
0.00519382430553,0.6838235294117647
0.00519382430553,0.6911764705882353
0.00548290394434,0.6985294117647058
0.00560894771317,0.7058823529411765
0.00724751670803,0.7132352941176471
0.00901212947173,0.7205882352941176
0.00913817324056,0.7279411764705882
0.00976839208474,0.7352941176470589
0.00989443585358,0.7426470588235294
0.0106506984666,0.75
0.100800560875,0.7573529411764706
0.108851271775,0.7647058823529411
0.114690548371,0.7720588235294118
0.179646692146,0.7794117647058824
0.179646692146,0.7867647058823529
0.252549950683,0.7941176470588235
0.252549950683,0.8014705882352942
0.302401682626,0.8088235294117647
0.344222651478,0.8161764705882353
0.347285188723,0.8235294117647058
0.347285188723,0.8308823529411765
0.347285188723,0.8382352941176471
0.377006760542,0.8455882352941176
0.4354050871,0.8529411764705882
0.477807321417,0.8602941176470589
0.519314649922,0.8676470588235294
0.519314649922,0.875
0.519382430553,0.8823529411764706
0.519382430553,0.8897058823529411
0.523869343624,0.8970588235294118
0.688445302956,0.9044117647058824
0.722283572767,0.9117647058823529
0.748476730334,0.9191176470588235
1.03862929984,0.9264705882352942
1.55814729166,0.9338235294117647
1.57910603122,0.9411764705882353
2.85603468018,0.9485294117647058
3.74425716312,0.9558823529411765
4.41257197824,0.9632352941176471
4.64119835255,0.9705882352941176
4.85861215599,0.9779411764705882
6.10301566597,0.9852941176470589
6.53716471057,0.9926470588235294
6.82785648455,1.0
