Congestion,CDF
0.0,0.005555555555555556
0.0,0.011111111111111112
0.0,0.016666666666666666
0.0,0.022222222222222223
0.0,0.027777777777777776
0.0,0.03333333333333333
0.0,0.03888888888888889
0.0,0.044444444444444446
0.0,0.05
0.0,0.05555555555555555
1.05680105986e-06,0.06111111111111111
1.21421359296e-06,0.06666666666666667
2.73309419617e-06,0.07222222222222222
3.99457615162e-06,0.07777777777777778
4.08743441097e-06,0.08333333333333333
5.39682050051e-06,0.08888888888888889
5.93721683343e-06,0.09444444444444444
8.18283867465e-06,0.1
8.22505434881e-06,0.10555555555555556
8.41500266847e-06,0.1111111111111111
8.58819307863e-06,0.11666666666666667
9.45384603538e-06,0.12222222222222222
9.67312572636e-06,0.12777777777777777
1.08019202758e-05,0.13333333333333333
1.10633364685e-05,0.1388888888888889
1.16498342214e-05,0.14444444444444443
1.34708621516e-05,0.15
1.47426096402e-05,0.15555555555555556
1.5394254018e-05,0.16111111111111112
1.60106572015e-05,0.16666666666666666
1.62639786694e-05,0.17222222222222222
1.63945999563e-05,0.17777777777777778
1.69377764389e-05,0.18333333333333332
1.75263318861e-05,0.18888888888888888
1.78221838606e-05,0.19444444444444445
1.80234532403e-05,0.2
1.81234474452e-05,0.20555555555555555
1.83315659892e-05,0.2111111111111111
1.85106985531e-05,0.21666666666666667
1.85513183339e-05,0.2222222222222222
1.91711655335e-05,0.22777777777777777
1.93311081479e-05,0.23333333333333334
1.95530172351e-05,0.2388888888888889
2.11748689195e-05,0.24444444444444444
2.22814991673e-05,0.25
2.41912270844e-05,0.25555555555555554
2.45744696268e-05,0.2611111111111111
2.49281140588e-05,0.26666666666666666
2.57723030472e-05,0.2722222222222222
9.11031398724e-05,0.2777777777777778
0.000182206279745,0.2833333333333333
0.000199728807581,0.28888888888888886
0.000199728807581,0.29444444444444445
0.00020562635872,0.3
0.00020562635872,0.3055555555555556
0.000311306464706,0.3111111111111111
0.000408743441097,0.31666666666666665
0.00041125271744,0.32222222222222224
0.000547554818448,0.3277777777777778
0.000818283867465,0.3333333333333333
0.000850988514757,0.3388888888888889
0.000901172662014,0.34444444444444444
0.000901172662014,0.35
0.00115101096226,0.35555555555555557
0.00175263318861,0.3611111111111111
0.00178221838606,0.36666666666666664
0.00183918880321,0.37222222222222223
0.00198136468959,0.37777777777777777
0.00209630202495,0.38333333333333336
0.00209630202495,0.3888888888888889
0.00239041391655,0.39444444444444443
0.00252623033305,0.4
0.00271637506615,0.40555555555555556
0.00290406412332,0.4111111111111111
0.00360776502201,0.4166666666666667
0.00381452128851,0.4222222222222222
0.00401341857831,0.42777777777777776
0.0049340984504,0.43333333333333335
0.00579291775826,0.4388888888888889
0.00606517216954,0.4444444444444444
0.00748941460826,0.45
0.00848429487799,0.45555555555555555
0.0142883834739,0.46111111111111114
0.0143786822297,0.4666666666666667
0.015094677111,0.4722222222222222
0.0156635388826,0.4777777777777778
0.0157368182155,0.48333333333333334
0.01576601906,0.4888888888888889
0.015766800128,0.49444444444444446
0.0157724131482,0.5
0.0157742523814,0.5055555555555555
0.0157808636878,0.5111111111111111
0.0157873154363,0.5166666666666667
0.015800983384,0.5222222222222223
0.0158011993682,0.5277777777777778
0.0158029824498,0.5333333333333333
0.0158072318746,0.5388888888888889
0.0158137676392,0.5444444444444444
0.0158147113827,0.55
0.01581512826,0.5555555555555556
0.0158164800838,0.5611111111111111
0.0158266991971,0.5666666666666667
0.0158331837313,0.5722222222222222
0.015836064409,0.5777777777777777
0.0158363725962,0.5833333333333334
0.0158382911172,0.5888888888888889
0.0158393700571,0.5944444444444444
0.0158439525788,0.6
0.0158467634576,0.6055555555555555
0.0158482923478,0.6111111111111112
0.0158492372121,0.6166666666666667
0.0158497670438,0.6222222222222222
0.0158507150262,0.6277777777777778
0.0158517929981,0.6333333333333333
0.0158549118867,0.6388888888888888
0.0158567765796,0.6444444444444445
0.0158647111883,0.65
0.0158699508366,0.6555555555555556
0.0158795189939,0.6611111111111111
0.0158813472125,0.6666666666666666
0.0158831624409,0.6722222222222223
0.0158868906978,0.6777777777777778
0.0183640281512,0.6833333333333333
0.0192219731642,0.6888888888888889
0.0209412584559,0.6944444444444444
0.021450123081,0.7
0.0225676563228,0.7055555555555556
0.0228148353107,0.7111111111111111
0.0241619215258,0.7166666666666667
0.0260950323406,0.7222222222222222
0.0262579149814,0.7277777777777777
0.026688754024,0.7333333333333333
0.0270994152482,0.7388888888888889
0.0280667278208,0.7444444444444445
0.395029984205,0.75
0.395029984205,0.7555555555555555
0.525808412714,0.7611111111111111
0.614115342694,0.7666666666666667
0.788620657411,0.7722222222222223
0.788620657411,0.7777777777777778
0.79005996841,0.7833333333333333
0.792461860607,0.7888888888888889
0.792461860607,0.7944444444444444
1.05161682543,0.8
1.57808636878,0.8055555555555556
1.5800983384,0.8111111111111111
1.58467634576,0.8166666666666667
1.58482923478,0.8222222222222222
1.97163189021,0.8277777777777777
1.97575317166,0.8333333333333334
2.37129057712,0.8388888888888889
2.37383862453,0.8444444444444444
2.3783762125,0.85
2.50575293196,0.8555555555555555
2.50575293196,0.8611111111111112
3.16455748762,0.8666666666666667
3.16985564557,0.8722222222222222
3.55036343384,0.8777777777777778
3.95891012714,0.8833333333333333
4.08487995751,0.8888888888888888
4.09124412063,0.8944444444444445
5.13400069346,0.9
7.2604686133,0.9055555555555556
8.16731290228,0.9111111111111111
9.09223855043,0.9166666666666666
9.74761114725,0.9222222222222223
10.6801904498,0.9277777777777778
18.5930564649,0.9333333333333333
19.3970909438,0.9388888888888889
20.9857800136,0.9444444444444444
22.5696091253,0.95
23.3415509583,0.9555555555555556
24.9285460419,0.9611111111111111
26.5245061433,0.9666666666666667
27.2988147077,0.9722222222222222
28.0908600316,0.9777777777777777
28.880285846,0.9833333333333333
29.5196983789,0.9888888888888889
30.4539676675,0.9944444444444445
31.8918358905,1.0
