Congestion,CDF
0.0,0.005555555555555556
0.0,0.011111111111111112
0.0,0.016666666666666666
0.0,0.022222222222222223
0.0,0.027777777777777776
0.0,0.03333333333333333
0.0,0.03888888888888889
0.0,0.044444444444444446
0.0,0.05
0.0,0.05555555555555555
1.04429034894e-06,0.06111111111111111
1.1998393878e-06,0.06666666666666667
2.7007390513e-06,0.07222222222222222
3.94728722528e-06,0.07777777777777778
4.0390462022e-06,0.08333333333333333
5.33293140755e-06,0.08888888888888889
5.86693037529e-06,0.09444444444444444
8.08596790774e-06,0.1
8.12768382077e-06,0.10555555555555556
8.31538347831e-06,0.1111111111111111
8.48652361122e-06,0.11666666666666667
9.34192872256e-06,0.12222222222222222
9.55861251832e-06,0.12777777777777777
1.06740440774e-05,0.13333333333333333
1.09323655511e-05,0.1388888888888889
1.15119201771e-05,0.14444444444444443
1.33113902618e-05,0.15
1.45680824426e-05,0.15555555555555556
1.52120124693e-05,0.16111111111111112
1.58211184969e-05,0.16666666666666666
1.60714410734e-05,0.17222222222222222
1.62005160284e-05,0.17777777777777778
1.67372622337e-05,0.18333333333333332
1.73188501945e-05,0.18888888888888888
1.76111997893e-05,0.19444444444444445
1.78100864849e-05,0.2
1.790889693e-05,0.20555555555555555
1.81145517077e-05,0.2111111111111111
1.82915636495e-05,0.21666666666666667
1.83317025617e-05,0.2222222222222222
1.89442118343e-05,0.22777777777777777
1.91022610025e-05,0.23333333333333334
1.9321543067e-05,0.2388888888888889
2.09241948108e-05,0.24444444444444444
2.20177244556e-05,0.25
2.39048444716e-05,0.25555555555555554
2.42835500799e-05,0.2611111111111111
2.46330079688e-05,0.26666666666666666
2.54672032083e-05,0.2722222222222222
9.00246350432e-05,0.2777777777777778
0.000180049270086,0.2833333333333333
0.000197364361264,0.28888888888888886
0.000197364361264,0.29444444444444445
0.000203192095519,0.3
0.000203192095519,0.3055555555555556
0.000307621130413,0.3111111111111111
0.00040390462022,0.31666666666666665
0.000406384191038,0.32222222222222224
0.000541072709085,0.3277777777777778
0.000808596790774,0.3333333333333333
0.000840914271168,0.3388888888888889
0.000890504324246,0.34444444444444444
0.000890504324246,0.35
0.00113738496778,0.35555555555555557
0.00173188501945,0.3611111111111111
0.00176111997893,0.36666666666666664
0.00181741596411,0.37222222222222223
0.00195790873199,0.37777777777777777
0.00207148540655,0.38333333333333336
0.00207148540655,0.3888888888888889
0.0023621155181,0.39444444444444443
0.0024963241013,0.4
0.00268421784708,0.40555555555555556
0.00286968498791,0.4111111111111111
0.00356505527562,0.4166666666666667
0.00376936390275,0.4222222222222222
0.00396590658998,0.42777777777777776
0.00487568719241,0.43333333333333335
0.00572433955354,0.4388888888888889
0.00599337093982,0.4444444444444444
0.00740075279228,0.45
0.00838385538698,0.45555555555555555
0.0149159820388,0.46111111111111114
0.0181466295733,0.4666666666666667
0.0189944179898,0.4722222222222222
0.0206933498942,0.4777777777777778
0.0211961904354,0.48333333333333334
0.0223004940015,0.4888888888888889
0.0225447468143,0.49444444444444446
0.0238758858405,0.5
0.0257861119408,0.5055555555555555
0.0259470663306,0.5111111111111111
0.0263728049783,0.5166666666666667
0.0267786046784,0.5222222222222223
0.0277344659302,0.5277777777777778
0.0390146970158,0.5333333333333333
0.0392728875222,0.5388888888888889
0.04324182459,0.5444444444444444
0.0433565702869,0.55
0.0433587030902,0.5555555555555556
0.043379198299,0.5611111111111111
0.0433878670918,0.5666666666666667
0.0433974396077,0.5722222222222222
0.0434151353461,0.5777777777777777
0.0434195847798,0.5833333333333334
0.0434527274322,0.5888888888888889
0.0434533059321,0.5944444444444444
0.043458207364,0.6
0.0434698903377,0.6055555555555555
0.0434880022958,0.6111111111111112
0.0434916077646,0.6166666666666667
0.0434979507494,0.6222222222222222
0.0435102635629,0.6277777777777778
0.0435412579482,0.6333333333333333
0.0435482950862,0.6388888888888888
0.0435500426238,0.6444444444444445
0.0435583332164,0.65
0.0435593598092,0.6555555555555556
0.0435708771662,0.6611111111111111
0.0435744512087,0.6666666666666666
0.0435787420776,0.6722222222222223
0.0435828115326,0.6777777777777778
0.0435854847348,0.6833333333333333
0.0435868732415,0.6888888888888889
0.0435896083575,0.6944444444444444
0.0435925733833,0.7
0.0436010150681,0.7055555555555556
0.043606158803,0.7111111111111111
0.0436280205872,0.7166666666666667
0.0436427616254,0.7222222222222222
0.0436687305164,0.7277777777777777
0.043673849609,0.7333333333333333
0.0436787017811,0.7388888888888889
0.0436896765224,0.7444444444444445
1.0863326483,0.75
1.0863326483,0.7555555555555555
1.44597327663,0.7611111111111111
1.68867348797,0.7666666666666667
2.16939335459,0.7722222222222223
2.16939335459,0.7777777777777778
2.1726652966,0.7833333333333333
2.17927423674,0.7888888888888889
2.17927423674,0.7944444444444444
2.89194655327,0.8
4.33974396077,0.8055555555555556
4.34527274322,0.8111111111111111
4.35787420776,0.8166666666666667
4.35828115326,0.8222222222222222
5.42198967699,0.8277777777777777
5.43332168208,0.8333333333333334
6.52422286321,0.8388888888888889
6.52807446632,0.8444444444444444
6.54053547471,0.85
6.89082140222,0.8555555555555555
6.89082140222,0.8611111111111112
8.70254601949,0.8666666666666667
8.71713154609,0.8722222222222222
9.7635032116,0.8777777777777778
10.8870353021,0.8833333333333333
11.2334207535,0.8888888888888888
11.250922909,0.8944444444444445
14.118507474,0.9
19.9662917789,0.9055555555555556
22.4601124648,0.9111111111111111
25.0036703342,0.9166666666666666
26.8059332012,0.9222222222222223
29.3705433859,0.9277777777777778
51.1309123042,0.9333333333333333
53.3420951949,0.9388888888888889
57.7110628472,0.9444444444444444
62.0669988281,0.95
64.1892916454,0.9555555555555556
68.5535678079,0.9611111111111111
72.9486668122,0.9666666666666667
75.0727562374,0.9722222222222222
77.2728492712,0.9777777777777777
79.4237825937,0.9833333333333333
81.1743189728,0.9888888888888889
83.7657410717,0.9944444444444445
87.6930298239,1.0
