Congestion,CDF
0.0,0.005555555555555556
0.0,0.011111111111111112
0.0,0.016666666666666666
0.0,0.022222222222222223
0.0,0.027777777777777776
0.0,0.03333333333333333
0.0,0.03888888888888889
0.0,0.044444444444444446
0.0,0.05
0.0,0.05555555555555555
1.05528673343e-06,0.06111111111111111
1.21247370473e-06,0.06666666666666667
2.72917785191e-06,0.07222222222222222
3.98885218667e-06,0.07777777777777778
4.08157738624e-06,0.08333333333333333
5.38908721162e-06,0.08888888888888889
5.92870919213e-06,0.09444444444444444
8.17111320492e-06,0.1
8.2132683868e-06,0.10555555555555556
8.40294452301e-06,0.1111111111111111
8.57588676269e-06,0.11666666666666667
9.44029929568e-06,0.12222222222222222
9.65926477329e-06,0.12777777777777777
1.07864418343e-05,0.13333333333333333
1.10474834348e-05,0.1388888888888889
1.16331407751e-05,0.14444444444444443
1.34515592919e-05,0.15
1.472148445e-05,0.15555555555555556
1.53721950643e-05,0.16111111111111112
1.59877149825e-05,0.16666666666666666
1.62406734574e-05,0.17222222222222222
1.63711075726e-05,0.17777777777777778
1.69135057191e-05,0.18333333333333332
1.75012178051e-05,0.18888888888888888
1.77966458431e-05,0.19444444444444445
1.7997626817e-05,0.2
1.80974777368e-05,0.20555555555555555
1.83052980606e-05,0.2111111111111111
1.84841739393e-05,0.21666666666666667
1.85247355147e-05,0.2222222222222222
1.9143694514e-05,0.22777777777777777
1.93034079411e-05,0.23333333333333334
1.95249990472e-05,0.2388888888888889
2.11445267248e-05,0.24444444444444444
2.22495712442e-05,0.25
2.41565626468e-05,0.25555555555555554
2.45392560278e-05,0.2611111111111111
2.48923937106e-05,0.26666666666666666
2.57353730317e-05,0.2722222222222222
9.09725950638e-05,0.2777777777777778
0.000181945190128,0.2833333333333333
0.000199442609333,0.28888888888888886
0.000199442609333,0.29444444444444445
0.00020533170967,0.3
0.00020533170967,0.3055555555555556
0.000310860383013,0.3111111111111111
0.000408157738624,0.31666666666666665
0.00041066341934,0.32222222222222224
0.0005467702084,0.3277777777777778
0.000817111320492,0.3333333333333333
0.000849769104175,0.3388888888888889
0.000899881340849,0.34444444444444444
0.000899881340849,0.35
0.00114936163924,0.35555555555555557
0.00175012178051,0.3611111111111111
0.00177966458431,0.36666666666666664
0.0018365533666,0.37222222222222223
0.00197852552428,0.37777777777777777
0.002093298162,0.38333333333333336
0.002093298162,0.3888888888888889
0.0023869886106,0.39444444444444443
0.0025226104111,0.4
0.00271248267931,0.40555555555555556
0.0028999027904,0.4111111111111111
0.00360259533197,0.4166666666666667
0.00380905533034,0.4222222222222222
0.0040076676134,0.42777777777777776
0.00492702821178,0.43333333333333335
0.00578461688805,0.4388888888888889
0.00605648117666,0.4444444444444444
0.00619752593803,0.45
0.00671677000958,0.45555555555555555
0.00747868276962,0.46111111111111114
0.00847213744134,0.4666666666666667
0.0150730474313,0.4722222222222222
0.0170059391944,0.4777777777777778
0.0171170190309,0.48333333333333334
0.0171234001454,0.4888888888888889
0.0171848874995,0.49444444444444446
0.0172270734422,0.5
0.0172396802663,0.5055555555555555
0.0172927142367,0.5111111111111111
0.0174054964735,0.5166666666666667
0.0174072143069,0.5222222222222223
0.0174219162691,0.5277777777777778
0.0174569618244,0.5333333333333333
0.0175040979522,0.5388888888888889
0.0175114561309,0.5444444444444444
0.0175221168103,0.55
0.0175442067275,0.5555555555555556
0.017602224204,0.5611111111111111
0.017671064661,0.5666666666666667
0.0176974361705,0.5722222222222222
0.0177214837231,0.5777777777777777
0.0177223624288,0.5833333333333334
0.0177300999011,0.5888888888888889
0.0177599279011,0.5944444444444444
0.0177836769633,0.6
0.0177957310019,0.6055555555555555
0.0178014478321,0.6111111111111112
0.0178038361372,0.6166666666666667
0.0178079233282,0.6222222222222222
0.017816275206,0.6277777777777778
0.0178251709879,0.6333333333333333
0.0178503413839,0.6388888888888888
0.0178657906816,0.6444444444444445
0.0179314236209,0.65
0.0179760286293,0.6555555555555556
0.0180535402123,0.6611111111111111
0.0180690022709,0.6666666666666666
0.0180833988812,0.6722222222222223
0.018117152888,0.6777777777777778
0.0183377137064,0.6833333333333333
0.0191944293407,0.6888888888888889
0.0209112510096,0.6944444444444444
0.0214193864651,0.7
0.0225353183553,0.7055555555555556
0.022782143152,0.7111111111111111
0.0241272990812,0.7166666666666667
0.0260576398753,0.7222222222222222
0.0262202891159,0.7277777777777777
0.0266505107945,0.7333333333333333
0.0270605835682,0.7388888888888889
0.0280265100455,0.7444444444444445
0.435180357672,0.75
0.435180357672,0.7555555555555555
0.572829583318,0.7611111111111111
0.665363815272,0.7666666666666667
0.861353672108,0.7722222222222223
0.861353672108,0.7777777777777778
0.870360715344,0.7833333333333333
0.890191806861,0.7888888888888889
0.890191806861,0.7944444444444444
1.14565916664,0.8
1.72396802663,0.8055555555555556
1.74054964735,0.8111111111111111
1.77836769633,0.8166666666666667
1.77957310019,0.8222222222222222
2.14688226076,0.8277777777777777
2.18087654011,0.8333333333333334
2.63350204442,0.8388888888888889
2.64133741995,0.8444444444444444
2.67870060347,0.85
2.78828572557,0.8555555555555555
2.78828572557,0.8611111111111112
3.51711038872,0.8666666666666667
3.56088479512,0.8722222222222222
3.87615368444,0.8777777777777778
4.42296494055,0.8833333333333333
4.52081258953,0.8888888888888888
4.57331986396,0.8944444444444445
5.64589730148,0.9
8.12888575426,0.9055555555555556
9.02143832964,0.9111111111111111
10.0632178238,0.9166666666666666
10.7636299565,0.9222222222222223
11.8685718451,0.9277777777777778
20.6733080436,0.9333333333333333
21.6593218078,0.9388888888888889
23.4710370966,0.9444444444444444
25.2440470867,0.95
25.9626546752,0.9555555555555556
27.7602575382,0.9611111111111111
29.6576939144,0.9666666666666667
30.376031883,0.9722222222222222
31.3582878338,0.9777777777777777
31.9780404276,0.9833333333333333
32.1362543034,0.9888888888888889
33.8866640986,0.9944444444444445
34.5583410996,1.0
