Congestion,CDF
0.0,0.005555555555555556
0.0,0.011111111111111112
0.0,0.016666666666666666
0.0,0.022222222222222223
0.0,0.027777777777777776
0.0,0.03333333333333333
0.0,0.03888888888888889
0.0,0.044444444444444446
0.0,0.05
0.0,0.05555555555555555
1.0681276343e-06,0.06111111111111111
1.22722728227e-06,0.06666666666666667
2.76238693258e-06,0.07222222222222222
4.03738918983e-06,0.07777777777777778
4.13124268473e-06,0.08333333333333333
5.45466250265e-06,0.08888888888888889
6.00085069132e-06,0.09444444444444444
8.27054064141e-06,0.1
8.3132087744e-06,0.10555555555555556
8.50519292074e-06,0.1111111111111111
8.68023954976e-06,0.11666666666666667
9.55517039526e-06,0.12222222222222222
9.77680028047e-06,0.12777777777777777
1.09176930156e-05,0.13333333333333333
1.11819110128e-05,0.1388888888888889
1.17746947269e-05,0.14444444444444443
1.36152400566e-05,0.15
1.49006178708e-05,0.15555555555555556
1.55592464378e-05,0.16111111111111112
1.61822561027e-05,0.16666666666666666
1.64382926175e-05,0.17222222222222222
1.65703138763e-05,0.17777777777777778
1.71193120117e-05,0.18333333333333332
1.77141754741e-05,0.18888888888888888
1.80131983287e-05,0.19444444444444445
1.82166248718e-05,0.2
1.83176907938e-05,0.20555555555555555
1.85280399092e-05,0.2111111111111111
1.87090923788e-05,0.21666666666666667
1.87501475139e-05,0.2222222222222222
1.93766381072e-05,0.22777777777777777
1.95382949533e-05,0.23333333333333334
1.9762582416e-05,0.2388888888888889
2.14018167702e-05,0.24444444444444444
2.25203076514e-05,0.25
2.4450503636e-05,0.25555555555555554
2.48378536924e-05,0.2611111111111111
2.5195288412e-05,0.26666666666666666
2.60485252428e-05,0.2722222222222222
9.20795644192e-05,0.2777777777777778
0.000137618082753,0.2833333333333333
0.000184159128838,0.28888888888888886
0.000201869459491,0.29444444444444445
0.000201869459491,0.3
0.00020783021936,0.3055555555555556
0.00020783021936,0.3111111111111111
0.00031464298279,0.31666666666666665
0.000413124268473,0.32222222222222224
0.00041566043872,0.3277777777777778
0.00055342339736,0.3333333333333333
0.000827054064141,0.3388888888888889
0.000844221510692,0.34444444444444444
0.000860109233055,0.35
0.000910831243588,0.35555555555555557
0.000910831243588,0.3611111111111111
0.00116334725889,0.36666666666666664
0.00177141754741,0.37222222222222223
0.00180131983287,0.37777777777777777
0.00185890084712,0.38333333333333336
0.00200260054515,0.3888888888888889
0.00211876975502,0.39444444444444443
0.00211876975502,0.4
0.00241603387684,0.40555555555555556
0.0025533059455,0.4111111111111111
0.00274548861039,0.4166666666666667
0.00293518927992,0.4222222222222222
0.00364643229881,0.42777777777777776
0.00385540453607,0.43333333333333335
0.00405643356574,0.4388888888888889
0.00498698109364,0.4444444444444444
0.00585500504861,0.45
0.00613017742617,0.45555555555555555
0.00756968459978,0.46111111111111114
0.00857522778977,0.4666666666666667
0.00978017423438,0.4722222222222222
0.00996077777849,0.4777777777777778
0.0099683175236,0.48333333333333334
0.0100409845539,0.4888888888888889
0.0100910877078,0.49444444444444446
0.0101057457752,0.5
0.0101684175693,0.5055555555555555
0.0103017062011,0.5111111111111111
0.0103037347724,0.5166666666666667
0.0103211096034,0.5222222222222223
0.0103625267752,0.5277777777777778
0.010371865259,0.5333333333333333
0.0104269434012,0.5388888888888889
0.0104395283677,0.5444444444444444
0.0104657543373,0.55
0.010533022044,0.5555555555555556
0.0106155574007,0.5611111111111111
0.0106467253161,0.5666666666666667
0.010675470121,0.5722222222222222
0.0106761881597,0.5777777777777777
0.0106855134139,0.5833333333333334
0.0107205780968,0.5888888888888889
0.010748658944,0.5944444444444444
0.0107628908536,0.6
0.0107681332566,0.6055555555555555
0.0107724773502,0.6111111111111112
0.0107773005968,0.6166666666666667
0.0107871840711,0.6222222222222222
0.0107976972663,0.6277777777777778
0.0108274303778,0.6333333333333333
0.0108456902707,0.6388888888888888
0.0109232606467,0.6444444444444445
0.010976002394,0.65
0.0110675791152,0.6555555555555556
0.0110858611729,0.6611111111111111
0.0111028617265,0.6666666666666666
0.011142813607,0.6722222222222223
0.0152564587278,0.6777777777777778
0.0185608499939,0.6833333333333333
0.0194279902835,0.6888888888888889
0.0211657025182,0.6944444444444444
0.0216800210487,0.7
0.0228095317799,0.7055555555555556
0.0230593599809,0.7111111111111111
0.0244208839865,0.7166666666666667
0.0263747134818,0.7222222222222222
0.0265393418649,0.7277777777777777
0.026974798551,0.7333333333333333
0.027389861157,0.7388888888888889
0.028367541185,0.7444444444444445
0.257593369309,0.75
0.257593369309,0.7555555555555555
0.334699485129,0.7611111111111111
0.392029409655,0.7666666666666667
0.504554385392,0.7722222222222223
0.504554385392,0.7777777777777778
0.515186738619,0.7833333333333333
0.538623867509,0.7888888888888889
0.538623867509,0.7944444444444444
0.669398970259,0.8
1.01057457752,0.8055555555555556
1.03017062011,0.8111111111111111
1.0748658944,0.8166666666666667
1.07628908536,0.8222222222222222
1.25367114716,0.8277777777777777
1.29384604683,0.8333333333333334
1.57210139749,0.8388888888888889
1.58131820763,0.8444444444444444
1.62547291127,0.85
1.66941235915,0.8555555555555555
1.66941235915,0.8611111111111112
2.10290064219,0.8666666666666667
2.15463562103,0.8722222222222222
2.27051290409,0.8777777777777778
2.66003661474,0.8833333333333333
2.69010127203,0.8888888888888888
2.75215539692,0.8944444444444445
3.3351854357,0.9
4.90050229197,0.9055555555555556
5.35634538354,0.9111111111111111
5.98854895039,0.9166666666666666
6.38845634387,0.9222222222222223
7.09530686191,0.9277777777777778
12.3666886955,0.9333333333333333
13.018565215,0.9388888888888889
14.1328465757,0.9444444444444444
15.2013979171,0.95
15.5372081537,0.9555555555555556
16.6348083931,0.9611111111111111
17.8503126402,0.9666666666666667
18.1859382122,0.9722222222222222
18.8283300636,0.9777777777777777
18.9127522147,0.9833333333333333
19.2392404166,0.9888888888888889
20.2764269425,0.9944444444444445
20.2901887508,1.0
