Congestion,CDF
0.000850164338592,0.007352941176470588
0.000850164338592,0.014705882352941176
0.000850164370079,0.022058823529411766
0.000850164370079,0.029411764705882353
0.000850164370079,0.03676470588235294
0.000850164370079,0.04411764705882353
0.000850164401567,0.051470588235294115
0.000850164401567,0.058823529411764705
0.000850164401567,0.0661764705882353
0.000850164401567,0.07352941176470588
0.000850164433055,0.08088235294117647
0.000850164433055,0.08823529411764706
0.000850164433055,0.09558823529411764
0.000850164433055,0.10294117647058823
0.000850164464542,0.11029411764705882
0.000850164464542,0.11764705882352941
0.000850164464542,0.125
0.000850164464542,0.1323529411764706
0.000850164464542,0.13970588235294118
0.000850164464542,0.14705882352941177
0.000850164464542,0.15441176470588236
0.000850164464542,0.16176470588235295
0.000850164496029,0.16911764705882354
0.000850164496029,0.17647058823529413
0.000850164496029,0.18382352941176472
0.000850164496029,0.19117647058823528
0.000850164496029,0.19852941176470587
0.000850164496029,0.20588235294117646
0.000850164496029,0.21323529411764705
0.000850164496029,0.22058823529411764
0.000850164496029,0.22794117647058823
0.000850164496029,0.23529411764705882
0.000850164496029,0.2426470588235294
0.000850164496029,0.25
0.000850164496029,0.25735294117647056
0.000850164496029,0.2647058823529412
0.000850164496029,0.27205882352941174
0.000850164496029,0.27941176470588236
0.000850164496029,0.2867647058823529
0.000850164496029,0.29411764705882354
0.000850164496029,0.3014705882352941
0.000850164496029,0.3088235294117647
0.000850164496029,0.3161764705882353
0.000850164496029,0.3235294117647059
0.000850164527517,0.33088235294117646
0.000850164527517,0.3382352941176471
0.000850164527517,0.34558823529411764
0.000850164527517,0.35294117647058826
0.000850164559005,0.3602941176470588
0.000850164559005,0.36764705882352944
0.000850164590492,0.375
0.000850164590492,0.38235294117647056
0.000850164590492,0.3897058823529412
0.000850164590492,0.39705882352941174
0.000850164653467,0.40441176470588236
0.000850164653467,0.4117647058823529
0.00629751455216,0.41911764705882354
0.00629751455216,0.4264705882352941
0.0141694077424,0.4338235294117647
0.0141694077424,0.4411764705882353
0.0293883959955,0.4485294117647059
0.0293883959955,0.45588235294117646
0.0293883991443,0.4632352941176471
0.0293883991443,0.47058823529411764
0.0364731030155,0.47794117647058826
0.0364731030155,0.4852941176470588
0.0398842609295,0.49264705882352944
0.0398842609295,0.5
0.0404090496105,0.5073529411764706
0.0404090496105,0.5147058823529411
0.0438202075246,0.5220588235294118
0.0438202075246,0.5294117647058824
0.0474937566305,0.5367647058823529
0.0474937566305,0.5441176470588235
0.0477561604173,0.5514705882352942
0.0477561604173,0.5588235294117647
0.057202438543,0.5661764705882353
0.057202438543,0.5735294117647058
0.05825200331,0.5808823529411765
0.05825200331,0.5882352941176471
0.0637623348407,0.5955882352941176
0.0637623348407,0.6029411764705882
0.0724214204986,0.6102941176470589
0.0724214204986,0.6176470588235294
0.0787189381995,0.625
0.0787189381995,0.6323529411764706
0.0802933073914,0.6397058823529411
0.0802933073914,0.6470588235294118
0.0808180960723,0.6544117647058824
0.0808180960723,0.6617647058823529
0.0829172602426,0.6691176470588235
0.0829172602426,0.6764705882352942
0.0834420709649,0.6838235294117647
0.0834420709649,0.6911764705882353
0.0850164496029,0.6985294117647058
0.0850164496029,0.7058823529411765
0.0913139641551,0.7132352941176471
0.0913139641551,0.7205882352941176
0.093675535261,0.7279411764705882
0.093675535261,0.7352941176470589
0.0944627088362,0.7426470588235294
0.0944627088362,0.75
0.0999730466644,0.7573529411764706
0.0999730466644,0.7647058823529411
0.102859403302,0.7720588235294118
0.102859403302,0.7794117647058824
0.115454432407,0.7867647058823529
0.115454432407,0.7941176470588235
0.116241628023,0.8014705882352942
0.116241628023,0.8088235294117647
0.11991517398,0.8161764705882353
0.11991517398,0.8235294117647058
0.120177577767,0.8308823529411765
0.120177577767,0.8382352941176471
0.123326322448,0.8455882352941176
0.123326322448,0.8529411764705882
0.139070124572,0.8602941176470589
0.139070124572,0.8676470588235294
0.15192754172,0.875
0.15192754172,0.8823529411764706
0.154026702741,0.8897058823529411
0.154026702741,0.8970588235294118
0.166884132484,0.9044117647058824
0.166884132484,0.9117647058823529
0.188138247246,0.9191176470588235
0.188138247246,0.9264705882352942
0.189975029671,0.9338235294117647
0.189975029671,0.9411764705882353
0.22198739741,0.9485294117647058
0.22198739741,0.9558823529411765
0.235457069068,0.9632352941176471
0.235457069068,0.9705882352941176
0.288373694548,0.9779411764705882
0.288373694548,0.9852941176470589
0.327208365521,0.9926470588235294
0.327208365521,1.0
