Congestion,CDF
0.00964628534281,0.009433962264150943
0.00964628534281,0.018867924528301886
0.00965584852212,0.02830188679245283
0.00965584852212,0.03773584905660377
0.00965704151385,0.04716981132075472
0.00965704151385,0.05660377358490566
0.00965840262915,0.0660377358490566
0.00965840262915,0.07547169811320754
0.00966272590767,0.08490566037735849
0.00966272590767,0.09433962264150944
0.00966481701094,0.10377358490566038
0.00966481701094,0.11320754716981132
0.00967078215306,0.12264150943396226
0.00967078215306,0.1320754716981132
0.00968287283214,0.14150943396226415
0.00968287283214,0.1509433962264151
0.00969219884501,0.16037735849056603
0.00969219884501,0.16981132075471697
0.00969460672577,0.1792452830188679
0.00969460672577,0.18867924528301888
0.00970167980273,0.19811320754716982
0.00970167980273,0.20754716981132076
0.00971252404697,0.2169811320754717
0.00971252404697,0.22641509433962265
0.00971378975705,0.2358490566037736
0.00971378975705,0.24528301886792453
0.00971686443117,0.25471698113207547
0.00971686443117,0.2641509433962264
0.0744433326405,0.27358490566037735
0.0744433326405,0.2830188679245283
0.0989850929307,0.29245283018867924
0.0989850929307,0.3018867924528302
0.136374030645,0.3113207547169811
0.136374030645,0.32075471698113206
0.143684465241,0.330188679245283
0.143684465241,0.33962264150943394
0.143821592189,0.3490566037735849
0.143821592189,0.3584905660377358
0.148603224952,0.36792452830188677
0.148603224952,0.37735849056603776
0.164371458348,0.3867924528301887
0.164371458348,0.39622641509433965
0.164629064967,0.4056603773584906
0.164629064967,0.41509433962264153
0.166995894803,0.42452830188679247
0.166995894803,0.4339622641509434
0.176134076515,0.44339622641509435
0.176134076515,0.4528301886792453
0.184760705266,0.46226415094339623
0.184760705266,0.4716981132075472
0.185257785772,0.4811320754716981
0.185257785772,0.49056603773584906
0.21254811618,0.5
0.21254811618,0.5094339622641509
0.219389871115,0.5188679245283019
0.219389871115,0.5283018867924528
0.21962674763,0.5377358490566038
0.21962674763,0.5471698113207547
0.229382267915,0.5566037735849056
0.229382267915,0.5660377358490566
0.234357455622,0.5754716981132075
0.234357455622,0.5849056603773585
0.241479792235,0.5943396226415094
0.241479792235,0.6037735849056604
0.251262617538,0.6132075471698113
0.251262617538,0.6226415094339622
0.260407995847,0.6320754716981132
0.260407995847,0.6415094339622641
0.266093060122,0.6509433962264151
0.266093060122,0.660377358490566
0.273000209613,0.6698113207547169
0.273000209613,0.6792452830188679
0.280085712659,0.6886792452830188
0.280085712659,0.6981132075471698
0.30692826036,0.7075471698113207
0.30692826036,0.7169811320754716
0.312597598347,0.7264150943396226
0.312597598347,0.7358490566037735
0.313127249504,0.7452830188679245
0.313127249504,0.7547169811320755
0.33665664403,0.7641509433962265
0.33665664403,0.7735849056603774
0.337397578098,0.7830188679245284
0.337397578098,0.7924528301886793
0.382795234495,0.8018867924528302
0.382795234495,0.8113207547169812
0.383266417711,0.8207547169811321
0.383266417711,0.8301886792452831
0.393460472231,0.839622641509434
0.393460472231,0.8490566037735849
0.423926251399,0.8584905660377359
0.423926251399,0.8679245283018868
0.424701131569,0.8773584905660378
0.424701131569,0.8867924528301887
0.427207807489,0.8962264150943396
0.427207807489,0.9056603773584906
0.460405303039,0.9150943396226415
0.460405303039,0.9245283018867925
0.460643725054,0.9339622641509434
0.460643725054,0.9433962264150944
0.501885008347,0.9528301886792453
0.501885008347,0.9622641509433962
0.565161481109,0.9716981132075472
0.565161481109,0.9811320754716981
0.590184246173,0.9905660377358491
0.590184246173,1.0
