Congestion,CDF
0.0,0.007352941176470588
0.0,0.014705882352941176
0.0,0.022058823529411766
0.0,0.029411764705882353
0.0,0.03676470588235294
0.0,0.04411764705882353
0.0,0.051470588235294115
0.0,0.058823529411764705
0.0,0.0661764705882353
0.0,0.07352941176470588
0.0,0.08088235294117647
0.0,0.08823529411764706
0.0,0.09558823529411764
0.0,0.10294117647058823
1.500883132e-05,0.11029411764705882
1.500883132e-05,0.11764705882352941
1.500883132e-05,0.125
1.500883132e-05,0.1323529411764706
1.500883132e-05,0.13970588235294118
1.500883132e-05,0.14705882352941177
1.500883132e-05,0.15441176470588236
1.500883132e-05,0.16176470588235295
1.500883132e-05,0.16911764705882354
1.500883132e-05,0.17647058823529413
1.500883132e-05,0.18382352941176472
1.500883132e-05,0.19117647058823528
1.500883132e-05,0.19852941176470587
1.500883132e-05,0.20588235294117646
1.500883132e-05,0.21323529411764705
1.500883132e-05,0.22058823529411764
1.500883132e-05,0.22794117647058823
1.500883132e-05,0.23529411764705882
1.500883132e-05,0.2426470588235294
1.500883132e-05,0.25
1.500883132e-05,0.25735294117647056
1.500883132e-05,0.2647058823529412
1.500883132e-05,0.27205882352941174
1.500883132e-05,0.27941176470588236
1.500883132e-05,0.2867647058823529
1.500883132e-05,0.29411764705882354
1.500883132e-05,0.3014705882352941
0.000375220783,0.3088235294117647
0.000375220783,0.3161764705882353
0.00040523844564,0.3235294117647059
0.000750441566,0.33088235294117646
0.000750441566,0.3382352941176471
0.000750441566,0.34558823529411764
0.000750441566,0.35294117647058826
0.001125662349,0.3602941176470588
0.00125073594333,0.36764705882352944
0.00125073594333,0.375
0.00125073594333,0.38235294117647056
0.001500883132,0.3897058823529412
0.001500883132,0.39705882352941174
0.001500883132,0.40441176470588236
0.001500883132,0.4117647058823529
0.001500883132,0.41911764705882354
0.001500883132,0.4264705882352941
0.001500883132,0.4338235294117647
0.001876103915,0.4411764705882353
0.002251324698,0.4485294117647059
0.002251324698,0.45588235294117646
0.00275161907533,0.4632352941176471
0.003001766264,0.47058823529411764
0.003001766264,0.47794117647058826
0.004502649396,0.4852941176470588
0.00612860612233,0.49264705882352944
0.010881402707,0.5
0.0111315498957,0.5073529411764706
0.0143834633483,0.5147058823529411
0.0178855239897,0.5220588235294118
0.0181356711783,0.5294117647058824
0.0193864071217,0.5367647058823529
0.0196365543103,0.5441176470588235
0.0211374374423,0.5514705882352942
0.0513914882699,0.5588235294117647
0.0520890415152,0.5661764705882353
0.060040929744,0.5735294117647058
0.0600929651558,0.5808823529411765
0.0601973941947,0.5882352941176471
0.0602354116917,0.5955882352941176
0.0602555168662,0.6029411764705882
0.0602653899354,0.6102941176470589
0.0603219094864,0.6176470588235294
0.0603336257313,0.625
0.0603374959417,0.6323529411764706
0.0603413333781,0.6397058823529411
0.0603438462945,0.6470588235294118
0.0603443635361,0.6544117647058824
0.0603447649251,0.6617647058823529
0.0603453302278,0.6691176470588235
0.0603455213418,0.6764705882352942
0.0603465632982,0.6838235294117647
0.0603466877451,0.6911764705882353
0.060351860791,0.6985294117647058
0.0603534669768,0.7058823529411765
0.060353476026,0.7132352941176471
0.0603535686952,0.7205882352941176
0.0603535714851,0.7279411764705882
0.0603536598123,0.7352941176470589
0.0603536616723,0.7426470588235294
0.0603536616723,0.75
1.5086090884,0.7573529411764706
1.50866408246,0.7647058823529411
1.61114650641,0.7720588235294118
3.01326949677,0.7794117647058824
3.01326949677,0.7867647058823529
3.01733438725,0.7941176470588235
3.01733438725,0.8014705882352942
4.52582726521,0.8088235294117647
5.02873471401,0.8161764705882353
5.02873471401,0.8235294117647058
5.02873471401,0.8308823529411765
6.02555168662,0.8382352941176471
6.03453302278,0.8455882352941176
6.03465632982,0.8529411764705882
6.0353476026,0.8602941176470589
6.03535714851,0.8676470588235294
6.03536616723,0.875
6.03536616723,0.8823529411764706
7.54316122258,0.8897058823529411
9.03300891624,0.8970588235294118
9.05146772506,0.9044117647058824
11.0620972871,0.9117647058823529
12.0490928558,0.9191176470588235
12.070714018,0.9264705882352942
18.1060983157,0.9338235294117647
24.6409054519,0.9411764705882353
43.7561707165,0.9485294117647058
44.7484631844,0.9558823529411765
57.8374258968,0.9632352941176471
71.8346579309,0.9705882352941176
72.9226432161,0.9779411764705882
76.9738067578,0.9852941176470589
78.9319397316,0.9926470588235294
84.1408438832,1.0
