Congestion,CDF
0.0,0.007352941176470588
0.0,0.014705882352941176
0.0,0.022058823529411766
0.0,0.029411764705882353
0.0,0.03676470588235294
0.0,0.04411764705882353
0.0,0.051470588235294115
0.0,0.058823529411764705
0.0,0.0661764705882353
0.0,0.07352941176470588
0.0,0.08088235294117647
0.0,0.08823529411764706
0.0,0.09558823529411764
0.0,0.10294117647058823
1.55516369697e-05,0.11029411764705882
1.55516369697e-05,0.11764705882352941
1.55516369697e-05,0.125
1.55516369697e-05,0.1323529411764706
1.55516369697e-05,0.13970588235294118
1.55516369697e-05,0.14705882352941177
1.55516369697e-05,0.15441176470588236
1.55516369697e-05,0.16176470588235295
1.55516369697e-05,0.16911764705882354
1.55516369697e-05,0.17647058823529413
1.55516369697e-05,0.18382352941176472
1.55516369697e-05,0.19117647058823528
1.55516369697e-05,0.19852941176470587
1.55516369697e-05,0.20588235294117646
1.55516369697e-05,0.21323529411764705
1.55516369697e-05,0.22058823529411764
1.55516369697e-05,0.22794117647058823
1.55516369697e-05,0.23529411764705882
1.55516369697e-05,0.2426470588235294
1.55516369697e-05,0.25
1.55516369697e-05,0.25735294117647056
1.55516369697e-05,0.2647058823529412
1.55516369697e-05,0.27205882352941174
1.55516369697e-05,0.27941176470588236
1.55516369697e-05,0.2867647058823529
1.55516369697e-05,0.29411764705882354
1.55516369697e-05,0.3014705882352941
0.000255944997702,0.3088235294117647
0.000388790924242,0.3161764705882353
0.000388790924242,0.3235294117647059
0.000419894198182,0.33088235294117646
0.000777581848484,0.3382352941176471
0.000777581848484,0.34558823529411764
0.000777581848484,0.35294117647058826
0.000777581848484,0.3602941176470588
0.000794285003514,0.36764705882352944
0.00116637277273,0.375
0.00129596974747,0.38235294117647056
0.00129596974747,0.3897058823529412
0.00129596974747,0.39705882352941174
0.00155516369697,0.40441176470588236
0.00155516369697,0.4117647058823529
0.00155516369697,0.41911764705882354
0.00155516369697,0.4264705882352941
0.00155516369697,0.4338235294117647
0.00155516369697,0.4411764705882353
0.00155516369697,0.4485294117647059
0.00194395462121,0.45588235294117646
0.00233274554545,0.4632352941176471
0.00233274554545,0.47058823529411764
0.00285113344444,0.47794117647058826
0.00311032739394,0.4852941176470588
0.00311032739394,0.49264705882352944
0.00466549109091,0.5
0.00635025176262,0.5073529411764706
0.00995487964386,0.5147058823529411
0.0101108637379,0.5220588235294118
0.010539576971,0.5294117647058824
0.0106231605718,0.5367647058823529
0.0106958941273,0.5441176470588235
0.0107081814262,0.5514705882352942
0.0108096631062,0.5588235294117647
0.0108435015991,0.5661764705882353
0.0108478200088,0.5735294117647058
0.0108595517914,0.5808823529411765
0.0108647034472,0.5882352941176471
0.0108647440047,0.5955882352941176
0.0108660937771,0.6029411764705882
0.010867238519,0.6102941176470589
0.0108679414496,0.6176470588235294
0.0108679870356,0.625
0.0108693871145,0.6323529411764706
0.0108755423699,0.6397058823529411
0.0108780799505,0.6470588235294118
0.0108781185326,0.6544117647058824
0.0108782376953,0.6617647058823529
0.0108782490006,0.6691176470588235
0.0108783376436,0.6764705882352942
0.0108783451805,0.6838235294117647
0.0108783451805,0.6911764705882353
0.011274936803,0.6985294117647058
0.0115341307525,0.7058823529411765
0.0149036520959,0.7132352941176471
0.0185323673889,0.7205882352941176
0.0187915613384,0.7279411764705882
0.0200875310858,0.7352941176470589
0.0203467250353,0.7426470588235294
0.0219018887323,0.75
0.270134673886,0.7573529411764706
0.271652344427,0.7647058823529411
0.271734677863,0.7720588235294118
0.534794706363,0.7794117647058824
0.534794706363,0.7867647058823529
0.54339707248,0.7941176470588235
0.54339707248,0.8014705882352942
0.814957033281,0.8088235294117647
0.905543803864,0.8161764705882353
0.905543803864,0.8235294117647058
0.905543803864,0.8308823529411765
1.07081814262,0.8382352941176471
1.0867238519,0.8455882352941176
1.08693871145,0.8529411764705882
1.08781185326,0.8602941176470589
1.08782490006,0.8676470588235294
1.08783451805,0.875
1.08783451805,0.8823529411764706
1.35845104799,0.8897058823529411
1.58875240347,0.8970588235294118
1.62935225162,0.9044117647058824
1.99032580474,0.9117647058823529
2.13313419981,0.9191176470588235
2.17564866958,0.9264705882352942
3.26350280046,0.9338235294117647
4.43719310422,0.9411764705882353
7.88650599622,0.9485294117647058
8.04327992594,0.9558823529411765
10.4230011095,0.9632352941176471
12.7606544936,0.9705882352941176
12.840082994,0.9779411764705882
13.1367035211,0.9852941176470589
14.1477898949,0.9926470588235294
14.1733843946,1.0
