Congestion,CDF
0.0,0.007352941176470588
0.0,0.014705882352941176
0.0,0.022058823529411766
0.0,0.029411764705882353
0.0,0.03676470588235294
0.0,0.04411764705882353
0.0,0.051470588235294115
0.0,0.058823529411764705
0.0,0.0661764705882353
0.0,0.07352941176470588
0.0,0.08088235294117647
0.0,0.08823529411764706
0.0,0.09558823529411764
0.0,0.10294117647058823
1.52292823526e-05,0.11029411764705882
1.52292823526e-05,0.11764705882352941
1.52292823526e-05,0.125
1.52292823526e-05,0.1323529411764706
1.52292823526e-05,0.13970588235294118
1.52292823526e-05,0.14705882352941177
1.52292823526e-05,0.15441176470588236
1.52292823526e-05,0.16176470588235295
1.52292823526e-05,0.16911764705882354
1.52292823526e-05,0.17647058823529413
1.52292823526e-05,0.18382352941176472
1.52292823526e-05,0.19117647058823528
1.52292823526e-05,0.19852941176470587
1.52292823526e-05,0.20588235294117646
1.52292823526e-05,0.21323529411764705
1.52292823526e-05,0.22058823529411764
1.52292823526e-05,0.22794117647058823
1.52292823526e-05,0.23529411764705882
1.52292823526e-05,0.2426470588235294
1.52292823526e-05,0.25
1.52292823526e-05,0.25735294117647056
1.52292823526e-05,0.2647058823529412
1.52292823526e-05,0.27205882352941174
1.52292823526e-05,0.27941176470588236
1.52292823526e-05,0.2867647058823529
1.52292823526e-05,0.29411764705882354
1.52292823526e-05,0.3014705882352941
0.000380732058815,0.3088235294117647
0.000380732058815,0.3161764705882353
0.00041119062352,0.3235294117647059
0.00076146411763,0.33088235294117646
0.00076146411763,0.3382352941176471
0.00076146411763,0.34558823529411764
0.00076146411763,0.35294117647058826
0.00114219617645,0.3602941176470588
0.00126910686272,0.36764705882352944
0.00126910686272,0.375
0.00126910686272,0.38235294117647056
0.00152292823526,0.3897058823529412
0.00152292823526,0.39705882352941174
0.00152292823526,0.40441176470588236
0.00152292823526,0.4117647058823529
0.00152292823526,0.41911764705882354
0.00152292823526,0.4264705882352941
0.00152292823526,0.4338235294117647
0.00190366029408,0.4411764705882353
0.00228439235289,0.4485294117647059
0.00228439235289,0.45588235294117646
0.00279203509798,0.4632352941176471
0.00304585647052,0.47058823529411764
0.00304585647052,0.47794117647058826
0.00456878470578,0.4852941176470588
0.00621862362731,0.49264705882352944
0.0110412297056,0.5
0.0112950510782,0.5073529411764706
0.0145947289212,0.5147058823529411
0.0181482281369,0.5220588235294118
0.0182089102946,0.5294117647058824
0.0183323423005,0.5367647058823529
0.0184020495094,0.5441176470588235
0.0195687132308,0.5514705882352942
0.0195929782988,0.5588235294117647
0.0195933150719,0.5661764705882353
0.0196229345178,0.5735294117647058
0.0196273966493,0.5808823529411765
0.0196423257461,0.5882352941176471
0.0196711563721,0.5955882352941176
0.0196917340703,0.6029411764705882
0.0196981763863,0.6102941176470589
0.0197041242423,0.6176470588235294
0.0197054104058,0.625
0.0197074524928,0.6323529411764706
0.0197078382575,0.6397058823529411
0.0197086219542,0.6470588235294118
0.0197088501424,0.6544117647058824
0.0197089956075,0.6617647058823529
0.0197099602004,0.6691176470588235
0.01971034271,0.6764705882352942
0.0197152753864,0.6838235294117647
0.0197167654799,0.6911764705882353
0.0197167706887,0.6985294117647058
0.0197168618571,0.7058823529411765
0.0197168638385,0.7132352941176471
0.0197169524739,0.7205882352941176
0.0197169537948,0.7279411764705882
0.0197169537948,0.7352941176470589
0.0199249777447,0.7426470588235294
0.0214479059799,0.75
0.492695956437,0.7573529411764706
0.492749005009,0.7647058823529411
0.528683819893,0.7720588235294118
0.982116287305,0.7794117647058824
0.982116287305,0.7867647058823529
0.985517135498,0.7941176470588235
0.985517135498,0.8014705882352942
1.47808786931,0.8088235294117647
1.64236004454,0.8161764705882353
1.64236004454,0.8235294117647058
1.64236004454,0.8308823529411765
1.96273966493,0.8382352941176471
1.97088501424,0.8455882352941176
1.97099602004,0.8529411764705882
1.97167706887,0.8602941176470589
1.97168638385,0.8676470588235294
1.97169537948,0.875
1.97169537948,0.8823529411764706
2.46359551719,0.8897058823529411
2.94141411718,0.8970588235294118
2.95605817608,0.9044117647058824
3.61217768317,0.9117647058823529
3.92503311671,0.9191176470588235
3.94337256956,0.9264705882352942
5.91508600636,0.9338235294117647
8.04770277139,0.9411764705882353
14.2945611978,0.9485294117647058
14.6111701489,0.9558823529411765
18.8939659165,0.9632352941176471
23.4344887059,0.9705882352941176
23.8204365168,0.9779411764705882
25.2553797353,0.9852941176470589
25.779768024,0.9926470588235294
27.613002254,1.0
