Congestion,CDF
0.0,0.007352941176470588
0.0,0.014705882352941176
0.0,0.022058823529411766
0.0,0.029411764705882353
0.0,0.03676470588235294
0.0,0.04411764705882353
0.0,0.051470588235294115
0.0,0.058823529411764705
0.0,0.0661764705882353
0.0,0.07352941176470588
0.0,0.08088235294117647
0.0,0.08823529411764706
0.0,0.09558823529411764
0.0,0.10294117647058823
1.51784793994e-05,0.11029411764705882
1.51784793994e-05,0.11764705882352941
1.51784793994e-05,0.125
1.51784793994e-05,0.1323529411764706
1.51784793994e-05,0.13970588235294118
1.51784793994e-05,0.14705882352941177
1.51784793994e-05,0.15441176470588236
1.51784793994e-05,0.16176470588235295
1.51784793994e-05,0.16911764705882354
1.51784793994e-05,0.17647058823529413
1.51784793994e-05,0.18382352941176472
1.51784793994e-05,0.19117647058823528
1.51784793994e-05,0.19852941176470587
1.51784793994e-05,0.20588235294117646
1.51784793994e-05,0.21323529411764705
1.51784793994e-05,0.22058823529411764
1.51784793994e-05,0.22794117647058823
1.51784793994e-05,0.23529411764705882
1.51784793994e-05,0.2426470588235294
1.51784793994e-05,0.25
1.51784793994e-05,0.25735294117647056
1.51784793994e-05,0.2647058823529412
1.51784793994e-05,0.27205882352941174
1.51784793994e-05,0.27941176470588236
1.51784793994e-05,0.2867647058823529
1.51784793994e-05,0.29411764705882354
1.51784793994e-05,0.3014705882352941
0.000379461984984,0.3088235294117647
0.000379461984984,0.3161764705882353
0.000409818943783,0.3235294117647059
0.000758923969969,0.33088235294117646
0.000758923969969,0.3382352941176471
0.000758923969969,0.34558823529411764
0.000758923969969,0.35294117647058826
0.00113838595495,0.3602941176470588
0.00126487328328,0.36764705882352944
0.00126487328328,0.375
0.00126487328328,0.38235294117647056
0.00151784793994,0.3897058823529412
0.00151784793994,0.39705882352941174
0.00151784793994,0.40441176470588236
0.00151784793994,0.4117647058823529
0.00151784793994,0.41911764705882354
0.00151784793994,0.4264705882352941
0.00151784793994,0.4338235294117647
0.00189730992492,0.4411764705882353
0.00227677190991,0.4485294117647059
0.00227677190991,0.45588235294117646
0.00278272122322,0.4632352941176471
0.00303569587987,0.47058823529411764
0.00303569587987,0.47794117647058826
0.00455354381981,0.4852941176470588
0.00619787908808,0.49264705882352944
0.00655480411655,0.5
0.00769711561861,0.5073529411764706
0.0110043975645,0.5147058823529411
0.0112573722212,0.5220588235294118
0.0145460427577,0.5294117647058824
0.0180876879509,0.5367647058823529
0.0183406626076,0.5441176470588235
0.0196055358909,0.5514705882352942
0.0198585105475,0.5588235294117647
0.0213763584874,0.5661764705882353
0.0239094018541,0.5735294117647058
0.0240130283501,0.5808823529411765
0.0243146428982,0.5882352941176471
0.0243665985146,0.5955882352941176
0.0244165087766,0.6029411764705882
0.0244191006614,0.6102941176470589
0.0244836741499,0.6176470588235294
0.0245048111336,0.625
0.0245049124874,0.6323529411764706
0.0245132909506,0.6397058823529411
0.0245165721529,0.6470588235294118
0.0245170260991,0.6544117647058824
0.0245172687878,0.6617647058823529
0.0245181463896,0.6691176470588235
0.0245183853413,0.6764705882352942
0.0245193609054,0.6838235294117647
0.024519539414,0.6911764705882353
0.0245247443129,0.6985294117647058
0.0245265152014,0.7058823529411765
0.0245265291483,0.7132352941176471
0.0245266229351,0.7205882352941176
0.0245266264806,0.7279411764705882
0.0245267144247,0.7352941176470589
0.0245267167884,0.7426470588235294
0.0245267167884,0.75
0.612931719696,0.7573529411764706
0.612988485351,0.7647058823529411
0.625535374682,0.7720588235294118
1.22095503307,0.7794117647058824
1.22095503307,0.7867647058823529
1.22596804527,0.7941176470588235
1.22596804527,0.8014705882352942
1.83879515909,0.8088235294117647
2.04313927681,0.8161764705882353
2.04313927681,0.8235294117647058
2.04313927681,0.8308823529411765
2.44165087766,0.8382352941176471
2.45181463896,0.8455882352941176
2.4519539414,0.8529411764705882
2.45265291483,0.8602941176470589
2.45266264806,0.8676470588235294
2.45267167884,0.875
2.45267167884,0.8823529411764706
3.06477025383,0.8897058823529411
3.65241932289,0.8970588235294118
3.67729714033,0.9044117647058824
4.49363052555,0.9117647058823529
4.87831072912,0.9191176470588235
4.90532494157,0.9264705882352942
7.35801480015,0.9338235294117647
10.0114267795,0.9411764705882353
17.781632662,0.9485294117647058
18.1743797531,0.9558823529411765
23.5032144154,0.9632352941176471
29.0960499905,0.9705882352941176
29.6309926691,0.9779411764705882
29.7515304022,0.9852941176470589
32.0322955041,0.9926470588235294
32.802007066,1.0
