Congestion,CDF
0.0,0.007352941176470588
0.0,0.014705882352941176
0.0,0.022058823529411766
0.0,0.029411764705882353
0.0,0.03676470588235294
0.0,0.04411764705882353
0.0,0.051470588235294115
0.0,0.058823529411764705
0.0,0.0661764705882353
0.0,0.07352941176470588
0.0,0.08088235294117647
0.0,0.08823529411764706
0.0,0.09558823529411764
0.0,0.10294117647058823
1.50830881753e-05,0.11029411764705882
1.50830881753e-05,0.11764705882352941
1.50830881753e-05,0.125
1.50830881753e-05,0.1323529411764706
1.50830881753e-05,0.13970588235294118
1.50830881753e-05,0.14705882352941177
1.50830881753e-05,0.15441176470588236
1.50830881753e-05,0.16176470588235295
1.50830881753e-05,0.16911764705882354
1.50830881753e-05,0.17647058823529413
1.50830881753e-05,0.18382352941176472
1.50830881753e-05,0.19117647058823528
1.50830881753e-05,0.19852941176470587
1.50830881753e-05,0.20588235294117646
1.50830881753e-05,0.21323529411764705
1.50830881753e-05,0.22058823529411764
1.50830881753e-05,0.22794117647058823
1.50830881753e-05,0.23529411764705882
1.50830881753e-05,0.2426470588235294
1.50830881753e-05,0.25
1.50830881753e-05,0.25735294117647056
1.50830881753e-05,0.2647058823529412
1.50830881753e-05,0.27205882352941174
1.50830881753e-05,0.27941176470588236
1.50830881753e-05,0.2867647058823529
1.50830881753e-05,0.29411764705882354
1.50830881753e-05,0.3014705882352941
0.000377077204382,0.3088235294117647
0.000377077204382,0.3161764705882353
0.000407243380732,0.3235294117647059
0.000754154408763,0.33088235294117646
0.000754154408763,0.3382352941176471
0.000754154408763,0.34558823529411764
0.000754154408763,0.35294117647058826
0.00113123161314,0.3602941176470588
0.00125692401461,0.36764705882352944
0.00125692401461,0.375
0.00125692401461,0.38235294117647056
0.00150830881753,0.3897058823529412
0.00150830881753,0.39705882352941174
0.00150830881753,0.40441176470588236
0.00150830881753,0.4117647058823529
0.00150830881753,0.41911764705882354
0.00150830881753,0.4264705882352941
0.00150830881753,0.4338235294117647
0.00188538602191,0.4411764705882353
0.00226246322629,0.4485294117647059
0.00226246322629,0.45588235294117646
0.00276523283213,0.4632352941176471
0.00301661763505,0.47058823529411764
0.00301661763505,0.47794117647058826
0.00452492645258,0.4852941176470588
0.00615892767157,0.49264705882352944
0.0109352389271,0.5
0.01118662373,0.5073529411764706
0.014454626168,0.5147058823529411
0.0179740134089,0.5220588235294118
0.0182253982118,0.5294117647058824
0.0194823222264,0.5367647058823529
0.0197337070293,0.5441176470588235
0.021108846772,0.5514705882352942
0.0212420158468,0.5588235294117647
0.0222051638274,0.5661764705882353
0.0360033258376,0.5735294117647058
0.0360810628667,0.5808823529411765
0.0362905668025,0.5882352941176471
0.0363341292535,0.5955882352941176
0.0363672108365,0.6029411764705882
0.036374866041,0.6102941176470589
0.0364327892554,0.6176470588235294
0.0364484564374,0.625
0.0364505766154,0.6323529411764706
0.0364563675505,0.6397058823529411
0.0364591416973,0.6470588235294118
0.036459706916,0.6544117647058824
0.0364598928983,0.6617647058823529
0.0364606461522,0.6691176470588235
0.0364608481287,0.6764705882352942
0.0364619203753,0.6838235294117647
0.0364619708574,0.6911764705882353
0.0364671784259,0.6985294117647058
0.0364688355889,0.7058823529411765
0.0364688458937,0.7132352941176471
0.0364689387482,0.7205882352941176
0.0364689416805,0.7279411764705882
0.0364690299271,0.7352941176470589
0.036469031882,0.7426470588235294
0.036469031882,0.75
0.9114926729,0.7573529411764706
0.911548009383,0.7647058823529411
0.953527323149,0.7720588235294118
1.81874330205,0.7794117647058824
1.81874330205,0.7867647058823529
1.82309854287,0.7941176470588235
1.82309854287,0.8014705882352942
2.7344780187,0.8088235294117647
3.03834540553,0.8161764705882353
3.03834540553,0.8235294117647058
3.03834540553,0.8308823529411765
3.63672108365,0.8382352941176471
3.64606461522,0.8455882352941176
3.64619203753,0.8529411764705882
3.64688458937,0.8602941176470589
3.64689416805,0.8676470588235294
3.6469031882,0.875
3.6469031882,0.8823529411764706
4.55757748577,0.8897058823529411
5.4477999823,0.8970588235294118
5.46873529792,0.9044117647058824
6.68319104927,0.9117647058823529
7.27013400899,0.9191176470588235
7.29378804288,0.9264705882352942
10.9407093691,0.9338235294117647
14.8879767963,0.9411764705882353
26.4398135696,0.9485294117647058
27.0331900732,0.9558823529411765
34.9479753606,0.9632352941176471
43.3514566482,0.9705882352941176
44.0617683201,0.9779411764705882
45.4623413254,0.9852941176470589
47.6698746067,0.9926470588235294
49.8903909895,1.0
