Congestion,CDF
0.0,0.005555555555555556
0.0,0.011111111111111112
0.0,0.016666666666666666
0.0,0.022222222222222223
0.0,0.027777777777777776
0.0,0.03333333333333333
0.0,0.03888888888888889
0.0,0.044444444444444446
0.0,0.05
0.0,0.05555555555555555
5.24470542367e-07,0.06111111111111111
6.02591429778e-07,0.06666666666666667
1.35638338175e-06,0.07222222222222222
1.98243321316e-06,0.07777777777777778
2.02851702543e-06,0.08333333333333333
2.67834078e-06,0.08888888888888889
2.94652934319e-06,0.09444444444444444
4.06098933926e-06,0.1
4.08194018646e-06,0.10555555555555556
4.17620797443e-06,0.1111111111111111
4.26215912625e-06,0.11666666666666667
4.69176645064e-06,0.12222222222222222
4.80059084799e-06,0.12777777777777777
5.36079040875e-06,0.13333333333333333
5.49052636151e-06,0.1388888888888889
5.78159419468e-06,0.14444444444444443
6.6853361973e-06,0.15
7.31648062026e-06,0.15555555555555556
7.6398795013e-06,0.16111111111111112
7.94578883868e-06,0.16666666666666666
8.07150753136e-06,0.17222222222222222
8.13633242583e-06,0.17777777777777778
8.40590072517e-06,0.18333333333333332
8.69798975342e-06,0.18888888888888888
8.84481553872e-06,0.19444444444444445
8.9447017564e-06,0.2
8.99432700458e-06,0.20555555555555555
9.09761233406e-06,0.2111111111111111
9.18651246535e-06,0.21666666666666667
9.2066713006e-06,0.2222222222222222
9.51428983857e-06,0.22777777777777777
9.59366635783e-06,0.23333333333333334
9.70379567522e-06,0.2388888888888889
1.05086902433e-05,0.24444444444444444
1.10578900769e-05,0.25
1.20056522192e-05,0.25555555555555554
1.2195848304e-05,0.2611111111111111
1.23713554019e-05,0.26666666666666666
1.27903105614e-05,0.2722222222222222
4.52127793917e-05,0.2777777777777778
9.04255587835e-05,0.2833333333333333
9.91216606582e-05,0.28888888888888886
9.91216606582e-05,0.29444444444444445
0.000102048504661,0.3
0.000102048504661,0.3055555555555556
0.000154495558898,0.3111111111111111
0.000202851702543,0.31666666666666665
0.000204097009323,0.32222222222222224
0.000271741185277,0.3277777777777778
0.000406098933926,0.3333333333333333
0.000422329636898,0.3388888888888889
0.00044723508782,0.34444444444444444
0.00044723508782,0.35
0.000571225149725,0.35555555555555557
0.000869798975342,0.3611111111111111
0.000884481553872,0.36666666666666664
0.000912754903242,0.37222222222222223
0.000983314128695,0.37777777777777777
0.00104035537222,0.38333333333333336
0.00104035537222,0.3888888888888889
0.00118631758703,0.39444444444444443
0.00125372072687,0.4
0.00134808599114,0.40555555555555556
0.00144123254951,0.4111111111111111
0.0017904661054,0.4166666666666667
0.0018930753621,0.4222222222222222
0.00199178435608,0.42777777777777776
0.00244870050634,0.43333333333333335
0.00287491641897,0.4388888888888889
0.0030100311763,0.4444444444444444
0.00314278592368,0.45
0.00324115784306,0.45555555555555555
0.00371685598247,0.46111111111111114
0.00420618463483,0.4666666666666667
0.00421059639822,0.4722222222222222
0.00436082886743,0.4777777777777778
0.00460052167483,0.48333333333333334
0.00461141524137,0.4888888888888889
0.00461276649948,0.49444444444444446
0.00464535106124,0.5
0.00469280536994,0.5055555555555555
0.00471119180004,0.5111111111111111
0.00471892662249,0.5166666666666667
0.00473569145882,0.5222222222222223
0.00474184212894,0.5277777777777778
0.00474790751607,0.5333333333333333
0.00475015678772,0.5388888888888889
0.00475711558679,0.5444444444444444
0.00475935856228,0.55
0.00477688854287,0.5555555555555556
0.00477909812388,0.5611111111111111
0.00479061788327,0.5666666666666667
0.00479278922017,0.5722222222222222
0.00479426404754,0.5777777777777777
0.0047954630141,0.5833333333333334
0.00479678527412,0.5888888888888889
0.00479807152086,0.5944444444444444
0.00480412504518,0.6
0.00480781101697,0.6055555555555555
0.00481679954252,0.6111111111111112
0.00483027023417,0.6166666666666667
0.00483174920366,0.6222222222222222
0.00483185673799,0.6277777777777778
0.00483302685392,0.6333333333333333
0.00484351522502,0.6388888888888888
0.0048488141329,0.6444444444444445
0.00484889948506,0.65
0.00485071575533,0.6555555555555556
0.00485711206666,0.6611111111111111
0.00486325730268,0.6666666666666666
0.00489222063059,0.6722222222222223
0.0074912051019,0.6777777777777778
0.00911372269612,0.6833333333333333
0.00953950471263,0.6888888888888889
0.0103927537523,0.6944444444444444
0.0106452937203,0.7
0.0111999045054,0.7055555555555556
0.0113225748004,0.7111111111111111
0.0119911084202,0.7166666666666667
0.012950475056,0.7222222222222222
0.0130313106552,0.7277777777777777
0.0132451279903,0.7333333333333333
0.0134489314526,0.7388888888888889
0.0139289905374,0.7444444444444445
0.119422213572,0.75
0.119422213572,0.7555555555555555
0.15857051956,0.7611111111111111
0.182120158438,0.7666666666666667
0.230570762069,0.7722222222222223
0.230570762069,0.7777777777777778
0.238844427144,0.7833333333333333
0.239713202377,0.7888888888888889
0.239713202377,0.7944444444444444
0.317141039119,0.8
0.473569145882,0.8055555555555556
0.475935856228,0.8111111111111111
0.479061788327,0.8166666666666667
0.484889948506,0.8222222222222222
0.588702750566,0.8277777777777777
0.599229365657,0.8333333333333334
0.690622929552,0.8388888888888889
0.714728881149,0.8444444444444444
0.728066490203,0.85
0.762994315509,0.8555555555555555
0.762994315509,0.8611111111111112
0.958740315739,0.8666666666666667
0.962261586496,0.8722222222222222
1.06059541282,0.8777777777777778
1.19427518256,0.8833333333333333
1.24082690863,0.8888888888888888
1.24870552218,0.8944444444444445
1.5385052252,0.9
2.21794699318,0.9055555555555556
2.47861197575,0.9111111111111111
2.73220007798,0.9166666666666666
2.95789089777,0.9222222222222223
3.21537499835,0.9277777777777778
5.66090946648,0.9333333333333333
5.85169318203,0.9388888888888889
6.33337313629,0.9444444444444444
6.80449231629,0.95
7.10635672678,0.9555555555555556
7.59123814007,0.9611111111111111
7.95639189579,0.9666666666666667
8.29599311503,0.9722222222222222
8.37701035927,0.9777777777777777
8.69128895164,0.9833333333333333
8.76052822115,0.9888888888888889
9.1966111079,0.9944444444444445
9.5207268922,1.0
