Congestion,CDF
0.0,0.005555555555555556
0.0,0.011111111111111112
0.0,0.016666666666666666
0.0,0.022222222222222223
0.0,0.027777777777777776
0.0,0.03333333333333333
0.0,0.03888888888888889
0.0,0.044444444444444446
0.0,0.05
0.0,0.05555555555555555
1.05076397746e-06,0.06111111111111111
1.20727727563e-06,0.06666666666666667
2.71748112056e-06,0.07222222222222222
3.9717567334e-06,0.07777777777777778
4.0640845306e-06,0.08333333333333333
5.36599062035e-06,0.08888888888888889
5.90329988483e-06,0.09444444444444444
8.13609338532e-06,0.1
8.17806789819e-06,0.10555555555555556
8.36693111897e-06,0.1111111111111111
8.53913216148e-06,0.11666666666666667
9.3998399886e-06,0.12222222222222222
9.61786702229e-06,0.12777777777777777
1.07402132192e-05,0.13333333333333333
1.10001360457e-05,0.1388888888888889
1.15832833712e-05,0.14444444444444443
1.3393908496e-05,0.15
1.46583909992e-05,0.15555555555555556
1.53063127928e-05,0.16111111111111112
1.59191947111e-05,0.16666666666666666
1.61710690547e-05,0.17222222222222222
1.63009441543e-05,0.17777777777777778
1.68410176866e-05,0.18333333333333332
1.74262109517e-05,0.18888888888888888
1.7720372842e-05,0.19444444444444445
1.792049245e-05,0.2
1.8019915428e-05,0.20555555555555555
1.82268450739e-05,0.2111111111111111
1.8404954325e-05,0.21666666666666667
1.84453420612e-05,0.2222222222222222
1.90616483213e-05,0.22777777777777777
1.92206772474e-05,0.23333333333333334
1.94413186566e-05,0.2388888888888889
2.10539053501e-05,0.24444444444444444
2.21542138612e-05,0.25
2.40530322655e-05,0.25555555555555554
2.44340854962e-05,0.2611111111111111
2.47857096988e-05,0.26666666666666666
2.56250761727e-05,0.2722222222222222
9.05827040186e-05,0.2777777777777778
0.000181165408037,0.2833333333333333
0.00019858783667,0.28888888888888886
0.00019858783667,0.29444444444444445
0.000204451697455,0.3
0.000204451697455,0.3055555555555556
0.000309528095201,0.3111111111111111
0.00040640845306,0.31666666666666665
0.00040890339491,0.32222222222222224
0.00054442685645,0.3277777777777778
0.000813609338532,0.3333333333333333
0.000846127157236,0.3388888888888889
0.000896024622502,0.34444444444444444
0.000896024622502,0.35
0.00114443569632,0.35555555555555557
0.00174262109517,0.3611111111111111
0.0017720372842,0.36666666666666664
0.0018286822521,0.37222222222222223
0.00197004594443,0.37777777777777777
0.0020843266887,0.38333333333333336
0.0020843266887,0.3888888888888889
0.00237675843652,0.39444444444444443
0.00251179898807,0.4
0.00270085750025,0.40555555555555556
0.00288747436479,0.4111111111111111
0.00358715530129,0.4166666666666667
0.00379273045181,0.4222222222222222
0.00399049152083,0.42777777777777776
0.00490591191651,0.43333333333333335
0.00575982513266,0.4388888888888889
0.00603052426322,0.4444444444444444
0.00744663057369,0.45
0.00843582748976,0.45555555555555555
0.0117360788037,0.46111111111111114
0.0122867992458,0.4666666666666667
0.0150084472491,0.4722222222222222
0.0182591217925,0.4777777777777778
0.0191121657083,0.48333333333333334
0.0208216294098,0.4888888888888889
0.0213275870944,0.49444444444444446
0.0224387363152,0.5
0.0226845032682,0.5055555555555555
0.0227327319839,0.5111111111111111
0.0227339430019,0.5166666666666667
0.0227396854778,0.5222222222222223
0.0228067633666,0.5277777777777778
0.0228569038707,0.5333333333333333
0.0228665612717,0.5388888888888889
0.0229243994934,0.5444444444444444
0.0230474365175,0.55
0.0230493034461,0.5555555555555556
0.0230653407293,0.5611111111111111
0.0231035709759,0.5666666666666667
0.023163080218,0.5722222222222222
0.0231746502682,0.5777777777777777
0.0231996273927,0.5833333333333334
0.0232610063439,0.5888888888888889
0.0232694272078,0.5944444444444444
0.0233371377091,0.6
0.0233659142198,0.6055555555555555
0.0233931241237,0.6111111111111112
0.0233995742988,0.6166666666666667
0.023402898484,0.6222222222222222
0.0234340816147,0.6277777777777778
0.0234600438624,0.6333333333333333
0.0234731395436,0.6388888888888888
0.0234820146444,0.6444444444444445
0.0234864428146,0.65
0.0234888083499,0.6555555555555556
0.0234956104315,0.6611111111111111
0.023505310126,0.6666666666666666
0.0235327146046,0.6722222222222223
0.0235495756957,0.6777777777777778
0.0236211905534,0.6833333333333333
0.0236699694095,0.6888888888888889
0.0237544059575,0.6944444444444444
0.0237713088306,0.7
0.0237869579922,0.7055555555555556
0.0238240438582,0.7111111111111111
0.0240238941178,0.7166666666666667
0.0259459618426,0.7222222222222222
0.0261079139998,0.7277777777777777
0.0265362918311,0.7333333333333333
0.0269446071117,0.7388888888888889
0.027906393814,0.7444444444444445
0.576232586152,0.75
0.576232586152,0.7555555555555555
0.760225445552,0.7611111111111111
0.886251576739,0.7666666666666667
1.14284519353,0.7722222222222223
1.14284519353,0.7777777777777778
1.1524651723,0.7833333333333333
1.17410073222,0.7888888888888889
1.17410073222,0.7944444444444444
1.5204508911,0.8
2.28665612717,0.8055555555555556
2.30474365175,0.8111111111111111
2.34600438624,0.8166666666666667
2.34731395436,0.8222222222222222
2.84950578454,0.8277777777777777
2.88658968374,0.8333333333333334
3.48280262342,0.8388888888888889
3.49040875402,0.8444444444444444
3.53116097152,0.85
3.68453844472,0.8555555555555555
3.68453844472,0.8611111111111112
4.64877518251,0.8666666666666667
4.69653539884,0.8722222222222222
5.14194573388,0.8777777777777778
5.83996979718,0.8833333333333333
5.9805289002,0.8888888888888888
6.03780990518,0.8944444444444445
7.47853715586,0.9
10.728532021,0.9055555555555556
11.9390358927,0.9111111111111111
13.3123391094,0.9166666666666666
14.2455699656,0.9222222222222223
15.6877797052,0.9277777777777778
27.3227462681,0.9333333333333333
28.6014157842,0.9388888888888889
30.9838201701,0.9444444444444444
33.3241100185,0.95
34.310833863,0.9555555555555556
36.6778308039,0.9611111111111111
39.1557934769,0.9666666666666667
40.1406387367,0.9722222222222222
41.429187777,0.9777777777777777
42.4675814575,0.9833333333333333
42.6027956574,0.9888888888888889
44.7936820919,0.9944444444444445
46.0223620165,1.0
