Congestion,CDF
0.0,0.005555555555555556
0.0,0.011111111111111112
0.0,0.016666666666666666
0.0,0.022222222222222223
0.0,0.027777777777777776
0.0,0.03333333333333333
0.0,0.03888888888888889
0.0,0.044444444444444446
0.0,0.05
0.0,0.05555555555555555
1.06879204183e-06,0.06111111111111111
1.22799065457e-06,0.06666666666666667
2.76410522037e-06,0.07222222222222222
4.03990056739e-06,0.07777777777777778
4.13381244199e-06,0.08333333333333333
5.45805546686e-06,0.08888888888888889
6.00458340101e-06,0.09444444444444444
8.27568516655e-06,0.1
8.3183798404e-06,0.10555555555555556
8.51048340665e-06,0.1111111111111111
8.68563891995e-06,0.11666666666666667
9.56111399876e-06,0.12222222222222222
9.78288174443e-06,0.12777777777777777
1.09244841492e-05,0.13333333333333333
1.11888664979e-05,0.1388888888888889
1.17820189414e-05,0.14444444444444443
1.36237091456e-05,0.15
1.49098865035e-05,0.15555555555555556
1.55689247573e-05,0.16111111111111112
1.61923219529e-05,0.16666666666666666
1.64485177302e-05,0.17222222222222222
1.65806211101e-05,0.17777777777777778
1.71299607389e-05,0.18333333333333332
1.77251942243e-05,0.18888888888888888
1.802440308e-05,0.19444444444444445
1.82279561606e-05,0.2
1.83290849486e-05,0.20555555555555555
1.85395649075e-05,0.2111111111111111
1.87207299972e-05,0.21666666666666667
1.87618106699e-05,0.2222222222222222
1.93886909591e-05,0.22777777777777777
1.95504483606e-05,0.23333333333333334
1.9774875337e-05,0.2388888888888889
2.14151293442e-05,0.24444444444444444
2.25343159604e-05,0.25
2.4465712585e-05,0.25555555555555554
2.48533035847e-05,0.2611111111111111
2.52109606395e-05,0.26666666666666666
2.60647282093e-05,0.2722222222222222
7.15159856944e-05,0.2777777777777778
9.21368406789e-05,0.2833333333333333
0.000184273681358,0.28888888888888886
0.000201995028369,0.29444444444444445
0.000201995028369,0.3
0.00020795949601,0.3055555555555556
0.00020795949601,0.3111111111111111
0.000314838700193,0.31666666666666665
0.000413381244199,0.32222222222222224
0.00041591899202,0.3277777777777778
0.000553767643366,0.3333333333333333
0.000725271170861,0.3388888888888889
0.000827568516655,0.34444444444444444
0.000860644246879,0.35
0.000911397808029,0.35555555555555557
0.000911397808029,0.3611111111111111
0.00116407089589,0.36666666666666664
0.00177251942243,0.37222222222222223
0.001802440308,0.37777777777777777
0.00186005713938,0.38333333333333336
0.00200384622294,0.3888888888888889
0.00212008769356,0.39444444444444443
0.00212008769356,0.4
0.00241753672261,0.40555555555555556
0.00255489417862,0.4111111111111111
0.00274719638692,0.4166666666666667
0.00293701505597,0.4222222222222222
0.00364870048942,0.42777777777777776
0.0038578027137,0.43333333333333335
0.00405895678947,0.4388888888888889
0.00499008314593,0.4444444444444444
0.00585864703793,0.45
0.00613399058099,0.45555555555555555
0.00757439317137,0.46111111111111114
0.00858056183948,0.4666666666666667
0.00951615680678,0.4722222222222222
0.00961295635491,0.4777777777777778
0.00962203400478,0.48333333333333334
0.0097096079664,0.4888888888888889
0.00977499458626,0.49444444444444446
0.00978768145364,0.5
0.00986318893727,0.5055555555555555
0.0100238210254,0.5111111111111111
0.010026257633,0.5166666666666667
0.0100471951778,0.5222222222222223
0.0100971067191,0.5277777777777778
0.0101748069742,0.5333333333333333
0.0101899047905,0.5388888888888889
0.0102111698575,0.5444444444444444
0.0102225581767,0.55
0.0103109874969,0.5555555555555556
0.0104020410653,0.5611111111111111
0.0104396109891,0.5666666666666667
0.0104751382347,0.5722222222222222
0.0104832638395,0.5777777777777777
0.0104879674723,0.5833333333333334
0.0105286069767,0.5888888888888889
0.0105625110031,0.5944444444444444
0.010579599274,0.6
0.0105911902541,0.6055555555555555
0.0105966614884,0.6111111111111112
0.0105969678252,0.6166666666666667
0.0106089435352,0.6222222222222222
0.0106216085319,0.6277777777777778
0.0106573777608,0.6333333333333333
0.0106793916184,0.6388888888888888
0.0107728918751,0.6444444444444445
0.0108365930412,0.65
0.0109468106824,0.6555555555555556
0.0109688840821,0.6611111111111111
0.0109893065419,0.6666666666666666
0.0110377643904,0.6722222222222223
0.0152659487042,0.6777777777777778
0.0185723954011,0.6833333333333333
0.0194400750781,0.6888888888888889
0.021178868222,0.6944444444444444
0.0216935066741,0.7
0.022823719995,0.7055555555555556
0.0230737035966,0.7111111111111111
0.0244360745112,0.7166666666666667
0.0263911193472,0.7222222222222222
0.0265558501341,0.7277777777777777
0.0269915776873,0.7333333333333333
0.0274068984748,0.7388888888888889
0.0283851866492,0.7444444444444445
0.250656440826,0.75
0.250656440826,0.7555555555555555
0.32365359888,0.7611111111111111
0.3838503456,0.7666666666666667
0.488749729313,0.7722222222222223
0.488749729313,0.7777777777777778
0.501312881652,0.7833333333333333
0.529559512705,0.7888888888888889
0.529559512705,0.7944444444444444
0.64730719776,0.8
0.978768145364,0.8055555555555556
1.00238210254,0.8111111111111111
1.05625110031,0.8166666666666667
1.0579599274,0.8222222222222222
1.21195207632,0.8277777777777777
1.26036711274,0.8333333333333334
1.53707611326,0.8388888888888889
1.54704021012,0.8444444444444444
1.60024353584,0.85
1.63327060633,0.8555555555555555
1.63327060633,0.8611111111111112
2.05605733288,0.8666666666666667
2.11841195351,0.8722222222222222
2.19827097004,0.8777777777777778
2.60793456364,0.8833333333333333
2.62422481814,0.8888888888888888
2.69900838241,0.8944444444444445
3.24223206895,0.9
4.80982900748,0.9055555555555556
5.21969882495,0.9111111111111111
5.84211284603,0.9166666666666666
6.22441834273,0.9222222222222223
6.93679391427,0.9277777777777778
12.0939441327,0.9333333333333333
12.7600288396,0.9388888888888889
13.8638052787,0.9444444444444444
14.9126020259,0.95
15.1975152891,0.9555555555555556
16.2811745932,0.9611111111111111
17.509344288,0.9666666666666667
17.7921801402,0.9722222222222222
18.4609599687,0.9777777777777777
18.5334870858,0.9833333333333333
18.8232788899,0.9888888888888889
19.8443958756,0.9944444444444445
19.8515474742,1.0
