Congestion,CDF
0.0,0.005555555555555556
0.0,0.011111111111111112
0.0,0.016666666666666666
0.0,0.022222222222222223
0.0,0.027777777777777776
0.0,0.03333333333333333
0.0,0.03888888888888889
0.0,0.044444444444444446
0.0,0.05
0.0,0.05555555555555555
1.0443486014e-06,0.06111111111111111
1.19990631707e-06,0.06666666666666667
2.70088970354e-06,0.07222222222222222
3.94750741231e-06,0.07777777777777778
4.03927150771e-06,0.08333333333333333
5.33322888838e-06,0.08888888888888889
5.86725764357e-06,0.09444444444444444
8.08641895807e-06,0.1
8.12813719809e-06,0.10555555555555556
8.31584732586e-06,0.1111111111111111
8.48699700529e-06,0.11666666666666667
9.34244983272e-06,0.12222222222222222
9.55914571551e-06,0.12777777777777777
1.06746394955e-05,0.13333333333333333
1.09329753787e-05,0.1388888888888889
1.15125623334e-05,0.14444444444444443
1.33121327959e-05,0.15
1.45688950774e-05,0.15555555555555556
1.52128610236e-05,0.16111111111111112
1.58220010283e-05,0.16666666666666666
1.60723375683e-05,0.17222222222222222
1.62014197233e-05,0.17777777777777778
1.67381958693e-05,0.18333333333333332
1.73198162721e-05,0.18888888888888888
1.76121821748e-05,0.19444444444444445
1.78110799647e-05,0.2
1.79098959216e-05,0.20555555555555555
1.8115562171e-05,0.2111111111111111
1.82925839869e-05,0.21666666666666667
1.83327251382e-05,0.2222222222222222
1.89452685776e-05,0.22777777777777777
1.91033265622e-05,0.23333333333333334
1.93226208586e-05,0.2388888888888889
2.09253620013e-05,0.24444444444444444
2.20189526452e-05,0.25
2.39061779283e-05,0.25555555555555554
2.42849046615e-05,0.2611111111111111
2.46343820437e-05,0.26666666666666666
2.54686238163e-05,0.2722222222222222
9.00296567847e-05,0.2777777777777778
0.000180059313569,0.2833333333333333
0.000197375370615,0.28888888888888886
0.000197375370615,0.29444444444444445
0.000203203429952,0.3
0.000203203429952,0.3055555555555556
0.000307638290092,0.3111111111111111
0.000403927150771,0.31666666666666665
0.000406406859904,0.32222222222222224
0.000541102891127,0.3277777777777778
0.000808641895807,0.3333333333333333
0.00084096117893,0.3388888888888889
0.000890553998233,0.34444444444444444
0.000890553998233,0.35
0.00113744841322,0.35555555555555557
0.00173198162721,0.3611111111111111
0.00176121821748,0.36666666666666664
0.00181751734295,0.37222222222222223
0.00195801794778,0.37777777777777777
0.00207160095786,0.38333333333333336
0.00207160095786,0.3888888888888889
0.00236224728129,0.39444444444444443
0.0024964633509,0.4
0.00268436757774,0.40555555555555556
0.00286984506428,0.4111111111111111
0.00356525414103,0.4166666666666667
0.00376957416488,0.4222222222222222
0.00396612781562,0.42777777777777776
0.00487595916731,0.43333333333333335
0.00572465886784,0.4388888888888889
0.00599370526119,0.4444444444444444
0.00740116562003,0.45
0.00838432305402,0.45555555555555555
0.01491681408,0.46111111111111114
0.0181476418261,0.4666666666666667
0.0189954775338,0.4722222222222222
0.0206945042077,0.4777777777777778
0.0211973727983,0.48333333333333334
0.0223017379645,0.4888888888888889
0.0225460044022,0.49444444444444446
0.0238772176818,0.5
0.0257875503381,0.5055555555555555
0.0259485137062,0.5111111111111111
0.0263742761024,0.5166666666666667
0.0267800984388,0.5222222222222223
0.0277360130103,0.5277777777777778
0.0394346876717,0.5333333333333333
0.0396505204451,0.5388888888888889
0.0429128486391,0.5444444444444444
0.0429957846083,0.55
0.0429975242657,0.5555555555555556
0.0430142936125,0.5611111111111111
0.0430228630364,0.5666666666666667
0.043029232903,0.5722222222222222
0.0430437014834,0.5777777777777777
0.0430568507189,0.5833333333333334
0.0430744596859,0.5888888888888889
0.0430749283419,0.5944444444444444
0.0430789377014,0.6
0.0430884956889,0.6055555555555555
0.0431033538589,0.6111111111111112
0.0431062652498,0.6166666666666667
0.0431118575543,0.6222222222222222
0.0431235657853,0.6277777777777778
0.0431468873718,0.6333333333333333
0.0431540800408,0.6388888888888888
0.0431552129369,0.6444444444444445
0.0431608733859,0.65
0.0431623207318,0.6555555555555556
0.0431711227046,0.6611111111111111
0.043176646222,0.6666666666666666
0.0431775907522,0.6722222222222223
0.0431808871868,0.6777777777777778
0.0431830958202,0.6833333333333333
0.0431842119705,0.6888888888888889
0.0431864862661,0.6944444444444444
0.043188907299,0.7
0.0431957811182,0.7055555555555556
0.0431999944724,0.7111111111111111
0.0432178901713,0.7166666666666667
0.043230015957,0.7222222222222222
0.0432511974042,0.7277777777777777
0.0432554065144,0.7333333333333333
0.0432593421795,0.7388888888888889
0.0432684683063,0.7444444444444445
1.07687320855,0.75
1.07687320855,0.7555555555555555
1.43380978708,0.7611111111111111
1.67502659006,0.7666666666666667
2.15114315182,0.7722222222222223
2.15114315182,0.7777777777777778
2.15374641709,0.7833333333333333
2.15915479101,0.7888888888888889
2.15915479101,0.7944444444444444
2.86761957417,0.8
4.3029232903,0.8055555555555556
4.30744596859,0.8111111111111111
4.31775907522,0.8166666666666667
4.31808871868,0.8222222222222222
5.37645166937,0.8277777777777777
5.38572277744,0.8333333333333334
6.46666444552,0.8388888888888889
6.46949017689,0.8444444444444444
6.47968063504,0.85
6.82896336709,0.8555555555555555
6.82896336709,0.8611111111111112
8.62471230743,0.8666666666666667
8.63664980512,0.8722222222222222
9.68082181771,0.8777777777777778
10.7881388035,0.8833333333333333
11.1342213017,0.8888888888888888
11.1485414789,0.8944444444444445
13.9962298218,0.9
19.7837424681,0.9055555555555556
22.2629370954,0.9111111111111111
24.7828300286,0.9166666666666666
26.5708308655,0.9222222222222223
29.1079497691,0.9277777777777778
50.6729945306,0.9333333333333333
52.8582790291,0.9388888888888889
57.1851258597,0.9444444444444444
61.5013579329,0.95
63.6137941766,0.9555555555555556
67.9367957723,0.9611111111111111
72.2856870006,0.9666666666666667
74.3991246796,0.9722222222222222
76.5769718646,0.9777777777777777
78.7114812581,0.9833333333333333
80.5204406317,0.9888888888888889
83.01716633,0.9944444444444445
86.9822183745,1.0
