Congestion,CDF
0.00598751734337,0.009433962264150943
0.00598751734337,0.018867924528301886
0.0059970812647,0.02830188679245283
0.0059970812647,0.03773584905660377
0.00599827351282,0.04716981132075472
0.00599827351282,0.05660377358490566
0.0059996346288,0.0660377358490566
0.0059996346288,0.07547169811320754
0.0060039564212,0.08490566037735849
0.0060039564212,0.09433962264150944
0.0060060505006,0.10377358490566038
0.0060060505006,0.11320754716981132
0.00601201340712,0.12264150943396226
0.00601201340712,0.1320754716981132
0.00602410408978,0.14150943396226415
0.00602410408978,0.1509433962264151
0.00603343009473,0.16037735849056603
0.00603343009473,0.16981132075471697
0.00603583871851,0.1792452830188679
0.00603583871851,0.18867924528301888
0.00604291254531,0.19811320754716982
0.00604291254531,0.20754716981132076
0.0060537537971,0.2169811320754717
0.0060537537971,0.22641509433962265
0.00605502323948,0.2358490566037736
0.00605502323948,0.24528301886792453
0.00605809641986,0.25471698113207547
0.00605809641986,0.2641509433962264
0.0462989691219,0.27358490566037735
0.0462989691219,0.2830188679245283
0.061459250152,0.29245283018867924
0.061459250152,0.3018867924528302
0.0847760061075,0.3113207547169811
0.0847760061075,0.32075471698113206
0.0892384637075,0.330188679245283
0.0892384637075,0.33962264150943394
0.0893755905264,0.3490566037735849
0.0893755905264,0.3584905660377358
0.0923144979146,0.36792452830188677
0.0923144979146,0.37735849056603776
0.102219297343,0.3867924528301887
0.102219297343,0.39622641509433965
0.102476903734,0.4056603773584906
0.102476903734,0.41509433962264153
0.103671076886,0.42452830188679247
0.103671076886,0.4339622641509434
0.109458693143,0.44339622641509435
0.109458693143,0.4528301886792453
0.115069864728,0.46226415094339623
0.115069864728,0.4716981132075472
0.115566945105,0.4811320754716981
0.115566945105,0.49056603773584906
0.132805727748,0.5
0.132805727748,0.5094339622641509
0.136296917501,0.5188679245283019
0.136296917501,0.5283018867924528
0.136533793875,0.5377358490566038
0.136533793875,0.5471698113207547
0.142771268588,0.5566037735849056
0.142771268588,0.5660377358490566
0.145568622503,0.5754716981132075
0.145568622503,0.5849056603773585
0.150010610874,0.5943396226415094
0.150010610874,0.6037735849056604
0.156275390663,0.6132075471698113
0.156275390663,0.6226415094339622
0.161902723532,0.6320754716981132
0.161902723532,0.6415094339622641
0.165242399393,0.6509433962264151
0.165242399393,0.660377358490566
0.169804234948,0.6698113207547169
0.169804234948,0.6792452830188679
0.174544349558,0.6886792452830188
0.174544349558,0.6981132075471698
0.190832760679,0.7075471698113207
0.190832760679,0.7169811320754716
0.194324190457,0.7264150943396226
0.194324190457,0.7358490566037735
0.194853841592,0.7452830188679245
0.194853841592,0.7547169811320755
0.209504419498,0.7641509433962265
0.209504419498,0.7735849056603774
0.210245353555,0.7830188679245284
0.210245353555,0.7924528301886793
0.238356337163,0.8018867924528302
0.238356337163,0.8113207547169812
0.238555371161,0.8207547169811321
0.238555371161,0.8301886792452831
0.244697312065,0.839622641509434
0.244697312065,0.8490566037735849
0.263436297887,0.8584905660377359
0.263436297887,0.8679245283018868
0.264043698062,0.8773584905660378
0.264043698062,0.8867924528301887
0.265545197232,0.8962264150943396
0.265545197232,0.9056603773584906
0.286081590064,0.9150943396226415
0.286081590064,0.9245283018867925
0.287015899238,0.9339622641509434
0.287015899238,0.9433962264150944
0.311910629081,0.9528301886792453
0.311910629081,0.9622641509433962
0.35190092066,0.9716981132075472
0.35190092066,0.9811320754716981
0.367542206389,0.9905660377358491
0.367542206389,1.0
