Congestion,CDF
0.0,0.009433962264150943
0.0,0.018867924528301886
0.0,0.02830188679245283
0.0,0.03773584905660377
0.0,0.04716981132075472
0.0,0.05660377358490566
0.0,0.0660377358490566
0.0,0.07547169811320754
0.0,0.08490566037735849
0.0,0.09433962264150944
0.0,0.10377358490566038
0.0,0.11320754716981132
0.0,0.12264150943396226
0.0,0.1320754716981132
0.0,0.14150943396226415
0.0,0.1509433962264151
0.0,0.16037735849056603
0.0,0.16981132075471697
0.0,0.1792452830188679
0.0,0.18867924528301888
0.0,0.19811320754716982
0.0,0.20754716981132076
0.0,0.2169811320754717
0.0,0.22641509433962265
0.0,0.2358490566037736
0.0,0.24528301886792453
0.0,0.25471698113207547
0.0,0.2641509433962264
0.0,0.27358490566037735
0.0,0.2830188679245283
2.21636156096e-08,0.29245283018867924
5.7098821282e-07,0.3018867924528302
6.42086171407e-07,0.3113207547169811
8.70453188971e-07,0.32075471698113206
9.8258459925e-07,0.330188679245283
1.30745074633e-06,0.33962264150943394
1.99388248341e-06,0.3490566037735849
2.5522749079e-06,0.3584905660377358
2.70110954377e-06,0.36792452830188677
3.15038735718e-06,0.37735849056603776
3.87888129529e-06,0.3867924528301887
3.96776098173e-06,0.39622641509433965
4.18637830447e-06,0.4056603773584906
1.63431343291e-05,0.41509433962264153
1.63431343291e-05,0.42452830188679247
2.68264014081e-05,0.4339622641509434
3.19034363488e-05,0.44339622641509435
3.19034363488e-05,0.4528301886792453
3.26862686582e-05,0.46226415094339623
3.26862686582e-05,0.4716981132075472
3.26862686582e-05,0.4811320754716981
5.04629322389e-05,0.49056603773584906
6.38068726976e-05,0.5
6.38068726976e-05,0.5094339622641509
6.38068726976e-05,0.5188679245283019
8.03508792483e-05,0.5283018867924528
8.03508792483e-05,0.5377358490566038
8.70453188971e-05,0.5471698113207547
0.000147940694848,0.5566037735849056
0.000147940694848,0.5660377358490566
0.000183302047866,0.5754716981132075
0.000183302047866,0.5849056603773585
0.000281560507791,0.5943396226415094
0.000285390395379,0.6037735849056604
0.000445022668851,0.6132075471698113
0.000462979430566,0.6226415094339622
0.000601939878313,0.6320754716981132
0.000963724609867,0.6415094339622641
0.0303864425769,0.6509433962264151
0.0580113998082,0.660377358490566
0.0583662929047,0.6698113207547169
0.0585576527884,0.6792452830188679
0.0673403636056,0.6886792452830188
0.0738963688959,0.6981132075471698
0.0766098458545,0.7075471698113207
0.077076992618,0.7169811320754716
0.0800527466246,0.7264150943396226
0.0802086311932,0.7358490566037735
0.0815710996705,0.7452830188679245
0.0864417203657,0.7547169811320755
0.0869802348904,0.7641509433962265
0.915499791797,0.7735849056603774
1.00065933281,0.7830188679245284
1.00065933281,0.7924528301886793
1.00260788992,0.8018867924528302
1.00260788992,0.8113207547169812
2.00131866562,0.8207547169811321
2.00131866562,0.8301886792452831
2.00131866562,0.839622641509434
2.00521577983,0.8490566037735849
2.00521577983,0.8584905660377359
2.00521577983,0.8679245283018868
3.03864425769,0.8773584905660378
5.69808566752,0.8867924528301887
5.69808566752,0.8962264150943396
5.83375951545,0.9056603773584906
5.83375951545,0.9150943396226415
6.08182220625,0.9245283018867925
6.08182220625,0.9339622641509434
10.6474392593,0.9433962264150944
10.7012907118,0.9528301886792453
11.4992256483,0.9622641509433962
11.534714958,0.9716981132075472
11.6895247943,0.9811320754716981
18.6496180823,0.9905660377358491
35.1382514391,1.0
