Congestion,CDF
0.0,0.009433962264150943
0.0,0.018867924528301886
0.0,0.02830188679245283
0.0,0.03773584905660377
0.0,0.04716981132075472
0.0,0.05660377358490566
0.0,0.0660377358490566
0.0,0.07547169811320754
0.0,0.08490566037735849
0.0,0.09433962264150944
0.0,0.10377358490566038
0.0,0.11320754716981132
0.0,0.12264150943396226
0.0,0.1320754716981132
0.0,0.14150943396226415
0.0,0.1509433962264151
0.0,0.16037735849056603
0.0,0.16981132075471697
0.0,0.1792452830188679
0.0,0.18867924528301888
0.0,0.19811320754716982
0.0,0.20754716981132076
0.0,0.2169811320754717
0.0,0.22641509433962265
0.0,0.2358490566037736
0.0,0.24528301886792453
0.0,0.25471698113207547
0.0,0.2641509433962264
0.0,0.27358490566037735
0.0,0.2830188679245283
1.58688747814e-07,0.29245283018867924
4.08820501605e-06,0.3018867924528302
4.59725761013e-06,0.3113207547169811
6.23233722428e-06,0.32075471698113206
7.03518425977e-06,0.330188679245283
7.60590712598e-06,0.33962264150943394
9.36118571167e-06,0.3490566037735849
1.42759520898e-05,0.3584905660377358
1.82739728186e-05,0.36792452830188677
1.93396104119e-05,0.37735849056603776
2.25563840145e-05,0.3867924528301887
2.77723105521e-05,0.39622641509433965
2.84086781194e-05,0.4056603773584906
2.99739511239e-05,0.41509433962264153
5.22328186621e-05,0.42452830188679247
0.000178095414482,0.4339622641509434
0.0001920737177,0.44339622641509435
0.000263283348141,0.4528301886792453
0.000263283348141,0.46226415094339623
0.000425919399804,0.4716981132075472
0.000685273980699,0.4811320754716981
0.000685273980699,0.49056603773584906
0.000685273980699,0.5
0.000702088928375,0.5094339622641509
0.000702088928375,0.5188679245283019
0.000702088928375,0.5283018867924528
0.00108392506923,0.5377358490566038
0.0012944303148,0.5471698113207547
0.0012944303148,0.5566037735849056
0.0013705479614,0.5660377358490566
0.0013705479614,0.5754716981132075
0.00186970116729,0.5849056603773585
0.0022817721378,0.5943396226415094
0.00238328344377,0.6037735849056604
0.00238328344377,0.6132075471698113
0.002952945005,0.6226415094339622
0.002952945005,0.6320754716981132
0.00372923492352,0.6415094339622641
0.00453586146345,0.6509433962264151
0.00613007984958,0.660377358490566
0.00955892188071,0.6698113207547169
0.00969708400789,0.6792452830188679
0.00993685031127,0.6886792452830188
0.0128683390226,0.6981132075471698
0.0187717131921,0.7075471698113207
0.020700447202,0.7169811320754716
0.0233324014604,0.7264150943396226
0.0249566643724,0.7358490566037735
0.0259266762377,0.7452830188679245
0.0303242757589,0.7547169811320755
0.0344979540159,0.7641509433962265
0.0351844142701,0.7735849056603774
0.216463142181,0.7830188679245284
0.729187769186,0.7924528301886793
0.729187769186,0.8018867924528302
0.935874913964,0.8113207547169812
0.935874913964,0.8207547169811321
0.935874913964,0.8301886792452831
1.28037099944,0.839622641509434
1.87174982793,0.8490566037735849
1.87174982793,0.8584905660377359
1.94450071783,0.8679245283018868
1.94450071783,0.8773584905660378
1.94450071783,0.8867924528301887
2.54898961468,0.8962264150943396
2.54898961468,0.9056603773584906
3.54291168877,0.9150943396226415
3.54291168877,0.9245283018867925
3.58298315703,0.9339622641509434
3.63874355372,0.9433962264150944
4.84257497754,0.9528301886792453
4.84257497754,0.9622641509433962
12.2575114776,0.9716981132075472
12.4634495539,0.9811320754716981
13.7159211631,0.9905660377358491
38.1774481064,1.0
