Congestion,CDF
0.0,0.009433962264150943
0.0,0.018867924528301886
0.0,0.02830188679245283
0.0,0.03773584905660377
0.0,0.04716981132075472
0.0,0.05660377358490566
0.0,0.0660377358490566
0.0,0.07547169811320754
0.0,0.08490566037735849
0.0,0.09433962264150944
0.0,0.10377358490566038
0.0,0.11320754716981132
0.0,0.12264150943396226
0.0,0.1320754716981132
0.0,0.14150943396226415
0.0,0.1509433962264151
0.0,0.16037735849056603
0.0,0.16981132075471697
0.0,0.1792452830188679
0.0,0.18867924528301888
0.0,0.19811320754716982
0.0,0.20754716981132076
0.0,0.2169811320754717
0.0,0.22641509433962265
0.0,0.2358490566037736
0.0,0.24528301886792453
0.0,0.25471698113207547
0.0,0.2641509433962264
0.0,0.27358490566037735
0.0,0.2830188679245283
1.57089463253e-07,0.29245283018867924
4.04700358712e-06,0.3018867924528302
4.55092588706e-06,0.3113207547169811
6.16952696937e-06,0.32075471698113206
6.96428281449e-06,0.330188679245283
9.26684253997e-06,0.33962264150943394
1.4132077303e-05,0.3490566037735849
1.80898054911e-05,0.3584905660377358
1.91447034587e-05,0.36792452830188677
2.23290580245e-05,0.37735849056603776
2.74924178181e-05,0.3867924528301887
2.81223719954e-05,0.39622641509433965
2.96718699876e-05,0.4056603773584906
0.00019013797534,0.41509433962264153
0.000260629946437,0.42452830188679247
0.000260629946437,0.4339622641509434
0.000678367705916,0.44339622641509435
0.000678367705916,0.4528301886792453
0.000678367705916,0.46226415094339623
0.000695013190498,0.4716981132075472
0.000695013190498,0.4811320754716981
0.000695013190498,0.49056603773584906
0.00107300114014,0.5
0.00128138488817,0.5094339622641509
0.00128138488817,0.5188679245283019
0.00135673541183,0.5283018867924528
0.00135673541183,0.5377358490566038
0.00185085809081,0.5471698113207547
0.00235926442246,0.5566037735849056
0.00235926442246,0.5660377358490566
0.00278207655681,0.5754716981132075
0.00290663715875,0.5849056603773585
0.00292318486497,0.5943396226415094
0.00292318486497,0.6037735849056604
0.00369165123898,0.6132075471698113
0.00449014849823,0.6226415094339622
0.00606830015697,0.6320754716981132
0.00946258589978,0.6415094339622641
0.00959935561219,0.6509433962264151
0.0169372076755,0.660377358490566
0.0172097474016,0.6698113207547169
0.0204918255696,0.6792452830188679
0.0271728819666,0.6886792452830188
0.0289397703747,0.6981132075471698
0.0332244117868,0.7075471698113207
0.0366749260012,0.7169811320754716
0.0372593487274,0.7264150943396226
0.0376603767173,0.7358490566037735
0.0411838088093,0.7452830188679245
0.0444090938278,0.7547169811320755
0.0448895578717,0.7641509433962265
0.371249844875,0.7735849056603774
0.834622967044,0.7830188679245284
1.05919809517,0.7924528301886793
1.05919809517,0.8018867924528302
1.39722557728,0.8113207547169812
1.39722557728,0.8207547169811321
1.39722557728,0.8301886792452831
2.79445115456,0.839622641509434
2.79445115456,0.8490566037735849
2.8245282538,0.8584905660377359
2.8245282538,0.8679245283018868
2.8245282538,0.8773584905660378
2.90902993005,0.8867924528301887
5.16406649937,0.8962264150943396
5.16406649937,0.9056603773584906
5.84486360415,0.9150943396226415
5.84486360415,0.9245283018867925
6.74029576918,0.9339622641509434
6.74029576918,0.9433962264150944
9.65573533113,0.9528301886792453
9.71705676951,0.9622641509433962
16.1322178525,0.9716981132075472
16.2763570657,0.9811320754716981
24.5544141371,0.9905660377358491
52.3981137441,1.0
