Congestion,CDF
0.0,0.009433962264150943
0.0,0.018867924528301886
0.0,0.02830188679245283
0.0,0.03773584905660377
0.0,0.04716981132075472
0.0,0.05660377358490566
0.0,0.0660377358490566
0.0,0.07547169811320754
0.0,0.08490566037735849
0.0,0.09433962264150944
0.0,0.10377358490566038
0.0,0.11320754716981132
0.0,0.12264150943396226
0.0,0.1320754716981132
0.0,0.14150943396226415
0.0,0.1509433962264151
0.0,0.16037735849056603
0.0,0.16981132075471697
0.0,0.1792452830188679
0.0,0.18867924528301888
0.0,0.19811320754716982
0.0,0.20754716981132076
0.0,0.2169811320754717
0.0,0.22641509433962265
0.0,0.2358490566037736
0.0,0.24528301886792453
0.0,0.25471698113207547
0.0,0.2641509433962264
0.0,0.27358490566037735
0.0,0.2830188679245283
1.63576939306e-07,0.29245283018867924
4.21413662275e-06,0.3018867924528302
4.73886989106e-06,0.3113207547169811
6.42431591348e-06,0.32075471698113206
7.25189356221e-06,0.330188679245283
7.60590712598e-06,0.33962264150943394
9.6495443318e-06,0.3490566037735849
1.47157034175e-05,0.3584905660377358
1.72603839843e-05,0.36792452830188677
1.88368777485e-05,0.37735849056603776
1.99353408614e-05,0.3867924528301887
2.32512028088e-05,0.39622641509433965
2.75276763337e-05,0.4056603773584906
2.8627798884e-05,0.41509433962264153
2.92837688905e-05,0.42452830188679247
3.08972580054e-05,0.4339622641509434
6.62621581757e-05,0.44339622641509435
0.000128327134847,0.4528301886792453
0.000197990287877,0.46226415094339623
0.000271393434332,0.4716981132075472
0.000271393434332,0.4811320754716981
0.000286364648495,0.49056603773584906
0.000706382915568,0.5
0.000706382915568,0.5094339622641509
0.000706382915568,0.5188679245283019
0.000723715824885,0.5283018867924528
0.000723715824885,0.5377358490566038
0.000723715824885,0.5471698113207547
0.00109773820727,0.5566037735849056
0.0011173139098,0.5660377358490566
0.00133430348375,0.5754716981132075
0.00133430348375,0.5849056603773585
0.00141276583114,0.5943396226415094
0.00141276583114,0.6037735849056604
0.00192729477404,0.6132075471698113
0.0022817721378,0.6226415094339622
0.00245669725548,0.6320754716981132
0.00245669725548,0.6415094339622641
0.00304390646792,0.6509433962264151
0.00304390646792,0.660377358490566
0.00384410894374,0.6698113207547169
0.00467558251942,0.6792452830188679
0.00602964553505,0.6886792452830188
0.00631890863914,0.6981132075471698
0.00722887408622,0.7075471698113207
0.00985337149515,0.7169811320754716
0.00999578951913,0.7264150943396226
0.0126678081182,0.7358490566037735
0.0200673792059,0.7452830188679245
0.0213380963818,0.7547169811320755
0.026092483518,0.7641509433962265
0.0269499455506,0.7735849056603774
0.10066722213,0.7830188679245284
0.196763197097,0.7924528301886793
0.203312083675,0.8018867924528302
0.203312083675,0.8113207547169812
0.226111707564,0.8207547169811321
0.226111707564,0.8301886792452831
0.226111707564,0.839622641509434
0.387332667018,0.8490566037735849
0.387332667018,0.8584905660377359
0.405111887304,0.8679245283018868
0.405111887304,0.8773584905660378
0.4089954737,0.8867924528301887
0.420020872893,0.8962264150943396
0.452223415129,0.9056603773584906
0.452223415129,0.9150943396226415
0.542165556466,0.9245283018867925
0.542165556466,0.9339622641509434
0.542165556466,0.9433962264150944
2.63047602501,0.9528301886792453
2.63047602501,0.9622641509433962
4.35306638488,0.9716981132075472
8.32493954118,0.9811320754716981
8.58217815098,0.9905660377358491
24.2147614943,1.0
