Congestion,CDF
0.0,0.009433962264150943
0.0,0.018867924528301886
0.0,0.02830188679245283
0.0,0.03773584905660377
0.0,0.04716981132075472
0.0,0.05660377358490566
0.0,0.0660377358490566
0.0,0.07547169811320754
0.0,0.08490566037735849
0.0,0.09433962264150944
0.0,0.10377358490566038
0.0,0.11320754716981132
0.0,0.12264150943396226
0.0,0.1320754716981132
0.0,0.14150943396226415
0.0,0.1509433962264151
0.0,0.16037735849056603
0.0,0.16981132075471697
0.0,0.1792452830188679
0.0,0.18867924528301888
0.0,0.19811320754716982
0.0,0.20754716981132076
0.0,0.2169811320754717
0.0,0.22641509433962265
0.0,0.2358490566037736
0.0,0.24528301886792453
0.0,0.25471698113207547
0.0,0.2641509433962264
0.0,0.27358490566037735
0.0,0.2830188679245283
1.56803500365e-07,0.29245283018867924
4.03963649318e-06,0.3018867924528302
4.54264146185e-06,0.3113207547169811
6.1582960713e-06,0.32075471698113206
6.9516051569e-06,0.330188679245283
9.24997334327e-06,0.33962264150943394
1.41063515187e-05,0.3490566037735849
1.80568751283e-05,0.3584905660377358
1.91098527782e-05,0.36792452830188677
2.22884106011e-05,0.37735849056603776
2.74423711056e-05,0.3867924528301887
2.80711785255e-05,0.39622641509433965
2.96178558389e-05,0.4056603773584906
0.000189791851523,0.41509433962264153
0.00026015550028,0.42452830188679247
0.00026015550028,0.4339622641509434
0.00067713281731,0.44339622641509435
0.00067713281731,0.4528301886792453
0.00067713281731,0.46226415094339623
0.000693748000746,0.4716981132075472
0.000693748000746,0.4811320754716981
0.000693748000746,0.49056603773584906
0.00107104786779,0.5
0.00127905227772,0.5094339622641509
0.00127905227772,0.5188679245283019
0.00135426563462,0.5283018867924528
0.00135426563462,0.5377358490566038
0.00184748882139,0.5471698113207547
0.00235496965912,0.5566037735849056
0.00235496965912,0.5660377358490566
0.00291786355081,0.5754716981132075
0.00291786355081,0.5849056603773585
0.00368493102218,0.5943396226415094
0.00448197471111,0.6037735849056604
0.0060572535304,0.6132075471698113
0.00944536037532,0.6226415094339622
0.00958188111455,0.6320754716981132
0.0135537226019,0.6415094339622641
0.0162441867018,0.6509433962264151
0.0204545226118,0.660377358490566
0.025234372296,0.6698113207547169
0.0254373668213,0.6792452830188679
0.0302834100742,0.6886792452830188
0.0340496886299,0.6981132075471698
0.0352272697721,0.7075471698113207
0.0380817042016,0.7169811320754716
0.0383592439404,0.7264150943396226
0.0396036364378,0.7358490566037735
0.0419792711477,0.7452830188679245
0.0447631678141,0.7547169811320755
0.0451060159049,0.7641509433962265
0.427923056344,0.7735849056603774
1.07885373582,0.7830188679245284
1.07885373582,0.7924528301886793
1.42806390756,0.8018867924528302
1.42806390756,0.8113207547169812
1.42806390756,0.8207547169811321
2.85612781512,0.8301886792452831
2.85612781512,0.839622641509434
2.87694329553,0.8490566037735849
2.87694329553,0.8584905660377359
2.87694329553,0.8679245283018868
4.30318644264,0.8773584905660378
4.87325601053,0.8867924528301887
5.55678529984,0.8962264150943396
5.55678529984,0.9056603773584906
6.11296951585,0.9150943396226415
6.11296951585,0.9245283018867925
6.87256967061,0.9339622641509434
6.87256967061,0.9433962264150944
11.7907032824,0.9528301886792453
11.8363770507,0.9622641509433962
16.2954858996,0.9716981132075472
16.3983403268,0.9811320754716981
26.7873798829,0.9905660377358491
53.7383433852,1.0
