Congestion,CDF
0.0,0.009433962264150943
0.0,0.018867924528301886
0.0,0.02830188679245283
0.0,0.03773584905660377
0.0,0.04716981132075472
0.0,0.05660377358490566
0.0,0.0660377358490566
0.0,0.07547169811320754
0.0,0.08490566037735849
0.0,0.09433962264150944
0.0,0.10377358490566038
0.0,0.11320754716981132
0.0,0.12264150943396226
0.0,0.1320754716981132
0.0,0.14150943396226415
0.0,0.1509433962264151
0.0,0.16037735849056603
0.0,0.16981132075471697
0.0,0.1792452830188679
0.0,0.18867924528301888
0.0,0.19811320754716982
0.0,0.20754716981132076
0.0,0.2169811320754717
0.0,0.22641509433962265
0.0,0.2358490566037736
0.0,0.24528301886792453
0.0,0.25471698113207547
0.0,0.2641509433962264
0.0,0.27358490566037735
0.0,0.2830188679245283
1.58130635042e-07,0.29245283018867924
4.07382668445e-06,0.3018867924528302
4.5810889263e-06,0.3113207547169811
6.21041791963e-06,0.32075471698113206
7.0104413196e-06,0.330188679245283
9.32826215921e-06,0.33962264150943394
1.42257431663e-05,0.3490566037735849
1.82097027442e-05,0.3584905660377358
1.92715924602e-05,0.36792452830188677
2.24770525799e-05,0.37735849056603776
2.76746345577e-05,0.3867924528301887
2.83087640025e-05,0.39622641509433965
2.9868531898e-05,0.4056603773584906
0.000191398189053,0.41509433962264153
0.000262357373228,0.42452830188679247
0.000262357373228,0.4339622641509434
0.000682863852907,0.44339622641509435
0.000682863852907,0.4528301886792453
0.000682863852907,0.46226415094339623
0.000699619661941,0.4716981132075472
0.000699619661941,0.4811320754716981
0.000699619661941,0.49056603773584906
0.00108011287439,0.5
0.00128987776712,0.5094339622641509
0.00128987776712,0.5188679245283019
0.00136572770581,0.5283018867924528
0.00136572770581,0.5377358490566038
0.00186312537589,0.5471698113207547
0.00237490136912,0.5566037735849056
0.00237490136912,0.5660377358490566
0.00294255941468,0.5754716981132075
0.00294255941468,0.5849056603773585
0.0037161190998,0.5943396226415094
0.00451990871159,0.6037735849056604
0.00610852018698,0.6132075471698113
0.00801237771212,0.6226415094339622
0.00952530288461,0.6320754716981132
0.00966297909172,0.6415094339622641
0.0110798453544,0.6509433962264151
0.0155785780244,0.660377358490566
0.0157055151821,0.6698113207547169
0.0159027805556,0.6792452830188679
0.0193798052596,0.6886792452830188
0.0206276431491,0.6981132075471698
0.0208204935506,0.7075471698113207
0.0210806614529,0.7169811320754716
0.0210965619662,0.7264150943396226
0.0239988528887,0.7358490566037735
0.0244521074029,0.7452830188679245
0.0265798579925,0.7547169811320755
0.0267851702497,0.7641509433962265
0.250472607592,0.7735849056603774
0.593340805298,0.7830188679245284
0.593340805298,0.7924528301886793
0.790524804485,0.8018867924528302
0.790524804485,0.8113207547169812
0.790524804485,0.8207547169811321
1.58104960897,0.8301886792452831
1.58104960897,0.839622641509434
1.58224214746,0.8490566037735849
1.58224214746,0.8584905660377359
1.58224214746,0.8679245283018868
2.3890411032,0.8773584905660378
2.97529722117,0.8867924528301887
2.97529722117,0.8962264150943396
3.32395360631,0.9056603773584906
3.36646250037,0.9150943396226415
3.36646250037,0.9245283018867925
3.93709649149,0.9339622641509434
3.93709649149,0.9433962264150944
6.87164255586,0.9528301886792453
6.90020341633,0.9622641509433962
9.55560327596,0.9716981132075472
9.61719695311,0.9811320754716981
15.4626730154,0.9905660377358491
31.6219180843,1.0
