Congestion,CDF
0.0,0.005555555555555556
0.0,0.011111111111111112
0.0,0.016666666666666666
0.0,0.022222222222222223
0.0,0.027777777777777776
0.0,0.03333333333333333
0.0,0.03888888888888889
0.0,0.044444444444444446
0.0,0.05
0.0,0.05555555555555555
3.29210751429e-07,0.06111111111111111
3.78247320634e-07,0.06666666666666667
8.51403379715e-07,0.07222222222222222
1.24437556553e-06,0.07777777777777778
1.27330242651e-06,0.08333333333333333
1.68119753073e-06,0.08888888888888889
1.84953979455e-06,0.09444444444444444
2.54908759201e-06,0.1
2.56223846244e-06,0.10555555555555556
2.62141045936e-06,0.1111111111111111
2.67536209437e-06,0.11666666666666667
2.9450270968e-06,0.12222222222222222
3.01333629385e-06,0.12777777777777777
3.36497419045e-06,0.13333333333333333
3.44640959444e-06,0.1388888888888889
3.62911320185e-06,0.14444444444444443
4.19639307698e-06,0.15
4.59256314366e-06,0.15555555555555556
4.79556098632e-06,0.16111111111111112
4.98758062268e-06,0.16666666666666666
5.06649438798e-06,0.17222222222222222
5.10718504741e-06,0.17777777777777778
5.27639337317e-06,0.18333333333333332
5.4597379859e-06,0.18888888888888888
5.55190069706e-06,0.19444444444444445
5.61459938864e-06,0.2
5.64574921293e-06,0.20555555555555555
5.71058153083e-06,0.2111111111111111
5.76638424358e-06,0.21666666666666667
5.77903796722e-06,0.2222222222222222
5.97213047073e-06,0.22777777777777777
6.02195520146e-06,0.23333333333333334
6.09108349829e-06,0.2388888888888889
6.59631672715e-06,0.24444444444444444
6.94105008262e-06,0.25
7.53596144911e-06,0.25555555555555554
7.65534774624e-06,0.2611111111111111
7.76551374968e-06,0.26666666666666666
8.02849237622e-06,0.2722222222222222
2.83801126572e-05,0.2777777777777778
5.67602253143e-05,0.2833333333333333
6.22187782766e-05,0.28888888888888886
6.22187782766e-05,0.29444444444444445
6.40559615611e-05,0.3
6.40559615611e-05,0.3055555555555556
9.6977036704e-05,0.3111111111111111
0.000127330242651,0.31666666666666665
0.000128111923122,0.32222222222222224
0.000170572248721,0.3277777777777778
0.000254908759201,0.3333333333333333
0.000265096789777,0.3388888888888889
0.000280729969432,0.34444444444444444
0.000280729969432,0.35
0.000358558671241,0.35555555555555557
0.00054597379859,0.3611111111111111
0.000555190069706,0.36666666666666664
0.000572937283018,0.37222222222222223
0.000617227388477,0.37777777777777777
0.000653032241424,0.38333333333333336
0.000653032241424,0.3888888888888889
0.000744652888408,0.39444444444444443
0.000786961915366,0.4
0.000846195098264,0.40555555555555556
0.000904663298091,0.4111111111111111
0.00112387759531,0.4166666666666667
0.00118828554156,0.4222222222222222
0.0012502452885,0.42777777777777776
0.00153705207175,0.43333333333333335
0.00180458828119,0.4388888888888889
0.00188939996687,0.4444444444444444
0.00233307469552,0.45
0.00264299611178,0.45555555555555555
0.004702237898,0.46111111111111114
0.00572069402328,0.4666666666666667
0.00598795787564,0.4722222222222222
0.0065235432609,0.4777777777777778
0.0066820628839,0.48333333333333334
0.0070301926997,0.4888888888888889
0.00710719298236,0.49444444444444446
0.00752683229006,0.5
0.0081290278102,0.5055555555555555
0.00817976840707,0.5111111111111111
0.00831398178966,0.5166666666666667
0.00844190945301,0.5222222222222223
0.00874324308239,0.5277777777777778
0.0110214818398,0.5333333333333333
0.0113824648701,0.5388888888888889
0.017504652667,0.5444444444444444
0.0177962549094,0.55
0.0178120776759,0.5555555555555556
0.0178158448476,0.5611111111111111
0.0178445452439,0.5666666666666667
0.0178474959175,0.5722222222222222
0.01787531107,0.5777777777777777
0.017902585901,0.5833333333333334
0.0179606845811,0.5888888888888889
0.0179619130624,0.5944444444444444
0.0179696029842,0.6
0.0179876791586,0.6055555555555555
0.0180146468443,0.6111111111111112
0.018021207278,0.6166666666666667
0.018025369893,0.6222222222222222
0.0180279931653,0.6277777777777778
0.0180815608388,0.6333333333333333
0.0180979741996,0.6388888888888888
0.0181110756185,0.6444444444444445
0.0181171315735,0.65
0.01812104342,0.6555555555555556
0.0181239610265,0.6611111111111111
0.0181436787564,0.6666666666666666
0.0181548714642,0.6722222222222223
0.0181621226834,0.6777777777777778
0.0181655743106,0.6833333333333333
0.0181683935867,0.6888888888888889
0.0181716695999,0.6944444444444444
0.0181762464419,0.7
0.0181902553936,0.7055555555555556
0.018197802098,0.7111111111111111
0.0182316584411,0.7166666666666667
0.0182532560666,0.7222222222222222
0.0182943280615,0.7277777777777777
0.018301850626,0.7333333333333333
0.0183103513718,0.7388888888888889
0.0183243412643,0.7444444444444445
0.44904782656,0.75
0.44904782656,0.7555555555555555
0.594916530583,0.7611111111111111
0.690670958752,0.7666666666666667
0.892227262196,0.7722222222222223
0.892227262196,0.7777777777777778
0.89809565312,0.7833333333333333
0.908278715528,0.7888888888888889
0.908278715528,0.7944444444444444
1.18983306117,0.8
1.787531107,0.8055555555555556
1.79606845811,0.8111111111111111
1.81548714642,0.8166666666666667
1.81621226834,0.8222222222222222
2.23025559415,0.8277777777777777
2.24781574242,0.8333333333333334
2.70038334608,0.8388888888888889
2.70974339996,0.8444444444444444
2.7291307903,0.85
2.86054228964,0.8555555555555555
2.86054228964,0.8611111111111112
3.61069695112,0.8666666666666667
3.63311179061,0.8722222222222222
4.02051418425,0.8777777777777778
4.52691035995,0.8833333333333333
4.65252969297,0.8888888888888888
4.67956782899,0.8944444444444445
5.8316217461,0.9
8.31014797297,0.9055555555555556
9.29465646737,0.9111111111111111
10.3557491295,0.9166666666666666
11.0916167658,0.9222222222222223
12.1851819357,0.9277777777777778
21.2186040974,0.9333333333333333
22.1753891488,0.9388888888888889
24.0078232753,0.9444444444444444
25.8195364326,0.95
26.6416971512,0.9555555555555556
28.4670227579,0.9611111111111111
30.3320241207,0.9666666666666667
31.1617870094,0.9722222222222222
32.0824893874,0.9777777777777777
32.9645863259,0.9833333333333333
33.1846375714,0.9888888888888889
34.7442118168,0.9944444444444445
35.8824583038,1.0
