Congestion,CDF
0.0,0.005555555555555556
0.0,0.011111111111111112
0.0,0.016666666666666666
0.0,0.022222222222222223
0.0,0.027777777777777776
0.0,0.03333333333333333
0.0,0.03888888888888889
0.0,0.044444444444444446
0.0,0.05
0.0,0.05555555555555555
3.46922817714e-07,0.06111111111111111
3.98597632968e-07,0.06666666666666667
8.97210246687e-07,0.07222222222222222
1.3113249662e-06,0.07777777777777778
1.34180813867e-06,0.08333333333333333
1.77164865352e-06,0.08888888888888889
1.94904800106e-06,0.09444444444444444
2.68623259168e-06,0.1
2.70009100003e-06,0.10555555555555556
2.76244654525e-06,0.1111111111111111
2.81930086474e-06,0.11666666666666667
3.10347427667e-06,0.12222222222222222
3.17545861806e-06,0.12777777777777777
3.54601519731e-06,0.13333333333333333
3.63183195661e-06,0.1388888888888889
3.82436531105e-06,0.14444444444444443
4.42216575303e-06,0.15
4.83965040452e-06,0.15555555555555556
5.0535698566e-06,0.16111111111111112
5.25592045729e-06,0.16666666666666666
5.33907990969e-06,0.17222222222222222
5.38195979184e-06,0.17777777777777778
5.56027179684e-06,0.18333333333333332
5.75348064371e-06,0.18888888888888888
5.8506018565e-06,0.19444444444444445
5.91667383822e-06,0.2
5.94949957301e-06,0.20555555555555555
6.01781997356e-06,0.2111111111111111
6.07662496173e-06,0.21666666666666667
6.08995947599e-06,0.2222222222222222
6.29344066579e-06,0.22777777777777777
6.34594604693e-06,0.23333333333333334
6.41879355697e-06,0.2388888888888889
6.95120914364e-06,0.24444444444444444
7.31448970637e-06,0.25
7.94140825827e-06,0.25555555555555554
8.06721772961e-06,0.2611111111111111
8.18331084067e-06,0.26666666666666666
8.46043813897e-06,0.2722222222222222
2.99070082229e-05,0.2777777777777778
5.98140164458e-05,0.2833333333333333
6.55662483098e-05,0.28888888888888886
6.55662483098e-05,0.29444444444444445
6.75022750007e-05,0.3
6.75022750007e-05,0.3055555555555556
0.000102194556772,0.3111111111111111
0.000134180813867,0.31666666666666665
0.000135004550001,0.32222222222222224
0.000179749309198,0.3277777777777778
0.000268623259168,0.3333333333333333
0.000279359422124,0.3388888888888889
0.000295833691911,0.34444444444444444
0.000295833691911,0.35
0.000377849702668,0.35555555555555557
0.000575348064371,0.3611111111111111
0.00058506018565,0.36666666666666664
0.000603762227494,0.37222222222222223
0.000650435211642,0.37777777777777777
0.000688166423088,0.38333333333333336
0.000688166423088,0.3888888888888889
0.000784716407784,0.39444444444444443
0.000829301728231,0.4
0.000891721751343,0.40555555555555556
0.000953335634069,0.4111111111111111
0.00118434401197,0.4166666666666667
0.001252217209,0.4222222222222222
0.00131751048967,0.42777777777777776
0.00161974793773,0.43333333333333335
0.0019016780242,0.4388888888888889
0.00199105271456,0.4444444444444444
0.002458597855,0.45
0.00278519354039,0.45555555555555555
0.0049552258365,0.46111111111111114
0.00602847653432,0.4666666666666667
0.00631011961046,0.4722222222222222
0.00655643398061,0.4777777777777778
0.00687452034821,0.48333333333333334
0.00693945213356,0.4888888888888889
0.0070415685811,0.49444444444444446
0.00740842833918,0.5
0.00748957136051,0.5055555555555555
0.00793178793582,0.5111111111111111
0.00856638254051,0.5166666666666667
0.00861985306285,0.5222222222222223
0.00876128734062,0.5277777777777778
0.00889609771737,0.5333333333333333
0.00921364357918,0.5388888888888889
0.013900752539,0.5444444444444444
0.0142339570501,0.55
0.0142383035369,0.5555555555555556
0.0142393809057,0.5611111111111111
0.0142755444448,0.5666666666666667
0.014276826716,0.5722222222222222
0.014308343873,0.5777777777777777
0.0143404375678,0.5833333333333334
0.0144087894494,0.5888888888888889
0.0144101732953,0.5944444444444444
0.0144191996526,0.6
0.0144404616341,0.6055555555555555
0.0144723905328,0.6111111111111112
0.014479913057,0.6166666666666667
0.0144861812763,0.6222222222222222
0.0144940344769,0.6277777777777778
0.0145591080476,0.6333333333333333
0.0145702205695,0.6388888888888888
0.0145857201927,0.6444444444444445
0.0145948953762,0.65
0.0146008740272,0.6555555555555556
0.0146052062625,0.6611111111111111
0.0146240038561,0.6666666666666666
0.0146373625543,0.6722222222222223
0.0146457026107,0.6777777777777778
0.0146498949472,0.6833333333333333
0.0146530822309,0.6888888888888889
0.01465712413,0.6944444444444444
0.0146625097017,0.7
0.0146787998911,0.7055555555555556
0.014687751898,0.7111111111111111
0.0147275770135,0.7166666666666667
0.0147532452825,0.7222222222222222
0.0148013475504,0.7277777777777777
0.0148102803715,0.7333333333333333
0.0148200827946,0.7388888888888889
0.014837175772,0.7444444444444445
0.360254332383,0.75
0.360254332383,0.7555555555555555
0.475851481494,0.7611111111111111
0.551082541202,0.7666666666666667
0.7138413358,0.7722222222222223
0.7138413358,0.7777777777777778
0.720508664766,0.7833333333333333
0.732494747362,0.7888888888888889
0.732494747362,0.7944444444444444
0.951702962987,0.8
1.4308343873,0.8055555555555556
1.44087894494,0.8111111111111111
1.46373625543,0.8166666666666667
1.46457026107,0.8222222222222222
1.78365003739,0.8277777777777777
1.80430049579,0.8333333333333334
2.16975214056,0.8388888888888889
2.17973380064,0.8444444444444444
2.20251694422,0.85
2.30110560645,0.8555555555555555
2.30110560645,0.8611111111111112
2.90359208865,0.8666666666666667
2.9299872256,0.8722222222222222
3.21769379417,0.8777777777777778
3.64544621364,0.8833333333333333
3.73717403424,0.8888888888888888
3.76898559556,0.8944444444444445
4.67626581344,0.9
6.69595624223,0.9055555555555556
7.46210999438,0.9111111111111111
8.31841469555,0.9166666666666666
8.90402995965,0.9222222222222223
9.79854945059,0.9277777777777778
17.065294425,0.9333333333333333
17.855010927,0.9388888888888889
19.3387285042,0.9444444444444444
20.7982180418,0.95
21.4289739164,0.9555555555555556
22.9042984446,0.9611111111111111
24.4284908086,0.9666666666666667
25.066757908,0.9722222222222222
25.8185660625,0.9777777777777777
26.4742094606,0.9833333333333333
26.5161613557,0.9888888888888889
27.9400994463,0.9944444444444445
28.6340446596,1.0
