Congestion,CDF
0.0,0.005555555555555556
0.0,0.011111111111111112
0.0,0.016666666666666666
0.0,0.022222222222222223
0.0,0.027777777777777776
0.0,0.03333333333333333
0.0,0.03888888888888889
0.0,0.044444444444444446
0.0,0.05
0.0,0.05555555555555555
4.41564308078e-07,0.06111111111111111
5.07336153796e-07,0.06666666666666667
1.14197164773e-06,0.07222222222222222
1.66905799157e-06,0.07777777777777778
1.7078570566e-06,0.08333333333333333
2.25495923562e-06,0.08888888888888889
2.48075360875e-06,0.09444444444444444
3.41904416521e-06,0.1
3.43668318513e-06,0.10555555555555556
3.51604949307e-06,0.1111111111111111
3.58841382589e-06,0.11666666666666667
3.95011051925e-06,0.12222222222222222
4.04173238519e-06,0.12777777777777777
4.51337780938e-06,0.13333333333333333
4.62260561454e-06,0.1388888888888889
4.86766259291e-06,0.14444444444444443
5.62854462504e-06,0.15
6.1599202275e-06,0.15555555555555556
6.43219748924e-06,0.16111111111111112
6.68974988538e-06,0.16666666666666666
6.79559546309e-06,0.17222222222222222
6.85017309398e-06,0.17777777777777778
7.07712910001e-06,0.18333333333333332
7.32304584698e-06,0.18888888888888888
7.44666199137e-06,0.19444444444444445
7.53075858981e-06,0.2
7.57253927453e-06,0.20555555555555555
7.65949766659e-06,0.2111111111111111
7.73434481583e-06,0.21666666666666667
7.75131702193e-06,0.2222222222222222
8.01030843499e-06,0.22777777777777777
8.07713742723e-06,0.23333333333333334
8.16985793659e-06,0.2388888888888889
8.84751794663e-06,0.24444444444444444
9.30990243717e-06,0.25
1.0107846079e-05,0.25555555555555554
1.0267976717e-05,0.2611111111111111
1.04157403453e-05,0.26666666666666666
1.0768468726e-05,0.2722222222222222
3.8065721591e-05,0.2777777777777778
7.61314431819e-05,0.2833333333333333
8.34528995786e-05,0.28888888888888886
8.34528995786e-05,0.29444444444444445
8.59170796284e-05,0.3
8.59170796284e-05,0.3055555555555556
0.000130073510436,0.3111111111111111
0.00017078570566,0.31666666666666665
0.000171834159257,0.32222222222222224
0.000228785410734,0.3277777777777778
0.000341904416521,0.3333333333333333
0.000355569433998,0.3388888888888889
0.00037653792949,0.34444444444444444
0.00037653792949,0.35
0.000480928131553,0.35555555555555557
0.000732304584698,0.3611111111111111
0.000744666199137,0.36666666666666664
0.000768470208977,0.37222222222222223
0.000827875710429,0.37777777777777777
0.000875900099209,0.38333333333333336
0.000875900099209,0.3888888888888889
0.000998789182921,0.39444444444444443
0.00105553750032,0.4
0.00113498587589,0.40555555555555556
0.00121340819378,0.4111111111111111
0.00150743628689,0.4166666666666667
0.00159382547709,0.4222222222222222
0.00167693094271,0.42777777777777776
0.00206161959048,0.43333333333333335
0.00242046097307,0.4388888888888889
0.00253421732259,0.4444444444444444
0.00312931005185,0.45
0.00354500193049,0.45555555555555555
0.00583555539442,0.46111111111111114
0.00589389182347,0.4666666666666667
0.00630702495237,0.4722222222222222
0.00664155763832,0.4777777777777778
0.00670891044683,0.48333333333333334
0.00679535862776,0.4888888888888889
0.00680909744032,0.49444444444444446
0.00681016107415,0.5
0.00681572623934,0.5055555555555555
0.0068202834504,0.5111111111111111
0.00682171364958,0.5166666666666667
0.00682322392798,0.5222222222222223
0.00682506830074,0.5277777777777778
0.0068309629756,0.5333333333333333
0.00683531894302,0.5388888888888889
0.00683582210604,0.5444444444444444
0.00683727536525,0.55
0.00684048437337,0.5555555555555556
0.00684100785875,0.5611111111111111
0.00684430307708,0.5666666666666667
0.00684637043385,0.5722222222222222
0.00685382305154,0.5777777777777777
0.006859947907,0.5833333333333334
0.00686185783589,0.5888888888888889
0.00686415999675,0.5944444444444444
0.00686795181916,0.6
0.0068690409805,0.6055555555555555
0.00687120327562,0.6111111111111112
0.00687120655084,0.6166666666666667
0.00687200880666,0.6222222222222222
0.00687230368208,0.6277777777777778
0.00687281246964,0.6333333333333333
0.00687617121849,0.6388888888888888
0.006877160113,0.6444444444444445
0.0068831639002,0.65
0.00688579269717,0.6555555555555556
0.00689402853741,0.6611111111111111
0.00689497495744,0.6666666666666666
0.00689695794839,0.6722222222222223
0.00689739485494,0.6777777777777778
0.00767306136617,0.6833333333333333
0.00803153744123,0.6888888888888889
0.00874990823877,0.6944444444444444
0.00896252768495,0.7
0.00942946778508,0.7055555555555556
0.00953274684382,0.7111111111111111
0.0100956013063,0.7166666666666667
0.010903315049,0.7222222222222222
0.0109713724756,0.7277777777777777
0.0111513904099,0.7333333333333333
0.0113229774249,0.7388888888888889
0.0117271506635,0.7444444444444445
0.170895552651,0.75
0.170895552651,0.7555555555555555
0.227190874645,0.7611111111111111
0.264954053749,0.7666666666666667
0.339767931388,0.7722222222222223
0.339767931388,0.7777777777777778
0.341791105302,0.7833333333333333
0.343560163781,0.7888888888888889
0.343560163781,0.7944444444444444
0.454381749289,0.8
0.68202834504,0.8055555555555556
0.683531894302,0.8111111111111111
0.68690409805,0.8166666666666667
0.687120655084,0.8222222222222222
0.851805296683,0.8277777777777777
0.854943989988,0.8333333333333334
1.02209032419,0.8388888888888889
1.02799047149,0.8444444444444444
1.0315305908,0.85
1.08527469174,0.8555555555555555
1.08527469174,0.8611111111111112
1.37034473506,0.8666666666666667
1.37418534501,0.8722222222222222
1.53431212676,0.8777777777777778
1.71519135215,0.8833333333333333
1.76812965533,0.8888888888888888
1.77289181358,0.8944444444444445
2.22049791035,0.9
3.14680765058,0.9055555555555556
3.53442045448,0.9111111111111111
3.93530597973,0.9166666666666666
4.21814799101,0.9222222222222223
4.62470883347,0.9277777777777778
8.0521860098,0.9333333333333333
8.40358302638,0.9388888888888889
9.09327882122,0.9444444444444444
9.77866112638,0.95
10.1089467445,0.9555555555555556
10.7975260143,0.9611111111111111
11.4838477481,0.9666666666666667
11.8213947315,0.9722222222222222
12.148003512,0.9777777777777777
12.5035660965,0.9833333333333333
12.7315590514,0.9888888888888889
13.1744571412,0.9944444444444445
13.7638463235,1.0
