Congestion,CDF
0.0,0.007352941176470588
0.0,0.014705882352941176
0.0,0.022058823529411766
0.0,0.029411764705882353
0.0,0.03676470588235294
0.0,0.04411764705882353
0.0,0.051470588235294115
0.0,0.058823529411764705
0.0,0.0661764705882353
0.0,0.07352941176470588
0.0,0.08088235294117647
0.0,0.08823529411764706
0.0,0.09558823529411764
0.0,0.10294117647058823
5.68180004935e-06,0.11029411764705882
5.68180004935e-06,0.11764705882352941
5.68180004935e-06,0.125
5.68180004935e-06,0.1323529411764706
5.68180004935e-06,0.13970588235294118
5.68180004935e-06,0.14705882352941177
5.68180004935e-06,0.15441176470588236
5.68180004935e-06,0.16176470588235295
5.68180004935e-06,0.16911764705882354
5.68180004935e-06,0.17647058823529413
5.68180004935e-06,0.18382352941176472
5.68180004935e-06,0.19117647058823528
5.68180004935e-06,0.19852941176470587
5.68180004935e-06,0.20588235294117646
5.68180004935e-06,0.21323529411764705
5.68180004935e-06,0.22058823529411764
5.68180004935e-06,0.22794117647058823
5.68180004935e-06,0.23529411764705882
5.68180004935e-06,0.2426470588235294
5.68180004935e-06,0.25
5.68180004935e-06,0.25735294117647056
5.68180004935e-06,0.2647058823529412
5.68180004935e-06,0.27205882352941174
5.68180004935e-06,0.27941176470588236
5.68180004935e-06,0.2867647058823529
5.68180004935e-06,0.29411764705882354
5.68180004935e-06,0.3014705882352941
0.000142045001234,0.3088235294117647
0.000142045001234,0.3161764705882353
0.000153408601332,0.3235294117647059
0.000284090002468,0.33088235294117646
0.000284090002468,0.3382352941176471
0.000284090002468,0.34558823529411764
0.000284090002468,0.35294117647058826
0.000426135003701,0.3602941176470588
0.000473483337446,0.36764705882352944
0.000473483337446,0.375
0.000473483337446,0.38235294117647056
0.000568180004935,0.3897058823529412
0.000568180004935,0.39705882352941174
0.000568180004935,0.40441176470588236
0.000568180004935,0.4117647058823529
0.000568180004935,0.41911764705882354
0.000568180004935,0.4264705882352941
0.000568180004935,0.4338235294117647
0.000710225006169,0.4411764705882353
0.000852270007403,0.4485294117647059
0.000852270007403,0.45588235294117646
0.00104166334238,0.4632352941176471
0.00113636000987,0.47058823529411764
0.00113636000987,0.47794117647058826
0.00170454001481,0.4852941176470588
0.00232006835348,0.49264705882352944
0.00411930503578,0.5
0.00421400170327,0.5073529411764706
0.00544505838063,0.5147058823529411
0.00644678332604,0.5220588235294118
0.00677081172548,0.5294117647058824
0.00686550839296,0.5367647058823529
0.00706757217941,0.5441176470588235
0.00733899173041,0.5514705882352942
0.0074336883979,0.5588235294117647
0.00800186840283,0.5661764705882353
0.0128065590387,0.5735294117647058
0.0130000361986,0.5808823529411765
0.0130629094807,0.5882352941176471
0.0130814181928,0.5955882352941176
0.0131117856999,0.6029411764705882
0.0132814192676,0.6102941176470589
0.0135722344995,0.6176470588235294
0.0136024718681,0.625
0.0136653130432,0.6323529411764706
0.0136667534533,0.6397058823529411
0.0136680345876,0.6470588235294118
0.0137213273475,0.6544117647058824
0.0137387343304,0.6617647058823529
0.0137997836008,0.6691176470588235
0.0138195635791,0.6764705882352942
0.0138300751362,0.6838235294117647
0.0138898271764,0.6911764705882353
0.013950060128,0.6985294117647058
0.0139815873363,0.7058823529411765
0.0139816168607,0.7132352941176471
0.0139818405863,0.7205882352941176
0.0139818507476,0.7279411764705882
0.0139823930637,0.7352941176470589
0.0139823998395,0.7426470588235294
0.0139823998395,0.75
0.343033183688,0.7573529411764706
0.34499459002,0.7647058823529411
0.354656750408,0.7720588235294118
0.664070963379,0.7794117647058824
0.664070963379,0.7867647058823529
0.694491358821,0.7941176470588235
0.694491358821,0.8014705882352942
1.02909955106,0.8088235294117647
1.14598558472,0.8161764705882353
1.14598558472,0.8235294117647058
1.14598558472,0.8308823529411765
1.31117856999,0.8382352941176471
1.36667534533,0.8455882352941176
1.37997836008,0.8529411764705882
1.39816168607,0.8602941176470589
1.39818507476,0.8676470588235294
1.39823998395,0.875
1.39823998395,0.8823529411764706
1.70983664245,0.8897058823529411
1.96407458324,0.8970588235294118
2.07749887244,0.9044117647058824
2.50623277153,0.9117647058823529
2.61932038927,0.9191176470588235
2.7963691334,0.9264705882352942
4.19471927426,0.9338235294117647
5.58902887683,0.9411764705882353
10.1165560617,0.9485294117647058
10.1324034174,0.9558823529411765
13.3678863737,0.9632352941176471
15.9806069381,0.9705882352941176
16.6252852707,0.9779411764705882
16.8273416041,0.9852941176470589
18.1336325521,0.9926470588235294
18.8403897701,1.0
