Congestion,CDF
0.0,0.007352941176470588
0.0,0.014705882352941176
0.0,0.022058823529411766
0.0,0.029411764705882353
0.0,0.03676470588235294
0.0,0.04411764705882353
0.0,0.051470588235294115
0.0,0.058823529411764705
0.0,0.0661764705882353
0.0,0.07352941176470588
0.0,0.08088235294117647
0.0,0.08823529411764706
0.0,0.09558823529411764
0.0,0.10294117647058823
9.32093305507e-06,0.11029411764705882
9.32093305507e-06,0.11764705882352941
9.32093305507e-06,0.125
9.32093305507e-06,0.1323529411764706
9.32093305507e-06,0.13970588235294118
9.32093305507e-06,0.14705882352941177
9.32093305507e-06,0.15441176470588236
9.32093305507e-06,0.16176470588235295
9.32093305507e-06,0.16911764705882354
9.32093305507e-06,0.17647058823529413
9.32093305507e-06,0.18382352941176472
9.32093305507e-06,0.19117647058823528
9.32093305507e-06,0.19852941176470587
9.32093305507e-06,0.20588235294117646
9.32093305507e-06,0.21323529411764705
9.32093305507e-06,0.22058823529411764
9.32093305507e-06,0.22794117647058823
9.32093305507e-06,0.23529411764705882
9.32093305507e-06,0.2426470588235294
9.32093305507e-06,0.25
9.32093305507e-06,0.25735294117647056
9.32093305507e-06,0.2647058823529412
9.32093305507e-06,0.27205882352941174
9.32093305507e-06,0.27941176470588236
9.32093305507e-06,0.2867647058823529
9.32093305507e-06,0.29411764705882354
9.32093305507e-06,0.3014705882352941
0.000233023326377,0.3088235294117647
0.000233023326377,0.3161764705882353
0.000251665192487,0.3235294117647059
0.000383172042805,0.33088235294117646
0.000466046652753,0.3382352941176471
0.000466046652753,0.34558823529411764
0.000466046652753,0.35294117647058826
0.000466046652753,0.3602941176470588
0.00069906997913,0.36764705882352944
0.000776744421256,0.375
0.000776744421256,0.38235294117647056
0.000776744421256,0.3897058823529412
0.000896493526685,0.39705882352941174
0.000932093305507,0.40441176470588236
0.000932093305507,0.4117647058823529
0.000932093305507,0.41911764705882354
0.000932093305507,0.4264705882352941
0.000932093305507,0.4338235294117647
0.000932093305507,0.4411764705882353
0.000932093305507,0.4485294117647059
0.00116511663188,0.45588235294117646
0.00139813995826,0.4632352941176471
0.00139813995826,0.47058823529411764
0.00170883772676,0.47794117647058826
0.00186418661101,0.4852941176470588
0.00186418661101,0.49264705882352944
0.00279627991652,0.5
0.00380604766415,0.5073529411764706
0.00393618944221,0.5147058823529411
0.00419917214749,0.5220588235294118
0.0042705225921,0.5294117647058824
0.004339100623,0.5367647058823529
0.0043759907277,0.5441176470588235
0.00458292781063,0.5514705882352942
0.00498521309143,0.5588235294117647
0.00503569588714,0.5661764705882353
0.00511857761208,0.5735294117647058
0.00512053950135,0.5808823529411765
0.00512288019599,0.5882352941176471
0.00517328864211,0.5955882352941176
0.00518970219374,0.6029411764705882
0.00525568926919,0.6102941176470589
0.00526373951681,0.6176470588235294
0.00528037431149,0.625
0.00534827412012,0.6323529411764706
0.00541677883905,0.6397058823529411
0.00545086436189,0.6470588235294118
0.00545090770267,0.6544117647058824
0.00545131113583,0.6617647058823529
0.00545132687184,0.6691176470588235
0.00545196512505,0.6764705882352942
0.0054519756187,0.6838235294117647
0.0054519756187,0.6911764705882353
0.00675767646492,0.6985294117647058
0.00691302534918,0.7058823529411765
0.00893256084444,0.7132352941176471
0.011107445224,0.7205882352941176
0.0112627941082,0.7279411764705882
0.0120395385295,0.7352941176470589
0.0121948874137,0.7426470588235294
0.0131269807192,0.75
0.127454648528,0.7573529411764706
0.129332216053,0.7647058823529411
0.13139223173,0.7720588235294118
0.229146390531,0.7794117647058824
0.229146390531,0.7867647058823529
0.267413706006,0.7941176470588235
0.267413706006,0.8014705882352942
0.387996648158,0.8088235294117647
0.433714520907,0.8161764705882353
0.433714520907,0.8235294117647058
0.433714520907,0.8308823529411765
0.43759907277,0.8382352941176471
0.512053950135,0.8455882352941176
0.525568926919,0.8529411764705882
0.545090770267,0.8602941176470589
0.545132687184,0.8676470588235294
0.54519756187,0.875
0.54519756187,0.8823529411764706
0.641620235652,0.8897058823529411
0.649063605281,0.8970588235294118
0.795451137155,0.9044117647058824
0.87150913507,0.9117647058823529
0.937284109621,0.9191176470588235
1.09026380077,0.9264705882352942
1.63559163625,0.9338235294117647
2.0992464679,0.9411764705882353
3.7641982772,0.9485294117647058
3.9474248752,0.9558823529411765
5.19023098602,0.9632352941176471
5.67838996177,0.9705882352941176
5.71670716605,0.9779411764705882
6.51205607485,0.9852941176470589
6.93910833406,0.9926470588235294
7.02875768673,1.0
