Congestion,CDF
0.0,0.005555555555555556
0.0,0.011111111111111112
0.0,0.016666666666666666
0.0,0.022222222222222223
0.0,0.027777777777777776
0.0,0.03333333333333333
0.0,0.03888888888888889
0.0,0.044444444444444446
0.0,0.05
0.0,0.05555555555555555
3.02379110246e-07,0.06111111111111111
3.47419055332e-07,0.06666666666666667
7.82011508742e-07,0.07222222222222222
1.14295530958e-06,0.07777777777777778
1.1695245466e-06,0.08333333333333333
1.54417500426e-06,0.08888888888888889
1.69879688016e-06,0.09444444444444444
2.3413294817e-06,0.1
2.35340851764e-06,0.10555555555555556
2.40775782337e-06,0.1111111111111111
2.457312242e-06,0.11666666666666667
2.70499875631e-06,0.12222222222222222
2.76774055359e-06,0.12777777777777777
3.09071893094e-06,0.13333333333333333
3.16551711081e-06,0.1388888888888889
3.3333298387e-06,0.14444444444444443
3.85437474126e-06,0.15
4.21825578631e-06,0.15555555555555556
4.40470870979e-06,0.16111111111111112
4.58107818296e-06,0.16666666666666666
4.65356024509e-06,0.17222222222222222
4.69093449651e-06,0.17777777777777778
4.84635184776e-06,0.18333333333333332
5.01475333715e-06,0.18888888888888888
5.09940451721e-06,0.19444444444444445
5.15699308165e-06,0.2
5.18560410397e-06,0.20555555555555555
5.24515239793e-06,0.2111111111111111
5.29640702603e-06,0.21666666666666667
5.3080294341e-06,0.2222222222222222
5.4853843326e-06,0.22777777777777777
5.53114820174e-06,0.23333333333333334
5.59464233976e-06,0.2388888888888889
6.0586975796e-06,0.24444444444444444
6.37533415615e-06,0.25
6.92175850255e-06,0.25555555555555554
7.03141446653e-06,0.2611111111111111
7.13260161779e-06,0.26666666666666666
7.37414671545e-06,0.2722222222222222
2.60670502914e-05,0.2777777777777778
5.21341005828e-05,0.2833333333333333
5.71477654792e-05,0.28888888888888886
5.71477654792e-05,0.29444444444444445
5.88352129411e-05,0.3
5.88352129411e-05,0.3055555555555556
8.90731239657e-05,0.3111111111111111
0.00011695245466,0.31666666666666665
0.000117670425882,0.32222222222222224
0.00015667011049,0.3277777777777778
0.00023413294817,0.3333333333333333
0.000243490624392,0.3388888888888889
0.000257849654083,0.34444444444444444
0.000257849654083,0.35
0.000329335088573,0.35555555555555557
0.000501475333715,0.3611111111111111
0.000509940451721,0.36666666666666664
0.00052624121513,0.37222222222222223
0.000566921547177,0.37777777777777777
0.000599808199662,0.38333333333333336
0.000599808199662,0.3888888888888889
0.00068396149537,0.39444444444444443
0.00072282221262,0.4
0.000777227717495,0.40555555555555556
0.000830930587661,0.4111111111111111
0.00103227827713,0.4166666666666667
0.00109143678697,0.4222222222222222
0.00114834663292,0.42777777777777776
0.00141177782269,0.43333333333333335
0.00165750904689,0.4388888888888889
0.0017354083316,0.4444444444444444
0.00214292226942,0.45
0.00242758418185,0.45555555555555555
0.00431899172671,0.46111111111111114
0.0052544406926,0.4666666666666667
0.00549992175762,0.4722222222222222
0.00599185536415,0.4777777777777778
0.00613745517324,0.48333333333333334
0.00645721138865,0.4888888888888889
0.00652793592259,0.49444444444444446
0.00691337339671,0.5
0.00746648821689,0.5055555555555555
0.00751309330639,0.5111111111111111
0.0076363679049,0.5166666666666667
0.00775386908872,0.5222222222222223
0.00803064314408,0.5277777777777778
0.0212507258371,0.5333333333333333
0.0216721700769,0.5388888888888889
0.028699676894,0.5444444444444444
0.0288026876831,0.55
0.0288067571165,0.5555555555555556
0.0288458846321,0.5611111111111111
0.0288686539881,0.5666666666666667
0.0288807282169,0.5722222222222222
0.0289144937076,0.5777777777777777
0.0289862625219,0.5833333333333334
0.0289873633375,0.5888888888888889
0.0289967205755,0.5944444444444444
0.0290190236174,0.6
0.0290222829855,0.6055555555555555
0.0290536443922,0.6111111111111112
0.0290604847035,0.6166666666666667
0.0290736858229,0.6222222222222222
0.0291059501825,0.6277777777777778
0.0291552708741,0.6333333333333333
0.0291720439773,0.6388888888888888
0.0291800512334,0.6444444444444445
0.0291878891782,0.65
0.0291915150093,0.6555555555555556
0.0292118178742,0.6611111111111111
0.0292268753183,0.6666666666666666
0.0292312095843,0.6722222222222223
0.0292346016646,0.6777777777777778
0.0292397278028,0.6833333333333333
0.0292423578821,0.6888888888888889
0.0292476199127,0.6944444444444444
0.0292532805782,0.7
0.0292693536783,0.7055555555555556
0.0292791769704,0.7111111111111111
0.0293209283702,0.7166666666666667
0.0293491934246,0.7222222222222222
0.0293986411436,0.7277777777777777
0.0294084451498,0.7333333333333333
0.0294176641909,0.7388888888888889
0.0294388774508,0.7444444444444445
0.724684083438,0.75
0.724684083438,0.7555555555555555
0.961529487737,0.7611111111111111
1.12070373756,0.7666666666666667
1.4434326994,0.7722222222222223
1.4434326994,0.7777777777777778
1.44936816688,0.7833333333333333
1.46198639014,0.7888888888888889
1.46198639014,0.7944444444444444
1.92305897547,0.8
2.88807282169,0.8055555555555556
2.89862625219,0.8111111111111111
2.92268753183,0.8166666666666667
2.92346016646,0.8222222222222222
3.60495285175,0.8277777777777777
3.62658644518,0.8333333333333334
4.36143782274,0.8388888888888889
4.36735082936,0.8444444444444444
4.39113458596,0.85
4.6101210159,0.8555555555555555
4.6101210159,0.8611111111111112
5.82016565872,0.8666666666666667
5.84801558965,0.8722222222222222
6.49640222252,0.8777777777777778
7.29211282063,0.8833333333333333
7.50364302033,0.8888888888888888
7.53705638372,0.8944444444444445
9.41360662025,0.9
13.3816983376,0.9055555555555556
14.9944397479,0.9111111111111111
16.7021369596,0.9166666666666666
17.8941118054,0.9222222222222223
19.642001074,0.9277777777777778
34.2000459312,0.9333333333333333
35.7229739992,0.9388888888888889
38.6668617443,0.9444444444444444
41.5860132453,0.95
42.9390005078,0.9555555555555556
45.8739198502,0.9611111111111111
48.8705720264,0.9666666666666667
50.2247211319,0.9722222222222222
51.7405397158,0.9777777777777777
53.1353161502,0.9833333333333333
53.8656122995,0.9888888888888889
56.0375444487,0.9944444444444445
58.2047614564,1.0
