Congestion,CDF
0.0,0.005555555555555556
0.0,0.011111111111111112
0.0,0.016666666666666666
0.0,0.022222222222222223
0.0,0.027777777777777776
0.0,0.03333333333333333
0.0,0.03888888888888889
0.0,0.044444444444444446
0.0,0.05
0.0,0.05555555555555555
3.23835193759e-07,0.06111111111111111
3.72071063399e-07,0.06666666666666667
8.37501136401e-07,0.07222222222222222
1.22405662824e-06,0.07777777777777778
1.25251115346e-06,0.08333333333333333
1.65374589301e-06,0.08888888888888889
1.81933935977e-06,0.09444444444444444
2.5074645062e-06,0.1
2.52040064105e-06,0.10555555555555556
2.57860644084e-06,0.1111111111111111
2.63167712004e-06,0.11666666666666667
2.89693886478e-06,0.12222222222222222
2.96413266683e-06,0.12777777777777777
3.3100288014e-06,0.13333333333333333
3.39013447752e-06,0.1388888888888889
3.56985478693e-06,0.14444444444444443
4.12787176383e-06,0.15
4.51757291955e-06,0.15555555555555556
4.71725608732e-06,0.16111111111111112
4.90614030777e-06,0.16666666666666666
4.98376552008e-06,0.17222222222222222
5.02379175715e-06,0.17777777777777778
5.19023714424e-06,0.18333333333333332
5.37058799223e-06,0.18888888888888888
5.46124581339e-06,0.19444444444444445
5.52292072178e-06,0.2
5.55356191239e-06,0.20555555555555555
5.61733560793e-06,0.2111111111111111
5.67222713932e-06,0.21666666666666667
5.6846742451e-06,0.2222222222222222
5.87461381425e-06,0.22777777777777777
5.92362497582e-06,0.23333333333333334
5.99162450288e-06,0.2388888888888889
6.48860796971e-06,0.24444444444444444
6.82771230478e-06,0.25
7.4129095889e-06,0.25555555555555554
7.5303464724e-06,0.2611111111111111
7.6387136169e-06,0.26666666666666666
7.89739816504e-06,0.2722222222222222
2.79167045467e-05,0.2777777777777778
5.58334090934e-05,0.2833333333333333
6.12028314119e-05,0.28888888888888886
6.12028314119e-05,0.29444444444444445
6.30100160263e-05,0.3
6.30100160263e-05,0.3055555555555556
9.53935354023e-05,0.3111111111111111
0.000125251115346,0.31666666666666665
0.000126020032053,0.32222222222222224
0.000167787039076,0.3277777777777778
0.00025074645062,0.3333333333333333
0.000260768124703,0.3388888888888889
0.000276146036089,0.34444444444444444
0.000276146036089,0.35
0.000352703902504,0.35555555555555557
0.000537058799223,0.3611111111111111
0.000546124581339,0.36666666666666664
0.000563582007126,0.37222222222222223
0.000607148916229,0.37777777777777777
0.000642369125294,0.38333333333333336
0.000642369125294,0.3888888888888889
0.000732493733435,0.39444444444444443
0.000774111912316,0.4
0.000832377899005,0.40555555555555556
0.000889891393742,0.4111111111111111
0.00110552622373,0.4166666666666667
0.00116888247702,0.4222222222222222
0.00122983050672,0.42777777777777776
0.00151195413064,0.43333333333333335
0.00177512184264,0.4388888888888889
0.00185854867043,0.4444444444444444
0.00229497880248,0.45
0.00259983962932,0.45555555555555555
0.00462545683636,0.46111111111111114
0.00562728297732,0.4666666666666667
0.00589018277946,0.4722222222222222
0.00641702279382,0.4777777777777778
0.00657295400994,0.48333333333333334
0.00691539934583,0.4888888888888889
0.00699114232004,0.49444444444444446
0.00740392949642,0.5
0.00799629199401,0.5055555555555555
0.00804620406689,0.5111111111111111
0.00817822592998,0.5166666666666667
0.00830406471097,0.5222222222222223
0.00860047797765,0.5277777777777778
0.00914348324457,0.5333333333333333
0.00965098588766,0.5388888888888889
0.0191353421212,0.5444444444444444
0.019261032681,0.55
0.0192666469548,0.5555555555555556
0.0193206807051,0.5611111111111111
0.0193555344423,0.5666666666666667
0.0193688157284,0.5722222222222222
0.019415431486,0.5777777777777777
0.0195145421732,0.5833333333333334
0.019516057292,0.5888888888888889
0.0195289783592,0.5944444444444444
0.0195597768853,0.6
0.0195775458936,0.6055555555555555
0.0196076276041,0.6111111111111112
0.0196170334474,0.6166666666666667
0.019635945564,0.6222222222222222
0.0196842621915,0.6277777777777778
0.0197479278606,0.6333333333333333
0.0197710961761,0.6388888888888888
0.0197882603432,0.6444444444444445
0.0197929906989,0.65
0.0197990334696,0.6555555555555556
0.0198260181414,0.6611111111111111
0.0198468516388,0.6666666666666666
0.0198574814716,0.6722222222222223
0.0198584630682,0.6777777777777778
0.0198645828579,0.6833333333333333
0.019868194277,0.6888888888888889
0.019875498763,0.6944444444444444
0.0198833160662,0.7
0.0199054723385,0.7055555555555556
0.019919043108,0.7111111111111111
0.0199767112895,0.7166666666666667
0.0200158355624,0.7222222222222222
0.0200840264862,0.7277777777777777
0.0200975915479,0.7333333333333333
0.0201102813182,0.7388888888888889
0.0201397771993,0.7444444444444445
0.4879014323,0.75
0.4879014323,0.7555555555555555
0.644022690168,0.7611111111111111
0.748188176343,0.7666666666666667
0.967776722113,0.7722222222222223
0.967776722113,0.7777777777777778
0.9758028646,0.7833333333333333
0.993229142893,0.7888888888888889
0.993229142893,0.7944444444444444
1.28804538034,0.8
1.93688157284,0.8055555555555556
1.95145421732,0.8111111111111111
1.98468516388,0.8166666666666667
1.98574814716,0.8222222222222222
2.4140047004,0.8277777777777777
2.44387912083,0.8333333333333334
2.94660275643,0.8388888888888889
2.9539919033,0.8444444444444444
2.98683099642,0.85
3.11828986075,0.8555555555555555
3.11828986075,0.8611111111111112
3.93455270179,0.8666666666666667
3.9730167705,0.8722222222222222
4.355547849,0.8777777777777778
4.9415417796,0.8833333333333333
5.06269459706,0.8888888888888888
5.1088370946,0.8944444444444445
6.33265746661,0.9
9.07718705591,0.9055555555555556
10.1076491533,0.9111111111111111
11.2692451376,0.9166666666666666
12.0605469892,0.9222222222222223
13.2776477862,0.9277777777777778
23.1245534728,0.9333333333333333
24.2019654911,0.9388888888888889
26.2159432111,0.9444444444444444
28.195846558,0.95
29.0384052445,0.9555555555555556
31.0399888007,0.9611111111111111
33.1282956213,0.9666666666666667
33.9713600792,0.9722222222222222
35.0418298334,0.9777777777777777
35.9397862984,0.9833333333333333
35.9561781578,0.9888888888888889
37.8975408877,0.9944444444444445
38.8626394765,1.0
