Congestion,CDF
0.0,0.005555555555555556
0.0,0.011111111111111112
0.0,0.016666666666666666
0.0,0.022222222222222223
0.0,0.027777777777777776
0.0,0.03333333333333333
0.0,0.03888888888888889
0.0,0.044444444444444446
0.0,0.05
0.0,0.05555555555555555
4.24492778561e-07,0.06111111111111111
4.87721787404e-07,0.06666666666666667
1.09782133409e-06,0.07222222222222222
1.60452973997e-06,0.07777777777777778
1.64182877574e-06,0.08333333333333333
2.16777917499e-06,0.08888888888888889
2.38484400355e-06,0.09444444444444444
3.28685885875e-06,0.1
3.30381592806e-06,0.10555555555555556
3.3801138171e-06,0.1111111111111111
3.44968043774e-06,0.11666666666666667
3.79739340174e-06,0.12222222222222222
3.88547303077e-06,0.12777777777777777
4.33888394499e-06,0.13333333333333333
4.44388884158e-06,0.1388888888888889
4.67947155456e-06,0.14444444444444443
5.41093676148e-06,0.15
5.92176859689e-06,0.15555555555555556
6.18351921681e-06,0.16111111111111112
6.43111425623e-06,0.16666666666666666
6.53286768729e-06,0.17222222222222222
6.58533526621e-06,0.17777777777777778
6.80351681723e-06,0.18333333333333332
7.03992605889e-06,0.18888888888888888
7.15876302022e-06,0.19444444444444445
7.23960831973e-06,0.2
7.27977370136e-06,0.20555555555555555
7.36337015331e-06,0.2111111111111111
7.43532360102e-06,0.21666666666666667
7.45163963652e-06,0.2222222222222222
7.70061805833e-06,0.22777777777777777
7.76486334284e-06,0.23333333333333334
7.85399914011e-06,0.2388888888888889
8.50545981146e-06,0.24444444444444444
8.94996783342e-06,0.25
9.71706179333e-06,0.25555555555555554
9.87100154399e-06,0.2611111111111111
1.00130524117e-05,0.26666666666666666
1.03521437913e-05,0.2722222222222222
3.65940444698e-05,0.2777777777777778
7.31880889396e-05,0.2833333333333333
8.02264869987e-05,0.28888888888888886
8.02264869987e-05,0.29444444444444445
8.25953982015e-05,0.3
8.25953982015e-05,0.3055555555555556
0.000125044676058,0.3111111111111111
0.000164182877574,0.31666666666666665
0.000165190796403,0.32222222222222224
0.00019091364028,0.3277777777777778
0.000219940228229,0.3333333333333333
0.000328685885875,0.3388888888888889
0.000341822593556,0.34444444444444444
0.000361980415987,0.35
0.000361980415987,0.35555555555555557
0.000462334738375,0.3611111111111111
0.000703992605889,0.36666666666666664
0.000715876302022,0.37222222222222223
0.00073876001362,0.37777777777777777
0.000795868810485,0.38333333333333336
0.000832701963407,0.3888888888888889
0.000842036505336,0.39444444444444443
0.000842036505336,0.4
0.000960174515237,0.40555555555555556
0.00101472885872,0.4111111111111111
0.00109110564253,0.4166666666666667
0.00116649603757,0.4222222222222222
0.00144915656954,0.42777777777777776
0.00153220582582,0.43333333333333335
0.00161209831117,0.4388888888888889
0.00198191432661,0.4444444444444444
0.00232688237038,0.45
0.00243624073111,0.45555555555555555
0.00300832629491,0.46111111111111114
0.00340794691044,0.4666666666666667
0.00606318603543,0.4722222222222222
0.0070817989784,0.4777777777777778
0.00733396391936,0.48333333333333334
0.00734150924912,0.4888888888888889
0.0073764094602,0.49444444444444446
0.0074141757931,0.5
0.00746144421564,0.5055555555555555
0.00747892450673,0.5111111111111111
0.00754160369857,0.5166666666666667
0.00767489166988,0.5222222222222223
0.00767692473111,0.5277777777777778
0.00767995713466,0.5333333333333333
0.00769430057053,0.5388888888888889
0.00772102631978,0.5444444444444444
0.00773571846893,0.55
0.00780010589794,0.5555555555555556
0.00781271937309,0.5611111111111111
0.007838418229,0.5666666666666667
0.00790099093237,0.5722222222222222
0.00798874909221,0.5777777777777777
0.00801991140145,0.5833333333333334
0.00804334108799,0.5888888888888889
0.00804936620186,0.5944444444444444
0.008057894785,0.6
0.00809376845083,0.6055555555555555
0.00812182074076,0.6111111111111112
0.00813466991122,0.6166666666666667
0.00813608120715,0.6222222222222222
0.00814565126693,0.6277777777777778
0.00815048965399,0.6333333333333333
0.00816034619003,0.6388888888888888
0.00817085902237,0.6444444444444445
0.00820062065435,0.65
0.00821887570568,0.6555555555555556
0.00829643924438,0.6611111111111111
0.00834911603667,0.6666666666666666
0.00841162383933,0.6722222222222223
0.00844075772773,0.6777777777777778
0.00845902150292,0.6833333333333333
0.00847605272444,0.6888888888888889
0.00851586225479,0.6944444444444444
0.00861602310312,0.7
0.00906491060806,0.7055555555555556
0.00916419674557,0.7111111111111111
0.00970529042172,0.7166666666666667
0.010481776756,0.7222222222222222
0.0105472029818,0.7277777777777777
0.0107202611564,0.7333333333333333
0.0108852143635,0.7388888888888889
0.0112737616666,0.7444444444444445
0.191923118278,0.75
0.191923118278,0.7555555555555555
0.247139193103,0.7611111111111111
0.294720757835,0.7666666666666667
0.373072210782,0.7722222222222223
0.373072210782,0.7777777777777778
0.383846236556,0.7833333333333333
0.407282563347,0.7888888888888889
0.407282563347,0.7944444444444444
0.494278386207,0.8
0.747892450673,0.8055555555555556
0.767489166988,0.8111111111111111
0.812182074076,0.8166666666666667
0.813608120715,0.8222222222222222
0.925319510213,0.8277777777777777
0.96549496517,0.8333333333333334
1.17740631958,0.8388888888888889
1.18729315314,0.8444444444444444
1.231451509,0.85
1.25350091626,0.8555555555555555
1.25350091626,0.8611111111111112
1.57753637511,0.8666666666666667
1.62926797631,0.8722222222222222
1.67947988007,0.8777777777777778
2.00332777214,0.8833333333333333
2.0115090675,0.8888888888888888
2.07356298169,0.8944444444444445
2.48147102022,0.9
3.69654794749,0.9055555555555556
3.99916090867,0.9111111111111111
4.47813032112,0.9166666666666666
4.76859096572,0.9222222222222223
5.32220609389,0.9277777777777778
9.28018787861,0.9333333333333333
9.80070399264,0.9388888888888889
10.6522902181,0.9444444444444444
11.4580796966,0.95
11.6626608739,0.9555555555555556
12.4975724776,0.9611111111111111
13.4489530073,0.9666666666666667
13.6544865113,0.9722222222222222
14.1571329052,0.9777777777777777
14.2404031015,0.9833333333333333
14.4445856045,0.9888888888888889
15.212581318,0.9944444444444445
15.231672682,1.0
