Congestion,CDF
0.0,0.005555555555555556
0.0,0.011111111111111112
0.0,0.016666666666666666
0.0,0.022222222222222223
0.0,0.027777777777777776
0.0,0.03333333333333333
0.0,0.03888888888888889
0.0,0.044444444444444446
0.0,0.05
0.0,0.05555555555555555
3.6194372965e-07,0.06111111111111111
4.1585593838e-07,0.06666666666666667
9.36057262263e-07,0.07222222222222222
1.36810213919e-06,0.07777777777777778
1.39990515869e-06,0.08333333333333333
1.84835671954e-06,0.08888888888888889
2.03343702619e-06,0.09444444444444444
2.80253991175e-06,0.1
2.81699835538e-06,0.10555555555555556
2.88205374364e-06,0.1111111111111111
2.9413697165e-06,0.11666666666666667
3.23784714414e-06,0.12222222222222222
3.31294823195e-06,0.12777777777777777
3.69954900738e-06,0.13333333333333333
3.78908142306e-06,0.1388888888888889
3.9899510022e-06,0.14444444444444443
4.61363474541e-06,0.15
5.04919546416e-06,0.15555555555555556
5.27237710681e-06,0.16111111111111112
5.48348899501e-06,0.16666666666666666
5.57024904889e-06,0.17222222222222222
5.61498552537e-06,0.17777777777777778
5.80101800532e-06,0.18333333333333332
6.00259232406e-06,0.18888888888888888
6.10391864851e-06,0.19444444444444445
6.1728513859e-06,0.2
6.20709839495e-06,0.20555555555555555
6.27837690223e-06,0.2111111111111111
6.33972800297e-06,0.21666666666666667
6.35363986918e-06,0.2222222222222222
6.56593129825e-06,0.22777777777777777
6.62071003434e-06,0.23333333333333334
6.69671166391e-06,0.2388888888888889
7.25217954703e-06,0.24444444444444444
7.63118927217e-06,0.25
8.28525186844e-06,0.25555555555555554
8.41650858306e-06,0.2611111111111111
8.53762824271e-06,0.26666666666666666
8.82675447718e-06,0.2722222222222222
3.12019087421e-05,0.2777777777777778
6.24038174842e-05,0.2833333333333333
6.84051069594e-05,0.28888888888888886
6.84051069594e-05,0.29444444444444445
7.04249588845e-05,0.3
7.04249588845e-05,0.3055555555555556
0.000106619331849,0.3111111111111111
0.000139990515869,0.31666666666666665
0.000140849917769,0.32222222222222224
0.000187532015916,0.3277777777777778
0.000280253991175,0.3333333333333333
0.000291455003804,0.3388888888888889
0.000308642569295,0.34444444444444444
0.000308642569295,0.35
0.000394209673298,0.35555555555555557
0.000600259232406,0.3611111111111111
0.000610391864851,0.36666666666666664
0.000629903659496,0.37222222222222223
0.000678597470033,0.37777777777777777
0.000717962350915,0.38333333333333336
0.000717962350915,0.3888888888888889
0.000818692714484,0.39444444444444443
0.000865208470572,0.4
0.000930331128456,0.40555555555555556
0.000977605648198,0.4111111111111111
0.00099461274204,0.4166666666666667
0.00123562321932,0.4222222222222222
0.00130643516026,0.42777777777777776
0.00137455548074,0.43333333333333335
0.00144508095877,0.4388888888888889
0.00168987907321,0.4444444444444444
0.00198401604486,0.45
0.00207726044135,0.45555555555555555
0.00256504914612,0.46111111111111114
0.00290578562819,0.4666666666666667
0.00516977503048,0.4722222222222222
0.00628949486608,0.4777777777777778
0.00658333240055,0.48333333333333334
0.00717217031379,0.4888888888888889
0.00734645132777,0.49444444444444446
0.00772919521868,0.5
0.00781385153495,0.5055555555555555
0.00827521500949,0.5111111111111111
0.00893728601292,0.5166666666666667
0.00899307167848,0.5222222222222223
0.00914062971554,0.5277777777777778
0.00928127705284,0.5333333333333333
0.00961257187603,0.5388888888888889
0.0119249226949,0.5444444444444444
0.0121047914292,0.55
0.0121115643333,0.5555555555555556
0.0121767777597,0.5611111111111111
0.0122200205654,0.5666666666666667
0.0122348813203,0.5722222222222222
0.0122911348195,0.5777777777777777
0.0124107519086,0.5833333333333334
0.0124125777578,0.5888888888888889
0.0124281716957,0.5944444444444444
0.0124601487429,0.6
0.0124653418362,0.6055555555555555
0.0125231149659,0.6111111111111112
0.0125344450052,0.6166666666666667
0.0125575567652,0.6222222222222222
0.0126161434142,0.6277777777777778
0.0126924206004,0.6333333333333333
0.0127203853242,0.6388888888888888
0.0127431828647,0.6444444444444445
0.0127468166582,0.65
0.0127545438159,0.6555555555555556
0.0127866683403,0.6611111111111111
0.0128118337909,0.6666666666666666
0.0128246413259,0.6722222222222223
0.0128265293789,0.6777777777777778
0.0128332241226,0.6833333333333333
0.0128375715625,0.6888888888888889
0.0128464077944,0.6944444444444444
0.0128558425502,0.7
0.0128825613334,0.7055555555555556
0.0128989427065,0.7111111111111111
0.0129685484161,0.7166666666666667
0.0130158132385,0.7222222222222222
0.0130980654528,0.7277777777777777
0.0131144509478,0.7333333333333333
0.0131297441637,0.7388888888888889
0.0131654449022,0.7444444444444445
0.310314443944,0.75
0.310314443944,0.7555555555555555
0.405892591989,0.7611111111111111
0.470448670911,0.7666666666666667
0.611001028271,0.7722222222222223
0.611001028271,0.7777777777777778
0.620628887889,0.7833333333333333
0.641661206131,0.7888888888888889
0.641661206131,0.7944444444444444
0.811785183977,0.8
1.22348813203,0.8055555555555556
1.24107519086,0.8111111111111111
1.28118337909,0.8166666666666667
1.28246413259,0.8222222222222222
1.52079358686,0.8277777777777777
1.55684862756,0.8333333333333334
1.88531931474,0.8388888888888889
1.89397270272,0.8444444444444444
1.93360330425,0.85
1.99941649437,0.8555555555555555
1.99941649437,0.8611111111111112
2.52034297365,0.8666666666666667
2.56676763412,0.8722222222222222
2.74990706882,0.8777777777777778
3.17861348216,0.8833333333333333
3.23198327959,0.8888888888888888
3.28767262771,0.8944444444444445
4.02194560124,0.9
5.84880359432,0.9055555555555556
6.4425562073,0.9111111111111111
7.19457626887,0.9166666666666666
7.68537337687,0.9222222222222223
8.50438281416,0.9277777777777778
14.8179341274,0.9333333333333333
15.5612090252,0.9388888888888889
16.8777535154,0.9444444444444444
18.153207897,0.95
18.6129587669,0.9555555555555556
19.9145400908,0.9611111111111111
21.3211801497,0.9666666666666667
21.7812967955,0.9722222222222222
22.5136724191,0.9777777777777777
22.611432984,0.9833333333333333
23.042911137,0.9888888888888889
24.2889260113,0.9944444444444445
24.4334341071,1.0
