Congestion,CDF
0.0,0.005555555555555556
0.0,0.011111111111111112
0.0,0.016666666666666666
0.0,0.022222222222222223
0.0,0.027777777777777776
0.0,0.03333333333333333
0.0,0.03888888888888889
0.0,0.044444444444444446
0.0,0.05
0.0,0.05555555555555555
3.18611961784e-07,0.06111111111111111
3.6606982106e-07,0.06666666666666667
8.2399283712e-07,0.07222222222222222
1.20431346306e-06,0.07777777777777778
1.23230903697e-06,0.08333333333333333
1.62707214478e-06,0.08888888888888889
1.78999470637e-06,0.09444444444444444
2.46702088229e-06,0.1
2.47974836646e-06,0.10555555555555556
2.53701534798e-06,0.1111111111111111
2.58923003477e-06,0.11666666666666667
2.85021329572e-06,0.12222222222222222
2.9163233094e-06,0.12777777777777777
3.25664038467e-06,0.13333333333333333
3.33545401305e-06,0.1388888888888889
3.51227556135e-06,0.14444444444444443
4.06129212022e-06,0.15
4.44470767272e-06,0.15555555555555556
4.64117009263e-06,0.16111111111111112
4.82700774458e-06,0.16666666666666666
4.90338091728e-06,0.17222222222222222
4.94276155953e-06,0.17777777777777778
5.1065223006e-06,0.18333333333333332
5.28396421733e-06,0.18888888888888888
5.37315979214e-06,0.19444444444444445
5.433839928e-06,0.2
5.46398689795e-06,0.20555555555555555
5.52673196901e-06,0.2111111111111111
5.58073813893e-06,0.21666666666666667
5.59298448172e-06,0.2222222222222222
5.77986046035e-06,0.22777777777777777
5.82808110665e-06,0.23333333333333334
5.89498384957e-06,0.2388888888888889
6.3839513256e-06,0.24444444444444444
6.71758614828e-06,0.25
7.29334461529e-06,0.25555555555555554
7.40888732515e-06,0.2611111111111111
7.51550658448e-06,0.26666666666666666
7.77001873435e-06,0.2722222222222222
2.7466427904e-05,0.2777777777777778
5.4932855808e-05,0.2833333333333333
6.0215673153e-05,0.28888888888888886
6.0215673153e-05,0.29444444444444445
6.19937091615e-05,0.3
6.19937091615e-05,0.3055555555555556
9.38549053399e-05,0.3111111111111111
0.000123230903697,0.31666666666666665
0.000123987418323,0.32222222222222224
0.000165080753149,0.3277777777777778
0.000246702088229,0.3333333333333333
0.000256562119818,0.3388888888888889
0.0002716919964,0.34444444444444444
0.0002716919964,0.35
0.000347015038733,0.35555555555555557
0.000528396421733,0.3611111111111111
0.000537315979214,0.36666666666666664
0.000554491829106,0.37222222222222223
0.000597356034868,0.37777777777777777
0.000632008166942,0.38333333333333336
0.000632008166942,0.3888888888888889
0.00072067912908,0.39444444444444443
0.000761626036257,0.4
0.000818952233909,0.40555555555555556
0.000875538076771,0.4111111111111111
0.00108769486991,0.4166666666666667
0.00115002923177,0.4222222222222222
0.00120999421298,0.42777777777777776
0.00148756738296,0.43333333333333335
0.00174649038643,0.4388888888888889
0.00182857159867,0.4444444444444444
0.00225796242225,0.45
0.0025579060602,0.45555555555555555
0.00455085149848,0.46111111111111114
0.00553651889438,0.4666666666666667
0.00579517830919,0.4722222222222222
0.00631352076782,0.4777777777777778
0.00646693692402,0.48333333333333334
0.00680385885955,0.4888888888888889
0.00687838015331,0.49444444444444446
0.00728450936533,0.5
0.007867317476,0.5055555555555555
0.00791642450255,0.5111111111111111
0.00804631694663,0.5166666666666667
0.00817012603735,0.5222222222222223
0.00846175836829,0.5277777777777778
0.0189433242606,0.5333333333333333
0.01906307551,0.5388888888888889
0.0207980797728,0.5444444444444444
0.0208862082907,0.55
0.0209015335008,0.5555555555555556
0.0209025044375,0.5611111111111111
0.0209118203118,0.5666666666666667
0.0209123973377,0.5722222222222222
0.0209201015051,0.5777777777777777
0.0209281539798,0.5833333333333334
0.0209452402793,0.5888888888888889
0.0209455052609,0.5944444444444444
0.0209477332489,0.6
0.0209530441558,0.6055555555555555
0.0209612564135,0.6111111111111112
0.0209629154273,0.6166666666666667
0.0209652148641,0.6222222222222222
0.020966303042,0.6277777777777778
0.0209825444815,0.6333333333333333
0.0209854839784,0.6388888888888888
0.0209894754613,0.6444444444444445
0.0209928106372,0.65
0.0209932347442,0.6555555555555556
0.0209940735087,0.6611111111111111
0.0209989465628,0.6666666666666666
0.0210024987459,0.6722222222222223
0.0210043712748,0.6777777777777778
0.0210055755372,0.6833333333333333
0.021006216437,0.6888888888888889
0.0210074408387,0.6944444444444444
0.021008785686,0.7
0.0210126457917,0.7055555555555556
0.0210149818031,0.7111111111111111
0.0210249109878,0.7166666666666667
0.0210315456883,0.7222222222222222
0.0210434186792,0.7277777777777777
0.0210457289872,0.7333333333333333
0.0210479581609,0.7388888888888889
0.0210528069024,0.7444444444444445
0.523637631524,0.75
0.523637631524,0.7555555555555555
0.69706067706,0.7611111111111111
0.814059866493,0.7666666666666667
1.04561986688,0.7722222222222223
1.04561986688,0.7777777777777778
1.04727526305,0.7833333333333333
1.05027877686,0.7888888888888889
1.05027877686,0.7944444444444444
1.39412135412,0.8
2.09201015051,0.8055555555555556
2.09452402793,0.8111111111111111
2.10024987459,0.8166666666666667
2.10043712748,0.8222222222222222
2.61379098161,0.8277777777777777
2.6189420471,0.8333333333333334
3.14387431503,0.8388888888888889
3.14640441821,0.8444444444444444
3.15207107913,0.85
3.32124198799,0.8555555555555555
3.32124198799,0.8611111111111112
4.19450124929,0.8666666666666667
4.2011284432,0.8722222222222222
4.70660637959,0.8777777777777778
5.24714850208,0.8833333333333333
5.414551122,0.8888888888888888
5.42250656717,0.8944444444444445
6.80555392572,0.9
9.62283835093,0.9055555555555556
10.8260435537,0.9111111111111111
12.0518549108,0.9166666666666666
12.9208168786,0.9222222222222223
14.1561967788,0.9277777777777778
24.6442768733,0.9333333333333333
25.7090466228,0.9388888888888889
27.814327313,0.9444444444444444
29.9136083767,0.95
30.938101597,0.9555555555555556
33.0412561658,0.9611111111111111
35.1568900426,0.9666666666666667
36.1833975191,0.9722222222222222
37.2366980199,0.9777777777777777
38.2800278233,0.9833333333333333
39.131030446,0.9888888888888889
40.3686486524,0.9944444444444445
42.2749562034,1.0
