Congestion,CDF
0.0,0.005555555555555556
0.0,0.011111111111111112
0.0,0.016666666666666666
0.0,0.022222222222222223
0.0,0.027777777777777776
0.0,0.03333333333333333
0.0,0.03888888888888889
0.0,0.044444444444444446
0.0,0.05
0.0,0.05555555555555555
5.2533994721e-07,0.06111111111111111
6.0359033413e-07,0.06666666666666667
1.35863183269e-06,0.07222222222222222
1.98571945499e-06,0.07777777777777778
2.03187965952e-06,0.08333333333333333
2.68278061457e-06,0.08888888888888889
2.95141374884e-06,0.09444444444444444
4.06772116405e-06,0.1
4.08870674107e-06,0.10555555555555556
4.18313079495e-06,0.1111111111111111
4.26922442637e-06,0.11666666666666667
4.69954390264e-06,0.12222222222222222
4.80854869613e-06,0.12777777777777777
5.36967688905e-06,0.13333333333333333
5.49962790263e-06,0.1388888888888889
5.79117823341e-06,0.14444444444444443
6.69641835195e-06,0.15
7.32860901102e-06,0.15555555555555556
7.65254398423e-06,0.16111111111111112
7.9589604217e-06,0.16666666666666666
8.08488751587e-06,0.17222222222222222
8.14981986934e-06,0.17777777777777778
8.41983502692e-06,0.18333333333333332
8.7124082456e-06,0.18888888888888888
8.85947742121e-06,0.19444444444444445
8.95952921837e-06,0.2
9.00923672938e-06,0.20555555555555555
9.11269327299e-06,0.2111111111111111
9.20174077233e-06,0.21666666666666667
9.2219330245e-06,0.2222222222222222
9.53006149587e-06,0.22777777777777777
9.60956959608e-06,0.23333333333333334
9.71988147275e-06,0.2388888888888889
1.05261102992e-05,0.24444444444444444
1.10762205309e-05,0.25
1.20255537605e-05,0.25555555555555554
1.22160651298e-05,0.2611111111111111
1.23918631624e-05,0.26666666666666666
1.2811512816e-05,0.2722222222222222
4.52877277562e-05,0.2777777777777778
9.05754555123e-05,0.2833333333333333
9.79442183734e-05,0.28888888888888886
9.92859727497e-05,0.29444444444444445
9.92859727497e-05,0.3
0.000102217668527,0.3055555555555556
0.000102217668527,0.3111111111111111
0.000154751663248,0.31666666666666665
0.000203187965952,0.32222222222222224
0.000204435337053,0.3277777777777778
0.000272191645471,0.3333333333333333
0.000406772116405,0.3388888888888889
0.000423029724705,0.34444444444444444
0.000447976460919,0.35
0.000447976460919,0.35555555555555557
0.000572172058791,0.3611111111111111
0.000605966716549,0.36666666666666664
0.00087124082456,0.37222222222222223
0.000885947742121,0.37777777777777777
0.000914267959684,0.38333333333333336
0.000984944149823,0.3888888888888889
0.00104207994954,0.39444444444444443
0.00104207994954,0.4
0.00118828412313,0.40555555555555556
0.00125579899587,0.4111111111111111
0.00135032068765,0.4166666666666667
0.0014436216533,0.4222222222222222
0.00179343412701,0.42777777777777776
0.00189621347712,0.43333333333333335
0.00199508609912,0.4388888888888889
0.0024527596706,0.4444444444444444
0.00287968211324,0.45
0.00301502084773,0.45555555555555555
0.00372301734394,0.46111111111111114
0.00396243303296,0.4666666666666667
0.00421757622378,0.4722222222222222
0.00423864043792,0.4777777777777778
0.00424752891274,0.48333333333333334
0.00433323921954,0.4888888888888889
0.00438916018122,0.49444444444444446
0.00440963375708,0.5
0.00448354890374,0.5055555555555555
0.0046407617435,0.5111111111111111
0.00464315075262,0.5166666666666667
0.00465381694839,0.5222222222222223
0.0046636432746,0.5277777777777778
0.0047124937309,0.5333333333333333
0.00478850116138,0.5388888888888889
0.00480331674213,0.5444444444444444
0.00483394867196,0.55
0.00490751296154,0.5555555555555556
0.00501094010894,0.5611111111111111
0.00504770664577,0.5666666666666667
0.00507446857013,0.5722222222222222
0.00508246097678,0.5777777777777777
0.00509302321689,0.5833333333333334
0.00513481173141,0.5888888888888889
0.00516795503289,0.5944444444444444
0.0051832243816,0.6
0.00518471908382,0.6055555555555555
0.00519604192098,0.6111111111111112
0.00520171605366,0.6166666666666667
0.00521339956328,0.6222222222222222
0.00522579503987,0.6277777777777778
0.00526084285777,0.6333333333333333
0.00528238392061,0.6388888888888888
0.00537388137582,0.6444444444444445
0.00543608616362,0.65
0.0055441039205,0.6555555555555556
0.00556567588375,0.6611111111111111
0.00558570993158,0.6666666666666666
0.00563285131982,0.6722222222222223
0.00750362313011,0.6777777777777778
0.00912883034089,0.6833333333333333
0.00955531816815,0.6888888888888889
0.0104099816225,0.6944444444444444
0.0106629402212,0.7
0.0112184703741,0.7055555555555556
0.0113413440173,0.7111111111111111
0.0120109858525,0.7166666666666667
0.0129719428121,0.7222222222222222
0.013052912411,0.7277777777777777
0.013267084187,0.7333333333333333
0.0134712254905,0.7388888888888889
0.0139520803601,0.7444444444444445
0.116078768816,0.75
0.116078768816,0.7555555555555555
0.144441307318,0.7611111111111111
0.183913039067,0.7666666666666667
0.219458009061,0.7722222222222223
0.219458009061,0.7777777777777778
0.232157537631,0.7833333333333333
0.259802096049,0.7888888888888889
0.259802096049,0.7944444444444444
0.288882614636,0.8
0.440963375708,0.8055555555555556
0.46407617435,0.8111111111111111
0.516795503289,0.8166666666666667
0.518471908382,0.8222222222222222
0.539942812608,0.8277777777777777
0.587328141906,0.8333333333333334
0.726904866074,0.8388888888888889
0.738652212187,0.8444444444444444
0.779971409819,0.85
0.779971409819,0.8555555555555555
0.790728530789,0.8611111111111112
0.97835151329,0.8666666666666667
0.988297702982,0.8722222222222222
1.03937500728,0.8777777777777778
1.23286346012,0.8833333333333333
1.25999216851,0.8888888888888888
1.3060556956,0.8944444444444445
1.49306836756,0.9
2.33800877712,0.9055555555555556
2.43758776121,0.9111111111111111
2.74518503002,0.9166666666666666
2.90395208867,0.9222222222222223
3.29959542207,0.9277777777777778
5.76213247116,0.9333333333333333
6.15553018623,0.9388888888888889
6.71881531822,0.9444444444444444
7.22811763991,0.95
7.24873008212,0.9555555555555556
7.79233869849,0.9611111111111111
8.47334494414,0.9666666666666667
8.49519157474,0.9722222222222222
8.86958824744,0.9777777777777777
8.93018491909,0.9833333333333333
8.9859428709,0.9888888888888889
9.45132456574,0.9944444444444445
9.46111898757,1.0
