Congestion,CDF
0.0,0.005555555555555556
0.0,0.011111111111111112
0.0,0.016666666666666666
0.0,0.022222222222222223
0.0,0.027777777777777776
0.0,0.03333333333333333
0.0,0.03888888888888889
0.0,0.044444444444444446
0.0,0.05
0.0,0.05555555555555555
2.87720744618e-07,0.06111111111111111
3.3057729819e-07,0.06666666666666667
7.44102108811e-07,0.07222222222222222
1.0875485164e-06,0.07777777777777778
1.11282976236e-06,0.08333333333333333
1.46931837217e-06,0.08888888888888889
1.61644467739e-06,0.09444444444444444
2.22782936731e-06,0.1
2.23932285049e-06,0.10555555555555556
2.29103747687e-06,0.1111111111111111
2.33818965685e-06,0.11666666666666667
2.57386912648e-06,0.12222222222222222
2.63356940345e-06,0.12777777777777777
2.94089082903e-06,0.13333333333333333
3.01206303398e-06,0.1388888888888889
3.17174074117e-06,0.14444444444444443
3.66752706458e-06,0.15
4.01376832822e-06,0.15555555555555556
4.19118261434e-06,0.16111111111111112
4.35900226335e-06,0.16666666666666666
4.42797062849e-06,0.17222222222222222
4.46353309654e-06,0.17777777777777778
4.61141631503e-06,0.18333333333333332
4.77165424246e-06,0.18888888888888888
4.85220180588e-06,0.19444444444444445
4.90699866215e-06,0.2
4.93422271423e-06,0.20555555555555555
4.99088429864e-06,0.2111111111111111
5.0396542674e-06,0.21666666666666667
5.05071325856e-06,0.2222222222222222
5.21947056265e-06,0.22777777777777777
5.26301594677e-06,0.23333333333333334
5.32343209342e-06,0.2388888888888889
5.76499142945e-06,0.24444444444444444
6.06627848432e-06,0.25
6.58621393784e-06,0.25555555555555554
6.69055413377e-06,0.2611111111111111
6.78683605775e-06,0.26666666666666666
7.01667182683e-06,0.2722222222222222
2.4803403627e-05,0.2777777777777778
4.9606807254e-05,0.2833333333333333
5.43774258199e-05,0.28888888888888886
5.43774258199e-05,0.29444444444444445
5.59830712623e-05,0.3
5.59830712623e-05,0.3055555555555556
8.4755145724e-05,0.3111111111111111
0.000111282976236,0.31666666666666665
0.000111966142525,0.32222222222222224
0.000149075247998,0.3277777777777778
0.000222782936731,0.3333333333333333
0.000231686982941,0.3388888888888889
0.000245349933108,0.34444444444444444
0.000245349933108,0.35
0.000313369983911,0.35555555555555557
0.000477165424246,0.3611111111111111
0.000485220180588,0.36666666666666664
0.000500730735474,0.37222222222222223
0.000539439016011,0.37777777777777777
0.000570731429476,0.38333333333333336
0.000570731429476,0.3888888888888889
0.000650805244375,0.39444444444444443
0.00068778211918,0.4
0.00073955022036,0.40555555555555556
0.000790649748299,0.4111111111111111
0.000982236750102,0.4166666666666667
0.00103852744587,0.4222222222222222
0.00109267848574,0.42777777777777776
0.00134333937965,0.43333333333333335
0.00157715834534,0.4388888888888889
0.00165128132356,0.4444444444444444
0.00203904029783,0.45
0.00230990271734,0.45555555555555555
0.00410962091459,0.46111111111111114
0.00499972232669,0.4666666666666667
0.00523330326011,0.4722222222222222
0.00570138950938,0.4777777777777778
0.00583993110854,0.48333333333333334
0.00614418657222,0.4888888888888889
0.00621148260848,0.49444444444444446
0.00657823531494,0.5
0.00710453690961,0.5055555555555555
0.00714888273444,0.5111111111111111
0.00726618137735,0.5166666666666667
0.00737798648213,0.5222222222222223
0.00764134342247,0.5277777777777778
0.0387947967655,0.5333333333333333
0.0390780867122,0.5388888888888889
0.0435074593623,0.5444444444444444
0.04359796762,0.55
0.0436004833971,0.5555555555555556
0.043624705506,0.5611111111111111
0.0436375312073,0.5666666666666667
0.0436462781397,0.5722222222222222
0.0436671808795,0.5777777777777777
0.0437111730818,0.5833333333333334
0.0437116090521,0.5888888888888889
0.0437122883367,0.5944444444444444
0.0437180801539,0.6
0.043731886545,0.6055555555555555
0.0437533287488,0.6111111111111112
0.0437575532925,0.6166666666666667
0.0437655873932,0.6222222222222222
0.0437835904367,0.6277777777777778
0.0438162300862,0.6333333333333333
0.0438266167815,0.6388888888888888
0.0438291917218,0.6444444444444445
0.0438364254061,0.65
0.0438384546537,0.6555555555555556
0.0438512359514,0.6611111111111111
0.0438605508648,0.6666666666666666
0.0438605641916,0.6722222222222223
0.0438653402032,0.6777777777777778
0.0438685197146,0.6833333333333333
0.0438701419538,0.6888888888888889
0.0438734088177,0.6944444444444444
0.0438769103045,0.7
0.0438868535733,0.7055555555555556
0.0438929370622,0.7111111111111111
0.0439187830327,0.7166666666666667
0.0439362776284,0.7222222222222222
0.0439668931459,0.7277777777777777
0.0439729645503,0.7333333333333333
0.0439786644095,0.7388888888888889
0.0439917970096,0.7444444444444445
1.09280720842,0.75
1.09280720842,0.7555555555555555
1.4541568502,0.7611111111111111
1.69841834769,0.7666666666666667
2.18187656037,0.7722222222222223
2.18187656037,0.7777777777777778
2.18561441684,0.7833333333333333
2.19342598573,0.7888888888888889
2.19342598573,0.7944444444444444
2.9083137004,0.8
4.36462781397,0.8055555555555556
4.37116090521,0.8111111111111111
4.38605641916,0.8166666666666667
4.38653402032,0.8222222222222222
5.45260397041,0.8277777777777777
5.46599586291,0.8333333333333334
6.56479573254,0.8388888888888889
6.56875886061,0.8444444444444444
6.58348085779,0.85
6.93377494372,0.8555555555555555
6.93377494372,0.8611111111111112
8.75650611724,0.8666666666666667
8.77374744961,0.8722222222222222
9.81932205837,0.8777777777777778
10.9560997424,0.8833333333333333
11.3017757217,0.8888888888888888
11.3224603011,0.8944444444444445
14.2019837365,0.9
20.0941179165,0.9055555555555556
22.5955990052,0.9111111111111111
25.1558643337,0.9166666666666666
26.9674070205,0.9222222222222223
29.5525536483,0.9277777777777778
51.4485391324,0.9333333333333333
53.6796972953,0.9388888888888889
58.0788769962,0.9444444444444444
62.4627224616,0.95
64.5886877903,0.9555555555555556
68.9823155531,0.9611111111111111
73.4135732806,0.9666666666666667
75.5407508528,0.9722222222222222
77.7643192169,0.9777777777777777
79.9191098965,0.9833333333333333
81.6437988934,0.9888888888888889
84.2902272047,0.9944444444444445
88.1980358759,1.0
