Congestion,CDF
0.0,0.005555555555555556
0.0,0.011111111111111112
0.0,0.016666666666666666
0.0,0.022222222222222223
0.0,0.027777777777777776
0.0,0.03333333333333333
0.0,0.03888888888888889
0.0,0.044444444444444446
0.0,0.05
0.0,0.05555555555555555
1.22249613182e-06,0.06111111111111111
1.40458926187e-06,0.06666666666666667
3.16161405363e-06,0.07222222222222222
4.62088285026e-06,0.07777777777777778
4.72830028877e-06,0.08333333333333333
6.24298407395e-06,0.08888888888888889
6.86810875611e-06,0.09444444444444444
9.46582001769e-06,0.1
9.51465465679e-06,0.10555555555555556
9.73438483577e-06,0.1111111111111111
9.93472964477e-06,0.11666666666666667
1.0936107701e-05,0.12222222222222222
1.11897680957e-05,0.12777777777777777
1.24955455241e-05,0.13333333333333333
1.27979489722e-05,0.1388888888888889
1.34764032826e-05,0.14444444444444443
1.55829488616e-05,0.15
1.70540927169e-05,0.15555555555555556
1.78079079442e-05,0.16111111111111112
1.85209565359e-05,0.16666666666666666
1.88139960932e-05,0.17222222222222222
1.89650973969e-05,0.17777777777777778
1.95934381264e-05,0.18333333333333332
2.02742727555e-05,0.18888888888888888
2.06165111466e-05,0.19444444444444445
2.08493374064e-05,0.2
2.09650096301e-05,0.20555555555555555
2.12057589298e-05,0.2111111111111111
2.14129775586e-05,0.21666666666666667
2.14599660853e-05,0.2222222222222222
2.2176998678e-05,0.22777777777777777
2.23620185788e-05,0.23333333333333334
2.2618720631e-05,0.2388888888888889
2.44948612651e-05,0.24444444444444444
2.57749992671e-05,0.25
2.79841520398e-05,0.25555555555555554
2.84274829024e-05,0.2611111111111111
2.88365749885e-05,0.26666666666666666
2.98131237564e-05,0.2722222222222222
7.81366874335e-05,0.2777777777777778
0.000105387135121,0.2833333333333333
0.000210774270242,0.28888888888888886
0.000231044142513,0.29444444444444445
0.000231044142513,0.3
0.000235302359776,0.3055555555555556
0.00023786636642,0.3111111111111111
0.00023786636642,0.31666666666666665
0.000360115979602,0.32222222222222224
0.000391431305705,0.3277777777777778
0.000472830028877,0.3333333333333333
0.000475732732839,0.3388888888888889
0.000633405541442,0.34444444444444444
0.000660335133214,0.35
0.0006699390462,0.35555555555555557
0.000761229534853,0.3611111111111111
0.000800278765745,0.36666666666666664
0.000842348384836,0.37222222222222223
0.000921191277583,0.37777777777777777
0.000933319974921,0.38333333333333336
0.000946582001769,0.3888888888888889
0.000984414386998,0.39444444444444443
0.00104246687032,0.4
0.00104246687032,0.40555555555555556
0.00108863907707,0.4111111111111111
0.00109130395166,0.4166666666666667
0.00111316545407,0.4222222222222222
0.00116521534626,0.42777777777777776
0.00124560957694,0.43333333333333335
0.00126194547911,0.4388888888888889
0.00128755927354,0.4444444444444444
0.00133147713652,0.45
0.00133594768667,0.45555555555555555
0.00148311768834,0.46111111111111114
0.00150533832336,0.4666666666666667
0.00152208522743,0.4722222222222222
0.00155895382179,0.4777777777777778
0.0015604353913,0.48333333333333334
0.00161503332487,0.4888888888888889
0.00162022040877,0.49444444444444446
0.00164970940519,0.5
0.0016681936195,0.5055555555555555
0.00167985091035,0.5111111111111111
0.0016862661345,0.5166666666666667
0.0016981100932,0.5222222222222223
0.00171130675065,0.5277777777777778
0.0017492793428,0.5333333333333333
0.00177204128148,0.5388888888888889
0.00186933553519,0.5444444444444444
0.00193414098004,0.55
0.00202742727555,0.5555555555555556
0.00205066284289,0.5611111111111111
0.00206165111466,0.5666666666666667
0.00207326587933,0.5722222222222222
0.00209533915503,0.5777777777777777
0.00212755388221,0.5833333333333334
0.00214264345257,0.5888888888888889
0.00229202142273,0.5944444444444444
0.00242497969958,0.6
0.00242497969958,0.6055555555555555
0.00276520518142,0.6111111111111112
0.00292231615539,0.6166666666666667
0.00314227354333,0.6222222222222222
0.00335939023169,0.6277777777777778
0.00417342388409,0.6333333333333333
0.00441259731571,0.6388888888888888
0.00464267956737,0.6444444444444445
0.00570771216909,0.65
0.00670118513357,0.6555555555555556
0.0070161261166,0.6611111111111111
0.00866367449468,0.6666666666666666
0.00981454132058,0.6722222222222223
0.0174613605913,0.6777777777777778
0.0212433108106,0.6833333333333333
0.0222357724002,0.6888888888888889
0.0242246231863,0.6944444444444444
0.0248132723269,0.7
0.0253743178284,0.7055555555555556
0.0261060227956,0.7111111111111111
0.0263919567977,0.7166666666666667
0.0272825987915,0.7222222222222222
0.0272825987915,0.7277777777777777
0.0279502516839,0.7333333333333333
0.0301864535418,0.7388888888888889
0.0303748744336,0.7444444444444445
0.0308732644174,0.75
0.0313483129172,0.7555555555555555
0.0324672897268,0.7611111111111111
0.0400139382873,0.7666666666666667
0.0400139382873,0.7722222222222223
0.0507486356569,0.7777777777777778
0.0525282278842,0.7833333333333333
0.0545651975829,0.7888888888888889
0.0839925455175,0.7944444444444444
0.0839925455175,0.8
0.0842348384836,0.8055555555555556
0.0933161121129,0.8111111111111111
0.108863907707,0.8166666666666667
0.143804133417,0.8222222222222222
0.164970940519,0.8277777777777777
0.16681936195,0.8333333333333334
0.185435239871,0.8388888888888889
0.190547770623,0.8444444444444444
0.208553503212,0.85
0.220521148327,0.8555555555555555
0.220521148327,0.8611111111111112
0.264099113086,0.8666666666666667
0.271168392002,0.8722222222222222
0.31749022008,0.8777777777777778
0.336101615585,0.8833333333333333
0.337643762614,0.8888888888888888
0.378364512532,0.8944444444444445
0.395449082607,0.9
0.605005273027,0.9055555555555556
0.707704343986,0.9111111111111111
0.716321818435,0.9166666666666666
0.723771777044,0.9222222222222223
0.912770628275,0.9277777777777778
1.60872020893,0.9333333333333333
1.83456334432,0.9388888888888889
2.03578398311,0.9444444444444444
2.04882768958,0.95
2.20487122871,0.9555555555555556
2.22919808111,0.9611111111111111
2.39796794676,0.9666666666666667
2.53156271542,0.9722222222222222
2.55744104021,0.9777777777777777
2.58097127619,0.9833333333333333
2.62011440676,0.9888888888888889
2.62489471292,0.9944444444444445
2.63270838166,1.0
