Congestion,CDF
0.00225446050406,0.005555555555555556
0.00225446050406,0.011111111111111112
0.00226132796466,0.016666666666666666
0.00226132796466,0.022222222222222223
0.0022620196275,0.027777777777777776
0.0022620196275,0.03333333333333333
0.00226588783921,0.03888888888888889
0.00226588783921,0.044444444444444446
0.00228432844918,0.05
0.00228432844918,0.05555555555555555
0.00233704318932,0.06111111111111111
0.00233704318932,0.06666666666666667
0.00235106757693,0.07222222222222222
0.00235106757693,0.07777777777777778
0.00239273836395,0.08333333333333333
0.00239273836395,0.08888888888888889
0.0023947160707,0.09444444444444444
0.0023947160707,0.1
0.00245172538782,0.10555555555555556
0.00245172538782,0.1111111111111111
0.002460356617,0.11666666666666667
0.002460356617,0.12222222222222222
0.00246639582499,0.12777777777777777
0.00246639582499,0.13333333333333333
0.00246963210925,0.1388888888888889
0.00246963210925,0.14444444444444443
0.00247022824906,0.15
0.00247022824906,0.15555555555555556
0.00247726499782,0.16111111111111112
0.00247726499782,0.16666666666666666
0.00247998628243,0.17222222222222222
0.00247998628243,0.17777777777777778
0.00248321665969,0.18333333333333332
0.00248321665969,0.18888888888888888
0.00253548661197,0.19444444444444445
0.00253548661197,0.2
0.00255308672102,0.20555555555555555
0.00255308672102,0.2111111111111111
0.00256502285066,0.21666666666666667
0.00256502285066,0.2222222222222222
0.00257447950884,0.22777777777777777
0.00257447950884,0.23333333333333334
0.00257634236715,0.2388888888888889
0.00257634236715,0.24444444444444444
0.00258420099918,0.25
0.00258420099918,0.25555555555555554
0.00258958347176,0.2611111111111111
0.00258958347176,0.26666666666666666
0.00260628531766,0.2722222222222222
0.00260628531766,0.2777777777777778
0.00267762863082,0.2833333333333333
0.00267762863082,0.28888888888888886
0.00269782399415,0.29444444444444445
0.00269782399415,0.3
0.00270102350427,0.3055555555555556
0.00270102350427,0.3111111111111111
0.00273864608945,0.31666666666666665
0.00273864608945,0.32222222222222224
0.00274658550168,0.3277777777777778
0.00274658550168,0.3333333333333333
0.00275305746961,0.3388888888888889
0.00275305746961,0.34444444444444444
0.0027550174215,0.35
0.0027550174215,0.35555555555555557
0.00277122329484,0.3611111111111111
0.00277122329484,0.36666666666666664
0.00281608174745,0.37222222222222223
0.00281608174745,0.37777777777777777
0.00289853008163,0.38333333333333336
0.00289853008163,0.3888888888888889
0.00290159196833,0.39444444444444443
0.00290159196833,0.4
0.00301685153454,0.40555555555555556
0.00301685153454,0.4111111111111111
0.00301980596229,0.4166666666666667
0.00301980596229,0.4222222222222222
0.00302553185861,0.42777777777777776
0.00302553185861,0.43333333333333335
0.00303790947977,0.4388888888888889
0.00303790947977,0.4444444444444444
0.0834786153433,0.45
0.0834786153433,0.45555555555555555
0.0877460905836,0.46111111111111114
0.0877460905836,0.4666666666666667
0.127106434578,0.4722222222222222
0.127106434578,0.4777777777777778
0.13745268604,0.48333333333333334
0.13745268604,0.4888888888888889
0.191272343914,0.49444444444444446
0.191272343914,0.5
0.1929023843,0.5055555555555555
0.1929023843,0.5111111111111111
0.197778650336,0.5166666666666667
0.197778650336,0.5222222222222223
0.201322794383,0.5277777777777778
0.201322794383,0.5333333333333333
0.246565626327,0.5388888888888889
0.246565626327,0.5444444444444444
0.256705335417,0.55
0.256705335417,0.5555555555555556
0.258285529682,0.5611111111111111
0.258285529682,0.5666666666666667
0.296138070316,0.5722222222222222
0.296138070316,0.5777777777777777
0.299694957104,0.5833333333333334
0.299694957104,0.5888888888888889
0.302804910121,0.5944444444444444
0.302804910121,0.6
0.316197127605,0.6055555555555555
0.316197127605,0.6111111111111112
0.322470928168,0.6166666666666667
0.322470928168,0.6222222222222222
0.336048948108,0.6277777777777778
0.336048948108,0.6333333333333333
0.348755871214,0.6388888888888888
0.348755871214,0.6444444444444445
0.356575873481,0.65
0.356575873481,0.6555555555555556
0.356804623616,0.6611111111111111
0.356804623616,0.6666666666666666
0.367863313093,0.6722222222222223
0.367863313093,0.6777777777777778
0.381712916865,0.6833333333333333
0.381712916865,0.6888888888888889
0.382445057058,0.6944444444444444
0.382445057058,0.7
0.403248568423,0.7055555555555556
0.403248568423,0.7111111111111111
0.406116231563,0.7166666666666667
0.406116231563,0.7222222222222222
0.430041879939,0.7277777777777777
0.430041879939,0.7333333333333333
0.452579663065,0.7388888888888889
0.452579663065,0.7444444444444445
0.505493112196,0.75
0.505493112196,0.7555555555555555
0.540684239687,0.7611111111111111
0.540684239687,0.7666666666666667
0.563253957261,0.7722222222222223
0.563253957261,0.7777777777777778
0.577392888333,0.7833333333333333
0.577392888333,0.7888888888888889
0.578894705603,0.7944444444444444
0.578894705603,0.8
0.670519929722,0.8055555555555556
0.670519929722,0.8111111111111111
0.699546485119,0.8166666666666667
0.699546485119,0.8222222222222222
0.700351675458,0.8277777777777777
0.700351675458,0.8333333333333334
0.702929147488,0.8388888888888889
0.702929147488,0.8444444444444444
0.73431878118,0.85
0.73431878118,0.8555555555555555
0.738657256033,0.8611111111111112
0.738657256033,0.8666666666666667
0.777243737714,0.8722222222222222
0.777243737714,0.8777777777777778
0.82973078929,0.8833333333333333
0.82973078929,0.8888888888888888
0.842813780068,0.8944444444444445
0.842813780068,0.9
0.898410076404,0.9055555555555556
0.898410076404,0.9111111111111111
0.916015490202,0.9166666666666666
0.916015490202,0.9222222222222223
0.921088590906,0.9277777777777778
0.921088590906,0.9333333333333333
0.94349760801,0.9388888888888889
0.94349760801,0.9444444444444444
0.991479691031,0.95
0.991479691031,0.9555555555555556
1.01475182927,0.9611111111111111
1.01475182927,0.9666666666666667
1.5670990116,0.9722222222222222
1.5670990116,0.9777777777777777
1.71092593711,0.9833333333333333
1.71092593711,0.9888888888888889
1.76490472741,0.9944444444444445
1.76490472741,1.0
