Congestion,CDF
0.00234532387404,0.005555555555555556
0.00234532387404,0.011111111111111112
0.0023559083797,0.016666666666666666
0.0023559083797,0.022222222222222223
0.00236087382226,0.027777777777777776
0.00236087382226,0.03333333333333333
0.00239199783071,0.03888888888888889
0.00239199783071,0.044444444444444446
0.00242319618219,0.05
0.00242319618219,0.05555555555555555
0.00262769270216,0.06111111111111111
0.00262769270216,0.06666666666666667
0.00266641356041,0.07222222222222222
0.00266641356041,0.07777777777777778
0.00280567461846,0.08333333333333333
0.00280567461846,0.08888888888888889
0.00280804879768,0.09444444444444444
0.00280804879768,0.1
0.00302273634606,0.10555555555555556
0.00302273634606,0.1111111111111111
0.00307685261551,0.11666666666666667
0.00307685261551,0.12222222222222222
0.0030769520251,0.12777777777777777
0.0030769520251,0.13333333333333333
0.00309324968758,0.1388888888888889
0.00309324968758,0.14444444444444443
0.00310436794395,0.15
0.00310436794395,0.15555555555555556
0.00310776732088,0.16111111111111112
0.00310776732088,0.16666666666666666
0.00310914521597,0.17222222222222222
0.00310914521597,0.17777777777777778
0.00311016608448,0.18333333333333332
0.00311016608448,0.18888888888888888
0.00325238679163,0.19444444444444445
0.00325238679163,0.2
0.00335541323944,0.20555555555555555
0.00335541323944,0.2111111111111111
0.0033783375296,0.21666666666666667
0.0033783375296,0.2222222222222222
0.00340379862859,0.22777777777777777
0.00340379862859,0.23333333333333334
0.00342414696947,0.2388888888888889
0.00342414696947,0.24444444444444444
0.00343675627329,0.25
0.00343675627329,0.25555555555555554
0.00345290779767,0.2611111111111111
0.00345290779767,0.26666666666666666
0.00354583033646,0.2722222222222222
0.00354583033646,0.2777777777777778
0.00377544132333,0.2833333333333333
0.00377544132333,0.28888888888888886
0.00379547825925,0.29444444444444445
0.00379547825925,0.3
0.00386929412444,0.3055555555555556
0.00386929412444,0.3111111111111111
0.00397887608759,0.31666666666666665
0.00397887608759,0.32222222222222224
0.00401861859408,0.3277777777777778
0.00401861859408,0.3333333333333333
0.00410003178465,0.3388888888888889
0.00410003178465,0.34444444444444444
0.00412258599585,0.35
0.00412258599585,0.35555555555555557
0.0042027345306,0.3611111111111111
0.0042027345306,0.36666666666666664
0.00433377350468,0.37222222222222223
0.00433377350468,0.37777777777777777
0.00458267592018,0.38333333333333336
0.00458267592018,0.3888888888888889
0.00462598678165,0.39444444444444443
0.00462598678165,0.4
0.00497554664813,0.40555555555555556
0.00497554664813,0.4111111111111111
0.00506063269811,0.4166666666666667
0.00506063269811,0.4222222222222222
0.00506164950036,0.42777777777777776
0.00506164950036,0.43333333333333335
0.00509819684288,0.4388888888888889
0.00509819684288,0.4444444444444444
0.0855812748708,0.45
0.0855812748708,0.45555555555555555
0.11504046452,0.46111111111111114
0.11504046452,0.4666666666666667
0.162078505128,0.4722222222222222
0.162078505128,0.4777777777777778
0.172184391044,0.48333333333333334
0.172184391044,0.4888888888888889
0.198844492122,0.49444444444444446
0.198844492122,0.5
0.207482718503,0.5055555555555555
0.207482718503,0.5111111111111111
0.208283911059,0.5166666666666667
0.208283911059,0.5222222222222223
0.259008605208,0.5277777777777778
0.259008605208,0.5333333333333333
0.266242844308,0.5388888888888889
0.266242844308,0.5444444444444444
0.293331381291,0.55
0.293331381291,0.5555555555555556
0.294284069766,0.5611111111111111
0.294284069766,0.5666666666666667
0.311343019983,0.5722222222222222
0.311343019983,0.5777777777777777
0.352919222177,0.5833333333333334
0.352919222177,0.5888888888888889
0.371562629958,0.5944444444444444
0.371562629958,0.6
0.408603509791,0.6055555555555555
0.408603509791,0.6111111111111112
0.414301665771,0.6166666666666667
0.414301665771,0.6222222222222222
0.418523209569,0.6277777777777778
0.418523209569,0.6333333333333333
0.424395338411,0.6388888888888888
0.424395338411,0.6444444444444445
0.457986399189,0.65
0.457986399189,0.6555555555555556
0.463086667516,0.6611111111111111
0.463086667516,0.6666666666666666
0.474524542291,0.6722222222222223
0.474524542291,0.6777777777777778
0.475029803208,0.6833333333333333
0.475029803208,0.6888888888888889
0.485370823964,0.6944444444444444
0.485370823964,0.7
0.580062492625,0.7055555555555556
0.580062492625,0.7111111111111111
0.630622277143,0.7166666666666667
0.630622277143,0.7222222222222222
0.641579880293,0.7277777777777777
0.641579880293,0.7333333333333333
0.671189090877,0.7388888888888889
0.671189090877,0.7444444444444445
0.674399652242,0.75
0.674399652242,0.7555555555555555
0.697389447404,0.7611111111111111
0.697389447404,0.7666666666666667
0.723176310011,0.7722222222222223
0.723176310011,0.7777777777777778
0.783326571681,0.7833333333333333
0.783326571681,0.7888888888888889
0.826504130123,0.7944444444444444
0.826504130123,0.8
0.851569586248,0.8055555555555556
0.851569586248,0.8111111111111111
0.875814316062,0.8166666666666667
0.875814316062,0.8222222222222222
0.876806104079,0.8277777777777777
0.876806104079,0.8333333333333334
0.913976539122,0.8388888888888889
0.913976539122,0.8444444444444444
0.937079961159,0.85
0.937079961159,0.8555555555555555
0.966385538446,0.8611111111111112
0.966385538446,0.8666666666666667
1.06000171791,0.8722222222222222
1.06000171791,0.8777777777777778
1.14075505251,0.8833333333333333
1.14075505251,0.8888888888888888
1.17948325636,0.8944444444444445
1.17948325636,0.9
1.17999638593,0.9055555555555556
1.17999638593,0.9111111111111111
1.1848602236,0.9166666666666666
1.1848602236,0.9222222222222223
1.20043832327,0.9277777777777778
1.20043832327,0.9333333333333333
1.45054223008,0.9388888888888889
1.45054223008,0.9444444444444444
1.65832049309,0.95
1.65832049309,0.9555555555555556
1.77041705255,0.9611111111111111
1.77041705255,0.9666666666666667
2.9369857523,0.9722222222222222
2.9369857523,0.9777777777777777
3.19378569622,0.9833333333333333
3.19378569622,0.9888888888888889
3.19404316686,0.9944444444444445
3.19404316686,1.0
