Congestion,CDF
0.00345005033934,0.005555555555555556
0.00345005033934,0.011111111111111112
0.00369783447511,0.016666666666666666
0.00369783447511,0.022222222222222223
0.00440763567282,0.027777777777777776
0.00440763567282,0.03333333333333333
0.00448131451911,0.03888888888888889
0.00448131451911,0.044444444444444446
0.00461826252889,0.05
0.00461826252889,0.05555555555555555
0.00469326748392,0.06111111111111111
0.00469326748392,0.06666666666666667
0.0047268823542,0.07222222222222222
0.0047268823542,0.07777777777777778
0.00502579265176,0.08333333333333333
0.00502579265176,0.08888888888888889
0.0054586140829,0.09444444444444444
0.0054586140829,0.1
0.00553456544525,0.10555555555555556
0.00553456544525,0.1111111111111111
0.00571888687073,0.11666666666666667
0.00571888687073,0.12222222222222222
0.00594953849013,0.12777777777777777
0.00594953849013,0.13333333333333333
0.00613622965867,0.1388888888888889
0.00613622965867,0.14444444444444443
0.00618431447985,0.15
0.00618431447985,0.15555555555555556
0.00637116513865,0.16111111111111112
0.00637116513865,0.16666666666666666
0.00662728185462,0.17222222222222222
0.00662728185462,0.17777777777777778
0.0068027617935,0.18333333333333332
0.0068027617935,0.18888888888888888
0.00681892140215,0.19444444444444445
0.00681892140215,0.2
0.00688734904097,0.20555555555555555
0.00688734904097,0.2111111111111111
0.0071313603338,0.21666666666666667
0.0071313603338,0.2222222222222222
0.00727077151541,0.22777777777777777
0.00727077151541,0.23333333333333334
0.00742503846389,0.2388888888888889
0.00742503846389,0.24444444444444444
0.00766565756293,0.25
0.00766565756293,0.25555555555555554
0.00785080843714,0.2611111111111111
0.00785080843714,0.26666666666666666
0.00801679463744,0.2722222222222222
0.00801679463744,0.2777777777777778
0.00806213505208,0.2833333333333333
0.00806213505208,0.28888888888888886
0.00870109650126,0.29444444444444445
0.00870109650126,0.3
0.00880094913696,0.3055555555555556
0.00880094913696,0.3111111111111111
0.00897233772906,0.31666666666666665
0.00897233772906,0.32222222222222224
0.00902263103997,0.3277777777777778
0.00902263103997,0.3333333333333333
0.00961214461586,0.3388888888888889
0.00961214461586,0.34444444444444444
0.00976050108596,0.35
0.00976050108596,0.35555555555555557
0.00986728768909,0.3611111111111111
0.00986728768909,0.36666666666666664
0.0101973987071,0.37222222222222223
0.0101973987071,0.37777777777777777
0.0105258984986,0.38333333333333336
0.0105258984986,0.3888888888888889
0.0108802242464,0.39444444444444443
0.0108802242464,0.4
0.012043124955,0.40555555555555556
0.012043124955,0.4111111111111111
0.0122622950695,0.4166666666666667
0.0122622950695,0.4222222222222222
0.0127163651946,0.42777777777777776
0.0127163651946,0.43333333333333335
0.0127357863747,0.4388888888888889
0.0127357863747,0.4444444444444444
0.114950910661,0.45
0.114950910661,0.45555555555555555
0.233353130824,0.46111111111111114
0.233353130824,0.4666666666666667
0.26974766066,0.4722222222222222
0.26974766066,0.4777777777777778
0.278443919957,0.48333333333333334
0.278443919957,0.4888888888888889
0.297428233394,0.49444444444444446
0.297428233394,0.5
0.297975499849,0.5055555555555555
0.297975499849,0.5111111111111111
0.305443959185,0.5166666666666667
0.305443959185,0.5222222222222223
0.330546253263,0.5277777777777778
0.330546253263,0.5333333333333333
0.415947126569,0.5388888888888889
0.415947126569,0.5444444444444444
0.48525185289,0.55
0.48525185289,0.5555555555555556
0.532664211926,0.5611111111111111
0.532664211926,0.5666666666666667
0.607792917621,0.5722222222222222
0.607792917621,0.5777777777777777
0.644426723916,0.5833333333333334
0.644426723916,0.5888888888888889
0.6501787541,0.5944444444444444
0.6501787541,0.6
0.698863376947,0.6055555555555555
0.698863376947,0.6111111111111112
0.83780838628,0.6166666666666667
0.83780838628,0.6222222222222222
0.845961974279,0.6277777777777778
0.845961974279,0.6333333333333333
0.848393566314,0.6388888888888888
0.848393566314,0.6444444444444445
0.853434146644,0.65
0.853434146644,0.6555555555555556
0.869168195952,0.6611111111111111
0.869168195952,0.6666666666666666
1.05179986445,0.6722222222222223
1.05179986445,0.6777777777777778
1.09965496359,0.6833333333333333
1.09965496359,0.6888888888888889
1.20051657634,0.6944444444444444
1.20051657634,0.7
1.34878245219,0.7055555555555556
1.34878245219,0.7111111111111111
1.44694761949,0.7166666666666667
1.44694761949,0.7222222222222222
1.50628470982,0.7277777777777777
1.50628470982,0.7333333333333333
1.51754631958,0.7388888888888889
1.51754631958,0.7444444444444445
1.56822991829,0.75
1.56822991829,0.7555555555555555
1.73410569084,0.7611111111111111
1.73410569084,0.7666666666666667
1.91224838521,0.7722222222222223
1.91224838521,0.7777777777777778
2.01834158133,0.7833333333333333
2.01834158133,0.7888888888888889
2.06064537219,0.7944444444444444
2.06064537219,0.8
2.1639844042,0.8055555555555556
2.1639844042,0.8111111111111111
2.25772617752,0.8166666666666667
2.25772617752,0.8222222222222222
2.36042101803,0.8277777777777777
2.36042101803,0.8333333333333334
2.36868564157,0.8388888888888889
2.36868564157,0.8444444444444444
2.37895472776,0.85
2.37895472776,0.8555555555555555
2.45398623753,0.8611111111111112
2.45398623753,0.8666666666666667
2.7859924076,0.8722222222222222
2.7859924076,0.8777777777777778
2.95249862646,0.8833333333333333
2.95249862646,0.8888888888888888
2.96236433725,0.8944444444444445
2.96236433725,0.9
3.02913385444,0.9055555555555556
3.02913385444,0.9111111111111111
3.05863312165,0.9166666666666666
3.05863312165,0.9222222222222223
3.17788547797,0.9277777777777778
3.17788547797,0.9333333333333333
3.7528251332,0.9388888888888889
3.7528251332,0.9444444444444444
4.25897723645,0.95
4.25897723645,0.9555555555555556
4.53328719938,0.9611111111111111
4.53328719938,0.9666666666666667
7.41784384499,0.9722222222222222
7.41784384499,0.9777777777777777
8.02777721489,0.9833333333333333
8.02777721489,0.9888888888888889
8.13048125707,0.9944444444444445
8.13048125707,1.0
