Congestion,CDF
0.0026613654959,0.009433962264150943
0.0026613654959,0.018867924528301886
0.0026709292125,0.02830188679245283
0.0026709292125,0.03773584905660377
0.00267212166693,0.04716981132075472
0.00267212166693,0.05660377358490566
0.00267348278223,0.0660377358490566
0.00267348278223,0.07547169811320754
0.00267780498615,0.08490566037735849
0.00267780498615,0.09433962264150944
0.00267989823862,0.10377358490566038
0.00267989823862,0.11320754716981132
0.00268586176884,0.12264150943396226
0.00268586176884,0.1320754716981132
0.00269795244792,0.14150943396226415
0.00269795244792,0.1509433962264151
0.00270727846079,0.16037735849056603
0.00270727846079,0.16981132075471697
0.00270968687885,0.1792452830188679
0.00270968687885,0.18867924528301888
0.00271676049311,0.19811320754716982
0.00271676049311,0.20754716981132076
0.00272760258814,0.2169811320754717
0.00272760258814,0.22641509433962265
0.00272887098473,0.2358490566037736
0.00272887098473,0.24528301886792453
0.00273194458425,0.25471698113207547
0.00273194458425,0.2641509433962264
0.020713184105,0.27358490566037735
0.020713184105,0.2830188679245283
0.0273448769733,0.29245283018867924
0.0273448769733,0.3018867924528302
0.0378687404203,0.3113207547169811
0.0378687404203,0.32075471698113206
0.0397421701137,0.330188679245283
0.0397421701137,0.33962264150943394
0.0398792970619,0.3490566037735849
0.0398792970619,0.3584905660377358
0.0411429278808,0.36792452830188677
0.0411429278808,0.37735849056603776
0.0457173624216,0.3867924528301887
0.0457173624216,0.39622641509433965
0.0459749690415,0.4056603773584906
0.0459749690415,0.41509433962264153
0.0461030605982,0.42452830188679247
0.0461030605982,0.4339622641509434
0.0488447627939,0.44339622641509435
0.0488447627939,0.4528301886792453
0.0517145975922,0.46226415094339623
0.0517145975922,0.4716981132075472
0.0522116780985,0.4811320754716981
0.0522116780985,0.49056603773584906
0.0603126774197,0.5
0.0603126774197,0.5094339622641509
0.0607579528383,0.5188679245283019
0.0607579528383,0.5283018867924528
0.0609948293534,0.5377358490566038
0.0609948293534,0.5471698113207547
0.0640340810719,0.5566037735849056
0.0640340810719,0.5660377358490566
0.0648515812721,0.5754716981132075
0.0648515812721,0.5849056603773585
0.0668568094944,0.5943396226415094
0.0668568094944,0.6037735849056604
0.0699233662305,0.6132075471698113
0.0699233662305,0.6226415094339622
0.072352475973,0.6320754716981132
0.072352475973,0.6415094339622641
0.0735600099596,0.6509433962264151
0.0735600099596,0.660377358490566
0.0759896828931,0.6698113207547169
0.0759896828931,0.6792452830188679
0.0785976556505,0.6886792452830188
0.0785976556505,0.6981132075471698
0.0852913976509,0.7075471698113207
0.0852913976509,0.7169811320754716
0.0868029944007,0.7264150943396226
0.0868029944007,0.7358490566037735
0.0873326455583,0.7452830188679245
0.0873326455583,0.7547169811320755
0.0939115010067,0.7641509433962265
0.0939115010067,0.7735849056603774
0.0946524350745,0.7830188679245284
0.0946524350745,0.7924528301886793
0.106620035341,0.8018867924528302
0.106620035341,0.8113207547169812
0.107428223251,0.8207547169811321
0.107428223251,0.8301886792452831
0.109458189462,0.839622641509434
0.109458189462,0.8490566037735849
0.117536424649,0.8584905660377359
0.117536424649,0.8679245283018868
0.117991515769,0.8773584905660378
0.117991515769,0.8867924528301887
0.118579242461,0.8962264150943396
0.118579242461,0.9056603773584906
0.127388824037,0.9150943396226415
0.127388824037,0.9245283018867925
0.129389194031,0.9339622641509434
0.129389194031,0.9433962264150944
0.139206559462,0.9528301886792453
0.139206559462,0.9622641509433962
0.158027679586,0.9716981132075472
0.158027679586,0.9811320754716981
0.165140377228,0.9905660377358491
0.165140377228,1.0
