Congestion,CDF
0.0129724376509,0.009433962264150943
0.0129724376509,0.018867924528301886
0.0129820005743,0.02830188679245283
0.0129820005743,0.03773584905660377
0.0129831938219,0.04716981132075472
0.0129831938219,0.05660377358490566
0.0129845549372,0.0660377358490566
0.0129845549372,0.07547169811320754
0.0129888787274,0.08490566037735849
0.0129888787274,0.09433962264150944
0.0129909688073,0.10377358490566038
0.0129909688073,0.11320754716981132
0.012996934717,0.12264150943396226
0.012996934717,0.1320754716981132
0.0130090253961,0.14150943396226415
0.0130090253961,0.1509433962264151
0.0130183514089,0.16037735849056603
0.0130183514089,0.16981132075471697
0.0130207590338,0.1792452830188679
0.0130207590338,0.18867924528301888
0.0130278318549,0.19811320754716982
0.0130278318549,0.20754716981132076
0.0130386771226,0.2169811320754717
0.0130386771226,0.22641509433962265
0.0130399415534,0.2358490566037736
0.0130399415534,0.24528301886792453
0.0130430167392,0.25471698113207547
0.0130430167392,0.2641509433962264
0.100029117657,0.27358490566037735
0.100029117657,0.2830188679245283
0.133099481482,0.29245283018867924
0.133099481482,0.3018867924528302
0.183281311705,0.3113207547169811
0.183281311705,0.32075471698113206
0.193180796254,0.330188679245283
0.193180796254,0.33962264150943394
0.193317923202,0.3490566037735849
0.193317923202,0.3584905660377358
0.199774794986,0.36792452830188677
0.199774794986,0.37735849056603776
0.220873408789,0.3867924528301887
0.220873408789,0.39622641509433965
0.221131015408,0.4056603773584906
0.221131015408,0.41509433962264153
0.224563911091,0.42452830188679247
0.224563911091,0.4339622641509434
0.236748035429,0.44339622641509435
0.236748035429,0.4528301886792453
0.248115994635,0.46226415094339623
0.248115994635,0.4716981132075472
0.248613075141,0.4811320754716981
0.248613075141,0.49056603773584906
0.285041182257,0.5
0.285041182257,0.5094339622641509
0.294928879818,0.5188679245283019
0.294928879818,0.5283018867924528
0.295165756333,0.5377358490566038
0.295165756333,0.5471698113207547
0.308119499745,0.5566037735849056
0.308119499745,0.5660377358490566
0.315074538646,0.5754716981132075
0.315074538646,0.5849056603773585
0.32463359354,0.5943396226415094
0.32463359354,0.6037735849056604
0.33761464197,0.6132075471698113
0.33761464197,0.6226415094339622
0.349958243406,0.6320754716981132
0.349958243406,0.6415094339622641
0.357775464961,0.6509433962264151
0.357775464961,0.660377358490566
0.366814746147,0.6698113207547169
0.366814746147,0.6792452830188679
0.376032406472,0.6886792452830188
0.376032406472,0.6981132075471698
0.412469623555,0.7075471698113207
0.412469623555,0.7169811320754716
0.420118838321,0.7264150943396226
0.420118838321,0.7358490566037735
0.420648489478,0.7452830188679245
0.420648489478,0.7547169811320755
0.45224956928,0.7641509433962265
0.45224956928,0.7735849056603774
0.452990503348,0.7830188679245284
0.452990503348,0.7924528301886793
0.513922382707,0.8018867924528302
0.513922382707,0.8113207547169812
0.515002790268,0.8207547169811321
0.515002790268,0.8301886792452831
0.528699654503,0.839622641509434
0.528699654503,0.8490566037735849
0.569826168898,0.8584905660377359
0.569826168898,0.8679245283018868
0.570753329569,0.8773584905660378
0.570753329569,0.8867924528301887
0.574173790836,0.8962264150943396
0.574173790836,0.9056603773584906
0.618032021614,0.9150943396226415
0.618032021614,0.9245283018867925
0.619336535062,0.9339622641509434
0.619336535062,0.9433962264150944
0.674589031625,0.9528301886792453
0.674589031625,0.9622641509433962
0.75903471993,0.9716981132075472
0.75903471993,0.9811320754716981
0.792586088527,0.9905660377358491
0.792586088527,1.0
