Congestion,CDF
0.00360124381958,0.007352941176470588
0.00360124381958,0.014705882352941176
0.00360124381958,0.022058823529411766
0.00360124381958,0.029411764705882353
0.00361861969969,0.03676470588235294
0.00361861969969,0.04411764705882353
0.00363251902953,0.051470588235294115
0.00363251902953,0.058823529411764705
0.00363251948207,0.0661764705882353
0.00363251948207,0.07352941176470588
0.00363251948207,0.08088235294117647
0.00363251948207,0.08823529411764706
0.00368071606462,0.09558823529411764
0.00368071606462,0.10294117647058823
0.00368985738866,0.11029411764705882
0.00368985738866,0.11764705882352941
0.00369159475611,0.125
0.00369159475611,0.1323529411764706
0.00371688776419,0.13970588235294118
0.00371688776419,0.14705882352941177
0.00385420454234,0.15441176470588236
0.00385420454234,0.16176470588235295
0.00385500599927,0.16911764705882354
0.00385500599927,0.17647058823529413
0.00386241157665,0.18382352941176472
0.00386241157665,0.19117647058823528
0.00386241157665,0.19852941176470587
0.00386241157665,0.20588235294117646
0.0038972280708,0.21323529411764705
0.0038972280708,0.22058823529411764
0.0039167154903,0.22794117647058823
0.0039167154903,0.23529411764705882
0.00393124370899,0.2426470588235294
0.00393124370899,0.25
0.00393207215299,0.25735294117647056
0.00393207215299,0.2647058823529412
0.00395230612479,0.27205882352941174
0.00395230612479,0.27941176470588236
0.0039637750814,0.2867647058823529
0.0039637750814,0.29411764705882354
0.0039637750814,0.3014705882352941
0.0039637750814,0.3088235294117647
0.00403675026786,0.3161764705882353
0.00403675026786,0.3235294117647059
0.00412505643249,0.33088235294117646
0.00412505643249,0.3382352941176471
0.00412505643249,0.34558823529411764
0.00412505643249,0.35294117647058826
0.00417705633057,0.3602941176470588
0.00417705633057,0.36764705882352944
0.00417705633057,0.375
0.00417705633057,0.38235294117647056
0.00417705633057,0.3897058823529412
0.00417705633057,0.39705882352941174
0.00417705633057,0.40441176470588236
0.00417705633057,0.4117647058823529
0.0260080452319,0.41911764705882354
0.0260080452319,0.4264705882352941
0.0585181017717,0.4338235294117647
0.0585181017717,0.4411764705882353
0.121917951632,0.4485294117647059
0.121917951632,0.45588235294117646
0.12841950422,0.4632352941176471
0.12841950422,0.47058823529411764
0.156831891964,0.47794117647058826
0.156831891964,0.4852941176470588
0.18270303623,0.49264705882352944
0.18270303623,0.5
0.188310564363,0.5073529411764706
0.188310564363,0.5147058823529411
0.205427462719,0.5220588235294118
0.205427462719,0.5294117647058824
0.205515584001,0.5367647058823529
0.205515584001,0.5441176470588235
0.234976558032,0.5514705882352942
0.234976558032,0.5588235294117647
0.25006321363,0.5661764705882353
0.25006321363,0.5735294117647058
0.25117914372,0.5808823529411765
0.25117914372,0.5882352941176471
0.269533429971,0.5955882352941176
0.269533429971,0.6029411764705882
0.322917136089,0.6102941176470589
0.322917136089,0.6176470588235294
0.337243902975,0.625
0.337243902975,0.6323529411764706
0.35200210743,0.6397058823529411
0.35200210743,0.6470588235294118
0.36753468353,0.6544117647058824
0.36753468353,0.6617647058823529
0.392999609325,0.6691176470588235
0.392999609325,0.6764705882352942
0.40171454123,0.6838235294117647
0.40171454123,0.6911764705882353
0.410688121384,0.6985294117647058
0.410688121384,0.7058823529411765
0.411203621749,0.7132352941176471
0.411203621749,0.7205882352941176
0.417705633057,0.7279411764705882
0.417705633057,0.7352941176470589
0.426298225686,0.7426470588235294
0.426298225686,0.75
0.460127434613,0.7573529411764706
0.460127434613,0.7647058823529411
0.475308491531,0.7720588235294118
0.475308491531,0.7794117647058824
0.516928103431,0.7867647058823529
0.516928103431,0.7941176470588235
0.527324581994,0.8014705882352942
0.527324581994,0.8088235294117647
0.579337975708,0.8161764705882353
0.579337975708,0.8235294117647058
0.593491747966,0.8308823529411765
0.593491747966,0.8382352941176471
0.609009161009,0.8455882352941176
0.609009161009,0.8529411764705882
0.62506965789,0.8602941176470589
0.62506965789,0.8676470588235294
0.632183504348,0.875
0.632183504348,0.8823529411764706
0.647837623883,0.8897058823529411
0.647837623883,0.8970588235294118
0.731165369708,0.9044117647058824
0.731165369708,0.9117647058823529
0.858945312591,0.9191176470588235
0.858945312591,0.9264705882352942
0.956871115974,0.9338235294117647
0.956871115974,0.9411764705882353
1.05175766552,0.9485294117647058
1.05175766552,0.9558823529411765
1.1165746617,0.9632352941176471
1.1165746617,0.9705882352941176
1.5340858767,0.9779411764705882
1.5340858767,0.9852941176470589
1.74368629481,0.9926470588235294
1.74368629481,1.0
