Congestion,CDF
0.0,0.007352941176470588
0.0,0.014705882352941176
0.00894389710598,0.022058823529411766
0.00894389710598,0.029411764705882353
0.00898132864616,0.03676470588235294
0.00898132864616,0.04411764705882353
0.00905194621383,0.051470588235294115
0.00905194621383,0.058823529411764705
0.00947005106488,0.0661764705882353
0.00947005106488,0.07352941176470588
0.00971357412835,0.08088235294117647
0.00971357412835,0.08823529411764706
0.0104433298628,0.09558823529411764
0.0104433298628,0.10294117647058823
0.0105863591335,0.11029411764705882
0.0105863591335,0.11764705882352941
0.0114480443143,0.125
0.0114480443143,0.1323529411764706
0.011471562001,0.13970588235294118
0.011471562001,0.14705882352941177
0.0116761034988,0.15441176470588236
0.0116761034988,0.16176470588235295
0.011842899933,0.16911764705882354
0.011842899933,0.17647058823529413
0.0122998730619,0.18382352941176472
0.0122998730619,0.19117647058823528
0.0127498568277,0.19852941176470587
0.0127498568277,0.20588235294117646
0.0138171634989,0.21323529411764705
0.0138171634989,0.22058823529411764
0.0146698054976,0.22794117647058823
0.0146698054976,0.23529411764705882
0.0148676375902,0.2426470588235294
0.0148676375902,0.25
0.0148740890187,0.25735294117647056
0.0148740890187,0.2647058823529412
0.014964416448,0.27205882352941174
0.014964416448,0.27941176470588236
0.0157613100455,0.2867647058823529
0.0157613100455,0.29411764705882354
0.0167450816793,0.3014705882352941
0.0167450816793,0.3088235294117647
0.0175480905422,0.3161764705882353
0.0175480905422,0.3235294117647059
0.0180624598112,0.33088235294117646
0.0180624598112,0.3382352941176471
0.0188557759156,0.34558823529411764
0.0188557759156,0.35294117647058826
0.0191684588198,0.3602941176470588
0.0191684588198,0.36764705882352944
0.0191811351434,0.375
0.0191811351434,0.38235294117647056
0.0229475564015,0.3897058823529412
0.0229475564015,0.39705882352941174
0.0232053262561,0.40441176470588236
0.0232053262561,0.4117647058823529
0.0243047772353,0.41911764705882354
0.0243047772353,0.4264705882352941
0.0570617696745,0.4338235294117647
0.0570617696745,0.4411764705882353
0.163394954323,0.4485294117647059
0.163394954323,0.45588235294117646
0.201928592769,0.4632352941176471
0.201928592769,0.47058823529411764
0.417094583592,0.47794117647058826
0.417094583592,0.4852941176470588
0.453608090041,0.49264705882352944
0.453608090041,0.5
0.46240701405,0.5073529411764706
0.46240701405,0.5147058823529411
0.603614808019,0.5220588235294118
0.603614808019,0.5294117647058824
0.657614580937,0.5367647058823529
0.657614580937,0.5441176470588235
0.759586420654,0.5514705882352942
0.759586420654,0.5588235294117647
0.912815037476,0.5661764705882353
0.912815037476,0.5735294117647058
0.921913173746,0.5808823529411765
0.921913173746,0.5882352941176471
0.957082247367,0.5955882352941176
0.957082247367,0.6029411764705882
1.05863591335,0.6102941176470589
1.05863591335,0.6176470588235294
1.08171729244,0.625
1.08171729244,0.6323529411764706
1.11194704062,0.6397058823529411
1.11194704062,0.6470588235294118
1.16309978332,0.6544117647058824
1.16309978332,0.6617647058823529
1.17666957721,0.6691176470588235
1.17666957721,0.6764705882352942
1.17978775713,0.6838235294117647
1.17978775713,0.6911764705882353
1.43191589896,0.6985294117647058
1.43191589896,0.7058823529411765
1.46364072633,0.7132352941176471
1.46364072633,0.7205882352941176
1.51254703625,0.7279411764705882
1.51254703625,0.7352941176470589
1.73854569551,0.7426470588235294
1.73854569551,0.75
1.81107287757,0.7573529411764706
1.81107287757,0.7647058823529411
1.86305662917,0.7720588235294118
1.86305662917,0.7794117647058824
1.9890202831,0.7867647058823529
1.9890202831,0.7941176470588235
2.31080975167,0.8014705882352942
2.31080975167,0.8088235294117647
2.31727660254,0.8161764705882353
2.31727660254,0.8235294117647058
2.41825605909,0.8308823529411765
2.41825605909,0.8382352941176471
2.43047772353,0.8455882352941176
2.43047772353,0.8529411764705882
2.85777645013,0.8602941176470589
2.85777645013,0.8676470588235294
2.98603373825,0.875
2.98603373825,0.8823529411764706
3.13917530739,0.8897058823529411
3.13917530739,0.8970588235294118
3.33353113081,0.9044117647058824
3.33353113081,0.9117647058823529
4.13198547817,0.9191176470588235
4.13198547817,0.9264705882352942
4.98986135702,0.9338235294117647
4.98986135702,0.9411764705882353
5.46937722145,0.9485294117647058
5.46937722145,0.9558823529411765
6.88440841286,0.9632352941176471
6.88440841286,0.9705882352941176
9.06437893125,0.9779411764705882
9.06437893125,0.9852941176470589
10.3851860098,0.9926470588235294
10.3851860098,1.0
