Congestion,CDF
0.0,0.007352941176470588
0.0,0.014705882352941176
0.0,0.022058823529411766
0.0,0.029411764705882353
0.0,0.03676470588235294
0.0,0.04411764705882353
0.0,0.051470588235294115
0.0,0.058823529411764705
0.0,0.0661764705882353
0.0,0.07352941176470588
0.0,0.08088235294117647
0.0,0.08823529411764706
0.0,0.09558823529411764
0.0,0.10294117647058823
0.00053509741703,0.11029411764705882
0.00053509741703,0.11764705882352941
0.000563337077478,0.125
0.000563337077478,0.1323529411764706
0.00056345711163,0.13970588235294118
0.00056345711163,0.14705882352941177
0.000577863589925,0.15441176470588236
0.000577863589925,0.16176470588235295
0.000644388047762,0.16911764705882354
0.000644388047762,0.17647058823529413
0.000645309177193,0.18382352941176472
0.000645309177193,0.19117647058823528
0.000878720322009,0.19852941176470587
0.000878720322009,0.20588235294117646
0.00122436005026,0.21323529411764705
0.00122436005026,0.22058823529411764
0.00125179389224,0.22794117647058823
0.00125179389224,0.23529411764705882
0.00127232722158,0.2426470588235294
0.00127232722158,0.25
0.00134562091405,0.25735294117647056
0.00134562091405,0.2647058823529412
0.00206487354296,0.27205882352941174
0.00206487354296,0.27941176470588236
0.00220173511978,0.2867647058823529
0.00220173511978,0.29411764705882354
0.00292960489687,0.3014705882352941
0.00292960489687,0.3088235294117647
0.00415176480057,0.3161764705882353
0.00415176480057,0.3235294117647059
0.00415654314464,0.33088235294117646
0.00415654314464,0.3382352941176471
0.00416461569542,0.34558823529411764
0.00416461569542,0.35294117647058826
0.00433843970129,0.3602941176470588
0.00433843970129,0.36764705882352944
0.00434340398149,0.375
0.00434340398149,0.38235294117647056
0.00466867825488,0.3897058823529412
0.00466867825488,0.39705882352941174
0.00539725493549,0.40441176470588236
0.00539725493549,0.4117647058823529
0.00547389838059,0.41911764705882354
0.00547389838059,0.4264705882352941
0.00559797136211,0.4338235294117647
0.00559797136211,0.4411764705882353
0.00624331726099,0.4485294117647059
0.00624331726099,0.45588235294117646
0.00679809273555,0.4632352941176471
0.00679809273555,0.47058823529411764
0.00826675431328,0.47794117647058826
0.00826675431328,0.4852941176470588
0.00918839617531,0.49264705882352944
0.00918839617531,0.5
0.00929023740343,0.5073529411764706
0.00929023740343,0.5147058823529411
0.0288931794962,0.5220588235294118
0.0288931794962,0.5294117647058824
0.0288931794962,0.5367647058823529
0.0288931794962,0.5441176470588235
0.0292906774003,0.5514705882352942
0.0292906774003,0.5588235294117647
0.0563397094554,0.5661764705882353
0.0563397094554,0.5735294117647058
0.0563397094554,0.5808823529411765
0.0563397094554,0.5882352941176471
0.056345711163,0.5955882352941176
0.056345711163,0.6029411764705882
0.0585813548006,0.6102941176470589
0.0585813548006,0.6176470588235294
0.0645309177193,0.625
0.0645309177193,0.6323529411764706
0.103243677148,0.6397058823529411
0.103243677148,0.6470588235294118
0.103243677148,0.6544117647058824
0.103243677148,0.6617647058823529
0.15407256872,0.6691176470588235
0.15407256872,0.6764705882352942
0.168430805959,0.6838235294117647
0.168430805959,0.6911764705882353
0.214202611447,0.6985294117647058
0.214202611447,0.7058823529411765
0.230476399306,0.7132352941176471
0.230476399306,0.7205882352941176
0.292960489687,0.7279411764705882
0.292960489687,0.7352941176470589
0.315776117912,0.7426470588235294
0.315776117912,0.75
0.415654314464,0.7573529411764706
0.415654314464,0.7647058823529411
0.416461569542,0.7720588235294118
0.416461569542,0.7794117647058824
0.421034823883,0.7867647058823529
0.421034823883,0.7941176470588235
0.477927964646,0.8014705882352942
0.477927964646,0.8088235294117647
0.539725493549,0.8161764705882353
0.539725493549,0.8235294117647058
0.559797136211,0.8308823529411765
0.559797136211,0.8382352941176471
0.623646182031,0.8455882352941176
0.623646182031,0.8529411764705882
0.623646182031,0.8602941176470589
0.623646182031,0.8676470588235294
0.918839617531,0.875
0.918839617531,0.8823529411764706
0.929023740343,0.8897058823529411
0.929023740343,0.8970588235294118
1.08727725758,0.9044117647058824
1.08727725758,0.9117647058823529
1.10718697427,0.9191176470588235
1.10718697427,0.9264705882352942
1.2195347671,0.9338235294117647
1.2195347671,0.9411764705882353
2.46751267523,0.9485294117647058
2.46751267523,0.9558823529411765
2.6745387892,0.9632352941176471
2.6745387892,0.9705882352941176
4.09187758009,0.9779411764705882
4.09187758009,0.9852941176470589
4.35499859946,0.9926470588235294
4.35499859946,1.0
