Congestion,CDF
0.0,0.007352941176470588
0.0,0.014705882352941176
0.0,0.022058823529411766
0.0,0.029411764705882353
0.0,0.03676470588235294
0.0,0.04411764705882353
0.0,0.051470588235294115
0.0,0.058823529411764705
0.0,0.0661764705882353
0.0,0.07352941176470588
0.0,0.08088235294117647
0.0,0.08823529411764706
0.0,0.09558823529411764
0.0,0.10294117647058823
0.00102416201811,0.11029411764705882
0.00102416201811,0.11764705882352941
0.00106579742384,0.125
0.00106579742384,0.1323529411764706
0.00106597522414,0.13970588235294118
0.00106597522414,0.14705882352941177
0.00117941061328,0.15441176470588236
0.00117941061328,0.16176470588235295
0.00128133844643,0.16911764705882354
0.00128133844643,0.17647058823529413
0.00128277643295,0.18382352941176472
0.00128277643295,0.19117647058823528
0.00135217666255,0.19852941176470587
0.00135217666255,0.20588235294117646
0.0018472292266,0.21323529411764705
0.0018472292266,0.22058823529411764
0.00196759491455,0.22794117647058823
0.00196759491455,0.23529411764705882
0.00202685399438,0.2426470588235294
0.00202685399438,0.25
0.00206615324243,0.25735294117647056
0.00206615324243,0.2647058823529412
0.00283253527353,0.27205882352941174
0.00283253527353,0.27941176470588236
0.0033908270581,0.2867647058823529
0.0033908270581,0.29411764705882354
0.00345381446332,0.3014705882352941
0.00345381446332,0.3088235294117647
0.00473876875368,0.3161764705882353
0.00473876875368,0.3235294117647059
0.00474460384361,0.33088235294117646
0.00474460384361,0.3382352941176471
0.00475434589397,0.34558823529411764
0.00475434589397,0.35294117647058826
0.00501990206873,0.3602941176470588
0.00501990206873,0.36764705882352944
0.00547442450816,0.375
0.00547442450816,0.38235294117647056
0.00567268211621,0.3897058823529412
0.00567268211621,0.39705882352941174
0.00607745894199,0.40441176470588236
0.00607745894199,0.4117647058823529
0.00659979990817,0.41911764705882354
0.00659979990817,0.4264705882352941
0.00664696218264,0.4338235294117647
0.00664696218264,0.4411764705882353
0.00723650247165,0.4485294117647059
0.00723650247165,0.45588235294117646
0.00781832832893,0.4632352941176471
0.00781832832893,0.47058823529411764
0.0105392200414,0.47794117647058826
0.0105392200414,0.4852941176470588
0.0116553632721,0.49264705882352944
0.0116553632721,0.5
0.0118680692057,0.5073529411764706
0.0118680692057,0.5147058823529411
0.0450725554183,0.5220588235294118
0.0450725554183,0.5294117647058824
0.058970530664,0.5367647058823529
0.058970530664,0.5441176470588235
0.058970530664,0.5514705882352942
0.058970530664,0.5588235294117647
0.0901451108365,0.5661764705882353
0.0901451108365,0.5735294117647058
0.106588632399,0.5808823529411765
0.106588632399,0.5882352941176471
0.106588632399,0.5955882352941176
0.106588632399,0.6029411764705882
0.106597522414,0.6102941176470589
0.106597522414,0.6176470588235294
0.128277643295,0.625
0.128277643295,0.6323529411764706
0.148419801082,0.6397058823529411
0.148419801082,0.6470588235294118
0.148419801082,0.6544117647058824
0.148419801082,0.6617647058823529
0.265585854907,0.6691176470588235
0.265585854907,0.6764705882352942
0.299149945047,0.6838235294117647
0.299149945047,0.6911764705882353
0.331593217727,0.6985294117647058
0.331593217727,0.7058823529411765
0.345381446332,0.7132352941176471
0.345381446332,0.7205882352941176
0.421970651001,0.7279411764705882
0.421970651001,0.7352941176470589
0.474460384361,0.7426470588235294
0.474460384361,0.75
0.475434589397,0.7573529411764706
0.475434589397,0.7647058823529411
0.558314053873,0.7720588235294118
0.558314053873,0.7794117647058824
0.607745894199,0.7867647058823529
0.607745894199,0.7941176470588235
0.664696218264,0.8014705882352942
0.664696218264,0.8088235294117647
0.711885924563,0.8161764705882353
0.711885924563,0.8235294117647058
0.711885924563,0.8308823529411765
0.711885924563,0.8382352941176471
0.734791610051,0.8455882352941176
0.734791610051,0.8529411764705882
0.815800719179,0.8602941176470589
0.815800719179,0.8676470588235294
1.16553632721,0.875
1.16553632721,0.8823529411764706
1.18680692057,0.8897058823529411
1.18680692057,0.8970588235294118
1.25894868685,0.9044117647058824
1.25894868685,0.9117647058823529
1.32467620908,0.9191176470588235
1.32467620908,0.9264705882352942
1.38957872709,0.9338235294117647
1.38957872709,0.9411764705882353
2.82511489882,0.9485294117647058
2.82511489882,0.9558823529411765
3.40626525192,0.9632352941176471
3.40626525192,0.9705882352941176
4.78616552357,0.9779411764705882
4.78616552357,0.9852941176470589
5.2144630632,0.9926470588235294
5.2144630632,1.0
