Congestion,CDF
0.00498007941867,0.007352941176470588
0.00498007941867,0.014705882352941176
0.00498007941867,0.022058823529411766
0.00498007941867,0.029411764705882353
0.00501380846447,0.03676470588235294
0.00501380846447,0.04411764705882353
0.0052120312354,0.051470588235294115
0.0052120312354,0.058823529411764705
0.00524571745984,0.0661764705882353
0.00524571745984,0.07352941176470588
0.00524941650495,0.08088235294117647
0.00524941650495,0.08823529411764706
0.00534260495709,0.09558823529411764
0.00534260495709,0.10294117647058823
0.00586134630004,0.11029411764705882
0.00586134630004,0.11764705882352941
0.00589886116673,0.125
0.00589886116673,0.1323529411764706
0.00670205270906,0.13970588235294118
0.00670205270906,0.14705882352941177
0.00670316093618,0.15441176470588236
0.00670316093618,0.16176470588235295
0.00673565642188,0.16911764705882354
0.00673565642188,0.17647058823529413
0.00674637615641,0.18382352941176472
0.00674637615641,0.19117647058823528
0.00686617953417,0.19852941176470587
0.00686617953417,0.20588235294117646
0.0070897789694,0.21323529411764705
0.0070897789694,0.22058823529411764
0.00721618712492,0.22794117647058823
0.00721618712492,0.23529411764705882
0.00745868169816,0.2426470588235294
0.00745868169816,0.25
0.00765837451483,0.25735294117647056
0.00765837451483,0.2647058823529412
0.00785903191999,0.27205882352941174
0.00785903191999,0.27941176470588236
0.00818669706638,0.2867647058823529
0.00818669706638,0.29411764705882354
0.00831913026656,0.3014705882352941
0.00831913026656,0.3088235294117647
0.00863231276752,0.3161764705882353
0.00863231276752,0.3235294117647059
0.00863337637993,0.33088235294117646
0.00863337637993,0.3382352941176471
0.00891168900905,0.34558823529411764
0.00891168900905,0.35294117647058826
0.00912454081476,0.3602941176470588
0.00912454081476,0.36764705882352944
0.0106796641828,0.375
0.0106796641828,0.38235294117647056
0.0108950855902,0.3897058823529412
0.0108950855902,0.39705882352941174
0.0108950855902,0.40441176470588236
0.0108950855902,0.4117647058823529
0.0260080452319,0.41911764705882354
0.0260080452319,0.4264705882352941
0.0609699132776,0.4338235294117647
0.0609699132776,0.4411764705882353
0.135005243404,0.4485294117647059
0.135005243404,0.45588235294117646
0.196070146855,0.4632352941176471
0.196070146855,0.47058823529411764
0.197044302816,0.47794117647058826
0.197044302816,0.4852941176470588
0.236611902382,0.49264705882352944
0.236611902382,0.5
0.283000317194,0.5073529411764706
0.283000317194,0.5147058823529411
0.350549815847,0.5220588235294118
0.350549815847,0.5294117647058824
0.371724082391,0.5367647058823529
0.371724082391,0.5441176470588235
0.374621756179,0.5514705882352942
0.374621756179,0.5588235294117647
0.404949251041,0.5661764705882353
0.404949251041,0.5735294117647058
0.488008767166,0.5808823529411765
0.488008767166,0.5882352941176471
0.492423154777,0.5955882352941176
0.492423154777,0.6029411764705882
0.498563700752,0.6102941176470589
0.498563700752,0.6176470588235294
0.560338559112,0.625
0.560338559112,0.6323529411764706
0.564283194034,0.6397058823529411
0.564283194034,0.6470588235294118
0.575806068193,0.6544117647058824
0.575806068193,0.6617647058823529
0.649892835477,0.6691176470588235
0.649892835477,0.6764705882352942
0.704349506316,0.6838235294117647
0.704349506316,0.6911764705882353
0.704771847233,0.6985294117647058
0.704771847233,0.7058823529411765
0.809843224271,0.7132352941176471
0.809843224271,0.7205882352941176
0.817619698579,0.7279411764705882
0.817619698579,0.7352941176470589
0.817945426643,0.7426470588235294
0.817945426643,0.75
0.846283415575,0.7573529411764706
0.846283415575,0.7647058823529411
0.900367546408,0.7720588235294118
0.900367546408,0.7794117647058824
0.960959424498,0.7867647058823529
0.960959424498,0.7941176470588235
1.00288113501,0.8014705882352942
1.00288113501,0.8088235294117647
1.01664844076,0.8161764705882353
1.01664844076,0.8235294117647058
1.05901259547,0.8308823529411765
1.05901259547,0.8382352941176471
1.08950855902,0.8455882352941176
1.08950855902,0.8529411764705882
1.28611141756,0.8602941176470589
1.28611141756,0.8676470588235294
1.35570300439,0.875
1.35570300439,0.8823529411764706
1.36795597013,0.8897058823529411
1.36795597013,0.8970588235294118
1.4883919232,0.9044117647058824
1.4883919232,0.9117647058823529
1.70399912418,0.9191176470588235
1.70399912418,0.9264705882352942
2.06100126448,0.9338235294117647
2.06100126448,0.9411764705882353
2.54853522294,0.9485294117647058
2.54853522294,0.9558823529411765
3.10798948736,0.9632352941176471
3.10798948736,0.9705882352941176
4.25396037015,0.9779411764705882
4.25396037015,0.9852941176470589
4.79749016133,0.9926470588235294
4.79749016133,1.0
