Congestion,CDF
0.0177131051485,0.005555555555555556
0.0177131051485,0.011111111111111112
0.0177246084208,0.016666666666666666
0.0177246084208,0.022222222222222223
0.017841566418,0.027777777777777776
0.017841566418,0.03333333333333333
0.0181391714982,0.03888888888888889
0.0181391714982,0.044444444444444446
0.0182435809687,0.05
0.0182435809687,0.05555555555555555
0.0183009537974,0.06111111111111111
0.0183009537974,0.06666666666666667
0.0184316620835,0.07222222222222222
0.0184316620835,0.07777777777777778
0.0186151423048,0.08333333333333333
0.0186151423048,0.08888888888888889
0.0186448873654,0.09444444444444444
0.0186448873654,0.1
0.0186971712963,0.10555555555555556
0.0186971712963,0.1111111111111111
0.0187702914354,0.11666666666666667
0.0187702914354,0.12222222222222222
0.0188302992235,0.12777777777777777
0.0188302992235,0.13333333333333333
0.0188524861345,0.1388888888888889
0.0188524861345,0.14444444444444443
0.018885902888,0.15
0.018885902888,0.15555555555555556
0.0189190265948,0.16111111111111112
0.0189190265948,0.16666666666666666
0.0189629675865,0.17222222222222222
0.0189629675865,0.17777777777777778
0.0191476391625,0.18333333333333332
0.0191476391625,0.18888888888888888
0.019175216012,0.19444444444444445
0.019175216012,0.2
0.0192887580474,0.20555555555555555
0.0192887580474,0.2111111111111111
0.0193536470763,0.21666666666666667
0.0193536470763,0.2222222222222222
0.0194308225232,0.22777777777777777
0.0194308225232,0.23333333333333334
0.0195197876351,0.2388888888888889
0.0195197876351,0.24444444444444444
0.0195543028527,0.25
0.0195543028527,0.25555555555555554
0.0196702371372,0.2611111111111111
0.0196702371372,0.26666666666666666
0.0198359629505,0.2722222222222222
0.0198359629505,0.2777777777777778
0.0199141170864,0.2833333333333333
0.0199141170864,0.28888888888888886
0.0199635490934,0.29444444444444445
0.0199635490934,0.3
0.0204380243345,0.3055555555555556
0.0204380243345,0.3111111111111111
0.0204767632361,0.31666666666666665
0.0204767632361,0.32222222222222224
0.0204905718554,0.3277777777777778
0.0204905718554,0.3333333333333333
0.0205681375668,0.3388888888888889
0.0205681375668,0.34444444444444444
0.0206795943763,0.35
0.0206795943763,0.35555555555555557
0.0208213686786,0.3611111111111111
0.0208213686786,0.36666666666666664
0.0208294345119,0.37222222222222223
0.0208294345119,0.37777777777777777
0.0209036941932,0.38333333333333336
0.0209036941932,0.3888888888888889
0.0209541344602,0.39444444444444443
0.0209541344602,0.4
0.0209546395013,0.40555555555555556
0.0209546395013,0.4111111111111111
0.0210741964074,0.4166666666666667
0.0210741964074,0.4222222222222222
0.0211739125514,0.42777777777777776
0.0211739125514,0.43333333333333335
0.0213157318832,0.4388888888888889
0.0213157318832,0.4444444444444444
0.571851606385,0.45
0.571851606385,0.45555555555555555
0.641874564254,0.46111111111111114
0.641874564254,0.4666666666666667
0.708342530924,0.4722222222222222
0.708342530924,0.4777777777777778
0.774012042549,0.48333333333333334
0.774012042549,0.4888888888888889
1.15301212928,0.49444444444444446
1.15301212928,0.5
1.45018308706,0.5055555555555555
1.45018308706,0.5111111111111111
1.5800035648,0.5166666666666667
1.5800035648,0.5222222222222223
1.61322150868,0.5277777777777778
1.61322150868,0.5333333333333333
1.92447958222,0.5388888888888889
1.92447958222,0.5444444444444444
2.16317377217,0.55
2.16317377217,0.5555555555555556
2.21352964894,0.5611111111111111
2.21352964894,0.5666666666666667
2.2756976564,0.5722222222222222
2.2756976564,0.5777777777777777
2.28001875474,0.5833333333333334
2.28001875474,0.5888888888888889
2.42823765919,0.5944444444444444
2.42823765919,0.6
2.45408820379,0.6055555555555555
2.45408820379,0.6111111111111112
2.49973378102,0.6166666666666667
2.49973378102,0.6222222222222222
2.61268850964,0.6277777777777778
2.61268850964,0.6333333333333333
2.64227281134,0.6388888888888888
2.64227281134,0.6444444444444445
2.69256587957,0.65
2.69256587957,0.6555555555555556
2.73641334998,0.6611111111111111
2.73641334998,0.6666666666666666
2.76944007016,0.6722222222222223
2.76944007016,0.6777777777777778
2.90931169614,0.6833333333333333
2.90931169614,0.6888888888888889
2.99702398792,0.6944444444444444
2.99702398792,0.7
3.05303414226,0.7055555555555556
3.05303414226,0.7111111111111111
3.08576747743,0.7166666666666667
3.08576747743,0.7222222222222222
3.16905142095,0.7277777777777777
3.16905142095,0.7333333333333333
3.45927175616,0.7388888888888889
3.45927175616,0.7444444444444445
4.13890103081,0.75
4.13890103081,0.7555555555555555
4.20863611407,0.7611111111111111
4.20863611407,0.7666666666666667
4.26531189159,0.7722222222222223
4.26531189159,0.7777777777777778
4.55692300521,0.7833333333333333
4.55692300521,0.7888888888888889
4.69491816837,0.7944444444444444
4.69491816837,0.8
4.74606342993,0.8055555555555556
4.74606342993,0.8111111111111111
5.00675336512,0.8166666666666667
5.00675336512,0.8222222222222222
5.25100967071,0.8277777777777777
5.25100967071,0.8333333333333334
5.32686970584,0.8388888888888889
5.32686970584,0.8444444444444444
5.78605936407,0.85
5.78605936407,0.8555555555555555
6.35534326134,0.8611111111111112
6.35534326134,0.8666666666666667
6.45339372641,0.8722222222222222
6.45339372641,0.8777777777777778
7.04239409193,0.8833333333333333
7.04239409193,0.8888888888888888
7.06245124915,0.8944444444444445
7.06245124915,0.9
7.63275489036,0.9055555555555556
7.63275489036,0.9111111111111111
7.93951740847,0.9166666666666666
7.93951740847,0.9222222222222223
8.34333542712,0.9277777777777778
8.34333542712,0.9333333333333333
9.16002224504,0.9388888888888889
9.16002224504,0.9444444444444444
9.25952621339,0.95
9.25952621339,0.9555555555555556
9.5525052929,0.9611111111111111
9.5525052929,0.9666666666666667
10.4255227575,0.9722222222222222
10.4255227575,0.9777777777777777
11.3048510038,0.9833333333333333
11.3048510038,0.9888888888888889
11.7518723201,0.9944444444444445
11.7518723201,1.0
