Congestion,CDF
0.0224966316554,0.005555555555555556
0.0224966316554,0.011111111111111112
0.0226507664239,0.016666666666666666
0.0226507664239,0.022222222222222223
0.0229773112211,0.027777777777777776
0.0229773112211,0.03333333333333333
0.0229917943557,0.03888888888888889
0.0229917943557,0.044444444444444446
0.0230743954426,0.05
0.0230743954426,0.05555555555555555
0.0231640444332,0.06111111111111111
0.0231640444332,0.06666666666666667
0.0232849038346,0.07222222222222222
0.0232849038346,0.07777777777777778
0.0234996378725,0.08333333333333333
0.0234996378725,0.08888888888888889
0.0237755049452,0.09444444444444444
0.0237755049452,0.1
0.0238298539791,0.10555555555555556
0.0238298539791,0.1111111111111111
0.0238876850315,0.11666666666666667
0.0238876850315,0.12222222222222222
0.0239801070575,0.12777777777777777
0.0239801070575,0.13333333333333333
0.0241459799438,0.1388888888888889
0.0241459799438,0.14444444444444443
0.0241888557525,0.15
0.0241888557525,0.15555555555555556
0.0242970420474,0.16111111111111112
0.0242970420474,0.16666666666666666
0.0244693949618,0.17222222222222222
0.0244693949618,0.17777777777777778
0.0248156296765,0.18333333333333332
0.0248156296765,0.18888888888888888
0.0248357193595,0.19444444444444445
0.0248357193595,0.2
0.0248520687713,0.20555555555555555
0.0248520687713,0.2111111111111111
0.0248946838702,0.21666666666666667
0.0248946838702,0.2222222222222222
0.0249109119279,0.22777777777777777
0.0249109119279,0.23333333333333334
0.0249139141956,0.2388888888888889
0.0249139141956,0.24444444444444444
0.0250003068871,0.25
0.0250003068871,0.25555555555555554
0.0251470595147,0.2611111111111111
0.0251470595147,0.26666666666666666
0.0255795550346,0.2722222222222222
0.0255795550346,0.2777777777777778
0.0260742267756,0.2833333333333333
0.0260742267756,0.28888888888888886
0.0263125422164,0.29444444444444445
0.0263125422164,0.3
0.0268517369695,0.3055555555555556
0.0268517369695,0.3111111111111111
0.0269102683996,0.31666666666666665
0.0269102683996,0.32222222222222224
0.0269481885884,0.3277777777777778
0.0269481885884,0.3333333333333333
0.0269917544416,0.3388888888888889
0.0269917544416,0.34444444444444444
0.0271467097423,0.35
0.0271467097423,0.35555555555555557
0.0273806663307,0.3611111111111111
0.0273806663307,0.36666666666666664
0.0274089093872,0.37222222222222223
0.0274089093872,0.37777777777777777
0.0274688131423,0.38333333333333336
0.0274688131423,0.3888888888888889
0.0276669634005,0.39444444444444443
0.0276669634005,0.4
0.0277017271778,0.40555555555555556
0.0277017271778,0.4111111111111111
0.0277212797707,0.4166666666666667
0.0277212797707,0.4222222222222222
0.0279690237085,0.42777777777777776
0.0279690237085,0.43333333333333335
0.0283933266054,0.4388888888888889
0.0283933266054,0.4444444444444444
0.680956224741,0.45
0.680956224741,0.45555555555555555
0.790221044533,0.46111111111111114
0.790221044533,0.4666666666666667
0.818089518639,0.4722222222222222
0.818089518639,0.4777777777777778
0.85117514486,0.48333333333333334
0.85117514486,0.4888888888888889
1.43468759977,0.49444444444444446
1.43468759977,0.5
1.73688408939,0.5055555555555555
1.73688408939,0.5111111111111111
2.10946010092,0.5166666666666667
2.10946010092,0.5222222222222223
2.16071918281,0.5277777777777778
2.16071918281,0.5333333333333333
2.60410529549,0.5388888888888889
2.60410529549,0.5444444444444444
2.92137295454,0.55
2.92137295454,0.5555555555555556
3.02409449293,0.5611111111111111
3.02409449293,0.5666666666666667
3.06100601486,0.5722222222222222
3.06100601486,0.5777777777777777
3.08729501028,0.5833333333333334
3.08729501028,0.5888888888888889
3.13365311516,0.5944444444444444
3.13365311516,0.6
3.17320644244,0.6055555555555555
3.17320644244,0.6111111111111112
3.34142014081,0.6166666666666667
3.34142014081,0.6222222222222222
3.43942793634,0.6277777777777778
3.43942793634,0.6333333333333333
3.49986405787,0.6388888888888888
3.49986405787,0.6444444444444445
3.58997599406,0.65
3.58997599406,0.6555555555555556
3.75034276923,0.6611111111111111
3.75034276923,0.6666666666666666
3.75410483113,0.6722222222222223
3.75410483113,0.6777777777777778
3.91261002785,0.6833333333333333
3.91261002785,0.6888888888888889
3.92629059533,0.6944444444444444
3.92629059533,0.7
4.11178021276,0.7055555555555556
4.11178021276,0.7111111111111111
4.28490034552,0.7166666666666667
4.28490034552,0.7222222222222222
4.37738221388,0.7277777777777777
4.37738221388,0.7333333333333333
4.70434575912,0.7388888888888889
4.70434575912,0.7444444444444445
5.64980898281,0.75
5.64980898281,0.7555555555555555
5.80303614582,0.7611111111111111
5.80303614582,0.7666666666666667
5.83076788543,0.7722222222222223
5.83076788543,0.7777777777777778
6.19539427396,0.7833333333333333
6.19539427396,0.7888888888888889
6.32549163625,0.7944444444444444
6.32549163625,0.8
6.36171027997,0.8055555555555556
6.36171027997,0.8111111111111111
6.8218132771,0.8166666666666667
6.8218132771,0.8222222222222222
7.15226503499,0.8277777777777777
7.15226503499,0.8333333333333334
7.25397171219,0.8388888888888889
7.25397171219,0.8444444444444444
7.86609376893,0.85
7.86609376893,0.8555555555555555
8.6621853867,0.8611111111111112
8.6621853867,0.8666666666666667
8.68330868655,0.8722222222222222
8.68330868655,0.8777777777777778
9.57963487205,0.8833333333333333
9.57963487205,0.8888888888888888
9.62534390062,0.8944444444444445
9.62534390062,0.9
10.4458931308,0.9055555555555556
10.4458931308,0.9111111111111111
10.8308777866,0.9166666666666666
10.8308777866,0.9222222222222223
11.4262606754,0.9277777777777778
11.4262606754,0.9333333333333333
12.5046946092,0.9388888888888889
12.5046946092,0.9444444444444444
12.6288909368,0.95
12.6288909368,0.9555555555555556
13.0613396835,0.9611111111111111
13.0613396835,0.9666666666666667
14.1991761223,0.9722222222222222
14.1991761223,0.9777777777777777
15.4211327988,0.9833333333333333
15.4211327988,0.9888888888888889
16.0415426203,0.9944444444444445
16.0415426203,1.0
