Congestion,CDF
0.0176294687718,0.005555555555555556
0.0176294687718,0.011111111111111112
0.017812421708,0.016666666666666666
0.017812421708,0.022222222222222223
0.0179323401774,0.027777777777777776
0.0179323401774,0.03333333333333333
0.0179406646052,0.03888888888888889
0.0179406646052,0.044444444444444446
0.0180607127606,0.05
0.0180607127606,0.05555555555555555
0.0180742858508,0.06111111111111111
0.0180742858508,0.06666666666666667
0.01815404326,0.07222222222222222
0.01815404326,0.07777777777777778
0.0184044193419,0.08333333333333333
0.0184044193419,0.08888888888888889
0.0184524647913,0.09444444444444444
0.0184524647913,0.1
0.0185575749539,0.10555555555555556
0.0185575749539,0.1111111111111111
0.0185666998761,0.11666666666666667
0.0185666998761,0.12222222222222222
0.0186020024869,0.12777777777777777
0.0186020024869,0.13333333333333333
0.0186142321542,0.1388888888888889
0.0186142321542,0.14444444444444443
0.0188660916156,0.15
0.0188660916156,0.15555555555555556
0.0189993353312,0.16111111111111112
0.0189993353312,0.16666666666666666
0.0190639470012,0.17222222222222222
0.0190639470012,0.17777777777777778
0.0190727278072,0.18333333333333332
0.0190727278072,0.18888888888888888
0.0191902518885,0.19444444444444445
0.0191902518885,0.2
0.0192370793294,0.20555555555555555
0.0192370793294,0.2111111111111111
0.019276386251,0.21666666666666667
0.019276386251,0.2222222222222222
0.0193214348239,0.22777777777777777
0.0193214348239,0.23333333333333334
0.0193917004497,0.2388888888888889
0.0193917004497,0.24444444444444444
0.0193931425104,0.25
0.0193931425104,0.25555555555555554
0.0194470448013,0.2611111111111111
0.0194470448013,0.26666666666666666
0.0197670492712,0.2722222222222222
0.0197670492712,0.2777777777777778
0.0203942955887,0.2833333333333333
0.0203942955887,0.28888888888888886
0.0207596834662,0.29444444444444445
0.0207596834662,0.3
0.0212425100754,0.3055555555555556
0.0212425100754,0.3111111111111111
0.0214321148454,0.31666666666666665
0.0214321148454,0.32222222222222224
0.021457542624,0.3277777777777778
0.021457542624,0.3333333333333333
0.021500600761,0.3388888888888889
0.021500600761,0.34444444444444444
0.0215917134339,0.35
0.0215917134339,0.35555555555555557
0.0216838672906,0.3611111111111111
0.0216838672906,0.36666666666666664
0.0217126094371,0.37222222222222223
0.0217126094371,0.37777777777777777
0.022056644109,0.38333333333333336
0.022056644109,0.3888888888888889
0.0220621199089,0.39444444444444443
0.0220621199089,0.4
0.0221588141786,0.40555555555555556
0.0221588141786,0.4111111111111111
0.0222625130289,0.4166666666666667
0.0222625130289,0.4222222222222222
0.0223207913463,0.42777777777777776
0.0223207913463,0.43333333333333335
0.0227351067098,0.4388888888888889
0.0227351067098,0.4444444444444444
0.515641547851,0.45
0.515641547851,0.45555555555555555
0.596905520697,0.46111111111111114
0.596905520697,0.4666666666666667
0.647299958576,0.4722222222222222
0.647299958576,0.4777777777777778
0.658822293905,0.48333333333333334
0.658822293905,0.4888888888888889
1.12450295382,0.49444444444444446
1.12450295382,0.5
1.35496062633,0.5055555555555555
1.35496062633,0.5111111111111111
1.6326942146,0.5166666666666667
1.6326942146,0.5222222222222223
1.66679866963,0.5277777777777778
1.66679866963,0.5333333333333333
1.9878570489,0.5388888888888889
1.9878570489,0.5444444444444444
2.3114965384,0.55
2.3114965384,0.5555555555555556
2.36515285475,0.5611111111111111
2.36515285475,0.5666666666666667
2.42945841873,0.5722222222222222
2.42945841873,0.5777777777777777
2.42967210454,0.5833333333333334
2.42967210454,0.5888888888888889
2.456518047,0.5944444444444444
2.456518047,0.6
2.52061345364,0.6055555555555555
2.52061345364,0.6111111111111112
2.57155266203,0.6166666666666667
2.57155266203,0.6222222222222222
2.6907012118,0.6277777777777778
2.6907012118,0.6333333333333333
2.70365375162,0.6388888888888888
2.70365375162,0.6444444444444445
2.84636771835,0.65
2.84636771835,0.6555555555555556
2.90633108171,0.6611111111111111
2.90633108171,0.6666666666666666
2.95858247412,0.6722222222222223
2.95858247412,0.6777777777777778
3.01524805351,0.6833333333333333
3.01524805351,0.6888888888888889
3.11456761069,0.6944444444444444
3.11456761069,0.7
3.28781201293,0.7055555555555556
3.28781201293,0.7111111111111111
3.37717682435,0.7166666666666667
3.37717682435,0.7222222222222222
3.37928290639,0.7277777777777777
3.37928290639,0.7333333333333333
3.76205587124,0.7388888888888889
3.76205587124,0.7444444444444445
4.53394443147,0.75
4.53394443147,0.7555555555555555
4.64536257274,0.7611111111111111
4.64536257274,0.7666666666666667
4.70144556956,0.7722222222222223
4.70144556956,0.7777777777777778
5.01132065014,0.7833333333333333
5.01132065014,0.7888888888888889
5.02096231081,0.7944444444444444
5.02096231081,0.8
5.03790811034,0.8055555555555556
5.03790811034,0.8111111111111111
5.51076316667,0.8166666666666667
5.51076316667,0.8222222222222222
5.75285388148,0.8277777777777777
5.75285388148,0.8333333333333334
5.77977662491,0.8388888888888889
5.77977662491,0.8444444444444444
6.33782916457,0.85
6.33782916457,0.8555555555555555
6.87500650574,0.8611111111111112
6.87500650574,0.8666666666666667
7.04265648911,0.8722222222222222
7.04265648911,0.8777777777777778
7.7917677262,0.8833333333333333
7.7917677262,0.8888888888888888
7.7978579441,0.8944444444444445
7.7978579441,0.9
8.50918574035,0.9055555555555556
8.50918574035,0.9111111111111111
8.74156509575,0.9166666666666666
8.74156509575,0.9222222222222223
9.33881868102,0.9277777777777778
9.33881868102,0.9333333333333333
10.1721208912,0.9388888888888889
10.1721208912,0.9444444444444444
10.1839939681,0.95
10.1839939681,0.9555555555555556
10.5331437996,0.9611111111111111
10.5331437996,0.9666666666666667
11.6174133828,0.9722222222222222
11.6174133828,0.9777777777777777
12.6233596982,0.9833333333333333
12.6233596982,0.9888888888888889
13.0854464601,0.9944444444444445
13.0854464601,1.0
