Congestion,CDF
0.0311229220788,0.005555555555555556
0.0311229220788,0.011111111111111112
0.0311647671259,0.016666666666666666
0.0311647671259,0.022222222222222223
0.0318752432545,0.027777777777777776
0.0318752432545,0.03333333333333333
0.0320302030872,0.03888888888888889
0.0320302030872,0.044444444444444446
0.0320457775286,0.05
0.0320457775286,0.05555555555555555
0.0322714082529,0.06111111111111111
0.0322714082529,0.06666666666666667
0.0327436930773,0.07222222222222222
0.0327436930773,0.07777777777777778
0.0330586722334,0.08333333333333333
0.0330586722334,0.08888888888888889
0.0330817880578,0.09444444444444444
0.0330817880578,0.1
0.0336330201257,0.10555555555555556
0.0336330201257,0.1111111111111111
0.0336509287157,0.11666666666666667
0.0336509287157,0.12222222222222222
0.0340539139804,0.12777777777777777
0.0340539139804,0.13333333333333333
0.0341994851203,0.1388888888888889
0.0341994851203,0.14444444444444443
0.0342814143009,0.15
0.0342814143009,0.15555555555555556
0.0344291489927,0.16111111111111112
0.0344291489927,0.16666666666666666
0.0344754593729,0.17222222222222222
0.0344754593729,0.17777777777777778
0.0344779871634,0.18333333333333332
0.0344779871634,0.18888888888888888
0.0346048816098,0.19444444444444445
0.0346048816098,0.2
0.0348619887413,0.20555555555555555
0.0348619887413,0.2111111111111111
0.034868734887,0.21666666666666667
0.034868734887,0.2222222222222222
0.0349271406589,0.22777777777777777
0.0349271406589,0.23333333333333334
0.0351217351973,0.2388888888888889
0.0351217351973,0.24444444444444444
0.0353731709604,0.25
0.0353731709604,0.25555555555555554
0.0356487348338,0.2611111111111111
0.0356487348338,0.26666666666666666
0.0356940612292,0.2722222222222222
0.0356940612292,0.2777777777777778
0.0358465541282,0.2833333333333333
0.0358465541282,0.28888888888888886
0.0361030992798,0.29444444444444445
0.0361030992798,0.3
0.0363774006714,0.3055555555555556
0.0363774006714,0.3111111111111111
0.0363964871602,0.31666666666666665
0.0363964871602,0.32222222222222224
0.0365160512073,0.3277777777777778
0.0365160512073,0.3333333333333333
0.0366404401605,0.3388888888888889
0.0366404401605,0.34444444444444444
0.0366524677516,0.35
0.0366524677516,0.35555555555555557
0.0370483575127,0.3611111111111111
0.0370483575127,0.36666666666666664
0.0370682030014,0.37222222222222223
0.0370682030014,0.37777777777777777
0.0372044702551,0.38333333333333336
0.0372044702551,0.3888888888888889
0.0372141683246,0.39444444444444443
0.0372141683246,0.4
0.0373852567514,0.40555555555555556
0.0373852567514,0.4111111111111111
0.0374286247052,0.4166666666666667
0.0374286247052,0.4222222222222222
0.0377992233325,0.42777777777777776
0.0377992233325,0.43333333333333335
0.0381534799605,0.4388888888888889
0.0381534799605,0.4444444444444444
0.977096309218,0.45
0.977096309218,0.45555555555555555
1.12354792157,0.46111111111111114
1.12354792157,0.4666666666666667
1.22835090828,0.4722222222222222
1.22835090828,0.4777777777777778
1.3121060552,0.48333333333333334
1.3121060552,0.4888888888888889
2.04806071085,0.49444444444444446
2.04806071085,0.5
2.59228954762,0.5055555555555555
2.59228954762,0.5111111111111111
2.92733366119,0.5166666666666667
2.92733366119,0.5222222222222223
2.99657714726,0.5277777777777778
2.99657714726,0.5333333333333333
3.66927639027,0.5388888888888889
3.66927639027,0.5444444444444444
3.96646464811,0.55
3.96646464811,0.5555555555555556
4.1013625335,0.5611111111111111
4.1013625335,0.5666666666666667
4.14423831617,0.5722222222222222
4.14423831617,0.5777777777777777
4.20179147512,0.5833333333333334
4.20179147512,0.5888888888888889
4.32921961782,0.5944444444444444
4.32921961782,0.6
4.40417587954,0.6055555555555555
4.40417587954,0.6111111111111112
4.65503232398,0.6166666666666667
4.65503232398,0.6222222222222222
4.74581092029,0.6277777777777778
4.74581092029,0.6333333333333333
4.85333884547,0.6388888888888888
4.85333884547,0.6444444444444445
4.88792687139,0.65
4.88792687139,0.6555555555555556
5.06016700671,0.6611111111111111
5.06016700671,0.6666666666666666
5.14799693545,0.6722222222222223
5.14799693545,0.6777777777777778
5.39941864595,0.6833333333333333
5.39941864595,0.6888888888888889
5.40895009711,0.6944444444444444
5.40895009711,0.7
5.48192313784,0.7055555555555556
5.48192313784,0.7111111111111111
5.76444666477,0.7166666666666667
5.76444666477,0.7222222222222222
6.05373717434,0.7277777777777777
6.05373717434,0.7333333333333333
6.25753996389,0.7388888888888889
6.25753996389,0.7444444444444445
7.45840662948,0.75
7.45840662948,0.7555555555555555
7.66164880153,0.7611111111111111
7.66164880153,0.7666666666666667
7.67414547097,0.7722222222222223
7.67414547097,0.7777777777777778
8.1167842028,0.7833333333333333
8.1167842028,0.7888888888888889
8.44299417888,0.7944444444444444
8.44299417888,0.8
8.52143844961,0.8055555555555556
8.52143844961,0.8111111111111111
8.94427174229,0.8166666666666667
8.94427174229,0.8222222222222222
9.4176002228,0.8277777777777777
9.4176002228,0.8333333333333334
9.62031449492,0.8388888888888889
9.62031449492,0.8444444444444444
10.3289902126,0.85
10.3289902126,0.8555555555555555
11.2832852013,0.8611111111111112
11.2832852013,0.8666666666666667
11.6365846091,0.8722222222222222
11.6365846091,0.8777777777777778
12.4639249011,0.8833333333333333
12.4639249011,0.8888888888888888
12.586070641,0.8944444444444445
12.586070641,0.9
13.5801349769,0.9055555555555556
13.5801349769,0.9111111111111111
14.203147821,0.9166666666666666
14.203147821,0.9222222222222223
14.8011861102,0.9277777777777778
14.8011861102,0.9333333333333333
16.2683139656,0.9388888888888889
16.2683139656,0.9444444444444444
16.5562722496,0.95
16.5562722496,0.9555555555555556
17.1154773521,0.9611111111111111
17.1154773521,0.9666666666666667
18.3648267304,0.9722222222222222
18.3648267304,0.9777777777777777
19.9275540376,0.9833333333333333
19.9275540376,0.9888888888888889
20.7940606869,0.9944444444444445
20.7940606869,1.0
