Congestion,CDF
0.0305119243535,0.005555555555555556
0.0305119243535,0.011111111111111112
0.0305450393027,0.016666666666666666
0.0305450393027,0.022222222222222223
0.0311651884361,0.027777777777777776
0.0311651884361,0.03333333333333333
0.0313568814208,0.03888888888888889
0.0313568814208,0.044444444444444446
0.0313865764586,0.05
0.0313865764586,0.05555555555555555
0.0314863991549,0.06111111111111111
0.0314863991549,0.06666666666666667
0.0320766986748,0.07222222222222222
0.0320766986748,0.07777777777777778
0.032272851521,0.08333333333333333
0.032272851521,0.08888888888888889
0.0324251924872,0.09444444444444444
0.0324251924872,0.1
0.0329503482267,0.10555555555555556
0.0329503482267,0.1111111111111111
0.0329628278386,0.11666666666666667
0.0329628278386,0.12222222222222222
0.0333055643054,0.12777777777777777
0.0333055643054,0.13333333333333333
0.0334817225259,0.1388888888888889
0.0334817225259,0.14444444444444443
0.0335914329932,0.15
0.0335914329932,0.15555555555555556
0.0337336733478,0.16111111111111112
0.0337336733478,0.16666666666666666
0.0337592648837,0.17222222222222222
0.0337592648837,0.17777777777777778
0.0338100822987,0.18333333333333332
0.0338100822987,0.18888888888888888
0.0339216695765,0.19444444444444445
0.0339216695765,0.2
0.0341559508597,0.20555555555555555
0.0341559508597,0.2111111111111111
0.0341672127698,0.21666666666666667
0.0341672127698,0.2222222222222222
0.0341984304825,0.22777777777777777
0.0341984304825,0.23333333333333334
0.0344190275645,0.2388888888888889
0.0344190275645,0.24444444444444444
0.034667669754,0.25
0.034667669754,0.25555555555555554
0.0349282143107,0.2611111111111111
0.0349282143107,0.26666666666666666
0.0350465893224,0.2722222222222222
0.0350465893224,0.2777777777777778
0.0351510776536,0.2833333333333333
0.0351510776536,0.28888888888888886
0.0354247853193,0.29444444444444445
0.0354247853193,0.3
0.0357157607113,0.3055555555555556
0.0357157607113,0.3111111111111111
0.0357385105268,0.31666666666666665
0.0357385105268,0.32222222222222224
0.0358796770149,0.3277777777777778
0.0358796770149,0.3333333333333333
0.0359651459792,0.3388888888888889
0.0359651459792,0.34444444444444444
0.0359673150929,0.35
0.0359673150929,0.35555555555555557
0.036383845718,0.3611111111111111
0.036383845718,0.36666666666666664
0.0363962228839,0.37222222222222223
0.0363962228839,0.37777777777777777
0.0365378356727,0.38333333333333336
0.0365378356727,0.3888888888888889
0.0365598235087,0.39444444444444443
0.0365598235087,0.4
0.0367336560875,0.40555555555555556
0.0367336560875,0.4111111111111111
0.0367685140342,0.4166666666666667
0.0367685140342,0.4222222222222222
0.0371519566039,0.42777777777777776
0.0371519566039,0.43333333333333335
0.0375210026413,0.4388888888888889
0.0375210026413,0.4444444444444444
0.953018585786,0.45
0.953018585786,0.45555555555555555
1.10084297097,0.46111111111111114
1.10084297097,0.4666666666666667
1.19139452984,0.4722222222222222
1.19139452984,0.4777777777777778
1.27164978406,0.48333333333333334
1.27164978406,0.4888888888888889
2.00201563723,0.49444444444444446
2.00201563723,0.5
2.52252672531,0.5055555555555555
2.52252672531,0.5111111111111111
2.87090766854,0.5166666666666667
2.87090766854,0.5222222222222223
2.93924046154,0.5277777777777778
2.93924046154,0.5333333333333333
3.59882854249,0.5388888888888889
3.59882854249,0.5444444444444444
3.89685587172,0.55
3.89685587172,0.5555555555555556
4.03121989459,0.5611111111111111
4.03121989459,0.5666666666666667
4.07205385524,0.5722222222222222
4.07205385524,0.5777777777777777
4.12832770764,0.5833333333333334
4.12832770764,0.5888888888888889
4.24404010103,0.5944444444444444
4.24404010103,0.6
4.31574259678,0.6055555555555555
4.31574259678,0.6111111111111112
4.56765462644,0.6166666666666667
4.56765462644,0.6222222222222222
4.65617152767,0.6277777777777778
4.65617152767,0.6333333333333333
4.76521267661,0.6388888888888888
4.76521267661,0.6444444444444445
4.797335097,0.65
4.797335097,0.6555555555555556
4.97475064652,0.6611111111111111
4.97475064652,0.6666666666666666
5.05776529198,0.6722222222222223
5.05776529198,0.6777777777777778
5.30016792751,0.6833333333333333
5.30016792751,0.6888888888888889
5.31135242561,0.6944444444444444
5.31135242561,0.7
5.39258569729,0.7055555555555556
5.39258569729,0.7111111111111111
5.66871292582,0.7166666666666667
5.66871292582,0.7222222222222222
5.94518831751,0.7277777777777777
5.94518831751,0.7333333333333333
6.15698839908,0.7388888888888889
6.15698839908,0.7444444444444445
7.34244316111,0.75
7.34244316111,0.7555555555555555
7.54424501572,0.7611111111111111
7.54424501572,0.7666666666666667
7.55437613515,0.7722222222222223
7.55437613515,0.7777777777777778
7.99379462468,0.7833333333333333
7.99379462468,0.7888888888888889
8.30813737639,0.7944444444444444
8.30813737639,0.8
8.38394118844,0.8055555555555556
8.38394118844,0.8111111111111111
8.80892281176,0.8166666666666667
8.80892281176,0.8222222222222222
9.27346173304,0.8277777777777777
9.27346173304,0.8333333333333334
9.47041204218,0.8388888888888889
9.47041204218,0.8444444444444444
10.1728996853,0.85
10.1728996853,0.8555555555555555
11.1172798821,0.8611111111111112
11.1172798821,0.8666666666666667
11.45018593,0.8722222222222222
11.45018593,0.8777777777777778
12.2819253611,0.8833333333333333
12.2819253611,0.8888888888888888
12.3993109875,0.8944444444444445
12.3993109875,0.9
13.3825541642,0.9055555555555556
13.3825541642,0.9111111111111111
13.9913299835,0.9166666666666666
13.9913299835,0.9222222222222223
14.5888648692,0.9277777777777778
14.5888648692,0.9333333333333333
16.0320013259,0.9388888888888889
16.0320013259,0.9444444444444444
16.3102300189,0.95
16.3102300189,0.9555555555555556
16.8615327762,0.9611111111111111
16.8615327762,0.9666666666666667
18.1033497369,0.9722222222222222
18.1033497369,0.9777777777777777
19.6449199855,0.9833333333333333
19.6449199855,0.9888888888888889
20.4962416238,0.9944444444444445
20.4962416238,1.0
