Congestion,CDF
0.0142047411376,0.005555555555555556
0.0142047411376,0.011111111111111112
0.0145363412608,0.016666666666666666
0.0145363412608,0.022222222222222223
0.0146634158044,0.027777777777777776
0.0146634158044,0.03333333333333333
0.0147016313132,0.03888888888888889
0.0147016313132,0.044444444444444446
0.0148551018212,0.05
0.0148551018212,0.05555555555555555
0.0150441953199,0.06111111111111111
0.0150441953199,0.06666666666666667
0.0150766829154,0.07222222222222222
0.0150766829154,0.07777777777777778
0.0150959411539,0.08333333333333333
0.0150959411539,0.08888888888888889
0.0151521762254,0.09444444444444444
0.0151521762254,0.1
0.0151882411193,0.10555555555555556
0.0151882411193,0.1111111111111111
0.0152678663012,0.11666666666666667
0.0152678663012,0.12222222222222222
0.015298857595,0.12777777777777777
0.015298857595,0.13333333333333333
0.0153001699371,0.1388888888888889
0.0153001699371,0.14444444444444443
0.0153380485595,0.15
0.0153380485595,0.15555555555555556
0.0154255862153,0.16111111111111112
0.0154255862153,0.16666666666666666
0.0154624624351,0.17222222222222222
0.0154624624351,0.17777777777777778
0.0156262180142,0.18333333333333332
0.0156262180142,0.18888888888888888
0.0156305526043,0.19444444444444445
0.0156305526043,0.2
0.015661126342,0.20555555555555555
0.015661126342,0.2111111111111111
0.015699161459,0.21666666666666667
0.015699161459,0.2222222222222222
0.015842610806,0.22777777777777777
0.015842610806,0.23333333333333334
0.0158935483637,0.2388888888888889
0.0158935483637,0.24444444444444444
0.0159083213861,0.25
0.0159083213861,0.25555555555555554
0.0160890655962,0.2611111111111111
0.0160890655962,0.26666666666666666
0.0161306035947,0.2722222222222222
0.0161306035947,0.2777777777777778
0.0161684739252,0.2833333333333333
0.0161684739252,0.28888888888888886
0.0163291754772,0.29444444444444445
0.0163291754772,0.3
0.0167268303552,0.3055555555555556
0.0167268303552,0.3111111111111111
0.0167691398843,0.31666666666666665
0.0167691398843,0.32222222222222224
0.0167751103719,0.3277777777777778
0.0167751103719,0.3333333333333333
0.0168379103956,0.3388888888888889
0.0168379103956,0.34444444444444444
0.0169507318495,0.35
0.0169507318495,0.35555555555555557
0.0170418869432,0.3611111111111111
0.0170418869432,0.36666666666666664
0.0170767380263,0.37222222222222223
0.0170767380263,0.37777777777777777
0.0171291818917,0.38333333333333336
0.0171291818917,0.3888888888888889
0.0171797114268,0.39444444444444443
0.0171797114268,0.4
0.0171941478885,0.40555555555555556
0.0171941478885,0.4111111111111111
0.0172943049432,0.4166666666666667
0.0172943049432,0.4222222222222222
0.0173581211082,0.42777777777777776
0.0173581211082,0.43333333333333335
0.0174651056784,0.4388888888888889
0.0174651056784,0.4444444444444444
0.468420972644,0.45
0.468420972644,0.45555555555555555
0.526606324534,0.46111111111111114
0.526606324534,0.4666666666666667
0.57852702584,0.4722222222222222
0.57852702584,0.4777777777777778
0.639642638804,0.48333333333333334
0.639642638804,0.4888888888888889
0.948116337104,0.49444444444444446
0.948116337104,0.5
1.18117173472,0.5055555555555555
1.18117173472,0.5111111111111111
1.27479684742,0.5166666666666667
1.27479684742,0.5222222222222223
1.2996573999,0.5277777777777778
1.2996573999,0.5333333333333333
1.53315930522,0.5388888888888889
1.53315930522,0.5444444444444444
1.75259524055,0.55
1.75259524055,0.5555555555555556
1.78717173077,0.5611111111111111
1.78717173077,0.5666666666666667
1.84569499126,0.5722222222222222
1.84569499126,0.5777777777777777
1.84987041238,0.5833333333333334
1.84987041238,0.5888888888888889
1.98373317518,0.5944444444444444
1.98373317518,0.6
2.00393591827,0.6055555555555555
2.00393591827,0.6111111111111112
2.01505898968,0.6166666666666667
2.01505898968,0.6222222222222222
2.10885690402,0.6277777777777778
2.10885690402,0.6333333333333333
2.14244758235,0.6388888888888888
2.14244758235,0.6444444444444445
2.15791115232,0.65
2.15791115232,0.6555555555555556
2.24204612719,0.6611111111111111
2.24204612719,0.6666666666666666
2.25022878953,0.6722222222222223
2.25022878953,0.6777777777777778
2.34782224514,0.6833333333333333
2.34782224514,0.6888888888888889
2.45048869887,0.6944444444444444
2.45048869887,0.7
2.48168904482,0.7055555555555556
2.48168904482,0.7111111111111111
2.5005439238,0.7166666666666667
2.5005439238,0.7222222222222222
2.52440247587,0.7277777777777777
2.52440247587,0.7333333333333333
2.82468278975,0.7388888888888889
2.82468278975,0.7444444444444445
3.3861027558,0.75
3.3861027558,0.7555555555555555
3.42508629843,0.7611111111111111
3.42508629843,0.7666666666666667
3.49504358,0.7722222222222223
3.49504358,0.7777777777777778
3.75009119843,0.7833333333333333
3.75009119843,0.7888888888888889
3.8460265875,0.7944444444444444
3.8460265875,0.8
3.89147044719,0.8055555555555556
3.89147044719,0.8111111111111111
4.1139153143,0.8166666666666667
4.1139153143,0.8222222222222222
4.30742836476,0.8277777777777777
4.30742836476,0.8333333333333334
4.35797181137,0.8388888888888889
4.35797181137,0.8444444444444444
4.75727936679,0.85
4.75727936679,0.8555555555555555
5.23999218071,0.8611111111111112
5.23999218071,0.8666666666666667
5.28274379341,0.8722222222222222
5.28274379341,0.8777777777777778
5.81452664489,0.8833333333333333
5.81452664489,0.8888888888888888
5.81901914806,0.8944444444444445
5.81901914806,0.9
6.28826164937,0.9055555555555556
6.28826164937,0.9111111111111111
6.52725830572,0.9166666666666666
6.52725830572,0.9222222222222223
6.88456496602,0.9277777777777778
6.88456496602,0.9333333333333333
7.55663660465,0.9388888888888889
7.55663660465,0.9444444444444444
7.61824377862,0.95
7.61824377862,0.9555555555555556
7.84920954406,0.9611111111111111
7.84920954406,0.9666666666666667
8.63033375323,0.9722222222222222
8.63033375323,0.9777777777777777
9.35639888784,0.9833333333333333
9.35639888784,0.9888888888888889
9.70923183387,0.9944444444444445
9.70923183387,1.0
