Congestion,CDF
0.0324740937326,0.005555555555555556
0.0324740937326,0.011111111111111112
0.0325283050824,0.016666666666666666
0.0325283050824,0.022222222222222223
0.0334372622687,0.027777777777777776
0.0334372622687,0.03333333333333333
0.0334810421739,0.03888888888888889
0.0334810421739,0.044444444444444446
0.0335150772866,0.05
0.0335150772866,0.05555555555555555
0.0340058186527,0.06111111111111111
0.0340058186527,0.06666666666666667
0.0341734552138,0.07222222222222222
0.0341734552138,0.07777777777777778
0.0344820481724,0.08333333333333333
0.0344820481724,0.08888888888888889
0.0347259811692,0.09444444444444444
0.0347259811692,0.1
0.0350565853733,0.10555555555555556
0.0350565853733,0.1111111111111111
0.0351405837001,0.11666666666666667
0.0351405837001,0.12222222222222222
0.0356221649571,0.12777777777777777
0.0356221649571,0.13333333333333333
0.0357188359428,0.1388888888888889
0.0357188359428,0.14444444444444443
0.0357214288326,0.15
0.0357214288326,0.15555555555555556
0.0358429527775,0.16111111111111112
0.0358429527775,0.16666666666666666
0.0358644351632,0.17222222222222222
0.0358644351632,0.17777777777777778
0.0360100932176,0.18333333333333332
0.0360100932176,0.18888888888888888
0.0360238997293,0.19444444444444445
0.0360238997293,0.2
0.0362597997992,0.20555555555555555
0.0362597997992,0.2111111111111111
0.0363259246659,0.21666666666666667
0.0363259246659,0.2222222222222222
0.0364790820887,0.22777777777777777
0.0364790820887,0.23333333333333334
0.0365752484822,0.2388888888888889
0.0365752484822,0.24444444444444444
0.0368113890643,0.25
0.0368113890643,0.25555555555555554
0.0370315865099,0.2611111111111111
0.0370315865099,0.26666666666666666
0.037119214489,0.2722222222222222
0.037119214489,0.2777777777777778
0.0372645049096,0.2833333333333333
0.0372645049096,0.28888888888888886
0.0374880373979,0.29444444444444445
0.0374880373979,0.3
0.0377609403296,0.3055555555555556
0.0377609403296,0.3111111111111111
0.0377700143765,0.31666666666666665
0.0377700143765,0.32222222222222224
0.0378541923635,0.3277777777777778
0.0378541923635,0.3333333333333333
0.0380296917072,0.3388888888888889
0.0380296917072,0.34444444444444444
0.038065584585,0.35
0.038065584585,0.35555555555555557
0.0383971742744,0.3611111111111111
0.0383971742744,0.36666666666666664
0.0384702226319,0.37222222222222223
0.0384702226319,0.37777777777777777
0.0385601760565,0.38333333333333336
0.0385601760565,0.3888888888888889
0.0385718126772,0.39444444444444443
0.0385718126772,0.4
0.0387026139688,0.40555555555555556
0.0387026139688,0.4111111111111111
0.0387780728598,0.4166666666666667
0.0387780728598,0.4222222222222222
0.039110462603,0.42777777777777776
0.039110462603,0.43333333333333335
0.0394291116886,0.4388888888888889
0.0394291116886,0.4444444444444444
1.03105294343,0.45
1.03105294343,0.45555555555555555
1.17044331391,0.46111111111111114
1.17044331391,0.4666666666666667
1.30992267928,0.4722222222222222
1.30992267928,0.4777777777777778
1.40679912342,0.48333333333333334
1.40679912342,0.4888888888888889
2.15013699288,0.49444444444444446
2.15013699288,0.5
2.74801234138,0.5055555555555555
2.74801234138,0.5111111111111111
3.04583989888,0.5166666666666667
3.04583989888,0.5222222222222223
3.11637179773,0.5277777777777778
3.11637179773,0.5333333333333333
3.81369946882,0.5388888888888889
3.81369946882,0.5444444444444444
4.1092829294,0.55
4.1092829294,0.5555555555555556
4.24472144012,0.5611111111111111
4.24472144012,0.5666666666666667
4.29218276292,0.5722222222222222
4.29218276292,0.5777777777777777
4.35208965972,0.5833333333333334
4.35208965972,0.5888888888888889
4.50708490744,0.5944444444444444
4.50708490744,0.6
4.58697600581,0.6055555555555555
4.58697600581,0.6111111111111112
4.83324180454,0.6166666666666667
4.83324180454,0.6222222222222222
4.92952355847,0.6277777777777778
4.92952355847,0.6333333333333333
5.03246358201,0.6388888888888888
5.03246358201,0.6444444444444445
5.07412363786,0.65
5.07412363786,0.6555555555555556
5.23384577531,0.6611111111111111
5.23384577531,0.6666666666666666
5.33107286338,0.6722222222222223
5.33107286338,0.6777777777777778
5.60066778345,0.6833333333333333
5.60066778345,0.6888888888888889
5.6068987374,0.6944444444444444
5.6068987374,0.7
5.66330450679,0.7055555555555556
5.66330450679,0.7111111111111111
5.95835974804,0.7166666666666667
5.95835974804,0.7222222222222222
6.27327766468,0.7277777777777777
6.27327766468,0.7333333333333333
6.46099142301,0.7388888888888889
6.46099142301,0.7444444444444445
7.69218533439,0.75
7.69218533439,0.7555555555555555
7.89828593192,0.7611111111111111
7.89828593192,0.7666666666666667
7.9154616107,0.7722222222222223
7.9154616107,0.7777777777777778
8.3644797441,0.7833333333333333
8.3644797441,0.7888888888888889
8.7140934887,0.7944444444444444
8.7140934887,0.8
8.79779962146,0.8055555555555556
8.79779962146,0.8111111111111111
9.21648200319,0.8166666666666667
9.21648200319,0.8222222222222222
9.70726741408,0.8277777777777777
9.70726741408,0.8333333333333334
9.92130303032,0.8388888888888889
9.92130303032,0.8444444444444444
10.6423559576,0.85
10.6423559576,0.8555555555555555
11.6164103038,0.8611111111111112
11.6164103038,0.8666666666666667
12.0099594699,0.8722222222222222
12.0099594699,0.8777777777777778
12.828813755,0.8833333333333333
12.828813755,0.8888888888888888
12.9604762243,0.8944444444444445
12.9604762243,0.9
13.97615092,0.9055555555555556
13.97615092,0.9111111111111111
14.6273009873,0.9166666666666666
14.6273009873,0.9222222222222223
15.2265786136,0.9277777777777778
15.2265786136,0.9333333333333333
16.7415043986,0.9388888888888889
16.7415043986,0.9444444444444444
17.0487322077,0.95
17.0487322077,0.9555555555555556
17.6237605626,0.9611111111111111
17.6237605626,0.9666666666666667
18.8883304226,0.9722222222222222
18.8883304226,0.9777777777777777
20.4932962179,0.9833333333333333
20.4932962179,0.9888888888888889
21.3900958608,0.9944444444444445
21.3900958608,1.0
