Congestion,CDF
0.010919423219,0.005555555555555556
0.010919423219,0.011111111111111112
0.0113790042364,0.016666666666666666
0.0113790042364,0.022222222222222223
0.011626025047,0.027777777777777776
0.011626025047,0.03333333333333333
0.0116402907238,0.03888888888888889
0.0116402907238,0.044444444444444446
0.0116652498728,0.05
0.0116652498728,0.05555555555555555
0.0116677146666,0.06111111111111111
0.0116677146666,0.06666666666666667
0.0117826121751,0.07222222222222222
0.0117826121751,0.07777777777777778
0.0117865717977,0.08333333333333333
0.0117865717977,0.08888888888888889
0.0118158309547,0.09444444444444444
0.0118158309547,0.1
0.0118400735276,0.10555555555555556
0.0118400735276,0.1111111111111111
0.0119885964943,0.11666666666666667
0.0119885964943,0.12222222222222222
0.0120569692871,0.12777777777777777
0.0120569692871,0.13333333333333333
0.012076282997,0.1388888888888889
0.012076282997,0.14444444444444443
0.012115483074,0.15
0.012115483074,0.15555555555555556
0.0121188808286,0.16111111111111112
0.0121188808286,0.16666666666666666
0.0123650244993,0.17222222222222222
0.0123650244993,0.17777777777777778
0.0123659515434,0.18333333333333332
0.0123659515434,0.18888888888888888
0.0123919877056,0.19444444444444445
0.0123919877056,0.2
0.0123932086414,0.20555555555555555
0.0123932086414,0.2111111111111111
0.012427993248,0.21666666666666667
0.012427993248,0.2222222222222222
0.0124781778401,0.22777777777777777
0.0124781778401,0.23333333333333334
0.0126805820442,0.2388888888888889
0.0126805820442,0.24444444444444444
0.012764929835,0.25
0.012764929835,0.25555555555555554
0.013111084435,0.2611111111111111
0.013111084435,0.26666666666666666
0.0132356613283,0.2722222222222222
0.0132356613283,0.2777777777777778
0.0134199664362,0.2833333333333333
0.0134199664362,0.28888888888888886
0.0134500212755,0.29444444444444445
0.0134500212755,0.3
0.0143066724386,0.3055555555555556
0.0143066724386,0.3111111111111111
0.0143937134331,0.31666666666666665
0.0143937134331,0.32222222222222224
0.0144308953734,0.3277777777777778
0.0144308953734,0.3333333333333333
0.0145696584368,0.3388888888888889
0.0145696584368,0.34444444444444444
0.0146218546265,0.35
0.0146218546265,0.35555555555555557
0.014670307809,0.3611111111111111
0.014670307809,0.36666666666666664
0.0146751868422,0.37222222222222223
0.0146751868422,0.37777777777777777
0.0148817152268,0.38333333333333336
0.0148817152268,0.3888888888888889
0.0149672020457,0.39444444444444443
0.0149672020457,0.4
0.0149801876559,0.40555555555555556
0.0149801876559,0.4111111111111111
0.0154261840836,0.4166666666666667
0.0154261840836,0.4222222222222222
0.0154376470024,0.42777777777777776
0.0154376470024,0.43333333333333335
0.0154906394926,0.4388888888888889
0.0154906394926,0.4444444444444444
0.323816020927,0.45
0.323816020927,0.45555555555555555
0.377541381893,0.46111111111111114
0.377541381893,0.4666666666666667
0.43351199202,0.4722222222222222
0.43351199202,0.4777777777777778
0.438299328291,0.48333333333333334
0.438299328291,0.4888888888888889
0.759043875183,0.49444444444444446
0.759043875183,0.5
0.890377541417,0.5055555555555555
0.890377541417,0.5111111111111111
1.0319872966,0.5166666666666667
1.0319872966,0.5222222222222223
1.04117650145,0.5277777777777778
1.04117650145,0.5333333333333333
1.22858694417,0.5388888888888889
1.22858694417,0.5444444444444444
1.50183796529,0.55
1.50183796529,0.5555555555555556
1.54703086831,0.5611111111111111
1.54703086831,0.5666666666666667
1.55785664262,0.5722222222222222
1.55785664262,0.5777777777777777
1.62710963355,0.5833333333333334
1.62710963355,0.5888888888888889
1.62860539302,0.5944444444444444
1.62860539302,0.6
1.63931431901,0.6055555555555555
1.63931431901,0.6111111111111112
1.66269689199,0.6166666666666667
1.66269689199,0.6222222222222222
1.71953802552,0.6277777777777778
1.71953802552,0.6333333333333333
1.8069675107,0.6388888888888888
1.8069675107,0.6444444444444445
1.81443231366,0.65
1.81443231366,0.6555555555555556
1.88091901053,0.6611111111111111
1.88091901053,0.6666666666666666
1.93020408413,0.6722222222222223
1.93020408413,0.6777777777777778
1.94413132892,0.6833333333333333
1.94413132892,0.6888888888888889
2.08894891787,0.6944444444444444
2.08894891787,0.7
2.08923719085,0.7055555555555556
2.08923719085,0.7111111111111111
2.19748376488,0.7166666666666667
2.19748376488,0.7222222222222222
2.25518389887,0.7277777777777777
2.25518389887,0.7333333333333333
2.56320108197,0.7388888888888889
2.56320108197,0.7444444444444445
3.10649106917,0.75
3.10649106917,0.7555555555555555
3.13721730752,0.7611111111111111
3.13721730752,0.7666666666666667
3.25383689199,0.7722222222222223
3.25383689199,0.7777777777777778
3.33705497485,0.7833333333333333
3.33705497485,0.7888888888888889
3.42065445564,0.7944444444444444
3.42065445564,0.8
3.492367187,0.8055555555555556
3.492367187,0.8111111111111111
3.81510511467,0.8166666666666667
3.81510511467,0.8222222222222222
3.84154403675,0.8277777777777777
3.84154403675,0.8333333333333334
3.95213835111,0.8388888888888889
3.95213835111,0.8444444444444444
4.33795664869,0.85
4.33795664869,0.8555555555555555
4.60926634596,0.8611111111111112
4.60926634596,0.8666666666666667
4.93698750866,0.8722222222222222
4.93698750866,0.8777777777777778
5.39836361605,0.8833333333333333
5.39836361605,0.8888888888888888
5.49917415199,0.8944444444444445
5.49917415199,0.9
5.98369049134,0.9055555555555556
5.98369049134,0.9111111111111111
5.98719359059,0.9166666666666666
5.98719359059,0.9222222222222223
6.60645279412,0.9277777777777778
6.60645279412,0.9333333333333333
6.99842529593,0.9388888888888889
6.99842529593,0.9444444444444444
7.14307763592,0.95
7.14307763592,0.9555555555555556
7.19494638145,0.9611111111111111
7.19494638145,0.9666666666666667
8.25928678292,0.9722222222222222
8.25928678292,0.9777777777777777
8.98367282796,0.9833333333333333
8.98367282796,0.9888888888888889
9.23012335663,0.9944444444444445
9.23012335663,1.0
