Congestion,CDF
0.0275921643657,0.005555555555555556
0.0275921643657,0.011111111111111112
0.0276885510196,0.016666666666666666
0.0276885510196,0.022222222222222223
0.0283417667361,0.027777777777777776
0.0283417667361,0.03333333333333333
0.0284230936615,0.03888888888888889
0.0284230936615,0.044444444444444446
0.0284577547565,0.05
0.0284577547565,0.05555555555555555
0.0286388555034,0.06111111111111111
0.0286388555034,0.06666666666666667
0.028900817483,0.07222222222222222
0.028900817483,0.07777777777777778
0.0290802156247,0.08333333333333333
0.0290802156247,0.08888888888888889
0.0292077114591,0.09444444444444444
0.0292077114591,0.1
0.0293894014932,0.10555555555555556
0.0293894014932,0.1111111111111111
0.0294603300969,0.11666666666666667
0.0294603300969,0.12222222222222222
0.0298085788098,0.12777777777777777
0.0298085788098,0.13333333333333333
0.0298382119827,0.1388888888888889
0.0298382119827,0.14444444444444443
0.0299432342914,0.15
0.0299432342914,0.15555555555555556
0.0299830884799,0.16111111111111112
0.0299830884799,0.16666666666666666
0.0300145545525,0.17222222222222222
0.0300145545525,0.17777777777777778
0.0300506464207,0.18333333333333332
0.0300506464207,0.18888888888888888
0.0301835431044,0.19444444444444445
0.0301835431044,0.2
0.0302053736569,0.20555555555555555
0.0302053736569,0.2111111111111111
0.0303922057603,0.21666666666666667
0.0303922057603,0.2222222222222222
0.0306243088923,0.22777777777777777
0.0306243088923,0.23333333333333334
0.0306493422029,0.2388888888888889
0.0306493422029,0.24444444444444444
0.0307353984372,0.25
0.0307353984372,0.25555555555555554
0.0308025457258,0.2611111111111111
0.0308025457258,0.26666666666666666
0.0311091635193,0.2722222222222222
0.0311091635193,0.2777777777777778
0.0311291508931,0.2833333333333333
0.0311291508931,0.28888888888888886
0.0312879700559,0.29444444444444445
0.0312879700559,0.3
0.0316940362743,0.3055555555555556
0.0316940362743,0.3111111111111111
0.0317146004536,0.31666666666666665
0.0317146004536,0.32222222222222224
0.0317579567993,0.3277777777777778
0.0317579567993,0.3333333333333333
0.0318850144625,0.3388888888888889
0.0318850144625,0.34444444444444444
0.0319737748946,0.35
0.0319737748946,0.35555555555555557
0.0321969947836,0.3611111111111111
0.0321969947836,0.36666666666666664
0.0323163091454,0.37222222222222223
0.0323163091454,0.37777777777777777
0.0323189918223,0.38333333333333336
0.0323189918223,0.3888888888888889
0.0323191886234,0.39444444444444443
0.0323191886234,0.4
0.0323578149782,0.40555555555555556
0.0323578149782,0.4111111111111111
0.0325102602815,0.4166666666666667
0.0325102602815,0.4222222222222222
0.0327169445787,0.42777777777777776
0.0327169445787,0.43333333333333335
0.0329420144031,0.4388888888888889
0.0329420144031,0.4444444444444444
0.893195268341,0.45
0.893195268341,0.45555555555555555
0.992288817241,0.46111111111111114
0.992288817241,0.4666666666666667
1.12197581039,0.4722222222222222
1.12197581039,0.4777777777777778
1.22056925161,0.48333333333333334
1.22056925161,0.4888888888888889
1.81172884703,0.49444444444444446
1.81172884703,0.5
2.31521460143,0.5055555555555555
2.31521460143,0.5111111111111111
2.529882443,0.5166666666666667
2.529882443,0.5222222222222223
2.58644785303,0.5277777777777778
2.58644785303,0.5333333333333333
3.14063131879,0.5388888888888889
3.14063131879,0.5444444444444444
3.41585282757,0.55
3.41585282757,0.5555555555555556
3.51720490012,0.5611111111111111
3.51720490012,0.5666666666666667
3.57358452262,0.5722222222222222
3.57358452262,0.5777777777777777
3.61157766394,0.5833333333333334
3.61157766394,0.5888888888888889
3.78296190277,0.5944444444444444
3.78296190277,0.6
3.83647708319,0.6055555555555555
3.83647708319,0.6111111111111112
4.00092363682,0.6166666666666667
4.00092363682,0.6222222222222222
4.12107756534,0.6277777777777778
4.12107756534,0.6333333333333333
4.1666125491,0.6388888888888888
4.1666125491,0.6444444444444445
4.24702902561,0.65
4.24702902561,0.6555555555555556
4.35049479292,0.6611111111111111
4.35049479292,0.6666666666666666
4.3814919778,0.6722222222222223
4.3814919778,0.6777777777777778
4.64029535972,0.6833333333333333
4.64029535972,0.6888888888888889
4.67214258314,0.6944444444444444
4.67214258314,0.7
4.72701331186,0.7055555555555556
4.72701331186,0.7111111111111111
4.92363888404,0.7166666666666667
4.92363888404,0.7222222222222222
5.15596643622,0.7277777777777777
5.15596643622,0.7333333333333333
5.3808228053,0.7388888888888889
5.3808228053,0.7444444444444445
6.41009334532,0.75
6.41009334532,0.7555555555555555
6.57610703676,0.7611111111111111
6.57610703676,0.7666666666666667
6.58655096117,0.7722222222222223
6.58655096117,0.7777777777777778
6.98913084458,0.7833333333333333
6.98913084458,0.7888888888888889
7.26527176048,0.7944444444444444
7.26527176048,0.8
7.33753807359,0.8055555555555556
7.33753807359,0.8111111111111111
7.69514332789,0.8166666666666667
7.69514332789,0.8222222222222222
8.09666293351,0.8277777777777777
8.09666293351,0.8333333333333334
8.2598809528,0.8388888888888889
8.2598809528,0.8444444444444444
8.88612727846,0.85
8.88612727846,0.8555555555555555
9.71080887374,0.8611111111111112
9.71080887374,0.8666666666666667
10.0026709587,0.8722222222222222
10.0026709587,0.8777777777777778
10.7305183215,0.8833333333333333
10.7305183215,0.8888888888888888
10.8232442958,0.8944444444444445
10.8232442958,0.9
11.675281334,0.9055555555555556
11.675281334,0.9111111111111111
12.2018491805,0.9166666666666666
12.2018491805,0.9222222222222223
12.7277046029,0.9277777777777778
12.7277046029,0.9333333333333333
13.9895203919,0.9388888888888889
13.9895203919,0.9444444444444444
14.2217631857,0.95
14.2217631857,0.9555555555555556
14.6948550466,0.9611111111111111
14.6948550466,0.9666666666666667
15.8165909817,0.9722222222222222
15.8165909817,0.9777777777777777
17.1565292,0.9833333333333333
17.1565292,0.9888888888888889
17.8906998788,0.9944444444444445
17.8906998788,1.0
