Congestion,CDF
0.0,0.009433962264150943
0.0,0.018867924528301886
0.0,0.02830188679245283
0.0,0.03773584905660377
0.0,0.04716981132075472
0.0,0.05660377358490566
0.0,0.0660377358490566
0.0,0.07547169811320754
0.0,0.08490566037735849
0.0,0.09433962264150944
0.0,0.10377358490566038
0.0,0.11320754716981132
0.0,0.12264150943396226
0.0,0.1320754716981132
0.0,0.14150943396226415
0.0,0.1509433962264151
0.0,0.16037735849056603
0.0,0.16981132075471697
0.0,0.1792452830188679
0.0,0.18867924528301888
0.0,0.19811320754716982
0.0,0.20754716981132076
0.0,0.2169811320754717
0.0,0.22641509433962265
0.0,0.2358490566037736
0.0,0.24528301886792453
0.0,0.25471698113207547
0.0,0.2641509433962264
0.0,0.27358490566037735
0.0,0.2830188679245283
4.8884599917e-08,0.29245283018867924
1.25938523897e-06,0.3018867924528302
1.41620059445e-06,0.3113207547169811
1.91989234242e-06,0.32075471698113206
2.16721205894e-06,0.330188679245283
2.88374459164e-06,0.33962264150943394
4.39775482483e-06,0.3490566037735849
5.62935849226e-06,0.3584905660377358
5.95763171969e-06,0.36792452830188677
6.94856959496e-06,0.37735849056603776
7.60590712598e-06,0.3867924528301887
8.55535322329e-06,0.39622641509433965
8.75138838241e-06,0.4056603773584906
9.23357597063e-06,0.41509433962264153
5.91689516344e-05,0.42452830188679247
8.110531664e-05,0.4339622641509434
8.110531664e-05,0.44339622641509435
0.000181271929428,0.4528301886792453
0.00021110094346,0.46226415094339623
0.00021110094346,0.4716981132075472
0.00021110094346,0.4811320754716981
0.000216280844373,0.49056603773584906
0.000216280844373,0.5
0.000216280844373,0.5094339622641509
0.000333906745621,0.5188679245283019
0.00039875359111,0.5283018867924528
0.00039875359111,0.5377358490566038
0.000422201886919,0.5471698113207547
0.000422201886919,0.5566037735849056
0.000575967702727,0.5660377358490566
0.000734178442028,0.5754716981132075
0.000734178442028,0.5849056603773585
0.0009096645927,0.5943396226415094
0.0009096645927,0.6037735849056604
0.00114880330045,0.6132075471698113
0.00139728730596,0.6226415094339622
0.00188839161588,0.6320754716981132
0.0022817721378,0.6415094339622641
0.00229042733512,0.6509433962264151
0.00264183081733,0.660377358490566
0.00294465788037,0.6698113207547169
0.00298721918609,0.6792452830188679
0.00637684204779,0.6886792452830188
0.0185598672041,0.6981132075471698
0.024726881239,0.7075471698113207
0.0302362951831,0.7169811320754716
0.0316400107561,0.7264150943396226
0.0390237818636,0.7358490566037735
0.0395946493515,0.7452830188679245
0.0408060772572,0.7547169811320755
0.0442463054176,0.7641509433962265
0.0450714502636,0.7735849056603774
0.319026454525,0.7830188679245284
1.11359951301,0.7924528301886793
1.11359951301,0.8018867924528302
1.46339181989,0.8113207547169812
1.46339181989,0.8207547169811321
1.46339181989,0.8301886792452831
2.51685185072,0.839622641509434
2.92678363977,0.8490566037735849
2.92678363977,0.8584905660377359
2.96959870137,0.8679245283018868
2.96959870137,0.8773584905660378
2.96959870137,0.8867924528301887
4.99291751731,0.8962264150943396
4.99291751731,0.9056603773584906
5.77064458799,0.9150943396226415
5.77064458799,0.9245283018867925
6.28599073839,0.9339622641509434
6.36505652188,0.9433962264150944
6.80182706936,0.9528301886792453
6.80182706936,0.9622641509433962
16.2220827958,0.9716981132075472
16.4696262496,0.9811320754716981
21.2942862768,0.9905660377358491
50.8317003596,1.0
