Congestion,CDF
0.0,0.009433962264150943
0.0,0.018867924528301886
0.0,0.02830188679245283
0.0,0.03773584905660377
0.0,0.04716981132075472
0.0,0.05660377358490566
0.0,0.0660377358490566
0.0,0.07547169811320754
0.0,0.08490566037735849
0.0,0.09433962264150944
0.0,0.10377358490566038
0.0,0.11320754716981132
0.0,0.12264150943396226
0.0,0.1320754716981132
0.0,0.14150943396226415
0.0,0.1509433962264151
0.0,0.16037735849056603
0.0,0.16981132075471697
0.0,0.1792452830188679
0.0,0.18867924528301888
0.0,0.19811320754716982
0.0,0.20754716981132076
0.0,0.2169811320754717
0.0,0.22641509433962265
0.0,0.2358490566037736
0.0,0.24528301886792453
0.0,0.25471698113207547
0.0,0.2641509433962264
0.0,0.27358490566037735
0.0,0.2830188679245283
4.44334803573e-08,0.29245283018867924
1.14471365979e-06,0.3018867924528302
1.2872504102e-06,0.3113207547169811
1.74507920347e-06,0.32075471698113206
1.96987956564e-06,0.330188679245283
2.62116922069e-06,0.33962264150943394
3.99732334839e-06,0.3490566037735849
5.11678504917e-06,0.3584905660377358
5.41516781241e-06,0.36792452830188677
6.3158772115e-06,0.37735849056603776
7.77635738131e-06,0.3867924528301887
7.95454283044e-06,0.39622641509433965
8.39282549545e-06,0.4056603773584906
5.37814046688e-05,0.41509433962264153
7.37203843319e-05,0.42452830188679247
7.37203843319e-05,0.4339622641509434
0.000191879439344,0.44339622641509435
0.000191879439344,0.4528301886792453
0.000191879439344,0.46226415094339623
0.000196587691552,0.4716981132075472
0.000196587691552,0.4811320754716981
0.000196587691552,0.49056603773584906
0.000303503329227,0.5
0.000362445634987,0.5094339622641509
0.000362445634987,0.5188679245283019
0.000383758878688,0.5283018867924528
0.000383758878688,0.5377358490566038
0.000523523761041,0.5471698113207547
0.000667328840534,0.5566037735849056
0.000667328840534,0.5660377358490566
0.000826836342735,0.5754716981132075
0.000826836342735,0.5849056603773585
0.00104420060656,0.5943396226415094
0.00127005924501,0.6037735849056604
0.00171644673196,0.6132075471698113
0.00267653613425,0.6226415094339622
0.00271522207921,0.6320754716981132
0.00579620752452,0.6415094339622641
0.0226196972626,0.6509433962264151
0.0278483370135,0.660377358490566
0.035603452711,0.6698113207547169
0.0358068890545,0.6792452830188679
0.0435530125597,0.6886792452830188
0.04391740321,0.6981132075471698
0.046711081932,0.7075471698113207
0.0486359775113,0.7169811320754716
0.0494557600883,0.7264150943396226
0.0496917400364,0.7358490566037735
0.0513826416893,0.7452830188679245
0.0534541057574,0.7547169811320755
0.0537633171108,0.7641509433962265
0.562443415937,0.7735849056603774
1.39758018852,0.7830188679245284
1.39758018852,0.7924528301886793
1.85459100331,0.8018867924528302
1.85459100331,0.8113207547169812
1.85459100331,0.8207547169811321
3.70918200662,0.8301886792452831
3.70918200662,0.839622641509434
3.72688050273,0.8490566037735849
3.72688050273,0.8584905660377359
3.72688050273,0.8679245283018868
6.38883461903,0.8773584905660378
7.68823735398,0.8867924528301887
7.68823735398,0.8962264150943396
8.04352015836,0.9056603773584906
8.04352015836,0.9150943396226415
8.35450110404,0.9245283018867925
8.56907063106,0.9339622641509434
8.56907063106,0.9433962264150944
16.0542970183,0.9528301886792453
16.1000701956,0.9622641509433962
19.7542629819,0.9716981132075472
19.8470263879,0.9811320754716981
34.8516316097,0.9905660377358491
65.6175101313,1.0
