Congestion,CDF
0.0,0.009433962264150943
0.0,0.018867924528301886
0.0,0.02830188679245283
0.0,0.03773584905660377
0.0,0.04716981132075472
0.0,0.05660377358490566
0.0,0.0660377358490566
0.0,0.07547169811320754
0.0,0.08490566037735849
0.0,0.09433962264150944
0.0,0.10377358490566038
0.0,0.11320754716981132
0.0,0.12264150943396226
0.0,0.1320754716981132
0.0,0.14150943396226415
0.0,0.1509433962264151
0.0,0.16037735849056603
0.0,0.16981132075471697
0.0,0.1792452830188679
0.0,0.18867924528301888
0.0,0.19811320754716982
0.0,0.20754716981132076
0.0,0.2169811320754717
0.0,0.22641509433962265
0.0,0.2358490566037736
0.0,0.24528301886792453
0.0,0.25471698113207547
0.0,0.2641509433962264
0.0,0.27358490566037735
0.0,0.2830188679245283
1.66180711483e-07,0.29245283018867924
4.28121607619e-06,0.3018867924528302
4.81430190258e-06,0.3113207547169811
6.52657638551e-06,0.32075471698113206
7.36732718484e-06,0.330188679245283
9.80314309182e-06,0.33962264150943394
1.49499438874e-05,0.3490566037735849
1.91367179239e-05,0.3584905660377358
2.02526660668e-05,0.36792452830188677
2.36213089815e-05,0.37735849056603776
2.9083488216e-05,0.3867924528301887
2.97498997704e-05,0.39622641509433965
3.13890719558e-05,0.4056603773584906
0.000201141842154,0.41509433962264153
0.000275713399458,0.42452830188679247
0.000275713399458,0.4339622641509434
0.000717626922145,0.44339622641509435
0.000717626922145,0.4528301886792453
0.000717626922145,0.46226415094339623
0.000735235731887,0.4716981132075472
0.000735235731887,0.4811320754716981
0.000735235731887,0.49056603773584906
0.00113509900153,0.5
0.00135554255511,0.5094339622641509
0.00135554255511,0.5188679245283019
0.00143525384429,0.5283018867924528
0.00143525384429,0.5377358490566038
0.00195797291565,0.5471698113207547
0.00249580227839,0.5566037735849056
0.00249580227839,0.5660377358490566
0.00303241426912,0.5754716981132075
0.00305233603833,0.5849056603773585
0.00309235852358,0.5943396226415094
0.00309235852358,0.6037735849056604
0.00390529839961,0.6132075471698113
0.00412243433236,0.6226415094339622
0.00415363674333,0.6320754716981132
0.00418219409676,0.6415094339622641
0.00442085772706,0.6509433962264151
0.00475000714017,0.660377358490566
0.00567203909401,0.6698113207547169
0.00569235881635,0.6792452830188679
0.00637701190028,0.6886792452830188
0.00641949126753,0.6981132075471698
0.00692467443139,0.7075471698113207
0.00757978907988,0.7169811320754716
0.00797031428134,0.7264150943396226
0.00807128924244,0.7358490566037735
0.0100102147192,0.7452830188679245
0.0101548997136,0.7547169811320755
0.021677750259,0.7641509433962265
0.0712513500527,0.7735849056603774
0.159526099519,0.7830188679245284
0.159526099519,0.7924528301886793
0.213463455613,0.8018867924528302
0.213463455613,0.8113207547169812
0.213463455613,0.8207547169811321
0.425402932051,0.8301886792452831
0.425402932051,0.839622641509434
0.425402932051,0.8490566037735849
0.426926911226,0.8584905660377359
0.426926911226,0.8679245283018868
0.751872897074,0.8773584905660378
0.786907824854,0.8867924528301887
0.786907824854,0.8962264150943396
0.816970185523,0.9056603773584906
0.816970185523,0.9150943396226415
0.909724280737,0.9245283018867925
1.09864956476,0.9339622641509434
1.09864956476,0.9433962264150944
1.71445554964,0.9528301886792453
1.72790149662,0.9622641509433962
2.81725920604,0.9716981132075472
2.84755169437,0.9811320754716981
4.46726323713,0.9905660377358491
9.40361371072,1.0
