Congestion,CDF
0.0,0.009433962264150943
0.0,0.018867924528301886
0.0,0.02830188679245283
0.0,0.03773584905660377
0.0,0.04716981132075472
0.0,0.05660377358490566
0.0,0.0660377358490566
0.0,0.07547169811320754
0.0,0.08490566037735849
0.0,0.09433962264150944
0.0,0.10377358490566038
0.0,0.11320754716981132
0.0,0.12264150943396226
0.0,0.1320754716981132
0.0,0.14150943396226415
0.0,0.1509433962264151
0.0,0.16037735849056603
0.0,0.16981132075471697
0.0,0.1792452830188679
0.0,0.18867924528301888
0.0,0.19811320754716982
0.0,0.20754716981132076
0.0,0.2169811320754717
0.0,0.22641509433962265
0.0,0.2358490566037736
0.0,0.24528301886792453
0.0,0.25471698113207547
0.0,0.2641509433962264
0.0,0.27358490566037735
0.0,0.2830188679245283
1.60176579716e-07,0.29245283018867924
4.12653515558e-06,0.3018867924528302
4.64036051837e-06,0.3113207547169811
6.29077029075e-06,0.32075471698113206
7.10114464905e-06,0.330188679245283
9.44895419517e-06,0.33962264150943394
1.44098003762e-05,0.3490566037735849
1.84453056958e-05,0.3584905660377358
1.95209344802e-05,0.36792452830188677
2.2767867867e-05,0.37735849056603776
2.8032697821e-05,0.3867924528301887
2.8675031835e-05,0.39622641509433965
3.02549805059e-05,0.4056603773584906
0.00019387455997,0.41509433962264153
0.000265751836739,0.42452830188679247
0.000265751836739,0.4339622641509434
0.000691698963593,0.44339622641509435
0.000691698963593,0.4528301886792453
0.000691698963593,0.46226415094339623
0.000708671564638,0.4716981132075472
0.000708671564638,0.4811320754716981
0.000708671564638,0.49056603773584906
0.00109408771983,0.5
0.00130656661775,0.5094339622641509
0.00130656661775,0.5188679245283019
0.00138339792719,0.5283018867924528
0.00138339792719,0.5377358490566038
0.00188723108722,0.5471698113207547
0.00240562860175,0.5566037735849056
0.00240562860175,0.5660377358490566
0.00298063118846,0.5754716981132075
0.00298063118846,0.5849056603773585
0.00303241426912,0.5943396226415094
0.00305233603833,0.6037735849056604
0.00376419943591,0.6132075471698113
0.00457838873449,0.6226415094339622
0.00587483312268,0.6320754716981132
0.00618755417268,0.6415094339622641
0.00740039867415,0.6509433962264151
0.00751637546516,0.660377358490566
0.00841696017347,0.6698113207547169
0.00964854429642,0.6792452830188679
0.00978800180228,0.6886792452830188
0.0108761518038,0.6981132075471698
0.0109151149317,0.7075471698113207
0.0141616765465,0.7169811320754716
0.0182545513918,0.7264150943396226
0.0188907521837,0.7358490566037735
0.0208945301862,0.7452830188679245
0.0220655847248,0.7547169811320755
0.0223372424829,0.7641509433962265
0.152794391808,0.7735849056603774
0.305891769482,0.7830188679245284
0.305891769482,0.7924528301886793
0.40931680994,0.8018867924528302
0.40931680994,0.8113207547169812
0.40931680994,0.8207547169811321
0.815711385285,0.8301886792452831
0.815711385285,0.839622641509434
0.815711385285,0.8490566037735849
0.818633619879,0.8584905660377359
0.818633619879,0.8679245283018868
0.909724280737,0.8773584905660378
0.980286855932,0.8867924528301887
1.27379810324,0.8962264150943396
1.27379810324,0.9056603773584906
1.55978739645,0.9150943396226415
1.55978739645,0.9245283018867925
2.66651640851,0.9339622641509434
2.66651640851,0.9433962264150944
3.22487709814,0.9528301886792453
3.25097187611,0.9622641509433962
7.43684792003,0.9716981132075472
7.51834524746,0.9811320754716981
9.50225564627,0.9905660377358491
24.1777740339,1.0
