Congestion,CDF
0.0,0.009433962264150943
0.0,0.018867924528301886
0.0,0.02830188679245283
0.0,0.03773584905660377
0.0,0.04716981132075472
0.0,0.05660377358490566
0.0,0.0660377358490566
0.0,0.07547169811320754
0.0,0.08490566037735849
0.0,0.09433962264150944
0.0,0.10377358490566038
0.0,0.11320754716981132
0.0,0.12264150943396226
0.0,0.1320754716981132
0.0,0.14150943396226415
0.0,0.1509433962264151
0.0,0.16037735849056603
0.0,0.16981132075471697
0.0,0.1792452830188679
0.0,0.18867924528301888
0.0,0.19811320754716982
0.0,0.20754716981132076
0.0,0.2169811320754717
0.0,0.22641509433962265
0.0,0.2358490566037736
0.0,0.24528301886792453
0.0,0.25471698113207547
0.0,0.2641509433962264
0.0,0.27358490566037735
0.0,0.2830188679245283
1.80361125219e-07,0.29245283018867924
4.64653774749e-06,0.3018867924528302
5.22511247272e-06,0.3113207547169811
7.08349753841e-06,0.32075471698113206
7.60590712598e-06,0.330188679245283
7.99599068423e-06,0.33962264150943394
8.5856968531e-06,0.3490566037735849
1.06396578938e-05,0.3584905660377358
1.62256418174e-05,0.36792452830188677
2.07696786646e-05,0.37735849056603776
2.16011487182e-05,0.3867924528301887
2.19808520971e-05,0.39622641509433965
2.36019450412e-05,0.4056603773584906
2.56369456421e-05,0.41509433962264153
2.75276763337e-05,0.42452830188679247
3.15652196523e-05,0.4339622641509434
3.22884969614e-05,0.44339622641509435
3.40675418165e-05,0.4528301886792453
3.65800309327e-05,0.46226415094339623
0.000114748578035,0.4716981132075472
0.00013645166098,0.4811320754716981
0.000157848946113,0.49056603773584906
0.000218305534113,0.5
0.000299240378263,0.5094339622641509
0.000299240378263,0.5188679245283019
0.000778862949922,0.5283018867924528
0.000778862949922,0.5377358490566038
0.000778862949922,0.5471698113207547
0.000797974342035,0.5566037735849056
0.000797974342035,0.5660377358490566
0.000797974342035,0.5754716981132075
0.00123195845851,0.5849056603773585
0.00147121274389,0.5943396226415094
0.00147121274389,0.6037735849056604
0.00155772589984,0.6132075471698113
0.00155772589984,0.6226415094339622
0.00212504926152,0.6320754716981132
0.0022817721378,0.6415094339622641
0.00270877229517,0.6509433962264151
0.00270877229517,0.660377358490566
0.00322730375722,0.6698113207547169
0.00322730375722,0.6792452830188679
0.00323869970267,0.6886792452830188
0.00335623345163,0.6981132075471698
0.00335623345163,0.7075471698113207
0.00423854253232,0.7169811320754716
0.00511693728675,0.7264150943396226
0.00511693728675,0.7358490566037735
0.00511693728675,0.7452830188679245
0.00515533135558,0.7547169811320755
0.00696727470965,0.7641509433962265
0.00753223533069,0.7735849056603774
0.00784443156408,0.7830188679245284
0.00860614335259,0.7924528301886793
0.00860614335259,0.8018867924528302
0.00860614335259,0.8113207547169812
0.00949513595308,0.8207547169811321
0.00949513595308,0.8301886792452831
0.00972022553941,0.839622641509434
0.00972022553941,0.8490566037735849
0.0102338745735,0.8584905660377359
0.0102338745735,0.8679245283018868
0.0108643992093,0.8773584905660378
0.0110214303603,0.8867924528301887
0.0116520073314,0.8962264150943396
0.0169469307091,0.9056603773584906
0.0175967932013,0.9150943396226415
0.0179507324993,0.9245283018867925
0.0235275405554,0.9339622641509434
0.0458492105339,0.9433962264150944
0.371418723273,0.9528301886792453
0.371418723273,0.9622641509433962
0.555239829468,0.9716981132075472
5.09349922169,0.9811320754716981
5.28845796937,0.9905660377358491
13.1368527546,1.0
