Congestion,CDF
0.0,0.009433962264150943
0.0,0.018867924528301886
0.0,0.02830188679245283
0.0,0.03773584905660377
0.0,0.04716981132075472
0.0,0.05660377358490566
0.0,0.0660377358490566
0.0,0.07547169811320754
0.0,0.08490566037735849
0.0,0.09433962264150944
0.0,0.10377358490566038
0.0,0.11320754716981132
0.0,0.12264150943396226
0.0,0.1320754716981132
0.0,0.14150943396226415
0.0,0.1509433962264151
0.0,0.16037735849056603
0.0,0.16981132075471697
0.0,0.1792452830188679
0.0,0.18867924528301888
0.0,0.19811320754716982
0.0,0.20754716981132076
0.0,0.2169811320754717
0.0,0.22641509433962265
0.0,0.2358490566037736
0.0,0.24528301886792453
0.0,0.25471698113207547
0.0,0.2641509433962264
0.0,0.27358490566037735
0.0,0.2830188679245283
1.61682597019e-07,0.29245283018867924
4.16533379491e-06,0.3018867924528302
4.68399026277e-06,0.3113207547169811
6.3499175701e-06,0.32075471698113206
7.16791125582e-06,0.330188679245283
9.5377954511e-06,0.33962264150943394
1.45452846569e-05,0.3490566037735849
1.86187327323e-05,0.3584905660377358
1.97044748276e-05,0.36792452830188677
2.29819366342e-05,0.37735849056603776
2.82962677389e-05,0.3867924528301887
2.89446411261e-05,0.39622641509433965
3.05394448403e-05,0.4056603773584906
0.000195697413488,0.41509433962264153
0.000268250497062,0.42452830188679247
0.000268250497062,0.4339622641509434
0.000698202477462,0.44339622641509435
0.000698202477462,0.4528301886792453
0.000698202477462,0.46226415094339623
0.000715334658832,0.4716981132075472
0.000715334658832,0.4811320754716981
0.000715334658832,0.49056603773584906
0.00110437458598,0.5
0.00131885125972,0.5094339622641509
0.00131885125972,0.5188679245283019
0.00139640495492,0.5283018867924528
0.00139640495492,0.5377358490566038
0.00190497527103,0.5471698113207547
0.00242824687906,0.5566037735849056
0.00242824687906,0.5660377358490566
0.00300865577327,0.5754716981132075
0.00300865577327,0.5849056603773585
0.00303241426912,0.5943396226415094
0.00305233603833,0.6037735849056604
0.00379959131088,0.6132075471698113
0.00462143580583,0.6226415094339622
0.00514783142446,0.6320754716981132
0.00604336152041,0.6415094339622641
0.00613772834561,0.6509433962264151
0.00620256449837,0.660377358490566
0.00624573099018,0.6698113207547169
0.00869463282054,0.6792452830188679
0.00872578079428,0.6886792452830188
0.00973926214471,0.6981132075471698
0.00988003086234,0.7075471698113207
0.0110946150011,0.7169811320754716
0.0133940816588,0.7264150943396226
0.0143516924887,0.7358490566037735
0.0163178001601,0.7452830188679245
0.0165209341669,0.7547169811320755
0.0210909853986,0.7641509433962265
0.118715773187,0.7735849056603774
0.244536548078,0.7830188679245284
0.244536548078,0.7924528301886793
0.327216779786,0.8018867924528302
0.327216779786,0.8113207547169812
0.327216779786,0.8207547169811321
0.65209746154,0.8301886792452831
0.65209746154,0.839622641509434
0.65209746154,0.8490566037735849
0.654433559571,0.8584905660377359
0.654433559571,0.8679245283018868
0.877927888397,0.8773584905660378
0.909724280737,0.8867924528301887
1.06908016817,0.8962264150943396
1.06908016817,0.9056603773584906
1.18773763898,0.9150943396226415
1.18773763898,0.9245283018867925
1.99678331953,0.9339622641509434
1.99678331953,0.9433962264150944
2.54749398108,0.9528301886792453
2.56872651675,0.9622641509433962
5.5486055586,0.9716981132075472
5.60954576061,0.9811320754716981
7.41620248392,0.9905660377358491
18.1260368252,1.0
