Congestion,CDF
0.0,0.009433962264150943
0.0,0.018867924528301886
0.0,0.02830188679245283
0.0,0.03773584905660377
0.0,0.04716981132075472
0.0,0.05660377358490566
0.0,0.0660377358490566
0.0,0.07547169811320754
0.0,0.08490566037735849
0.0,0.09433962264150944
0.0,0.10377358490566038
0.0,0.11320754716981132
0.0,0.12264150943396226
0.0,0.1320754716981132
0.0,0.14150943396226415
0.0,0.1509433962264151
0.0,0.16037735849056603
0.0,0.16981132075471697
0.0,0.1792452830188679
0.0,0.18867924528301888
0.0,0.19811320754716982
0.0,0.20754716981132076
0.0,0.2169811320754717
0.0,0.22641509433962265
0.0,0.2358490566037736
0.0,0.24528301886792453
0.0,0.25471698113207547
0.0,0.2641509433962264
0.0,0.27358490566037735
0.0,0.2830188679245283
1.69589258856e-07,0.29245283018867924
4.36902848041e-06,0.3018867924528302
4.91304847766e-06,0.3113207547169811
6.660443575e-06,0.32075471698113206
7.51843908885e-06,0.330188679245283
7.60590712598e-06,0.33962264150943394
8.5856968531e-06,0.3490566037735849
1.00042162328e-05,0.3584905660377358
1.52565835179e-05,0.36792452830188677
1.95292328495e-05,0.37735849056603776
2.06680703042e-05,0.3867924528301887
2.36019450412e-05,0.39622641509433965
2.41058077537e-05,0.4056603773584906
2.75276763337e-05,0.41509433962264153
2.96800222329e-05,0.42452830188679247
3.03601026141e-05,0.4339622641509434
3.20328960062e-05,0.44339622641509435
3.65800309327e-05,0.4528301886792453
4.57340754686e-05,0.46226415094339623
0.000205267480392,0.4716981132075472
0.000281368581549,0.4811320754716981
0.000281368581549,0.49056603773584906
0.000438316027808,0.5
0.000465488570356,0.5094339622641509
0.000732346231856,0.5188679245283019
0.000732346231856,0.5283018867924528
0.000732346231856,0.5377358490566038
0.000750316217463,0.5471698113207547
0.000750316217463,0.5566037735849056
0.000750316217463,0.5660377358490566
0.0010059780238,0.5754716981132075
0.00115838111824,0.5849056603773585
0.00138334620918,0.5943396226415094
0.00138334620918,0.6037735849056604
0.00146469246371,0.6132075471698113
0.00146469246371,0.6226415094339622
0.0019981330725,0.6320754716981132
0.0022817721378,0.6415094339622641
0.0025469939012,0.6509433962264151
0.0025469939012,0.660377358490566
0.00315578616466,0.6698113207547169
0.00315578616466,0.6792452830188679
0.00398540032289,0.6886792452830188
0.00484743495965,0.6981132075471698
0.00655116202463,0.7075471698113207
0.0102155351248,0.7169811320754716
0.0103631877661,0.7264150943396226
0.0117861454831,0.7358490566037735
0.0119366165203,0.7452830188679245
0.0123276382821,0.7547169811320755
0.0123276382821,0.7641509433962265
0.0174558213883,0.7735849056603774
0.0174558213883,0.7830188679245284
0.0174558213883,0.7924528301886793
0.0183791574943,0.8018867924528302
0.0205283618479,0.8113207547169812
0.0211093224423,0.8207547169811321
0.0221223845252,0.8301886792452831
0.0280747231405,0.839622641509434
0.0280747231405,0.8490566037735849
0.0300065049324,0.8584905660377359
0.0305645878136,0.8679245283018868
0.0305645878136,0.8773584905660378
0.0328737020856,0.8867924528301887
0.0328737020856,0.8962264150943396
0.0328737020856,0.9056603773584906
0.0349116427767,0.9150943396226415
0.0349116427767,0.9245283018867925
0.0363052301004,0.9339622641509434
0.0674198642472,0.9433962264150944
1.35136087117,0.9528301886792453
1.35136087117,0.9622641509433962
2.14436068578,0.9716981132075472
6.1924012268,0.9811320754716981
6.36668940513,0.9905660377358491
17.9418900829,1.0
