Congestion,CDF
0.0,0.005555555555555556
0.0,0.011111111111111112
0.0,0.016666666666666666
0.0,0.022222222222222223
0.0,0.027777777777777776
0.0,0.03333333333333333
0.0,0.03888888888888889
0.0,0.044444444444444446
0.0,0.05
0.0,0.05555555555555555
3.11043659604e-07,0.06111111111111111
3.57374205839e-07,0.06666666666666667
8.04419727717e-07,0.07222222222222222
1.1757062251e-06,0.07777777777777778
1.20303679271e-06,0.08333333333333333
1.58842270553e-06,0.08888888888888889
1.74747520786e-06,0.09444444444444444
2.4084193175e-06,0.1
2.42084447327e-06,0.10555555555555556
2.47675113605e-06,0.1111111111111111
2.52772551622e-06,0.11666666666666667
2.782509386e-06,0.12222222222222222
2.84704902373e-06,0.12777777777777777
3.17928221399e-06,0.13333333333333333
3.25622370502e-06,0.1388888888888889
3.42884503778e-06,0.14444444444444443
3.96482026828e-06,0.15
4.33912817539e-06,0.15555555555555556
4.53092383091e-06,0.16111111111111112
4.71234709898e-06,0.16666666666666666
4.78690610486e-06,0.17222222222222222
4.82535130013e-06,0.17777777777777778
4.98522207182e-06,0.18333333333333332
5.1584490368e-06,0.18888888888888888
5.24552586171e-06,0.19444444444444445
5.30476460284e-06,0.2
5.33419546226e-06,0.20555555555555555
5.39545008815e-06,0.2111111111111111
5.4481733966e-06,0.21666666666666667
5.46012884001e-06,0.2222222222222222
5.64256577037e-06,0.22777777777777777
5.6896409844e-06,0.23333333333333334
5.7549545209e-06,0.2388888888888889
6.23230707326e-06,0.24444444444444444
6.55801674102e-06,0.25
7.1200986529e-06,0.25555555555555554
7.23289676355e-06,0.2611111111111111
7.33698339111e-06,0.26666666666666666
7.58544986445e-06,0.2722222222222222
2.68139909239e-05,0.2777777777777778
5.36279818478e-05,0.2833333333333333
5.87853112551e-05,0.28888888888888886
5.87853112551e-05,0.29444444444444445
6.05211118318e-05,0.3
6.05211118318e-05,0.3055555555555556
9.16254777922e-05,0.3111111111111111
0.000120303679271,0.31666666666666665
0.000121042223664,0.32222222222222224
0.000161159428235,0.3277777777777778
0.00024084193175,0.3333333333333333
0.000250467748345,0.3388888888888889
0.000265238230142,0.34444444444444444
0.000265238230142,0.35
0.000338772050431,0.35555555555555557
0.00051584490368,0.3611111111111111
0.000524552586171,0.36666666666666664
0.000541320441268,0.37222222222222223
0.000583166451541,0.37777777777777777
0.000616995457562,0.38333333333333336
0.000616995457562,0.3888888888888889
0.000703560131436,0.39444444444444443
0.000743534386597,0.4
0.000799498858895,0.40555555555555556
0.000854740562775,0.4111111111111111
0.00106185778768,0.4166666666666667
0.00112271146036,0.4222222222222222
0.0011812520346,0.42777777777777776
0.00145223173704,0.43333333333333335
0.00170500428866,0.4388888888888889
0.00178513574542,0.4444444444444444
0.00220432682795,0.45
0.00249714561071,0.45555555555555555
0.00444275066284,0.46111111111111114
0.0054050045351,0.4666666666666667
0.00565751975933,0.4722222222222222
0.00616354952155,0.4777777777777778
0.00631332143344,0.48333333333333334
0.00664224013203,0.4888888888888889
0.00671499124847,0.49444444444444446
0.0071114732753,0.5
0.00768043737374,0.5055555555555555
0.00772837791296,0.5111111111111111
0.00785518489452,0.5166666666666667
0.00797605302656,0.5222222222222223
0.00826075792894,0.5277777777777778
0.018264621769,0.5333333333333333
0.018587844532,0.5388888888888889
0.023766165368,0.5444444444444444
0.0240064304522,0.55
0.0240173117145,0.5555555555555556
0.0240202627162,0.5611111111111111
0.024044771235,0.5666666666666667
0.0240463343486,0.5722222222222222
0.0240693128288,0.5777777777777777
0.0240918484334,0.5833333333333334
0.0241396950654,0.5888888888888889
0.0241405969186,0.5944444444444444
0.0241468888277,0.6
0.0241617735454,0.6055555555555555
0.0241842106986,0.6111111111111112
0.0241893940567,0.6166666666666667
0.0241934588608,0.6222222222222222
0.0241959659354,0.6277777777777778
0.0242401989289,0.6333333333333333
0.0242526049054,0.6388888888888888
0.0242635469822,0.6444444444444445
0.0242694022748,0.65
0.0242728887719,0.6555555555555556
0.0242740844404,0.6611111111111111
0.0242902622478,0.6666666666666666
0.0242996905972,0.6722222222222223
0.0243054513997,0.6777777777777778
0.0243084671285,0.6833333333333333
0.0243106083906,0.6888888888888889
0.024313524888,0.6944444444444444
0.0243172937201,0.7
0.0243286195384,0.7055555555555556
0.0243349697146,0.7111111111111111
0.0243627768351,0.7166666666666667
0.0243807513981,0.7222222222222222
0.0244144846672,0.7277777777777777
0.024420733613,0.7333333333333333
0.0244275131982,0.7388888888888889
0.0244395524393,0.7444444444444445
0.603514922966,0.75
0.603514922966,0.7555555555555555
0.801544478286,0.7611111111111111
0.933094313386,0.7666666666666667
1.20223856175,0.7722222222222223
1.20223856175,0.7777777777777778
1.20702984593,0.7833333333333333
1.21542335643,0.7888888888888889
1.21542335643,0.7944444444444444
1.60308895657,0.8
2.40693128288,0.8055555555555556
2.41396950654,0.8111111111111111
2.42996905972,0.8166666666666667
2.43054513997,0.8222222222222222
3.00524609442,0.8277777777777777
3.01969227751,0.8333333333333334
3.62625845464,0.8388888888888889
3.63384442629,0.8444444444444444
3.64978116576,0.85
3.835904764,0.8555555555555555
3.835904764,0.8611111111111112
4.84320896639,0.8666666666666667
4.86169843173,0.8722222222222222
5.41443093776,0.8777777777777778
6.06519691509,0.8833333333333333
6.24649724634,0.8888888888888888
6.26876671784,0.8944444444444445
7.84078563598,0.9
11.1283380826,0.9055555555555556
12.484428282,0.9111111111111111
13.9036754704,0.9166666666666666
14.8991171647,0.9222222222222223
16.3451239371,0.9277777777777778
28.4585160864,0.9333333333333333
29.7140926453,0.9388888888888889
32.1580478892,0.9444444444444444
34.5849881167,0.95
35.7291334968,0.9555555555555556
38.1672086366,0.9611111111111111
40.6385354485,0.9666666666666667
41.7887930845,0.9722222222222222
43.0151519853,0.9777777777777777
44.208389678,0.9833333333333333
44.8416141622,0.9888888888888889
46.6090327232,0.9944444444444445
48.4678171764,1.0
