Congestion,CDF
0.0,0.005555555555555556
0.0,0.011111111111111112
0.0,0.016666666666666666
0.0,0.022222222222222223
0.0,0.027777777777777776
0.0,0.03333333333333333
0.0,0.03888888888888889
0.0,0.044444444444444446
0.0,0.05
0.0,0.05555555555555555
4.24140763552e-07,0.06111111111111111
4.87317339087e-07,0.06666666666666667
1.09691095444e-06,0.07222222222222222
1.60319916716e-06,0.07777777777777778
1.64046727231e-06,0.08333333333333333
2.16598152177e-06,0.08888888888888889
2.38286634709e-06,0.09444444444444444
3.28413319718e-06,0.1
3.30107620467e-06,0.10555555555555556
3.37731082289e-06,0.1111111111111111
3.4468197547e-06,0.11666666666666667
3.79424437414e-06,0.12222222222222222
3.88225096223e-06,0.12777777777777777
4.33528588078e-06,0.13333333333333333
4.44020370098e-06,0.1388888888888889
4.67559105457e-06,0.14444444444444443
5.40644968643e-06,0.15
5.91685790927e-06,0.15555555555555556
6.1783914698e-06,0.16111111111111112
6.42578118848e-06,0.16666666666666666
6.52745023946e-06,0.17222222222222222
6.5798743091e-06,0.17777777777777778
6.79787493082e-06,0.18333333333333332
7.03408812768e-06,0.18888888888888888
7.15282654224e-06,0.19444444444444445
7.23360479995e-06,0.2
7.27373687403e-06,0.20555555555555555
7.35726400276e-06,0.2111111111111111
7.42915778233e-06,0.21666666666666667
7.44546028759e-06,0.2222222222222222
7.69423224147e-06,0.22777777777777777
7.75842424992e-06,0.23333333333333334
7.84748613042e-06,0.2388888888888889
8.49840657129e-06,0.24444444444444444
8.94254598039e-06,0.25
9.70900381974e-06,0.25555555555555554
9.86281591428e-06,0.2611111111111111
1.00047489849e-05,0.26666666666666666
1.03435591694e-05,0.2722222222222222
3.65636984814e-05,0.2777777777777778
7.31273969628e-05,0.2833333333333333
8.01599583578e-05,0.28888888888888886
8.01599583578e-05,0.29444444444444445
8.25269051167e-05,0.3
8.25269051167e-05,0.3055555555555556
0.000124940981472,0.3111111111111111
0.000164046727231,0.31666666666666665
0.000165053810233,0.32222222222222224
0.000219757840529,0.3277777777777778
0.000328413319718,0.3333333333333333
0.000341539133649,0.3388888888888889
0.000361680239998,0.34444444444444444
0.000361680239998,0.35
0.000461951342531,0.35555555555555557
0.000703408812768,0.3611111111111111
0.000715282654224,0.36666666666666664
0.000738147389268,0.37222222222222223
0.000795208828076,0.37777777777777777
0.00084133823789,0.38333333333333336
0.00084133823789,0.3888888888888889
0.000959378280629,0.39444444444444443
0.00101388738436,0.4
0.00109020083194,0.40555555555555556
0.00116552870872,0.4111111111111111
0.00144795484153,0.4166666666666667
0.00153093522835,0.4222222222222222
0.00161076146204,0.42777777777777776
0.00198027080374,0.43333333333333335
0.00232495277921,0.4388888888888889
0.00243422045339,0.4444444444444444
0.00300583160934,0.45
0.00340512083536,0.45555555555555555
0.00605815807595,0.46111111111111114
0.00654635745637,0.4666666666666667
0.00660527592494,0.4722222222222222
0.00737029249667,0.4777777777777778
0.00737615669186,0.48333333333333334
0.00744109603462,0.4888888888888889
0.00751658257347,0.49444444444444446
0.00752580551894,0.5
0.00752663233888,0.5055555555555555
0.00753220790008,0.5111111111111111
0.00753691178881,0.5166666666666667
0.00754177716532,0.5222222222222223
0.00754418778584,0.5277777777777778
0.00754736324184,0.5333333333333333
0.00755202884873,0.5388888888888889
0.00755236088818,0.5444444444444444
0.00755375255577,0.55
0.0075551148367,0.5555555555555556
0.0075569559473,0.5611111111111111
0.00755939166963,0.5666666666666667
0.00756120362722,0.5722222222222222
0.007562857689,0.5777777777777777
0.00757328004866,0.5833333333333334
0.00757641969438,0.5888888888888889
0.00757856841395,0.5944444444444444
0.00758078990904,0.6
0.00758445507482,0.6055555555555555
0.0075859438335,0.6111111111111112
0.007587709859,0.6166666666666667
0.00758801050649,0.6222222222222222
0.00758880168739,0.6277777777777778
0.0075889116706,0.6333333333333333
0.00758971563798,0.6388888888888888
0.00759267454738,0.6444444444444445
0.00759387208172,0.65
0.00759979463377,0.6555555555555556
0.00760286049376,0.6611111111111111
0.00761079872809,0.6666666666666666
0.00761187970303,0.6722222222222223
0.00761388280124,0.6777777777777778
0.00761457727785,0.6833333333333333
0.00771462357916,0.6888888888888889
0.00840464841361,0.6944444444444444
0.0086088781772,0.7
0.00905739343755,0.7055555555555556
0.00915659724101,0.7111111111111111
0.00969724220966,0.7166666666666667
0.0104730846346,0.7222222222222222
0.0105384566051,0.7277777777777777
0.0107113712694,0.7333333333333333
0.0108761876873,0.7388888888888889
0.0112644127836,0.7444444444444445
0.188809022204,0.75
0.188809022204,0.7555555555555555
0.251073596669,0.7611111111111111
0.292956967086,0.7666666666666667
0.375829128673,0.7722222222222223
0.375829128673,0.7777777777777778
0.377618044409,0.7833333333333333
0.379400525324,0.7888888888888889
0.379400525324,0.7944444444444444
0.502147193339,0.8
0.753691178881,0.8055555555555556
0.755202884873,0.8111111111111111
0.75859438335,0.8166666666666667
0.7587709859,0.8222222222222222
0.941389574099,0.8277777777777777
0.944504616934,0.8333333333333334
1.13056545286,0.8388888888888889
1.13552088805,0.8444444444444444
1.13900632453,0.85
1.19871964339,0.8555555555555555
1.19871964339,0.8611111111111112
1.51367064226,0.8666666666666667
1.51756594715,0.8722222222222222
1.69556729063,0.8777777777777778
1.89441205511,0.8833333333333333
1.95322018304,0.8888888888888888
1.95798709812,0.8944444444444445
2.45342413203,0.9
3.4752035915,0.9055555555555556
3.90460306031,0.9111111111111111
4.3474147504,0.9166666666666666
4.65997831589,0.9222222222222223
5.10849462321,0.9277777777777778
8.89406207614,0.9333333333333333
9.28166059576,0.9388888888888889
10.0431183235,0.9444444444444444
10.8004463284,0.95
11.1658117093,0.9555555555555556
11.9260977587,0.9611111111111111
12.6865232649,0.9666666666666667
13.0578660543,0.9722222222222222
13.4241389341,0.9777777777777777
13.8122848329,0.9833333333333333
14.0787746798,0.9888888888888889
14.5563944364,0.9944444444444445
15.2169220289,1.0
