Congestion,CDF
0.0,0.005555555555555556
0.0,0.011111111111111112
0.0,0.016666666666666666
0.0,0.022222222222222223
0.0,0.027777777777777776
0.0,0.03333333333333333
0.0,0.03888888888888889
0.0,0.044444444444444446
0.0,0.05
0.0,0.05555555555555555
5.06249566528e-07,0.06111111111111111
5.81656404842e-07,0.06666666666666667
1.30926037516e-06,0.07222222222222222
1.91356019788e-06,0.07777777777777778
1.95804298214e-06,0.08333333333333333
2.58529078253e-06,0.08888888888888889
2.84416203057e-06,0.09444444444444444
3.9199038394e-06,0.1
3.94012681944e-06,0.10555555555555556
4.03111958823e-06,0.1111111111111111
4.11408465459e-06,0.11666666666666667
4.52876670854e-06,0.12222222222222222
4.63381036598e-06,0.12777777777777777
5.17454766559e-06,0.13333333333333333
5.29977637634e-06,0.1388888888888889
5.5807320306e-06,0.14444444444444443
6.45307653829e-06,0.15
7.06229395801e-06,0.15555555555555556
7.37445742596e-06,0.16111111111111112
7.66973896598e-06,0.16666666666666666
7.79108998293e-06,0.17222222222222222
7.85366275314e-06,0.17777777777777778
8.113865803e-06,0.18333333333333332
8.39580717434e-06,0.18888888888888888
8.53753198852e-06,0.19444444444444445
8.63394799346e-06,0.2
8.68184917828e-06,0.20555555555555555
8.78154620424e-06,0.2111111111111111
8.86735779763e-06,0.21666666666666667
8.88681628153e-06,0.2222222222222222
9.18374764169e-06,0.22777777777777777
9.26036648912e-06,0.23333333333333334
9.36666973151e-06,0.2388888888888889
1.01436009283e-05,0.24444444444444444
1.06737206495e-05,0.25
1.15885559643e-05,0.25555555555555554
1.17721443219e-05,0.2611111111111111
1.19415540124e-05,0.26666666666666666
1.23459539753e-05,0.2722222222222222
4.36420125052e-05,0.2777777777777778
8.72840250104e-05,0.2833333333333333
9.5678009894e-05,0.28888888888888886
9.5678009894e-05,0.29444444444444445
9.85031704861e-05,0.3
9.85031704861e-05,0.3055555555555556
0.000149128127139,0.3111111111111111
0.000195804298214,0.31666666666666665
0.000197006340972,0.32222222222222224
0.000262300446148,0.3277777777777778
0.00039199038394,0.3333333333333333
0.000407657205392,0.3388888888888889
0.000431697399673,0.34444444444444444
0.000431697399673,0.35
0.000551379841341,0.35555555555555557
0.000839580717434,0.3611111111111111
0.000853753198852,0.36666666666666664
0.000881044285208,0.37222222222222223
0.000949152166232,0.37777777777777777
0.00100421170243,0.38333333333333336
0.00100421170243,0.3888888888888889
0.00114510294799,0.39444444444444443
0.00121016439104,0.4
0.00130125124965,0.40555555555555556
0.00139116174221,0.4111111111111111
0.00172826234559,0.4166666666666667
0.00182730678666,0.4222222222222222
0.0019225864666,0.42777777777777776
0.00236362859256,0.43333333333333335
0.00277503705802,0.4388888888888889
0.00290545770475,0.4444444444444444
0.00358772624575,0.45
0.00406431330118,0.45555555555555555
0.00450658524813,0.46111111111111114
0.00453729219333,0.4666666666666667
0.00491689430863,0.4722222222222222
0.00496030237943,0.4777777777777778
0.00500811354941,0.48333333333333334
0.00501710345802,0.4888888888888889
0.00501773610048,0.49444444444444446
0.00502144849019,0.5
0.00502450126733,0.5055555555555555
0.00502579367591,0.5111111111111111
0.00502691324696,0.5166666666666667
0.00502775100958,0.5222222222222223
0.00503207618846,0.5277777777777778
0.00503458606471,0.5333333333333333
0.00503486448605,0.5388888888888889
0.00503581068512,0.5444444444444444
0.00503795172896,0.55
0.00503833115936,0.5555555555555556
0.00504056431046,0.5611111111111111
0.00504187927674,0.5666666666666667
0.00504690708474,0.5722222222222222
0.00505092751166,0.5777777777777777
0.00505227813216,0.5833333333333334
0.00505375279187,0.5888888888888889
0.00505627059625,0.5944444444444444
0.00505706012754,0.6
0.0050584404383,0.6055555555555555
0.00505850404238,0.6111111111111112
0.00505903546683,0.6166666666666667
0.00505916373048,0.6222222222222222
0.00505957454664,0.6277777777777778
0.00506175008619,0.6333333333333333
0.00506248100022,0.6388888888888888
0.00506642227464,0.6444444444444445
0.00506820053768,0.65
0.00507372235121,0.6555555555555556
0.00507435008504,0.6611111111111111
0.0050757023695,0.6666666666666666
0.00507589584383,0.6722222222222223
0.00723094822159,0.6777777777777778
0.00879709686562,0.6833333333333333
0.00920808650924,0.6888888888888889
0.0100316922632,0.6944444444444444
0.0102754585742,0.7
0.0108108012614,0.7055555555555556
0.0109292097871,0.7111111111111111
0.011574517441,0.7166666666666667
0.0125005540899,0.7222222222222222
0.0125785813264,0.7277777777777777
0.0127849702929,0.7333333333333333
0.0129816932852,0.7388888888888889
0.0134450743218,0.7444444444444445
0.125871612151,0.75
0.125871612151,0.7555555555555555
0.16738161634,0.7611111111111111
0.195556937844,0.7666666666666667
0.25040567747,0.7722222222222223
0.25040567747,0.7777777777777778
0.251743224303,0.7833333333333333
0.252925202119,0.7888888888888889
0.252925202119,0.7944444444444444
0.334763232679,0.8
0.502450126733,0.8055555555555556
0.503458606471,0.8111111111111111
0.505706012754,0.8166666666666667
0.50584404383,0.8222222222222222
0.627581957954,0.8277777777777777
0.629666785047,0.8333333333333334
0.753097002166,0.8388888888888889
0.756981633165,0.8444444444444444
0.759332808686,0.85
0.799141984519,0.8555555555555555
0.799141984519,0.8611111111111112
1.0090923542,0.8666666666666667
1.01166346742,0.8722222222222222
1.13035705891,0.8777777777777778
1.26288517985,0.8833333333333333
1.30214115255,0.8888888888888888
1.30531699314,0.8944444444444445
1.63558487213,0.9
2.31678809659,0.9055555555555556
2.60305674712,0.9111111111111111
2.89821678074,0.9166666666666666
3.10663781563,0.9222222222222223
3.40558901586,0.9277777777777778
5.92934228527,0.9333333333333333
6.18757267163,0.9388888888888889
6.69514290858,0.9444444444444444
7.19983361705,0.95
7.44380991866,0.9555555555555556
7.95062997242,0.9611111111111111
8.45613823807,0.9666666666666667
8.70486876583,0.9722222222222222
8.94782766893,0.9777777777777777
9.20744813342,0.9833333333333333
9.39848619374,0.9888888888888889
9.70347837136,0.9944444444444445
10.1572075907,1.0
