Congestion,CDF
0.0,0.007352941176470588
0.0,0.014705882352941176
0.0,0.022058823529411766
0.0,0.029411764705882353
0.0,0.03676470588235294
0.0,0.04411764705882353
0.0,0.051470588235294115
0.0,0.058823529411764705
0.0,0.0661764705882353
0.0,0.07352941176470588
0.0,0.08088235294117647
0.0,0.08823529411764706
0.0,0.09558823529411764
0.0,0.10294117647058823
1.50981980252e-05,0.11029411764705882
1.50981980252e-05,0.11764705882352941
1.50981980252e-05,0.125
1.50981980252e-05,0.1323529411764706
1.50981980252e-05,0.13970588235294118
1.50981980252e-05,0.14705882352941177
1.50981980252e-05,0.15441176470588236
1.50981980252e-05,0.16176470588235295
1.50981980252e-05,0.16911764705882354
1.50981980252e-05,0.17647058823529413
1.50981980252e-05,0.18382352941176472
1.50981980252e-05,0.19117647058823528
1.50981980252e-05,0.19852941176470587
1.50981980252e-05,0.20588235294117646
1.50981980252e-05,0.21323529411764705
1.50981980252e-05,0.22058823529411764
1.50981980252e-05,0.22794117647058823
1.50981980252e-05,0.23529411764705882
1.50981980252e-05,0.2426470588235294
1.50981980252e-05,0.25
1.50981980252e-05,0.25735294117647056
1.50981980252e-05,0.2647058823529412
1.50981980252e-05,0.27205882352941174
1.50981980252e-05,0.27941176470588236
1.50981980252e-05,0.2867647058823529
1.50981980252e-05,0.29411764705882354
1.50981980252e-05,0.3014705882352941
0.000377454950631,0.3088235294117647
0.000377454950631,0.3161764705882353
0.000407651346681,0.3235294117647059
0.000754909901262,0.33088235294117646
0.000754909901262,0.3382352941176471
0.000754909901262,0.34558823529411764
0.000754909901262,0.35294117647058826
0.00113236485189,0.3602941176470588
0.00125818316877,0.36764705882352944
0.00125818316877,0.375
0.00125818316877,0.38235294117647056
0.00150981980252,0.3897058823529412
0.00150981980252,0.39705882352941174
0.00150981980252,0.40441176470588236
0.00150981980252,0.4117647058823529
0.00150981980252,0.41911764705882354
0.00150981980252,0.4264705882352941
0.00150981980252,0.4338235294117647
0.00188727475315,0.4411764705882353
0.00226472970378,0.4485294117647059
0.00226472970378,0.45588235294117646
0.00276800297129,0.4632352941176471
0.00301963960505,0.47058823529411764
0.00301963960505,0.47794117647058826
0.00452945940757,0.4852941176470588
0.00616509752697,0.49264705882352944
0.0109461935683,0.5
0.011197830202,0.5073529411764706
0.0144691064408,0.5147058823529411
0.0179920193134,0.5220588235294118
0.0182436559472,0.5294117647058824
0.0195018391159,0.5367647058823529
0.0197534757497,0.5441176470588235
0.0212632955522,0.5514705882352942
0.0235921439147,0.5588235294117647
0.0243279158038,0.5661764705882353
0.0328276506687,0.5735294117647058
0.0329273655031,0.5808823529411765
0.0330584548073,0.5882352941176471
0.033103889825,0.5955882352941176
0.0331362803357,0.6029411764705882
0.0331944045818,0.6102941176470589
0.0333144470618,0.6176470588235294
0.0333334117,0.625
0.0333621524369,0.6323529411764706
0.0333649008089,0.6397058823529411
0.0333658837247,0.6470588235294118
0.0333663055702,0.6544117647058824
0.033367302038,0.6617647058823529
0.0333673318227,0.6691176470588235
0.033369740881,0.6764705882352942
0.0333781290843,0.6838235294117647
0.0333857945287,0.6911764705882353
0.0334015251311,0.6985294117647058
0.0334084000432,0.7058823529411765
0.033408415726,0.7132352941176471
0.0334085057309,0.7205882352941176
0.0334085105787,0.7279411764705882
0.0334089405895,0.7352941176470589
0.0334089438218,0.7426470588235294
0.0334089438218,0.75
0.834182550949,0.7573529411764706
0.834453227108,0.7647058823529411
0.88040569054,0.7720588235294118
1.65972022909,0.7794117647058824
1.65972022909,0.7867647058823529
1.66928972643,0.7941176470588235
1.66928972643,0.8014705882352942
2.50254765285,0.8088235294117647
2.78088017215,0.8161764705882353
2.78088017215,0.8235294117647058
2.78088017215,0.8308823529411765
3.31362803357,0.8382352941176471
3.33658837247,0.8455882352941176
3.33781290843,0.8529411764705882
3.3408415726,0.8602941176470589
3.34085105787,0.8676470588235294
3.34089438218,0.875
3.34089438218,0.8823529411764706
4.17081310797,0.8897058823529411
4.96556570982,0.8970588235294118
5.00626381453,0.9044117647058824
6.11422134215,0.9117647058823529
6.62401701607,0.9191176470588235
6.68170163096,0.9264705882352942
10.0226828233,0.9338235294117647
13.6247717335,0.9411764705882353
24.2205192583,0.9485294117647058
24.7301580109,0.9558823529411765
32.01084167,0.9632352941176471
39.6025058037,0.9705882352941176
40.3533207282,0.9779411764705882
41.9617201951,0.9852941176470589
43.6460572785,0.9926470588235294
46.0788488589,1.0
