Congestion,CDF
0.0,0.007352941176470588
0.0,0.014705882352941176
0.0,0.022058823529411766
0.0,0.029411764705882353
0.0,0.03676470588235294
0.0,0.04411764705882353
0.0,0.051470588235294115
0.0,0.058823529411764705
0.0,0.0661764705882353
0.0,0.07352941176470588
0.0,0.08088235294117647
0.0,0.08823529411764706
0.0,0.09558823529411764
0.0,0.10294117647058823
1.55314265289e-05,0.11029411764705882
1.55314265289e-05,0.11764705882352941
1.55314265289e-05,0.125
1.55314265289e-05,0.1323529411764706
1.55314265289e-05,0.13970588235294118
1.55314265289e-05,0.14705882352941177
1.55314265289e-05,0.15441176470588236
1.55314265289e-05,0.16176470588235295
1.55314265289e-05,0.16911764705882354
1.55314265289e-05,0.17647058823529413
1.55314265289e-05,0.18382352941176472
1.55314265289e-05,0.19117647058823528
1.55314265289e-05,0.19852941176470587
1.55314265289e-05,0.20588235294117646
1.55314265289e-05,0.21323529411764705
1.55314265289e-05,0.22058823529411764
1.55314265289e-05,0.22794117647058823
1.55314265289e-05,0.23529411764705882
1.55314265289e-05,0.2426470588235294
1.55314265289e-05,0.25
1.55314265289e-05,0.25735294117647056
1.55314265289e-05,0.2647058823529412
1.55314265289e-05,0.27205882352941174
1.55314265289e-05,0.27941176470588236
1.55314265289e-05,0.2867647058823529
1.55314265289e-05,0.29411764705882354
1.55314265289e-05,0.3014705882352941
0.000388285663223,0.3088235294117647
0.000388285663223,0.3161764705882353
0.000419348516281,0.3235294117647059
0.000571447946042,0.33088235294117646
0.000776571326446,0.3382352941176471
0.000776571326446,0.34558823529411764
0.000776571326446,0.35294117647058826
0.000776571326446,0.3602941176470588
0.00116485698967,0.36764705882352944
0.00129428554408,0.375
0.00129428554408,0.38235294117647056
0.00129428554408,0.3897058823529412
0.00132268865588,0.39705882352941174
0.00155314265289,0.40441176470588236
0.00155314265289,0.4117647058823529
0.00155314265289,0.41911764705882354
0.00155314265289,0.4264705882352941
0.00155314265289,0.4338235294117647
0.00155314265289,0.4411764705882353
0.00155314265289,0.4485294117647059
0.00194142831612,0.45588235294117646
0.00232971397934,0.4632352941176471
0.00232971397934,0.47058823529411764
0.00284742819697,0.47794117647058826
0.00310628530579,0.4852941176470588
0.00310628530579,0.49264705882352944
0.00465942795868,0.5
0.00634199916598,0.5073529411764706
0.0102395888455,0.5147058823529411
0.0104119203536,0.5220588235294118
0.0107330474563,0.5294117647058824
0.0108150214956,0.5367647058823529
0.0108943233696,0.5441176470588235
0.0109336406528,0.5514705882352942
0.0111061350953,0.5588235294117647
0.0111456653222,0.5661764705882353
0.0111687081445,0.5735294117647058
0.011182198728,0.5808823529411765
0.0111848075711,0.5882352941176471
0.0111853190015,0.5955882352941176
0.0111855862742,0.6029411764705882
0.0111857277132,0.6102941176470589
0.0111860556135,0.6176470588235294
0.0111978808423,0.625
0.0112041494934,0.6323529411764706
0.0112220683167,0.6397058823529411
0.0112297428123,0.6470588235294118
0.0112297847917,0.6544117647058824
0.0112298978743,0.6617647058823529
0.0112299104535,0.6691176470588235
0.0112303404255,0.6764705882352942
0.0112303488124,0.6838235294117647
0.0112303488124,0.6911764705882353
0.0112602842335,0.6985294117647058
0.0115191413423,0.7058823529411765
0.0148842837569,0.7132352941176471
0.0185082832803,0.7205882352941176
0.0187671403891,0.7279411764705882
0.0200614259332,0.7352941176470589
0.020320283042,0.7426470588235294
0.0218734256949,0.75
0.278686354873,0.7573529411764706
0.279651390337,0.7647058823529411
0.279947021058,0.7720588235294118
0.546682032641,0.7794117647058824
0.546682032641,0.7867647058823529
0.560207474668,0.7941176470588235
0.560207474668,0.8014705882352942
0.83895417101,0.8088235294117647
0.932442378112,0.8161764705882353
0.932442378112,0.8235294117647058
0.932442378112,0.8308823529411765
1.08943233696,0.8382352941176471
1.11848075711,0.8455882352941176
1.11978808423,0.8529411764705882
1.12297847917,0.8602941176470589
1.12299104535,0.8676470588235294
1.12303488124,0.875
1.12303488124,0.8823529411764706
1.39822416165,0.8897058823529411
1.61998677827,0.8970588235294118
1.67876610209,0.9044117647058824
2.04700891034,0.9117647058823529
2.17093448651,0.9191176470588235
2.24598083278,0.9264705882352942
3.36910380503,0.9338235294117647
4.56736716967,0.9411764705882353
8.14098441926,0.9485294117647058
8.27167162218,0.9558823529411765
10.7558411037,0.9632352941176471
13.0865517715,0.9705882352941176
13.1436965661,0.9779411764705882
13.5514780202,0.9852941176470589
14.5926700556,0.9926470588235294
14.7249389212,1.0
