Congestion,CDF
0.0,0.007352941176470588
0.0,0.014705882352941176
0.0,0.022058823529411766
0.0,0.029411764705882353
0.0,0.03676470588235294
0.0,0.04411764705882353
0.0,0.051470588235294115
0.0,0.058823529411764705
0.0,0.0661764705882353
0.0,0.07352941176470588
0.0,0.08088235294117647
0.0,0.08823529411764706
0.0,0.09558823529411764
0.0,0.10294117647058823
1.5446378351e-05,0.11029411764705882
1.5446378351e-05,0.11764705882352941
1.5446378351e-05,0.125
1.5446378351e-05,0.1323529411764706
1.5446378351e-05,0.13970588235294118
1.5446378351e-05,0.14705882352941177
1.5446378351e-05,0.15441176470588236
1.5446378351e-05,0.16176470588235295
1.5446378351e-05,0.16911764705882354
1.5446378351e-05,0.17647058823529413
1.5446378351e-05,0.18382352941176472
1.5446378351e-05,0.19117647058823528
1.5446378351e-05,0.19852941176470587
1.5446378351e-05,0.20588235294117646
1.5446378351e-05,0.21323529411764705
1.5446378351e-05,0.22058823529411764
1.5446378351e-05,0.22794117647058823
1.5446378351e-05,0.23529411764705882
1.5446378351e-05,0.2426470588235294
1.5446378351e-05,0.25
1.5446378351e-05,0.25735294117647056
1.5446378351e-05,0.2647058823529412
1.5446378351e-05,0.27205882352941174
1.5446378351e-05,0.27941176470588236
1.5446378351e-05,0.2867647058823529
1.5446378351e-05,0.29411764705882354
1.5446378351e-05,0.3014705882352941
0.000386159458776,0.3088235294117647
0.000386159458776,0.3161764705882353
0.000417052215478,0.3235294117647059
0.00059176956056,0.33088235294117646
0.000772318917552,0.3382352941176471
0.000772318917552,0.34558823529411764
0.000772318917552,0.35294117647058826
0.000772318917552,0.3602941176470588
0.00115847837633,0.36764705882352944
0.00128719819592,0.375
0.00128719819592,0.38235294117647056
0.00128719819592,0.3897058823529412
0.00138572822973,0.39705882352941174
0.0015446378351,0.40441176470588236
0.0015446378351,0.4117647058823529
0.0015446378351,0.41911764705882354
0.0015446378351,0.4264705882352941
0.0015446378351,0.4338235294117647
0.0015446378351,0.4411764705882353
0.0015446378351,0.4485294117647059
0.00193079729388,0.45588235294117646
0.00231695675266,0.4632352941176471
0.00231695675266,0.47058823529411764
0.00283183603102,0.47794117647058826
0.00308927567021,0.4852941176470588
0.00308927567021,0.49264705882352944
0.00463391350531,0.5
0.00630727116001,0.5073529411764706
0.0111986243045,0.5147058823529411
0.0114560639437,0.5220588235294118
0.0119978089281,0.5294117647058824
0.0121605488173,0.5367647058823529
0.0124679379325,0.5441176470588235
0.012542745339,0.5514705882352942
0.0126176523361,0.5588235294117647
0.0126572124224,0.5661764705882353
0.0128180235684,0.5735294117647058
0.0128541932253,0.5808823529411765
0.0128776412863,0.5882352941176471
0.0128893598938,0.5955882352941176
0.0128917185264,0.6029411764705882
0.0128924654664,0.6102941176470589
0.0128925550621,0.6176470588235294
0.0128931257444,0.625
0.01289316715,0.6323529411764706
0.0129046249396,0.6397058823529411
0.0129110596046,0.6470588235294118
0.0129283473031,0.6544117647058824
0.0129358127624,0.6617647058823529
0.0129358490754,0.6691176470588235
0.0129359525077,0.6764705882352942
0.0129359628966,0.6838235294117647
0.0129363918421,0.6911764705882353
0.0129363987686,0.6985294117647058
0.0129363987686,0.7058823529411765
0.0148027792531,0.7132352941176471
0.0184069342017,0.7205882352941176
0.0186643738408,0.7279411764705882
0.0199515720368,0.7352941176470589
0.0202090116759,0.7426470588235294
0.021753649511,0.75
0.321620451957,0.7573529411764706
0.322329178749,0.7647058823529411
0.322615623489,0.7720588235294118
0.632860621118,0.7794117647058824
0.632860621118,0.7867647058823529
0.645552980229,0.7941176470588235
0.645552980229,0.8014705882352942
0.966987536248,0.8088235294117647
1.07469663764,0.8161764705882353
1.07469663764,0.8235294117647058
1.07469663764,0.8308823529411765
1.26176523361,0.8382352941176471
1.28917185264,0.8455882352941176
1.29046249396,0.8529411764705882
1.29358490754,0.8602941176470589
1.29359628966,0.8676470588235294
1.29363987686,0.875
1.29363987686,0.8823529411764706
1.61157572539,0.8897058823529411
1.87965441436,0.8970588235294118
1.93486555467,0.9044117647058824
2.36011596017,0.9117647058823529
2.51603976751,0.9191176470588235
2.58719154042,0.9264705882352942
3.88091893793,0.9338235294117647
5.26438020506,0.9411764705882353
9.37789228562,0.9485294117647058
9.53915914319,0.9558823529411765
12.3909766338,0.9632352941176471
15.1346342179,0.9705882352941176
15.1938111739,0.9779411764705882
15.6136063171,0.9852941176470589
16.8296611988,0.9926470588235294
16.9682340218,1.0
