Congestion,CDF
0.0,0.007352941176470588
0.0,0.014705882352941176
0.0,0.022058823529411766
0.0,0.029411764705882353
0.0,0.03676470588235294
0.0,0.04411764705882353
0.0,0.051470588235294115
0.0,0.058823529411764705
0.0,0.0661764705882353
0.0,0.07352941176470588
0.0,0.08088235294117647
0.0,0.08823529411764706
0.0,0.09558823529411764
0.0,0.10294117647058823
1.53232512708e-05,0.11029411764705882
1.53232512708e-05,0.11764705882352941
1.53232512708e-05,0.125
1.53232512708e-05,0.1323529411764706
1.53232512708e-05,0.13970588235294118
1.53232512708e-05,0.14705882352941177
1.53232512708e-05,0.15441176470588236
1.53232512708e-05,0.16176470588235295
1.53232512708e-05,0.16911764705882354
1.53232512708e-05,0.17647058823529413
1.53232512708e-05,0.18382352941176472
1.53232512708e-05,0.19117647058823528
1.53232512708e-05,0.19852941176470587
1.53232512708e-05,0.20588235294117646
1.53232512708e-05,0.21323529411764705
1.53232512708e-05,0.22058823529411764
1.53232512708e-05,0.22794117647058823
1.53232512708e-05,0.23529411764705882
1.53232512708e-05,0.2426470588235294
1.53232512708e-05,0.25
1.53232512708e-05,0.25735294117647056
1.53232512708e-05,0.2647058823529412
1.53232512708e-05,0.27205882352941174
1.53232512708e-05,0.27941176470588236
1.53232512708e-05,0.2867647058823529
1.53232512708e-05,0.29411764705882354
1.53232512708e-05,0.3014705882352941
0.00038308128177,0.3088235294117647
0.00038308128177,0.3161764705882353
0.000413727784312,0.3235294117647059
0.000766162563541,0.33088235294117646
0.000766162563541,0.3382352941176471
0.000766162563541,0.34558823529411764
0.000766162563541,0.35294117647058826
0.00114924384531,0.3602941176470588
0.0012769376059,0.36764705882352944
0.0012769376059,0.375
0.0012769376059,0.38235294117647056
0.00153232512708,0.3897058823529412
0.00153232512708,0.39705882352941174
0.00153232512708,0.40441176470588236
0.00153232512708,0.4117647058823529
0.00153232512708,0.41911764705882354
0.00153232512708,0.4264705882352941
0.00153232512708,0.4338235294117647
0.00191540640885,0.4411764705882353
0.00229848769062,0.4485294117647059
0.00229848769062,0.45588235294117646
0.00243981276642,0.4632352941176471
0.00280926273298,0.47058823529411764
0.00306465025416,0.47794117647058826
0.00306465025416,0.4852941176470588
0.00330081007275,0.49264705882352944
0.00459697538124,0.5
0.00625699426892,0.5073529411764706
0.0111093571713,0.5147058823529411
0.0113647446925,0.5220588235294118
0.0146847824679,0.5294117647058824
0.0154977393162,0.5367647058823529
0.0156445531636,0.5441176470588235
0.0159201927418,0.5514705882352942
0.015985010215,0.5588235294117647
0.0160498890317,0.5661764705882353
0.0160936511725,0.5735294117647058
0.016238247365,0.5808823529411765
0.0162691912975,0.5882352941176471
0.0162937758168,0.5955882352941176
0.0163027568923,0.6029411764705882
0.0163046650824,0.6102941176470589
0.0163052406962,0.6176470588235294
0.016305823575,0.625
0.0163062029083,0.6323529411764706
0.0163069778287,0.6397058823529411
0.0163173019614,0.6470588235294118
0.0163241694275,0.6544117647058824
0.0163407131601,0.6617647058823529
0.0163479276034,0.6691176470588235
0.0163479553401,0.6764705882352942
0.016348050623,0.6838235294117647
0.0163480582172,0.6911764705882353
0.016348487241,0.6985294117647058
0.0163484923042,0.7058823529411765
0.0163484923042,0.7132352941176471
0.0182602077644,0.7205882352941176
0.0185155952856,0.7279411764705882
0.0197925328915,0.7352941176470589
0.0200479204126,0.7426470588235294
0.0215802455397,0.75
0.407655072707,0.7573529411764706
0.407932549034,0.7647058823529411
0.410984188124,0.7720588235294118
0.804682558624,0.7794117647058824
0.804682558624,0.7867647058823529
0.816208471375,0.7941176470588235
0.816208471375,0.8014705882352942
1.22296521812,0.8088235294117647
1.35911507424,0.8161764705882353
1.35911507424,0.8235294117647058
1.35911507424,0.8308823529411765
1.60498890317,0.8382352941176471
1.63046650824,0.8455882352941176
1.63173019614,0.8529411764705882
1.63479553401,0.8602941176470589
1.63480582172,0.8676470588235294
1.63484923042,0.875
1.63484923042,0.8823529411764706
2.03817914233,0.8897058823529411
2.39670183281,0.8970588235294118
2.44690625424,0.9044117647058824
2.98603420398,0.9117647058823529
3.20348992467,0.9191176470588235
3.26961088402,0.9264705882352942
4.90454718495,0.9338235294117647
6.65803641404,0.9411764705882353
11.8516789124,0.9485294117647058
12.0725779132,0.9558823529411765
15.661073774,0.9632352941176471
19.2225436023,0.9705882352941176
19.4665248789,0.9779411764705882
19.7373576099,0.9852941176470589
21.3018129263,0.9926470588235294
21.6318939335,1.0
