Congestion,CDF
0.0,0.007352941176470588
0.0,0.014705882352941176
0.0,0.022058823529411766
0.0,0.029411764705882353
0.0,0.03676470588235294
0.0,0.04411764705882353
0.0,0.051470588235294115
0.0,0.058823529411764705
0.0,0.0661764705882353
0.0,0.07352941176470588
0.0,0.08088235294117647
0.0,0.08823529411764706
0.0,0.09558823529411764
0.0,0.10294117647058823
1.5755592772e-05,0.11029411764705882
1.5755592772e-05,0.11764705882352941
1.5755592772e-05,0.125
1.5755592772e-05,0.1323529411764706
1.5755592772e-05,0.13970588235294118
1.5755592772e-05,0.14705882352941177
1.5755592772e-05,0.15441176470588236
1.5755592772e-05,0.16176470588235295
1.5755592772e-05,0.16911764705882354
1.5755592772e-05,0.17647058823529413
1.5755592772e-05,0.18382352941176472
1.5755592772e-05,0.19117647058823528
1.5755592772e-05,0.19852941176470587
1.5755592772e-05,0.20588235294117646
1.5755592772e-05,0.21323529411764705
1.5755592772e-05,0.22058823529411764
1.5755592772e-05,0.22794117647058823
1.5755592772e-05,0.23529411764705882
1.5755592772e-05,0.2426470588235294
1.5755592772e-05,0.25
1.5755592772e-05,0.25735294117647056
1.5755592772e-05,0.2647058823529412
1.5755592772e-05,0.27205882352941174
1.5755592772e-05,0.27941176470588236
1.5755592772e-05,0.2867647058823529
1.5755592772e-05,0.29411764705882354
1.5755592772e-05,0.3014705882352941
0.000393889819301,0.3088235294117647
0.000393889819301,0.3161764705882353
0.000425401004845,0.3235294117647059
0.000787779638602,0.33088235294117646
0.000787779638602,0.3382352941176471
0.000787779638602,0.34558823529411764
0.000787779638602,0.35294117647058826
0.0011816694579,0.3602941176470588
0.00131296606434,0.36764705882352944
0.00131296606434,0.375
0.00131296606434,0.38235294117647056
0.0015755592772,0.3897058823529412
0.0015755592772,0.39705882352941174
0.0015755592772,0.40441176470588236
0.0015755592772,0.4117647058823529
0.0015755592772,0.41911764705882354
0.0015755592772,0.4264705882352941
0.0015755592772,0.4338235294117647
0.00196944909651,0.4411764705882353
0.00236333891581,0.4485294117647059
0.00236333891581,0.45588235294117646
0.00288852534154,0.4632352941176471
0.00315111855441,0.47058823529411764
0.00315111855441,0.47794117647058826
0.00472667783161,0.4852941176470588
0.00643353371525,0.49264705882352944
0.00685161366628,0.5
0.00691574804307,0.5073529411764706
0.00745541924407,0.5147058823529411
0.00745541924407,0.5220588235294118
0.00745541924407,0.5294117647058824
0.00745541924407,0.5367647058823529
0.00748346939503,0.5441176470588235
0.00751048702986,0.5514705882352942
0.00756555481565,0.5588235294117647
0.00756555481565,0.5661764705882353
0.00758710786353,0.5735294117647058
0.00758710786353,0.5808823529411765
0.00758710786353,0.5882352941176471
0.00758928072977,0.5955882352941176
0.00759000505432,0.6029411764705882
0.00759491295969,0.6102941176470589
0.00759491295969,0.6176470588235294
0.00759819093729,0.625
0.00760613266803,0.6323529411764706
0.00761735237637,0.6397058823529411
0.00762274869362,0.6470588235294118
0.00762274869362,0.6544117647058824
0.00762274869362,0.6617647058823529
0.00762274869362,0.6691176470588235
0.00762313338097,0.6764705882352942
0.00762313338097,0.6838235294117647
0.00762313338097,0.6911764705882353
0.0114228047597,0.6985294117647058
0.0116853979726,0.7058823529411765
0.0150991097399,0.7132352941176471
0.01877541472,0.7205882352941176
0.0190380079329,0.7279411764705882
0.0203509739972,0.7352941176470589
0.0206135672101,0.7426470588235294
0.0221891264873,0.75
0.189732018244,0.7573529411764706
0.189954773432,0.7647058823529411
0.203026610935,0.7720588235294118
0.375524351493,0.7794117647058824
0.375524351493,0.7867647058823529
0.380306633401,0.7941176470588235
0.380306633401,0.8014705882352942
0.569196054733,0.8088235294117647
0.632686960154,0.8161764705882353
0.632686960154,0.8235294117647058
0.632686960154,0.8308823529411765
0.745541924407,0.8382352941176471
0.758710786353,0.8455882352941176
0.759819093729,0.8529411764705882
0.762274869362,0.8602941176470589
0.762274869362,0.8676470588235294
0.762313338097,0.875
0.762313338097,0.8823529411764706
0.948442804597,0.8897058823529411
1.1210662759,0.8970588235294118
1.13979792937,0.9044117647058824
1.38924244172,0.9117647058823529
1.49108384881,0.9191176470588235
1.52454973872,0.9264705882352942
2.28694001429,0.9338235294117647
3.09855133746,0.9411764705882353
5.52599426517,0.9485294117647058
5.61987361223,0.9558823529411765
7.30072309636,0.9632352941176471
8.97756566135,0.9705882352941176
9.2000123217,0.9779411764705882
9.66272702798,0.9852941176470589
9.9483592612,0.9926470588235294
10.6399340655,1.0
