Congestion,CDF
0.0,0.005555555555555556
0.0,0.011111111111111112
0.0,0.016666666666666666
0.0,0.022222222222222223
0.0,0.027777777777777776
0.0,0.03333333333333333
0.0,0.03888888888888889
0.0,0.044444444444444446
0.0,0.05
0.0,0.05555555555555555
1.05711558083e-06,0.06111111111111111
1.21457496244e-06,0.06666666666666667
2.73390760892e-06,0.07222222222222222
3.99576500167e-06,0.07777777777777778
4.08865089713e-06,0.08333333333333333
5.39842668101e-06,0.08888888888888889
5.93898384456e-06,0.09444444444444444
8.18527401893e-06,0.1
8.22750225715e-06,0.10555555555555556
8.41750710848e-06,0.1111111111111111
8.59074906289e-06,0.11666666666666667
9.45665965187e-06,0.12222222222222222
9.67600460401e-06,0.12777777777777777
1.08051351008e-05,0.13333333333333333
1.10666290952e-05,0.1388888888888889
1.16533013993e-05,0.14444444444444443
1.34748712966e-05,0.15
1.47469972777e-05,0.15555555555555556
1.53988355953e-05,0.16111111111111112
1.60154222303e-05,0.16666666666666666
1.62688190908e-05,0.17222222222222222
1.63994792527e-05,0.17777777777777778
1.69428173933e-05,0.18333333333333332
1.75315480041e-05,0.18888888888888888
1.78274880289e-05,0.19444444444444445
1.80288173096e-05,0.2
1.81288412744e-05,0.20555555555555555
1.83370217578e-05,0.2111111111111111
1.85162076345e-05,0.21666666666666667
1.85568395044e-05,0.2222222222222222
1.91768711804e-05,0.22777777777777777
1.93368613963e-05,0.23333333333333334
1.95588365272e-05,0.2388888888888889
2.11811709008e-05,0.24444444444444444
2.22881304995e-05,0.25
2.41984267823e-05,0.25555555555555554
2.45817833838e-05,0.2611111111111111
2.49355330661e-05,0.26666666666666666
2.57799732987e-05,0.2722222222222222
9.11302536307e-05,0.2777777777777778
0.000182260507261,0.2833333333333333
0.000199788250083,0.28888888888888886
0.000199788250083,0.29444444444444445
0.000205687556429,0.3
0.000205687556429,0.3055555555555556
0.000311399114512,0.3111111111111111
0.000408865089713,0.31666666666666665
0.000411375112857,0.32222222222222224
0.000547717779561,0.3277777777777778
0.000818527401893,0.3333333333333333
0.000851241782613,0.3388888888888889
0.000901440865479,0.34444444444444444
0.000901440865479,0.35
0.00115135352162,0.35555555555555557
0.00175315480041,0.3611111111111111
0.00178274880289,0.36666666666666664
0.00183973617535,0.37222222222222223
0.00198195437556,0.37777777777777777
0.00209692591812,0.38333333333333336
0.00209692591812,0.3888888888888889
0.00239112534215,0.39444444444444443
0.00252698217979,0.4
0.00271718350302,0.40555555555555556
0.00290492841946,0.4111111111111111
0.00360883875085,0.4166666666666667
0.00381565655134,0.4222222222222222
0.00401461303617,0.42777777777777776
0.00493556691738,0.43333333333333335
0.00579464182367,0.4388888888888889
0.00606697726224,0.4444444444444444
0.00749164357839,0.45
0.00848681994047,0.45555555555555555
0.0136104483849,0.46111111111111114
0.013725377847,0.4666666666666667
0.0150991695295,0.4722222222222222
0.0153745098104,0.4777777777777778
0.0154695586241,0.48333333333333334
0.0155284569123,0.4888888888888889
0.0155294801216,0.49444444444444446
0.0155324740371,0.5
0.0155387924702,0.5055555555555555
0.0155469927627,0.5111111111111111
0.0155550772825,0.5166666666666667
0.0155721646891,0.5222222222222223
0.0155724651657,0.5277777777777778
0.0155747035974,0.5333333333333333
0.0155800197479,0.5388888888888889
0.0155840954392,0.5444444444444444
0.0155880328392,0.55
0.015589885806,0.5555555555555556
0.015590341531,0.5611111111111111
0.0155974957169,0.5666666666666667
0.0156093268422,0.5722222222222222
0.0156124595501,0.5777777777777777
0.0156163984433,0.5833333333333334
0.0156169291368,0.5888888888888889
0.0156201249184,0.5944444444444444
0.015625911788,0.6
0.015629276234,0.6055555555555555
0.0156313364927,0.6111111111111112
0.0156324255155,0.6166666666666667
0.0156331742153,0.6222222222222222
0.015634216659,0.6277777777777778
0.0156355630909,0.6333333333333333
0.0156396108383,0.6388888888888888
0.015641905931,0.6444444444444445
0.015651801568,0.65
0.0156581207912,0.6555555555555556
0.0156702987626,0.6611111111111111
0.0156725044984,0.6666666666666666
0.0156749284559,0.6722222222222223
0.0156790413609,0.6777777777777778
0.018369493581,0.6833333333333333
0.0192276939323,0.6888888888888889
0.0209474909109,0.6944444444444444
0.0214565069823,0.7
0.02257437282,0.7055555555555556
0.0228216253723,0.7111111111111111
0.0241691125019,0.7166666666666667
0.0261027986416,0.7222222222222222
0.0262657297588,0.7277777777777777
0.026696697026,0.7333333333333333
0.0271074804696,0.7388888888888889
0.02807508093,0.7444444444444445
0.389311629143,0.75
0.389311629143,0.7555555555555555
0.517959749007,0.7611111111111111
0.604445727878,0.7666666666666667
0.776623701855,0.7722222222222223
0.776623701855,0.7777777777777778
0.778623258286,0.7833333333333333
0.781621275775,0.7888888888888889
0.781621275775,0.7944444444444444
1.03591949801,0.8
1.55469927627,0.8055555555555556
1.55721646891,0.8111111111111111
1.5629276234,0.8166666666666667
1.56313364927,0.8222222222222222
1.94215732037,0.8277777777777777
1.94731360393,0.8333333333333334
2.33637327355,0.8388888888888889
2.3404245597,0.8444444444444444
2.34611610388,0.85
2.47051209125,0.8555555555555555
2.47051209125,0.8611111111111112
3.11987943308,0.8666666666666667
3.12648393249,0.8722222222222222
3.49766504862,0.8777777777777778
3.9038462256,0.8833333333333333
4.02651930795,0.8888888888888888
4.03447317508,0.8944444444444445
5.05930489295,0.9
7.16019800314,0.9055555555555556
8.04997941136,0.9111111111111111
8.96233323073,0.9166666666666666
9.6074497711,0.9222222222222223
10.529363107,0.9277777777777778
18.3309651958,0.9333333333333333
19.1269437149,0.9388888888888889
20.694847851,0.9444444444444444
22.2565407647,0.95
23.0128571207,0.9555555555555556
24.5786691998,0.9611111111111111
26.1538467224,0.9666666666666667
26.9143270548,0.9722222222222222
27.6912977035,0.9777777777777777
28.4727365987,0.9833333333333333
29.052342542,0.9888888888888889
30.0196924611,0.9944444444444445
31.3922302458,1.0
