Congestion,CDF
0.0,0.005555555555555556
0.0,0.011111111111111112
0.0,0.016666666666666666
0.0,0.022222222222222223
0.0,0.027777777777777776
0.0,0.03333333333333333
0.0,0.03888888888888889
0.0,0.044444444444444446
0.0,0.05
0.0,0.05555555555555555
1.09134355989e-06,0.06111111111111111
1.25390126425e-06,0.06666666666666667
2.82242785598e-06,0.07222222222222222
4.12514249196e-06,0.07777777777777778
4.22103590764e-06,0.08333333333333333
5.57322046774e-06,0.08888888888888889
6.13128014436e-06,0.09444444444444444
8.45030216985e-06,0.1
8.49389770156e-06,0.10555555555555556
8.69005465414e-06,0.1111111111111111
8.86890594974e-06,0.11666666666666667
9.76285355761e-06,0.12222222222222222
9.98930060395e-06,0.12777777777777777
1.11549908258e-05,0.13333333333333333
1.14249516436e-05,0.1388888888888889
1.20306196069e-05,0.14444444444444443
1.39111694847e-05,0.15
1.52244851921e-05,0.15555555555555556
1.58974291567e-05,0.16111111111111112
1.65339800367e-05,0.16666666666666666
1.67955815463e-05,0.17222222222222222
1.69304723083e-05,0.17777777777777778
1.74914030063e-05,0.18333333333333332
1.80991959216e-05,0.18888888888888888
1.84047180859e-05,0.19444444444444445
1.86125661375e-05,0.2
1.87158287436e-05,0.20555555555555555
1.89307498308e-05,0.2111111111111111
1.91157375048e-05,0.21666666666666667
1.915768498e-05,0.2222222222222222
1.97977924468e-05,0.22777777777777777
1.99629629304e-05,0.23333333333333334
2.01921253172e-05,0.2388888888888889
2.18669886932e-05,0.24444444444444444
2.30097901532e-05,0.25
2.49819392574e-05,0.25555555555555554
2.53777084294e-05,0.2611111111111111
2.574291205e-05,0.26666666666666666
2.66146941203e-05,0.2722222222222222
9.40809285326e-05,0.2777777777777778
0.000101301417026,0.2833333333333333
0.000188161857065,0.28888888888888886
0.000206257124598,0.29444444444444445
0.000206257124598,0.3
0.000212347442539,0.3055555555555556
0.000212347442539,0.3111111111111111
0.000321481798528,0.31666666666666665
0.000414660372929,0.32222222222222224
0.000422103590764,0.3277777777777778
0.000424694885078,0.3333333333333333
0.000565452143738,0.3388888888888889
0.000845030216985,0.34444444444444444
0.000878803845302,0.35
0.000930628306876,0.35555555555555557
0.000930628306876,0.3611111111111111
0.0011886327983,0.36666666666666664
0.00180991959216,0.37222222222222223
0.00184047180859,0.37777777777777777
0.00189930435543,0.38333333333333336
0.00204612738946,0.3888888888888889
0.00216482155575,0.39444444444444443
0.00216482155575,0.4
0.00246854676098,0.40555555555555556
0.00260880246008,0.4111111111111111
0.00280516224605,0.4166666666666667
0.00299898609008,0.4222222222222222
0.00372568809015,0.42777777777777776
0.00393920237253,0.43333333333333335
0.00414460080044,0.4388888888888889
0.00509537392822,0.4444444444444444
0.0051728801113,0.45
0.00553772188104,0.45555555555555555
0.00554453829318,0.46111111111111114
0.00560974901928,0.4666666666666667
0.00564372011385,0.4722222222222222
0.00566779005336,0.4777777777777778
0.00572406517534,0.48333333333333334
0.00572615843704,0.4888888888888889
0.00584368437626,0.49444444444444446
0.00584553875941,0.5
0.00586114150415,0.5055555555555555
0.00589831578966,0.5111111111111111
0.00595593805873,0.5166666666666667
0.00596741486391,0.5222222222222223
0.0059822645232,0.5277777777777778
0.00598862731036,0.5333333333333333
0.00603353407223,0.5388888888888889
0.00612539453603,0.5444444444444444
0.00615331535795,0.55
0.00615899641292,0.5555555555555556
0.00617972303372,0.5611111111111111
0.00618458458836,0.5666666666666667
0.00621963398013,0.5722222222222222
0.00623956761802,0.5777777777777777
0.00624465400526,0.5833333333333334
0.00625760696007,0.5888888888888889
0.00626341781655,0.5944444444444444
0.00626610148729,0.6
0.00627053158907,0.6055555555555555
0.00627922971383,0.6111111111111112
0.00628866261634,0.6166666666666667
0.00631552705895,0.6222222222222222
0.00633187491945,0.6277777777777778
0.0064014564016,0.6333333333333333
0.00644844979488,0.6388888888888888
0.00653096357623,0.6444444444444445
0.00654726630109,0.65
0.00656271395449,0.6555555555555556
0.00659779663375,0.6611111111111111
0.00773421290965,0.6666666666666666
0.00876161174229,0.6722222222222223
0.0155880603072,0.6777777777777778
0.0189642730479,0.6833333333333333
0.019850260771,0.6888888888888889
0.02162574246,0.6944444444444444
0.0221512397863,0.7
0.0233053006146,0.7055555555555556
0.0235605588716,0.7111111111111111
0.02495167582,0.7166666666666667
0.0269479721131,0.7222222222222222
0.0271161787205,0.7277777777777777
0.0275611001275,0.7333333333333333
0.0279851841859,0.7388888888888889
0.0289841142463,0.7444444444444445
0.146138468985,0.75
0.146138468985,0.7555555555555555
0.186991633976,0.7611111111111111
0.225140830149,0.7666666666666667
0.282186005692,0.7722222222222223
0.282186005692,0.7777777777777778
0.292276937971,0.7833333333333333
0.313305074365,0.7888888888888889
0.313305074365,0.7944444444444444
0.373983267952,0.8
0.566779005336,0.8055555555555556
0.584368437626,0.8111111111111111
0.624465400526,0.8166666666666667
0.625760696007,0.8222222222222222
0.699910657089,0.8277777777777777
0.735970047951,0.8333333333333334
0.898085646984,0.8388888888888889
0.908898880238,0.8444444444444444
0.94854833342,0.85
0.959636543881,0.8555555555555555
0.959636543881,0.8611111111111112
1.2069246455,0.8666666666666667
1.25333166216,0.8722222222222222
1.27231717462,0.8777777777777778
1.53550113553,0.8833333333333333
1.53682185162,0.8888888888888888
1.59118924978,0.8944444444444445
1.88764871042,0.9
2.8389133438,0.9055555555555556
3.04959150873,0.9111111111111111
3.41850971435,0.9166666666666666
3.63570565914,0.9222222222222223
4.07160607198,0.9277777777777778
7.10167216185,0.9333333333333333
7.51648621587,0.9388888888888889
8.17626587924,0.9444444444444444
8.79472433808,0.95
8.92656911072,0.9555555555555556
9.57141409021,0.9611111111111111
10.3167667469,0.9666666666666667
10.4524628269,0.9722222222222222
10.834054758,0.9777777777777777
10.8441848997,0.9833333333333333
11.0558162342,0.9888888888888889
11.6284320779,0.9944444444444445
11.6698981152,1.0
