Congestion,CDF
0.0,0.005555555555555556
0.0,0.011111111111111112
0.0,0.016666666666666666
0.0,0.022222222222222223
0.0,0.027777777777777776
0.0,0.03333333333333333
0.0,0.03888888888888889
0.0,0.044444444444444446
0.0,0.05
0.0,0.05555555555555555
1.06735707978e-06,0.06111111111111111
1.22634195218e-06,0.06666666666666667
2.7603941279e-06,0.07222222222222222
4.03447658987e-06,0.07777777777777778
4.12826237822e-06,0.08333333333333333
5.4507274721e-06,0.08888888888888889
5.9965216369e-06,0.09444444444444444
8.26457421726e-06,0.1
8.30721156917e-06,0.10555555555555556
8.49905721684e-06,0.1111111111111111
8.67397756604e-06,0.11666666666666667
9.54827723048e-06,0.12222222222222222
9.76974723039e-06,0.12777777777777777
1.09098169178e-05,0.13333333333333333
1.11738443063e-05,0.1388888888888889
1.17662003823e-05,0.14444444444444443
1.360541793e-05,0.15
1.4889868464e-05,0.15555555555555556
1.55480218918e-05,0.16111111111111112
1.61705821133e-05,0.16666666666666666
1.64264339217e-05,0.17222222222222222
1.65583599394e-05,0.17777777777777778
1.71069620239e-05,0.18333333333333332
1.77013963477e-05,0.18888888888888888
1.80002034851e-05,0.19444444444444445
1.82034832749e-05,0.2
1.83044762873e-05,0.20555555555555555
1.85146736554e-05,0.2111111111111111
1.86955955125e-05,0.21666666666666667
1.87366210303e-05,0.2222222222222222
1.9362659669e-05,0.22777777777777777
1.95241998947e-05,0.23333333333333334
1.9748325555e-05,0.2388888888888889
2.13863773544e-05,0.24444444444444444
2.25040613486e-05,0.25
2.44328648767e-05,0.25555555555555554
2.48199354961e-05,0.2611111111111111
2.51771123599e-05,0.26666666666666666
2.60297336599e-05,0.2722222222222222
7.62870992291e-05,0.2777777777777778
9.20131375965e-05,0.2833333333333333
0.000184026275193,0.28888888888888886
0.000201723829493,0.29444444444444445
0.000201723829493,0.3
0.000207680289229,0.3055555555555556
0.000207680289229,0.3111111111111111
0.000314415997207,0.31666666666666665
0.000412826237822,0.32222222222222224
0.000415360578459,0.3277777777777778
0.000495106796392,0.3333333333333333
0.000553024153965,0.3388888888888889
0.000826457421726,0.34444444444444444
0.000859488744417,0.35
0.000910174163747,0.35555555555555557
0.000910174163747,0.3611111111111111
0.00116250801228,0.36666666666666664
0.00177013963477,0.37222222222222223
0.00180002034851,0.37777777777777777
0.00185755982343,0.38333333333333336
0.00200115585552,0.3888888888888889
0.00211724126014,0.39444444444444443
0.00211724126014,0.4
0.0024142909336,0.40555555555555556
0.00255146397326,0.4111111111111111
0.00274350799627,0.4166666666666667
0.00293307181445,0.4222222222222222
0.0036438017378,0.42777777777777776
0.00385262322107,0.43333333333333335
0.00405350722703,0.4388888888888889
0.00498338345163,0.4444444444444444
0.00585078120823,0.45
0.00612575507457,0.45555555555555555
0.00756422377793,0.46111111111111114
0.00856904156225,0.4666666666666667
0.0100369861021,0.4722222222222222
0.0103085494516,0.4777777777777778
0.0103145933925,0.48333333333333334
0.010372351004,0.4888888888888889
0.0104040928936,0.49444444444444446
0.0104237483534,0.5
0.0104735963582,0.5055555555555555
0.0105259770198,0.5111111111111111
0.0105795448428,0.5166666666666667
0.0105811918145,0.5222222222222223
0.010595012688,0.5277777777777778
0.0106279391654,0.5333333333333333
0.0106789494403,0.5388888888888889
0.0106891405202,0.5444444444444444
0.0107080069791,0.55
0.0107512269441,0.5555555555555556
0.010829066053,0.5611111111111111
0.0108537893832,0.5666666666666667
0.0108624330469,0.5722222222222222
0.0108771757475,0.5777777777777777
0.0108816043746,0.5833333333333334
0.010912533949,0.5888888888888889
0.0109346703203,0.5944444444444444
0.0109347174195,0.6
0.0109461671592,0.6055555555555555
0.0109536756659,0.6111111111111112
0.0109576137686,0.6166666666666667
0.0109652939491,0.6222222222222222
0.010973649388,0.6277777777777778
0.01099746778,0.6333333333333333
0.0110119421616,0.6388888888888888
0.0110735671937,0.6444444444444445
0.0111151711232,0.65
0.0111882723208,0.6555555555555556
0.0112027006855,0.6611111111111111
0.0112164054166,0.6666666666666666
0.0112474224695,0.6722222222222223
0.0152454526149,0.6777777777777778
0.0185474600707,0.6833333333333333
0.0194139747995,0.6888888888888889
0.0211504334367,0.6944444444444444
0.0216643809343,0.7
0.0227930768289,0.7055555555555556
0.0230427248021,0.7111111111111111
0.0244032665951,0.7166666666666667
0.0263556865845,0.7222222222222222
0.0265201962036,0.7277777777777777
0.0269553387482,0.7333333333333333
0.0273701019253,0.7388888888888889
0.0283470766483,0.7444444444444445
0.264529795362,0.75
0.264529795362,0.7555555555555555
0.345745033465,0.7611111111111111
0.399577640241,0.7666666666666667
0.520204644678,0.7722222222222223
0.520204644678,0.7777777777777778
0.529059590724,0.7833333333333333
0.547683783294,0.7888888888888889
0.547683783294,0.7944444444444444
0.69149006693,0.8
1.04237483534,0.8055555555555556
1.05795448428,0.8111111111111111
1.09346703203,0.8166666666666667
1.09461671592,0.8222222222222222
1.29538474052,0.8277777777777777
1.32732371191,0.8333333333333334
1.60644794937,0.8388888888888889
1.61557872732,0.8444444444444444
1.65070013239,0.85
1.70555212567,0.8555555555555555
1.70555212567,0.8611111111111112
2.14973155471,0.8666666666666667
2.19083197083,0.8722222222222222
2.34274437634,0.8777777777777778
2.71210812224,0.8833333333333333
2.75597535067,0.8888888888888888
2.80529890367,0.8944444444444445
3.42812331467,0.9
4.99116901449,0.9055555555555556
5.49298681559,0.9111111111111111
6.1349557984,0.9166666666666666
6.55248808439,0.9222222222222223
7.25378303048,0.9277777777777778
12.6394184757,0.9333333333333333
13.2769931921,0.9388888888888889
14.4017354391,0.9444444444444444
15.4898958765,0.95
15.8768676052,0.9555555555555556
16.9883847175,0.9611111111111111
18.1898155678,0.9666666666666667
18.5793900601,0.9722222222222222
19.193514178,0.9777777777777777
19.201142888,0.9833333333333333
19.6545127545,0.9888888888888889
20.7071104565,0.9944444444444445
20.7566211361,1.0
