Congestion,CDF
0.0,0.005555555555555556
0.0,0.011111111111111112
0.0,0.016666666666666666
0.0,0.022222222222222223
0.0,0.027777777777777776
0.0,0.03333333333333333
0.0,0.03888888888888889
0.0,0.044444444444444446
0.0,0.05
0.0,0.05555555555555555
1.05141120313e-06,0.06111111111111111
1.2080209068e-06,0.06666666666666667
2.71915497271e-06,0.07222222222222222
3.97420316569e-06,0.07777777777777778
4.06658783287e-06,0.08333333333333333
5.36929584109e-06,0.08888888888888889
5.9069360651e-06,0.09444444444444444
8.14110487091e-06,0.1
8.18310523828e-06,0.10555555555555556
8.37208479072e-06,0.1111111111111111
8.54439190171e-06,0.11666666666666667
9.40562988805e-06,0.12222222222222222
9.62379121707e-06,0.12777777777777777
1.07468287313e-05,0.13333333333333333
1.1006911659e-05,0.1388888888888889
1.15904181784e-05,0.14444444444444443
1.34021585709e-05,0.15
1.46674199411e-05,0.15555555555555556
1.53157408269e-05,0.16111111111111112
1.59290002543e-05,0.16666666666666666
1.61810297416e-05,0.17222222222222222
1.63109848388e-05,0.17777777777777778
1.68513910333e-05,0.18333333333333332
1.74369447524e-05,0.18888888888888888
1.77312878338e-05,0.19444444444444445
1.7931530707e-05,0.2
1.80310149252e-05,0.20555555555555555
1.8238072031e-05,0.2111111111111111
1.84162909898e-05,0.21666666666666667
1.84567036031e-05,0.2222222222222222
1.90733894815e-05,0.22777777777777777
1.92325163626e-05,0.23333333333333334
1.94532936775e-05,0.2388888888888889
2.10668736554e-05,0.24444444444444444
2.21678599095e-05,0.25
2.40678479047e-05,0.25555555555555554
2.44491358479e-05,0.2611111111111111
2.4800976636e-05,0.26666666666666666
2.56408601238e-05,0.2722222222222222
9.06384990905e-05,0.2777777777777778
0.000181276998181,0.2833333333333333
0.000198710158285,0.28888888888888886
0.000198710158285,0.29444444444444445
0.000204577630957,0.3
0.000204577630957,0.3055555555555556
0.000309718751271,0.3111111111111111
0.000406658783287,0.31666666666666665
0.000409155261914,0.32222222222222224
0.000544762200111,0.3277777777777778
0.000814110487091,0.3333333333333333
0.00084664833538,0.3388888888888889
0.000896576535351,0.34444444444444444
0.000896576535351,0.35
0.00114514061976,0.35555555555555557
0.00174369447524,0.3611111111111111
0.00177312878338,0.36666666666666664
0.00182980864217,0.37222222222222223
0.00197125940848,0.37777777777777777
0.0020856105448,0.38333333333333336
0.0020856105448,0.3888888888888889
0.00237822241807,0.39444444444444443
0.00251334614883,0.4
0.00270252111297,0.40555555555555556
0.00288925292552,0.4111111111111111
0.00358936483555,0.4166666666666667
0.00379506661157,0.4222222222222222
0.00399294949295,0.42777777777777776
0.00490893374845,0.43333333333333335
0.00576337293862,0.4388888888888889
0.00603423880826,0.4444444444444444
0.00745121737966,0.45
0.00844102359874,0.45555555555555555
0.0150176918108,0.46111111111111114
0.0182703686307,0.4666666666666667
0.0189081135515,0.4722222222222222
0.0190761374879,0.4777777777777778
0.0191239379851,0.48333333333333334
0.020834454643,0.4888888888888889
0.021340723976,0.49444444444444446
0.0215689185921,0.5
0.021695695775,0.5055555555555555
0.0217398669274,0.5111111111111111
0.0217412763468,0.5166666666666667
0.0217508254773,0.5222222222222223
0.0217543152541,0.5277777777777778
0.021765838397,0.5333333333333333
0.0217771354927,0.5388888888888889
0.0218010583669,0.5444444444444444
0.02180146242,0.55
0.0218045918087,0.5555555555555556
0.0218120318305,0.5611111111111111
0.021823352397,0.5666666666666667
0.0218249790105,0.5722222222222222
0.0218258467576,0.5777777777777777
0.021827707367,0.5833333333333334
0.0218460359654,0.5888888888888889
0.0218574475624,0.5944444444444444
0.0218623026622,0.6
0.0218629852585,0.6055555555555555
0.021865597165,0.6111111111111112
0.0218682240194,0.6166666666666667
0.0218762856201,0.6222222222222222
0.0218810940594,0.6277777777777778
0.0218838802099,0.6333333333333333
0.0218854630389,0.6388888888888888
0.0218864570772,0.6444444444444445
0.0218880101117,0.65
0.0218898956966,0.6555555555555556
0.021895464269,0.6611111111111111
0.02189869623,0.6666666666666666
0.021912571049,0.6722222222222223
0.0219216040875,0.6777777777777778
0.0219384688544,0.6833333333333333
0.0219416147642,0.6888888888888889
0.0219449065034,0.6944444444444444
0.0219510882197,0.7
0.0224525576172,0.7055555555555556
0.0226984759521,0.7111111111111111
0.0240386918092,0.7166666666666667
0.0259619434455,0.7222222222222222
0.0261239953583,0.7277777777777777
0.026552637052,0.7333333333333333
0.0269612038374,0.7388888888888889
0.0279235829591,0.7444444444444445
0.5450365605,0.75
0.5450365605,0.7555555555555555
0.725143841804,0.7611111111111111
0.846057245684,0.7666666666666667
1.08754127386,0.7722222222222223
1.08754127386,0.7777777777777778
1.090073121,0.7833333333333333
1.09427315195,0.7888888888888889
1.09427315195,0.7944444444444444
1.45028768361,0.8
2.1765838397,0.8055555555555556
2.18010583669,0.8111111111111111
2.18810940594,0.8166666666666667
2.18838802099,0.8222222222222222
2.71902325324,0.8277777777777777
2.72623974355,0.8333333333333334
3.2721448704,0.8388888888888889
3.27660839165,0.8444444444444444
3.28456377134,0.85
3.45871806536,0.8555555555555555
3.45871806536,0.8611111111111112
4.3678409446,0.8666666666666667
4.37709897561,0.8722222222222222
4.89673680251,0.8777777777777778
5.46540940282,0.8833333333333333
5.63712834159,0.8888888888888888
5.64826449225,0.8944444444444445
7.08303532836,0.9
10.0242810753,0.9055555555555556
11.2699740416,0.9111111111111111
12.54728394,0.9166666666666666
13.4504332225,0.9222222222222223
14.7411308254,0.9277777777777778
25.6633600055,0.9333333333333333
26.7778006803,0.9388888888888889
28.9729095023,0.9444444444444444
31.1594692188,0.95
32.218023352,0.9555555555555556
34.4101837608,0.9611111111111111
36.6178443554,0.9666666666666667
37.6804957713,0.9722222222222222
38.7747362146,0.9777777777777777
39.8629936724,0.9833333333333333
40.6655475697,0.9888888888888889
42.0325632499,0.9944444444444445
43.9401769987,1.0
