Congestion,CDF
0.0,0.005555555555555556
0.0,0.011111111111111112
0.0,0.016666666666666666
0.0,0.022222222222222223
0.0,0.027777777777777776
0.0,0.03333333333333333
0.0,0.03888888888888889
0.0,0.044444444444444446
0.0,0.05
0.0,0.05555555555555555
6.0943271402e-07,0.06111111111111111
7.00208878915e-07,0.06666666666666667
1.57611217183e-06,0.07222222222222222
2.30357962148e-06,0.07777777777777778
2.35712883066e-06,0.08333333333333333
3.1122214858e-06,0.08888888888888889
3.42385554478e-06,0.09444444444444444
4.71885369093e-06,0.1
4.74319849323e-06,0.10555555555555556
4.85273729327e-06,0.1111111111111111
4.95261219472e-06,0.11666666666666667
5.45181422136e-06,0.12222222222222222
5.57826774443e-06,0.12777777777777777
6.22921743775e-06,0.13333333333333333
6.37997010622e-06,0.1388888888888889
6.71818978721e-06,0.14444444444444443
7.76833445109e-06,0.15
8.50172179614e-06,0.15555555555555556
8.87751002801e-06,0.16111111111111112
9.23297547871e-06,0.16666666666666666
9.37906010673e-06,0.17222222222222222
9.45438637996e-06,0.17777777777777778
9.76762368693e-06,0.18333333333333332
1.01070299926e-05,0.18888888888888888
1.02776409795e-05,0.19444444444444445
1.03937083728e-05,0.2
1.04513727167e-05,0.20555555555555555
1.05713898646e-05,0.2111111111111111
1.06746914686e-05,0.21666666666666667
1.06981159561e-05,0.2222222222222222
1.10555674912e-05,0.22777777777777777
1.11478026954e-05,0.23333333333333334
1.12757725304e-05,0.2388888888888889
1.22110568629e-05,0.24444444444444444
1.28492249164e-05,0.25
1.395052081e-05,0.25555555555555554
1.41715279149e-05,0.2611111111111111
1.43754664746e-05,0.26666666666666666
1.48622907274e-05,0.2722222222222222
5.25370723944e-05,0.2777777777777778
0.000105074144789,0.2833333333333333
0.000115178981074,0.28888888888888886
0.000115178981074,0.29444444444444445
0.000118579962331,0.3
0.000118579962331,0.3055555555555556
0.000179523233733,0.3111111111111111
0.000235712883066,0.31666666666666665
0.000237159924662,0.32222222222222224
0.000315762191918,0.3277777777777778
0.000471885369093,0.3333333333333333
0.000490745382313,0.3388888888888889
0.000519685418641,0.34444444444444444
0.000519685418641,0.35
0.000663761384466,0.35555555555555557
0.00101070299926,0.3611111111111111
0.00102776409795,0.36666666666666664
0.00106061761907,0.37222222222222223
0.00114260716242,0.37777777777777777
0.00120888886376,0.38333333333333336
0.00120888886376,0.3888888888888889
0.00137849638511,0.39444444444444443
0.00145681856935,0.4
0.00156647063648,0.40555555555555556
0.00167470657212,0.4111111111111111
0.00208051459487,0.4166666666666667
0.00219974614887,0.4222222222222222
0.00231444561289,0.42777777777777776
0.00265887517324,0.43333333333333335
0.00271479053532,0.4388888888888889
0.00284538038813,0.4444444444444444
0.00324977922302,0.45
0.00333924330691,0.45555555555555555
0.0033406416076,0.46111111111111114
0.00348894548351,0.4666666666666667
0.00349506777036,0.4722222222222222
0.00349640523712,0.4777777777777778
0.00349764442589,0.48333333333333334
0.00351157178671,0.4888888888888889
0.0035563299621,0.49444444444444446
0.00356188241778,0.5
0.00357217054776,0.5055555555555555
0.00357308946668,0.5111111111111111
0.00357700948027,0.5166666666666667
0.00358233920257,0.5222222222222223
0.00358256599442,0.5277777777777778
0.00358323292784,0.5333333333333333
0.00359134032679,0.5388888888888889
0.00359766593059,0.5444444444444444
0.0036040552845,0.55
0.00360725320557,0.5555555555555556
0.00360866006221,0.5611111111111111
0.00361313276997,0.5666666666666667
0.00361587986288,0.5722222222222222
0.00361797518182,0.5777777777777777
0.00361881842056,0.5833333333333334
0.00361962036739,0.5888888888888889
0.00362383908293,0.5944444444444444
0.00362666571151,0.6
0.00362694460738,0.6055555555555555
0.00362950601702,0.6111111111111112
0.00363466657618,0.6166666666666667
0.00363791275971,0.6222222222222222
0.00363810027627,0.6277777777777778
0.00363900307144,0.6333333333333333
0.00364059467916,0.6388888888888888
0.00364160077952,0.6444444444444445
0.0036428641452,0.65
0.00364587710337,0.6555555555555556
0.00366402330017,0.6611111111111111
0.00431897207953,0.6666666666666666
0.00489269650689,0.6722222222222223
0.0087047509588,0.6777777777777778
0.0105901100421,0.6833333333333333
0.011084867076,0.6888888888888889
0.0120763391149,0.6944444444444444
0.0123697895677,0.7
0.0130142451255,0.7055555555555556
0.0131567875275,0.7111111111111111
0.0139336209726,0.7166666666666667
0.0150484012421,0.7222222222222222
0.0151423318915,0.7277777777777777
0.0153907867966,0.7333333333333333
0.0156276056208,0.7388888888888889
0.0161854323952,0.7444444444444445
0.0899416482648,0.75
0.0899416482648,0.7555555555555555
0.119418866481,0.7611111111111111
0.137929298038,0.7666666666666667
0.174753388518,0.7722222222222223
0.174753388518,0.7777777777777778
0.17988329653,0.7833333333333333
0.180898759091,0.7888888888888889
0.180898759091,0.7944444444444444
0.238837732962,0.8
0.358233920257,0.8055555555555556
0.358323292784,0.8111111111111111
0.361587986288,0.8166666666666667
0.363791275971,0.8222222222222222
0.445574644474,0.8277777777777777
0.450666968822,0.8333333333333334
0.523647936869,0.8388888888888889
0.54003279177,0.8444444444444444
0.546285626547,0.85
0.573218318253,0.8555555555555555
0.573218318253,0.8611111111111112
0.72291100312,0.8666666666666667
0.723550023028,0.8722222222222222
0.802791699251,0.8777777777777778
0.901914633826,0.8833333333333333
0.932752406454,0.8888888888888888
0.937504732773,0.8944444444444445
1.16365770547,0.9
1.66476266636,0.9055555555555556
1.86367167273,0.9111111111111111
2.06517429311,0.9166666666666666
2.22407720118,0.9222222222222223
2.42923376103,0.9277777777777778
4.25274017469,0.9333333333333333
4.41885849584,0.9388888888888889
4.78180909754,0.9444444444444444
5.13799733932,0.95
5.33834563855,0.9555555555555556
5.70215566617,0.9611111111111111
6.0112857999,0.9666666666666667
6.23421800136,0.9722222222222222
6.3362637222,0.9777777777777777
6.58537518003,0.9833333333333333
6.60215123952,0.9888888888888889
6.91929951072,0.9944444444444445
7.19077856426,1.0
