Congestion,CDF
0.0,0.005555555555555556
0.0,0.011111111111111112
0.0,0.016666666666666666
0.0,0.022222222222222223
0.0,0.027777777777777776
0.0,0.03333333333333333
0.0,0.03888888888888889
0.0,0.044444444444444446
0.0,0.05
0.0,0.05555555555555555
1.17849630161e-06,0.06111111111111111
1.35403557304e-06,0.06666666666666667
3.04782188861e-06,0.07222222222222222
4.45456898181e-06,0.07777777777777778
4.55812027389e-06,0.08333333333333333
6.01828787073e-06,0.08888888888888889
6.62091319344e-06,0.09444444444444444
9.12512816372e-06,0.1
9.1722051565e-06,0.10555555555555556
9.38402685192e-06,0.1111111111111111
9.57716089161e-06,0.11666666666666667
1.05424975541e-05,0.12222222222222222
1.07870282559e-05,0.12777777777777777
1.20458084107e-05,0.13333333333333333
1.23373278158e-05,0.1388888888888889
1.29913633377e-05,0.14444444444444443
1.50220905601e-05,0.15
1.64402853073e-05,0.15555555555555556
1.71669693714e-05,0.16111111111111112
1.78543540644e-05,0.16666666666666666
1.81368466019e-05,0.17222222222222222
1.82825094985e-05,0.17777777777777778
1.88882351173e-05,0.18333333333333332
1.95445652859e-05,0.18888888888888888
1.9874485903e-05,0.19444444444444445
2.00989323277e-05,0.2
2.02104413005e-05,0.20555555555555555
2.04425256007e-05,0.2111111111111111
2.06422860591e-05,0.21666666666666667
2.06875833844e-05,0.2222222222222222
2.13788086869e-05,0.22777777777777777
2.15571693894e-05,0.23333333333333334
2.18046322739e-05,0.2388888888888889
2.36132472389e-05,0.24444444444444444
2.48473107763e-05,0.25
2.69769521752e-05,0.25555555555555554
2.74043267643e-05,0.2611111111111111
2.77986948919e-05,0.26666666666666666
2.87400959167e-05,0.2722222222222222
0.000101594062954,0.2777777777777778
0.000203188125908,0.2833333333333333
0.00022272844909,0.28888888888888886
0.00022272844909,0.29444444444444445
0.000229305128913,0.3
0.000229305128913,0.3055555555555556
0.000304402787725,0.3111111111111111
0.000313644040461,0.31666666666666665
0.000347154759073,0.32222222222222224
0.000436782319355,0.3277777777777778
0.000455812027389,0.3333333333333333
0.000458610257825,0.3388888888888889
0.000610608139017,0.34444444444444444
0.000716550886142,0.35
0.000912512816372,0.35555555555555557
0.000948983546146,0.3611111111111111
0.00100494661639,0.36666666666666664
0.00100494661639,0.37222222222222223
0.00114513857289,0.37777777777777777
0.00119143655994,0.38333333333333336
0.00121577406725,0.3888888888888889
0.00125485793536,0.39444444444444443
0.00128355488432,0.4
0.0012851057996,0.40555555555555556
0.00130310221312,0.4111111111111111
0.00134411491306,0.4166666666666667
0.00136936329971,0.4222222222222222
0.00137477442434,0.42777777777777776
0.00139117976605,0.43333333333333335
0.00140562612147,0.4388888888888889
0.00141730152718,0.4444444444444444
0.00142795764285,0.45
0.00143147181085,0.45555555555555555
0.00144102292157,0.46111111111111114
0.00146935836852,0.4666666666666667
0.00151602591528,0.4722222222222222
0.00156032861937,0.4777777777777778
0.00156415156719,0.48333333333333334
0.00159206119063,0.4888888888888889
0.00161399115521,0.49444444444444446
0.00162058565467,0.5
0.0016273807318,0.5055555555555555
0.00163472019043,0.5111111111111111
0.00164035856904,0.5166666666666667
0.00164336023428,0.5222222222222223
0.00165107022261,0.5277777777777778
0.00166732080735,0.5333333333333333
0.00167809893037,0.5388888888888889
0.00172501652154,0.5444444444444444
0.00174004382305,0.55
0.00178630504913,0.5555555555555556
0.00179529229271,0.5611111111111111
0.00180681379651,0.5666666666666667
0.00182639576079,0.5722222222222222
0.00195445652859,0.5777777777777777
0.0019874485903,0.5833333333333334
0.00205097939894,0.5888888888888889
0.00220952745746,0.5944444444444444
0.00233770032725,0.6
0.00233770032725,0.6055555555555555
0.00266568048329,0.6111111111111112
0.00281713675128,0.6166666666666667
0.003029177478,0.6222222222222222
0.00323847974701,0.6277777777777778
0.00402321486703,0.6333333333333333
0.00425378001753,0.6388888888888888
0.00447558119594,0.6444444444444445
0.00550228136255,0.65
0.00645999745172,0.6555555555555556
0.00676360314344,0.6611111111111111
0.00835185329797,0.6666666666666666
0.00946129836095,0.6722222222222223
0.0168328948797,0.6777777777777778
0.0204787259219,0.6833333333333333
0.0214354670374,0.6888888888888889
0.0233527355136,0.6944444444444444
0.0239201981151,0.7
0.0251664201738,0.7055555555555556
0.0254420628979,0.7111111111111111
0.026944271954,0.7166666666666667
0.0290999888929,0.7222222222222222
0.0292816281787,0.7277777777777777
0.0297620802122,0.7333333333333333
0.0302200308638,0.7388888888888889
0.0312987336894,0.7444444444444445
0.0347794941512,0.75
0.0347794941512,0.7555555555555555
0.0418285978452,0.7611111111111111
0.0549282870094,0.7666666666666667
0.0572569286446,0.7722222222222223
0.0572569286446,0.7777777777777778
0.0695589883024,0.7833333333333333
0.08136903659,0.7888888888888889
0.08136903659,0.7944444444444444
0.0836571956904,0.8
0.12851057996,0.8055555555555556
0.137477442434,0.8111111111111111
0.153923150145,0.8166666666666667
0.161399115521,0.8222222222222222
0.164336023428,0.8277777777777777
0.177575258436,0.8333333333333334
0.194193258616,0.8388888888888889
0.225471328747,0.8444444444444444
0.241395798462,0.85
0.241395798462,0.8555555555555555
0.252198564382,0.8611111111111112
0.284233371457,0.8666666666666667
0.301012232114,0.8722222222222222
0.325434972425,0.8777777777777778
0.375819013001,0.8833333333333333
0.38894334779,0.8888888888888888
0.409205691499,0.8944444444444445
0.440266233394,0.9
0.735600280395,0.9055555555555556
0.738792218188,0.9111111111111111
0.825844793153,0.9166666666666666
0.879354830336,0.9222222222222223
1.00447529807,0.9277777777777778
1.78006213299,0.9333333333333333
1.89838284755,0.9388888888888889
2.0790642272,0.9444444444444444
2.23066681873,0.95
2.24028048417,0.9555555555555556
2.41428486647,0.9611111111111111
2.56659023007,0.9666666666666667
2.59795463411,0.9722222222222222
2.6146889762,0.9777777777777777
2.62839491289,0.9833333333333333
2.74910046751,0.9888888888888889
2.82075555612,0.9944444444444445
2.86443378806,1.0
