Congestion,CDF
0.0,0.005555555555555556
0.0,0.011111111111111112
0.0,0.016666666666666666
0.0,0.022222222222222223
0.0,0.027777777777777776
0.0,0.03333333333333333
0.0,0.03888888888888889
0.0,0.044444444444444446
0.0,0.05
0.0,0.05555555555555555
3.7543690838e-07,0.06111111111111111
4.31358951813e-07,0.06666666666666667
9.70953261025e-07,0.07222222222222222
1.41910467128e-06,0.07777777777777778
1.45209330001e-06,0.08333333333333333
1.91726303158e-06,0.08888888888888889
2.10924308935e-06,0.09444444444444444
2.90701795303e-06,0.1
2.9220154041e-06,0.10555555555555556
2.98949604223e-06,0.1111111111111111
3.05102330087e-06,0.11666666666666667
3.3585533386e-06,0.12222222222222222
3.43645417764e-06,0.12777777777777777
3.83746734078e-06,0.13333333333333333
3.93033750426e-06,0.1388888888888889
4.13869545496e-06,0.14444444444444443
4.78562998422e-06,0.15
5.23742830606e-06,0.15555555555555556
5.46893010886e-06,0.16111111111111112
5.68791219954e-06,0.16666666666666666
5.77790664822e-06,0.17222222222222222
5.82431089021e-06,0.17777777777777778
6.01727861809e-06,0.18333333333333332
6.22636758092e-06,0.18888888888888888
6.33147132737e-06,0.19444444444444445
6.40297386131e-06,0.2
6.43849759095e-06,0.20555555555555555
6.51243334453e-06,0.2111111111111111
6.57607160016e-06,0.21666666666666667
6.59050209753e-06,0.2222222222222222
6.8107077021e-06,0.22777777777777777
6.86752857683e-06,0.23333333333333334
6.94636352961e-06,0.2388888888888889
7.52253912725e-06,0.24444444444444444
7.9156782475e-06,0.25
8.59412414645e-06,0.25555555555555554
8.73027408111e-06,0.2611111111111111
8.85590905372e-06,0.26666666666666666
9.15581384749e-06,0.2722222222222222
3.23651087008e-05,0.2777777777777778
6.47302174016e-05,0.2833333333333333
7.09552335638e-05,0.28888888888888886
7.09552335638e-05,0.29444444444444445
7.30503851026e-05,0.3
7.30503851026e-05,0.3055555555555556
0.000110594075941,0.3111111111111111
0.000145209330001,0.31666666666666665
0.000146100770205,0.32222222222222224
0.0001945231662,0.3277777777777778
0.000290701795303,0.3333333333333333
0.000302320379098,0.3388888888888889
0.000320148693065,0.34444444444444444
0.000320148693065,0.35
0.000408905718963,0.35555555555555557
0.000622636758092,0.3611111111111111
0.000633147132737,0.36666666666666664
0.000653386322585,0.37222222222222223
0.000703895427143,0.37777777777777777
0.000744727821702,0.38333333333333336
0.000744727821702,0.3888888888888889
0.000849213389984,0.39444444444444443
0.000897463242726,0.4
0.00096501365827,0.40555555555555556
0.00103169167558,0.4111111111111111
0.00128168696785,0.4166666666666667
0.0013551387616,0.4222222222222222
0.00142579859191,0.42777777777777776
0.00175287737515,0.43333333333333335
0.00205797970524,0.4388888888888889
0.00215470023131,0.4444444444444444
0.00266067358646,0.45
0.00301411264596,0.45555555555555555
0.00536250305079,0.46111111111111114
0.00613481006377,0.4666666666666667
0.00636480587305,0.4722222222222222
0.00652396578351,0.4777777777777778
0.00682875751348,0.48333333333333334
0.00743954716826,0.4888888888888889
0.00762032533822,0.49444444444444446
0.00801733783308,0.5
0.00810515011728,0.5055555555555555
0.00858371311571,0.5111111111111111
0.00927046597339,0.5166666666666667
0.00932833131568,0.5222222222222223
0.00948139028233,0.5277777777777778
0.00962728091991,0.5333333333333333
0.00997092633767,0.5388888888888889
0.01013450471,0.5444444444444444
0.010409145221,0.55
0.0106883025563,0.5555555555555556
0.0107332893259,0.5611111111111111
0.0107559209305,0.5666666666666667
0.0107801084248,0.5722222222222222
0.0107973180776,0.5777777777777777
0.0108023707754,0.5833333333333334
0.0108100753745,0.5888888888888889
0.0108178962697,0.5944444444444444
0.0108467109709,0.6
0.0108477514308,0.6055555555555555
0.0108625758206,0.6111111111111112
0.0108734231416,0.6166666666666667
0.0108765208814,0.6222222222222222
0.0108872440052,0.6277777777777778
0.0108877051751,0.6333333333333333
0.0109128650343,0.6388888888888888
0.01091992191,0.6444444444444445
0.0109615027655,0.65
0.0109715361397,0.6555555555555556
0.0109872941175,0.6611111111111111
0.0109947264755,0.6666666666666666
0.0110029972463,0.6722222222222223
0.0110064600422,0.6777777777777778
0.0110075508781,0.6833333333333333
0.0110110406857,0.6888888888888889
0.011020555643,0.6944444444444444
0.0110253341721,0.7
0.0110276936014,0.7055555555555556
0.0110420559352,0.7111111111111111
0.0110695801362,0.7166666666666667
0.0110749599502,0.7222222222222222
0.0111013106926,0.7277777777777777
0.0111069037159,0.7333333333333333
0.0111087541866,0.7388888888888889
0.0111338409564,0.7444444444444445
0.271564395516,0.75
0.271564395516,0.7555555555555555
0.359336947494,0.7611111111111111
0.415797363312,0.7666666666666667
0.534415127815,0.7722222222222223
0.534415127815,0.7777777777777778
0.543128791031,0.7833333333333333
0.550149862316,0.7888888888888889
0.550149862316,0.7944444444444444
0.718673894989,0.8
1.07973180776,0.8055555555555556
1.08467109709,0.8111111111111111
1.09947264755,0.8166666666666667
1.1020555643,0.8222222222222222
1.34489332811,0.8277777777777777
1.36028879604,0.8333333333333334
1.61620475478,0.8388888888888889
1.63892037982,0.8444444444444444
1.65651288667,0.85
1.73323664254,0.8555555555555555
1.73323664254,0.8611111111111112
2.18668982138,0.8666666666666667
2.20057671612,0.8722222222222222
2.42513040565,0.8777777777777778
2.73967546763,0.8833333333333333
2.8167793575,0.8888888888888888
2.83744223606,0.8944444444444445
3.52128068219,0.9
5.04014380458,0.9055555555555556
5.6256080931,0.9111111111111111
6.25887100174,0.9166666666666666
6.71295040726,0.9222222222222223
7.36900207099,0.9277777777777778
12.8556276291,0.9333333333333333
13.4199446263,0.9388888888888889
14.530820045,0.9444444444444444
15.622812236,0.95
16.1410468622,0.9555555555555556
17.2485428572,0.9611111111111111
18.3237921338,0.9666666666666667
18.8706100731,0.9722222222222222
19.3372426048,0.9777777777777777
19.9507236112,0.9833333333333333
19.9516176106,0.9888888888888889
20.9925321327,0.9944444444444445
21.62901272,1.0
