Congestion,CDF
0.0,0.007352941176470588
0.0,0.014705882352941176
0.0,0.022058823529411766
0.0,0.029411764705882353
0.0,0.03676470588235294
0.0,0.04411764705882353
0.0,0.051470588235294115
0.0,0.058823529411764705
0.0,0.0661764705882353
0.0,0.07352941176470588
0.0,0.08088235294117647
0.0,0.08823529411764706
0.0,0.09558823529411764
0.0,0.10294117647058823
1.56444674807e-05,0.11029411764705882
1.56444674807e-05,0.11764705882352941
1.56444674807e-05,0.125
1.56444674807e-05,0.1323529411764706
1.56444674807e-05,0.13970588235294118
1.56444674807e-05,0.14705882352941177
1.56444674807e-05,0.15441176470588236
1.56444674807e-05,0.16176470588235295
1.56444674807e-05,0.16911764705882354
1.56444674807e-05,0.17647058823529413
1.56444674807e-05,0.18382352941176472
1.56444674807e-05,0.19117647058823528
1.56444674807e-05,0.19852941176470587
1.56444674807e-05,0.20588235294117646
1.56444674807e-05,0.21323529411764705
1.56444674807e-05,0.22058823529411764
1.56444674807e-05,0.22794117647058823
1.56444674807e-05,0.23529411764705882
1.56444674807e-05,0.2426470588235294
1.56444674807e-05,0.25
1.56444674807e-05,0.25735294117647056
1.56444674807e-05,0.2647058823529412
1.56444674807e-05,0.27205882352941174
1.56444674807e-05,0.27941176470588236
1.56444674807e-05,0.2867647058823529
1.56444674807e-05,0.29411764705882354
1.56444674807e-05,0.3014705882352941
0.000357850592671,0.3088235294117647
0.000391111687019,0.3161764705882353
0.000391111687019,0.3235294117647059
0.00042240062198,0.33088235294117646
0.000782223374037,0.3382352941176471
0.000782223374037,0.34558823529411764
0.000782223374037,0.35294117647058826
0.000782223374037,0.3602941176470588
0.000809433219821,0.36764705882352944
0.00117333506106,0.375
0.0012624942364,0.38235294117647056
0.0013037056234,0.3897058823529412
0.0013037056234,0.39705882352941174
0.0013037056234,0.40441176470588236
0.00152547076652,0.4117647058823529
0.00156444674807,0.41911764705882354
0.00156444674807,0.4264705882352941
0.00156444674807,0.4338235294117647
0.00156444674807,0.4411764705882353
0.00156444674807,0.4485294117647059
0.00156444674807,0.45588235294117646
0.00156444674807,0.4632352941176471
0.00176008936332,0.47058823529411764
0.00188917795823,0.47794117647058826
0.00195555843509,0.4852941176470588
0.00196473711095,0.49264705882352944
0.00211320230419,0.5
0.00234667012211,0.5073529411764706
0.00234667012211,0.5147058823529411
0.00245589114303,0.5220588235294118
0.00251051488785,0.5294117647058824
0.00258304250259,0.5367647058823529
0.00259767939082,0.5441176470588235
0.0025982038921,0.5514705882352942
0.00259980467581,0.5588235294117647
0.00260044097575,0.5661764705882353
0.00260209736412,0.5735294117647058
0.00260399153995,0.5808823529411765
0.002624323613,0.5882352941176471
0.00264294704755,0.5955882352941176
0.00268145898935,0.6029411764705882
0.00269677020002,0.6102941176470589
0.00269681697654,0.6176470588235294
0.00269715085399,0.625
0.00269716557308,0.6323529411764706
0.00269826126983,0.6397058823529411
0.00269827108508,0.6470588235294118
0.00269827108508,0.6544117647058824
0.00286815237147,0.6617647058823529
0.00312889349615,0.6691176470588235
0.00312889349615,0.6764705882352942
0.00469334024422,0.6838235294117647
0.00638815755464,0.6911764705882353
0.0113422389235,0.6985294117647058
0.0116029800482,0.7058823529411765
0.014992614669,0.7132352941176471
0.0186429904146,0.7205882352941176
0.0189037315392,0.7279411764705882
0.0202074371626,0.7352941176470589
0.0204681782873,0.7426470588235294
0.0220326250354,0.75
0.0616655586176,0.7573529411764706
0.0649951168953,0.7647058823529411
0.0656080903251,0.7720588235294118
0.105660115209,0.7794117647058824
0.105660115209,0.7867647058823529
0.132147352378,0.7941176470588235
0.132147352378,0.8014705882352942
0.194985350686,0.8088235294117647
0.196473711095,0.8161764705882353
0.217210003624,0.8235294117647058
0.217210003624,0.8308823529411765
0.217210003624,0.8382352941176471
0.260044097575,0.8455882352941176
0.2624323613,0.8529411764705882
0.269681697654,0.8602941176470589
0.269716557308,0.8676470588235294
0.269827108508,0.875
0.269827108508,0.8823529411764706
0.281669051542,0.8897058823529411
0.325204853307,0.8970588235294118
0.385391506919,0.9044117647058824
0.392546506372,0.9117647058823529
0.468261492409,0.9191176470588235
0.539431642707,0.9264705882352942
0.809480343998,0.9338235294117647
1.06222689359,0.9411764705882353
1.88173761551,0.9485294117647058
1.95387879469,0.9558823529411765
2.57138204962,0.9632352941176471
2.67504759761,0.9705882352941176
2.71083265688,0.9779411764705882
3.22223280625,0.9852941176470589
3.37477988291,0.9926470588235294
3.45572320489,1.0
