Congestion,CDF
0.0,0.007352941176470588
0.0,0.014705882352941176
0.0,0.022058823529411766
0.0,0.029411764705882353
0.0,0.03676470588235294
0.0,0.04411764705882353
0.0,0.051470588235294115
0.0,0.058823529411764705
0.0,0.0661764705882353
0.0,0.07352941176470588
0.0,0.08088235294117647
0.0,0.08823529411764706
0.0,0.09558823529411764
0.0,0.10294117647058823
4.66432700266e-06,0.11029411764705882
4.66432700266e-06,0.11764705882352941
4.66432700266e-06,0.125
4.66432700266e-06,0.1323529411764706
4.66432700266e-06,0.13970588235294118
4.66432700266e-06,0.14705882352941177
4.66432700266e-06,0.15441176470588236
4.66432700266e-06,0.16176470588235295
4.66432700266e-06,0.16911764705882354
4.66432700266e-06,0.17647058823529413
4.66432700266e-06,0.18382352941176472
4.66432700266e-06,0.19117647058823528
4.66432700266e-06,0.19852941176470587
4.66432700266e-06,0.20588235294117646
4.66432700266e-06,0.21323529411764705
4.66432700266e-06,0.22058823529411764
4.66432700266e-06,0.22794117647058823
4.66432700266e-06,0.23529411764705882
4.66432700266e-06,0.2426470588235294
4.66432700266e-06,0.25
4.66432700266e-06,0.25735294117647056
4.66432700266e-06,0.2647058823529412
4.66432700266e-06,0.27205882352941174
4.66432700266e-06,0.27941176470588236
4.66432700266e-06,0.2867647058823529
4.66432700266e-06,0.29411764705882354
4.66432700266e-06,0.3014705882352941
0.000116608175067,0.3088235294117647
0.000116608175067,0.3161764705882353
0.000125936829072,0.3235294117647059
0.000233216350133,0.33088235294117646
0.000233216350133,0.3382352941176471
0.000233216350133,0.34558823529411764
0.000233216350133,0.35294117647058826
0.0003498245252,0.3602941176470588
0.000388693916889,0.36764705882352944
0.000388693916889,0.375
0.000388693916889,0.38235294117647056
0.000466432700266,0.3897058823529412
0.000466432700266,0.39705882352941174
0.000466432700266,0.40441176470588236
0.000466432700266,0.4117647058823529
0.000466432700266,0.41911764705882354
0.000466432700266,0.4264705882352941
0.000466432700266,0.4338235294117647
0.000583040875333,0.4411764705882353
0.000699649050399,0.4485294117647059
0.000699649050399,0.45588235294117646
0.000855126617155,0.4632352941176471
0.000932865400532,0.47058823529411764
0.000932865400532,0.47794117647058826
0.0013992981008,0.4852941176470588
0.00190460019275,0.49264705882352944
0.00338163707693,0.5
0.00345937586031,0.5073529411764706
0.00446998004422,0.5147058823529411
0.00555832301151,0.5220588235294118
0.00563606179488,0.5294117647058824
0.00602475571177,0.5367647058823529
0.00610249449515,0.5441176470588235
0.00656892719542,0.5514705882352942
0.016864980009,0.5588235294117647
0.0176923793638,0.5661764705882353
0.0276468230572,0.5735294117647058
0.0277573049577,0.5808823529411765
0.0279268460606,0.5882352941176471
0.027975640155,0.5955882352941176
0.0280149041605,0.6029411764705882
0.0280710777902,0.6102941176470589
0.0281935856512,0.6176470588235294
0.0282148036909,0.625
0.0282426362429,0.6323529411764706
0.0282465533639,0.6397058823529411
0.0282476811254,0.6470588235294118
0.0282481165014,0.6544117647058824
0.0282491036961,0.6617647058823529
0.0282491238403,0.6691176470588235
0.0282513133707,0.6764705882352942
0.028259971345,0.6838235294117647
0.0282675518947,0.6911764705882353
0.0282833443837,0.6985294117647058
0.0282902630856,0.7058823529411765
0.0282902801373,0.7132352941176471
0.028290370462,0.7205882352941176
0.0282903755277,0.7279411764705882
0.0282908054273,0.7352941176470589
0.0282908088048,0.7426470588235294
0.0282908088048,0.75
0.706228096009,0.7573529411764706
0.706499283625,0.7647058823529411
0.73893745291,0.7720588235294118
1.40355388951,0.7794117647058824
1.40355388951,0.7867647058823529
1.41337759473,0.7941176470588235
1.41337759473,0.8014705882352942
2.11868428803,0.8088235294117647
2.3543641695,0.8161764705882353
2.3543641695,0.8235294117647058
2.3543641695,0.8308823529411765
2.80149041605,0.8382352941176471
2.82476811254,0.8455882352941176
2.8259971345,0.8529411764705882
2.82902801373,0.8602941176470589
2.82903755277,0.8676470588235294
2.82908088048,0.875
2.82908088048,0.8823529411764706
3.53103974615,0.8897058823529411
4.19623849557,0.8970588235294118
4.2385089318,0.9044117647058824
5.1758445386,0.9117647058823529
5.59905443154,0.9191176470588235
5.65807459897,0.9264705882352942
8.4872423037,0.9338235294117647
11.5348273646,0.9411764705882353
20.5098705086,0.9485294117647058
20.9335843578,0.9558823529411765
27.1059467112,0.9632352941176471
33.4935595906,0.9705882352941176
34.1687192673,0.9779411764705882
35.1800575915,0.9852941176470589
36.9444497631,0.9926470588235294
38.7136876994,1.0
