Congestion,CDF
0.0,0.007352941176470588
0.0,0.014705882352941176
0.0,0.022058823529411766
0.0,0.029411764705882353
0.0,0.03676470588235294
0.0,0.04411764705882353
0.0,0.051470588235294115
0.0,0.058823529411764705
0.0,0.0661764705882353
0.0,0.07352941176470588
0.0,0.08088235294117647
0.0,0.08823529411764706
0.0,0.09558823529411764
0.0,0.10294117647058823
4.88576057573e-06,0.11029411764705882
4.88576057573e-06,0.11764705882352941
4.88576057573e-06,0.125
4.88576057573e-06,0.1323529411764706
4.88576057573e-06,0.13970588235294118
4.88576057573e-06,0.14705882352941177
4.88576057573e-06,0.15441176470588236
4.88576057573e-06,0.16176470588235295
4.88576057573e-06,0.16911764705882354
4.88576057573e-06,0.17647058823529413
4.88576057573e-06,0.18382352941176472
4.88576057573e-06,0.19117647058823528
4.88576057573e-06,0.19852941176470587
4.88576057573e-06,0.20588235294117646
4.88576057573e-06,0.21323529411764705
4.88576057573e-06,0.22058823529411764
4.88576057573e-06,0.22794117647058823
4.88576057573e-06,0.23529411764705882
4.88576057573e-06,0.2426470588235294
4.88576057573e-06,0.25
4.88576057573e-06,0.25735294117647056
4.88576057573e-06,0.2647058823529412
4.88576057573e-06,0.27205882352941174
4.88576057573e-06,0.27941176470588236
4.88576057573e-06,0.2867647058823529
4.88576057573e-06,0.29411764705882354
4.88576057573e-06,0.3014705882352941
0.000122144014393,0.3088235294117647
0.000122144014393,0.3161764705882353
0.000131915535545,0.3235294117647059
0.000244288028786,0.33088235294117646
0.000244288028786,0.3382352941176471
0.000244288028786,0.34558823529411764
0.000244288028786,0.35294117647058826
0.00036643204318,0.3602941176470588
0.000407146714644,0.36764705882352944
0.000407146714644,0.375
0.000407146714644,0.38235294117647056
0.000488576057573,0.3897058823529412
0.000488576057573,0.39705882352941174
0.000488576057573,0.40441176470588236
0.000488576057573,0.4117647058823529
0.000488576057573,0.41911764705882354
0.000488576057573,0.4264705882352941
0.000488576057573,0.4338235294117647
0.000610720071966,0.4411764705882353
0.000732864086359,0.4485294117647059
0.000732864086359,0.45588235294117646
0.000895722772217,0.4632352941176471
0.000977152115146,0.47058823529411764
0.000977152115146,0.47794117647058826
0.00146572817272,0.4852941176470588
0.00199501890176,0.49264705882352944
0.0035421764174,0.5
0.00362360576033,0.5073529411764706
0.00468218721841,0.5147058823529411
0.00582219801941,0.5220588235294118
0.00590362736234,0.5294117647058824
0.00631077407698,0.5367647058823529
0.00639220341991,0.5441176470588235
0.00688077947748,0.5514705882352942
0.0104131629755,0.5588235294117647
0.0112928801876,0.5661764705882353
0.0224533972788,0.5735294117647058
0.0225769496358,0.5808823529411765
0.02278926518,0.5882352941176471
0.0228429049776,0.5955882352941176
0.0228911623117,0.6029411764705882
0.0229439619686,0.6102941176470589
0.0230715152039,0.6176470588235294
0.0230958518894,0.625
0.0231225142774,0.6323529411764706
0.0231280514533,0.6397058823529411
0.0231294063533,0.6470588235294118
0.0231298696947,0.6544117647058824
0.0231307762012,0.6617647058823529
0.02313088737,0.6691176470588235
0.0231326751048,0.6764705882352942
0.0231417801966,0.6838235294117647
0.0231491952353,0.6911764705882353
0.0231651306418,0.6985294117647058
0.0231721240016,0.7058823529411765
0.0231721436113,0.7132352941176471
0.0231722347246,0.7205882352941176
0.0231722402772,0.7279411764705882
0.0231726699527,0.7352941176470589
0.0231726736549,0.7426470588235294
0.0231726736549,0.75
0.57827218425,0.7573529411764706
0.578544504914,0.7647058823529411
0.597938098014,0.7720588235294118
1.14719809843,0.7794117647058824
1.14719809843,0.7867647058823529
1.15745976176,0.7941176470588235
1.15745976176,0.8014705882352942
1.73481655275,0.8088235294117647
1.92784256254,0.8161764705882353
1.92784256254,0.8235294117647058
1.92784256254,0.8308823529411765
2.28911623117,0.8382352941176471
2.31294063533,0.8455882352941176
2.31417801966,0.8529411764705882
2.31721436113,0.8602941176470589
2.31722402772,0.8676470588235294
2.31726736549,0.875
2.31726736549,0.8823529411764706
2.89125915372,0.8897058823529411
3.42612461643,0.8970588235294118
3.47072727224,0.9044117647058824
4.23742775148,0.9117647058823529
4.57340672892,0.9191176470588235
4.63444750018,0.9264705882352942
6.95180172624,0.9338235294117647
9.44484749692,0.9411764705882353
16.7992204926,0.9485294117647058
17.1366248672,0.9558823529411765
22.2010358811,0.9632352941176471
27.3814959405,0.9705882352941176
27.9840145811,0.9779411764705882
28.422812238,0.9852941176470589
30.2417095447,0.9926470588235294
31.3709975634,1.0
