Congestion,CDF
0.0,0.005555555555555556
0.0,0.011111111111111112
0.0,0.016666666666666666
0.0,0.022222222222222223
0.0,0.027777777777777776
0.0,0.03333333333333333
0.0,0.03888888888888889
0.0,0.044444444444444446
0.0,0.05
0.0,0.05555555555555555
1.0456783616e-06,0.06111111111111111
1.20143414759e-06,0.06666666666666667
2.70432872346e-06,0.07222222222222222
3.95253373996e-06,0.07777777777777778
4.04441467781e-06,0.08333333333333333
5.34001964342e-06,0.08888888888888889
5.87472837289e-06,0.09444444444444444
8.09671532663e-06,0.1
8.13848668613e-06,0.10555555555555556
8.32643582361e-06,0.1111111111111111
8.49780342648e-06,0.11666666666666667
9.35434549472e-06,0.12222222222222222
9.57131729454e-06,0.12777777777777777
1.06882314233e-05,0.13333333333333333
1.09468962434e-05,0.1388888888888889
1.15272211813e-05,0.14444444444444443
1.33290830215e-05,0.15
1.45874455277e-05,0.15555555555555556
1.52322314303e-05,0.16111111111111112
1.58421470478e-05,0.16666666666666666
1.60928023392e-05,0.17222222222222222
1.62220488534e-05,0.17777777777777778
1.67595084719e-05,0.18333333333333332
1.73418694471e-05,0.18888888888888888
1.76346076167e-05,0.19444444444444445
1.78337586615e-05,0.2
1.79327004399e-05,0.20555555555555555
1.81386285624e-05,0.2111111111111111
1.83158757787e-05,0.21666666666666667
1.83560680414e-05,0.2222222222222222
1.89693914272e-05,0.22777777777777777
1.91276506656e-05,0.23333333333333334
1.93472241876e-05,0.2388888888888889
2.0952006087e-05,0.24444444444444444
2.20469891906e-05,0.25
2.39366174615e-05,0.25555555555555554
2.43158264243e-05,0.2611111111111111
2.46657487931e-05,0.26666666666666666
2.55010527986e-05,0.2722222222222222
9.01442907819e-05,0.2777777777777778
0.000180288581564,0.2833333333333333
0.000197626686998,0.28888888888888886
0.000197626686998,0.29444444444444445
0.000203462167153,0.3
0.000203462167153,0.3055555555555556
0.000308030003313,0.3111111111111111
0.000404441467781,0.31666666666666665
0.000406924334306,0.32222222222222224
0.000541791872842,0.3277777777777778
0.000809671532663,0.3333333333333333
0.000842031967655,0.3388888888888889
0.000891687933073,0.34444444444444444
0.000891687933073,0.35
0.00113889671663,0.35555555555555557
0.00173418694471,0.3611111111111111
0.00176346076167,0.36666666666666664
0.00181983157234,0.37222222222222223
0.0019605110754,0.37777777777777777
0.00207423870976,0.38333333333333336
0.00207423870976,0.3888888888888889
0.00236525511069,0.39444444444444443
0.00249964207648,0.4
0.00268778556018,0.40555555555555556
0.00287349921362,0.4111111111111111
0.00356979374884,0.4166666666666667
0.00377437393164,0.4222222222222222
0.00397117785248,0.42777777777777776
0.0048821676847,0.43333333333333335
0.00573194802735,0.4388888888888889
0.00600133699518,0.4444444444444444
0.00741058946134,0.45
0.00839499874134,0.45555555555555555
0.0149358075327,0.46111111111111114
0.0181707490643,0.4666666666666667
0.0190196643139,0.4722222222222222
0.0207208543441,0.4777777777777778
0.021224363233,0.48333333333333334
0.022330134578,0.4888888888888889
0.0225747120381,0.49444444444444446
0.0239076203403,0.5
0.0258203854068,0.5055555555555555
0.0259815537282,0.5111111111111111
0.0264078582441,0.5166666666666667
0.0268141973106,0.5222222222222223
0.0277713290401,0.5277777777777778
0.0330336698472,0.5333333333333333
0.0332328988516,0.5388888888888889
0.0362121871704,0.5444444444444444
0.036308068501,0.55
0.0363096160801,0.5555555555555556
0.0363245220559,0.5611111111111111
0.036330882047,0.5666666666666667
0.0363377960611,0.5722222222222222
0.0363433265567,0.5777777777777777
0.0363506612769,0.5833333333333334
0.0363780014577,0.5888888888888889
0.0363784193154,0.5944444444444444
0.0363819833316,0.6
0.0363904795857,0.6055555555555555
0.0364036749006,0.6111111111111112
0.036406274557,0.6166666666666667
0.0364110020792,0.6222222222222222
0.0364196794017,0.6277777777777778
0.0364423833035,0.6333333333333333
0.0364475049804,0.6388888888888888
0.0364487756102,0.6444444444444445
0.0364548097126,0.65
0.0364557258121,0.6555555555555556
0.0364639253992,0.6611111111111111
0.0364663169494,0.6666666666666666
0.0364696628204,0.6722222222222223
0.0364726049388,0.6777777777777778
0.0364745617615,0.6833333333333333
0.0364755597345,0.6888888888888889
0.036477570299,0.6944444444444444
0.0364797219629,0.7
0.0364858440406,0.7055555555555556
0.0364895879282,0.7111111111111111
0.0365054913787,0.7166666666666667
0.0365162396224,0.7222222222222222
0.0365350989882,0.7277777777777777
0.0365388321591,0.7333333333333333
0.0365423429377,0.7388888888888889
0.0365503895666,0.7444444444444445
0.909460482886,0.75
0.909460482886,0.7555555555555555
1.21081740186,0.7611111111111111
1.41414609298,0.7666666666666667
1.81654410235,0.7722222222222223
1.81654410235,0.7777777777777778
1.81892096577,0.7833333333333333
1.82372808807,0.7888888888888889
1.82372808807,0.7944444444444444
2.42163480373,0.8
3.63377960611,0.8055555555555556
3.63780014577,0.8111111111111111
3.64696628204,0.8166666666666667
3.64726049388,0.8222222222222222
4.54026733298,0.8277777777777777
4.54850844145,0.8333333333333334
5.46129460039,0.8388888888888889
5.46409557814,0.8444444444444444
5.47315525954,0.85
5.76770875948,0.8555555555555555
5.76770875948,0.8611111111111112
7.28432874398,0.8666666666666667
7.29493847833,0.8722222222222222
8.17533346067,0.8777777777777778
9.11185260804,0.8833333333333333
9.40356417367,0.8888888888888888
9.41629316354,0.8944444444444445
11.8202110217,0.9
16.7099461973,0.9055555555555556
18.8022345412,0.9111111111111111
20.9306980484,0.9166666666666666
22.4404328743,0.9222222222222223
24.5842079472,0.9277777777777778
42.7979350451,0.9333333333333333
44.6448822494,0.9388888888888889
48.2999212061,0.9444444444444444
51.9454937873,0.95
53.7277447603,0.9555555555555556
57.3793687226,0.9611111111111111
61.0534200826,0.9666666666666667
62.8370130329,0.9722222222222222
64.6746387997,0.9777777777777777
66.478980973,0.9833333333333333
67.9780057844,0.9888888888888889
70.1133136287,0.9944444444444445
73.4366035139,1.0
