Congestion,CDF
0.0,0.005555555555555556
0.0,0.011111111111111112
0.0,0.016666666666666666
0.0,0.022222222222222223
0.0,0.027777777777777776
0.0,0.03333333333333333
0.0,0.03888888888888889
0.0,0.044444444444444446
0.0,0.05
0.0,0.05555555555555555
1.0696581704e-06,0.06111111111111111
1.22898579464e-06,0.06666666666666667
2.76634519823e-06,0.07222222222222222
4.04317442533e-06,0.07777777777777778
4.13716240432e-06,0.08333333333333333
5.46247857033e-06,0.08888888888888889
6.00944940024e-06,0.09444444444444444
8.2823916231e-06,0.1
8.3251208959e-06,0.10555555555555556
8.51738013919e-06,0.1111111111111111
8.69267759516e-06,0.11666666666666667
9.56886214218e-06,0.12222222222222222
9.79080960418e-06,0.12777777777777777
1.09333371416e-05,0.13333333333333333
1.11979337408e-05,0.1388888888888889
1.17915668636e-05,0.14444444444444443
1.36347495382e-05,0.15
1.49219691896e-05,0.15555555555555556
1.55815415153e-05,0.16111111111111112
1.62054439001e-05,0.16666666666666666
1.64618472935e-05,0.17222222222222222
1.65940577275e-05,0.17777777777777778
1.71438425306e-05,0.18333333333333332
1.77395583818e-05,0.18888888888888888
1.80390097106e-05,0.19444444444444445
1.82427277467e-05,0.2
1.83439384876e-05,0.20555555555555555
1.85545890154e-05,0.2111111111111111
1.87359009177e-05,0.21666666666666667
1.87770148814e-05,0.2222222222222222
1.94044031825e-05,0.22777777777777777
1.9566291669e-05,0.23333333333333334
1.97909005167e-05,0.2388888888888889
2.14324837544e-05,0.24444444444444444
2.25525773378e-05,0.25
2.44855391293e-05,0.25555555555555554
2.48734442253e-05,0.2611111111111111
2.52313911185e-05,0.26666666666666666
2.60858505652e-05,0.2722222222222222
7.14467906217e-05,0.2777777777777778
9.22115066076e-05,0.2833333333333333
0.000184423013215,0.28888888888888886
0.000202158721267,0.29444444444444445
0.000202158721267,0.3
0.000208128022397,0.3055555555555556
0.000208128022397,0.3111111111111111
0.000315093839438,0.31666666666666665
0.000413716240432,0.32222222222222224
0.000416256044795,0.3277777777777778
0.000554216406044,0.3333333333333333
0.000730440505466,0.3388888888888889
0.00082823916231,0.34444444444444444
0.000861341696471,0.35
0.000912136387334,0.35555555555555557
0.000912136387334,0.3611111111111111
0.00116501423662,0.36666666666666664
0.00177395583818,0.37222222222222223
0.00180390097106,0.37777777777777777
0.00186156449402,0.38333333333333336
0.00200547010149,0.3888888888888889
0.00212180577197,0.39444444444444443
0.00212180577197,0.4
0.002419495848,0.40555555555555556
0.00255696461587,0.4111111111111111
0.00274942266218,0.4166666666666667
0.00293939515665,0.4222222222222222
0.00365165732632,0.42777777777777776
0.00386092900303,0.43333333333333335
0.00406224609021,0.4388888888888889
0.00499412701362,0.4444444444444444
0.00586339477313,0.45
0.00613896144932,0.45555555555555555
0.00758053131434,0.46111111111111114
0.00858751536224,0.4666666666666667
0.00924630678819,0.4722222222222222
0.00937156164611,0.4777777777777778
0.00938025411273,0.48333333333333334
0.00946410142404,0.4888888888888889
0.00952560764237,0.49444444444444446
0.00953884817116,0.5
0.0096111460316,0.5055555555555555
0.00976494236174,0.5111111111111111
0.00976727638566,0.5166666666666667
0.00978732310777,0.5222222222222223
0.00983511098085,0.5277777777777778
0.00990949461007,0.5333333333333333
0.00991615932842,0.5388888888888889
0.00992396002802,0.5444444444444444
0.00995501283818,0.55
0.0100378764387,0.5555555555555556
0.0101270693971,0.5611111111111111
0.0101630395562,0.5666666666666667
0.0101970513318,0.5722222222222222
0.0102028215735,0.5777777777777777
0.0102090135127,0.5833333333333334
0.0102482491604,0.5888888888888889
0.0102807005026,0.5944444444444444
0.0102970715727,0.6
0.0103081638214,0.6055555555555555
0.0103108364639,0.6111111111111112
0.0103137005585,0.6166666666666667
0.0103251571878,0.6222222222222222
0.0103372832244,0.6277777777777778
0.0103715403739,0.6333333333333333
0.0103926163276,0.6388888888888888
0.0104821347127,0.6444444444444445
0.0105430998535,0.65
0.010648653604,0.6555555555555556
0.0106697808127,0.6611111111111111
0.0106893446826,0.6666666666666666
0.0107356856972,0.6722222222222223
0.0152783199362,0.6777777777777778
0.0185874461141,0.6833333333333333
0.0194558289421,0.6888888888888889
0.0211960311706,0.6944444444444444
0.0217110866759,0.7
0.0228422159,0.7055555555555556
0.0230924020835,0.7111111111111111
0.0244558770373,0.7166666666666667
0.0264125062042,0.7222222222222222
0.0265773704858,0.7277777777777777
0.0270134511443,0.7333333333333333
0.0274291084997,0.7388888888888889
0.0284081894601,0.7444444444444445
0.244181909642,0.75
0.244181909642,0.7555555555555555
0.315470047468,0.7611111111111111
0.373689883119,0.7666666666666667
0.476280382118,0.7722222222222223
0.476280382118,0.7777777777777778
0.488363819283,0.7833333333333333
0.515408191068,0.7888888888888889
0.515408191068,0.7944444444444444
0.630940094936,0.8
0.953884817116,0.8055555555555556
0.976494236174,0.8111111111111111
1.02807005026,0.8166666666666667
1.02970715727,0.8222222222222222
1.18133807425,0.8277777777777777
1.22769300773,0.8333333333333334
1.49656253947,0.8388888888888889
1.50635765207,0.8444444444444444
1.55729828754,0.85
1.59031719264,0.8555555555555555
1.59031719264,0.8611111111111112
2.00209828838,0.8666666666666667
2.0617983727,0.8722222222222222
2.14245267741,0.8777777777777778
2.53887337086,0.8833333333333333
2.5558699949,0.8888888888888888
2.62747123003,0.8944444444444445
3.15875663303,0.9
4.68200330334,0.9055555555555556
5.08421259881,0.9111111111111111
5.68992069304,0.9166666666666666
6.06294490959,0.9222222222222223
6.75478605343,0.9277777777777778
11.7763182688,0.9333333333333333
12.4224358783,0.9388888888888889
13.496004448,0.9444444444444444
14.5169057993,0.95
14.7981216903,0.9555555555555556
15.8524316757,0.9611111111111111
17.0445519851,0.9666666666666667
17.3242133416,0.9722222222222222
17.9691826639,0.9777777777777777
18.0422267145,0.9833333333333333
18.3280009855,0.9888888888888889
19.3196169183,0.9944444444444445
19.3267615974,1.0
