Congestion,CDF
0.0,0.005555555555555556
0.0,0.011111111111111112
0.0,0.016666666666666666
0.0,0.022222222222222223
0.0,0.027777777777777776
0.0,0.03333333333333333
0.0,0.03888888888888889
0.0,0.044444444444444446
0.0,0.05
0.0,0.05555555555555555
1.22149644108e-06,0.06111111111111111
1.40344066527e-06,0.06666666666666667
3.15902865786e-06,0.07222222222222222
4.61710414396e-06,0.07777777777777778
4.72443374234e-06,0.08333333333333333
6.23787890163e-06,0.08888888888888889
6.86249239087e-06,0.09444444444444444
9.45807938567e-06,0.1
9.50687409047e-06,0.10555555555555556
9.72642458608e-06,0.1111111111111111
9.926605564e-06,0.11666666666666667
1.09271647478e-05,0.12222222222222222
1.11806177129e-05,0.12777777777777777
1.24853273476e-05,0.13333333333333333
1.27874835066e-05,0.1388888888888889
1.3465383014e-05,0.14444444444444443
1.55702059748e-05,0.15
1.70401468088e-05,0.15555555555555556
1.77933456071e-05,0.16111111111111112
1.85058111065e-05,0.16666666666666666
1.87986110319e-05,0.17222222222222222
1.89495887733e-05,0.17777777777777778
1.957741568e-05,0.18333333333333332
2.02576935596e-05,0.18888888888888888
2.05996520868e-05,0.19444444444444445
2.08322879539e-05,0.2
2.09478655872e-05,0.20555555555555555
2.11884180152e-05,0.2111111111111111
2.13954671919e-05,0.21666666666666667
2.1442417294e-05,0.2222222222222222
2.21588635364e-05,0.22777777777777777
2.23437321381e-05,0.23333333333333334
2.26002242732e-05,0.2388888888888889
2.44748307018e-05,0.24444444444444444
2.57539218766e-05,0.25
2.79612681245e-05,0.25555555555555554
2.84042364553e-05,0.2611111111111111
2.88129940082e-05,0.26666666666666666
2.97887442077e-05,0.2722222222222222
7.11496042073e-05,0.2777777777777778
0.000105300955262,0.2833333333333333
0.000210601910524,0.28888888888888886
0.000230855207198,0.29444444444444445
0.000230855207198,0.3
0.000237671852262,0.3055555555555556
0.000237671852262,0.3111111111111111
0.000359821496369,0.31666666666666665
0.000405949604551,0.32222222222222224
0.000472443374234,0.3277777777777778
0.000475343704523,0.3333333333333333
0.000632887576891,0.3388888888888889
0.000657339194451,0.34444444444444444
0.000945807938567,0.35
0.000983609386532,0.35555555555555557
0.0010225433848,0.3611111111111111
0.00103264218163,0.36666666666666664
0.00104161439769,0.37222222222222223
0.00104161439769,0.37777777777777777
0.00112952809759,0.38333333333333336
0.00118005975336,0.3888888888888889
0.0012157593454,0.39444444444444443
0.00129938817748,0.4
0.00133038832704,0.40555555555555556
0.00140136470793,0.4111111111111111
0.00147710082021,0.4166666666666667
0.00147984559408,0.4222222222222222
0.00150302118789,0.42777777777777776
0.00155825115465,0.43333333333333335
0.0016439039319,0.4388888888888889
0.00166091367169,0.4444444444444444
0.00169141907326,0.45
0.00175564408808,0.45555555555555555
0.00189562309096,0.46111111111111114
0.00193711260996,0.4666666666666667
0.00193828284536,0.4722222222222222
0.00197630094816,0.4777777777777778
0.00198249814454,0.48333333333333334
0.00202576935596,0.4888888888888889
0.002035636325,0.49444444444444446
0.00205996520868,0.5
0.00206151530709,0.5055555555555555
0.00207280049948,0.5111111111111111
0.00209205270069,0.5166666666666667
0.00210467220956,0.5222222222222223
0.00211124803987,0.5277777777777778
0.00212417445366,0.5333333333333333
0.00212581408453,0.5388888888888889
0.0021381780459,0.5444444444444444
0.00217810512917,0.55
0.00220239088554,0.5555555555555556
0.00229014713246,0.5611111111111111
0.00230571252747,0.5666666666666667
0.00237523831071,0.5722222222222222
0.00242299668326,0.5777777777777777
0.00242299668326,0.5833333333333334
0.00249816557481,0.5888888888888889
0.00252235084454,0.5944444444444444
0.00254535031044,0.6
0.00259709250107,0.6055555555555555
0.00276294394724,0.6111111111111112
0.00291992644441,0.6166666666666667
0.00313970396318,0.6222222222222222
0.00335664310534,0.6277777777777778
0.00417001108536,0.6333333333333333
0.00440898893398,0.6388888888888888
0.0046388830369,0.6444444444444445
0.00570304471298,0.65
0.00669570526938,0.6555555555555556
0.00701038871083,0.6611111111111111
0.00865658981358,0.6666666666666666
0.00980651552328,0.6722222222222223
0.0174470816417,0.6777777777777778
0.0212259391881,0.6833333333333333
0.0222175891967,0.6888888888888889
0.0242048136089,0.6944444444444444
0.0247929813844,0.7
0.0260846747121,0.7055555555555556
0.026370374893,0.7111111111111111
0.0279273954905,0.7166666666666667
0.0301617687043,0.7222222222222222
0.0303500355158,0.7277777777777777
0.0308480179434,0.7333333333333333
0.0313226779744,0.7388888888888889
0.0324407397457,0.7444444444444445
0.0369961398521,0.75
0.0369961398521,0.7555555555555555
0.0376509365865,0.7611111111111111
0.0590029876681,0.7666666666666667
0.0590029876681,0.7722222222222223
0.0678803248771,0.7777777777777778
0.0739922797041,0.7833333333333333
0.0753018731729,0.7888888888888889
0.105233610478,0.7944444444444444
0.105233610478,0.8
0.12157593454,0.8055555555555556
0.139250478332,0.8111111111111111
0.147710082021,0.8166666666666667
0.192821255317,0.8222222222222222
0.207280049948,0.8277777777777777
0.209205270069,0.8333333333333334
0.252831272204,0.8388888888888889
0.26918929608,0.8444444444444444
0.269624003668,0.85
0.284960275545,0.8555555555555555
0.284960275545,0.8611111111111112
0.328527310748,0.8666666666666667
0.352147187287,0.8722222222222222
0.420034500999,0.8777777777777778
0.421097854538,0.8833333333333333
0.462900557076,0.8888888888888888
0.482041449034,0.8944444444444445
0.502770788462,0.9
0.808258994707,0.9055555555555556
0.915539691031,0.9111111111111111
0.936083338128,0.9166666666666666
0.958561113495,0.9222222222222223
1.18589989561,0.9277777777777778
2.08522560851,0.9333333333333333
2.34127428364,0.9388888888888889
2.60098353374,0.9444444444444444
2.63500289062,0.95
2.7992333482,0.9555555555555556
2.87252672169,0.9611111111111111
3.10067161668,0.9666666666666667
3.25821615111,0.9722222222222222
3.27623602549,0.9777777777777777
3.32395007055,0.9833333333333333
3.36454503101,0.9888888888888889
3.41637249628,0.9944444444444445
3.4234874567,1.0
