Congestion,CDF
0.0,0.005555555555555556
0.0,0.011111111111111112
0.0,0.016666666666666666
0.0,0.022222222222222223
0.0,0.027777777777777776
0.0,0.03333333333333333
0.0,0.03888888888888889
0.0,0.044444444444444446
0.0,0.05
0.0,0.05555555555555555
1.09850286328e-06,0.06111111111111111
1.26212695953e-06,0.06666666666666667
2.84094321454e-06,0.07222222222222222
4.15220376553e-06,0.07777777777777778
4.24872624989e-06,0.08333333333333333
5.60978125177e-06,0.08888888888888889
6.1715018457e-06,0.09444444444444444
8.50573684616e-06,0.1
8.54961836814e-06,0.10555555555555556
8.74706212643e-06,0.1111111111111111
8.92708670123e-06,0.11666666666666667
9.82689867883e-06,0.12222222222222222
1.00548312364e-05,0.12777777777777777
1.12281684819e-05,0.13333333333333333
1.14999002648e-05,0.1388888888888889
1.21095414597e-05,0.14444444444444443
1.40024278992e-05,0.15
1.53243590655e-05,0.15555555555555556
1.60017175978e-05,0.16111111111111112
1.66424443038e-05,0.16666666666666666
1.69057619408e-05,0.17222222222222222
1.70415375972e-05,0.17777777777777778
1.76061480467e-05,0.18333333333333332
1.82179281334e-05,0.18888888888888888
1.85254545482e-05,0.19444444444444445
1.87346661001e-05,0.2
1.88386061174e-05,0.20555555555555555
1.90549371045e-05,0.2111111111111111
1.9241138313e-05,0.21666666666666667
1.9283360967e-05,0.2222222222222222
1.99276675914e-05,0.22777777777777777
2.00939216069e-05,0.23333333333333334
2.03245873178e-05,0.2388888888888889
2.20104379351e-05,0.24444444444444444
2.31607362665e-05,0.25
2.51458228308e-05,0.25555555555555554
2.55441882811e-05,0.2611111111111111
2.59117876675e-05,0.26666666666666666
2.67892886998e-05,0.2722222222222222
8.08309778264e-05,0.2777777777777778
9.46981071512e-05,0.2833333333333333
0.000189396214302,0.28888888888888886
0.000207610188276,0.29444444444444445
0.000207610188276,0.3
0.000213740459204,0.3055555555555556
0.000213740459204,0.3111111111111111
0.000323590745532,0.31666666666666665
0.000424872624989,0.32222222222222224
0.000427480918407,0.3277777777777778
0.000569161556245,0.3333333333333333
0.000591260097911,0.3388888888888889
0.000850573684616,0.34444444444444444
0.000884568870709,0.35
0.000936733305007,0.35555555555555557
0.000936733305007,0.3611111111111111
0.00119643032709,0.36666666666666664
0.00182179281334,0.37222222222222223
0.00185254545482,0.37777777777777777
0.001911763948,0.38333333333333336
0.00205955015319,0.3888888888888889
0.00217902296297,0.39444444444444443
0.00217902296297,0.4
0.00248474063048,0.40555555555555556
0.0026259164185,0.4111111111111111
0.00282356434079,0.4166666666666667
0.00301865968516,0.4222222222222222
0.00375012891004,0.42777777777777776
0.00396504386365,0.43333333333333335
0.00417178972211,0.4388888888888889
0.00437497729142,0.4444444444444444
0.00460073397553,0.45
0.0046101989913,0.45555555555555555
0.00470149940972,0.46111111111111114
0.00476427338343,0.4666666666666667
0.00478288832305,0.4722222222222222
0.00486161474353,0.4777777777777778
0.00502908163057,0.48333333333333334
0.00503162327998,0.4888888888888889
0.00505345184844,0.49444444444444446
0.00510374855235,0.5
0.00510548758974,0.5055555555555555
0.00512879999971,0.5111111111111111
0.00518648067022,0.5166666666666667
0.00520223433056,0.5222222222222223
0.00523546533131,0.5277777777777778
0.0053186168695,0.5333333333333333
0.00542339786391,0.5388888888888889
0.0054625653803,0.5444444444444444
0.00549713313436,0.55
0.00549959641428,0.5555555555555556
0.00551175559176,0.5611111111111111
0.00555534908819,0.5666666666666667
0.00559068095227,0.5722222222222222
0.00560851126913,0.5777777777777777
0.00561378805606,0.5833333333333334
0.00562058810244,0.5888888888888889
0.00562661806711,0.5944444444444444
0.00563909026036,0.6
0.00565229318939,0.6055555555555555
0.00568959958965,0.6111111111111112
0.00571254878423,0.6166666666666667
0.00581002201997,0.6222222222222222
0.00587635722055,0.6277777777777778
0.00599134375827,0.6333333333333333
0.00601434187433,0.6388888888888888
0.00602150866983,0.6444444444444445
0.00603565317389,0.65
0.0060860250525,0.6555555555555556
0.00630450635188,0.6611111111111111
0.0077849499816,0.6666666666666666
0.00881908863497,0.6722222222222223
0.0156903192632,0.6777777777777778
0.0190886802368,0.6833333333333333
0.019980480112,0.6888888888888889
0.0217676091067,0.6944444444444444
0.0222965537387,0.7
0.0234581853008,0.7055555555555556
0.0237151180729,0.7111111111111111
0.0251153608629,0.7166666666666667
0.0271247530235,0.7222222222222222
0.0272940630801,0.7277777777777777
0.0277419032081,0.7333333333333333
0.0281687692928,0.7388888888888889
0.0291742524164,0.7444444444444445
0.125790581999,0.75
0.125790581999,0.7555555555555555
0.156716646991,0.7611111111111111
0.199151726139,0.7666666666666667
0.238213669171,0.7722222222222223
0.238213669171,0.7777777777777778
0.251581163999,0.7833333333333333
0.281029405122,0.7888888888888889
0.281029405122,0.7944444444444444
0.313433293981,0.8
0.478288832305,0.8055555555555556
0.502908163057,0.8111111111111111
0.559068095227,0.8166666666666667
0.560851126913,0.8222222222222222
0.585863979552,0.8277777777777777
0.636339340973,0.8333333333333334
0.787926982607,0.8388888888888889
0.799677472144,0.8444444444444444
0.844401604212,0.85
0.844401604212,0.8555555555555555
0.855146481387,0.8611111111111112
1.0592910343,0.8666666666666667
1.07202545391,0.8722222222222222
1.12429741417,0.8777777777777778
1.33539577435,0.8833333333333333
1.36358649818,0.8888888888888888
1.41336156318,0.8944444444444445
1.61828199194,0.9
2.52974759891,0.9055555555555556
2.6408172777,0.9111111111111111
2.97347443854,0.9166666666666666
3.14616246254,0.9222222222222223
3.57260881436,0.9277777777777778
6.23857186816,0.9333333333333333
6.66192691414,0.9388888888888889
7.27052941939,0.9444444444444444
7.82170497857,0.95
7.84782254389,0.9555555555555556
8.43545826595,0.9611111111111111
9.17101076678,0.9666666666666667
9.19721846825,0.9722222222222222
9.60850849593,0.9777777777777777
9.66763450572,0.9833333333333333
9.7290801552,0.9888888888888889
10.2394550104,0.9944444444444445
10.2475381082,1.0
