Congestion,CDF
0.0,0.007352941176470588
0.0,0.014705882352941176
0.0,0.022058823529411766
0.0,0.029411764705882353
0.0,0.03676470588235294
0.0,0.04411764705882353
0.0,0.051470588235294115
0.0,0.058823529411764705
0.0,0.0661764705882353
0.0,0.07352941176470588
0.0,0.08088235294117647
0.0,0.08823529411764706
0.0,0.09558823529411764
0.0,0.10294117647058823
3.20585793734e-06,0.11029411764705882
3.20585793734e-06,0.11764705882352941
3.20585793734e-06,0.125
3.20585793734e-06,0.1323529411764706
3.20585793734e-06,0.13970588235294118
3.20585793734e-06,0.14705882352941177
3.20585793734e-06,0.15441176470588236
3.20585793734e-06,0.16176470588235295
3.20585793734e-06,0.16911764705882354
3.20585793734e-06,0.17647058823529413
3.20585793734e-06,0.18382352941176472
3.20585793734e-06,0.19117647058823528
3.20585793734e-06,0.19852941176470587
3.20585793734e-06,0.20588235294117646
3.20585793734e-06,0.21323529411764705
3.20585793734e-06,0.22058823529411764
3.20585793734e-06,0.22794117647058823
3.20585793734e-06,0.23529411764705882
3.20585793734e-06,0.2426470588235294
3.20585793734e-06,0.25
3.20585793734e-06,0.25735294117647056
3.20585793734e-06,0.2647058823529412
3.20585793734e-06,0.27205882352941174
3.20585793734e-06,0.27941176470588236
3.20585793734e-06,0.2867647058823529
3.20585793734e-06,0.29411764705882354
3.20585793734e-06,0.3014705882352941
8.01464484335e-05,0.3088235294117647
8.01464484335e-05,0.3161764705882353
8.65581643081e-05,0.3235294117647059
0.000160292896867,0.33088235294117646
0.000160292896867,0.3382352941176471
0.000160292896867,0.34558823529411764
0.000160292896867,0.35294117647058826
0.0002404393453,0.3602941176470588
0.000267154828112,0.36764705882352944
0.000267154828112,0.375
0.000267154828112,0.38235294117647056
0.000320585793734,0.3897058823529412
0.000320585793734,0.39705882352941174
0.000320585793734,0.40441176470588236
0.000320585793734,0.4117647058823529
0.000320585793734,0.41911764705882354
0.000320585793734,0.4264705882352941
0.000320585793734,0.4338235294117647
0.000400732242167,0.4411764705882353
0.000480878690601,0.4485294117647059
0.000480878690601,0.45588235294117646
0.000587740621845,0.4632352941176471
0.000641171587468,0.47058823529411764
0.000641171587468,0.47794117647058826
0.000961757381201,0.4852941176470588
0.00130905865775,0.49264705882352944
0.00232424700457,0.5
0.00237767797019,0.5073529411764706
0.00307228052328,0.5147058823529411
0.00382031404199,0.5220588235294118
0.00387374500762,0.5294117647058824
0.00414089983573,0.5367647058823529
0.00419433080135,0.5441176470588235
0.00451491659508,0.5514705882352942
0.00773706764838,0.5588235294117647
0.0079820834408,0.5661764705882353
0.00977811395114,0.5735294117647058
0.0097899917218,0.5808823529411765
0.00982158315322,0.5882352941176471
0.00982158315322,0.5955882352941176
0.00990466790845,0.6029411764705882
0.00996515315998,0.6102941176470589
0.0101444575452,0.6176470588235294
0.0101514644424,0.625
0.01019098157,0.6323529411764706
0.01019098157,0.6397058823529411
0.0101910410796,0.6470588235294118
0.0102280134198,0.6544117647058824
0.0102403402935,0.6617647058823529
0.0102810897161,0.6691176470588235
0.0102929427554,0.6764705882352942
0.0102942026538,0.6838235294117647
0.0103369938129,0.6911764705882353
0.0103799909243,0.6985294117647058
0.0104042873119,0.7058823529411765
0.0104042873119,0.7132352941176471
0.010404431758,0.7205882352941176
0.010404431758,0.7279411764705882
0.0104050270436,0.7352941176470589
0.0104050270436,0.7426470588235294
0.0104050270436,0.75
0.255700335495,0.7573529411764706
0.257027242903,0.7647058823529411
0.270555263191,0.7720588235294118
0.498257657999,0.7794117647058824
0.498257657999,0.7867647058823529
0.516849690646,0.7941176470588235
0.516849690646,0.8014705882352942
0.767101006485,0.8088235294117647
0.854072254847,0.8161764705882353
0.854072254847,0.8235294117647058
0.854072254847,0.8308823529411765
0.982158315322,0.8382352941176471
1.019098157,0.8455882352941176
1.02810897161,0.8529411764705882
1.04042873119,0.8602941176470589
1.0404431758,0.8676470588235294
1.04050270436,0.875
1.04050270436,0.8823529411764706
1.27480444345,0.8897058823529411
1.47725683018,0.8970588235294118
1.54626995602,0.9044117647058824
1.86921869909,0.9117647058823529
1.96431663064,0.9191176470588235
2.0808863516,0.9264705882352942
3.12150811309,0.9338235294117647
4.16707301229,0.9411764705882353
7.54027916999,0.9485294117647058
7.5489951239,0.9558823529411765
9.94920020791,0.9632352941176471
11.9683799798,0.9705882352941176
12.5247644395,0.9779411764705882
12.7420867447,0.9852941176470589
13.5152312303,0.9926470588235294
14.3134395744,1.0
