Congestion,CDF
0.0,0.007352941176470588
0.0,0.014705882352941176
0.0,0.022058823529411766
0.0,0.029411764705882353
0.0,0.03676470588235294
0.0,0.04411764705882353
0.0,0.051470588235294115
0.0,0.058823529411764705
0.0,0.0661764705882353
0.0,0.07352941176470588
0.0,0.08088235294117647
0.0,0.08823529411764706
0.0,0.09558823529411764
0.0,0.10294117647058823
4.01965900397e-06,0.11029411764705882
4.01965900397e-06,0.11764705882352941
4.01965900397e-06,0.125
4.01965900397e-06,0.1323529411764706
4.01965900397e-06,0.13970588235294118
4.01965900397e-06,0.14705882352941177
4.01965900397e-06,0.15441176470588236
4.01965900397e-06,0.16176470588235295
4.01965900397e-06,0.16911764705882354
4.01965900397e-06,0.17647058823529413
4.01965900397e-06,0.18382352941176472
4.01965900397e-06,0.19117647058823528
4.01965900397e-06,0.19852941176470587
4.01965900397e-06,0.20588235294117646
4.01965900397e-06,0.21323529411764705
4.01965900397e-06,0.22058823529411764
4.01965900397e-06,0.22794117647058823
4.01965900397e-06,0.23529411764705882
4.01965900397e-06,0.2426470588235294
4.01965900397e-06,0.25
4.01965900397e-06,0.25735294117647056
4.01965900397e-06,0.2647058823529412
4.01965900397e-06,0.27205882352941174
4.01965900397e-06,0.27941176470588236
4.01965900397e-06,0.2867647058823529
4.01965900397e-06,0.29411764705882354
4.01965900397e-06,0.3014705882352941
0.000100491475099,0.3088235294117647
0.000100491475099,0.3161764705882353
0.000108530793107,0.3235294117647059
0.000200982950198,0.33088235294117646
0.000200982950198,0.3382352941176471
0.000200982950198,0.34558823529411764
0.000200982950198,0.35294117647058826
0.000301474425298,0.3602941176470588
0.000334971583664,0.36764705882352944
0.000334971583664,0.375
0.000334971583664,0.38235294117647056
0.000401965900397,0.3897058823529412
0.000401965900397,0.39705882352941174
0.000401965900397,0.40441176470588236
0.000401965900397,0.4117647058823529
0.000401965900397,0.41911764705882354
0.000401965900397,0.4264705882352941
0.000401965900397,0.4338235294117647
0.000502457375496,0.4411764705882353
0.000602948850595,0.4485294117647059
0.000602948850595,0.45588235294117646
0.000736937484061,0.4632352941176471
0.000803931800793,0.47058823529411764
0.000803931800793,0.47794117647058826
0.00120589770119,0.4852941176470588
0.00164136075995,0.49264705882352944
0.00291425277788,0.5
0.00298124709461,0.5073529411764706
0.00385217321213,0.5147058823529411
0.00479009364639,0.5220588235294118
0.00485708796313,0.5294117647058824
0.00519205954679,0.5367647058823529
0.00525905386352,0.5441176470588235
0.00566101976392,0.5514705882352942
0.00626683606339,0.5588235294117647
0.00645853210482,0.5661764705882353
0.00777042527786,0.5735294117647058
0.00777042527786,0.5808823529411765
0.00778517793751,0.5882352941176471
0.00778517793751,0.5955882352941176
0.00788028024008,0.6029411764705882
0.00791874154549,0.6102941176470589
0.00807015139431,0.6176470588235294
0.0080725959849,0.625
0.00810696804166,0.6323529411764706
0.00810696804166,0.6397058823529411
0.00810696804166,0.6470588235294118
0.00814445460051,0.6544117647058824
0.00815695389034,0.6617647058823529
0.0081965441582,0.6691176470588235
0.00821136086739,0.6764705882352942
0.00821136086739,0.6838235294117647
0.00825189052404,0.6911764705882353
0.0082926036752,0.6985294117647058
0.00831619574016,0.7058823529411765
0.00831619574016,0.7132352941176471
0.00831628411967,0.7205882352941176
0.00831628411967,0.7279411764705882
0.00831685122712,0.7352941176470589
0.00831685122712,0.7426470588235294
0.00831685122712,0.75
0.203611365013,0.7573529411764706
0.204913603955,0.7647058823529411
0.215779929873,0.7720588235294118
0.395937077274,0.7794117647058824
0.395937077274,0.7867647058823529
0.412594526202,0.7941176470588235
0.412594526202,0.8014705882352942
0.610834095038,0.8088235294117647
0.680423431979,0.8161764705882353
0.680423431979,0.8235294117647058
0.680423431979,0.8308823529411765
0.778517793751,0.8382352941176471
0.810696804166,0.8455882352941176
0.81965441582,0.8529411764705882
0.831619574016,0.8602941176470589
0.831628411967,0.8676470588235294
0.831685122712,0.875
0.831685122712,0.8823529411764706
1.01430816918,0.8897058823529411
1.17297960506,0.8970588235294118
1.23373061294,0.9044117647058824
1.48768303047,0.9117647058823529
1.5570355875,0.9191176470588235
1.66325682393,0.9264705882352942
2.49505536814,0.9338235294117647
3.31612520949,0.9411764705882353
6.00676045666,0.9485294117647058
6.02646494406,0.9558823529411765
7.94874326976,0.9632352941176471
9.51381817701,0.9705882352941176
10.0036099694,0.9779411764705882
10.1405017833,0.9852941176470589
10.7916379934,0.9926470588235294
11.4374912039,1.0
