Congestion,CDF
0.0,0.009433962264150943
0.0,0.018867924528301886
0.0,0.02830188679245283
0.0,0.03773584905660377
0.0,0.04716981132075472
0.0,0.05660377358490566
0.0,0.0660377358490566
0.0,0.07547169811320754
0.0,0.08490566037735849
0.0,0.09433962264150944
0.0,0.10377358490566038
0.0,0.11320754716981132
0.0,0.12264150943396226
0.0,0.1320754716981132
0.0,0.14150943396226415
0.0,0.1509433962264151
0.0,0.16037735849056603
0.0,0.16981132075471697
0.0,0.1792452830188679
0.0,0.18867924528301888
0.0,0.19811320754716982
0.0,0.20754716981132076
0.0,0.2169811320754717
0.0,0.22641509433962265
0.0,0.2358490566037736
0.0,0.24528301886792453
0.0,0.25471698113207547
0.0,0.2641509433962264
0.0,0.27358490566037735
0.0,0.2830188679245283
1.59628322278e-07,0.29245283018867924
4.11241072116e-06,0.3018867924528302
4.62447734632e-06,0.3113207547169811
6.26923804418e-06,0.32075471698113206
7.07683862762e-06,0.330188679245283
7.60590712598e-06,0.33962264150943394
9.41661201733e-06,0.3490566037735849
1.43604780578e-05,0.3584905660377358
1.83821705229e-05,0.36792452830188677
1.94541176112e-05,0.37735849056603776
2.26899372922e-05,0.3867924528301887
2.79367466205e-05,0.39622641509433965
2.85768820335e-05,0.4056603773584906
3.01514228063e-05,0.41509433962264153
3.26670401539e-05,0.42452830188679247
0.000193210960023,0.4339622641509434
0.000262287839912,0.44339622641509435
0.000264842212987,0.4528301886792453
0.000264842212987,0.46226415094339623
0.000429185123907,0.4716981132075472
0.000689331394608,0.4811320754716981
0.000689331394608,0.49056603773584906
0.000689331394608,0.5
0.0007062459013,0.5094339622641509
0.0007062459013,0.5188679245283019
0.0007062459013,0.5283018867924528
0.00109034284194,0.5377358490566038
0.0013020944604,0.5471698113207547
0.0013020944604,0.5566037735849056
0.00137866278922,0.5660377358490566
0.00137866278922,0.5754716981132075
0.00188077141325,0.5849056603773585
0.0022817721378,0.5943396226415094
0.00239739454045,0.6037735849056604
0.00239739454045,0.6132075471698113
0.0029704289902,0.6226415094339622
0.0029704289902,0.6320754716981132
0.0037513152156,0.6415094339622641
0.00421546321113,0.6509433962264151
0.00430251259099,0.660377358490566
0.00456271768142,0.6698113207547169
0.00616637521749,0.6792452830188679
0.0096155189553,0.6886792452830188
0.00975449912161,0.6981132075471698
0.0127528321482,0.7075471698113207
0.0166635803689,0.7169811320754716
0.0208230117306,0.7264150943396226
0.021997312324,0.7358490566037735
0.0236055811585,0.7452830188679245
0.0274156773816,0.7547169811320755
0.0321735222897,0.7641509433962265
0.0331350027627,0.7735849056603774
0.176993230147,0.7830188679245284
0.663906970084,0.7924528301886793
0.663906970084,0.8018867924528302
0.82489921215,0.8113207547169812
0.82489921215,0.8207547169811321
0.82489921215,0.8301886792452831
0.882085537241,0.839622641509434
1.6497984243,0.8490566037735849
1.6497984243,0.8584905660377359
1.75682099045,0.8679245283018868
1.75682099045,0.8773584905660378
1.77041858689,0.8867924528301887
1.77041858689,0.8962264150943396
1.77041858689,0.9056603773584906
2.71727499587,0.9150943396226415
2.71727499587,0.9245283018867925
2.77628975985,0.9339622641509434
2.81384164875,0.9433962264150944
4.36684508463,0.9528301886792453
4.36684508463,0.9622641509433962
9.4556418774,0.9716981132075472
11.3621651925,0.9811320754716981
11.6506093344,0.9905660377358491
33.8343087504,1.0
