Congestion,CDF
0.0,0.009433962264150943
0.0,0.018867924528301886
0.0,0.02830188679245283
0.0,0.03773584905660377
0.0,0.04716981132075472
0.0,0.05660377358490566
0.0,0.0660377358490566
0.0,0.07547169811320754
0.0,0.08490566037735849
0.0,0.09433962264150944
0.0,0.10377358490566038
0.0,0.11320754716981132
0.0,0.12264150943396226
0.0,0.1320754716981132
0.0,0.14150943396226415
0.0,0.1509433962264151
0.0,0.16037735849056603
0.0,0.16981132075471697
0.0,0.1792452830188679
0.0,0.18867924528301888
0.0,0.19811320754716982
0.0,0.20754716981132076
0.0,0.2169811320754717
0.0,0.22641509433962265
0.0,0.2358490566037736
0.0,0.24528301886792453
0.0,0.25471698113207547
0.0,0.2641509433962264
0.0,0.27358490566037735
0.0,0.2830188679245283
1.75472075403e-07,0.29245283018867924
4.52058402831e-06,0.3018867924528302
5.08347532591e-06,0.3113207547169811
6.89148513945e-06,0.32075471698113206
7.60590712598e-06,0.330188679245283
7.77924332955e-06,0.33962264150943394
8.5856968531e-06,0.3490566037735849
1.03512486404e-05,0.3584905660377358
1.57858132733e-05,0.36792452830188677
2.02066748936e-05,0.37735849056603776
2.13850170425e-05,0.3867924528301887
2.36019450412e-05,0.39622641509433965
2.49420048437e-05,0.4056603773584906
2.69710459626e-05,0.41509433962264153
2.75276763337e-05,0.42452830188679247
3.07095811042e-05,0.4339622641509434
3.14132525321e-05,0.44339622641509435
3.31440728105e-05,0.4528301886792453
3.65800309327e-05,0.46226415094339623
6.50027963235e-05,0.4716981132075472
0.000212387925039,0.4811320754716981
0.000221111174605,0.49056603773584906
0.000291128868012,0.5
0.000291128868012,0.5094339622641509
0.000408885257562,0.5188679245283019
0.000757750308509,0.5283018867924528
0.000757750308509,0.5377358490566038
0.000757750308509,0.5471698113207547
0.000776343648032,0.5566037735849056
0.000776343648032,0.5660377358490566
0.000776343648032,0.5754716981132075
0.00119856375515,0.5849056603773585
0.00143133257356,0.5943396226415094
0.00143133257356,0.6037735849056604
0.00151550061702,0.6132075471698113
0.00151550061702,0.6226415094339622
0.00206744554183,0.6320754716981132
0.0022817721378,0.6415094339622641
0.00263534559263,0.6509433962264151
0.00263534559263,0.660377358490566
0.00291210319222,0.6698113207547169
0.00326525601668,0.6792452830188679
0.00326525601668,0.6886792452830188
0.00412364834123,0.6981132075471698
0.00501558576583,0.7075471698113207
0.00677841276342,0.7169811320754716
0.00817738236229,0.7264150943396226
0.00829166904769,0.7358490566037735
0.00829166904769,0.7452830188679245
0.00829166904769,0.7547169811320755
0.0105698978921,0.7641509433962265
0.010722672399,0.7735849056603774
0.0114998978689,0.7830188679245284
0.0114998978689,0.7924528301886793
0.0134733097503,0.8018867924528302
0.0165833380954,0.8113207547169812
0.0165833380954,0.8207547169811321
0.0201176156935,0.8301886792452831
0.0203738684718,0.839622641509434
0.0203738684718,0.8490566037735849
0.0207528923255,0.8584905660377359
0.0207528923255,0.8679245283018868
0.0213184191457,0.8773584905660378
0.0223056502638,0.8867924528301887
0.02288977941,0.8962264150943396
0.0286043754317,0.9056603773584906
0.0306663943172,0.9150943396226415
0.0306663943172,0.9245283018867925
0.0306663943172,0.9339622641509434
0.0533513919244,0.9433962264150944
0.937674165412,0.9528301886792453
0.937674165412,0.9622641509433962
1.29740358255,0.9716981132075472
6.05890957425,0.9811320754716981
6.41915060992,0.9905660377358491
14.6019233624,1.0
