Congestion,CDF
0.0,0.009433962264150943
0.0,0.018867924528301886
0.0,0.02830188679245283
0.0,0.03773584905660377
0.0,0.04716981132075472
0.0,0.05660377358490566
0.0,0.0660377358490566
0.0,0.07547169811320754
0.0,0.08490566037735849
0.0,0.09433962264150944
0.0,0.10377358490566038
0.0,0.11320754716981132
0.0,0.12264150943396226
0.0,0.1320754716981132
0.0,0.14150943396226415
0.0,0.1509433962264151
0.0,0.16037735849056603
0.0,0.16981132075471697
0.0,0.1792452830188679
0.0,0.18867924528301888
0.0,0.19811320754716982
0.0,0.20754716981132076
0.0,0.2169811320754717
0.0,0.22641509433962265
0.0,0.2358490566037736
0.0,0.24528301886792453
0.0,0.25471698113207547
0.0,0.2641509433962264
0.0,0.27358490566037735
0.0,0.2830188679245283
1.65255457793e-07,0.29245283018867924
4.25737930876e-06,0.3018867924528302
4.78749704322e-06,0.3113207547169811
6.49023799925e-06,0.32075471698113206
7.32630770309e-06,0.330188679245283
7.60590712598e-06,0.33962264150943394
8.5856968531e-06,0.3490566037735849
9.74856158091e-06,0.3584905660377358
1.48667062443e-05,0.36792452830188677
1.90301693436e-05,0.37735849056603776
2.01399041594e-05,0.3867924528301887
2.34897912915e-05,0.39622641509433965
2.36019450412e-05,0.4056603773584906
2.75276763337e-05,0.41509433962264153
2.89215584436e-05,0.42452830188679247
2.9584259581e-05,0.4339622641509434
3.12143052552e-05,0.44339622641509435
3.65800309327e-05,0.4528301886792453
0.000146267173346,0.46226415094339623
0.000200021933412,0.4716981132075472
0.00025878111326,0.4811320754716981
0.000274178294463,0.49056603773584906
0.000274178294463,0.5
0.000713631350387,0.5094339622641509
0.000713631350387,0.5188679245283019
0.000713631350387,0.5283018867924528
0.000731142118568,0.5377358490566038
0.000731142118568,0.5471698113207547
0.000731142118568,0.5566037735849056
0.00112877904701,0.5660377358490566
0.00134799522462,0.5754716981132075
0.00134799522462,0.5849056603773585
0.00142726270077,0.5943396226415094
0.00142726270077,0.6037735849056604
0.00194707139978,0.6132075471698113
0.0022817721378,0.6226415094339622
0.00248190625974,0.6320754716981132
0.00248190625974,0.6415094339622641
0.00307514102518,0.6509433962264151
0.00307514102518,0.660377358490566
0.00388355465016,0.6698113207547169
0.00393152641292,0.6792452830188679
0.00472356025838,0.6886792452830188
0.00524019703728,0.6981132075471698
0.0063837491051,0.7075471698113207
0.00860758125276,0.7169811320754716
0.00995448028396,0.7264150943396226
0.0100983597076,0.7358490566037735
0.0185809777156,0.7452830188679245
0.0215570538302,0.7547169811320755
0.0254066354417,0.7641509433962265
0.026504422347,0.7735849056603774
0.0887802897501,0.7830188679245284
0.140301753107,0.7924528301886793
0.147380541673,0.8018867924528302
0.147380541673,0.8113207547169812
0.147432240485,0.8207547169811321
0.147432240485,0.8301886792452831
0.147432240485,0.839622641509434
0.260609940854,0.8490566037735849
0.260609940854,0.8584905660377359
0.262541722646,0.8679245283018868
0.268840447814,0.8773584905660378
0.274409779038,0.8867924528301887
0.274409779038,0.8962264150943396
0.294864480969,0.9056603773584906
0.294864480969,0.9150943396226415
0.393014777796,0.9245283018867925
0.393014777796,0.9339622641509434
0.393014777796,0.9433962264150944
2.34831471504,0.9528301886792453
2.34831471504,0.9622641509433962
3.57460032608,0.9716981132075472
7.96593026189,0.9811320754716981
8.29526633349,0.9905660377358491
21.9745572579,1.0
