Congestion,CDF
0.0,0.005555555555555556
0.0,0.011111111111111112
0.0,0.016666666666666666
0.0,0.022222222222222223
0.0,0.027777777777777776
0.0,0.03333333333333333
0.0,0.03888888888888889
0.0,0.044444444444444446
0.0,0.05
0.0,0.05555555555555555
5.76402956541e-07,0.06111111111111111
6.62259276074e-07,0.06666666666666667
1.49069076009e-06,0.07222222222222222
2.17873125925e-06,0.07777777777777778
2.22937823271e-06,0.08333333333333333
2.94354671904e-06,0.08888888888888889
3.2382909768e-06,0.09444444444444444
4.46310340151e-06,0.1
4.48612877527e-06,0.10555555555555556
4.58973084117e-06,0.1111111111111111
4.68419276806e-06,0.11666666666666667
5.15633926996e-06,0.12222222222222222
5.27593932242e-06,0.12777777777777777
5.89160913986e-06,0.13333333333333333
6.03419138367e-06,0.1388888888888889
6.35408038798e-06,0.14444444444444443
7.34730978826e-06,0.15
8.04094933903e-06,0.15555555555555556
8.39637077096e-06,0.16111111111111112
8.73257086659e-06,0.16666666666666666
8.87073806627e-06,0.17222222222222222
8.94198184035e-06,0.17777777777777778
9.23824245401e-06,0.18333333333333332
9.55925377087e-06,0.18888888888888888
9.72061806096e-06,0.19444444444444445
9.83039488642e-06,0.2
9.88493396433e-06,0.20555555555555555
9.99844647736e-06,0.2111111111111111
1.0096149388e-05,0.21666666666666667
1.01183043257e-05,0.2222222222222222
1.04563828649e-05,0.22777777777777777
1.05436191473e-05,0.23333333333333334
1.06646533314e-05,0.2388888888888889
1.15492475483e-05,0.24444444444444444
1.21528284594e-05,0.25
1.31944368183e-05,0.25555555555555554
1.34034658805e-05,0.2611111111111111
1.35963514707e-05,0.26666666666666666
1.40567910438e-05,0.2722222222222222
4.96896920029e-05,0.2777777777777778
9.93793840058e-05,0.2833333333333333
0.000108936562963,0.28888888888888886
0.000108936562963,0.29444444444444445
0.000112153219382,0.3
0.000112153219382,0.3055555555555556
0.000169793515036,0.3111111111111111
0.000222937823271,0.31666666666666665
0.000224306438764,0.32222222222222224
0.000298648656034,0.3277777777777778
0.000446310340151,0.3333333333333333
0.00046414818694,0.3388888888888889
0.000491519744321,0.34444444444444444
0.000491519744321,0.35
0.000627787146378,0.35555555555555557
0.000955925377087,0.3611111111111111
0.000972061806096,0.36666666666666664
0.001003134747,0.37222222222222223
0.00108068065831,0.37777777777777777
0.0011433700541,0.38333333333333336
0.0011433700541,0.3888888888888889
0.00130378526404,0.39444444444444443
0.0013778625781,0.4
0.00148157177228,0.40555555555555556
0.00158394158584,0.4111111111111111
0.00196775580966,0.4166666666666667
0.00208052530604,0.4222222222222222
0.00218900834059,0.42777777777777776
0.002691167754,0.43333333333333335
0.00300928683172,0.4388888888888889
0.0030650047483,0.4444444444444444
0.0031595870308,0.45
0.00330808068165,0.45555555555555555
0.00363990472281,0.46111111111111114
0.00372502103241,0.4666666666666667
0.00387267637618,0.4722222222222222
0.00387365573533,0.4777777777777778
0.00388119646101,0.48333333333333334
0.00389037720579,0.4888888888888889
0.00392564386553,0.49444444444444446
0.00393929835224,0.5
0.00393984929528,0.5055555555555555
0.00394154141636,0.5111111111111111
0.00394405520697,0.5166666666666667
0.00394486980573,0.5222222222222223
0.0039466167551,0.5277777777777778
0.0039517466392,0.5333333333333333
0.00396095214508,0.5388888888888889
0.00396176556342,0.5444444444444444
0.00396638492015,0.55
0.00396958077218,0.5555555555555556
0.00397547972328,0.5611111111111111
0.00397816215266,0.5666666666666667
0.00398558134319,0.5722222222222222
0.0039875975363,0.5777777777777777
0.0039885306377,0.5833333333333334
0.00398901811498,0.5888888888888889
0.00398933551467,0.5944444444444444
0.00399040120162,0.6
0.00399339575945,0.6055555555555555
0.00399705310375,0.6111111111111112
0.00400030346447,0.6166666666666667
0.00400139475567,0.6222222222222222
0.004002614884,0.6277777777777778
0.004004454487,0.6333333333333333
0.00400526122143,0.6388888888888888
0.0040093652146,0.6444444444444445
0.00401026647502,0.65
0.00401139623835,0.6555555555555556
0.00402643555192,0.6611111111111111
0.00408489439209,0.6666666666666666
0.00462752436348,0.6722222222222223
0.00823297481932,0.6777777777777778
0.0100161520672,0.6833333333333333
0.0104840944841,0.6888888888888889
0.0114218311716,0.6944444444444444
0.01169937733,0.7
0.0123089049782,0.7055555555555556
0.0124437219318,0.7111111111111111
0.0131784529106,0.7166666666666667
0.0142328148253,0.7222222222222222
0.014321654664,0.7277777777777777
0.014556643923,0.7333333333333333
0.0147806277482,0.7388888888888889
0.0153082216804,0.7444444444444445
0.0990441390855,0.75
0.0990441390855,0.7555555555555555
0.131495660191,0.7611111111111111
0.152295475231,0.7666666666666667
0.193633818809,0.7722222222222223
0.193633818809,0.7777777777777778
0.198088278171,0.7833333333333333
0.199379876815,0.7888888888888889
0.199379876815,0.7944444444444444
0.262991320382,0.8
0.39466167551,0.8055555555555556
0.39517466392,0.8111111111111111
0.398558134319,0.8166666666666667
0.400030346447,0.8222222222222222
0.491608525639,0.8277777777777777
0.496002216303,0.8333333333333334
0.580999392342,0.8388888888888889
0.595475091323,0.8444444444444444
0.600731833363,0.85
0.630635563037,0.8555555555555555
0.630635563037,0.8611111111111112
0.79559819697,0.8666666666666667
0.797491685786,0.8722222222222222
0.885762667274,0.8777777777777778
0.994328155093,0.8833333333333333
1.02639968799,0.8888888888888888
1.03116168518,0.8944444444444445
1.28357888254,0.9
1.830897342,0.9055555555555556
2.05096508625,0.9111111111111111
2.27747299922,0.9166666666666666
2.44760357827,0.9222222222222223
2.67849964672,0.9277777777777778
4.67864039584,0.9333333333333333
4.87145911144,0.9388888888888889
5.27172059984,0.9444444444444444
5.66570552937,0.95
5.87327871297,0.9555555555555556
6.27372416167,0.9611111111111111
6.63482456781,0.9666666666666667
6.86176350117,0.9722222222222222
6.99881504009,0.9777777777777777
7.25080122175,0.9833333333333333
7.29974372326,0.9888888888888889
7.62330332499,0.9944444444444445
7.92980379982,1.0
