Congestion,CDF
0.0,0.005555555555555556
0.0,0.011111111111111112
0.0,0.016666666666666666
0.0,0.022222222222222223
0.0,0.027777777777777776
0.0,0.03333333333333333
0.0,0.03888888888888889
0.0,0.044444444444444446
0.0,0.05
0.0,0.05555555555555555
7.34868525638e-07,0.06111111111111111
8.44328593871e-07,0.06666666666666667
1.90051370941e-06,0.07222222222222222
2.77771133906e-06,0.07777777777777778
2.84228225475e-06,0.08333333333333333
3.75279101715e-06,0.08888888888888889
4.12856681026e-06,0.09444444444444444
5.69010651181e-06,0.1
5.71946205602e-06,0.10555555555555556
5.85154655793e-06,0.1111111111111111
5.97197810007e-06,0.11666666666666667
6.57392782949e-06,0.12222222222222222
6.72640850854e-06,0.12777777777777777
7.51133919963e-06,0.13333333333333333
7.69312036869e-06,0.1388888888888889
8.10095373995e-06,0.14444444444444443
9.36724326314e-06,0.15
1.02515792441e-05,0.15555555555555556
1.07047136715e-05,0.16111111111111112
1.11333424039e-05,0.16666666666666666
1.13094947382e-05,0.17222222222222222
1.1400324958e-05,0.17777777777777778
1.17780339858e-05,0.18333333333333332
1.21872982175e-05,0.18888888888888888
1.23930250213e-05,0.19444444444444445
1.2532981857e-05,0.2
1.26025149003e-05,0.20555555555555555
1.27472344444e-05,0.2111111111111111
1.28717979864e-05,0.21666666666666667
1.29000437931e-05,0.2222222222222222
1.33310673934e-05,0.22777777777777777
1.34422868061e-05,0.23333333333333334
1.35965958903e-05,0.2388888888888889
1.47243840819e-05,0.24444444444444444
1.54939023664e-05,0.25
1.68218712643e-05,0.25555555555555554
1.70883669112e-05,0.2611111111111111
1.73342808984e-05,0.26666666666666666
1.79213052125e-05,0.2722222222222222
6.33504569802e-05,0.2777777777777778
0.00012670091396,0.2833333333333333
0.000138885566953,0.28888888888888886
0.000138885566953,0.29444444444444445
0.0001429865514,0.3
0.0001429865514,0.3055555555555556
0.000216473403964,0.3111111111111111
0.000284228225475,0.31666666666666665
0.000285973102801,0.32222222222222224
0.000380753594431,0.3277777777777778
0.000569010651181,0.3333333333333333
0.000591752505679,0.3388888888888889
0.000626649092848,0.34444444444444444
0.000626649092848,0.35
0.00080037933435,0.35555555555555557
0.00121872982175,0.3611111111111111
0.00123930250213,0.36666666666666664
0.00127891806275,0.37222222222222223
0.00137778301281,0.37777777777777777
0.00145770707174,0.38333333333333336
0.00145770707174,0.3888888888888889
0.00166222387283,0.39444444444444443
0.00175666663366,0.4
0.00188888771574,0.40555555555555556
0.00201940119264,0.4111111111111111
0.00211980854109,0.4166666666666667
0.00215084690576,0.4222222222222222
0.00242325986247,0.42777777777777776
0.00248026364314,0.43333333333333335
0.00250873420105,0.4388888888888889
0.00256585071655,0.4444444444444444
0.00256941417117,0.45
0.00257084557869,0.45555555555555555
0.0025803518987,0.46111111111111114
0.00261117022129,0.4666666666666667
0.00261344421272,0.4722222222222222
0.00262078410297,0.4777777777777778
0.00262174459144,0.48333333333333334
0.002624444206,0.4888888888888889
0.00262816319992,0.49444444444444446
0.00262847023766,0.5
0.00262853266874,0.5055555555555555
0.00263491400842,0.5111111111111111
0.0026383666014,0.5166666666666667
0.00264249944051,0.5222222222222223
0.00264461899715,0.5277777777777778
0.0026461031373,0.5333333333333333
0.00264855984446,0.5388888888888889
0.00265129790218,0.5444444444444444
0.00265250645726,0.55
0.00265250912837,0.5555555555555556
0.00265325983889,0.5611111111111111
0.00265379526106,0.5666666666666667
0.0026562358803,0.5722222222222222
0.00265756856764,0.5777777777777777
0.00265763093952,0.5833333333333334
0.00265961235531,0.5888888888888889
0.00266294344717,0.5944444444444444
0.00266479350073,0.6
0.00266510892423,0.6055555555555555
0.00266584656998,0.6111111111111112
0.00266753678539,0.6166666666666667
0.00266841191422,0.6222222222222222
0.00266847054815,0.6277777777777778
0.00267026108499,0.6333333333333333
0.0026825078384,0.6388888888888888
0.00279081381108,0.6444444444444445
0.00343102764686,0.65
0.00402822545687,0.6555555555555556
0.00421754320589,0.6611111111111111
0.00520791971179,0.6666666666666666
0.00589973033233,0.6722222222222223
0.0104963966587,0.6777777777777778
0.0127698076818,0.6833333333333333
0.0133663975327,0.6888888888888889
0.014561938203,0.6944444444444444
0.0149157877694,0.7
0.0156928876768,0.7055555555555556
0.0158647687103,0.7111111111111111
0.0168014930366,0.7166666666666667
0.0181457217172,0.7222222222222222
0.0182589855382,0.7277777777777777
0.0185585783983,0.7333333333333333
0.018844140194,0.7388888888888889
0.0195167810449,0.7444444444444445
0.0659591650351,0.75
0.0659591650351,0.7555555555555555
0.0876054399975,0.7611111111111111
0.101550247274,0.7666666666666667
0.128470708559,0.7722222222222223
0.128470708559,0.7777777777777778
0.13191833007,0.7833333333333333
0.132625456418,0.7888888888888889
0.132625456418,0.7944444444444444
0.175210879995,0.8
0.262847023766,0.8055555555555556
0.262853266874,0.8111111111111111
0.265129790218,0.8166666666666667
0.266510892423,0.8222222222222222
0.327076187164,0.8277777777777777
0.33042106475,0.8333333333333334
0.385055780213,0.8388888888888889
0.396116857261,0.8444444444444444
0.40016911391,0.85
0.420117989175,0.8555555555555555
0.420117989175,0.8611111111111112
0.529873132265,0.8666666666666667
0.530509316324,0.8722222222222222
0.589250646309,0.8777777777777778
0.66144284115,0.8833333333333333
0.683783361512,0.8888888888888888
0.686959180597,0.8944444444444445
0.853860960038,0.9
1.21976441774,0.9055555555555556
1.36634577129,0.9111111111111111
1.51496327136,0.9166666666666666
1.63059571534,0.9222222222222223
1.7817169499,0.9277777777777778
3.11694479007,0.9333333333333333
3.24051616219,0.9388888888888889
3.50647739772,0.9444444444444444
3.76782181899,0.95
3.91258101629,0.9555555555555556
4.17906036636,0.9611111111111111
4.40996215707,0.9666666666666667
4.56960948522,0.9722222222222222
4.65228814332,0.9777777777777777
4.82764467509,0.9833333333333333
4.86426899743,0.9888888888888889
5.0756710394,0.9944444444444445
5.29075572998,1.0
