Congestion,CDF
0.0,0.005555555555555556
0.0,0.011111111111111112
0.0,0.016666666666666666
0.0,0.022222222222222223
0.0,0.027777777777777776
0.0,0.03333333333333333
0.0,0.03888888888888889
0.0,0.044444444444444446
0.0,0.05
0.0,0.05555555555555555
4.30890902849e-07,0.06111111111111111
4.95072924505e-07,0.06666666666666667
1.11436813464e-06,0.07222222222222222
1.6287138515e-06,0.07777777777777778
1.66657507319e-06,0.08333333333333333
2.20045280641e-06,0.08888888888888889
2.42078932256e-06,0.09444444444444444
3.33639970504e-06,0.1
3.35361235806e-06,0.10555555555555556
3.43106023927e-06,0.1111111111111111
3.50167539574e-06,0.11666666666666667
3.85462922807e-06,0.12222222222222222
3.94403642836e-06,0.12777777777777777
4.40428133253e-06,0.13333333333333333
4.51086890476e-06,0.1388888888888889
4.75000241426e-06,0.14444444444444443
5.49249255621e-06,0.15
6.01102385257e-06,0.15555555555555556
6.27671968212e-06,0.16111111111111112
6.52804657263e-06,0.16666666666666666
6.63133367194e-06,0.17222222222222222
6.68459206312e-06,0.17777777777777778
6.9060621334e-06,0.18333333333333332
7.14603462934e-06,0.18888888888888888
7.26666274871e-06,0.19444444444444445
7.34872658078e-06,0.2
7.38949735104e-06,0.20555555555555555
7.47435380203e-06,0.2111111111111111
7.54739176077e-06,0.21666666666666667
7.56395371805e-06,0.2222222222222222
7.81668484183e-06,0.22777777777777777
7.88189845687e-06,0.23333333333333334
7.9723777444e-06,0.2388888888888889
8.63365749054e-06,0.24444444444444444
9.08486531451e-06,0.25
9.86352122022e-06,0.25555555555555554
1.00197812121e-05,0.2611111111111111
1.01639731271e-05,0.26666666666666666
1.05081754271e-05,0.2722222222222222
3.71456044881e-05,0.2777777777777778
7.42912089761e-05,0.2833333333333333
8.14356925751e-05,0.28888888888888886
8.14356925751e-05,0.29444444444444445
8.38403089514e-05,0.3
8.38403089514e-05,0.3055555555555556
0.000126929399236,0.3111111111111111
0.000166657507319,0.31666666666666665
0.000167680617903,0.32222222222222224
0.000223255254979,0.3277777777777778
0.000333639970504,0.3333333333333333
0.000346974679877,0.3388888888888889
0.000367436329039,0.34444444444444444
0.000367436329039,0.35
0.000469303231759,0.35555555555555557
0.000714603462934,0.3611111111111111
0.000726666274871,0.36666666666666664
0.000749894898887,0.37222222222222223
0.000807864462292,0.37777777777777777
0.000854728015034,0.38333333333333336
0.000854728015034,0.3888888888888889
0.00097464664809,0.39444444444444443
0.00103002325637,0.4
0.0011075512215,0.40555555555555556
0.00118407793062,0.4111111111111111
0.00147099883474,0.4166666666666667
0.0015552998425,0.4222222222222222
0.0015602980227,0.42777777777777776
0.00163639649922,0.43333333333333335
0.00181210519677,0.4388888888888889
0.00201178652899,0.4444444444444444
0.00236195406856,0.45
0.00247296072207,0.45555555555555555
0.00305366898743,0.46111111111111114
0.00345931284409,0.4666666666666667
0.00615457279109,0.4722222222222222
0.00666616547123,0.4777777777777778
0.00699933671841,0.48333333333333334
0.00726619856431,0.4888888888888889
0.00728699189445,0.49444444444444446
0.00730335931984,0.5
0.00733501577729,0.5055555555555555
0.00735997781507,0.5111111111111111
0.00737742676289,0.5166666666666667
0.00743399625363,0.5222222222222223
0.00743547600675,0.5277777777777778
0.00744623065555,0.5333333333333333
0.00745708780653,0.5388888888888889
0.00746458962985,0.5444444444444444
0.00747515282707,0.55
0.00748439747045,0.5555555555555556
0.00748758964254,0.5611111111111111
0.00748957738456,0.5666666666666667
0.00750250752573,0.5722222222222222
0.00750869234387,0.5777777777777777
0.00755778849685,0.5833333333333334
0.00758542166903,0.5888888888888889
0.00758574737559,0.5944444444444444
0.00760853334782,0.6
0.0076296877627,0.6055555555555555
0.0076311540559,0.6111111111111112
0.00764029076451,0.6166666666666667
0.00764647161335,0.6222222222222222
0.00764959360896,0.6277777777777778
0.00765104525879,0.6333333333333333
0.00765585411645,0.6388888888888888
0.00767240130878,0.6444444444444445
0.00767771972719,0.65
0.00771619242094,0.6555555555555556
0.00772997657526,0.6611111111111111
0.00776890785572,0.6666666666666666
0.00777654300959,0.6722222222222223
0.00778778155751,0.6777777777777778
0.00779776780759,0.6833333333333333
0.00783740070473,0.6888888888888889
0.00853840718525,0.6944444444444444
0.00874588723618,0.7
0.00920154055245,0.7055555555555556
0.00930232317018,0.7111111111111111
0.0098515724258,0.7166666666666667
0.0106397622715,0.7222222222222222
0.0107061746274,0.7277777777777777
0.0108818412037,0.7333333333333333
0.0110492806513,0.7388888888888889
0.0114436842942,0.7444444444444445
0.186155766389,0.75
0.186155766389,0.7555555555555555
0.24450052591,0.7611111111111111
0.281433461779,0.7666666666666667
0.363309928216,0.7722222222222223
0.363309928216,0.7777777777777778
0.372311532778,0.7833333333333333
0.382014538226,0.7888888888888889
0.382014538226,0.7944444444444444
0.489001051819,0.8
0.735997781507,0.8055555555555556
0.743547600675,0.8111111111111111
0.76296877627,0.8166666666666667
0.764959360896,0.8222222222222222
0.914854955834,0.8277777777777777
0.933671049096,0.8333333333333334
1.1097688912,0.8388888888888889
1.13097227668,0.8444444444444444
1.15208831354,0.85
1.19597929987,0.8555555555555555
1.19597929987,0.8611111111111112
1.5076170236,0.8666666666666667
1.52807330215,0.8722222222222222
1.65259763212,0.8777777777777778
1.89561943802,0.8833333333333333
1.93671374191,0.8888888888888888
1.96375127259,0.8944444444444445
2.41117236968,0.9
3.49182603908,0.9055555555555556
3.86302897376,0.9111111111111111
4.30397463946,0.9166666666666666
4.60873775442,0.9222222222222223
5.08086542503,0.9277777777777778
8.86614920514,0.9333333333333333
9.28221246616,0.9388888888888889
10.0609906219,0.9444444444444444
10.8167694716,0.95
11.1346195635,0.9555555555555556
11.907617221,0.9611111111111111
12.6767891154,0.9666666666666667
13.0193668963,0.9722222222222222
13.3434056625,0.9777777777777777
13.4994354648,0.9833333333333333
13.7627665217,0.9888888888888889
14.4627001935,0.9944444444444445
14.6439107132,1.0
