Congestion,CDF
0.0,0.009433962264150943
0.0,0.018867924528301886
0.0,0.02830188679245283
0.0,0.03773584905660377
0.0,0.04716981132075472
0.0,0.05660377358490566
0.0,0.0660377358490566
0.0,0.07547169811320754
0.0,0.08490566037735849
0.0,0.09433962264150944
0.0,0.10377358490566038
0.0,0.11320754716981132
0.0,0.12264150943396226
0.0,0.1320754716981132
0.0,0.14150943396226415
0.0,0.1509433962264151
0.0,0.16037735849056603
0.0,0.16981132075471697
0.0,0.1792452830188679
0.0,0.18867924528301888
0.0,0.19811320754716982
0.0,0.20754716981132076
0.0,0.2169811320754717
0.0,0.22641509433962265
0.0,0.2358490566037736
0.0,0.24528301886792453
0.0,0.25471698113207547
0.0,0.2641509433962264
0.0,0.27358490566037735
0.0,0.2830188679245283
1.58222932266e-07,0.29245283018867924
4.07620448363e-06,0.3018867924528302
4.58376280281e-06,0.3113207547169811
6.2140427981e-06,0.32075471698113206
7.01453315337e-06,0.330188679245283
7.60590712598e-06,0.33962264150943394
9.33370685183e-06,0.3490566037735849
1.42340464062e-05,0.3584905660377358
1.82203313299e-05,0.36792452830188677
1.92828408466e-05,0.37735849056603776
2.24901719198e-05,0.3867924528301887
2.7690787607e-05,0.39622641509433965
2.83252871786e-05,0.4056603773584906
2.98859654748e-05,0.41509433962264153
0.000191509903785,0.42452830188679247
0.000262510505208,0.4339622641509434
0.000262510505208,0.44339622641509435
0.000441782302061,0.4528301886792453
0.000683262424872,0.46226415094339623
0.000683262424872,0.4716981132075472
0.000683262424872,0.4811320754716981
0.000700028013887,0.49056603773584906
0.000700028013887,0.5
0.000700028013887,0.5094339622641509
0.0010807433115,0.5188679245283019
0.00129063063918,0.5283018867924528
0.00129063063918,0.5377358490566038
0.00136652484974,0.5471698113207547
0.00136652484974,0.5566037735849056
0.00186421283943,0.5660377358490566
0.0022817721378,0.5754716981132075
0.00237628754456,0.5849056603773585
0.00237628754456,0.5943396226415094
0.0029442769191,0.6037735849056604
0.0029442769191,0.6132075471698113
0.00371828811326,0.6226415094339622
0.00452254687861,0.6320754716981132
0.00611208559008,0.6415094339622641
0.00689511032809,0.6509433962264151
0.00714206594551,0.660377358490566
0.00953086258538,0.6698113207547169
0.00966861915093,0.6792452830188679
0.0126585324186,0.6886792452830188
0.0186945703481,0.6981132075471698
0.0206396830312,0.7075471698113207
0.0207235967406,0.7169811320754716
0.0247056348766,0.7264150943396226
0.0253166145216,0.7358490566037735
0.0273370506218,0.7452830188679245
0.031345418796,0.7547169811320755
0.0354267931337,0.7641509433962265
0.0359408604002,0.7735849056603774
0.24663563634,0.7830188679245284
0.712029783421,0.7924528301886793
0.712029783421,0.8018867924528302
0.926461307874,0.8113207547169812
0.926461307874,0.8207547169811321
0.926461307874,0.8301886792452831
1.46518083969,0.839622641509434
1.85292261575,0.8490566037735849
1.85292261575,0.8584905660377359
1.89874608912,0.8679245283018868
1.89874608912,0.8773584905660378
1.89874608912,0.8867924528301887
2.83096066141,0.8962264150943396
2.83096066141,0.9056603773584906
3.73828039764,0.9150943396226415
3.73828039764,0.9245283018867925
4.93323537887,0.9339622641509434
4.93323537887,0.9433962264150944
5.28968022146,0.9528301886792453
5.34524523538,0.9622641509433962
12.5038722926,0.9716981132075472
12.6580924725,0.9811320754716981
15.9606324915,0.9905660377358491
39.9407271234,1.0
