Congestion,CDF
0.0,0.009433962264150943
0.0,0.018867924528301886
0.0,0.02830188679245283
0.0,0.03773584905660377
0.0,0.04716981132075472
0.0,0.05660377358490566
0.0,0.0660377358490566
0.0,0.07547169811320754
0.0,0.08490566037735849
0.0,0.09433962264150944
0.0,0.10377358490566038
0.0,0.11320754716981132
0.0,0.12264150943396226
0.0,0.1320754716981132
0.0,0.14150943396226415
0.0,0.1509433962264151
0.0,0.16037735849056603
0.0,0.16981132075471697
0.0,0.1792452830188679
0.0,0.18867924528301888
0.0,0.19811320754716982
0.0,0.20754716981132076
0.0,0.2169811320754717
0.0,0.22641509433962265
0.0,0.2358490566037736
0.0,0.24528301886792453
0.0,0.25471698113207547
0.0,0.2641509433962264
0.0,0.27358490566037735
0.0,0.2830188679245283
1.88552107132e-07,0.29245283018867924
4.85755720415e-06,0.3018867924528302
4.98922098485e-06,0.3113207547169811
5.46240752011e-06,0.32075471698113206
7.40518992166e-06,0.330188679245283
7.60590712598e-06,0.33962264150943394
8.35912334373e-06,0.3490566037735849
8.5856968531e-06,0.3584905660377358
1.11228509614e-05,0.36792452830188677
1.69625186721e-05,0.37735849056603776
1.74222866675e-05,0.3867924528301887
2.17129199649e-05,0.39622641509433965
2.29790980425e-05,0.4056603773584906
2.36019450412e-05,0.41509433962264153
2.68012306719e-05,0.42452830188679247
2.75276763337e-05,0.4339622641509434
3.29987333485e-05,0.44339622641509435
3.37548578209e-05,0.4528301886792453
3.56146968284e-05,0.46226415094339623
3.65800309327e-05,0.4716981132075472
5.43086281226e-05,0.4811320754716981
5.57438077286e-05,0.49056603773584906
0.000228219736407,0.5
0.000312830183289,0.5094339622641509
0.000312830183289,0.5188679245283019
0.000450683437615,0.5283018867924528
0.000814234498684,0.5377358490566038
0.000814234498684,0.5471698113207547
0.000814234498684,0.5566037735849056
0.000834213822104,0.5660377358490566
0.000834213822104,0.5754716981132075
0.000834213822104,0.5849056603773585
0.00128790704188,0.5943396226415094
0.00152743016595,0.6037735849056604
0.00152743016595,0.6132075471698113
0.00153802690332,0.6226415094339622
0.00153802690332,0.6320754716981132
0.00162846899737,0.6415094339622641
0.00162846899737,0.6509433962264151
0.00209039278982,0.660377358490566
0.00209039278982,0.6698113207547169
0.00209039278982,0.6792452830188679
0.0022215569765,0.6886792452830188
0.0022817721378,0.6981132075471698
0.00283178940791,0.7075471698113207
0.00283178940791,0.7169811320754716
0.00350865458709,0.7264150943396226
0.00350865458709,0.7358490566037735
0.00369550070409,0.7452830188679245
0.0040731471092,0.7547169811320755
0.0040731471092,0.7641509433962265
0.0040731471092,0.7735849056603774
0.00418078557964,0.7830188679245284
0.00418078557964,0.7924528301886793
0.00443103315455,0.8018867924528302
0.00505523200841,0.8113207547169812
0.00505523200841,0.8207547169811321
0.00538945733943,0.8301886792452831
0.00562447959174,0.839622641509434
0.00575044357544,0.8490566037735849
0.00575044357544,0.8584905660377359
0.00728368890955,0.8679245283018868
0.00768222536739,0.8773584905660378
0.011357798756,0.8867924528301887
0.0115219613735,0.8962264150943396
0.0139809505353,0.9056603773584906
0.0164477865531,0.9150943396226415
0.0173396657389,0.9245283018867925
0.0245960283402,0.9339622641509434
0.0381700016336,0.9433962264150944
0.05379711149,0.9528301886792453
0.05379711149,0.9622641509433962
0.0799665576267,0.9716981132075472
4.93846293228,0.9811320754716981
5.20602668803,0.9905660377358491
11.3248693135,1.0
