Congestion,CDF
0.0,0.009433962264150943
0.0,0.018867924528301886
0.0,0.02830188679245283
0.0,0.03773584905660377
0.0,0.04716981132075472
0.0,0.05660377358490566
0.0,0.0660377358490566
0.0,0.07547169811320754
0.0,0.08490566037735849
0.0,0.09433962264150944
0.0,0.10377358490566038
0.0,0.11320754716981132
0.0,0.12264150943396226
0.0,0.1320754716981132
0.0,0.14150943396226415
0.0,0.1509433962264151
0.0,0.16037735849056603
0.0,0.16981132075471697
0.0,0.1792452830188679
0.0,0.18867924528301888
0.0,0.19811320754716982
0.0,0.20754716981132076
0.0,0.2169811320754717
0.0,0.22641509433962265
0.0,0.2358490566037736
0.0,0.24528301886792453
0.0,0.25471698113207547
0.0,0.2641509433962264
0.0,0.27358490566037735
0.0,0.2830188679245283
1.57986655861e-07,0.29245283018867924
4.07011743338e-06,0.3018867924528302
4.57691780898e-06,0.3113207547169811
6.20476328552e-06,0.32075471698113206
7.00405825792e-06,0.330188679245283
9.31976870353e-06,0.33962264150943394
1.42127905158e-05,0.3490566037735849
1.81931226673e-05,0.3584905660377358
1.92540455244e-05,0.36792452830188677
2.24565870476e-05,0.37735849056603776
2.76494365864e-05,0.3867924528301887
2.82829886513e-05,0.39622641509433965
2.98413363659e-05,0.4056603773584906
0.000191223919504,0.41509433962264153
0.000262118494787,0.42452830188679247
0.000262118494787,0.4339622641509434
0.000682242100025,0.44339622641509435
0.000682242100025,0.4528301886792453
0.000682242100025,0.46226415094339623
0.000698982652764,0.4716981132075472
0.000698982652764,0.4811320754716981
0.000698982652764,0.49056603773584906
0.00107912942317,0.5
0.00128870332332,0.5094339622641509
0.00128870332332,0.5188679245283019
0.00136448420005,0.5283018867924528
0.00136448420005,0.5377358490566038
0.00186142898566,0.5471698113207547
0.00237273900284,0.5566037735849056
0.00237273900284,0.5660377358490566
0.0029398801913,0.5754716981132075
0.0029398801913,0.5849056603773585
0.00371273554428,0.5943396226415094
0.00451579329934,0.6037735849056604
0.00610295833155,0.6132075471698113
0.00688662473917,0.6226415094339622
0.00856760194475,0.6320754716981132
0.0095166300218,0.6415094339622641
0.00965418087364,0.6509433962264151
0.0151364137152,0.660377358490566
0.0151975665666,0.6698113207547169
0.0152882633389,0.6792452830188679
0.0200474904426,0.6886792452830188
0.0206088615186,0.6981132075471698
0.0220539630734,0.7075471698113207
0.0220654588157,0.7169811320754716
0.0221133944682,0.7264150943396226
0.0266442096654,0.7358490566037735
0.027375141064,0.7452830188679245
0.0303110432153,0.7547169811320755
0.0305844989292,0.7641509433962265
0.262271669978,0.7735849056603774
0.621939219419,0.7830188679245284
0.621939219419,0.7924528301886793
0.827023615252,0.8018867924528302
0.827023615252,0.8113207547169812
0.827023615252,0.8207547169811321
1.6540472305,0.8301886792452831
1.6540472305,0.839622641509434
1.65850458512,0.8490566037735849
1.65850458512,0.8584905660377359
1.65850458512,0.8679245283018868
2.25071186796,0.8773584905660378
2.57028058342,0.8867924528301887
2.9519331696,0.8962264150943396
2.9519331696,0.9056603773584906
3.49754960565,0.9150943396226415
3.49754960565,0.9245283018867925
4.32191030056,0.9339622641509434
4.32191030056,0.9433962264150944
6.90324269156,0.9528301886792453
6.9374088569,0.9622641509433962
10.7495888724,0.9716981132075472
10.8316255866,0.9811320754716981
16.3180956049,0.9905660377358491
35.337024426,1.0
