Congestion,CDF
0.0,0.005555555555555556
0.0,0.011111111111111112
0.0,0.016666666666666666
0.0,0.022222222222222223
0.0,0.027777777777777776
0.0,0.03333333333333333
0.0,0.03888888888888889
0.0,0.044444444444444446
0.0,0.05
0.0,0.05555555555555555
1.13447356417e-06,0.06111111111111111
1.3034555649e-06,0.06666666666666667
2.93397048102e-06,0.07222222222222222
4.28816852689e-06,0.07777777777777778
4.38785165974e-06,0.08333333333333333
5.79347468597e-06,0.08888888888888889
6.37358893562e-06,0.09444444444444444
8.78425893848e-06,0.1
8.82957736987e-06,0.10555555555555556
9.0334864644e-06,0.1111111111111111
9.21940598071e-06,0.11666666666666667
1.01486824855e-05,0.12222222222222222
1.03840787413e-05,0.12777777777777777
1.15958371548e-05,0.13333333333333333
1.18764668505e-05,0.1388888888888889
1.2506070871e-05,0.14444444444444443
1.4460940264e-05,0.15
1.58261583367e-05,0.15555555555555556
1.65256971126e-05,0.16111111111111112
1.71874045456e-05,0.16666666666666666
1.74593445725e-05,0.17222222222222222
1.75995662306e-05,0.17777777777777778
1.81826649647e-05,0.18333333333333332
1.88144779154e-05,0.18888888888888888
1.91320743455e-05,0.19444444444444445
1.93481365725e-05,0.2
1.94554801269e-05,0.20555555555555555
1.96788949165e-05,0.2111111111111111
1.98711933215e-05,0.21666666666666667
1.9914798565e-05,0.2222222222222222
2.05802031416e-05,0.22777777777777777
2.07519011788e-05,0.23333333333333334
2.09901200855e-05,0.2388888888888889
2.27311742261e-05,0.24444444444444444
2.39191393115e-05,0.25
2.59692279413e-05,0.25555555555555554
2.63806379498e-05,0.2611111111111111
2.67602744532e-05,0.26666666666666666
2.76665094363e-05,0.2722222222222222
9.77990160342e-05,0.2777777777777778
0.000195598032068,0.2833333333333333
0.000214408426344,0.28888888888888886
0.000214408426344,0.29444444444444445
0.000220739434247,0.3
0.000220739434247,0.3055555555555556
0.000334186790663,0.3111111111111111
0.000438785165974,0.31666666666666665
0.000441478868493,0.32222222222222224
0.000587798867789,0.3277777777777778
0.000878425893848,0.3333333333333333
0.00091353425926,0.3388888888888889
0.000967406828627,0.34444444444444444
0.000967406828627,0.35
0.0012356076828,0.35555555555555557
0.00188144779154,0.3611111111111111
0.00191320743455,0.36666666666666664
0.0019743650494,0.37222222222222223
0.00207662950058,0.37777777777777777
0.0021269905441,0.38333333333333336
0.00216703228353,0.3888888888888889
0.00225037551547,0.39444444444444443
0.00225037551547,0.4
0.00256610397052,0.40555555555555556
0.00271190258858,0.4111111111111111
0.00274692285561,0.4166666666666667
0.00289777095524,0.4222222222222222
0.0029160225325,0.42777777777777776
0.0030705763792,0.43333333333333335
0.00307988917005,0.4388888888888889
0.00311056658492,0.4444444444444444
0.00311750631381,0.45
0.00314109276049,0.45555555555555555
0.0031725351023,0.46111111111111114
0.0031760798147,0.4666666666666667
0.00319271299256,0.4722222222222222
0.00320566592278,0.4777777777777778
0.00321693735514,0.48333333333333334
0.00323919368675,0.4888888888888889
0.00324411610428,0.49444444444444446
0.00324819211459,0.5
0.00325096009804,0.5055555555555555
0.00325193480609,0.5111111111111111
0.003252956205,0.5166666666666667
0.00325852886922,0.5222222222222223
0.00326809966412,0.5277777777777778
0.00327074402475,0.5333333333333333
0.00327800646667,0.5388888888888889
0.00327962334679,0.5444444444444444
0.00327991336764,0.55
0.00328095153838,0.5555555555555556
0.00328260694253,0.5611111111111111
0.00330606148782,0.5666666666666667
0.00331022899974,0.5722222222222222
0.0033179171594,0.5777777777777777
0.00333557317621,0.5833333333333334
0.00333971082305,0.5888888888888889
0.00334388005193,0.5944444444444444
0.00334604287875,0.6
0.0033502809666,0.6055555555555555
0.00335170766029,0.6111111111111112
0.00335674529819,0.6166666666666667
0.00336444377773,0.6222222222222222
0.00338435778446,0.6277777777777778
0.00387292764804,0.6333333333333333
0.00409488003575,0.6388888888888888
0.00430839582962,0.6444444444444445
0.00529674360446,0.65
0.00621868420253,0.6555555555555556
0.00651094870155,0.6611111111111111
0.00803986976064,0.6666666666666666
0.00910787149568,0.6722222222222223
0.0162041019759,0.6777777777777778
0.0197137429744,0.6833333333333333
0.020634745019,0.6888888888888889
0.0224803939181,0.6944444444444444
0.0230266589502,0.7
0.0242263283753,0.7055555555555556
0.0244916744636,0.7111111111111111
0.02593776849,0.7166666666666667
0.0280129586079,0.7222222222222222
0.0281878127569,0.7277777777777777
0.0286503175014,0.7333333333333333
0.0290911614033,0.7388888888888889
0.0301295692774,0.7444444444444445
0.0819905836699,0.75
0.0819905836699,0.7555555555555555
0.109266882222,0.7611111111111111
0.124047188976,0.7666666666666667
0.155528329246,0.7722222222222223
0.155528329246,0.7777777777777778
0.162548004902,0.7833333333333333
0.162548004902,0.7888888888888889
0.16398116734,0.7944444444444444
0.218533764445,0.8
0.320566592278,0.8055555555555556
0.324819211459,0.8111111111111111
0.328260694253,0.8166666666666667
0.33502809666,0.8222222222222222
0.3992440939,0.8277777777777777
0.413013483643,0.8333333333333334
0.462585967166,0.8388888888888889
0.484241740416,0.8444444444444444
0.502416945786,0.85
0.526371213086,0.8555555555555555
0.526371213086,0.8611111111111112
0.650114831959,0.8666666666666667
0.664705072026,0.8722222222222222
0.718515393156,0.8777777777777778
0.809435221025,0.8833333333333333
0.855837683486,0.8888888888888888
0.862045742904,0.8944444444444445
1.04243476183,0.9
1.53167812744,0.9055555555555556
1.70928329905,0.9111111111111111
1.85140224593,0.9166666666666666
2.03988944783,0.9222222222222223
2.1793935827,0.9277777777777778
3.9067383413,0.9333333333333333
3.96703878952,0.9388888888888889
4.29384875593,0.9444444444444444
4.6114567374,0.95
4.90541449563,0.9555555555555556
5.23980250082,0.9611111111111111
5.38203162157,0.9666666666666667
5.65672390713,0.9722222222222222
5.71974244049,0.9777777777777777
5.86438685719,0.9833333333333333
6.03385171654,0.9888888888888889
6.32362881207,0.9944444444444445
6.54033204042,1.0
