Congestion,CDF
0.0,0.007352941176470588
0.0,0.014705882352941176
0.0,0.022058823529411766
0.0,0.029411764705882353
0.0236675054291,0.03676470588235294
0.0236675054291,0.04411764705882353
0.0242110564278,0.051470588235294115
0.0242110564278,0.058823529411764705
0.0244612800855,0.0661764705882353
0.0244612800855,0.07352941176470588
0.0248362037015,0.08088235294117647
0.0248362037015,0.08823529411764706
0.0249119822805,0.09558823529411764
0.0249119822805,0.10294117647058823
0.0250783854491,0.11029411764705882
0.0250783854491,0.11764705882352941
0.0269056398037,0.125
0.0269056398037,0.1323529411764706
0.0272019866728,0.13970588235294118
0.0272019866728,0.14705882352941177
0.0282566142687,0.15441176470588236
0.0282566142687,0.16176470588235295
0.0286206918348,0.16911764705882354
0.0286206918348,0.17647058823529413
0.0291965800145,0.18382352941176472
0.0291965800145,0.19117647058823528
0.0297084260772,0.19852941176470587
0.0297084260772,0.20588235294117646
0.0301167008395,0.21323529411764705
0.0301167008395,0.22058823529411764
0.0307841410603,0.22794117647058823
0.0307841410603,0.23529411764705882
0.0307896660883,0.2426470588235294
0.0307896660883,0.25
0.0311662070514,0.25735294117647056
0.0311662070514,0.2647058823529412
0.0316588685731,0.27205882352941174
0.0316588685731,0.27941176470588236
0.0321487938697,0.2867647058823529
0.0321487938697,0.29411764705882354
0.032248141204,0.3014705882352941
0.032248141204,0.3088235294117647
0.0323637630699,0.3161764705882353
0.0323637630699,0.3235294117647059
0.0338932805341,0.33088235294117646
0.0338932805341,0.3382352941176471
0.0339731455642,0.34558823529411764
0.0339731455642,0.35294117647058826
0.0345367127976,0.3602941176470588
0.0345367127976,0.36764705882352944
0.0354905568342,0.375
0.0354905568342,0.38235294117647056
0.0358722149177,0.3897058823529412
0.0358722149177,0.39705882352941174
0.0371408807817,0.40441176470588236
0.0371408807817,0.4117647058823529
0.0376669060101,0.41911764705882354
0.0376669060101,0.4264705882352941
0.0402701955335,0.4338235294117647
0.0402701955335,0.4411764705882353
0.711357778733,0.4485294117647059
0.711357778733,0.45588235294117646
0.956450428518,0.4632352941176471
0.956450428518,0.47058823529411764
1.02363411579,0.47794117647058826
1.02363411579,0.4852941176470588
1.13287958668,0.49264705882352944
1.13287958668,0.5
1.25470670358,0.5073529411764706
1.25470670358,0.5147058823529411
1.55919897229,0.5220588235294118
1.55919897229,0.5294117647058824
1.60582960787,0.5367647058823529
1.60582960787,0.5441176470588235
1.7776214892,0.5514705882352942
1.7776214892,0.5588235294117647
2.03300727063,0.5661764705882353
2.03300727063,0.5735294117647058
2.37014057114,0.5808823529411765
2.37014057114,0.5882352941176471
2.47566556226,0.5955882352941176
2.47566556226,0.6029411764705882
2.53311610092,0.6102941176470589
2.53311610092,0.6176470588235294
2.64353275371,0.625
2.64353275371,0.6323529411764706
2.87764654673,0.6397058823529411
2.87764654673,0.6470588235294118
3.39731455642,0.6544117647058824
3.39731455642,0.6617647058823529
3.45367127976,0.6691176470588235
3.45367127976,0.6764705882352942
3.57929286121,0.6838235294117647
3.57929286121,0.6911764705882353
3.62978602715,0.6985294117647058
3.62978602715,0.7058823529411765
3.76669060101,0.7132352941176471
3.76669060101,0.7205882352941176
3.82544674284,0.7279411764705882
3.82544674284,0.7352941176470589
3.9706094201,0.7426470588235294
3.9706094201,0.75
4.02701955335,0.7573529411764706
4.02701955335,0.7647058823529411
4.14454967062,0.7720588235294118
4.14454967062,0.7794117647058824
4.63259248378,0.7867647058823529
4.63259248378,0.7941176470588235
4.89118696649,0.8014705882352942
4.89118696649,0.8088235294117647
5.17026390286,0.8161764705882353
5.17026390286,0.8235294117647058
5.6202287624,0.8308823529411765
5.6202287624,0.8382352941176471
5.73507102951,0.8455882352941176
5.73507102951,0.8529411764705882
6.01801980871,0.8602941176470589
6.01801980871,0.8676470588235294
6.04627653466,0.875
6.04627653466,0.8823529411764706
6.25119463131,0.8897058823529411
6.25119463131,0.8970588235294118
7.84102762257,0.9044117647058824
7.84102762257,0.9117647058823529
9.10576984615,0.9191176470588235
9.10576984615,0.9264705882352942
9.40639322147,0.9338235294117647
9.40639322147,0.9411764705882353
11.5077982325,0.9485294117647058
11.5077982325,0.9558823529411765
11.5340756131,0.9632352941176471
11.5340756131,0.9705882352941176
15.2207824869,0.9779411764705882
15.2207824869,0.9852941176470589
17.5828085471,0.9926470588235294
17.5828085471,1.0
