Congestion,CDF
0.0,0.007352941176470588
0.0,0.014705882352941176
0.0301578065803,0.022058823529411766
0.0301578065803,0.029411764705882353
0.0306459471241,0.03676470588235294
0.0306459471241,0.04411764705882353
0.0306464281951,0.051470588235294115
0.0306464281951,0.058823529411764705
0.0308656744826,0.0661764705882353
0.0308656744826,0.07352941176470588
0.0309320956066,0.08088235294117647
0.0309320956066,0.08823529411764706
0.0319663179376,0.09558823529411764
0.0319663179376,0.10294117647058823
0.0321626838249,0.11029411764705882
0.0321626838249,0.11764705882352941
0.0340087957621,0.125
0.0340087957621,0.1323529411764706
0.0345876488321,0.13970588235294118
0.0345876488321,0.14705882352941177
0.0352244151589,0.15441176470588236
0.0352244151589,0.16176470588235295
0.0353001244122,0.16911764705882354
0.0353001244122,0.17647058823529413
0.0359873287626,0.18382352941176472
0.0359873287626,0.19117647058823528
0.0363664684492,0.19852941176470587
0.0363664684492,0.20588235294117646
0.0370336975052,0.21323529411764705
0.0370336975052,0.22058823529411764
0.0370649422383,0.22794117647058823
0.0370649422383,0.23529411764705882
0.0375196745517,0.2426470588235294
0.0375196745517,0.25
0.0377467309317,0.25735294117647056
0.0377467309317,0.2647058823529412
0.038589598031,0.27205882352941174
0.038589598031,0.27941176470588236
0.0387100951863,0.2867647058823529
0.0387100951863,0.29411764705882354
0.0388103682666,0.3014705882352941
0.0388103682666,0.3088235294117647
0.0392489906339,0.3161764705882353
0.0392489906339,0.3235294117647059
0.0404976394756,0.33088235294117646
0.0404976394756,0.3382352941176471
0.0405583668942,0.34558823529411764
0.0405583668942,0.35294117647058826
0.0407437739337,0.3602941176470588
0.0407437739337,0.36764705882352944
0.0412862414257,0.375
0.0412862414257,0.38235294117647056
0.0423845717085,0.3897058823529412
0.0423845717085,0.39705882352941174
0.0431412133845,0.40441176470588236
0.0431412133845,0.4117647058823529
0.0434786482758,0.41911764705882354
0.0434786482758,0.4264705882352941
0.0469993410228,0.4338235294117647
0.0469993410228,0.4411764705882353
0.96624264765,0.4485294117647059
0.96624264765,0.45588235294117646
1.1253355332,0.4632352941176471
1.1253355332,0.47058823529411764
1.43978925366,0.47794117647058826
1.43978925366,0.4852941176470588
1.49428888417,0.49264705882352944
1.49428888417,0.5
1.51006801583,0.5073529411764706
1.51006801583,0.5147058823529411
1.88559873222,0.5220588235294118
1.88559873222,0.5294117647058824
1.90688590471,0.5367647058823529
1.90688590471,0.5441176470588235
2.24478147051,0.5514705882352942
2.24478147051,0.5588235294117647
2.34889178727,0.5661764705882353
2.34889178727,0.5735294117647058
2.89972180319,0.5808823529411765
2.89972180319,0.5882352941176471
2.94310655151,0.5955882352941176
2.94310655151,0.6029411764705882
3.25115116747,0.6102941176470589
3.25115116747,0.6176470588235294
3.26948173141,0.625
3.26948173141,0.6323529411764706
3.60849329195,0.6397058823529411
3.60849329195,0.6470588235294118
4.01960614098,0.6544117647058824
4.01960614098,0.6617647058823529
4.05583668942,0.6691176470588235
4.05583668942,0.6764705882352942
4.37802263416,0.6838235294117647
4.37802263416,0.6911764705882353
4.38274165174,0.6985294117647058
4.38274165174,0.7058823529411765
4.56314183037,0.7132352941176471
4.56314183037,0.7205882352941176
4.62691874515,0.7279411764705882
4.62691874515,0.7352941176470589
4.69993410228,0.7426470588235294
4.69993410228,0.75
4.72979472535,0.7573529411764706
4.72979472535,0.7647058823529411
5.21656223966,0.7720588235294118
5.21656223966,0.7794117647058824
5.66250713475,0.7867647058823529
5.66250713475,0.7941176470588235
5.67719295589,0.8014705882352942
5.67719295589,0.8088235294117647
6.19911478936,0.8161764705882353
6.19911478936,0.8235294117647058
6.58734895813,0.8308823529411765
6.58734895813,0.8382352941176471
7.02289475034,0.8455882352941176
7.02289475034,0.8529411764705882
7.12301165483,0.8602941176470589
7.12301165483,0.8676470588235294
7.24209290806,0.875
7.24209290806,0.8823529411764706
7.63755778174,0.8897058823529411
7.63755778174,0.8970588235294118
9.20672187045,0.9044117647058824
9.20672187045,0.9117647058823529
10.7222135175,0.9191176470588235
10.7222135175,0.9264705882352942
10.9523984156,0.9338235294117647
10.9523984156,0.9411764705882353
13.2714468486,0.9485294117647058
13.2714468486,0.9558823529411765
13.4906055698,0.9632352941176471
13.4906055698,0.9705882352941176
17.5174944676,0.9779411764705882
17.5174944676,0.9852941176470589
20.1962671719,0.9926470588235294
20.1962671719,1.0
