Congestion,CDF
0.0,0.007352941176470588
0.0,0.014705882352941176
0.0410514112024,0.022058823529411766
0.0410514112024,0.029411764705882353
0.042509048068,0.03676470588235294
0.042509048068,0.04411764705882353
0.0436588982664,0.051470588235294115
0.0436588982664,0.058823529411764705
0.0436641012569,0.0661764705882353
0.0436641012569,0.07352941176470588
0.0440774631043,0.08088235294117647
0.0440774631043,0.08823529411764706
0.0441976335601,0.09558823529411764
0.0441976335601,0.10294117647058823
0.0464137534093,0.11029411764705882
0.0464137534093,0.11764705882352941
0.0465729158836,0.125
0.0465729158836,0.1323529411764706
0.0468572258575,0.13970588235294118
0.0468572258575,0.14705882352941177
0.0477406972837,0.15441176470588236
0.0477406972837,0.16176470588235295
0.0479375877773,0.16911764705882354
0.0479375877773,0.17647058823529413
0.0480556102102,0.18382352941176472
0.0480556102102,0.19117647058823528
0.048476511954,0.19852941176470587
0.048476511954,0.20588235294117646
0.0486060810971,0.21323529411764705
0.0486060810971,0.22058823529411764
0.0486489534874,0.22794117647058823
0.0486489534874,0.23529411764705882
0.0495167447115,0.2426470588235294
0.0495167447115,0.25
0.0501247014555,0.25735294117647056
0.0501247014555,0.2647058823529412
0.0501305831782,0.27205882352941174
0.0501305831782,0.27941176470588236
0.0503171919825,0.2867647058823529
0.0503171919825,0.29411764705882354
0.0506395291403,0.3014705882352941
0.0506395291403,0.3088235294117647
0.0508555357902,0.3161764705882353
0.0508555357902,0.3235294117647059
0.0508695067283,0.33088235294117646
0.0508695067283,0.3382352941176471
0.0510827897045,0.34558823529411764
0.0510827897045,0.35294117647058826
0.0520497926271,0.3602941176470588
0.0520497926271,0.36764705882352944
0.0528198608791,0.375
0.0528198608791,0.38235294117647056
0.0535884425686,0.3897058823529412
0.0535884425686,0.39705882352941174
0.0536200605134,0.40441176470588236
0.0536200605134,0.4117647058823529
0.0583034240313,0.41911764705882354
0.0583034240313,0.4264705882352941
0.125873544754,0.4338235294117647
0.125873544754,0.4411764705882353
1.38716048601,0.4485294117647059
1.38716048601,0.45588235294117646
1.44167748761,0.4632352941176471
1.44167748761,0.47058823529411764
1.91354549596,0.47794117647058826
1.91354549596,0.4852941176470588
2.10926285613,0.49264705882352944
2.10926285613,0.5
2.1563899583,0.5073529411764706
2.1563899583,0.5147058823529411
2.42732595863,0.5220588235294118
2.42732595863,0.5294117647058824
2.449483512,0.5367647058823529
2.449483512,0.5441176470588235
2.9037954617,0.5514705882352942
2.9037954617,0.5588235294117647
3.04815812788,0.5661764705882353
3.04815812788,0.5735294117647058
3.70290503368,0.5808823529411765
3.70290503368,0.5882352941176471
3.77712266138,0.5955882352941176
3.77712266138,0.6029411764705882
4.31781232665,0.6102941176470589
4.31781232665,0.6176470588235294
4.50065212033,0.625
4.50065212033,0.6323529411764706
4.82644580634,0.6397058823529411
4.82644580634,0.6470588235294118
4.98686821641,0.6544117647058824
4.98686821641,0.6617647058823529
5.10827897045,0.6691176470588235
5.10827897045,0.6764705882352942
5.43909074896,0.6838235294117647
5.43909074896,0.6911764705882353
5.75102271358,0.6985294117647058
5.75102271358,0.7058823529411765
5.83034240313,0.7132352941176471
5.83034240313,0.7205882352941176
5.93542388277,0.7279411764705882
5.93542388277,0.7352941176470589
5.97411760889,0.7426470588235294
5.97411760889,0.75
6.11997973179,0.7573529411764706
6.11997973179,0.7647058823529411
6.95527410021,0.7720588235294118
6.95527410021,0.7794117647058824
6.96987096583,0.7867647058823529
6.96987096583,0.7941176470588235
7.32709664644,0.8014705882352942
7.32709664644,0.8088235294117647
7.89530049911,0.8161764705882353
7.89530049911,0.8235294117647058
8.18578154961,0.8308823529411765
8.18578154961,0.8382352941176471
8.63074430782,0.8455882352941176
8.63074430782,0.8529411764705882
9.21151253552,0.8602941176470589
9.21151253552,0.8676470588235294
9.3407517293,0.875
9.3407517293,0.8823529411764706
9.84809444311,0.8897058823529411
9.84809444311,0.8970588235294118
11.4590211065,0.9044117647058824
11.4590211065,0.9117647058823529
13.3210373108,0.9191176470588235
13.3210373108,0.9264705882352942
13.4673471495,0.9338235294117647
13.4673471495,0.9411764705882353
16.2223609242,0.9485294117647058
16.2223609242,0.9558823529411765
16.6890490778,0.9632352941176471
16.6890490778,0.9705882352941176
21.2947391687,0.9779411764705882
21.2947391687,0.9852941176470589
24.4477919358,0.9926470588235294
24.4477919358,1.0
