Congestion,CDF
0.0,0.007352941176470588
0.0,0.014705882352941176
0.0213764150894,0.022058823529411766
0.0213764150894,0.029411764705882353
0.0290249508235,0.03676470588235294
0.0290249508235,0.04411764705882353
0.0290746334198,0.051470588235294115
0.0290746334198,0.058823529411764705
0.0292557020483,0.0661764705882353
0.0292557020483,0.07352941176470588
0.0292918096536,0.08088235294117647
0.0292918096536,0.08823529411764706
0.0301373149808,0.09558823529411764
0.0301373149808,0.10294117647058823
0.0303268368792,0.11029411764705882
0.0303268368792,0.11764705882352941
0.0321651219256,0.125
0.0321651219256,0.1323529411764706
0.0327112309979,0.13970588235294118
0.0327112309979,0.14705882352941177
0.0334754087912,0.15441176470588236
0.0334754087912,0.16176470588235295
0.0335823179709,0.16911764705882354
0.0335823179709,0.17647058823529413
0.0343841993043,0.18382352941176472
0.0343841993043,0.19117647058823528
0.0344783085485,0.19852941176470587
0.0344783085485,0.20588235294117646
0.0353002147996,0.21323529411764705
0.0353002147996,0.22058823529411764
0.035470944575,0.22794117647058823
0.035470944575,0.23529411764705882
0.0358566501219,0.2426470588235294
0.0358566501219,0.25
0.0361242241353,0.25735294117647056
0.0361242241353,0.2647058823529412
0.0368459372748,0.27205882352941174
0.0368459372748,0.27941176470588236
0.0370953860589,0.2867647058823529
0.0370953860589,0.29411764705882354
0.0371501874358,0.3014705882352941
0.0371501874358,0.3088235294117647
0.0374694055281,0.3161764705882353
0.0374694055281,0.3235294117647059
0.0389218580499,0.33088235294117646
0.0389218580499,0.3382352941176471
0.0389844148493,0.34558823529411764
0.0389844148493,0.35294117647058826
0.0390483046316,0.3602941176470588
0.0390483046316,0.36764705882352944
0.0398473257679,0.375
0.0398473257679,0.38235294117647056
0.0407689067612,0.3897058823529412
0.0407689067612,0.39705882352941174
0.0416336957577,0.40441176470588236
0.0416336957577,0.4117647058823529
0.0420136072063,0.41911764705882354
0.0420136072063,0.4264705882352941
0.0452957633776,0.4338235294117647
0.0452957633776,0.4411764705882353
0.902672238099,0.4485294117647059
0.902672238099,0.45588235294117646
1.08308170125,0.4632352941176471
1.08308170125,0.47058823529411764
1.33854608402,0.47794117647058826
1.33854608402,0.4852941176470588
1.41862232265,0.49264705882352944
1.41862232265,0.5
1.43551032638,0.5073529411764706
1.43551032638,0.5147058823529411
1.80339956908,0.5220588235294118
1.80339956908,0.5294117647058824
1.83057314362,0.5367647058823529
1.83057314362,0.5441176470588235
2.12782903191,0.5514705882352942
2.12782903191,0.5588235294117647
2.26597140483,0.5661764705882353
2.26597140483,0.5735294117647058
2.76916266977,0.5808823529411765
2.76916266977,0.5882352941176471
2.82677658968,0.5955882352941176
2.82677658968,0.6029411764705882
3.06455081487,0.6102941176470589
3.06455081487,0.6176470588235294
3.11169827038,0.625
3.11169827038,0.6323529411764706
3.42308447748,0.6397058823529411
3.42308447748,0.6470588235294118
3.87706506984,0.6544117647058824
3.87706506984,0.6617647058823529
3.89218580499,0.6691176470588235
3.89218580499,0.6764705882352942
4.17970344773,0.6838235294117647
4.17970344773,0.6911764705882353
4.22273713572,0.6985294117647058
4.22273713572,0.7058823529411765
4.32710283404,0.7132352941176471
4.32710283404,0.7205882352941176
4.42892475595,0.7279411764705882
4.42892475595,0.7352941176470589
4.52957633776,0.7426470588235294
4.52957633776,0.75
4.54007274559,0.7573529411764706
4.54007274559,0.7647058823529411
4.94864380261,0.7720588235294118
4.94864380261,0.7794117647058824
5.40486222707,0.7867647058823529
5.40486222707,0.7941176470588235
5.48120437041,0.8014705882352942
5.48120437041,0.8088235294117647
5.94393544183,0.8161764705882353
5.94393544183,0.8235294117647058
6.34286208095,0.8308823529411765
6.34286208095,0.8382352941176471
6.77871594538,0.8455882352941176
6.77871594538,0.8529411764705882
6.77960020533,0.8602941176470589
6.77960020533,0.8676470588235294
6.93690549222,0.875
6.93690549222,0.8823529411764706
7.29402232484,0.8897058823529411
7.29402232484,0.8970588235294118
8.86779273103,0.9044117647058824
8.86779273103,0.9117647058823529
10.3218371925,0.9191176470588235
10.3218371925,0.9264705882352942
10.5679448355,0.9338235294117647
10.5679448355,0.9411764705882353
12.8301773889,0.9485294117647058
12.8301773889,0.9558823529411765
13.0048404145,0.9632352941176471
13.0048404145,0.9705882352941176
16.9400564503,0.9779411764705882
16.9400564503,0.9852941176470589
19.5421451602,0.9926470588235294
19.5421451602,1.0
