Congestion,CDF
0.0,0.007352941176470588
0.0,0.014705882352941176
0.0256813740047,0.022058823529411766
0.0256813740047,0.029411764705882353
0.0298349497307,0.03676470588235294
0.0298349497307,0.04411764705882353
0.0299510162749,0.051470588235294115
0.0299510162749,0.058823529411764705
0.0299724116122,0.0661764705882353
0.0299724116122,0.07352941176470588
0.0301115598123,0.08088235294117647
0.0301115598123,0.08823529411764706
0.03105016321,0.09558823529411764
0.03105016321,0.10294117647058823
0.0312446366424,0.11029411764705882
0.0312446366424,0.11764705882352941
0.0330848171471,0.125
0.0330848171471,0.1323529411764706
0.0336490741545,0.13970588235294118
0.0336490741545,0.14705882352941177
0.034385610183,0.15441176470588236
0.034385610183,0.16176470588235295
0.0344040928502,0.16911764705882354
0.0344040928502,0.17647058823529413
0.0351805839759,0.18382352941176472
0.0351805839759,0.19117647058823528
0.03542002797,0.19852941176470587
0.03542002797,0.20588235294117646
0.0361814437867,0.21323529411764705
0.0361814437867,0.22058823529411764
0.0362522945522,0.22794117647058823
0.0362522945522,0.23529411764705882
0.0366895441805,0.2426470588235294
0.0366895441805,0.25
0.0369370395918,0.25735294117647056
0.0369370395918,0.2647058823529412
0.0377192573813,0.27205882352941174
0.0377192573813,0.27941176470588236
0.037901542232,0.2867647058823529
0.037901542232,0.29411764705882354
0.0379807601105,0.3014705882352941
0.0379807601105,0.3088235294117647
0.0383588257435,0.3161764705882353
0.0383588257435,0.3235294117647059
0.0397394415577,0.33088235294117646
0.0397394415577,0.3382352941176471
0.0397407846976,0.34558823529411764
0.0397407846976,0.35294117647058826
0.039892439453,0.3602941176470588
0.039892439453,0.36764705882352944
0.0405675171483,0.375
0.0405675171483,0.38235294117647056
0.041577631319,0.3897058823529412
0.041577631319,0.39705882352941174
0.0423869213287,0.40441176470588236
0.0423869213287,0.4117647058823529
0.0427453075317,0.41911764705882354
0.0427453075317,0.4264705882352941
0.0461461263708,0.4338235294117647
0.0461461263708,0.4411764705882353
0.934484552727,0.4485294117647059
0.934484552727,0.45588235294117646
1.10420915593,0.4632352941176471
1.10420915593,0.47058823529411764
1.38941766413,0.47794117647058826
1.38941766413,0.4852941176470588
1.46457695938,0.49264705882352944
1.46457695938,0.5
1.4649779483,0.5073529411764706
1.4649779483,0.5147058823529411
1.84445697963,0.5220588235294118
1.84445697963,0.5294117647058824
1.86849502162,0.5367647058823529
1.86849502162,0.5441176470588235
2.18641323189,0.5514705882352942
2.18641323189,0.5588235294117647
2.30734877875,0.5661764705882353
2.30734877875,0.5735294117647058
2.83456764011,0.5808823529411765
2.83456764011,0.5882352941176471
2.88498163152,0.5955882352941176
2.88498163152,0.6029411764705882
3.15762491212,0.6102941176470589
3.15762491212,0.6176470588235294
3.19034535228,0.625
3.19034535228,0.6323529411764706
3.51576421804,0.6397058823529411
3.51576421804,0.6470588235294118
3.94826278177,0.6544117647058824
3.94826278177,0.6617647058823529
3.97407846976,0.6691176470588235
3.97407846976,0.6764705882352942
4.28121863854,0.6838235294117647
4.28121863854,0.6911764705882353
4.30021212717,0.6985294117647058
4.30021212717,0.7058823529411765
4.44512746676,0.7132352941176471
4.44512746676,0.7205882352941176
4.52809073712,0.7279411764705882
4.52809073712,0.7352941176470589
4.61461263708,0.7426470588235294
4.61461263708,0.75
4.63478116737,0.7573529411764706
4.63478116737,0.7647058823529411
5.08272133806,0.7720588235294118
5.08272133806,0.7794117647058824
5.53370481487,0.7867647058823529
5.53370481487,0.7941176470588235
5.57923977135,0.8014705882352942
5.57923977135,0.8088235294117647
6.07168437646,0.8161764705882353
6.07168437646,0.8235294117647058
6.46511191065,0.8308823529411765
6.46511191065,0.8382352941176471
6.90080534068,0.8455882352941176
6.90080534068,0.8529411764705882
6.95157388017,0.8602941176470589
6.95157388017,0.8676470588235294
7.08967087424,0.875
7.08967087424,0.8823529411764706
7.46600506149,0.8897058823529411
7.46600506149,0.8970588235294118
9.03743583822,0.9044117647058824
9.03743583822,0.9117647058823529
10.5222963313,0.9191176470588235
10.5222963313,0.9264705882352942
10.7603227763,0.9338235294117647
10.7603227763,0.9411764705882353
13.0507914011,0.9485294117647058
13.0507914011,0.9558823529411765
13.2479645985,0.9632352941176471
13.2479645985,0.9705882352941176
17.2285774326,0.9779411764705882
17.2285774326,0.9852941176470589
19.8692347515,0.9926470588235294
19.8692347515,1.0
