Congestion,CDF
0.0,0.007352941176470588
0.0,0.014705882352941176
0.033450329505,0.022058823529411766
0.033450329505,0.029411764705882353
0.0340077817787,0.03676470588235294
0.0340077817787,0.04411764705882353
0.0344677073936,0.051470588235294115
0.0344677073936,0.058823529411764705
0.0346074332025,0.0661764705882353
0.0346074332025,0.07352941176470588
0.0356516003577,0.08088235294117647
0.0356516003577,0.08823529411764706
0.0358299262861,0.09558823529411764
0.0358299262861,0.10294117647058823
0.0377256963934,0.11029411764705882
0.0377256963934,0.11764705882352941
0.0383257554201,0.125
0.0383257554201,0.1323529411764706
0.0384878027465,0.13970588235294118
0.0384878027465,0.14705882352941177
0.0389910924819,0.15441176470588236
0.0389910924819,0.16176470588235295
0.0394298579625,0.16911764705882354
0.0394298579625,0.17647058823529413
0.0401896486723,0.18382352941176472
0.0401896486723,0.19117647058823528
0.040199958774,0.19852941176470587
0.040199958774,0.20588235294117646
0.0406113954954,0.21323529411764705
0.0406113954954,0.22058823529411764
0.0408141939128,0.22794117647058823
0.0408141939128,0.23529411764705882
0.0410837476515,0.2426470588235294
0.0410837476515,0.25
0.0420700619465,0.25735294117647056
0.0420700619465,0.2647058823529412
0.0420726817328,0.27205882352941174
0.0420726817328,0.27941176470588236
0.0422393127674,0.2867647058823529
0.0422393127674,0.29411764705882354
0.0428158858508,0.3014705882352941
0.0428158858508,0.3088235294117647
0.0435587767835,0.3161764705882353
0.0435587767835,0.3235294117647059
0.043815815732,0.33088235294117646
0.043815815732,0.3382352941176471
0.044147821692,0.34558823529411764
0.044147821692,0.35294117647058826
0.0442241303923,0.3602941176470588
0.0442241303923,0.36764705882352944
0.0455954226403,0.375
0.0455954226403,0.38235294117647056
0.0462725210608,0.3897058823529412
0.0462725210608,0.39705882352941174
0.0464576207347,0.40441176470588236
0.0464576207347,0.4117647058823529
0.0504386822872,0.41911764705882354
0.0504386822872,0.4264705882352941
0.0511959423563,0.4338235294117647
0.0511959423563,0.4411764705882353
1.0911246302,0.4485294117647059
1.0911246302,0.45588235294117646
1.21130736191,0.4632352941176471
1.21130736191,0.47058823529411764
1.61648957863,0.47794117647058826
1.61648957863,0.4852941176470588
1.64725891826,0.49264705882352944
1.64725891826,0.5
1.69027313875,0.5073529411764706
1.69027313875,0.5147058823529411
2.05239911804,0.5220588235294118
2.05239911804,0.5294117647058824
2.06527766187,0.5367647058823529
2.06527766187,0.5441176470588235
2.48663114613,0.5514705882352942
2.48663114613,0.5588235294117647
2.5167330559,0.5661764705882353
2.5167330559,0.5735294117647058
3.16433427382,0.5808823529411765
3.16433427382,0.5882352941176471
3.17482572781,0.5955882352941176
3.17482572781,0.6029411764705882
3.59083218333,0.6102941176470589
3.59083218333,0.6176470588235294
3.62711055292,0.625
3.62711055292,0.6323529411764706
3.97803462843,0.6397058823529411
3.97803462843,0.6470588235294118
4.30772911928,0.6544117647058824
4.30772911928,0.6617647058823529
4.3815815732,0.6691176470588235
4.3815815732,0.6764705882352942
4.69391063254,0.6838235294117647
4.69391063254,0.6911764705882353
4.79869968502,0.6985294117647058
4.79869968502,0.7058823529411765
5.02545988261,0.7132352941176471
5.02545988261,0.7205882352941176
5.03389971894,0.7279411764705882
5.03389971894,0.7352941176470589
5.04386822872,0.7426470588235294
5.04386822872,0.75
5.11316944097,0.7573529411764706
5.11316944097,0.7647058823529411
5.75141268829,0.7720588235294118
5.75141268829,0.7794117647058824
6.0681894988,0.7867647058823529
6.0681894988,0.7941176470588235
6.17660213743,0.8014705882352942
6.17660213743,0.8088235294117647
6.71674567254,0.8161764705882353
6.71674567254,0.8235294117647058
7.07627531993,0.8308823529411765
7.07627531993,0.8382352941176471
7.51120392658,0.8455882352941176
7.51120392658,0.8529411764705882
7.80229914794,0.8602941176470589
7.80229914794,0.8676470588235294
7.84851887902,0.875
7.84851887902,0.8823529411764706
8.31923875249,0.8897058823529411
8.31923875249,0.8970588235294118
9.88692726517,0.9044117647058824
9.88692726517,0.9117647058823529
11.5168786933,0.9191176470588235
11.5168786933,0.9264705882352942
11.7178543572,0.9338235294117647
11.7178543572,0.9411764705882353
14.1663419645,0.9485294117647058
14.1663419645,0.9558823529411765
14.4729306331,0.9632352941176471
14.4729306331,0.9705882352941176
18.6775566796,0.9779411764705882
18.6775566796,0.9852941176470589
21.5040879066,0.9926470588235294
21.5040879066,1.0
