Congestion,CDF
0.0,0.007352941176470588
0.0,0.014705882352941176
0.0349733995495,0.022058823529411766
0.0349733995495,0.029411764705882353
0.0357330616899,0.03676470588235294
0.0357330616899,0.04411764705882353
0.0363474255149,0.051470588235294115
0.0363474255149,0.058823529411764705
0.0365797187194,0.0661764705882353
0.0365797187194,0.07352941176470588
0.0374999008085,0.08088235294117647
0.0374999008085,0.08823529411764706
0.037656996175,0.09558823529411764
0.037656996175,0.10294117647058823
0.0395936577923,0.11029411764705882
0.0395936577923,0.11764705882352941
0.040147764054,0.125
0.040147764054,0.1323529411764706
0.0401761033165,0.13970588235294118
0.0401761033165,0.14705882352941177
0.0409189500642,0.15441176470588236
0.0409189500642,0.16176470588235295
0.0412679169435,0.16911764705882354
0.0412679169435,0.17647058823529413
0.0418282477356,0.18382352941176472
0.0418282477356,0.19117647058823528
0.0422078237277,0.19852941176470587
0.0422078237277,0.20588235294117646
0.0423866734798,0.21323529411764705
0.0423866734798,0.22058823529411764
0.0424872725052,0.22794117647058823
0.0424872725052,0.23529411764705882
0.0427610204501,0.2426470588235294
0.0427610204501,0.25
0.0437984095742,0.25735294117647056
0.0437984095742,0.2647058823529412
0.0438542082676,0.27205882352941174
0.0438542082676,0.27941176470588236
0.0439708035833,0.2867647058823529
0.0439708035833,0.29411764705882354
0.0446025657356,0.3014705882352941
0.0446025657356,0.3088235294117647
0.0451038914566,0.3161764705882353
0.0451038914566,0.3235294117647059
0.0454374807065,0.33088235294117646
0.0454374807065,0.3382352941176471
0.0455713883641,0.34558823529411764
0.0455713883641,0.35294117647058826
0.0459626488848,0.3602941176470588
0.0459626488848,0.36764705882352944
0.047191597273,0.375
0.047191597273,0.38235294117647056
0.0478733409162,0.3897058823529412
0.0478733409162,0.39705882352941174
0.0480165534288,0.40441176470588236
0.0480165534288,0.4117647058823529
0.0521727188784,0.41911764705882354
0.0521727188784,0.4264705882352941
0.0656674066203,0.4338235294117647
0.0656674066203,0.4411764705882353
1.15206238017,0.4485294117647059
1.15206238017,0.45588235294117646
1.25728523756,0.4632352941176471
1.25728523756,0.47058823529411764
1.68007103143,0.47794117647058826
1.68007103143,0.4852941176470588
1.75753595079,0.49264705882352944
1.75753595079,0.5
1.78377289196,0.5073529411764706
1.78377289196,0.5147058823529411
2.13918449422,0.5220588235294118
2.13918449422,0.5294117647058824
2.14502255585,0.5367647058823529
2.14502255585,0.5441176470588235
2.60164793481,0.5514705882352942
2.60164793481,0.5588235294117647
2.60974865681,0.5661764705882353
2.60974865681,0.5735294117647058
3.29022322318,0.5808823529411765
3.29022322318,0.5882352941176471
3.29858498111,0.5955882352941176
3.29858498111,0.6029411764705882
3.75193423561,0.6102941176470589
3.75193423561,0.6176470588235294
3.81535236467,0.625
3.81535236467,0.6323529411764706
4.16162374621,0.6397058823529411
4.16162374621,0.6470588235294118
4.45542403275,0.6544117647058824
4.45542403275,0.6617647058823529
4.54374807065,0.6691176470588235
4.54374807065,0.6764705882352942
4.85662045579,0.6838235294117647
4.85662045579,0.6911764705882353
5.00940079391,0.6985294117647058
5.00940079391,0.7058823529411765
5.21727188784,0.7132352941176471
5.21727188784,0.7205882352941176
5.22624431442,0.7279411764705882
5.22624431442,0.7352941176470589
5.27413446063,0.7426470588235294
5.27413446063,0.75
5.30458722643,0.7573529411764706
5.30458722643,0.7647058823529411
6.02244023994,0.7720588235294118
6.02244023994,0.7794117647058824
6.26319142372,0.7867647058823529
6.26319142372,0.7941176470588235
6.43270217779,0.8014705882352942
6.43270217779,0.8088235294117647
6.97707832854,0.8161764705882353
6.97707832854,0.8235294117647058
7.32080766211,0.8308823529411765
7.32080766211,0.8382352941176471
7.7552776316,0.8455882352941176
7.7552776316,0.8529411764705882
8.13811535774,0.8602941176470589
8.13811535774,0.8676470588235294
8.14991473994,0.875
8.14991473994,0.8823529411764706
8.65743230608,0.8897058823529411
8.65743230608,0.8970588235294118
10.2284602948,0.9044117647058824
10.2284602948,0.9117647058823529
11.9176940123,0.9191176470588235
11.9176940123,0.9264705882352942
12.1057978001,0.9338235294117647
12.1057978001,0.9411764705882353
14.6199613962,0.9485294117647058
14.6199613962,0.9558823529411765
14.964942097,0.9632352941176471
14.964942097,0.9705882352941176
19.2580746866,0.9779411764705882
19.2580746866,0.9852941176470589
22.1579725676,0.9926470588235294
22.1579725676,1.0
