Congestion,CDF
0.0,0.007352941176470588
0.0,0.014705882352941176
0.0,0.022058823529411766
0.0,0.029411764705882353
0.0,0.03676470588235294
0.0,0.04411764705882353
0.0,0.051470588235294115
0.0,0.058823529411764705
0.0,0.0661764705882353
0.0,0.07352941176470588
0.0,0.08088235294117647
0.0,0.08823529411764706
0.0,0.09558823529411764
0.0,0.10294117647058823
4.2625776636e-06,0.11029411764705882
4.2625776636e-06,0.11764705882352941
4.2625776636e-06,0.125
4.2625776636e-06,0.1323529411764706
4.2625776636e-06,0.13970588235294118
4.2625776636e-06,0.14705882352941177
4.2625776636e-06,0.15441176470588236
4.2625776636e-06,0.16176470588235295
4.2625776636e-06,0.16911764705882354
4.2625776636e-06,0.17647058823529413
4.2625776636e-06,0.18382352941176472
4.2625776636e-06,0.19117647058823528
4.2625776636e-06,0.19852941176470587
4.2625776636e-06,0.20588235294117646
4.2625776636e-06,0.21323529411764705
4.2625776636e-06,0.22058823529411764
4.2625776636e-06,0.22794117647058823
4.2625776636e-06,0.23529411764705882
4.2625776636e-06,0.2426470588235294
4.2625776636e-06,0.25
4.2625776636e-06,0.25735294117647056
4.2625776636e-06,0.2647058823529412
4.2625776636e-06,0.27205882352941174
4.2625776636e-06,0.27941176470588236
4.2625776636e-06,0.2867647058823529
4.2625776636e-06,0.29411764705882354
4.2625776636e-06,0.3014705882352941
0.00010656444159,0.3088235294117647
0.00010656444159,0.3161764705882353
0.000115089596917,0.3235294117647059
0.00021312888318,0.33088235294117646
0.00021312888318,0.3382352941176471
0.00021312888318,0.34558823529411764
0.00021312888318,0.35294117647058826
0.00031969332477,0.3602941176470588
0.0003552148053,0.36764705882352944
0.0003552148053,0.375
0.0003552148053,0.38235294117647056
0.00042625776636,0.3897058823529412
0.00042625776636,0.39705882352941174
0.00042625776636,0.40441176470588236
0.00042625776636,0.4117647058823529
0.00042625776636,0.41911764705882354
0.00042625776636,0.4264705882352941
0.00042625776636,0.4338235294117647
0.000532822207951,0.4411764705882353
0.000639386649541,0.4485294117647059
0.000639386649541,0.45588235294117646
0.000781472571661,0.4632352941176471
0.000852515532721,0.47058823529411764
0.000852515532721,0.47794117647058826
0.00127877329908,0.4852941176470588
0.00174055254597,0.49264705882352944
0.00309036880611,0.5
0.00316141176717,0.5073529411764706
0.00408497026095,0.5147058823529411
0.0050795717158,0.5220588235294118
0.00515061467686,0.5294117647058824
0.00550582948216,0.5367647058823529
0.00557687244322,0.5441176470588235
0.00600313020958,0.5514705882352942
0.0426871568538,0.5588235294117647
0.0431267558775,0.5661764705882353
0.0479578633464,0.5735294117647058
0.0480127981894,0.5808823529411765
0.04808470058,0.5882352941176471
0.0481129162819,0.5955882352941176
0.0481310809642,0.6029411764705882
0.0481656705258,0.6102941176470589
0.0482393141586,0.6176470588235294
0.0482494062408,0.625
0.0482621130585,0.6323529411764706
0.0482665589451,0.6397058823529411
0.0482674561642,0.6470588235294118
0.048268323803,0.6544117647058824
0.0482693247905,0.6617647058823529
0.0482699229055,0.6691176470588235
0.0482703542832,0.6764705882352942
0.0482722136788,0.6838235294117647
0.0482745290796,0.6911764705882353
0.0482823400654,0.6985294117647058
0.048285126561,0.7058823529411765
0.0482851368008,0.7132352941176471
0.0482852169258,0.7205882352941176
0.0482852202678,0.7279411764705882
0.0482854683123,0.7352941176470589
0.0482854705406,0.7426470588235294
0.0482854705406,0.75
1.20670809508,0.7573529411764706
1.20680534197,0.7647058823529411
1.29146790974,0.7720588235294118
2.40828352629,0.7794117647058824
2.40828352629,0.7867647058823529
2.41372645398,0.7941176470588235
2.41372645398,0.8014705882352942
3.62012428523,0.8088235294117647
4.02242864252,0.8161764705882353
4.02242864252,0.8235294117647058
4.02242864252,0.8308823529411765
4.81310809642,0.8382352941176471
4.82699229055,0.8455882352941176
4.82722136788,0.8529411764705882
4.82851368008,0.8602941176470589
4.82852202678,0.8676470588235294
4.82854705406,0.875
4.82854705406,0.8823529411764706
6.0337435234,0.8897058823529411
7.21675358429,0.8970588235294118
7.2403823485,0.9044117647058824
8.8473692666,0.9117647058823529
9.62439972461,0.9191176470588235
9.65704371936,0.9264705882352942
14.4856409393,0.9338235294117647
19.7100969355,0.9411764705882353
35.0065163369,0.9485294117647058
35.7896811443,0.9558823529411765
46.2709054399,0.9632352941176471
57.4266207878,0.9705882352941176
58.3374990942,0.9779411764705882
61.6953364732,0.9852941176470589
63.1387789132,0.9926470588235294
67.4514545009,1.0
