Congestion,CDF
0.0,0.007352941176470588
0.0,0.014705882352941176
0.0,0.022058823529411766
0.0,0.029411764705882353
0.0,0.03676470588235294
0.0,0.04411764705882353
0.0,0.051470588235294115
0.0,0.058823529411764705
0.0,0.0661764705882353
0.0,0.07352941176470588
0.0,0.08088235294117647
0.0,0.08823529411764706
0.0,0.09558823529411764
0.0,0.10294117647058823
4.44228574505e-06,0.11029411764705882
4.44228574505e-06,0.11764705882352941
4.44228574505e-06,0.125
4.44228574505e-06,0.1323529411764706
4.44228574505e-06,0.13970588235294118
4.44228574505e-06,0.14705882352941177
4.44228574505e-06,0.15441176470588236
4.44228574505e-06,0.16176470588235295
4.44228574505e-06,0.16911764705882354
4.44228574505e-06,0.17647058823529413
4.44228574505e-06,0.18382352941176472
4.44228574505e-06,0.19117647058823528
4.44228574505e-06,0.19852941176470587
4.44228574505e-06,0.20588235294117646
4.44228574505e-06,0.21323529411764705
4.44228574505e-06,0.22058823529411764
4.44228574505e-06,0.22794117647058823
4.44228574505e-06,0.23529411764705882
4.44228574505e-06,0.2426470588235294
4.44228574505e-06,0.25
4.44228574505e-06,0.25735294117647056
4.44228574505e-06,0.2647058823529412
4.44228574505e-06,0.27205882352941174
4.44228574505e-06,0.27941176470588236
4.44228574505e-06,0.2867647058823529
4.44228574505e-06,0.29411764705882354
4.44228574505e-06,0.3014705882352941
0.000111057143626,0.3088235294117647
0.000111057143626,0.3161764705882353
0.000119941715116,0.3235294117647059
0.000222114287253,0.33088235294117646
0.000222114287253,0.3382352941176471
0.000222114287253,0.34558823529411764
0.000222114287253,0.35294117647058826
0.000333171430879,0.3602941176470588
0.000370190478754,0.36764705882352944
0.000370190478754,0.375
0.000370190478754,0.38235294117647056
0.000444228574505,0.3897058823529412
0.000444228574505,0.39705882352941174
0.000444228574505,0.40441176470588236
0.000444228574505,0.4117647058823529
0.000444228574505,0.41911764705882354
0.000444228574505,0.4264705882352941
0.000444228574505,0.4338235294117647
0.000555285718131,0.4411764705882353
0.000666342861758,0.4485294117647059
0.000666342861758,0.45588235294117646
0.000814419053259,0.4632352941176471
0.00088845714901,0.47058823529411764
0.00088845714901,0.47794117647058826
0.00133268572352,0.4852941176470588
0.0018139333459,0.49264705882352944
0.00322065716516,0.5
0.00329469526091,0.5073529411764706
0.00425719050567,0.5147058823529411
0.00529372384619,0.5220588235294118
0.00536776194194,0.5294117647058824
0.00573795242069,0.5367647058823529
0.00581199051644,0.5441176470588235
0.00625621909095,0.5514705882352942
0.0238683768583,0.5588235294117647
0.0248162450163,0.5661764705882353
0.0363477696529,0.5735294117647058
0.0364298710702,0.5808823529411765
0.0366130449501,0.5882352941176471
0.0366470756764,0.5955882352941176
0.0366788922592,0.6029411764705882
0.0367111801274,0.6102941176470589
0.0367862343066,0.6176470588235294
0.0368004772574,0.625
0.0368113422459,0.6323529411764706
0.0368178411919,0.6397058823529411
0.0368190105031,0.6470588235294118
0.0368199276693,0.6544117647058824
0.0368207043308,0.6617647058823529
0.0368214982734,0.6691176470588235
0.0368219407807,0.6764705882352942
0.0368238314059,0.6838235294117647
0.0368260708498,0.6911764705882353
0.0368339164902,0.6985294117647058
0.0368367559134,0.7058823529411765
0.0368367674448,0.7132352941176471
0.0368368477568,0.7205882352941176
0.0368368512432,0.7279411764705882
0.0368370992056,0.7352941176470589
0.0368371015302,0.7426470588235294
0.0368371015302,0.75
0.920498191732,0.7573529411764706
0.920595785148,0.7647058823529411
0.96777377554,0.7720588235294118
1.83555900637,0.7794117647058824
1.83555900637,0.7867647058823529
1.84130354249,0.7941176470588235
1.84130354249,0.8014705882352942
2.7614945752,0.8088235294117647
3.06839432699,0.8161764705882353
3.06839432699,0.8235294117647058
3.06839432699,0.8308823529411765
3.66788922592,0.8382352941176471
3.68214982734,0.8455882352941176
3.68238314059,0.8529411764705882
3.68367674448,0.8602941176470589
3.68368512432,0.8676470588235294
3.68371015302,0.875
3.68371015302,0.8823529411764706
4.6026922698,0.8897058823529411
5.49686350138,0.8970588235294118
5.52308766168,0.9044117647058824
6.74844205273,0.9117647058823529
7.33259679356,0.9191176470588235
7.36736989999,0.9264705882352942
11.0511302266,0.9338235294117647
15.0353068572,0.9411764705882353
26.7064482476,0.9485294117647058
27.297931347,0.9558823529411765
35.2995377661,0.9632352941176471
43.7621686072,0.9705882352941176
44.5037596523,0.9779411764705882
46.149006293,0.9852941176470589
48.1467467593,0.9926470588235294
50.628371261,1.0
