Congestion,CDF
0.0,0.009433962264150943
0.0,0.018867924528301886
0.0,0.02830188679245283
0.0,0.03773584905660377
0.0,0.04716981132075472
0.0,0.05660377358490566
0.0,0.0660377358490566
0.0,0.07547169811320754
0.0,0.08490566037735849
0.0,0.09433962264150944
0.0,0.10377358490566038
0.0,0.11320754716981132
0.0,0.12264150943396226
0.0,0.1320754716981132
0.0,0.14150943396226415
0.0,0.1509433962264151
0.0,0.16037735849056603
0.0,0.16981132075471697
0.0,0.1792452830188679
0.0,0.18867924528301888
0.0,0.19811320754716982
0.0,0.20754716981132076
0.0,0.2169811320754717
0.0,0.22641509433962265
0.0,0.2358490566037736
0.0,0.24528301886792453
0.0,0.25471698113207547
0.0,0.2641509433962264
0.0,0.27358490566037735
0.0,0.2830188679245283
5.28118702848e-08,0.29245283018867924
1.36056119907e-06,0.3018867924528302
1.52997472043e-06,0.3113207547169811
2.07413184358e-06,0.32075471698113206
2.34132062716e-06,0.330188679245283
3.11541764823e-06,0.33962264150943394
4.75105979689e-06,0.3490566037735849
6.08160752024e-06,0.3584905660377358
6.43625342375e-06,0.36792452830188677
7.50680084805e-06,0.37735849056603776
9.24266958174e-06,0.3867924528301887
9.45445373078e-06,0.39622641509433965
9.97537910207e-06,0.4056603773584906
6.39224419123e-05,0.41509433962264153
8.76211213565e-05,0.42452830188679247
8.76211213565e-05,0.4339622641509434
0.000228060282009,0.44339622641509435
0.000228060282009,0.4528301886792453
0.000228060282009,0.46226415094339623
0.000233656323617,0.4716981132075472
0.000233656323617,0.4811320754716981
0.000233656323617,0.49056603773584906
0.000360732004903,0.5
0.000430788488911,0.5094339622641509
0.000430788488911,0.5188679245283019
0.000456120564018,0.5283018867924528
0.000456120564018,0.5377358490566038
0.000622239553075,0.5471698113207547
0.000793160560014,0.5566037735849056
0.000793160560014,0.5660377358490566
0.000982744843035,0.5754716981132075
0.000982744843035,0.5849056603773585
0.00124109537541,0.5943396226415094
0.00150954198415,0.6037735849056604
0.00204010042495,0.6132075471698113
0.00318122456305,0.6226415094339622
0.003227205141,0.6320754716981132
0.00601088798954,0.6415094339622641
0.00688914209436,0.6509433962264151
0.00791331836832,0.660377358490566
0.0127133992124,0.6698113207547169
0.0133862408608,0.6792452830188679
0.0135212447881,0.6886792452830188
0.0169990950719,0.6981132075471698
0.0187685917053,0.7075471698113207
0.0187747296174,0.7169811320754716
0.0194587329325,0.7264150943396226
0.0233916422856,0.7358490566037735
0.0237187115313,0.7452830188679245
0.0264229671155,0.7547169811320755
0.0266620714886,0.7641509433962265
0.227741632967,0.7735849056603774
0.527866641711,0.7830188679245284
0.527866641711,0.7924528301886793
0.704052360651,0.8018867924528302
0.704052360651,0.8113207547169812
0.704052360651,0.8207547169811321
1.4076443779,0.8301886792452831
1.4076443779,0.839622641509434
1.4076443779,0.8490566037735849
1.4081047213,0.8584905660377359
1.4081047213,0.8679245283018868
1.91930656062,0.8773584905660378
2.3739955105,0.8867924528301887
2.48616332359,0.8962264150943396
2.48616332359,0.9056603773584906
2.96830410779,0.9150943396226415
2.96830410779,0.9245283018867925
3.72426095947,0.9339622641509434
3.72426095947,0.9433962264150944
5.98020830147,0.9528301886792453
6.01058418511,0.9622641509433962
9.33476468423,0.9716981132075472
9.40649599619,0.9811320754716981
14.1181855905,0.9905660377358491
30.7244346454,1.0
