Congestion,CDF
0.0,0.005555555555555556
0.0,0.011111111111111112
0.0,0.016666666666666666
0.0,0.022222222222222223
0.0,0.027777777777777776
0.0,0.03333333333333333
0.0,0.03888888888888889
0.0,0.044444444444444446
0.0,0.05
0.0,0.05555555555555555
1.1153498304e-06,0.06111111111111111
1.28148331452e-06,0.06666666666666667
2.88451276589e-06,0.07222222222222222
4.21588319927e-06,0.07777777777777778
4.3138859812e-06,0.08333333333333333
5.695814528e-06,0.08888888888888889
6.26614983628e-06,0.09444444444444444
8.63618335999e-06,0.1
8.68073786206e-06,0.10555555555555556
8.88120967664e-06,0.1111111111111111
9.06399516194e-06,0.11666666666666667
9.97760692405e-06,0.12222222222222222
1.02090351232e-05,0.12777777777777777
1.14003670182e-05,0.13333333333333333
1.16762661607e-05,0.1388888888888889
1.22952569945e-05,0.14444444444444443
1.42171733042e-05,0.15
1.55593780007e-05,0.15555555555555556
1.62471247052e-05,0.16111111111111112
1.68976777868e-05,0.16666666666666666
1.71650337415e-05,0.17222222222222222
1.73028916939e-05,0.17777777777777778
1.78761611774e-05,0.18333333333333332
1.84973237057e-05,0.18888888888888888
1.88095664372e-05,0.19444444444444445
1.90219865198e-05,0.2
1.91275205921e-05,0.20555555555555555
1.93471692958e-05,0.2111111111111111
1.95362261414e-05,0.21666666666666667
1.95790963346e-05,0.2222222222222222
2.02332842373e-05,0.22777777777777777
2.04020879739e-05,0.23333333333333334
2.06362912428e-05,0.2388888888888889
2.23479965674e-05,0.24444444444444444
2.35159362166e-05,0.25
2.55314666598e-05,0.25555555555555554
2.59359415613e-05,0.2611111111111111
2.63091785613e-05,0.26666666666666666
2.72001372109e-05,0.2722222222222222
9.61504255297e-05,0.2777777777777778
0.000192300851059,0.2833333333333333
0.000210794159963,0.28888888888888886
0.000210794159963,0.29444444444444445
0.000217018446551,0.3
0.000217018446551,0.3055555555555556
0.000328553429591,0.3111111111111111
0.00043138859812,0.31666666666666665
0.000434036893103,0.32222222222222224
0.000520148985154,0.3277777777777778
0.000577890387404,0.3333333333333333
0.000779784469304,0.3388888888888889
0.000863618335999,0.34444444444444444
0.000898134882391,0.35
0.000951099325992,0.35555555555555557
0.000951099325992,0.3611111111111111
0.00121477913896,0.36666666666666664
0.00184973237057,0.37222222222222223
0.00188095664372,0.37777777777777777
0.00194108332935,0.38333333333333336
0.00209113602781,0.3888888888888889
0.00221244110818,0.39444444444444443
0.00221244110818,0.4
0.00252284735291,0.40555555555555556
0.00266618825486,0.4111111111111111
0.00286686736455,0.4166666666666667
0.00306495474924,0.4222222222222222
0.0032443868039,0.42777777777777776
0.0037412939339,0.43333333333333335
0.00374752844717,0.4388888888888889
0.00375282745256,0.4444444444444444
0.00380527576175,0.45
0.00380764200403,0.45555555555555555
0.00381979105748,0.46111111111111114
0.0038564879218,0.4666666666666667
0.00390634028219,0.4722222222222222
0.00401228727401,0.4777777777777778
0.00401407114897,0.48333333333333334
0.00402585295738,0.4888888888888889
0.00402793608136,0.49444444444444446
0.00406087411106,0.5
0.00411140707927,0.5055555555555555
0.00412205981881,0.5111111111111111
0.00413687140695,0.5166666666666667
0.00415806579211,0.5222222222222223
0.00423576953191,0.5277777777777778
0.00426200086827,0.5333333333333333
0.00426383687255,0.5388888888888889
0.00428653171363,0.5444444444444444
0.00430825423664,0.55
0.00430991090316,0.5555555555555556
0.00433425446496,0.5611111111111111
0.00434543708722,0.5666666666666667
0.00436711661017,0.5722222222222222
0.00437907025856,0.5777777777777777
0.00438627364616,0.5833333333333334
0.00439050870705,0.5888888888888889
0.00439774802302,0.5944444444444444
0.00440609522506,0.6
0.00443037120304,0.6055555555555555
0.0044446830514,0.6111111111111112
0.00450630342366,0.6166666666666667
0.00454722734381,0.6222222222222222
0.00462092095329,0.6277777777777778
0.0046351386122,0.6333333333333333
0.00464932425061,0.6388888888888888
0.00467871750444,0.6444444444444445
0.00520745680419,0.65
0.00611385632038,0.6555555555555556
0.00640119413918,0.6611111111111111
0.00790434229337,0.6666666666666666
0.00895434080516,0.6722222222222223
0.015930950673,0.6777777777777778
0.0193814299227,0.6833333333333333
0.0202869067065,0.6888888888888889
0.0221014436438,0.6944444444444444
0.0226385003282,0.7
0.0238179470179,0.7055555555555556
0.0240788201876,0.7111111111111111
0.025500537518,0.7166666666666667
0.0275407463154,0.7222222222222222
0.0277126529614,0.7277777777777777
0.028167361299,0.7333333333333333
0.0286007739291,0.7388888888888889
0.0296216774414,0.7444444444444445
0.100351778724,0.75
0.100351778724,0.7555555555555555
0.126842525392,0.7611111111111111
0.156767162787,0.7666666666666667
0.190989552874,0.7722222222222223
0.190989552874,0.7777777777777778
0.200703557449,0.7833333333333333
0.219313682308,0.7888888888888889
0.219313682308,0.7944444444444444
0.253685050783,0.8
0.38564879218,0.8055555555555556
0.401228727401,0.8111111111111111
0.436711661017,0.8166666666666667
0.437907025856,0.8222222222222222
0.474481172114,0.8277777777777777
0.50643918983,0.8333333333333334
0.617373240129,0.8388888888888889
0.630454390235,0.8444444444444444
0.665635982509,0.85
0.665763507587,0.8555555555555555
0.665763507587,0.8611111111111112
0.836279134546,0.8666666666666667
0.865115200333,0.8722222222222222
0.877321183522,0.8777777777777778
1.05948180205,0.8833333333333333
1.07022919254,0.8888888888888888
1.10880062789,0.8944444444444445
1.2937683717,0.9
1.98125136247,0.9055555555555556
2.09999815435,0.9111111111111111
2.35877908654,0.9166666666666666
2.50279176249,0.9222222222222223
2.82087118187,0.9277777777777778
4.92309399566,0.9333333333333333
5.23193541915,0.9388888888888889
5.6998071696,0.9444444444444444
6.13063259326,0.95
6.19036422052,0.9555555555555556
6.64508695491,0.9611111111111111
7.18143127989,0.9666666666666667
7.24976364847,0.9722222222222222
7.50586996028,0.9777777777777777
7.55788485879,0.9833333333333333
7.66557022769,0.9888888888888889
8.04085297294,0.9944444444444445
8.11883141987,1.0
