Congestion,CDF
0.0,0.005555555555555556
0.0,0.011111111111111112
0.0,0.016666666666666666
0.0,0.022222222222222223
0.0,0.027777777777777776
0.0,0.03333333333333333
0.0,0.03888888888888889
0.0,0.044444444444444446
0.0,0.05
0.0,0.05555555555555555
1.05260815389e-06,0.06111111111111111
1.20939614566e-06,0.06666666666666667
2.72225052143e-06,0.07222222222222222
3.9787274902e-06,0.07777777777777778
4.07121733021e-06,0.08333333333333333
5.37540837127e-06,0.08888888888888889
5.91366065731e-06,0.09444444444444444
8.15037289239e-06,0.1
8.19242107396e-06,0.10555555555555556
8.38161576508e-06,0.1111111111111111
8.55411903445e-06,0.11666666666666667
9.41633747397e-06,0.12222222222222222
9.63474716287e-06,0.12777777777777777
1.07590631689e-05,0.13333333333333333
1.1019442181e-05,0.1388888888888889
1.16036129776e-05,0.14444444444444443
1.34174158972e-05,0.15
1.46841176702e-05,0.15555555555555556
1.53331766194e-05,0.16111111111111112
1.59471341954e-05,0.16666666666666666
1.6199450599e-05,0.17222222222222222
1.632955364e-05,0.17777777777777778
1.68705750454e-05,0.18333333333333332
1.74567953723e-05,0.18888888888888888
1.77514735407e-05,0.19444444444444445
1.7951944375e-05,0.2
1.80515418484e-05,0.20555555555555555
1.82588346727e-05,0.2111111111111111
1.84372565201e-05,0.21666666666666667
1.847771514e-05,0.2222222222222222
1.90951030678e-05,0.22777777777777777
1.92544111026e-05,0.23333333333333334
1.94754397555e-05,0.2388888888888889
2.10908566701e-05,0.24444444444444444
2.21930963123e-05,0.25
2.40952472977e-05,0.25555555555555554
2.44769693079e-05,0.2611111111111111
2.48292106396e-05,0.26666666666666666
2.56700502701e-05,0.2722222222222222
9.07416840476e-05,0.2777777777777778
0.000181483368095,0.2833333333333333
0.00019893637451,0.28888888888888886
0.00019893637451,0.29444444444444445
0.000204810526849,0.3
0.000204810526849,0.3055555555555556
0.000310071342238,0.3111111111111111
0.000407121733021,0.31666666666666665
0.000409621053698,0.32222222222222224
0.00054538236996,0.3277777777777778
0.000815037289239,0.3333333333333333
0.000847612179365,0.3388888888888889
0.00089759721875,0.34444444444444444
0.00089759721875,0.35
0.00114644427425,0.35555555555555557
0.00174567953723,0.3611111111111111
0.00177514735407,0.36666666666666664
0.00183189173851,0.37222222222222223
0.00197350353564,0.37777777777777777
0.00208798485193,0.38333333333333336
0.00208798485193,0.3888888888888889
0.00238092984131,0.39444444444444443
0.00251620740003,0.4
0.00270559772531,0.40555555555555556
0.00289254211766,0.4111111111111111
0.00359345105123,0.4166666666666667
0.0037993870029,0.4222222222222222
0.00399749515871,0.42777777777777776
0.00491452219181,0.43333333333333335
0.00576993409525,0.4388888888888889
0.00604110832485,0.4444444444444444
0.00745970001732,0.45
0.00845063305462,0.45555555555555555
0.0150347882974,0.46111111111111114
0.0168618012729,0.4666666666666667
0.0170468707916,0.4722222222222222
0.0182911680395,0.4777777777777778
0.019145709117,0.48333333333333334
0.0198364529092,0.4888888888888889
0.0199862522879,0.49444444444444446
0.0200693222688,0.5
0.0200711146402,0.5055555555555555
0.0200753928336,0.5111111111111111
0.0200860065965,0.5166666666666667
0.0200990164982,0.5222222222222223
0.0201119144023,0.5277777777777778
0.0201392546295,0.5333333333333333
0.0201398457554,0.5388888888888889
0.0201434647927,0.5444444444444444
0.0201519778972,0.55
0.0201580345595,0.5555555555555556
0.0201644925928,0.5611111111111111
0.0201675346758,0.5666666666666667
0.0201677518015,0.5722222222222222
0.0201798302454,0.5777777777777777
0.0201982592895,0.5833333333333334
0.0202038814683,0.5888888888888889
0.0202095348613,0.5944444444444444
0.0202100271358,0.6
0.0202160276043,0.6055555555555555
0.0202253813501,0.6111111111111112
0.0202304776603,0.6166666666666667
0.0202340608471,0.6222222222222222
0.0202355951401,0.6277777777777778
0.0202370003973,0.6333333333333333
0.020238385054,0.6388888888888888
0.020240536408,0.6444444444444445
0.0202472998458,0.65
0.0202508394142,0.6555555555555556
0.0202667089488,0.6611111111111111
0.0202765391392,0.6666666666666666
0.0202962149632,0.6722222222222223
0.0202996431212,0.6777777777777778
0.0203038196554,0.6833333333333333
0.0203096470151,0.6888888888888889
0.0208581730666,0.6944444444444444
0.0213650187482,0.7
0.0224781181264,0.7055555555555556
0.0227243164205,0.7111111111111111
0.0240660580102,0.7166666666666667
0.0259914991205,0.7222222222222222
0.026153735517,0.7277777777777777
0.0265828651862,0.7333333333333333
0.0269918970935,0.7388888888888889
0.0279553718098,0.7444444444444445
0.503496143886,0.75
0.503496143886,0.7555555555555555
0.669533553218,0.7611111111111111
0.78058621077,0.7666666666666667
1.00376964168,0.7722222222222223
1.00376964168,0.7777777777777778
1.00699228777,0.7833333333333333
1.011779757,0.7888888888888889
1.011779757,0.7944444444444444
1.33906710644,0.8
2.00990164982,0.8055555555555556
2.01392546295,0.8111111111111111
2.02304776603,0.8166666666666667
2.02340608471,0.8222222222222222
2.51042837077,0.8277777777777777
2.5186939336,0.8333333333333334
3.02175266621,0.8388888888888889
3.02822901628,0.8444444444444444
3.03737425331,0.85
3.19660826995,0.8555555555555555
3.19660826995,0.8611111111111112
4.0365725447,0.8666666666666667
4.04710140683,0.8722222222222222
4.52161981099,0.8777777777777778
5.05206752168,0.8833333333333333
5.20861563365,0.8888888888888888
5.22133825453,0.8944444444444445
6.54262252457,0.9
9.26728247425,0.9055555555555556
10.4123353676,0.9111111111111111
11.5934116859,0.9166666666666666
12.4266818469,0.9222222222222223
13.6230331823,0.9277777777777778
23.7176643609,0.9333333333333333
24.7521664229,0.9388888888888889
26.7831311244,0.9444444444444444
28.8040846105,0.95
29.775839666,0.9555555555555556
31.8034935799,0.9611111111111111
33.8456632057,0.9666666666666667
34.8240166892,0.9722222222222222
35.8293084966,0.9777777777777777
36.8398201451,0.9833333333333333
37.5154886239,0.9888888888888889
38.8384453739,0.9944444444444445
40.5431324531,1.0
