Congestion,CDF
0.0,0.005555555555555556
0.0,0.011111111111111112
0.0,0.016666666666666666
0.0,0.022222222222222223
0.0,0.027777777777777776
0.0,0.03333333333333333
0.0,0.03888888888888889
0.0,0.044444444444444446
0.0,0.05
0.0,0.05555555555555555
1.14635245026e-06,0.06111111111111111
1.31710383374e-06,0.06666666666666667
2.96469160336e-06,0.07222222222222222
4.33306923423e-06,0.07777777777777778
4.43379613277e-06,0.08333333333333333
5.85413720651e-06,0.08888888888888889
6.44032573705e-06,0.09444444444444444
8.87623746901e-06,0.1
8.92203042224e-06,0.10555555555555556
9.12807461536e-06,0.1111111111111111
9.31594086435e-06,0.11666666666666667
1.02549476706e-05,0.12222222222222222
1.04928087218e-05,0.12777777777777777
1.17172552584e-05,0.13333333333333333
1.20008233815e-05,0.1388888888888889
1.26370198821e-05,0.14444444444444443
1.4612358391e-05,0.15
1.59918714376e-05,0.15555555555555556
1.6698734969e-05,0.16111111111111112
1.73673710317e-05,0.16666666666666666
1.76421584978e-05,0.17222222222222222
1.77838483938e-05,0.17777777777777778
1.83730526589e-05,0.18333333333333332
1.90114812191e-05,0.18888888888888888
1.93324031492e-05,0.19444444444444445
1.95507277282e-05,0.2
1.96591952593e-05,0.20555555555555555
1.98849493884e-05,0.2111111111111111
2.00792613184e-05,0.21666666666666667
2.01233231452e-05,0.2222222222222222
2.07956950637e-05,0.22777777777777777
2.09691909228e-05,0.23333333333333334
2.12099041806e-05,0.2388888888888889
2.29691886126e-05,0.24444444444444444
2.41695926851e-05,0.25
2.62411474558e-05,0.25555555555555554
2.66568652707e-05,0.2611111111111111
2.70404768855e-05,0.26666666666666666
2.7956200906e-05,0.2722222222222222
9.88230534453e-05,0.2777777777777778
0.000197646106891,0.2833333333333333
0.000216653461711,0.28888888888888886
0.000216653461711,0.29444444444444445
0.000223050760556,0.3
0.000223050760556,0.3055555555555556
0.000337686005582,0.3111111111111111
0.000443379613277,0.31666666666666665
0.000446101521112,0.32222222222222224
0.000463193413833,0.3277777777777778
0.000593953613054,0.3333333333333333
0.000691021528432,0.3388888888888889
0.000887623746901,0.34444444444444444
0.000923099726233,0.35
0.000977536386412,0.35555555555555557
0.000977536386412,0.3611111111111111
0.00124854552761,0.36666666666666664
0.00190114812191,0.37222222222222223
0.00193324031492,0.37777777777777777
0.0019950383011,0.38333333333333336
0.00200351508853,0.3888888888888889
0.00214926191225,0.39444444444444443
0.00227393882735,0.4
0.00227393882735,0.40555555555555556
0.00252505237989,0.4111111111111111
0.00254858122344,0.4166666666666667
0.00255501370649,0.4222222222222222
0.00259297322313,0.42777777777777776
0.00261462384648,0.43333333333333335
0.00262547354268,0.4388888888888889
0.00266747302003,0.4444444444444444
0.00271895141189,0.45
0.00274029847454,0.45555555555555555
0.00282831413424,0.46111111111111114
0.00283015520122,0.4666666666666667
0.00284446611384,0.4722222222222222
0.00287846727697,0.4777777777777778
0.00293060340214,0.48333333333333334
0.00294162660112,0.4888888888888889
0.00294655572482,0.49444444444444446
0.00295601921223,0.5
0.00297227875785,0.5055555555555555
0.00307947938532,0.5111111111111111
0.00308608194984,0.5166666666666667
0.0031114065529,0.5222222222222223
0.00313247771333,0.5277777777777778
0.00313551971824,0.5333333333333333
0.00315014920967,0.5388888888888889
0.00315232004151,0.5444444444444444
0.00317220913543,0.55
0.0031945550164,0.5555555555555556
0.00320692722613,0.5611111111111111
0.00321434858915,0.5666666666666667
0.00321873228077,0.5722222222222222
0.00322617770962,0.5777777777777777
0.00323479050505,0.5833333333333334
0.00325988329067,0.5888888888888889
0.00327465734993,0.5944444444444444
0.00333824609419,0.6
0.00338036914536,0.6055555555555555
0.00345657212768,0.6111111111111112
0.00347121968828,0.6166666666666667
0.00348589934924,0.6222222222222222
0.00351600158839,0.6277777777777778
0.00391348043643,0.6333333333333333
0.00413775685109,0.6388888888888888
0.00435350833372,0.6444444444444445
0.00535220493554,0.65
0.00628379902198,0.6555555555555556
0.0065791237745,0.6611111111111111
0.00812405391453,0.6666666666666666
0.00920323852007,0.6722222222222223
0.0163737724624,0.6777777777777778
0.0199201623347,0.6833333333333333
0.0208508080401,0.6888888888888889
0.0227157824253,0.6944444444444444
0.0232677673087,0.7
0.024479998275,0.7055555555555556
0.0247481227586,0.7111111111111111
0.0262093585977,0.7166666666666667
0.02830627769,0.7222222222222222
0.028482962708,0.7277777777777777
0.0289503102637,0.7333333333333333
0.0293957701695,0.7388888888888889
0.0304450510417,0.7444444444444445
0.0707538800305,0.75
0.0707538800305,0.7555555555555555
0.087154128216,0.7611111111111111
0.112942704319,0.7666666666666667
0.131273677134,0.7722222222222223
0.131273677134,0.7777777777777778
0.141507760061,0.7833333333333333
0.160717429458,0.7888888888888889
0.160717429458,0.7944444444444444
0.174308256432,0.8
0.266747302003,0.8055555555555556
0.282831413424,0.8111111111111111
0.31945550164,0.8166666666666667
0.320692722613,0.8222222222222222
0.325612002375,0.8277777777777777
0.358600607727,0.8333333333333334
0.439221615666,0.8388888888888889
0.453777769672,0.8444444444444444
0.479284305765,0.85
0.479284305765,0.8555555555555555
0.490097694985,0.8611111111111112
0.597507143564,0.8666666666666667
0.600571911421,0.8722222222222222
0.642934552145,0.8777777777777778
0.754362930928,0.8833333333333333
0.776395540634,0.8888888888888888
0.805272634832,0.8944444444444445
0.908647798854,0.9
1.44318627099,0.9055555555555556
1.48914860734,0.9111111111111111
1.67966237673,0.9166666666666666
1.77359521873,0.9222222222222223
2.0253195895,0.9277777777777778
3.53865471779,0.9333333333333333
3.7917716511,0.9388888888888889
4.14337180994,0.9444444444444444
4.45277860103,0.95
4.45661958128,0.9555555555555556
4.79081551557,0.9611111111111111
5.21107320109,0.9666666666666667
5.21769111393,0.9722222222222222
5.41142470995,0.9777777777777777
5.45774405133,0.9833333333333333
5.51491898971,0.9888888888888889
5.7674242277,0.9944444444444445
5.83652638055,1.0
