Congestion,CDF
0.0,0.005555555555555556
0.0,0.011111111111111112
0.0,0.016666666666666666
0.0,0.022222222222222223
0.0,0.027777777777777776
0.0,0.03333333333333333
0.0,0.03888888888888889
0.0,0.044444444444444446
0.0,0.05
0.0,0.05555555555555555
1.06931231476e-06,0.06111111111111111
1.22858842314e-06,0.06666666666666667
2.7654507479e-06,0.07222222222222222
4.04186713414e-06,0.07777777777777778
4.13582472373e-06,0.08333333333333333
5.46071237146e-06,0.08888888888888889
6.00750634772e-06,0.09444444444444444
8.27971365365e-06,0.1
8.32242911067e-06,0.10555555555555556
8.51462619023e-06,0.1111111111111111
8.68986696677e-06,0.11666666666666667
9.56576821453e-06,0.12222222222222222
9.78764391361e-06,0.12777777777777777
1.09298020343e-05,0.13333333333333333
1.11943130807e-05,0.1388888888888889
1.17877542624e-05,0.14444444444444443
1.36303409755e-05,0.15
1.49171444265e-05,0.15555555555555556
1.55765034908e-05,0.16111111111111112
1.62002041474e-05,0.16666666666666666
1.64565246372e-05,0.17222222222222222
1.65886923232e-05,0.17777777777777778
1.71382993628e-05,0.18333333333333332
1.77338225994e-05,0.18888888888888888
1.80331771059e-05,0.19444444444444445
1.82368292732e-05,0.2
1.83380072893e-05,0.20555555555555555
1.85485897069e-05,0.2111111111111111
1.87298429851e-05,0.21666666666666667
1.87709436553e-05,0.2222222222222222
1.93981291011e-05,0.22777777777777777
1.95599652438e-05,0.23333333333333334
1.9784501468e-05,0.2388888888888889
2.14255539279e-05,0.24444444444444444
2.25452853483e-05,0.25
2.44776221496e-05,0.25555555555555554
2.48654018232e-05,0.2611111111111111
2.52232329804e-05,0.26666666666666666
2.60774161523e-05,0.2722222222222222
9.21816915966e-05,0.2777777777777778
0.000184363383193,0.2833333333333333
0.000202093356707,0.28888888888888886
0.000202093356707,0.29444444444444445
0.000208060727767,0.3
0.000208060727767,0.3055555555555556
0.000314991959242,0.3111111111111111
0.000413582472373,0.31666666666666665
0.000416121455533,0.32222222222222224
0.000554037209663,0.3277777777777778
0.000698370957865,0.3333333333333333
0.000827971365365,0.3388888888888889
0.000861063196389,0.34444444444444444
0.000911841463658,0.35
0.000911841463658,0.35555555555555557
0.00107871639164,0.3611111111111111
0.00116463754922,0.36666666666666664
0.00177338225994,0.37222222222222223
0.00180331771059,0.37777777777777777
0.00186096258903,0.38333333333333336
0.00200482166709,0.3888888888888889
0.00212111972242,0.39444444444444443
0.00212111972242,0.4
0.00241871354547,0.40555555555555556
0.00255613786516,0.4111111111111111
0.00274853368346,0.4166666666666667
0.00293844475358,0.4222222222222222
0.00365047662548,0.42777777777777776
0.00385968063778,0.43333333333333335
0.00406093263253,0.4388888888888889
0.0049925122482,0.4444444444444444
0.00586149894487,0.45
0.00613697652129,0.45555555555555555
0.00757808027939,0.46111111111111114
0.00858473873626,0.4666666666666667
0.00934993127958,0.4722222222222222
0.00970482921012,0.4777777777777778
0.00971009747293,0.48333333333333334
0.00975852845747,0.4888888888888889
0.00977360600649,0.49444444444444446
0.00977753997719,0.5
0.00980144393186,0.5055555555555555
0.00984325509931,0.5111111111111111
0.00993211452745,0.5166666666666667
0.00993363784981,0.5222222222222223
0.00994527549866,0.5277777777777778
0.00997290344708,0.5333333333333333
0.0100151853296,0.5388888888888889
0.0100242171719,0.5444444444444444
0.0100366625443,0.55
0.010059699137,0.5555555555555556
0.0101415903849,0.5611111111111111
0.0101497671761,0.5666666666666667
0.0101621252757,0.5722222222222222
0.0101803933519,0.5777777777777777
0.0101817362041,0.5833333333333334
0.0102089836828,0.5888888888888889
0.0102115626425,0.5944444444444444
0.0102296547277,0.6
0.0102397711053,0.6055555555555555
0.0102457496065,0.6111111111111112
0.0102493629476,0.6166666666666667
0.0102553428076,0.6222222222222222
0.0102623465098,0.6277777777777778
0.0102827975269,0.6333333333333333
0.0102947689023,0.6388888888888888
0.0103464510055,0.6444444444444445
0.0103807048603,0.65
0.0104425625466,0.6555555555555556
0.0104544520694,0.6611111111111111
0.0104664388889,0.6666666666666666
0.0104908843393,0.6722222222222223
0.0152733799532,0.6777777777777778
0.0185814361818,0.6833333333333333
0.0194495382331,0.6888888888888889
0.0211891777971,0.6944444444444444
0.0217040667679,0.7
0.0228348302608,0.7055555555555556
0.0230849355509,0.7111111111111111
0.0244479696484,0.7166666666666667
0.0264039661728,0.7222222222222222
0.0265687771483,0.7277777777777777
0.0270047168076,0.7333333333333333
0.0274202397673,0.7388888888888889
0.0283990041587,0.7444444444444445
0.248340946245,0.75
0.248340946245,0.7555555555555555
0.325284281916,0.7611111111111111
0.375293460852,0.7666666666666667
0.488680300325,0.7722222222222223
0.488680300325,0.7777777777777778
0.496681892491,0.7833333333333333
0.512287480327,0.7888888888888889
0.512287480327,0.7944444444444444
0.650568563831,0.8
0.980144393186,0.8055555555555556
0.993211452745,0.8111111111111111
1.02296547277,0.8166666666666667
1.02397711053,0.8222222222222222
1.21882386726,0.8277777777777777
1.24563129095,0.8333333333333334
1.50365701793,0.8388888888888889
1.51380601328,0.8444444444444444
1.54332578138,0.85
1.5981580312,0.8555555555555555
1.5981580312,0.8611111111111112
2.01478949374,0.8666666666666667
2.04920012375,0.8722222222222222
2.20314937719,0.8777777777777778
2.53934029404,0.8833333333333333
2.58507461136,0.8888888888888888
2.62643778389,0.8944444444444445
3.21936190476,0.9
4.67157115868,0.9055555555555556
5.15424238985,0.9111111111111111
5.75433772807,0.9166666666666666
6.14876993972,0.9222222222222223
6.79859398273,0.9277777777777778
11.8452773932,0.9333333333333333
12.4325796075,0.9388888888888889
13.4816680414,0.9444444444444444
14.4997073766,0.95
14.8782405073,0.9555555555555556
15.9163109933,0.9611111111111111
17.0242627628,0.9666666666666667
17.4086575481,0.9722222222222222
17.9592558908,0.9777777777777777
18.0290929865,0.9833333333333333
18.4146274618,0.9888888888888889
19.3923814595,0.9944444444444445
19.5002530987,1.0
