Congestion,CDF
0.0,0.005555555555555556
0.0,0.011111111111111112
0.0,0.016666666666666666
0.0,0.022222222222222223
0.0,0.027777777777777776
0.0,0.03333333333333333
0.0,0.03888888888888889
0.0,0.044444444444444446
0.0,0.05
0.0,0.05555555555555555
1.06295648215e-06,0.06111111111111111
1.22128587714e-06,0.06666666666666667
2.7490133219e-06,0.07222222222222222
4.01784287988e-06,0.07777777777777778
4.11124199959e-06,0.08333333333333333
5.42825471314e-06,0.08888888888888889
5.97179862771e-06,0.09444444444444444
8.23050027295e-06,0.1
8.27296183568e-06,0.10555555555555556
8.46401652452e-06,0.1111111111111111
8.63821569607e-06,0.11666666666666667
9.50891071769e-06,0.12222222222222222
9.72946762078e-06,0.12777777777777777
1.08648369243e-05,0.13333333333333333
1.11277757565e-05,0.1388888888888889
1.17176896126e-05,0.14444444444444443
1.35493242655e-05,0.15
1.48284791491e-05,0.15555555555555556
1.54839190817e-05,0.16111111111111112
1.61039125548e-05,0.16666666666666666
1.63587095139e-05,0.17222222222222222
1.64900916149e-05,0.17777777777777778
1.70364318724e-05,0.18333333333333332
1.76284154079e-05,0.18888888888888888
1.79259905959e-05,0.19444444444444445
1.81284322851e-05,0.2
1.82290089143e-05,0.20555555555555555
1.84383396614e-05,0.2111111111111111
1.86185155973e-05,0.21666666666666667
1.86593719712e-05,0.2222222222222222
1.92828295204e-05,0.22777777777777777
1.94437037333e-05,0.23333333333333334
1.96669053478e-05,0.2388888888888889
2.1298203637e-05,0.24444444444444444
2.24112795412e-05,0.25
2.43321308213e-05,0.25555555555555554
2.47176055905e-05,0.2611111111111111
2.50733098528e-05,0.26666666666666666
2.59224158875e-05,0.2722222222222222
9.16337773967e-05,0.2777777777777778
0.000183267554793,0.2833333333333333
0.000200892143994,0.28888888888888886
0.000200892143994,0.29444444444444445
0.000206824045892,0.3
0.000206824045892,0.3055555555555556
0.000313119694107,0.3111111111111111
0.000411124199959,0.31666666666666665
0.000413648091784,0.32222222222222224
0.00055074409528,0.3277777777777778
0.000823050027295,0.3333333333333333
0.00085594516542,0.3388888888888889
0.000906421614257,0.34444444444444444
0.000906421614257,0.35
0.00115771511766,0.35555555555555557
0.00176284154079,0.3611111111111111
0.00179259905959,0.36666666666666664
0.00184990130549,0.37222222222222223
0.00199290530669,0.37777777777777777
0.00210851210375,0.38333333333333336
0.00210851210375,0.3888888888888889
0.00240433707359,0.39444444444444443
0.00254094456366,0.4
0.00273219680997,0.40555555555555556
0.00292097907706,0.4111111111111111
0.00330756784403,0.4166666666666667
0.00362877873791,0.4222222222222222
0.00371336236316,0.42777777777777776
0.00383673927283,0.43333333333333335
0.0040367950558,0.4388888888888889
0.00496283750144,0.4444444444444444
0.00582665907104,0.45
0.00610049924992,0.45555555555555555
0.00753303730262,0.46111111111111114
0.00853371233205,0.4666666666666667
0.0117669658365,0.4722222222222222
0.0120902429616,0.4777777777777778
0.0120951250139,0.48333333333333334
0.0121398294396,0.4888888888888889
0.0121525991704,0.49444444444444446
0.0121621602908,0.5
0.0121794221719,0.5055555555555555
0.0122180206561,0.5111111111111111
0.012300044626,0.5166666666666667
0.0123014643616,0.5222222222222223
0.012312211056,0.5277777777777778
0.0123377151302,0.5333333333333333
0.0123766896604,0.5388888888888889
0.0123850799864,0.5444444444444444
0.012396189247,0.55
0.0124167472516,0.5555555555555556
0.0124934261385,0.5611111111111111
0.0124990693431,0.5666666666666667
0.0125123622296,0.5722222222222222
0.0125286548488,0.5777777777777777
0.0125304611407,0.5833333333333334
0.0125542551642,0.5888888888888889
0.0125580125801,0.5944444444444444
0.0125746608983,0.6
0.0125840511573,0.6055555555555555
0.0125895359177,0.6111111111111112
0.0125929038725,0.6166666666666667
0.012598373332,0.6222222222222222
0.0126048379321,0.6277777777777778
0.0126237678633,0.6333333333333333
0.0126348023813,0.6388888888888888
0.0126825054151,0.6444444444444445
0.012714049733,0.65
0.0127712163007,0.6555555555555556
0.0127821661678,0.6611111111111111
0.0127932846074,0.6666666666666666
0.0128156692142,0.6722222222222223
0.0151825972651,0.6777777777777778
0.0184709909018,0.6833333333333333
0.0193339330842,0.6888888888888889
0.0210632324906,0.6944444444444444
0.0215750610384,0.7
0.022699103442,0.7055555555555556
0.0229477221436,0.7111111111111111
0.0243026545702,0.7166666666666667
0.0262470249435,0.7222222222222222
0.0264108563072,0.7277777777777777
0.0268442048063,0.7333333333333333
0.0272572579596,0.7388888888888889
0.0282302047217,0.7444444444444445
0.307536609041,0.75
0.307536609041,0.7555555555555555
0.404660981322,0.7611111111111111
0.467689503305,0.7666666666666667
0.60762995852,0.7722222222222223
0.60762995852,0.7777777777777778
0.615073218081,0.7833333333333333
0.629476795884,0.7888888888888889
0.629476795884,0.7944444444444444
0.809321962643,0.8
1.21794221719,0.8055555555555556
1.2300044626,0.8111111111111111
1.25746608983,0.8166666666666667
1.25840511573,0.8222222222222222
1.5165609052,0.8277777777777777
1.54130812206,0.8333333333333334
1.85753689283,0.8388888888888889
1.86714576192,0.8444444444444444
1.89440167882,0.85
1.97111582005,0.8555555555555555
1.97111582005,0.8611111111111112
2.48619275871,0.8666666666666667
2.51794988303,0.8722222222222222
2.73836297081,0.8777777777777778
3.12698309512,0.8833333333333333
3.19531171723,0.8888888888888888
3.23349260638,0.8944444444444445
3.98959919377,0.9
5.74769898013,0.9055555555555556
6.37594003868,0.9111111111111111
7.11256069039,0.9166666666666666
7.60716114428,0.9222222222222223
8.38968232046,0.9277777777777778
14.6141505116,0.9333333333333333
15.3128319154,0.9388888888888889
16.5943988368,0.9444444444444444
17.8472643217,0.95
18.3533893844,0.9555555555555556
19.6247943577,0.9611111111111111
20.9602267309,0.9666666666666667
21.4720432409,0.9722222222222222
22.1369233146,0.9777777777777777
22.467680099,0.9833333333333333
22.7137179661,0.9888888888888889
23.9299339952,0.9944444444444445
24.3012702315,1.0
