Congestion,CDF
0.0,0.005555555555555556
0.0,0.011111111111111112
0.0,0.016666666666666666
0.0,0.022222222222222223
0.0,0.027777777777777776
0.0,0.03333333333333333
0.0,0.03888888888888889
0.0,0.044444444444444446
0.0,0.05
0.0,0.05555555555555555
1.06221992294e-06,0.06111111111111111
1.22043960604e-06,0.06666666666666667
2.74710843576e-06,0.07222222222222222
4.01505877798e-06,0.07777777777777778
4.10839317822e-06,0.08333333333333333
5.42449328822e-06,0.08888888888888889
5.96766056247e-06,0.09444444444444444
8.22479707544e-06,0.1
8.26722921508e-06,0.10555555555555556
8.45815151554e-06,0.1111111111111111
8.63222997848e-06,0.11666666666666667
9.50232166549e-06,0.12222222222222222
9.72272573709e-06,0.12777777777777777
1.08573083041e-05,0.13333333333333333
1.11200649369e-05,0.1388888888888889
1.17095700213e-05,0.14444444444444443
1.35399354714e-05,0.15
1.48182039845e-05,0.15555555555555556
1.54731897401e-05,0.16111111111111112
1.60927535984e-05,0.16666666666666666
1.63473739998e-05,0.17222222222222222
1.64786650617e-05,0.17777777777777778
1.70246267412e-05,0.18333333333333332
1.76162000709e-05,0.18888888888888888
1.79135690587e-05,0.19444444444444445
1.81158704691e-05,0.2
1.82163774053e-05,0.20555555555555555
1.84255630999e-05,0.2111111111111111
1.86056141857e-05,0.21666666666666667
1.86464422488e-05,0.2222222222222222
1.92694677828e-05,0.22777777777777777
1.94302305204e-05,0.23333333333333334
1.96532774707e-05,0.2388888888888889
2.12834453771e-05,0.24444444444444444
2.23957499926e-05,0.25
2.43152702487e-05,0.25555555555555554
2.47004779091e-05,0.2611111111111111
2.50559356916e-05,0.26666666666666666
2.59044533515e-05,0.2722222222222222
9.15702811919e-05,0.2777777777777778
0.000183140562384,0.2833333333333333
0.000200752938899,0.28888888888888886
0.000200752938899,0.29444444444444445
0.000206680730377,0.3
0.000206680730377,0.3055555555555556
0.000312902722671,0.3111111111111111
0.000410839317822,0.31666666666666665
0.000413361460754,0.32222222222222224
0.000550362465701,0.3277777777777778
0.000822479707544,0.3333333333333333
0.000855352051493,0.3388888888888889
0.000905793523457,0.34444444444444444
0.000905793523457,0.35
0.00115691289693,0.35555555555555557
0.00116606062145,0.3611111111111111
0.00119749413839,0.36666666666666664
0.00134394140391,0.37222222222222223
0.00141542450448,0.37777777777777777
0.00146581287196,0.38333333333333336
0.0014702585548,0.3888888888888889
0.00149561470417,0.39444444444444443
0.00150768732071,0.4
0.00150967908154,0.40555555555555556
0.00151103896019,0.4111111111111111
0.00151727648153,0.4166666666666667
0.0015234321167,0.4222222222222222
0.00152921890983,0.42777777777777776
0.00153936555258,0.43333333333333335
0.00154407632354,0.4388888888888889
0.00154517470033,0.4444444444444444
0.00154585546749,0.45
0.00154634100461,0.45555555555555555
0.00154855423246,0.46111111111111114
0.00155429212335,0.4666666666666667
0.00155880223728,0.4722222222222222
0.00155964900177,0.4777777777777778
0.00156879821261,0.48333333333333334
0.00159162856136,0.4888888888888889
0.00159791610491,0.49444444444444446
0.00160147212713,0.5
0.00160459773787,0.5055555555555555
0.00161517978465,0.5111111111111111
0.00161720641836,0.5166666666666667
0.00162097449602,0.5222222222222223
0.00162691649282,0.5277777777777778
0.00162958827014,0.5333333333333333
0.00163251114911,0.5388888888888889
0.00163472751099,0.5444444444444444
0.00163679805194,0.55
0.00163750335876,0.5555555555555556
0.00163995623642,0.5611111111111111
0.00164460106539,0.5666666666666667
0.0016534341849,0.5722222222222222
0.00176162000709,0.5777777777777777
0.00179135690587,0.5833333333333334
0.00184861944507,0.5888888888888889
0.00199152435386,0.5944444444444444
0.00210705104299,0.6
0.00210705104299,0.6055555555555555
0.0024026710255,0.6111111111111112
0.00253918385554,0.6166666666666667
0.00273030357657,0.6222222222222222
0.00291895502991,0.6277777777777778
0.00362626423197,0.6333333333333333
0.00383408066386,0.6388888888888888
0.00403399782127,0.6444444444444445
0.00495939858016,0.65
0.00582262157801,0.6555555555555556
0.00609627200358,0.6611111111111111
0.00752781740126,0.6666666666666666
0.00852779902844,0.6722222222222223
0.0151720767198,0.6777777777777778
0.0184581917152,0.6833333333333333
0.0193205359352,0.6888888888888889
0.0210486370503,0.6944444444444444
0.0215601109344,0.7
0.0226833744503,0.7055555555555556
0.0229318208755,0.7111111111111111
0.0242858144226,0.7166666666666667
0.0262288374746,0.7222222222222222
0.0263925553139,0.7277777777777777
0.0268256035309,0.7333333333333333
0.0272383704655,0.7388888888888889
0.0282106430392,0.7444444444444445
0.0397907140339,0.75
0.0397907140339,0.7555555555555555
0.0533824042377,0.7611111111111111
0.0601488600764,0.7666666666666667
0.0747807352084,0.7722222222222223
0.0747807352084,0.7777777777777778
0.0772587350164,0.7833333333333333
0.0772587350164,0.7888888888888889
0.0795814280678,0.7944444444444444
0.106764808475,0.8
0.15234321167,0.8055555555555556
0.154407632354,0.8111111111111111
0.160459773787,0.8166666666666667
0.163679805194,0.8222222222222222
0.190559446105,0.8277777777777777
0.20151135587,0.8333333333333334
0.221362022405,0.8388888888888889
0.230180625999,0.8444444444444444
0.244924846558,0.85
0.256893552318,0.8555555555555555
0.256893552318,0.8611111111111112
0.309041732816,0.8666666666666667
0.324919880327,0.8722222222222222
0.342287094258,0.8777777777777778
0.384766172748,0.8833333333333333
0.417852587122,0.8888888888888888
0.42088917596,0.8944444444444445
0.496223649516,0.9
0.748041732253,0.9055555555555556
0.834537749931,0.9111111111111111
0.880681019448,0.9166666666666666
0.996055728395,0.9222222222222223
1.03656124318,0.9277777777777778
1.88633404892,0.9333333333333333
1.90784779652,0.9388888888888889
2.04176326125,0.9444444444444444
2.19273116941,0.95
2.39601879176,0.9555555555555556
2.55871044104,0.9611111111111111
2.56111904729,0.9666666666666667
2.69551318768,0.9722222222222222
2.79037099751,0.9777777777777777
2.81211924983,0.9833333333333333
2.94147489353,0.9888888888888889
3.08301734398,0.9944444444444445
3.20276675782,1.0
