Congestion,CDF
0.0,0.005555555555555556
0.0,0.011111111111111112
0.0,0.016666666666666666
0.0,0.022222222222222223
0.0,0.027777777777777776
0.0,0.03333333333333333
0.0,0.03888888888888889
0.0,0.044444444444444446
0.0,0.05
0.0,0.05555555555555555
5.15028709829e-07,0.06111111111111111
5.91743218279e-07,0.06666666666666667
1.33196495648e-06,0.07222222222222222
1.94674426421e-06,0.07777777777777778
1.99199844811e-06,0.08333333333333333
2.63012368661e-06,0.08888888888888889
2.8934841588e-06,0.09444444444444444
3.98788097915e-06,0.1
4.00845465666e-06,0.10555555555555556
4.1010253795e-06,0.1111111111111111
4.18542918726e-06,0.11666666666666667
4.60730246352e-06,0.12222222222222222
4.71416773895e-06,0.12777777777777777
5.26428225201e-06,0.13333333333333333
5.39168262051e-06,0.1388888888888889
5.67751047638e-06,0.14444444444444443
6.56498277468e-06,0.15
7.18476495808e-06,0.15555555555555556
7.50234181894e-06,0.16111111111111112
7.80274399338e-06,0.16666666666666666
7.92619942293e-06,0.17222222222222222
7.98985730086e-06,0.17777777777777778
8.25457267037e-06,0.18333333333333332
8.54140333716e-06,0.18888888888888888
8.68558587681e-06,0.19444444444444445
8.78367388303e-06,0.2
8.8324057478e-06,0.20555555555555555
8.93383167297e-06,0.2111111111111111
9.0211313709e-06,0.21666666666666667
9.04092729473e-06,0.2222222222222222
9.34300789971e-06,0.22777777777777777
9.42095543537e-06,0.23333333333333334
9.5291021389e-06,0.2388888888888889
1.03195065133e-05,0.24444444444444444
1.08588193229e-05,0.25
1.1789519284e-05,0.25555555555555554
1.19762913451e-05,0.2611111111111111
1.21486388592e-05,0.26666666666666666
1.25600517372e-05,0.2722222222222222
4.43988318826e-05,0.2777777777777778
8.87976637652e-05,0.2833333333333333
9.73372132103e-05,0.28888888888888886
9.73372132103e-05,0.29444444444444445
0.000100211366417,0.3
0.000100211366417,0.3055555555555556
0.000151714237399,0.3111111111111111
0.000199199844811,0.31666666666666665
0.000200422732833,0.32222222222222224
0.000266849137854,0.3277777777777778
0.000398788097915,0.3333333333333333
0.00041472660606,0.3388888888888889
0.000439183694151,0.34444444444444444
0.000439183694151,0.35
0.000560941612768,0.35555555555555557
0.000854140333716,0.3611111111111111
0.000868558587681,0.36666666666666664
0.000896322943297,0.37222222222222223
0.000965611919352,0.37777777777777777
0.00102162627228,0.38333333333333336
0.00102162627228,0.3888888888888889
0.00116496078795,0.39444444444444443
0.00123115049614,0.4
0.00132381694046,0.40555555555555556
0.00141528661875,0.4111111111111111
0.00175823306319,0.4166666666666667
0.00185899508665,0.4222222222222222
0.00195592706225,0.42777777777777776
0.00240461753457,0.43333333333333335
0.0028231604533,0.4388888888888889
0.00295584279391,0.4444444444444444
0.00307136307894,0.45
0.00319611748397,0.45555555555555555
0.00364994291697,0.46111111111111114
0.00413479472231,0.4666666666666667
0.00429028105183,0.4722222222222222
0.00449037827308,0.4777777777777778
0.00475439844684,0.48333333333333334
0.00476881812345,0.4888888888888889
0.00477617016452,0.49444444444444446
0.0048251405956,0.5
0.00484667055442,0.5055555555555555
0.00487749624536,0.5111111111111111
0.0048818199876,0.5166666666666667
0.00489727944594,0.5222222222222223
0.00491474571747,0.5277777777777778
0.00494088384256,0.5333333333333333
0.004945320111,0.5388888888888889
0.004948504636,0.5444444444444444
0.00495630575219,0.55
0.00496249424331,0.5555555555555556
0.0049641220783,0.5611111111111111
0.00496659988983,0.5666666666666667
0.00496821383115,0.5722222222222222
0.00496977268326,0.5777777777777777
0.00497138381724,0.5833333333333334
0.00497803789902,0.5888888888888889
0.00499872356716,0.5944444444444444
0.00500165059956,0.6
0.00500502092601,0.6055555555555555
0.00501073737649,0.6111111111111112
0.00501254314628,0.6166666666666667
0.00501665275039,0.6222222222222222
0.00504334097383,0.6277777777777778
0.00505047741691,0.6333333333333333
0.00505918585108,0.6388888888888888
0.00506559380066,0.6444444444444445
0.00506774866988,0.65
0.00506952590929,0.6555555555555556
0.00507536804635,0.6611111111111111
0.00508787982558,0.6666666666666666
0.00511711021465,0.6722222222222223
0.00735634394505,0.6777777777777778
0.00894965200665,0.6833333333333333
0.00936776884052,0.6888888888888889
0.0102056571804,0.6944444444444444
0.0104536507728,0.7
0.0109982771227,0.7055555555555556
0.0111187390337,0.7111111111111111
0.0117752373111,0.7166666666666667
0.0127173328547,0.7222222222222222
0.0127967132031,0.7277777777777777
0.0130066812705,0.7333333333333333
0.013206815741,0.7388888888888889
0.0136782325149,0.7444444444444445
0.124284595431,0.75
0.124284595431,0.7555555555555555
0.16521019174,0.7611111111111111
0.188843877027,0.7666666666666667
0.238808508226,0.7722222222222223
0.238808508226,0.7777777777777778
0.248329994492,0.7833333333333333
0.248329994492,0.7888888888888889
0.248569190862,0.7944444444444444
0.330420383479,0.8
0.489727944594,0.8055555555555556
0.496249424331,0.8111111111111111
0.49641220783,0.8166666666666667
0.506559380066,0.8222222222222222
0.608951650873,0.8277777777777777
0.624786688032,0.8333333333333334
0.71424835291,0.8388888888888889
0.739804566239,0.8444444444444444
0.760280212327,0.85
0.796182935422,0.8555555555555555
0.796182935422,0.8611111111111112
0.993226692657,0.8666666666666667
1.00520019039,0.8722222222222222
1.09670127541,0.8777777777777778
1.23662594935,0.8833333333333333
1.29433097715,0.8888888888888888
1.30371974006,0.8944444444444445
1.59155173901,0.9
2.31619770523,0.9055555555555556
2.58504592368,0.9111111111111111
2.827413468,0.9166666666666666
3.08491828039,0.9222222222222223
3.32848720565,0.9277777777777778
5.90789085261,0.9333333333333333
6.05959416228,0.9388888888888889
6.55975922224,0.9444444444444444
7.047941221,0.95
7.41813878469,0.9555555555555556
7.92509137562,0.9611111111111111
8.23907138626,0.9666666666666667
8.6579882681,0.9722222222222222
8.66809949144,0.9777777777777777
8.97523579933,0.9833333333333333
9.14050232766,0.9888888888888889
9.58954015497,0.9944444444444445
9.90915190337,1.0
