Congestion,CDF
0.0,0.009433962264150943
0.0,0.018867924528301886
0.0,0.02830188679245283
0.0,0.03773584905660377
0.0,0.04716981132075472
0.0,0.05660377358490566
0.0,0.0660377358490566
0.0,0.07547169811320754
0.0,0.08490566037735849
0.0,0.09433962264150944
0.0,0.10377358490566038
0.0,0.11320754716981132
0.0,0.12264150943396226
0.0,0.1320754716981132
0.0,0.14150943396226415
0.0,0.1509433962264151
0.0,0.16037735849056603
0.0,0.16981132075471697
0.0,0.1792452830188679
0.0,0.18867924528301888
0.0,0.19811320754716982
0.0,0.20754716981132076
0.0,0.2169811320754717
0.0,0.22641509433962265
0.0,0.2358490566037736
0.0,0.24528301886792453
0.0,0.25471698113207547
0.0,0.2641509433962264
0.0,0.27358490566037735
0.0,0.2830188679245283
1.68423803815e-07,0.29245283018867924
4.33900354664e-06,0.3018867924528302
4.87928491768e-06,0.3113207547169811
6.61467152794e-06,0.32075471698113206
7.46677070612e-06,0.330188679245283
9.93546503765e-06,0.33962264150943394
1.51517368885e-05,0.3490566037735849
1.93950236253e-05,0.3584905660377358
2.05260347361e-05,0.36792452830188677
2.39401472906e-05,0.37735849056603776
2.94760545303e-05,0.3867924528301887
3.01514612481e-05,0.39622641509433965
3.18127588326e-05,0.4056603773584906
0.000203856836691,0.41509433962264153
0.000279434954184,0.42452830188679247
0.000279434954184,0.4339622641509434
0.000727313385948,0.44339622641509435
0.000727313385948,0.4528301886792453
0.000727313385948,0.46226415094339623
0.000745159877824,0.4716981132075472
0.000745159877824,0.4811320754716981
0.000745159877824,0.49056603773584906
0.001150420466,0.5
0.00137383954688,0.5094339622641509
0.00137383954688,0.5188679245283019
0.0014546267719,0.5283018867924528
0.0014546267719,0.5377358490566038
0.00198440145838,0.5471698113207547
0.0023956125087,0.5566037735849056
0.00241553427791,0.5660377358490566
0.00247087411851,0.5754716981132075
0.00249430906732,0.5849056603773585
0.00251573883283,0.5943396226415094
0.0025294903936,0.6037735849056604
0.0025294903936,0.6132075471698113
0.00313409890146,0.6226415094339622
0.00313409890146,0.6320754716981132
0.00353456533574,0.6415094339622641
0.00395801176699,0.6509433962264151
0.0044363236966,0.660377358490566
0.00445643446106,0.6698113207547169
0.00481412231034,0.6792452830188679
0.00546585460938,0.6886792452830188
0.00625005510098,0.6981132075471698
0.00650614098464,0.7075471698113207
0.00725150521254,0.7169811320754716
0.0077978703518,0.7264150943396226
0.00792225837212,0.7358490566037735
0.0101453316993,0.7452830188679245
0.0102919696388,0.7547169811320755
0.0219703545869,0.7641509433962265
0.0594069359455,0.7735849056603774
0.124771603967,0.7830188679245284
0.124771603967,0.7924528301886793
0.16711629229,0.8018867924528302
0.16711629229,0.8113207547169812
0.16711629229,0.8207547169811321
0.332724277245,0.8301886792452831
0.332724277245,0.839622641509434
0.332724277245,0.8490566037735849
0.33423258458,0.8584905660377359
0.33423258458,0.8679245283018868
0.530718593258,0.8773584905660378
0.530718593258,0.8867924528301887
0.595621317992,0.8962264150943396
0.647747423455,0.9056603773584906
0.647747423455,0.9150943396226415
0.718683752611,0.9245283018867925
0.953240022045,0.9339622641509434
0.953240022045,0.9433962264150944
1.08666526992,0.9528301886792453
1.09675983064,0.9622641509433962
2.67283953645,0.9716981132075472
2.71015594255,0.9811320754716981
3.77440631015,0.9905660377358491
8.82943373882,1.0
