Congestion,CDF
0.0,0.007352941176470588
0.0,0.014705882352941176
0.0,0.022058823529411766
0.0,0.029411764705882353
0.00493560455584,0.03676470588235294
0.00493560455584,0.04411764705882353
0.00528803113225,0.051470588235294115
0.00528803113225,0.058823529411764705
0.00534994584072,0.0661764705882353
0.00534994584072,0.07352941176470588
0.00601521203704,0.08088235294117647
0.00601521203704,0.08823529411764706
0.00661327165663,0.09558823529411764
0.00661327165663,0.10294117647058823
0.00678648497719,0.11029411764705882
0.00678648497719,0.11764705882352941
0.00696776175869,0.125
0.00696776175869,0.1323529411764706
0.0070704783637,0.13970588235294118
0.0070704783637,0.14705882352941177
0.00735231465201,0.15441176470588236
0.00735231465201,0.16176470588235295
0.00754566876952,0.16911764705882354
0.00754566876952,0.17647058823529413
0.00768907697648,0.18382352941176472
0.00768907697648,0.19117647058823528
0.00784308142083,0.19852941176470587
0.00784308142083,0.20588235294117646
0.00789547279434,0.21323529411764705
0.00789547279434,0.22058823529411764
0.00792622480824,0.22794117647058823
0.00792622480824,0.23529411764705882
0.00835276550916,0.2426470588235294
0.00835276550916,0.25
0.0083729575967,0.25735294117647056
0.0083729575967,0.2647058823529412
0.0090379643874,0.27205882352941174
0.0090379643874,0.27941176470588236
0.00924706896059,0.2867647058823529
0.00924706896059,0.29411764705882354
0.00961061691571,0.3014705882352941
0.00961061691571,0.3088235294117647
0.0100878543986,0.3161764705882353
0.0100878543986,0.3235294117647059
0.0103365775711,0.33088235294117646
0.0103365775711,0.3382352941176471
0.0117274314413,0.34558823529411764
0.0117274314413,0.35294117647058826
0.0129188701761,0.3602941176470588
0.0129188701761,0.36764705882352944
0.0145577812835,0.375
0.0145577812835,0.38235294117647056
0.0163669734931,0.3897058823529412
0.0163669734931,0.39705882352941174
0.0185744515449,0.40441176470588236
0.0185744515449,0.4117647058823529
0.0197219808226,0.41911764705882354
0.0197219808226,0.4264705882352941
0.0202092805572,0.4338235294117647
0.0202092805572,0.4411764705882353
0.0459942217508,0.4485294117647059
0.0459942217508,0.45588235294117646
0.0535851646877,0.4632352941176471
0.0535851646877,0.47058823529411764
0.177303451505,0.47794117647058826
0.177303451505,0.4852941176470588
0.296272344022,0.49264705882352944
0.296272344022,0.5
0.307694840154,0.5073529411764706
0.307694840154,0.5147058823529411
0.333255633973,0.5220588235294118
0.333255633973,0.5294117647058824
0.353506379595,0.5367647058823529
0.353506379595,0.5441176470588235
0.385426406901,0.5514705882352942
0.385426406901,0.5588235294117647
0.442108153239,0.5661764705882353
0.442108153239,0.5735294117647058
0.471568790922,0.5808823529411765
0.471568790922,0.5882352941176471
0.598706474262,0.5955882352941176
0.598706474262,0.6029411764705882
0.679506801392,0.6102941176470589
0.679506801392,0.6176470588235294
0.74277039762,0.625
0.74277039762,0.6323529411764706
0.743553057683,0.6397058823529411
0.743553057683,0.6470588235294118
0.835276550916,0.6544117647058824
0.835276550916,0.6617647058823529
0.849714846716,0.6691176470588235
0.849714846716,0.6764705882352942
0.884223369257,0.6838235294117647
0.884223369257,0.6911764705882353
0.890880924358,0.6985294117647058
0.890880924358,0.7058823529411765
0.907476526883,0.7132352941176471
0.907476526883,0.7205882352941176
0.972474861269,0.7279411764705882
0.972474861269,0.7352941176470589
1.06915448757,0.7426470588235294
1.06915448757,0.75
1.08996138755,0.7573529411764706
1.08996138755,0.7647058823529411
1.11001766087,0.7720588235294118
1.11001766087,0.7794117647058824
1.63669734931,0.7867647058823529
1.63669734931,0.7941176470588235
1.72112406821,0.8014705882352942
1.72112406821,0.8088235294117647
1.93921832868,0.8161764705882353
1.93921832868,0.8235294117647058
1.97219808226,0.8308823529411765
1.97219808226,0.8382352941176471
2.02092805572,0.8455882352941176
2.02092805572,0.8529411764705882
2.08021967102,0.8602941176470589
2.08021967102,0.8676470588235294
2.14426811671,0.875
2.14426811671,0.8823529411764706
2.65764791063,0.8897058823529411
2.65764791063,0.8970588235294118
2.73896909807,0.9044117647058824
2.73896909807,0.9117647058823529
3.24874977056,0.9191176470588235
3.24874977056,0.9264705882352942
4.10875209474,0.9338235294117647
4.10875209474,0.9411764705882353
4.12699438307,0.9485294117647058
4.12699438307,0.9558823529411765
5.85057129247,0.9632352941176471
5.85057129247,0.9705882352941176
7.35509375025,0.9779411764705882
7.35509375025,0.9852941176470589
8.73700924575,0.9926470588235294
8.73700924575,1.0
