Congestion,CDF
0.0,0.007352941176470588
0.0,0.014705882352941176
0.0317948253002,0.022058823529411766
0.0317948253002,0.029411764705882353
0.0322361382696,0.03676470588235294
0.0322361382696,0.04411764705882353
0.032630389743,0.051470588235294115
0.032630389743,0.058823529411764705
0.0335621259334,0.0661764705882353
0.0335621259334,0.07352941176470588
0.0337901861804,0.08088235294117647
0.0337901861804,0.08823529411764706
0.0339822206968,0.09558823529411764
0.0339822206968,0.10294117647058823
0.0354064593093,0.11029411764705882
0.0354064593093,0.11764705882352941
0.0354203790799,0.125
0.0354203790799,0.1323529411764706
0.0361236041163,0.13970588235294118
0.0361236041163,0.14705882352941177
0.0376357477597,0.15441176470588236
0.0376357477597,0.16176470588235295
0.0376805898847,0.16911764705882354
0.0376805898847,0.17647058823529413
0.037829521616,0.18382352941176472
0.037829521616,0.19117647058823528
0.0380108497673,0.19852941176470587
0.0380108497673,0.20588235294117646
0.0384295142217,0.21323529411764705
0.0384295142217,0.22058823529411764
0.0385313297368,0.22794117647058823
0.0385313297368,0.23529411764705882
0.0390713240038,0.2426470588235294
0.0390713240038,0.25
0.0396710171325,0.25735294117647056
0.0396710171325,0.2647058823529412
0.0402010533492,0.27205882352941174
0.0402010533492,0.27941176470588236
0.0403668029595,0.2867647058823529
0.0403668029595,0.29411764705882354
0.0403757095001,0.3014705882352941
0.0403757095001,0.3088235294117647
0.0411766377121,0.3161764705882353
0.0411766377121,0.3235294117647059
0.0415002531766,0.33088235294117646
0.0415002531766,0.3382352941176471
0.0416977956496,0.34558823529411764
0.0416977956496,0.35294117647058826
0.0420214369375,0.3602941176470588
0.0420214369375,0.36764705882352944
0.0428794285502,0.375
0.0428794285502,0.38235294117647056
0.0448093838903,0.3897058823529412
0.0448093838903,0.39705882352941174
0.0448689706178,0.40441176470588236
0.0448689706178,0.4117647058823529
0.0485720900077,0.41911764705882354
0.0485720900077,0.4264705882352941
0.0808937932558,0.4338235294117647
0.0808937932558,0.4411764705882353
0.984711445853,0.4485294117647059
0.984711445853,0.45588235294117646
1.15108750005,0.4632352941176471
1.15108750005,0.47058823529411764
1.49974240313,0.47794117647058826
1.49974240313,0.4852941176470588
1.50280934832,0.49264705882352944
1.50280934832,0.5
1.55879655019,0.5073529411764706
1.55879655019,0.5147058823529411
1.94887098444,0.5220588235294118
1.94887098444,0.5294117647058824
1.99939340835,0.5367647058823529
1.99939340835,0.5441176470588235
2.32561054169,0.5514705882352942
2.32561054169,0.5588235294117647
2.40738999725,0.5661764705882353
2.40738999725,0.5735294117647058
2.86650604933,0.5808823529411765
2.86650604933,0.5882352941176471
2.97056261651,0.5955882352941176
2.97056261651,0.6029411764705882
3.37868784744,0.6102941176470589
3.37868784744,0.6176470588235294
3.41674394886,0.625
3.41674394886,0.6323529411764706
3.66593989006,0.6397058823529411
3.66593989006,0.6470588235294118
4.02010533492,0.6544117647058824
4.02010533492,0.6617647058823529
4.11296866906,0.6691176470588235
4.11296866906,0.6764705882352942
4.4274949647,0.6838235294117647
4.4274949647,0.6911764705882353
4.53774928493,0.6985294117647058
4.53774928493,0.7058823529411765
4.69815370337,0.7132352941176471
4.69815370337,0.7205882352941176
4.73504461288,0.7279411764705882
4.73504461288,0.7352941176470589
4.80890842022,0.7426470588235294
4.80890842022,0.75
4.85720900077,0.7573529411764706
4.85720900077,0.7647058823529411
5.28269456473,0.7720588235294118
5.28269456473,0.7794117647058824
5.74873189148,0.7867647058823529
5.74873189148,0.7941176470588235
5.75663985557,0.8014705882352942
5.75663985557,0.8088235294117647
6.38706901012,0.8161764705882353
6.38706901012,0.8235294117647058
6.69533285228,0.8308823529411765
6.69533285228,0.8382352941176471
6.98216118694,0.8455882352941176
6.98216118694,0.8529411764705882
7.16402486276,0.8602941176470589
7.16402486276,0.8676470588235294
7.32270636724,0.875
7.32270636724,0.8823529411764706
7.51148764053,0.8897058823529411
7.51148764053,0.8970588235294118
9.26012200124,0.9044117647058824
9.26012200124,0.9117647058823529
10.8574219892,0.9191176470588235
10.8574219892,0.9264705882352942
11.1710925581,0.9338235294117647
11.1710925581,0.9411764705882353
13.6064459692,0.9485294117647058
13.6064459692,0.9558823529411765
13.6455260277,0.9632352941176471
13.6455260277,0.9705882352941176
17.842904856,0.9779411764705882
17.842904856,0.9852941176470589
20.5542621037,0.9926470588235294
20.5542621037,1.0
