Congestion,CDF
0.0,0.007352941176470588
0.0,0.014705882352941176
0.0,0.022058823529411766
0.0,0.029411764705882353
0.00451630620136,0.03676470588235294
0.00451630620136,0.04411764705882353
0.00486718697421,0.051470588235294115
0.00486718697421,0.058823529411764705
0.00489013189379,0.0661764705882353
0.00489013189379,0.07352941176470588
0.00541454022468,0.08088235294117647
0.00541454022468,0.08823529411764706
0.0060170890632,0.09558823529411764
0.0060170890632,0.10294117647058823
0.00622081776633,0.11029411764705882
0.00622081776633,0.11764705882352941
0.00634747982268,0.125
0.00634747982268,0.1323529411764706
0.00648390416555,0.13970588235294118
0.00648390416555,0.14705882352941177
0.00662249102408,0.15441176470588236
0.00662249102408,0.16176470588235295
0.0067474574499,0.16911764705882354
0.0067474574499,0.17647058823529413
0.0069953340197,0.18382352941176472
0.0069953340197,0.19117647058823528
0.00716926802344,0.19852941176470587
0.00716926802344,0.20588235294117646
0.00739299530223,0.21323529411764705
0.00739299530223,0.22058823529411764
0.00742422849408,0.22794117647058823
0.00742422849408,0.23529411764705882
0.00761711704525,0.2426470588235294
0.00761711704525,0.25
0.00782371493875,0.25735294117647056
0.00782371493875,0.2647058823529412
0.00800362707265,0.27205882352941174
0.00800362707265,0.27941176470588236
0.0082976234118,0.2867647058823529
0.0082976234118,0.29411764705882354
0.00899715431018,0.3014705882352941
0.00899715431018,0.3088235294117647
0.00971469554088,0.3161764705882353
0.00971469554088,0.3235294117647059
0.00978312312503,0.33088235294117646
0.00978312312503,0.3382352941176471
0.0109083787444,0.34558823529411764
0.0109083787444,0.35294117647058826
0.0121139165357,0.3602941176470588
0.0121139165357,0.36764705882352944
0.013616964702,0.375
0.013616964702,0.38235294117647056
0.0155002946627,0.3897058823529412
0.0155002946627,0.39705882352941174
0.0178655492413,0.40441176470588236
0.0178655492413,0.4117647058823529
0.0190181410191,0.41911764705882354
0.0190181410191,0.4264705882352941
0.0194624353934,0.4338235294117647
0.0194624353934,0.4411764705882353
0.0389451485496,0.4485294117647059
0.0389451485496,0.45588235294117646
0.0406581609862,0.4632352941176471
0.0406581609862,0.47058823529411764
0.162284579415,0.47794117647058826
0.162284579415,0.4852941176470588
0.252491832814,0.49264705882352944
0.252491832814,0.5
0.268994541166,0.5073529411764706
0.268994541166,0.5147058823529411
0.272459481301,0.5220588235294118
0.272459481301,0.5294117647058824
0.321717730964,0.5367647058823529
0.321717730964,0.5441176470588235
0.354660100843,0.5514705882352942
0.354660100843,0.5588235294117647
0.396186043839,0.5661764705882353
0.396186043839,0.5735294117647058
0.413782345134,0.5808823529411765
0.413782345134,0.5882352941176471
0.561512740435,0.5955882352941176
0.561512740435,0.6029411764705882
0.589967331709,0.6102941176470589
0.589967331709,0.6176470588235294
0.673693130817,0.625
0.673693130817,0.6323529411764706
0.703477700858,0.6397058823529411
0.703477700858,0.6470588235294118
0.757953880891,0.6544117647058824
0.757953880891,0.6617647058823529
0.761711704525,0.6691176470588235
0.761711704525,0.6764705882352942
0.76993998906,0.6838235294117647
0.76993998906,0.6911764705882353
0.823029654861,0.6985294117647058
0.823029654861,0.7058823529411765
0.859057270031,0.7132352941176471
0.859057270031,0.7205882352941176
0.8910763178,0.7279411764705882
0.8910763178,0.7352941176470589
0.965393559618,0.7426470588235294
0.965393559618,0.75
1.01306231601,0.7573529411764706
1.01306231601,0.7647058823529411
1.02504842418,0.7720588235294118
1.02504842418,0.7794117647058824
1.55002946627,0.7867647058823529
1.55002946627,0.7941176470588235
1.56424460187,0.8014705882352942
1.56424460187,0.8088235294117647
1.84383084384,0.8161764705882353
1.84383084384,0.8235294117647058
1.90181410191,0.8308823529411765
1.90181410191,0.8382352941176471
1.94624353934,0.8455882352941176
1.94624353934,0.8529411764705882
1.94989514447,0.8602941176470589
1.94989514447,0.8676470588235294
2.01916589594,0.875
2.01916589594,0.8823529411764706
2.4285293751,0.8897058823529411
2.4285293751,0.8970588235294118
2.59000820551,0.9044117647058824
2.59000820551,0.9117647058823529
2.99354242999,0.9191176470588235
2.99354242999,0.9264705882352942
3.76994853239,0.9338235294117647
3.76994853239,0.9411764705882353
3.92161743567,0.9485294117647058
3.92161743567,0.9558823529411765
5.63461256538,0.9632352941176471
5.63461256538,0.9705882352941176
7.02604490814,0.9779411764705882
7.02604490814,0.9852941176470589
8.35648102231,0.9926470588235294
8.35648102231,1.0
