Congestion,CDF
0.0,0.007352941176470588
0.0,0.014705882352941176
0.0,0.022058823529411766
0.0,0.029411764705882353
0.0179519369624,0.03676470588235294
0.0179519369624,0.04411764705882353
0.0192240695368,0.051470588235294115
0.0192240695368,0.058823529411764705
0.0192291934574,0.0661764705882353
0.0192291934574,0.07352941176470588
0.0197952316998,0.08088235294117647
0.0197952316998,0.08823529411764706
0.0199209077427,0.09558823529411764
0.0199209077427,0.10294117647058823
0.0205473655229,0.11029411764705882
0.0205473655229,0.11764705882352941
0.0210267695758,0.125
0.0210267695758,0.1323529411764706
0.0215428529863,0.13970588235294118
0.0215428529863,0.14705882352941177
0.022933124797,0.15441176470588236
0.022933124797,0.16176470588235295
0.0234292327946,0.16911764705882354
0.0234292327946,0.17647058823529413
0.0243662443188,0.18382352941176472
0.0243662443188,0.19117647058823528
0.0245450459848,0.19852941176470587
0.0245450459848,0.20588235294117646
0.024632133761,0.21323529411764705
0.024632133761,0.22058823529411764
0.0248015566888,0.22794117647058823
0.0248015566888,0.23529411764705882
0.0251512987369,0.2426470588235294
0.0251512987369,0.25
0.0253503122735,0.25735294117647056
0.0253503122735,0.2647058823529412
0.0260688279301,0.27205882352941174
0.0260688279301,0.27941176470588236
0.0266164479148,0.2867647058823529
0.0266164479148,0.29411764705882354
0.0270602768414,0.3014705882352941
0.0270602768414,0.3088235294117647
0.027481764508,0.3161764705882353
0.027481764508,0.3235294117647059
0.0280077354519,0.33088235294117646
0.0280077354519,0.3382352941176471
0.0281868670304,0.34558823529411764
0.0281868670304,0.35294117647058826
0.0302047046669,0.3602941176470588
0.0302047046669,0.36764705882352944
0.030388337553,0.375
0.030388337553,0.38235294117647056
0.0309133501119,0.3897058823529412
0.0309133501119,0.39705882352941174
0.032996203677,0.40441176470588236
0.032996203677,0.4117647058823529
0.0334975757059,0.41911764705882354
0.0334975757059,0.4264705882352941
0.0356438634487,0.4338235294117647
0.0356438634487,0.4411764705882353
0.488194913736,0.4485294117647059
0.488194913736,0.45588235294117646
0.716645242158,0.4632352941176471
0.716645242158,0.47058823529411764
0.751069766464,0.47794117647058826
0.751069766464,0.4852941176470588
0.813457149786,0.49264705882352944
0.813457149786,0.5
1.01724053278,0.5073529411764706
1.01724053278,0.5147058823529411
1.34393753889,0.5220588235294118
1.34393753889,0.5294117647058824
1.3521925268,0.5367647058823529
1.3521925268,0.5441176470588235
1.37936070528,0.5514705882352942
1.37936070528,0.5588235294117647
1.78396146089,0.5661764705882353
1.78396146089,0.5735294117647058
1.81160764662,0.5808823529411765
1.81160764662,0.5882352941176471
2.0182230055,0.5955882352941176
2.0182230055,0.6029411764705882
2.068147416,0.6102941176470589
2.068147416,0.6176470588235294
2.13600102225,0.625
2.13600102225,0.6323529411764706
2.23873925071,0.6397058823529411
2.23873925071,0.6470588235294118
2.7481764508,0.6544117647058824
2.7481764508,0.6617647058823529
2.83538369705,0.6691176470588235
2.83538369705,0.6764705882352942
2.91156145579,0.6838235294117647
2.91156145579,0.6911764705882353
3.02047046669,0.6985294117647058
3.02047046669,0.7058823529411765
3.12305262075,0.7132352941176471
3.12305262075,0.7205882352941176
3.18769419835,0.7279411764705882
3.18769419835,0.7352941176470589
3.32641731441,0.7426470588235294
3.32641731441,0.75
3.34975757059,0.7573529411764706
3.34975757059,0.7647058823529411
3.56438634487,0.7720588235294118
3.56438634487,0.7794117647058824
3.76510770857,0.7867647058823529
3.76510770857,0.7941176470588235
4.25618033435,0.8014705882352942
4.25618033435,0.8088235294117647
4.26664361197,0.8161764705882353
4.26664361197,0.8235294117647058
4.37972930459,0.8308823529411765
4.37972930459,0.8382352941176471
4.80522240334,0.8455882352941176
4.80522240334,0.8529411764705882
4.82279521619,0.8602941176470589
4.82279521619,0.8676470588235294
4.9422364618,0.875
4.9422364618,0.8823529411764706
5.2983483281,0.8897058823529411
5.2983483281,0.8970588235294118
6.60676492029,0.9044117647058824
6.60676492029,0.9117647058823529
7.74235978921,0.9191176470588235
7.74235978921,0.9264705882352942
8.20093953562,0.9338235294117647
8.20093953562,0.9411764705882353
9.85502673314,0.9485294117647058
9.85502673314,0.9558823529411765
10.2137642832,0.9632352941176471
10.2137642832,0.9705882352941176
13.4357253917,0.9779411764705882
13.4357253917,0.9852941176470589
15.5911063119,0.9926470588235294
15.5911063119,1.0
