Congestion,CDF
0.0,0.007352941176470588
0.0,0.014705882352941176
0.0204197732212,0.022058823529411766
0.0204197732212,0.029411764705882353
0.0234835109722,0.03676470588235294
0.0234835109722,0.04411764705882353
0.0241116656251,0.051470588235294115
0.0241116656251,0.058823529411764705
0.0247819832253,0.0661764705882353
0.0247819832253,0.07352941176470588
0.0248247408563,0.08088235294117647
0.0248247408563,0.08823529411764706
0.0248948597096,0.09558823529411764
0.0248948597096,0.10294117647058823
0.0252593715493,0.11029411764705882
0.0252593715493,0.11764705882352941
0.0265767757079,0.125
0.0265767757079,0.1323529411764706
0.0266169318702,0.13970588235294118
0.0266169318702,0.14705882352941177
0.0281067599192,0.15441176470588236
0.0281067599192,0.16176470588235295
0.0286960257999,0.16911764705882354
0.0286960257999,0.17647058823529413
0.0295678361201,0.18382352941176472
0.0295678361201,0.19117647058823528
0.0297932285468,0.19852941176470587
0.0297932285468,0.20588235294117646
0.0300976676432,0.21323529411764705
0.0300976676432,0.22058823529411764
0.0301694589602,0.22794117647058823
0.0301694589602,0.23529411764705882
0.0302819571871,0.2426470588235294
0.0302819571871,0.25
0.0307054288749,0.25735294117647056
0.0307054288749,0.2647058823529412
0.0309315725171,0.27205882352941174
0.0309315725171,0.27941176470588236
0.032012883502,0.2867647058823529
0.032012883502,0.29411764705882354
0.0322283668974,0.3014705882352941
0.0322283668974,0.3088235294117647
0.0326462206096,0.3161764705882353
0.0326462206096,0.3235294117647059
0.0331185613224,0.33088235294117646
0.0331185613224,0.3382352941176471
0.0334248216136,0.34558823529411764
0.0334248216136,0.35294117647058826
0.0346645776506,0.3602941176470588
0.0346645776506,0.36764705882352944
0.0353639658025,0.375
0.0353639658025,0.38235294117647056
0.0354532688785,0.3897058823529412
0.0354532688785,0.39705882352941174
0.0375445872065,0.40441176470588236
0.0375445872065,0.4117647058823529
0.0378580523298,0.41911764705882354
0.0378580523298,0.4264705882352941
0.0406928193026,0.4338235294117647
0.0406928193026,0.4411764705882353
0.682837509426,0.4485294117647059
0.682837509426,0.45588235294117646
0.94181299499,0.4632352941176471
0.94181299499,0.47058823529411764
1.03639283214,0.47794117647058826
1.03639283214,0.4852941176470588
1.04929119416,0.49264705882352944
1.04929119416,0.5
1.21062474929,0.5073529411764706
1.21062474929,0.5147058823529411
1.58006832856,0.5220588235294118
1.58006832856,0.5294117647058824
1.6035196777,0.5367647058823529
1.6035196777,0.5441176470588235
1.74802843893,0.5514705882352942
1.74802843893,0.5588235294117647
2.02125169333,0.5661764705882353
2.02125169333,0.5735294117647058
2.23575351255,0.5808823529411765
2.23575351255,0.5882352941176471
2.431450569,0.5955882352941176
2.431450569,0.6029411764705882
2.52660241403,0.6102941176470589
2.52660241403,0.6176470588235294
2.62314618667,0.625
2.62314618667,0.6323529411764706
2.79276834378,0.6397058823529411
2.79276834378,0.6470588235294118
3.26462206096,0.6544117647058824
3.26462206096,0.6617647058823529
3.44603799184,0.6691176470588235
3.44603799184,0.6764705882352942
3.45429511844,0.6838235294117647
3.45429511844,0.6911764705882353
3.61194687088,0.6985294117647058
3.61194687088,0.7058823529411765
3.76051523815,0.7132352941176471
3.76051523815,0.7205882352941176
3.8062250062,0.7279411764705882
3.8062250062,0.7352941176470589
3.92062432489,0.7426470588235294
3.92062432489,0.75
4.00607480617,0.7573529411764706
4.00607480617,0.7647058823529411
4.06928193026,0.7720588235294118
4.06928193026,0.7794117647058824
4.55955969939,0.7867647058823529
4.55955969939,0.7941176470588235
4.85475977891,0.8014705882352942
4.85475977891,0.8088235294117647
5.17669293143,0.8161764705882353
5.17669293143,0.8235294117647058
5.37129634303,0.8308823529411765
5.37129634303,0.8382352941176471
5.56657858118,0.8455882352941176
5.56657858118,0.8529411764705882
5.90043235289,0.8602941176470589
5.90043235289,0.8676470588235294
5.90469545511,0.875
5.90469545511,0.8823529411764706
6.0406215771,0.8897058823529411
6.0406215771,0.8970588235294118
7.6694725381,0.9044117647058824
7.6694725381,0.9117647058823529
8.99881596629,0.9191176470588235
8.99881596629,0.9264705882352942
9.39019580075,0.9338235294117647
9.39019580075,0.9411764705882353
11.3712657,0.9485294117647058
11.3712657,0.9558823529411765
11.5482865642,0.9632352941176471
11.5482865642,0.9705882352941176
15.1924823204,0.9779411764705882
15.1924823204,0.9852941176470589
17.5804808564,0.9926470588235294
17.5804808564,1.0
