Congestion,CDF
0.0,0.007352941176470588
0.0,0.014705882352941176
0.0,0.022058823529411766
0.0,0.029411764705882353
0.0,0.03676470588235294
0.0,0.04411764705882353
0.0,0.051470588235294115
0.0,0.058823529411764705
0.0,0.0661764705882353
0.0,0.07352941176470588
0.0,0.08088235294117647
0.0,0.08823529411764706
0.0,0.09558823529411764
0.0,0.10294117647058823
1.52110174392e-05,0.11029411764705882
1.52110174392e-05,0.11764705882352941
1.52110174392e-05,0.125
1.52110174392e-05,0.1323529411764706
1.52110174392e-05,0.13970588235294118
1.52110174392e-05,0.14705882352941177
1.52110174392e-05,0.15441176470588236
1.52110174392e-05,0.16176470588235295
1.52110174392e-05,0.16911764705882354
1.52110174392e-05,0.17647058823529413
1.52110174392e-05,0.18382352941176472
1.52110174392e-05,0.19117647058823528
1.52110174392e-05,0.19852941176470587
1.52110174392e-05,0.20588235294117646
1.52110174392e-05,0.21323529411764705
1.52110174392e-05,0.22058823529411764
1.52110174392e-05,0.22794117647058823
1.52110174392e-05,0.23529411764705882
1.52110174392e-05,0.2426470588235294
1.52110174392e-05,0.25
1.52110174392e-05,0.25735294117647056
1.52110174392e-05,0.2647058823529412
1.52110174392e-05,0.27205882352941174
1.52110174392e-05,0.27941176470588236
1.52110174392e-05,0.2867647058823529
1.52110174392e-05,0.29411764705882354
1.52110174392e-05,0.3014705882352941
0.00038027543598,0.3088235294117647
0.00038027543598,0.3161764705882353
0.000410697470859,0.3235294117647059
0.000760550871961,0.33088235294117646
0.000760550871961,0.3382352941176471
0.000760550871961,0.34558823529411764
0.000760550871961,0.35294117647058826
0.00114082630794,0.3602941176470588
0.0012675847866,0.36764705882352944
0.0012675847866,0.375
0.0012675847866,0.38235294117647056
0.00152110174392,0.3897058823529412
0.00152110174392,0.39705882352941174
0.00152110174392,0.40441176470588236
0.00152110174392,0.4117647058823529
0.00152110174392,0.41911764705882354
0.00152110174392,0.4264705882352941
0.00152110174392,0.4338235294117647
0.0019013771799,0.4411764705882353
0.00228165261588,0.4485294117647059
0.00228165261588,0.45588235294117646
0.00278868653052,0.4632352941176471
0.00304220348784,0.47058823529411764
0.00304220348784,0.47794117647058826
0.00456330523177,0.4852941176470588
0.00476172749351,0.49264705882352944
0.00584054533852,0.5
0.00621116545435,0.5073529411764706
0.0110279876434,0.5147058823529411
0.0112815046008,0.5220588235294118
0.0145772250459,0.5294117647058824
0.0181264624484,0.5367647058823529
0.0183799794057,0.5441176470588235
0.0196475641923,0.5514705882352942
0.0199010811496,0.5588235294117647
0.021384521478,0.5661764705882353
0.0214221828936,0.5735294117647058
0.0214976555156,0.5808823529411765
0.0218092075069,0.5882352941176471
0.0218599144978,0.5955882352941176
0.0219148373129,0.6029411764705882
0.0219267853026,0.6102941176470589
0.0220034784683,0.6176470588235294
0.0220260187485,0.625
0.0220294135188,0.6323529411764706
0.0220391567072,0.6397058823529411
0.0220418866093,0.6470588235294118
0.022042801319,0.6544117647058824
0.0220428496402,0.6617647058823529
0.0220441111441,0.6691176470588235
0.0220444767759,0.6764705882352942
0.0220459716008,0.6838235294117647
0.0220467038453,0.6911764705882353
0.0220534959876,0.6985294117647058
0.0220558835864,0.7058823529411765
0.0220559006433,0.7132352941176471
0.0220560004021,0.7205882352941176
0.0220560049379,0.7279411764705882
0.0220561596151,0.7352941176470589
0.0220561626391,0.7426470588235294
0.0220561626391,0.75
0.551071241005,0.7573529411764706
0.55114929002,0.7647058823529411
0.559847833274,0.7720588235294118
1.09633926513,0.7794117647058824
1.09633926513,0.7867647058823529
1.10233519226,0.7941176470588235
1.10233519226,0.8014705882352942
1.65321372302,0.8088235294117647
1.83695008467,0.8161764705882353
1.83695008467,0.8235294117647058
1.83695008467,0.8308823529411765
2.19148373129,0.8382352941176471
2.20441111441,0.8455882352941176
2.20459716008,0.8529411764705882
2.20559006433,0.8602941176470589
2.20560049379,0.8676470588235294
2.20561626391,0.875
2.20561626391,0.8823529411764706
2.7555189186,0.8897058823529411
3.27726001582,0.8970588235294118
3.30625086298,0.9044117647058824
4.03955195952,0.9117647058823529
4.37747518107,0.9191176470588235
4.411200534,0.9264705882352942
6.61684848934,0.9338235294117647
9.00116024958,0.9411764705882353
15.9903767363,0.9485294117647058
16.3373993211,0.9558823529411765
21.135011612,0.9632352941176471
26.1305866657,0.9705882352941176
26.6067594151,0.9779411764705882
26.6442038269,0.9852941176470589
28.7939693784,0.9926470588235294
29.3780239123,1.0
