Congestion,CDF
0.0,0.007352941176470588
0.0,0.014705882352941176
0.0,0.022058823529411766
0.0,0.029411764705882353
0.0,0.03676470588235294
0.0,0.04411764705882353
0.0,0.051470588235294115
0.0,0.058823529411764705
0.0,0.0661764705882353
0.0,0.07352941176470588
0.0,0.08088235294117647
0.0,0.08823529411764706
0.0,0.09558823529411764
0.0,0.10294117647058823
1.50168914969e-05,0.11029411764705882
1.50168914969e-05,0.11764705882352941
1.50168914969e-05,0.125
1.50168914969e-05,0.1323529411764706
1.50168914969e-05,0.13970588235294118
1.50168914969e-05,0.14705882352941177
1.50168914969e-05,0.15441176470588236
1.50168914969e-05,0.16176470588235295
1.50168914969e-05,0.16911764705882354
1.50168914969e-05,0.17647058823529413
1.50168914969e-05,0.18382352941176472
1.50168914969e-05,0.19117647058823528
1.50168914969e-05,0.19852941176470587
1.50168914969e-05,0.20588235294117646
1.50168914969e-05,0.21323529411764705
1.50168914969e-05,0.22058823529411764
1.50168914969e-05,0.22794117647058823
1.50168914969e-05,0.23529411764705882
1.50168914969e-05,0.2426470588235294
1.50168914969e-05,0.25
1.50168914969e-05,0.25735294117647056
1.50168914969e-05,0.2647058823529412
1.50168914969e-05,0.27205882352941174
1.50168914969e-05,0.27941176470588236
1.50168914969e-05,0.2867647058823529
1.50168914969e-05,0.29411764705882354
1.50168914969e-05,0.3014705882352941
0.000375422287423,0.3088235294117647
0.000375422287423,0.3161764705882353
0.000405456070417,0.3235294117647059
0.000750844574845,0.33088235294117646
0.000750844574845,0.3382352941176471
0.000750844574845,0.34558823529411764
0.000750844574845,0.35294117647058826
0.00112626686227,0.3602941176470588
0.00125140762474,0.36764705882352944
0.00125140762474,0.375
0.00125140762474,0.38235294117647056
0.00150168914969,0.3897058823529412
0.00150168914969,0.39705882352941174
0.00150168914969,0.40441176470588236
0.00150168914969,0.4117647058823529
0.00150168914969,0.41911764705882354
0.00150168914969,0.4264705882352941
0.00150168914969,0.4338235294117647
0.00187711143711,0.4411764705882353
0.00225253372454,0.4485294117647059
0.00225253372454,0.45588235294117646
0.00275309677443,0.4632352941176471
0.00300337829938,0.47058823529411764
0.00300337829938,0.47794117647058826
0.00450506744907,0.4852941176470588
0.00613189736124,0.49264705882352944
0.0108872463353,0.5
0.0111375278602,0.5073529411764706
0.0143911876845,0.5147058823529411
0.0178951290338,0.5220588235294118
0.0181454105588,0.5294117647058824
0.0193968181835,0.5367647058823529
0.0196470997085,0.5441176470588235
0.0211487888581,0.5514705882352942
0.0476121689668,0.5588235294117647
0.0482770264773,0.5661764705882353
0.0558322745938,0.5735294117647058
0.0558898396387,0.5808823529411765
0.0559952814818,0.5882352941176471
0.056029715436,0.5955882352941176
0.0560511319129,0.6029411764705882
0.0560723663789,0.6102941176470589
0.0561375649362,0.6176470588235294
0.0561491726684,0.625
0.0561570083459,0.6323529411764706
0.0561614533411,0.6397058823529411
0.0561632464755,0.6470588235294118
0.0561639739051,0.6544117647058824
0.056164713325,0.6617647058823529
0.0561653449072,0.6691176470588235
0.0561656437213,0.6764705882352942
0.0561669927185,0.6838235294117647
0.0561681363678,0.6911764705882353
0.0561746143187,0.6985294117647058
0.0561767931897,0.7058823529411765
0.0561768037277,0.7132352941176471
0.0561769017741,0.7205882352941176
0.0561769052086,0.7279411764705882
0.0561770604163,0.7352941176470589
0.0561770627061,0.7426470588235294
0.0561770627061,0.75
1.40409934763,0.7573529411764706
1.40417481796,0.7647058823529411
1.49893625965,0.7720588235294118
2.80361831894,0.7794117647058824
2.80361831894,0.7867647058823529
2.80840681839,0.7941176470588235
2.80840681839,0.8014705882352942
4.21229804288,0.8088235294117647
4.68038238144,0.8161764705882353
4.68038238144,0.8235294117647058
4.68038238144,0.8308823529411765
5.60511319129,0.8382352941176471
5.61653449072,0.8455882352941176
5.61669927185,0.8529411764705882
5.61768037277,0.8602941176470589
5.61769052086,0.8676470588235294
5.61770627061,0.875
5.61770627061,0.8823529411764706
7.02066371976,0.8897058823529411
8.40314646712,0.8970588235294118
8.4245521525,0.9044117647058824
10.2952996483,0.9117647058823529
11.2080847349,0.9191176470588235
11.2353806983,0.9264705882352942
16.8531185829,0.9338235294117647
22.9340519244,0.9411764705882353
40.7280337908,0.9485294117647058
41.6467263853,0.9558823529411765
53.8342844225,0.9632352941176471
66.8411850467,0.9705882352941176
67.8745374096,0.9779411764705882
71.6024019433,0.9852941176470589
73.4635213735,0.9926470588235294
78.2912240212,1.0
