Congestion,CDF
0.0,0.009433962264150943
0.0,0.018867924528301886
0.0,0.02830188679245283
0.0,0.03773584905660377
0.0,0.04716981132075472
0.0,0.05660377358490566
0.0,0.0660377358490566
0.0,0.07547169811320754
0.0,0.08490566037735849
0.0,0.09433962264150944
0.0,0.10377358490566038
0.0,0.11320754716981132
0.0,0.12264150943396226
0.0,0.1320754716981132
0.0,0.14150943396226415
0.0,0.1509433962264151
0.0,0.16037735849056603
0.0,0.16981132075471697
0.0,0.1792452830188679
0.0,0.18867924528301888
0.0,0.19811320754716982
0.0,0.20754716981132076
0.0,0.2169811320754717
0.0,0.22641509433962265
0.0,0.2358490566037736
0.0,0.24528301886792453
0.0,0.25471698113207547
0.0,0.2641509433962264
0.0,0.27358490566037735
0.0,0.2830188679245283
5.89351161851e-08,0.29245283018867924
1.51831078717e-06,0.3018867924528302
1.70736687458e-06,0.3113207547169811
2.31461602336e-06,0.32075471698113206
2.61278387689e-06,0.330188679245283
3.47663319011e-06,0.33962264150943394
5.30191905006e-06,0.3490566037735849
6.78673646408e-06,0.3584905660377358
7.18250160959e-06,0.36792452830188677
8.37717311984e-06,0.37735849056603776
1.03143062861e-05,0.3867924528301887
1.05506456425e-05,0.39622641509433965
1.11319694455e-05,0.4056603773584906
1.71132910335e-05,0.41509433962264153
4.34579148763e-05,0.42452830188679247
4.34579148763e-05,0.4339622641509434
7.1333897486e-05,0.44339622641509435
7.47964310985e-05,0.4528301886792453
8.48342058009e-05,0.46226415094339623
8.48342058009e-05,0.4716981132075472
8.69158297527e-05,0.4811320754716981
8.69158297527e-05,0.49056603773584906
8.69158297527e-05,0.5
0.000134185632296,0.5094339622641509
0.000169668411602,0.5188679245283019
0.000169668411602,0.5283018867924528
0.000169668411602,0.5377358490566038
0.000213660464406,0.5471698113207547
0.000213660464406,0.5566037735849056
0.000231461602336,0.5660377358490566
0.00039338807318,0.5754716981132075
0.00039338807318,0.5849056603773585
0.000408646594986,0.5943396226415094
0.000487417201157,0.6037735849056604
0.000487417201157,0.6132075471698113
0.000748695588846,0.6226415094339622
0.000758879616304,0.6320754716981132
0.000865380484465,0.6415094339622641
0.00118335668492,0.6509433962264151
0.00123110538516,0.660377358490566
0.00160061414571,0.6698113207547169
0.00171132910335,0.6792452830188679
0.00256263341024,0.6886792452830188
0.00742785264837,0.6981132075471698
0.0220631576756,0.7075471698113207
0.0309961042184,0.7169811320754716
0.0333334258088,0.7264150943396226
0.0445032869992,0.7358490566037735
0.0449792718259,0.7452830188679245
0.0494219969924,0.7547169811320755
0.0614577028436,0.7641509433962265
0.0630695468548,0.7735849056603774
0.358618282669,0.7830188679245284
0.55629108749,0.7924528301886793
0.55629108749,0.8018867924528302
0.562240897823,0.8113207547169812
0.562240897823,0.8207547169811321
1.11258217498,0.8301886792452831
1.11258217498,0.839622641509434
1.11258217498,0.8490566037735849
1.12448179565,0.8584905660377359
1.12448179565,0.8679245283018868
1.12448179565,0.8773584905660378
2.22168986909,0.8867924528301887
2.22168986909,0.8962264150943396
2.2291695122,0.9056603773584906
2.26255452859,0.9150943396226415
2.78520327576,0.9245283018867925
2.78520327576,0.9339622641509434
2.8717413242,0.9433962264150944
3.58963183493,0.9528301886792453
3.58963183493,0.9622641509433962
7.11762037552,0.9716981132075472
7.26430226967,0.9811320754716981
7.42548667079,0.9905660377358491
21.3790311972,1.0
