Congestion,CDF
0.0,0.009433962264150943
0.0,0.018867924528301886
0.0,0.02830188679245283
0.0,0.03773584905660377
0.0,0.04716981132075472
0.0,0.05660377358490566
0.0,0.0660377358490566
0.0,0.07547169811320754
0.0,0.08490566037735849
0.0,0.09433962264150944
0.0,0.10377358490566038
0.0,0.11320754716981132
0.0,0.12264150943396226
0.0,0.1320754716981132
0.0,0.14150943396226415
0.0,0.1509433962264151
0.0,0.16037735849056603
0.0,0.16981132075471697
0.0,0.1792452830188679
0.0,0.18867924528301888
0.0,0.19811320754716982
0.0,0.20754716981132076
0.0,0.2169811320754717
0.0,0.22641509433962265
0.0,0.2358490566037736
0.0,0.24528301886792453
0.0,0.25471698113207547
0.0,0.2641509433962264
0.0,0.27358490566037735
0.0,0.2830188679245283
2.47361977113e-08,0.29245283018867924
6.37264134692e-07,0.3018867924528302
7.16614597697e-07,0.3113207547169811
9.71488702928e-07,0.32075471698113206
1.09663546522e-06,0.330188679245283
1.45920957702e-06,0.33962264150943394
2.22531703271e-06,0.3490566037735849
2.84852335681e-06,0.3584905660377358
3.01463357293e-06,0.36792452830188677
3.51606010079e-06,0.37735849056603776
4.32911201443e-06,0.3867924528301887
4.42830817155e-06,0.39622641509433965
4.67230091234e-06,0.4056603773584906
1.71132910335e-05,0.41509433962264153
1.82401197128e-05,0.42452830188679247
1.82401197128e-05,0.4339622641509434
2.99402038368e-05,0.44339622641509435
3.56065419602e-05,0.4528301886792453
3.56065419602e-05,0.46226415094339623
3.64802394255e-05,0.4716981132075472
3.64802394255e-05,0.4811320754716981
3.64802394255e-05,0.49056603773584906
5.63202814441e-05,0.5
7.12130839203e-05,0.5094339622641509
7.12130839203e-05,0.5188679245283019
7.12130839203e-05,0.5283018867924528
8.96773915578e-05,0.5377358490566038
8.96773915578e-05,0.5471698113207547
9.71488702928e-05,0.5566037735849056
0.000165112513309,0.5660377358490566
0.000165112513309,0.5754716981132075
0.00020457834032,0.5849056603773585
0.00020457834032,0.5943396226415094
0.000314241886842,0.6037735849056604
0.000318516318336,0.6132075471698113
0.000496677478828,0.6226415094339622
0.000516718523388,0.6320754716981132
0.000671808431554,0.6415094339622641
0.00107558635327,0.6509433962264151
0.00171132910335,0.660377358490566
0.0385729872136,0.6698113207547169
0.0391306466361,0.6792452830188679
0.0399522770855,0.6886792452830188
0.0553922769568,0.6981132075471698
0.0693722723141,0.7075471698113207
0.073483771717,0.7169811320754716
0.0748853459197,0.7264150943396226
0.0814045629342,0.7358490566037735
0.0816873903353,0.7452830188679245
0.0842249472815,0.7547169811320755
0.0923738800484,0.7641509433962265
0.0933717024663,0.7735849056603774
0.823869174199,0.7830188679245284
1.01755703668,0.7924528301886793
1.01755703668,0.8018867924528302
1.02109237919,0.8113207547169812
1.02109237919,0.8207547169811321
2.03511407335,0.8301886792452831
2.03511407335,0.839622641509434
2.03511407335,0.8490566037735849
2.04218475838,0.8584905660377359
2.04218475838,0.8679245283018868
2.04218475838,0.8773584905660378
5.50726303157,0.8867924528301887
5.50726303157,0.8962264150943396
5.78291671185,0.9056603773584906
5.78291671185,0.9150943396226415
6.24989677994,0.9245283018867925
6.24989677994,0.9339622641509434
9.36456175293,0.9433962264150944
9.42032769518,0.9528301886792453
9.7781444204,0.9622641509433962
11.2760374207,0.9716981132075472
11.3758196625,0.9811320754716981
17.5720411875,0.9905660377358491
36.2501310349,1.0
