Congestion,CDF
0.0,0.009433962264150943
0.0,0.018867924528301886
0.0,0.02830188679245283
0.0,0.03773584905660377
0.0,0.04716981132075472
0.0,0.05660377358490566
0.0,0.0660377358490566
0.0,0.07547169811320754
0.0,0.08490566037735849
0.0,0.09433962264150944
0.0,0.10377358490566038
0.0,0.11320754716981132
0.0,0.12264150943396226
0.0,0.1320754716981132
0.0,0.14150943396226415
0.0,0.1509433962264151
0.0,0.16037735849056603
0.0,0.16981132075471697
0.0,0.1792452830188679
0.0,0.18867924528301888
0.0,0.19811320754716982
0.0,0.20754716981132076
0.0,0.2169811320754717
0.0,0.22641509433962265
0.0,0.2358490566037736
0.0,0.24528301886792453
0.0,0.25471698113207547
0.0,0.2641509433962264
0.0,0.27358490566037735
0.0,0.2830188679245283
6.90873975306e-08,0.29245283018867924
1.7798580493e-06,0.3018867924528302
2.00148131759e-06,0.3113207547169811
2.71333642296e-06,0.32075471698113206
3.06286726911e-06,0.330188679245283
4.07552499801e-06,0.33962264150943394
6.21523826196e-06,0.3490566037735849
7.95583330245e-06,0.3584905660377358
8.41977374588e-06,0.36792452830188677
9.82024176716e-06,0.37735849056603776
1.20910693788e-05,0.3867924528301887
1.23681210268e-05,0.39622641509433965
1.30495848344e-05,0.4056603773584906
1.71132910335e-05,0.41509433962264153
5.09440624751e-05,0.42452830188679247
5.09440624751e-05,0.4339622641509434
6.05607526647e-05,0.44339622641509435
8.36220177719e-05,0.4528301886792453
9.94479162806e-05,0.46226415094339623
9.94479162806e-05,0.4716981132075472
0.00010188812495,0.4811320754716981
0.00010188812495,0.49056603773584906
0.00010188812495,0.5
0.000157300718509,0.5094339622641509
0.000198895832561,0.5188679245283019
0.000198895832561,0.5283018867924528
0.000198895832561,0.5377358490566038
0.000250466044635,0.5471698113207547
0.000250466044635,0.5566037735849056
0.000271333642296,0.5660377358490566
0.000310338737991,0.5754716981132075
0.000461153891854,0.5849056603773585
0.000461153891854,0.5943396226415094
0.00057138066605,0.6037735849056604
0.00057138066605,0.6132075471698113
0.000625974290085,0.6226415094339622
0.00087766739296,0.6320754716981132
0.000889605741419,0.6415094339622641
0.00138720408143,0.6509433962264151
0.00144317806857,0.660377358490566
0.00171132910335,0.6698113207547169
0.00187633914949,0.6792452830188679
0.00281348197743,0.6886792452830188
0.00300407778246,0.6981132075471698
0.0141121868077,0.7075471698113207
0.0260405172221,0.7169811320754716
0.0268661225731,0.7264150943396226
0.0377336486989,0.7358490566037735
0.038233349128,0.7452830188679245
0.0445634371171,0.7547169811320755
0.0574804028557,0.7641509433962265
0.059168254753,0.7735849056603774
0.308025388205,0.7830188679245284
0.471670608736,0.7924528301886793
0.471670608736,0.8018867924528302
0.4779168641,0.8113207547169812
0.4779168641,0.8207547169811321
0.943341217472,0.8301886792452831
0.943341217472,0.839622641509434
0.943341217472,0.8490566037735849
0.955833728201,0.8584905660377359
0.955833728201,0.8679245283018868
0.955833728201,0.8773584905660378
1.65519681322,0.8867924528301887
1.65519681322,0.8962264150943396
1.66125288849,0.9056603773584906
1.68623068702,0.9150943396226415
2.29289360149,0.9245283018867925
2.29289360149,0.9339622641509434
2.3554910305,0.9433962264150944
3.17775932869,0.9528301886792453
3.17775932869,0.9622641509433962
5.75200112793,0.9716981132075472
6.6976277584,0.9811320754716981
6.86641294814,0.9905660377358491
19.3458517574,1.0
