Congestion,CDF
0.0,0.007352941176470588
0.0,0.014705882352941176
0.0,0.022058823529411766
0.0,0.029411764705882353
0.0,0.03676470588235294
0.0,0.04411764705882353
0.0,0.051470588235294115
0.0,0.058823529411764705
0.0,0.0661764705882353
0.0,0.07352941176470588
0.0,0.08088235294117647
0.0,0.08823529411764706
0.0,0.09558823529411764
0.0,0.10294117647058823
1.35735176728e-06,0.11029411764705882
1.35735176728e-06,0.11764705882352941
1.35735176728e-06,0.125
1.35735176728e-06,0.1323529411764706
1.35735176728e-06,0.13970588235294118
1.35735176728e-06,0.14705882352941177
1.35735176728e-06,0.15441176470588236
1.35735176728e-06,0.16176470588235295
1.35735176728e-06,0.16911764705882354
1.35735176728e-06,0.17647058823529413
1.35735176728e-06,0.18382352941176472
1.35735176728e-06,0.19117647058823528
1.35735176728e-06,0.19852941176470587
1.35735176728e-06,0.20588235294117646
1.35735176728e-06,0.21323529411764705
1.35735176728e-06,0.22058823529411764
1.35735176728e-06,0.22794117647058823
1.35735176728e-06,0.23529411764705882
1.35735176728e-06,0.2426470588235294
1.35735176728e-06,0.25
1.35735176728e-06,0.25735294117647056
1.35735176728e-06,0.2647058823529412
1.35735176728e-06,0.27205882352941174
1.35735176728e-06,0.27941176470588236
1.35735176728e-06,0.2867647058823529
1.35735176728e-06,0.29411764705882354
1.35735176728e-06,0.3014705882352941
3.3933794182e-05,0.3088235294117647
3.3933794182e-05,0.3161764705882353
3.66484977165e-05,0.3235294117647059
6.7867588364e-05,0.33088235294117646
6.7867588364e-05,0.3382352941176471
6.7867588364e-05,0.34558823529411764
6.7867588364e-05,0.35294117647058826
0.000101801382546,0.3602941176470588
0.000113112647273,0.36764705882352944
0.000113112647273,0.375
0.000113112647273,0.38235294117647056
0.000135735176728,0.3897058823529412
0.000135735176728,0.39705882352941174
0.000135735176728,0.40441176470588236
0.000135735176728,0.4117647058823529
0.000135735176728,0.41911764705882354
0.000135735176728,0.4264705882352941
0.000135735176728,0.4338235294117647
0.00016966897091,0.4411764705882353
0.000203602765092,0.4485294117647059
0.000203602765092,0.45588235294117646
0.000248847824001,0.4632352941176471
0.000271470353456,0.47058823529411764
0.000271470353456,0.47794117647058826
0.000407205530184,0.4852941176470588
0.000554251971639,0.49264705882352944
0.000984080031277,0.5
0.00100670256073,0.5073529411764706
0.00130079544364,0.5147058823529411
0.00161751085601,0.5220588235294118
0.00164013338546,0.5294117647058824
0.00175324603274,0.5367647058823529
0.00177586856219,0.5441176470588235
0.00191160373892,0.5514705882352942
0.00889447347697,0.5588235294117647
0.00994869534845,0.5661764705882353
0.0242564548104,0.5735294117647058
0.024364026908,0.5808823529411765
0.0246380904363,0.5882352941176471
0.0246802681007,0.5955882352941176
0.0247285183114,0.6029411764705882
0.0247559495316,0.6102941176470589
0.0248373151282,0.6176470588235294
0.0248569832291,0.625
0.0248656774388,0.6323529411764706
0.0248747959078,0.6397058823529411
0.0248764543217,0.6470588235294118
0.0248774970496,0.6544117647058824
0.024877859882,0.6617647058823529
0.0248790082172,0.6691176470588235
0.0248794857577,0.6764705882352942
0.0248814546931,0.6838235294117647
0.0248834765835,0.6911764705882353
0.0248914872763,0.6985294117647058
0.0248944358192,0.7058823529411765
0.0248944508216,0.7132352941176471
0.0248945320048,0.7205882352941176
0.0248945360681,0.7279411764705882
0.0248947837439,0.7352941176470589
0.0248947864532,0.7426470588235294
0.0248947864532,0.75
0.621937426239,0.7573529411764706
0.622036367326,0.7647058823529411
0.639010283773,0.7720588235294118
1.23779747658,0.7794117647058824
1.23779747658,0.7867647058823529
1.24417382917,0.7941176470588235
1.24417382917,0.8014705882352942
1.86581227872,0.8088235294117647
2.07318893762,0.8161764705882353
2.07318893762,0.8235294117647058
2.07318893762,0.8308823529411765
2.47285183114,0.8382352941176471
2.48790082172,0.8455882352941176
2.48814546931,0.8529411764705882
2.48944508216,0.8602941176470589
2.48945360681,0.8676470588235294
2.48947864532,0.875
2.48947864532,0.8823529411764706
3.10988600201,0.8897058823529411
3.70160652021,0.8970588235294118
3.73165341995,0.9044117647058824
4.55888726053,0.9117647058823529
4.94087864121,0.9191176470588235
4.97890680729,0.9264705882352942
7.46843566503,0.9338235294117647
10.1587617496,0.9411764705882353
18.0482675037,0.9485294117647058
18.4391779995,0.9558823529411765
23.8547789982,0.9632352941176471
29.5073086419,0.9705882352941176
30.073000162,0.9779411764705882
30.3967559896,0.9852941176470589
32.5094028528,0.9926470588235294
33.5042723876,1.0
