Congestion,CDF
0.0,0.007352941176470588
0.0,0.014705882352941176
0.0,0.022058823529411766
0.0,0.029411764705882353
0.0,0.03676470588235294
0.0,0.04411764705882353
0.0,0.051470588235294115
0.0,0.058823529411764705
0.0,0.0661764705882353
0.0,0.07352941176470588
0.0,0.08088235294117647
0.0,0.08823529411764706
0.0,0.09558823529411764
0.0,0.10294117647058823
3.01803293365e-06,0.11029411764705882
3.01803293365e-06,0.11764705882352941
3.01803293365e-06,0.125
3.01803293365e-06,0.1323529411764706
3.01803293365e-06,0.13970588235294118
3.01803293365e-06,0.14705882352941177
3.01803293365e-06,0.15441176470588236
3.01803293365e-06,0.16176470588235295
3.01803293365e-06,0.16911764705882354
3.01803293365e-06,0.17647058823529413
3.01803293365e-06,0.18382352941176472
3.01803293365e-06,0.19117647058823528
3.01803293365e-06,0.19852941176470587
3.01803293365e-06,0.20588235294117646
3.01803293365e-06,0.21323529411764705
3.01803293365e-06,0.22058823529411764
3.01803293365e-06,0.22794117647058823
3.01803293365e-06,0.23529411764705882
3.01803293365e-06,0.2426470588235294
3.01803293365e-06,0.25
3.01803293365e-06,0.25735294117647056
3.01803293365e-06,0.2647058823529412
3.01803293365e-06,0.27205882352941174
3.01803293365e-06,0.27941176470588236
3.01803293365e-06,0.2867647058823529
3.01803293365e-06,0.29411764705882354
3.01803293365e-06,0.3014705882352941
7.54508233414e-05,0.3088235294117647
7.54508233414e-05,0.3161764705882353
8.14868892087e-05,0.3235294117647059
0.000150901646683,0.33088235294117646
0.000150901646683,0.3382352941176471
0.000150901646683,0.34558823529411764
0.000150901646683,0.35294117647058826
0.000226352470024,0.3602941176470588
0.000251502744471,0.36764705882352944
0.000251502744471,0.375
0.000251502744471,0.38235294117647056
0.000301803293365,0.3897058823529412
0.000301803293365,0.39705882352941174
0.000301803293365,0.40441176470588236
0.000301803293365,0.4117647058823529
0.000301803293365,0.41911764705882354
0.000301803293365,0.4264705882352941
0.000301803293365,0.4338235294117647
0.000377254116707,0.4411764705882353
0.000452704940048,0.4485294117647059
0.000452704940048,0.45588235294117646
0.000553306037837,0.4632352941176471
0.000603606586731,0.47058823529411764
0.000603606586731,0.47794117647058826
0.000905409880096,0.4852941176470588
0.00123236344791,0.49264705882352944
0.0021880738769,0.5
0.00223837442579,0.5073529411764706
0.00289228156142,0.5147058823529411
0.00359648924594,0.5220588235294118
0.00364678979483,0.5294117647058824
0.0038982925393,0.5367647058823529
0.0039485930882,0.5441176470588235
0.00425039638156,0.5514705882352942
0.00995602224833,0.5588235294117647
0.0100201566251,0.5661764705882353
0.0106091235615,0.5735294117647058
0.0106091235615,0.5808823529411765
0.0106173641658,0.5882352941176471
0.0106173641658,0.5955882352941176
0.0106290583929,0.6029411764705882
0.0106544537289,0.6102941176470589
0.0106997838963,0.6176470588235294
0.0106997838963,0.625
0.0107144298711,0.6323529411764706
0.0107146119219,0.6397058823529411
0.0107146119219,0.6470588235294118
0.0107149035725,0.6544117647058824
0.0107163247241,0.6617647058823529
0.0107163247241,0.6691176470588235
0.0107163247241,0.6764705882352942
0.0107181812839,0.6838235294117647
0.0107208964337,0.6911764705882353
0.0107271809455,0.6985294117647058
0.0107294355698,0.7058823529411765
0.0107294355698,0.7132352941176471
0.010729488666,0.7205882352941176
0.010729488666,0.7279411764705882
0.0107297310429,0.7352941176470589
0.0107297310429,0.7426470588235294
0.0107297310429,0.75
0.267872589313,0.7573529411764706
0.267954532098,0.7647058823529411
0.287393065966,0.7720588235294118
0.532722686443,0.7794117647058824
0.532722686443,0.7867647058823529
0.536044821685,0.7941176470588235
0.536044821685,0.8014705882352942
0.803617767939,0.8088235294117647
0.892974783781,0.8161764705882353
0.892974783781,0.8235294117647058
0.892974783781,0.8308823529411765
1.06173641658,0.8382352941176471
1.07163247241,0.8455882352941176
1.07181812839,0.8529411764705882
1.07294355698,0.8602941176470589
1.0729488666,0.8676470588235294
1.07297310429,0.875
1.07297310429,0.8823529411764706
1.33950506173,0.8897058823529411
1.59363504259,0.8970588235294118
1.60750601387,0.9044117647058824
1.96295317341,0.9117647058823529
2.12347283317,0.9191176470588235
2.1458977332,0.9264705882352942
3.21891931288,0.9338235294117647
4.37574479034,0.9411764705882353
7.77865869214,0.9485294117647058
7.94139903981,0.9558823529411765
10.2803963922,0.9632352941176471
12.7194192717,0.9705882352941176
12.9593635982,0.9779411764705882
13.7150214965,0.9852941176470589
14.0222694375,0.9926470588235294
15.0242851,1.0
