Congestion,CDF
0.0,0.007352941176470588
0.0,0.014705882352941176
0.0,0.022058823529411766
0.0,0.029411764705882353
0.0,0.03676470588235294
0.0,0.04411764705882353
0.0,0.051470588235294115
0.0,0.058823529411764705
0.0,0.0661764705882353
0.0,0.07352941176470588
0.0,0.08088235294117647
0.0,0.08823529411764706
0.0,0.09558823529411764
0.0,0.10294117647058823
8.40316467905e-06,0.11029411764705882
8.40316467905e-06,0.11764705882352941
8.40316467905e-06,0.125
8.40316467905e-06,0.1323529411764706
8.40316467905e-06,0.13970588235294118
8.40316467905e-06,0.14705882352941177
8.40316467905e-06,0.15441176470588236
8.40316467905e-06,0.16176470588235295
8.40316467905e-06,0.16911764705882354
8.40316467905e-06,0.17647058823529413
8.40316467905e-06,0.18382352941176472
8.40316467905e-06,0.19117647058823528
8.40316467905e-06,0.19852941176470587
8.40316467905e-06,0.20588235294117646
8.40316467905e-06,0.21323529411764705
8.40316467905e-06,0.22058823529411764
8.40316467905e-06,0.22794117647058823
8.40316467905e-06,0.23529411764705882
8.40316467905e-06,0.2426470588235294
8.40316467905e-06,0.25
8.40316467905e-06,0.25735294117647056
8.40316467905e-06,0.2647058823529412
8.40316467905e-06,0.27205882352941174
8.40316467905e-06,0.27941176470588236
8.40316467905e-06,0.2867647058823529
8.40316467905e-06,0.29411764705882354
8.40316467905e-06,0.3014705882352941
0.000210079116976,0.3088235294117647
0.000210079116976,0.3161764705882353
0.000226885446334,0.3235294117647059
0.000333433835489,0.33088235294117646
0.000420158233953,0.3382352941176471
0.000420158233953,0.34558823529411764
0.000420158233953,0.35294117647058826
0.000420158233953,0.3602941176470588
0.000630237350929,0.36764705882352944
0.000700263723255,0.375
0.000700263723255,0.38235294117647056
0.000700263723255,0.3897058823529412
0.000728451316799,0.39705882352941174
0.000840316467905,0.40441176470588236
0.000840316467905,0.4117647058823529
0.000840316467905,0.41911764705882354
0.000840316467905,0.4264705882352941
0.000840316467905,0.4338235294117647
0.000840316467905,0.4411764705882353
0.000840316467905,0.4485294117647059
0.00105039558488,0.45588235294117646
0.00126047470186,0.4632352941176471
0.00126047470186,0.47058823529411764
0.00154058019116,0.47794117647058826
0.00168063293581,0.4852941176470588
0.00168063293581,0.49264705882352944
0.00252094940372,0.5
0.00317512622693,0.5073529411764706
0.00338901422119,0.5147058823529411
0.00343129224395,0.5220588235294118
0.00376118711292,0.5294117647058824
0.00388832157193,0.5367647058823529
0.00397124030869,0.5441176470588235
0.00403610255905,0.5514705882352942
0.00427866901072,0.5588235294117647
0.00433053351212,0.5661764705882353
0.0043505606093,0.5735294117647058
0.00437127029038,0.5808823529411765
0.00437712311402,0.5882352941176471
0.00437980661561,0.5955882352941176
0.00438107229997,0.6029411764705882
0.00438373869279,0.6102941176470589
0.00438541979511,0.6176470588235294
0.00438955828655,0.625
0.00439295337254,0.6323529411764706
0.00441390261532,0.6397058823529411
0.00442100411151,0.6470588235294118
0.00442104752774,0.6544117647058824
0.00442137235224,0.6617647058823529
0.00442138584664,0.6691176470588235
0.0044218307103,0.6764705882352942
0.00442183970762,0.6838235294117647
0.00442183970762,0.6911764705882353
0.00609229439231,0.6985294117647058
0.00623234713697,0.7058823529411765
0.00805303281743,0.7132352941176471
0.0100137712425,0.7205882352941176
0.0101538239872,0.7279411764705882
0.0108540877104,0.7352941176470589
0.0109941404551,0.7426470588235294
0.011834456923,0.75
0.106667805331,0.7573529411764706
0.10949516539,0.7647058823529411
0.109738957164,0.7720588235294118
0.201805127953,0.7794117647058824
0.201805127953,0.7867647058823529
0.219647668627,0.7941176470588235
0.219647668627,0.8014705882352942
0.328485496171,0.8088235294117647
0.365138226355,0.8161764705882353
0.365138226355,0.8235294117647058
0.365138226355,0.8308823529411765
0.397124030869,0.8382352941176471
0.438373869279,0.8455882352941176
0.438955828655,0.8529411764705882
0.442104752774,0.8602941176470589
0.442138584664,0.8676470588235294
0.442183970762,0.875
0.442183970762,0.8823529411764706
0.548037144901,0.8897058823529411
0.577923839245,0.8970588235294118
0.656774697665,0.9044117647058824
0.785956188063,0.9117647058823529
0.798191577567,0.9191176470588235
0.884275819888,0.9264705882352942
1.32655101255,0.9338235294117647
1.78965647053,0.9411764705882353
3.20477095353,0.9485294117647058
3.21752007712,0.9558823529411765
4.23094711005,0.9632352941176471
4.89891272712,0.9705882352941176
4.9717578588,0.9779411764705882
5.32277786864,0.9852941176470589
5.66167929076,0.9926470588235294
5.69502267431,1.0
