Congestion,CDF
0.0,0.007352941176470588
0.0,0.014705882352941176
0.0,0.022058823529411766
0.0,0.029411764705882353
0.0,0.03676470588235294
0.0,0.04411764705882353
0.0,0.051470588235294115
0.0,0.058823529411764705
0.0,0.0661764705882353
0.0,0.07352941176470588
0.0,0.08088235294117647
0.0,0.08823529411764706
0.0,0.09558823529411764
0.0,0.10294117647058823
8.54620396291e-07,0.11029411764705882
8.54620396291e-07,0.11764705882352941
8.54620396291e-07,0.125
8.54620396291e-07,0.1323529411764706
8.54620396291e-07,0.13970588235294118
8.54620396291e-07,0.14705882352941177
8.54620396291e-07,0.15441176470588236
8.54620396291e-07,0.16176470588235295
8.54620396291e-07,0.16911764705882354
8.54620396291e-07,0.17647058823529413
8.54620396291e-07,0.18382352941176472
8.54620396291e-07,0.19117647058823528
8.54620396291e-07,0.19852941176470587
8.54620396291e-07,0.20588235294117646
8.54620396291e-07,0.21323529411764705
8.54620396291e-07,0.22058823529411764
8.54620396291e-07,0.22794117647058823
8.54620396291e-07,0.23529411764705882
8.54620396291e-07,0.2426470588235294
8.54620396291e-07,0.25
8.54620396291e-07,0.25735294117647056
8.54620396291e-07,0.2647058823529412
8.54620396291e-07,0.27205882352941174
8.54620396291e-07,0.27941176470588236
8.54620396291e-07,0.2867647058823529
8.54620396291e-07,0.29411764705882354
8.54620396291e-07,0.3014705882352941
2.13655099073e-05,0.3088235294117647
2.13655099073e-05,0.3161764705882353
2.30747506998e-05,0.3235294117647059
4.27310198145e-05,0.33088235294117646
4.27310198145e-05,0.3382352941176471
4.27310198145e-05,0.34558823529411764
4.27310198145e-05,0.35294117647058826
6.40965297218e-05,0.3602941176470588
7.12183663576e-05,0.36764705882352944
7.12183663576e-05,0.375
7.12183663576e-05,0.38235294117647056
8.54620396291e-05,0.3897058823529412
8.54620396291e-05,0.39705882352941174
8.54620396291e-05,0.40441176470588236
8.54620396291e-05,0.4117647058823529
8.54620396291e-05,0.41911764705882354
8.54620396291e-05,0.4264705882352941
8.54620396291e-05,0.4338235294117647
0.000106827549536,0.4411764705882353
0.000128193059444,0.4485294117647059
0.000128193059444,0.45588235294117646
0.000156680405987,0.4632352941176471
0.000170924079258,0.47058823529411764
0.000170924079258,0.47794117647058826
0.000256386118887,0.4852941176470588
0.000348969995152,0.49264705882352944
0.000619599787311,0.5
0.000633843460582,0.5073529411764706
0.000819011213112,0.5147058823529411
0.00101842263891,0.5220588235294118
0.00103266631218,0.5294117647058824
0.00110388467854,0.5367647058823529
0.00111812835181,0.5441176470588235
0.00120359039144,0.5514705882352942
0.0261057839935,0.5588235294117647
0.0270239025639,0.5661764705882353
0.0380707347005,0.5735294117647058
0.0381499718056,0.5808823529411765
0.0383220503755,0.5882352941176471
0.0383553419735,0.5955882352941176
0.0383855163829,0.6029411764705882
0.0384181532241,0.6102941176470589
0.0384928782274,0.6176470588235294
0.0385066070913,0.625
0.0385176919889,0.6323529411764706
0.0385239389192,0.6397058823529411
0.0385250691128,0.6470588235294118
0.0385259781674,0.6544117647058824
0.0385267874187,0.6617647058823529
0.0385275531469,0.6691176470588235
0.0385279936762,0.6764705882352942
0.0385298791156,0.6838235294117647
0.0385321316663,0.6911764705882353
0.0385399697293,0.6985294117647058
0.0385428011919,0.7058823529411765
0.0385428125045,0.7132352941176471
0.0385428927781,0.7205882352941176
0.0385428962361,0.7279411764705882
0.0385431442141,0.7352941176470589
0.0385431465198,0.7426470588235294
0.0385431465198,0.75
0.963149454185,0.7573529411764706
0.963246977889,0.7647058823529411
1.01490877324,0.7720588235294118
1.92090766121,0.7794117647058824
1.92090766121,0.7867647058823529
1.92660658332,0.7941176470588235
1.92660658332,0.8014705882352942
2.88944836255,0.8088235294117647
3.2105654025,0.8161764705882353
3.2105654025,0.8235294117647058
3.2105654025,0.8308823529411765
3.83855163829,0.8382352941176471
3.85275531469,0.8455882352941176
3.85298791156,0.8529411764705882
3.85428125045,0.8602941176470589
3.85428962361,0.8676470588235294
3.85431465198,0.875
3.85431465198,0.8823529411764706
4.8159488218,0.8897058823529411
5.75311269876,0.8970588235294118
5.77900047523,0.9044117647058824
7.06122611163,0.9117647058823529
7.67408583564,0.9191176470588235
7.70857890142,0.9264705882352942
11.5629437254,0.9338235294117647
15.7319482809,0.9411764705882353
27.9433309743,0.9485294117647058
28.5633698764,0.9558823529411765
36.9344999331,0.9632352941176471
45.7976418809,0.9705882352941176
46.5652696072,0.9779411764705882
48.4082202802,0.9852941176470589
50.3802667877,0.9926470588235294
53.0826570441,1.0
