Congestion,CDF
0.0,0.007352941176470588
0.0,0.014705882352941176
0.0,0.022058823529411766
0.0,0.029411764705882353
0.0,0.03676470588235294
0.0,0.04411764705882353
0.0,0.051470588235294115
0.0,0.058823529411764705
0.0,0.0661764705882353
0.0,0.07352941176470588
0.0,0.08088235294117647
0.0,0.08823529411764706
0.0,0.09558823529411764
0.0,0.10294117647058823
1.04935541479e-06,0.11029411764705882
1.04935541479e-06,0.11764705882352941
1.04935541479e-06,0.125
1.04935541479e-06,0.1323529411764706
1.04935541479e-06,0.13970588235294118
1.04935541479e-06,0.14705882352941177
1.04935541479e-06,0.15441176470588236
1.04935541479e-06,0.16176470588235295
1.04935541479e-06,0.16911764705882354
1.04935541479e-06,0.17647058823529413
1.04935541479e-06,0.18382352941176472
1.04935541479e-06,0.19117647058823528
1.04935541479e-06,0.19852941176470587
1.04935541479e-06,0.20588235294117646
1.04935541479e-06,0.21323529411764705
1.04935541479e-06,0.22058823529411764
1.04935541479e-06,0.22794117647058823
1.04935541479e-06,0.23529411764705882
1.04935541479e-06,0.2426470588235294
1.04935541479e-06,0.25
1.04935541479e-06,0.25735294117647056
1.04935541479e-06,0.2647058823529412
1.04935541479e-06,0.27205882352941174
1.04935541479e-06,0.27941176470588236
1.04935541479e-06,0.2867647058823529
1.04935541479e-06,0.29411764705882354
1.04935541479e-06,0.3014705882352941
2.62338853698e-05,0.3088235294117647
2.62338853698e-05,0.3161764705882353
2.83325961994e-05,0.3235294117647059
5.24677707397e-05,0.33088235294117646
5.24677707397e-05,0.3382352941176471
5.24677707397e-05,0.34558823529411764
5.24677707397e-05,0.35294117647058826
7.87016561095e-05,0.3602941176470588
8.74462845661e-05,0.36764705882352944
8.74462845661e-05,0.375
8.74462845661e-05,0.38235294117647056
0.000104935541479,0.3897058823529412
0.000104935541479,0.39705882352941174
0.000104935541479,0.40441176470588236
0.000104935541479,0.4117647058823529
0.000104935541479,0.41911764705882354
0.000104935541479,0.4264705882352941
0.000104935541479,0.4338235294117647
0.000131169426849,0.4411764705882353
0.000157403312219,0.4485294117647059
0.000157403312219,0.45588235294117646
0.000192381826045,0.4632352941176471
0.000209871082959,0.47058823529411764
0.000209871082959,0.47794117647058826
0.000314806624438,0.4852941176470588
0.000428486794374,0.49264705882352944
0.000760782675725,0.5
0.000778271932638,0.5073529411764706
0.00100563227251,0.5147058823529411
0.0012504818693,0.5220588235294118
0.00126797112621,0.5294117647058824
0.00135541741077,0.5367647058823529
0.00137290666769,0.5441176470588235
0.00147784220917,0.5514705882352942
0.0172728284193,0.5588235294117647
0.0182912792108,0.5661764705882353
0.0311728234531,0.5735294117647058
0.0312645822572,0.5808823529411765
0.0314839451862,0.5882352941176471
0.0315207131792,0.5955882352941176
0.0315583909613,0.6029411764705882
0.0315892529093,0.6102941176470589
0.0316658809162,0.6176470588235294
0.0316819957824,0.625
0.0316920798918,0.6323529411764706
0.0316994911271,0.6397058823529411
0.0317008141077,0.6470588235294118
0.0317017661611,0.6544117647058824
0.0317024137596,0.6617647058823529
0.0317033187221,0.6691176470588235
0.0317037701494,0.6764705882352942
0.0317056828951,0.6838235294117647
0.0317078645965,0.6911764705882353
0.0317157478687,0.6985294117647058
0.0317186196339,0.7058823529411765
0.0317186321141,0.7132352941176471
0.0317187126169,0.7205882352941176
0.0317187162394,0.7279411764705882
0.0317189641294,0.7352941176470589
0.0317189665447,0.7426470588235294
0.0317189665447,0.75
0.792544154027,0.7573529411764706
0.792642072377,0.7647058823529411
0.826566219377,0.7720588235294118
1.57946264547,0.7794117647058824
1.57946264547,0.7867647058823529
1.58539322983,0.7941176470588235
1.58539322983,0.8014705882352942
2.37763246208,0.8088235294117647
2.64188003,0.8161764705882353
2.64188003,0.8235294117647058
2.64188003,0.8308823529411765
3.15583909613,0.8382352941176471
3.17033187221,0.8455882352941176
3.17056828951,0.8529411764705882
3.17186321141,0.8602941176470589
3.17187162394,0.8676470588235294
3.17189665447,0.875
3.17189665447,0.8823529411764706
3.96292116897,0.8897058823529411
4.72785716408,0.8970588235294118
4.75534234254,0.9044117647058824
5.81007960824,0.9117647058823529
6.30791041405,0.9191176470588235
6.34374288563,0.9264705882352942
9.51568972187,0.9338235294117647
12.9453744471,0.9411764705882353
22.9957998547,0.9485294117647058
23.5015047925,0.9558823529411765
30.3946479014,0.9632352941176471
37.6545547159,0.9705882352941176
38.3191982331,0.9779411764705882
39.3818375578,0.9852941176470589
41.4456564588,0.9926470588235294
43.2747843799,1.0
