Congestion,CDF
0.0,0.007352941176470588
0.0,0.014705882352941176
0.0,0.022058823529411766
0.0,0.029411764705882353
0.0,0.03676470588235294
0.0,0.04411764705882353
0.0,0.051470588235294115
0.0,0.058823529411764705
0.0,0.0661764705882353
0.0,0.07352941176470588
0.0,0.08088235294117647
0.0,0.08823529411764706
0.0,0.09558823529411764
0.0,0.10294117647058823
1.91622208603e-06,0.11029411764705882
1.91622208603e-06,0.11764705882352941
1.91622208603e-06,0.125
1.91622208603e-06,0.1323529411764706
1.91622208603e-06,0.13970588235294118
1.91622208603e-06,0.14705882352941177
1.91622208603e-06,0.15441176470588236
1.91622208603e-06,0.16176470588235295
1.91622208603e-06,0.16911764705882354
1.91622208603e-06,0.17647058823529413
1.91622208603e-06,0.18382352941176472
1.91622208603e-06,0.19117647058823528
1.91622208603e-06,0.19852941176470587
1.91622208603e-06,0.20588235294117646
1.91622208603e-06,0.21323529411764705
1.91622208603e-06,0.22058823529411764
1.91622208603e-06,0.22794117647058823
1.91622208603e-06,0.23529411764705882
1.91622208603e-06,0.2426470588235294
1.91622208603e-06,0.25
1.91622208603e-06,0.25735294117647056
1.91622208603e-06,0.2647058823529412
1.91622208603e-06,0.27205882352941174
1.91622208603e-06,0.27941176470588236
1.91622208603e-06,0.2867647058823529
1.91622208603e-06,0.29411764705882354
1.91622208603e-06,0.3014705882352941
4.79055521507e-05,0.3088235294117647
4.79055521507e-05,0.3161764705882353
5.17379963228e-05,0.3235294117647059
9.58111043014e-05,0.33088235294117646
9.58111043014e-05,0.3382352941176471
9.58111043014e-05,0.34558823529411764
9.58111043014e-05,0.35294117647058826
0.000143716656452,0.3602941176470588
0.000159685173836,0.36764705882352944
0.000159685173836,0.375
0.000159685173836,0.38235294117647056
0.000191622208603,0.3897058823529412
0.000191622208603,0.39705882352941174
0.000191622208603,0.40441176470588236
0.000191622208603,0.4117647058823529
0.000191622208603,0.41911764705882354
0.000191622208603,0.4264705882352941
0.000191622208603,0.4338235294117647
0.000239527760754,0.4411764705882353
0.000287433312904,0.4485294117647059
0.000287433312904,0.45588235294117646
0.000351307382438,0.4632352941176471
0.000383244417206,0.47058823529411764
0.000383244417206,0.47794117647058826
0.000574866625808,0.4852941176470588
0.000782457351795,0.49264705882352944
0.00121342820768,0.5
0.00138926101237,0.5073529411764706
0.00142119804714,0.5147058823529411
0.00183637949911,0.5220588235294118
0.00220766313344,0.5294117647058824
0.00228349798585,0.5367647058823529
0.00231543502062,0.5441176470588235
0.00247512019445,0.5514705882352942
0.00250705722922,0.5588235294117647
0.00269867943782,0.5661764705882353
0.01731021413,0.5735294117647058
0.0174390358154,0.5808823529411765
0.0177757941532,0.5882352941176471
0.0178274818014,0.5955882352941176
0.0178910988876,0.6029411764705882
0.0179106866422,0.6102941176470589
0.0180054207161,0.6176470588235294
0.0180308716241,0.625
0.0180376080586,0.6323529411764706
0.0180494270962,0.6397058823529411
0.0180517228118,0.6470588235294118
0.0180528123052,0.6544117647058824
0.0180529805738,0.6617647058823529
0.0180544277273,0.6691176470588235
0.0180549853734,0.6764705882352942
0.018057079474,0.6838235294117647
0.0180586647887,0.6911764705882353
0.0180671212376,0.6985294117647058
0.0180702440459,0.7058823529411765
0.01807026539,0.7132352941176471
0.018070349323,0.7205882352941176
0.0180703548504,0.7279411764705882
0.0180706019788,0.7352941176470589
0.0180706056641,0.7426470588235294
0.0180706056641,0.75
0.451324514346,0.7573529411764706
0.451426986849,0.7647058823529411
0.452641551474,0.7720588235294118
0.895534332109,0.7794117647058824
0.895534332109,0.7867647058823529
0.902933239435,0.7941176470588235
0.902933239435,0.8014705882352942
1.35397354304,0.8088235294117647
1.50447559492,0.8161764705882353
1.50447559492,0.8235294117647058
1.50447559492,0.8308823529411765
1.78910988876,0.8382352941176471
1.80544277273,0.8455882352941176
1.8057079474,0.8529411764705882
1.807026539,0.8602941176470589
1.80703548504,0.8676470588235294
1.80706056641,0.875
1.80706056641,0.8823529411764706
2.25682305169,0.8897058823529411
2.67311374743,0.8970588235294118
2.70787594906,0.9044117647058824
3.30756275733,0.9117647058823529
3.5718580689,0.9191176470588235
3.61407041734,0.9264705882352942
5.4211813307,0.9338235294117647
7.37202264986,0.9411764705882353
13.1007296785,0.9485294117647058
13.3756618109,0.9558823529411765
17.3148506366,0.9632352941176471
21.3516550402,0.9705882352941176
21.472997861,0.9779411764705882
21.8264873915,0.9852941176470589
23.5703909731,0.9926470588235294
23.7911572864,1.0
