Congestion,CDF
0.0,0.007352941176470588
0.0,0.014705882352941176
0.0,0.022058823529411766
0.0,0.029411764705882353
0.0,0.03676470588235294
0.0,0.04411764705882353
0.0,0.051470588235294115
0.0,0.058823529411764705
0.0,0.0661764705882353
0.0,0.07352941176470588
0.0,0.08088235294117647
0.0,0.08823529411764706
0.0,0.09558823529411764
0.0,0.10294117647058823
1.89553874336e-06,0.11029411764705882
1.89553874336e-06,0.11764705882352941
1.89553874336e-06,0.125
1.89553874336e-06,0.1323529411764706
1.89553874336e-06,0.13970588235294118
1.89553874336e-06,0.14705882352941177
1.89553874336e-06,0.15441176470588236
1.89553874336e-06,0.16176470588235295
1.89553874336e-06,0.16911764705882354
1.89553874336e-06,0.17647058823529413
1.89553874336e-06,0.18382352941176472
1.89553874336e-06,0.19117647058823528
1.89553874336e-06,0.19852941176470587
1.89553874336e-06,0.20588235294117646
1.89553874336e-06,0.21323529411764705
1.89553874336e-06,0.22058823529411764
1.89553874336e-06,0.22794117647058823
1.89553874336e-06,0.23529411764705882
1.89553874336e-06,0.2426470588235294
1.89553874336e-06,0.25
1.89553874336e-06,0.25735294117647056
1.89553874336e-06,0.2647058823529412
1.89553874336e-06,0.27205882352941174
1.89553874336e-06,0.27941176470588236
1.89553874336e-06,0.2867647058823529
1.89553874336e-06,0.29411764705882354
1.89553874336e-06,0.3014705882352941
4.7388468584e-05,0.3088235294117647
4.7388468584e-05,0.3161764705882353
5.11795460707e-05,0.3235294117647059
9.4776937168e-05,0.33088235294117646
9.4776937168e-05,0.3382352941176471
9.4776937168e-05,0.34558823529411764
9.4776937168e-05,0.35294117647058826
0.000142165405752,0.3602941176470588
0.000157961561947,0.36764705882352944
0.000157961561947,0.375
0.000157961561947,0.38235294117647056
0.000189553874336,0.3897058823529412
0.000189553874336,0.39705882352941174
0.000189553874336,0.40441176470588236
0.000189553874336,0.4117647058823529
0.000189553874336,0.41911764705882354
0.000189553874336,0.4264705882352941
0.000189553874336,0.4338235294117647
0.00023694234292,0.4411764705882353
0.000284330811504,0.4485294117647059
0.000284330811504,0.45588235294117646
0.000347515436283,0.4632352941176471
0.000379107748672,0.47058823529411764
0.000379107748672,0.47794117647058826
0.000568661623008,0.4852941176470588
0.000774011653539,0.49264705882352944
0.00137426558894,0.5
0.00140585790133,0.5073529411764706
0.00181655796239,0.5147058823529411
0.00225885033584,0.5220588235294118
0.00229044264823,0.5294117647058824
0.00244840421017,0.5367647058823529
0.00247999652256,0.5441176470588235
0.0026695503969,0.5514705882352942
0.00434615582475,0.5588235294117647
0.00522398158756,0.5661764705882353
0.0172411520003,0.5735294117647058
0.0173812910598,0.5808823529411765
0.0176406410984,0.5882352941176471
0.0177018735873,0.5955882352941176
0.0177620454521,0.6029411764705882
0.0178084131309,0.6102941176470589
0.0179472084935,0.6176470588235294
0.0179761216752,0.625
0.018001279013,0.6323529411764706
0.0180091997417,0.6397058823529411
0.0180109309894,0.6470588235294118
0.0180114624164,0.6544117647058824
0.0180121726183,0.6617647058823529
0.0180124608864,0.6691176470588235
0.0180135626828,0.6764705882352942
0.018023475163,0.6838235294117647
0.0180305268232,0.6911764705882353
0.0180468426653,0.6985294117647058
0.0180539790467,0.7058823529411765
0.0180540039014,0.7132352941176471
0.0180540973952,0.7205882352941176
0.0180541041912,0.7279411764705882
0.0180545334167,0.7352941176470589
0.0180545379479,0.7426470588235294
0.0180545379479,0.75
0.45031152216,0.7573529411764706
0.450586879075,0.7647058823529411
0.457580590756,0.7720588235294118
0.890420656544,0.7794117647058824
0.890420656544,0.7867647058823529
0.90152634116,0.7941176470588235
0.90152634116,0.8014705882352942
1.35093456648,0.8088235294117647
1.50130415518,0.8161764705882353
1.50130415518,0.8235294117647058
1.50130415518,0.8308823529411765
1.77620454521,0.8382352941176471
1.80109309894,0.8455882352941176
1.8023475163,0.8529411764705882
1.80540039014,0.8602941176470589
1.80541041912,0.8676470588235294
1.80545379479,0.875
1.80545379479,0.8823529411764706
2.25145776381,0.8897058823529411
2.65448476639,0.8970588235294118
2.70288260944,0.9044117647058824
3.2989163227,0.9117647058823529
3.54639190395,0.9191176470588235
3.61082015863,0.9264705882352942
5.41636093125,0.9338235294117647
7.35477499209,0.9411764705882353
13.0885662638,0.9485294117647058
13.3388328207,0.9558823529411765
17.2960810266,0.9632352941176471
21.2638246911,0.9705882352941176
21.6984402735,0.9779411764705882
21.7990915374,0.9852941176470589
23.5372206434,0.9926470588235294
24.0596188021,1.0
