Congestion,CDF
0.0,0.007352941176470588
0.0,0.014705882352941176
0.0,0.022058823529411766
0.0,0.029411764705882353
0.0,0.03676470588235294
0.0,0.04411764705882353
0.0,0.051470588235294115
0.0,0.058823529411764705
0.0,0.0661764705882353
0.0,0.07352941176470588
0.0,0.08088235294117647
0.0,0.08823529411764706
0.0,0.09558823529411764
0.0,0.10294117647058823
4.29111455136e-06,0.11029411764705882
4.29111455136e-06,0.11764705882352941
4.29111455136e-06,0.125
4.29111455136e-06,0.1323529411764706
4.29111455136e-06,0.13970588235294118
4.29111455136e-06,0.14705882352941177
4.29111455136e-06,0.15441176470588236
4.29111455136e-06,0.16176470588235295
4.29111455136e-06,0.16911764705882354
4.29111455136e-06,0.17647058823529413
4.29111455136e-06,0.18382352941176472
4.29111455136e-06,0.19117647058823528
4.29111455136e-06,0.19852941176470587
4.29111455136e-06,0.20588235294117646
4.29111455136e-06,0.21323529411764705
4.29111455136e-06,0.22058823529411764
4.29111455136e-06,0.22794117647058823
4.29111455136e-06,0.23529411764705882
4.29111455136e-06,0.2426470588235294
4.29111455136e-06,0.25
4.29111455136e-06,0.25735294117647056
4.29111455136e-06,0.2647058823529412
4.29111455136e-06,0.27205882352941174
4.29111455136e-06,0.27941176470588236
4.29111455136e-06,0.2867647058823529
4.29111455136e-06,0.29411764705882354
4.29111455136e-06,0.3014705882352941
0.000107277863784,0.3088235294117647
0.000107277863784,0.3161764705882353
0.000115860092887,0.3235294117647059
0.000214555727568,0.33088235294117646
0.000214555727568,0.3382352941176471
0.000214555727568,0.34558823529411764
0.000214555727568,0.35294117647058826
0.000321833591352,0.3602941176470588
0.00035759287928,0.36764705882352944
0.00035759287928,0.375
0.00035759287928,0.38235294117647056
0.000429111455136,0.3897058823529412
0.000429111455136,0.39705882352941174
0.000429111455136,0.40441176470588236
0.000429111455136,0.4117647058823529
0.000429111455136,0.41911764705882354
0.000429111455136,0.4264705882352941
0.000429111455136,0.4338235294117647
0.00053638931892,0.4411764705882353
0.000643667182704,0.4485294117647059
0.000643667182704,0.45588235294117646
0.000786704334416,0.4632352941176471
0.000858222910272,0.47058823529411764
0.000858222910272,0.47794117647058826
0.00128733436541,0.4852941176470588
0.00175220510847,0.49264705882352944
0.00311105804974,0.5
0.00318257662559,0.5073529411764706
0.00411231811172,0.5147058823529411
0.00511357817371,0.5220588235294118
0.00518509674956,0.5294117647058824
0.00554268962884,0.5367647058823529
0.0056142082047,0.5441176470588235
0.00604331965983,0.5514705882352942
0.0343804099666,0.5588235294117647
0.0352809463036,0.5661764705882353
0.0459326762277,0.5735294117647058
0.045997774123,0.5808823529411765
0.0461469235975,0.5882352941176471
0.0461854579741,0.5955882352941176
0.0462111483705,0.6029411764705882
0.0462253593452,0.6102941176470589
0.0462861303617,0.6176470588235294
0.046299356731,0.625
0.046304277114,0.6323529411764706
0.0463091259646,0.6397058823529411
0.0463114360612,0.6470588235294118
0.0463120642983,0.6544117647058824
0.0463125465965,0.6617647058823529
0.0463132102305,0.6691176470588235
0.0463134506417,0.6764705882352942
0.0463146374197,0.6838235294117647
0.0463151722566,0.6911764705882353
0.0463209493366,0.6985294117647058
0.0463228291993,0.7058823529411765
0.0463228394427,0.7132352941176471
0.0463229370236,0.7205882352941176
0.046322940206,0.7279411764705882
0.0463230563467,0.7352941176470589
0.0463230584683,0.7426470588235294
0.0463230584683,0.75
1.15780160746,0.7573529411764706
1.15786593549,0.7647058823529411
1.22633377208,0.7720588235294118
2.31126796726,0.7794117647058824
2.31126796726,0.7867647058823529
2.31575861283,0.7941176470588235
2.31575861283,0.8014705882352942
3.47340482237,0.8088235294117647
3.85938207832,0.8161764705882353
3.85938207832,0.8235294117647058
3.85938207832,0.8308823529411765
4.62111483705,0.8382352941176471
4.63132102305,0.8455882352941176
4.63146374197,0.8529411764705882
4.63228394427,0.8602941176470589
4.6322940206,0.8676470588235294
4.63230584683,0.875
4.63230584683,0.8823529411764706
5.78914667163,0.8897058823529411
6.92596032701,0.8970588235294118
6.94667120929,0.9044117647058824
8.48931775142,0.9117647058823529
9.23966063446,0.9191176470588235
9.26458772296,0.9264705882352942
13.8969173283,0.9338235294117647
18.9111044327,0.9411764705882353
33.583937851,0.9485294117647058
34.3403031875,0.9558823529411765
44.3911734758,0.9632352941176471
55.0991917717,0.9705882352941176
55.9682723965,0.9779411764705882
58.5372327684,0.9852941176470589
60.5680498088,0.9926470588235294
64.0961444391,1.0
