Congestion,CDF
0.0,0.007352941176470588
0.0,0.014705882352941176
0.0,0.022058823529411766
0.0,0.029411764705882353
0.0,0.03676470588235294
0.0,0.04411764705882353
0.0,0.051470588235294115
0.0,0.058823529411764705
0.0,0.0661764705882353
0.0,0.07352941176470588
0.0,0.08088235294117647
0.0,0.08823529411764706
0.0,0.09558823529411764
0.0,0.10294117647058823
1.50304373175e-05,0.11029411764705882
1.50304373175e-05,0.11764705882352941
1.50304373175e-05,0.125
1.50304373175e-05,0.1323529411764706
1.50304373175e-05,0.13970588235294118
1.50304373175e-05,0.14705882352941177
1.50304373175e-05,0.15441176470588236
1.50304373175e-05,0.16176470588235295
1.50304373175e-05,0.16911764705882354
1.50304373175e-05,0.17647058823529413
1.50304373175e-05,0.18382352941176472
1.50304373175e-05,0.19117647058823528
1.50304373175e-05,0.19852941176470587
1.50304373175e-05,0.20588235294117646
1.50304373175e-05,0.21323529411764705
1.50304373175e-05,0.22058823529411764
1.50304373175e-05,0.22794117647058823
1.50304373175e-05,0.23529411764705882
1.50304373175e-05,0.2426470588235294
1.50304373175e-05,0.25
1.50304373175e-05,0.25735294117647056
1.50304373175e-05,0.2647058823529412
1.50304373175e-05,0.27205882352941174
1.50304373175e-05,0.27941176470588236
1.50304373175e-05,0.2867647058823529
1.50304373175e-05,0.29411764705882354
1.50304373175e-05,0.3014705882352941
0.000375760932939,0.3088235294117647
0.000375760932939,0.3161764705882353
0.000405821807574,0.3235294117647059
0.000751521865877,0.33088235294117646
0.000751521865877,0.3382352941176471
0.000751521865877,0.34558823529411764
0.000751521865877,0.35294117647058826
0.00112728279882,0.3602941176470588
0.00125253644313,0.36764705882352944
0.00125253644313,0.375
0.00125253644313,0.38235294117647056
0.00150304373175,0.3897058823529412
0.00150304373175,0.39705882352941174
0.00150304373175,0.40441176470588236
0.00150304373175,0.4117647058823529
0.00150304373175,0.41911764705882354
0.00150304373175,0.4264705882352941
0.00150304373175,0.4338235294117647
0.00187880466469,0.4411764705882353
0.00225456559763,0.4485294117647059
0.00225456559763,0.45588235294117646
0.00275558017488,0.4632352941176471
0.00300608746351,0.47058823529411764
0.00300608746351,0.47794117647058826
0.00450913119526,0.4852941176470588
0.00613742857133,0.49264705882352944
0.0108970670552,0.5
0.0111475743438,0.5073529411764706
0.014404169096,0.5147058823529411
0.0179112711367,0.5220588235294118
0.0181617784254,0.5294117647058824
0.0194143148685,0.5367647058823529
0.0196648221571,0.5441176470588235
0.0211678658889,0.5514705882352942
0.0440204387552,0.5588235294117647
0.0445035657217,0.5661764705882353
0.0498379124257,0.5735294117647058
0.0498990152452,0.5808823529411765
0.0499786057364,0.5882352941176471
0.0500024629827,0.5955882352941176
0.0500212682646,0.6029411764705882
0.0500672442131,0.6102941176470589
0.0501480130548,0.6176470588235294
0.0501594248797,0.625
0.0501742789787,0.6323529411764706
0.0501792317805,0.6397058823529411
0.0501798578286,0.6470588235294118
0.050180679245,0.6544117647058824
0.0501813865881,0.6617647058823529
0.0501819528783,0.6691176470588235
0.0501825183415,0.6764705882352942
0.0501853459098,0.6838235294117647
0.0501883473701,0.6911764705882353
0.0501972986767,0.6985294117647058
0.0502006342204,0.7058823529411765
0.0502006428522,0.7132352941176471
0.0502006846765,0.7205882352941176
0.0502006870805,0.7279411764705882
0.0502010351559,0.7352941176470589
0.0502010367593,0.7426470588235294
0.0502010367593,0.75
1.25451698112,0.7573529411764706
1.25463364775,0.7647058823529411
1.34187460638,0.7720588235294118
2.50336221065,0.7794117647058824
2.50336221065,0.7867647058823529
2.5094173685,0.7941176470588235
2.5094173685,0.8014705882352942
3.76355094337,0.8088235294117647
4.18181255649,0.8161764705882353
4.18181255649,0.8235294117647058
4.18181255649,0.8308823529411765
5.00212682646,0.8382352941176471
5.01819528783,0.8455882352941176
5.01853459098,0.8529411764705882
5.02006428522,0.8602941176470589
5.02006870805,0.8676470588235294
5.02010367593,0.875
5.02010367593,0.8823529411764706
6.27276881528,0.8897058823529411
7.5012227843,0.8970588235294118
7.52734054656,0.9044117647058824
9.19775504446,0.9117647058823529
10.0023731247,0.9191176470588235
10.0401371757,0.9264705882352942
15.0603108675,0.9338235294117647
20.4909153184,0.9411764705882353
36.3952093982,0.9485294117647058
37.206833879,0.9558823529411765
48.1061691908,0.9632352941176471
59.6942210306,0.9705882352941176
60.6509376353,0.9779411764705882
64.0962649061,0.9852941176470589
65.6408391598,0.9926470588235294
70.0911957319,1.0
