Congestion,CDF
0.0,0.007352941176470588
0.0,0.014705882352941176
0.0,0.022058823529411766
0.0,0.029411764705882353
0.0,0.03676470588235294
0.0,0.04411764705882353
0.0,0.051470588235294115
0.0,0.058823529411764705
0.0,0.0661764705882353
0.0,0.07352941176470588
0.0,0.08088235294117647
0.0,0.08823529411764706
0.0,0.09558823529411764
0.0,0.10294117647058823
1.51766507229e-05,0.11029411764705882
1.51766507229e-05,0.11764705882352941
1.51766507229e-05,0.125
1.51766507229e-05,0.1323529411764706
1.51766507229e-05,0.13970588235294118
1.51766507229e-05,0.14705882352941177
1.51766507229e-05,0.15441176470588236
1.51766507229e-05,0.16176470588235295
1.51766507229e-05,0.16911764705882354
1.51766507229e-05,0.17647058823529413
1.51766507229e-05,0.18382352941176472
1.51766507229e-05,0.19117647058823528
1.51766507229e-05,0.19852941176470587
1.51766507229e-05,0.20588235294117646
1.51766507229e-05,0.21323529411764705
1.51766507229e-05,0.22058823529411764
1.51766507229e-05,0.22794117647058823
1.51766507229e-05,0.23529411764705882
1.51766507229e-05,0.2426470588235294
1.51766507229e-05,0.25
1.51766507229e-05,0.25735294117647056
1.51766507229e-05,0.2647058823529412
1.51766507229e-05,0.27205882352941174
1.51766507229e-05,0.27941176470588236
1.51766507229e-05,0.2867647058823529
1.51766507229e-05,0.29411764705882354
1.51766507229e-05,0.3014705882352941
0.000379416268074,0.3088235294117647
0.000379416268074,0.3161764705882353
0.000409769569519,0.3235294117647059
0.000758832536147,0.33088235294117646
0.000758832536147,0.3382352941176471
0.000758832536147,0.34558823529411764
0.000758832536147,0.35294117647058826
0.00113824880422,0.3602941176470588
0.00126472089358,0.36764705882352944
0.00126472089358,0.375
0.00126472089358,0.38235294117647056
0.00151766507229,0.3897058823529412
0.00151766507229,0.39705882352941174
0.00151766507229,0.40441176470588236
0.00151766507229,0.4117647058823529
0.00151766507229,0.41911764705882354
0.00151766507229,0.4264705882352941
0.00151766507229,0.4338235294117647
0.00189708134037,0.4411764705882353
0.00227649760844,0.4485294117647059
0.00227649760844,0.45588235294117646
0.00278238596587,0.4632352941176471
0.00303533014459,0.47058823529411764
0.00303533014459,0.47794117647058826
0.00455299521688,0.4852941176470588
0.00619713237853,0.49264705882352944
0.00910531308875,0.5
0.0101273413583,0.5073529411764706
0.0110030717741,0.5147058823529411
0.0112560159528,0.5220588235294118
0.0145442902762,0.5294117647058824
0.0180855087782,0.5367647058823529
0.0183384529569,0.5441176470588235
0.0196031738505,0.5514705882352942
0.0198561180292,0.5588235294117647
0.0213737831015,0.5661764705882353
0.0238586370193,0.5735294117647058
0.0239690939934,0.5808823529411765
0.0242356470021,0.5882352941176471
0.0242730625345,0.5955882352941176
0.0243207211299,0.6029411764705882
0.0243595247957,0.6102941176470589
0.0244483860179,0.6176470588235294
0.0244690462845,0.625
0.0244800596571,0.6323529411764706
0.0244895152125,0.6397058823529411
0.0244908947883,0.6470588235294118
0.0244918936866,0.6544117647058824
0.0244919679196,0.6617647058823529
0.0244930794452,0.6691176470588235
0.0244936923765,0.6764705882352942
0.0244966308901,0.6838235294117647
0.0244993325191,0.6911764705882353
0.0245084934613,0.6985294117647058
0.0245119910706,0.7058823529411765
0.0245120045474,0.7132352941176471
0.024512047483,0.7205882352941176
0.0245120506378,0.7279411764705882
0.0245123983328,0.7352941176470589
0.0245124004368,0.7426470588235294
0.0245124004368,0.75
0.612297342164,0.7573529411764706
0.612415772252,0.7647058823529411
0.629687626126,0.7720588235294118
1.21797623978,0.7794117647058824
1.21797623978,0.7867647058823529
1.22496662595,0.7941176470588235
1.22496662595,0.8014705882352942
1.83689202649,0.8088235294117647
2.04107627403,0.8161764705882353
2.04107627403,0.8235294117647058
2.04107627403,0.8308823529411765
2.43207211299,0.8382352941176471
2.44930794452,0.8455882352941176
2.44966308901,0.8529411764705882
2.45120045474,0.8602941176470589
2.45120506378,0.8676470588235294
2.45124004368,0.875
2.45124004368,0.8823529411764706
3.06166657981,0.8897058823529411
3.64154094,0.8970588235294118
3.67391814721,0.9044117647058824
4.48798090247,0.9117647058823529
4.85937836644,0.9191176470588235
4.90240981208,0.9264705882352942
7.35371992064,0.9338235294117647
10.0012475903,0.9411764705882353
17.7709450668,0.9485294117647058
18.1520433344,0.9558823529411765
23.4878373129,0.9632352941176471
29.0388263427,0.9705882352941176
29.6097614258,0.9779411764705882
29.9493576516,0.9852941176470589
32.0066708251,0.9926470588235294
33.019404961,1.0
