Congestion,CDF
0.0,0.007352941176470588
0.0,0.014705882352941176
0.0,0.022058823529411766
0.0,0.029411764705882353
0.0,0.03676470588235294
0.0,0.04411764705882353
0.0,0.051470588235294115
0.0,0.058823529411764705
0.0,0.0661764705882353
0.0,0.07352941176470588
0.0,0.08088235294117647
0.0,0.08823529411764706
0.0,0.09558823529411764
0.0,0.10294117647058823
1.50225183851e-05,0.11029411764705882
1.50225183851e-05,0.11764705882352941
1.50225183851e-05,0.125
1.50225183851e-05,0.1323529411764706
1.50225183851e-05,0.13970588235294118
1.50225183851e-05,0.14705882352941177
1.50225183851e-05,0.15441176470588236
1.50225183851e-05,0.16176470588235295
1.50225183851e-05,0.16911764705882354
1.50225183851e-05,0.17647058823529413
1.50225183851e-05,0.18382352941176472
1.50225183851e-05,0.19117647058823528
1.50225183851e-05,0.19852941176470587
1.50225183851e-05,0.20588235294117646
1.50225183851e-05,0.21323529411764705
1.50225183851e-05,0.22058823529411764
1.50225183851e-05,0.22794117647058823
1.50225183851e-05,0.23529411764705882
1.50225183851e-05,0.2426470588235294
1.50225183851e-05,0.25
1.50225183851e-05,0.25735294117647056
1.50225183851e-05,0.2647058823529412
1.50225183851e-05,0.27205882352941174
1.50225183851e-05,0.27941176470588236
1.50225183851e-05,0.2867647058823529
1.50225183851e-05,0.29411764705882354
1.50225183851e-05,0.3014705882352941
0.000375562959628,0.3088235294117647
0.000375562959628,0.3161764705882353
0.000405607996398,0.3235294117647059
0.000751125919256,0.33088235294117646
0.000751125919256,0.3382352941176471
0.000751125919256,0.34558823529411764
0.000751125919256,0.35294117647058826
0.00112668887888,0.3602941176470588
0.00125187653209,0.36764705882352944
0.00125187653209,0.375
0.00125187653209,0.38235294117647056
0.00150225183851,0.3897058823529412
0.00150225183851,0.39705882352941174
0.00150225183851,0.40441176470588236
0.00150225183851,0.4117647058823529
0.00150225183851,0.41911764705882354
0.00150225183851,0.4264705882352941
0.00150225183851,0.4338235294117647
0.00187781479814,0.4411764705882353
0.00225337775777,0.4485294117647059
0.00225337775777,0.45588235294117646
0.0027541283706,0.4632352941176471
0.00300450367702,0.47058823529411764
0.00300450367702,0.47794117647058826
0.00450675551553,0.4852941176470588
0.00613419500725,0.49264705882352944
0.0108913258292,0.5
0.0111417011356,0.5073529411764706
0.0143965801191,0.5147058823529411
0.0179018344089,0.5220588235294118
0.0181522097153,0.5294117647058824
0.0194040862474,0.5367647058823529
0.0196544615539,0.5441176470588235
0.0211567133924,0.5514705882352942
0.0463567101981,0.5588235294117647
0.0469136901518,0.5661764705882353
0.0531343137962,0.5735294117647058
0.0531983820238,0.5808823529411765
0.053290462346,0.5882352941176471
0.0533148869379,0.5955882352941176
0.0533350693113,0.6029411764705882
0.0533808479594,0.6102941176470589
0.0534616820754,0.6176470588235294
0.0534735054772,0.625
0.0534881729785,0.6323529411764706
0.0534933304517,0.6397058823529411
0.0534939807526,0.6470588235294118
0.0534948061393,0.6544117647058824
0.0534954936476,0.6617647058823529
0.0534960773671,0.6691176470588235
0.0534966436583,0.6764705882352942
0.0534994736915,0.6838235294117647
0.0535024693491,0.6911764705882353
0.0535114226159,0.6985294117647058
0.0535147627248,0.7058823529411765
0.0535147714568,0.7132352941176471
0.053514813293,0.7205882352941176
0.0535148157067,0.7279411764705882
0.0535151637764,0.7352941176470589
0.0535151653863,0.7426470588235294
0.0535151653863,0.75
1.33737015348,0.7573529411764706
1.33748684229,0.7647058823529411
1.42943607866,0.7720588235294118
2.66904239797,0.7794117647058824
2.66904239797,0.7867647058823529
2.67512346745,0.7941176470588235
2.67512346745,0.8014705882352942
4.01211046045,0.8088235294117647
4.45798968752,0.8161764705882353
4.45798968752,0.8235294117647058
4.45798968752,0.8308823529411765
5.33350693113,0.8382352941176471
5.34960773671,0.8455882352941176
5.34994736915,0.8529411764705882
5.35147714568,0.8602941176470589
5.35148157067,0.8676470588235294
5.35151653863,0.875
5.35151653863,0.8823529411764706
6.68703451931,0.8897058823529411
7.99808863257,0.8970588235294118
8.02445651263,0.9044117647058824
9.80534023524,0.9117647058823529
10.6649956249,0.9191176470588235
10.7029629,0.9264705882352942
16.0545494549,0.9338235294117647
21.8441813083,0.9411764705882353
38.7979526153,0.9485294117647058
39.6647321491,0.9558823529411765
51.2822080319,0.9632352941176471
63.6412477862,0.9705882352941176
64.6554818424,0.9779411764705882
68.276918806,0.9852941176470589
69.9753200448,0.9926470588235294
74.6666890599,1.0
