Congestion,CDF
0.0,0.007352941176470588
0.0,0.014705882352941176
0.0,0.022058823529411766
0.0,0.029411764705882353
0.0,0.03676470588235294
0.0,0.04411764705882353
0.0,0.051470588235294115
0.0,0.058823529411764705
0.0,0.0661764705882353
0.0,0.07352941176470588
0.0,0.08088235294117647
0.0,0.08823529411764706
0.0,0.09558823529411764
0.0,0.10294117647058823
1.56774218166e-05,0.11029411764705882
1.56774218166e-05,0.11764705882352941
1.56774218166e-05,0.125
1.56774218166e-05,0.1323529411764706
1.56774218166e-05,0.13970588235294118
1.56774218166e-05,0.14705882352941177
1.56774218166e-05,0.15441176470588236
1.56774218166e-05,0.16176470588235295
1.56774218166e-05,0.16911764705882354
1.56774218166e-05,0.17647058823529413
1.56774218166e-05,0.18382352941176472
1.56774218166e-05,0.19117647058823528
1.56774218166e-05,0.19852941176470587
1.56774218166e-05,0.20588235294117646
1.56774218166e-05,0.21323529411764705
1.56774218166e-05,0.22058823529411764
1.56774218166e-05,0.22794117647058823
1.56774218166e-05,0.23529411764705882
1.56774218166e-05,0.2426470588235294
1.56774218166e-05,0.25
1.56774218166e-05,0.25735294117647056
1.56774218166e-05,0.2647058823529412
1.56774218166e-05,0.27205882352941174
1.56774218166e-05,0.27941176470588236
1.56774218166e-05,0.2867647058823529
1.56774218166e-05,0.29411764705882354
1.56774218166e-05,0.3014705882352941
0.000391935545415,0.3088235294117647
0.000391935545415,0.3161764705882353
0.000423290389048,0.3235294117647059
0.000493892540313,0.33088235294117646
0.000783871090829,0.3382352941176471
0.000783871090829,0.34558823529411764
0.000783871090829,0.35294117647058826
0.000783871090829,0.3602941176470588
0.00108927347775,0.36764705882352944
0.00117580663624,0.375
0.00130645181805,0.38235294117647056
0.00130645181805,0.3897058823529412
0.00130645181805,0.39705882352941174
0.00156774218166,0.40441176470588236
0.00156774218166,0.4117647058823529
0.00156774218166,0.41911764705882354
0.00156774218166,0.4264705882352941
0.00156774218166,0.4338235294117647
0.00156774218166,0.4411764705882353
0.00156774218166,0.4485294117647059
0.00195967772707,0.45588235294117646
0.00235161327249,0.4632352941176471
0.00235161327249,0.47058823529411764
0.00287419399971,0.47794117647058826
0.00313548436332,0.4852941176470588
0.00313548436332,0.49264705882352944
0.00470322654498,0.5
0.00640161390844,0.5073529411764706
0.00813804586114,0.5147058823529411
0.00831196966149,0.5220588235294118
0.00871369982767,0.5294117647058824
0.00879285479632,0.5367647058823529
0.0088767937708,0.5441176470588235
0.00890531899158,0.5514705882352942
0.00906005323594,0.5588235294117647
0.00910170466048,0.5661764705882353
0.00910861647363,0.5735294117647058
0.00912719423583,0.5808823529411765
0.00913080763322,0.5882352941176471
0.00913174997904,0.5955882352941176
0.00913269279753,0.6029411764705882
0.00913438045172,0.6102941176470589
0.00913585209068,0.6176470588235294
0.00913891695218,0.625
0.00914039862817,0.6323529411764706
0.00915284929035,0.6397058823529411
0.00915746023764,0.6470588235294118
0.0091575023188,0.6544117647058824
0.00915759394531,0.6617647058823529
0.00915760670404,0.6691176470588235
0.00915796102541,0.6764705882352942
0.00915796953277,0.6838235294117647
0.00915796953277,0.6911764705882353
0.011366130817,0.6985294117647058
0.0116274211806,0.7058823529411765
0.0150241959076,0.7132352941176471
0.0186822609981,0.7205882352941176
0.0189435513617,0.7279411764705882
0.0202500031798,0.7352941176470589
0.0205112935434,0.7426470588235294
0.022079035725,0.75
0.226921128653,0.7573529411764706
0.228317319938,0.7647058823529411
0.228472923805,0.7720588235294118
0.445265949579,0.7794117647058824
0.445265949579,0.7867647058823529
0.457019931408,0.7941176470588235
0.457019931408,0.8014705882352942
0.684951959814,0.8088235294117647
0.761150498183,0.8161764705882353
0.761150498183,0.8235294117647058
0.761150498183,0.8308823529411765
0.88767937708,0.8382352941176471
0.913438045172,0.8455882352941176
0.913891695218,0.8529411764705882
0.91575023188,0.8602941176470589
0.915760670404,0.8676470588235294
0.915796953277,0.875
0.915796953277,0.8823529411764706
1.14190252901,0.8897058823529411
1.31663593235,0.8970588235294118
1.36973935499,0.9044117647058824
1.67132096423,0.9117647058823529
1.76696485671,0.9191176470588235
1.83152006493,0.9264705882352942
2.7473900091,0.9338235294117647
3.72966607027,0.9411764705882353
6.63887925348,0.9485294117647058
6.75225830767,0.9558823529411765
8.77233461211,0.9632352941176471
10.6496636828,0.9705882352941176
10.7585910306,0.9779411764705882
11.0529356145,0.9852941176470589
11.8841325806,0.9926470588235294
11.9335218346,1.0
