Congestion,CDF
0.0,0.007352941176470588
0.0,0.014705882352941176
0.0,0.022058823529411766
0.0,0.029411764705882353
0.0,0.03676470588235294
0.0,0.04411764705882353
0.0,0.051470588235294115
0.0,0.058823529411764705
0.0,0.0661764705882353
0.0,0.07352941176470588
0.0,0.08088235294117647
0.0,0.08823529411764706
0.0,0.09558823529411764
0.0,0.10294117647058823
1.50659144976e-05,0.11029411764705882
1.50659144976e-05,0.11764705882352941
1.50659144976e-05,0.125
1.50659144976e-05,0.1323529411764706
1.50659144976e-05,0.13970588235294118
1.50659144976e-05,0.14705882352941177
1.50659144976e-05,0.15441176470588236
1.50659144976e-05,0.16176470588235295
1.50659144976e-05,0.16911764705882354
1.50659144976e-05,0.17647058823529413
1.50659144976e-05,0.18382352941176472
1.50659144976e-05,0.19117647058823528
1.50659144976e-05,0.19852941176470587
1.50659144976e-05,0.20588235294117646
1.50659144976e-05,0.21323529411764705
1.50659144976e-05,0.22058823529411764
1.50659144976e-05,0.22794117647058823
1.50659144976e-05,0.23529411764705882
1.50659144976e-05,0.2426470588235294
1.50659144976e-05,0.25
1.50659144976e-05,0.25735294117647056
1.50659144976e-05,0.2647058823529412
1.50659144976e-05,0.27205882352941174
1.50659144976e-05,0.27941176470588236
1.50659144976e-05,0.2867647058823529
1.50659144976e-05,0.29411764705882354
1.50659144976e-05,0.3014705882352941
0.00037664786244,0.3088235294117647
0.00037664786244,0.3161764705882353
0.000406779691435,0.3235294117647059
0.00075329572488,0.33088235294117646
0.00075329572488,0.3382352941176471
0.00075329572488,0.34558823529411764
0.00075329572488,0.35294117647058826
0.00112994358732,0.3602941176470588
0.0012554928748,0.36764705882352944
0.0012554928748,0.375
0.0012554928748,0.38235294117647056
0.00150659144976,0.3897058823529412
0.00150659144976,0.39705882352941174
0.00150659144976,0.40441176470588236
0.00150659144976,0.4117647058823529
0.00150659144976,0.41911764705882354
0.00150659144976,0.4264705882352941
0.00150659144976,0.4338235294117647
0.0018832393122,0.4411764705882353
0.00225988717464,0.4485294117647059
0.00225988717464,0.45588235294117646
0.00276208432456,0.4632352941176471
0.00301318289952,0.47058823529411764
0.00301318289952,0.47794117647058826
0.00451977434928,0.4852941176470588
0.00615191508652,0.49264705882352944
0.0109227880108,0.5
0.0111738865857,0.5073529411764706
0.0144381680602,0.5147058823529411
0.0179535481096,0.5220588235294118
0.0182046466846,0.5294117647058824
0.0194601395594,0.5367647058823529
0.0197112381344,0.5441176470588235
0.0212178295841,0.5514705882352942
0.0286613631117,0.5588235294117647
0.0295000968688,0.5661764705882353
0.0393966877065,0.5735294117647058
0.0394757641795,0.5808823529411765
0.0396292114779,0.5882352941176471
0.0396568546682,0.5955882352941176
0.0396846084505,0.6029411764705882
0.0397291217753,0.6102941176470589
0.0398107143668,0.6176470588235294
0.0398248377126,0.625
0.039838483709,0.6323529411764706
0.0398447788449,0.6397058823529411
0.0398455793997,0.6470588235294118
0.0398464319033,0.6544117647058824
0.0398469955133,0.6617647058823529
0.0398476873925,0.6691176470588235
0.0398482597057,0.6764705882352942
0.0398511068106,0.6838235294117647
0.0398540611976,0.6911764705882353
0.0398630327384,0.6985294117647058
0.0398664019598,0.7058823529411765
0.0398664113956,0.7132352941176471
0.0398664533305,0.7205882352941176
0.0398664558211,0.7279411764705882
0.0398668038468,0.7352941176470589
0.0398668055079,0.7426470588235294
0.0398668055079,0.75
0.996160797582,0.7573529411764706
0.996277670264,0.7647058823529411
1.0529218149,0.7720588235294118
1.98645608876,0.7794117647058824
1.98645608876,0.7867647058823529
1.99270305988,0.7941176470588235
1.99270305988,0.8014705882352942
2.98848239275,0.8088235294117647
3.32062444784,0.8161764705882353
3.32062444784,0.8235294117647058
3.32062444784,0.8308823529411765
3.96846084505,0.8382352941176471
3.98476873925,0.8455882352941176
3.98511068106,0.8529411764705882
3.98664113956,0.8602941176470589
3.98664558211,0.8676470588235294
3.98668055079,0.875
3.98668055079,0.8823529411764706
4.98098676815,0.8897058823529411
5.94937723655,0.8970588235294118
5.97718094436,0.9044117647058824
7.3031082191,0.9117647058823529
7.93414631186,0.9191176470588235
7.97329091516,0.9264705882352942
11.9600414863,0.9338235294117647
16.2710795066,0.9411764705882353
28.9028914072,0.9485294117647058
29.5417152511,0.9558823529411765
38.2025221888,0.9632352941176471
47.3649075702,0.9705882352941176
48.1635515041,0.9779411764705882
50.2310438813,0.9852941176470589
52.111127922,0.9926470588235294
55.0611376089,1.0
