Congestion,CDF
0.0126398224201,0.009433962264150943
0.0126398224201,0.018867924528301886
0.0126493853691,0.02830188679245283
0.0126493853691,0.03773584905660377
0.0126505785911,0.04716981132075472
0.0126505785911,0.05660377358490566
0.0126519397064,0.0660377358490566
0.0126519397064,0.07547169811320754
0.0126562634455,0.08490566037735849
0.0126562634455,0.09433962264150944
0.0126583536276,0.10377358490566038
0.0126583536276,0.11320754716981132
0.0126643194606,0.12264150943396226
0.0126643194606,0.1320754716981132
0.0126764101397,0.14150943396226415
0.0126764101397,0.1509433962264151
0.0126857361525,0.16037735849056603
0.0126857361525,0.16981132075471697
0.012688143803,0.1792452830188679
0.012688143803,0.18867924528301888
0.0126952166497,0.19811320754716982
0.0126952166497,0.20754716981132076
0.012706061815,0.2169811320754717
0.012706061815,0.22641509433962265
0.0127073263738,0.2358490566037736
0.0127073263738,0.24528301886792453
0.0127104015084,0.25471698113207547
0.0127104015084,0.2641509433962264
0.0974705391558,0.27358490566037735
0.0974705391558,0.2830188679245283
0.129688042627,0.29245283018867924
0.129688042627,0.3018867924528302
0.178590583599,0.3113207547169811
0.178590583599,0.32075471698113206
0.188231163152,0.330188679245283
0.188231163152,0.33962264150943394
0.1883682901,0.3490566037735849
0.1883682901,0.3584905660377358
0.194657637982,0.36792452830188677
0.194657637982,0.37735849056603776
0.215223213744,0.3867924528301887
0.215223213744,0.39622641509433965
0.215480820364,0.4056603773584906
0.215480820364,0.41509433962264153
0.218807109462,0.42452830188679247
0.218807109462,0.4339622641509434
0.230686639538,0.44339622641509435
0.230686639538,0.4528301886792453
0.241780465698,0.46226415094339623
0.241780465698,0.4716981132075472
0.242277546204,0.4811320754716981
0.242277546204,0.49056603773584906
0.277791875649,0.5
0.277791875649,0.5094339622641509
0.287374978947,0.5188679245283019
0.287374978947,0.5283018867924528
0.287611855463,0.5377358490566038
0.287611855463,0.5471698113207547
0.300245776562,0.5566037735849056
0.300245776562,0.5660377358490566
0.307002830344,0.5754716981132075
0.307002830344,0.5849056603773585
0.316318213409,0.5943396226415094
0.316318213409,0.6037735849056604
0.328979439527,0.6132075471698113
0.328979439527,0.6226415094339622
0.341003218651,0.6320754716981132
0.341003218651,0.6415094339622641
0.348607224477,0.6509433962264151
0.348607224477,0.660377358490566
0.357433292493,0.6698113207547169
0.357433292493,0.6792452830188679
0.366437737091,0.6886792452830188
0.366437737091,0.6981132075471698
0.401915487235,0.7075471698113207
0.401915487235,0.7169811320754716
0.409366714323,0.7264150943396226
0.409366714323,0.7358490566037735
0.409896365481,0.7452830188679245
0.409896365481,0.7547169811320755
0.440690276755,0.7641509433962265
0.440690276755,0.7735849056603774
0.441431210823,0.7830188679245284
0.441431210823,0.7924528301886793
0.500809667886,0.8018867924528302
0.500809667886,0.8113207547169812
0.501829153012,0.8207547169811321
0.501829153012,0.8301886792452831
0.515175736275,0.839622641509434
0.515175736275,0.8490566037735849
0.555236177148,0.8584905660377359
0.555236177148,0.8679245283018868
0.556148109769,0.8773584905660378
0.556148109769,0.8867924528301887
0.559477192501,0.8962264150943396
0.559477192501,0.9056603773584906
0.602269349757,0.9150943396226415
0.602269349757,0.9245283018867925
0.603467254061,0.9339622641509434
0.603467254061,0.9433962264150944
0.657318629297,0.9528301886792453
0.657318629297,0.9622641509433962
0.739647396048,0.9716981132075472
0.739647396048,0.9811320754716981
0.772345904292,0.9905660377358491
0.772345904292,1.0
