Congestion,CDF
0.0,0.005555555555555556
0.0,0.011111111111111112
0.0,0.016666666666666666
0.0,0.022222222222222223
0.0,0.027777777777777776
0.0,0.03333333333333333
0.0,0.03888888888888889
0.0,0.044444444444444446
0.0,0.05
0.0,0.05555555555555555
3.81655484827e-07,0.06111111111111111
4.38503797081e-07,0.06666666666666667
9.87035715749e-07,0.07222222222222222
1.44261011437e-06,0.07777777777777778
1.47614515265e-06,0.08333333333333333
1.94901975678e-06,0.08888888888888889
2.14417969016e-06,0.09444444444444444
2.95516855563e-06,0.1
2.97041441807e-06,0.10555555555555556
3.03901277663e-06,0.1111111111111111
3.10155914649e-06,0.11666666666666667
3.41418298029e-06,0.12222222222222222
3.49337413552e-06,0.12777777777777777
3.90102950926e-06,0.13333333333333333
3.99543793442e-06,0.1388888888888889
4.20724703715e-06,0.14444444444444443
4.86489711338e-06,0.15
5.32417882948e-06,0.15555555555555556
5.55951512916e-06,0.16111111111111112
5.78212434558e-06,0.16666666666666666
5.87360942383e-06,0.17222222222222222
5.92078228585e-06,0.17777777777777778
6.11694624868e-06,0.18333333333333332
6.32949847171e-06,0.18888888888888888
6.43634311167e-06,0.19444444444444445
6.50902998302e-06,0.2
6.54514211253e-06,0.20555555555555555
6.62030250633e-06,0.2111111111111111
6.68499483882e-06,0.21666666666666667
6.69966435678e-06,0.2222222222222222
6.92351735283e-06,0.22777777777777777
6.98127938424e-06,0.23333333333333334
7.06142012548e-06,0.2388888888888889
7.6471392494e-06,0.24444444444444444
8.04679015796e-06,0.25
8.73647354474e-06,0.25555555555555554
8.87487860871e-06,0.2611111111111111
9.0025945453e-06,0.26666666666666666
9.30746683387e-06,0.2722222222222222
3.2901190525e-05,0.2777777777777778
6.58023810499e-05,0.2833333333333333
7.21305057185e-05,0.28888888888888886
7.21305057185e-05,0.29444444444444445
7.42603604517e-05,0.3
7.42603604517e-05,0.3055555555555556
0.000112425908934,0.3111111111111111
0.000147614515265,0.31666666666666665
0.000148520720903,0.32222222222222224
0.000171241716409,0.3277777777777778
0.000197745164764,0.3333333333333333
0.000295516855563,0.3388888888888889
0.000307327884613,0.34444444444444444
0.000325451499151,0.35
0.000325451499151,0.35555555555555557
0.000415678658481,0.3611111111111111
0.000583425809734,0.36666666666666664
0.000632949847171,0.37222222222222223
0.000643634311167,0.37777777777777777
0.000664208734304,0.38333333333333336
0.000715554450077,0.3888888888888889
0.000757063174963,0.39444444444444443
0.000757063174963,0.4
0.000863279397529,0.40555555555555556
0.000912328440205,0.4111111111111111
0.000980997731954,0.4166666666666667
0.00104878017543,0.4222222222222222
0.00130291628285,0.42777777777777776
0.00137758470071,0.43333333333333335
0.00144941491025,0.4388888888888889
0.00178191128662,0.4444444444444444
0.00209206720127,0.45
0.00219038976479,0.45555555555555555
0.00270474384628,0.46111111111111114
0.00306403711926,0.4666666666666667
0.00545132525881,0.4722222222222222
0.00663202596369,0.4777777777777778
0.00694186613357,0.48333333333333334
0.00756277264708,0.4888888888888889
0.00774654514937,0.49444444444444446
0.00815013358946,0.5
0.0082394003588,0.5055555555555555
0.00872589007014,0.5111111111111111
0.00942401800856,0.5166666666666667
0.00948284180765,0.5222222222222223
0.00963843597758,0.5277777777777778
0.00978674308531,0.5333333333333333
0.00990012288261,0.5388888888888889
0.0101360804989,0.5444444444444444
0.0101878302541,0.55
0.0101936997082,0.5555555555555556
0.0102495929502,0.5611111111111111
0.0102784412699,0.5666666666666667
0.0102993074945,0.5722222222222222
0.0103475530183,0.5777777777777777
0.0103767831645,0.5833333333333334
0.0104500844485,0.5888888888888889
0.0104516921159,0.5944444444444444
0.0104650715172,0.6
0.0104969375428,0.6055555555555555
0.0105462403664,0.6111111111111112
0.0105561628156,0.6166666666666667
0.010573911361,0.6222222222222222
0.0106134480619,0.6277777777777778
0.0106915764564,0.6333333333333333
0.010715481618,0.6388888888888888
0.0107206202898,0.6444444444444445
0.0107381078926,0.65
0.0107416293011,0.6555555555555556
0.0107723481265,0.6611111111111111
0.0107902432061,0.6666666666666666
0.0107937115021,0.6722222222222223
0.0108048963914,0.6777777777777778
0.0108121253292,0.6833333333333333
0.010815971893,0.6888888888888889
0.010823347672,0.6944444444444444
0.0108314331367,0.7
0.0108545421688,0.7055555555555556
0.0108685333422,0.7111111111111111
0.0109281641882,0.7166666666666667
0.0109683365485,0.7222222222222222
0.0110391621526,0.7277777777777777
0.0110530951982,0.7333333333333333
0.0110664191297,0.7388888888888889
0.0110962221292,0.7444444444444445
0.261292302897,0.75
0.261292302897,0.7555555555555555
0.34165309834,0.7611111111111111
0.39466751417,0.7666666666666667
0.513922063494,0.7722222222222223
0.513922063494,0.7777777777777778
0.522584605794,0.7833333333333333
0.540606266462,0.7888888888888889
0.540606266462,0.7944444444444444
0.683306196679,0.8
1.02993074945,0.8055555555555556
1.04500844485,0.8111111111111111
1.07937115021,0.8166666666666667
1.08048963914,0.8222222222222222
1.2800753283,0.8277777777777777
1.31098605718,0.8333333333333334
1.58598409248,0.8388888888888889
1.5952303031,0.8444444444444444
1.62922651876,0.85
1.6840744985,0.8555555555555555
1.6840744985,0.8611111111111112
2.12274716827,0.8666666666666667
2.16251446388,0.8722222222222222
2.31483063014,0.8777777777777778
2.6775650703,0.8833333333333333
2.72179680116,0.8888888888888888
2.76952871538,0.8944444444444445
3.38637879194,0.9
4.92725316717,0.9055555555555556
5.42524127048,0.9111111111111111
6.05884683747,0.9166666666666666
6.4717484222,0.9222222222222223
7.16276305274,0.9277777777777778
12.4805987787,0.9333333333333333
13.1081521067,0.9388888888888889
14.2177743197,0.9444444444444444
15.2919372498,0.95
15.6771567362,0.9555555555555556
16.773990391,0.9611111111111111
17.9569456629,0.9666666666666667
18.3453035906,0.9722222222222222
18.9469579511,0.9777777777777777
18.9640821228,0.9833333333333333
19.4066483968,0.9888888888888889
20.4443267133,0.9944444444444445
20.5026692943,1.0
