Congestion,CDF
0.0,0.005555555555555556
0.0,0.011111111111111112
0.0,0.016666666666666666
0.0,0.022222222222222223
0.0,0.027777777777777776
0.0,0.03333333333333333
0.0,0.03888888888888889
0.0,0.044444444444444446
0.0,0.05
0.0,0.05555555555555555
3.63142054047e-07,0.06111111111111111
4.17232755482e-07,0.06666666666666667
9.39156363486e-07,0.07222222222222222
1.3726316559e-06,0.07777777777777778
1.40453996894e-06,0.08333333333333333
1.85447626457e-06,0.08888888888888889
2.04016933566e-06,0.09444444444444444
2.81181856939e-06,0.1
2.82632488208e-06,0.10555555555555556
2.89159565591e-06,0.1111111111111111
2.95110801228e-06,0.11666666666666667
3.24856701828e-06,0.12222222222222222
3.323916751e-06,0.12777777777777777
3.71179748545e-06,0.13333333333333333
3.80162632532e-06,0.1388888888888889
4.00316094408e-06,0.14444444444444443
4.62890958132e-06,0.15
5.06591235581e-06,0.15555555555555556
5.28983290892e-06,0.16111111111111112
5.501643747e-06,0.16666666666666666
5.58869104634e-06,0.17222222222222222
5.63357563647e-06,0.17777777777777778
5.82022403332e-06,0.18333333333333332
6.02246572493e-06,0.18888888888888888
6.12412752088e-06,0.19444444444444445
6.19328848099e-06,0.2
6.22764887514e-06,0.20555555555555555
6.29916337151e-06,0.2111111111111111
6.36071759367e-06,0.21666666666666667
6.37467551933e-06,0.2222222222222222
6.5876698035e-06,0.22777777777777777
6.6426299012e-06,0.23333333333333334
6.71888315719e-06,0.2388888888888889
7.27619008507e-06,0.24444444444444444
7.65645463675e-06,0.25
8.31268270545e-06,0.25555555555555554
8.4443739852e-06,0.2611111111111111
8.56589464819e-06,0.26666666666666666
8.85597812267e-06,0.2722222222222222
3.13052121162e-05,0.2777777777777778
6.26104242324e-05,0.2833333333333333
6.86315827949e-05,0.28888888888888886
6.86315827949e-05,0.29444444444444445
7.06581220519e-05,0.3
7.06581220519e-05,0.3055555555555556
0.000106972327457,0.3111111111111111
0.000140453996894,0.31666666666666665
0.000141316244104,0.32222222222222224
0.000188152897483,0.3277777777777778
0.000281181856939,0.3333333333333333
0.000292419953914,0.3388888888888889
0.000309664424049,0.34444444444444444
0.000309664424049,0.35
0.00039551482388,0.35555555555555557
0.000602246572493,0.3611111111111111
0.000612412752088,0.36666666666666664
0.000631989146442,0.37222222222222223
0.000680844172594,0.37777777777777777
0.000720339382844,0.38333333333333336
0.000720339382844,0.3888888888888889
0.000821403244806,0.39444444444444443
0.0008680730054,0.4
0.000933411271577,0.40555555555555556
0.000997905708923,0.4111111111111111
0.00123971412443,0.4166666666666667
0.00131076050975,0.4222222222222222
0.00137910636319,0.42777777777777776
0.00169547392997,0.43333333333333335
0.0019905847312,0.4388888888888889
0.00208413784151,0.4444444444444444
0.00257354151861,0.45
0.00291540611206,0.45555555555555555
0.00518689113733,0.46111111111111114
0.00631031814475,0.4666666666666667
0.00660512851743,0.4722222222222222
0.00719591595702,0.4777777777777778
0.0073707739811,0.48333333333333334
0.00775478506165,0.4888888888888889
0.0078397216583,0.49444444444444446
0.00830261261644,0.5
0.00896687560656,0.5055555555555555
0.00902284596746,0.5111111111111111
0.00917089254012,0.5166666666666667
0.00931200553305,0.5222222222222223
0.00964439720815,0.5277777777777778
0.0104921479794,0.5333333333333333
0.0105795479419,0.5388888888888889
0.0117991504645,0.5444444444444444
0.0118783772478,0.55
0.0119446822689,0.5555555555555556
0.0119451281429,0.5611111111111111
0.0119459768653,0.5666666666666667
0.0119534248444,0.5722222222222222
0.011959942393,0.5777777777777777
0.011966424371,0.5833333333333334
0.0119800947283,0.5888888888888889
0.011980355895,0.5944444444444444
0.011982152856,0.6
0.011984870983,0.6055555555555555
0.011986408553,0.6111111111111112
0.0119927142649,0.6166666666666667
0.0119936954644,0.6222222222222222
0.0119939429466,0.6277777777777778
0.0119942985294,0.6333333333333333
0.012003730435,0.6388888888888888
0.0120123603813,0.6444444444444445
0.0120144358813,0.65
0.0120154811076,0.6555555555555556
0.0120184476696,0.6611111111111111
0.0120231163954,0.6666666666666666
0.0120257079782,0.6722222222222223
0.0120274561545,0.6777777777777778
0.0120282656462,0.6833333333333333
0.01202892278,0.6888888888888889
0.01202966094,0.6944444444444444
0.0120307374301,0.7
0.0120340756555,0.7055555555555556
0.0120358875463,0.7111111111111111
0.0120437890645,0.7166666666666667
0.0120486798158,0.7222222222222222
0.0120585790706,0.7277777777777777
0.0120602898333,0.7333333333333333
0.0120623325968,0.7388888888888889
0.0120652372664,0.7444444444444445
0.299508897376,0.75
0.299508897376,0.7555555555555555
0.398447494812,0.7611111111111111
0.465020530388,0.7666666666666667
0.597234113444,0.7722222222222223
0.597234113444,0.7777777777777778
0.599017794752,0.7833333333333333
0.601413282308,0.7888888888888889
0.601413282308,0.7944444444444444
0.796894989624,0.8
1.1959942393,0.8055555555555556
1.19800947283,0.8111111111111111
1.20257079782,0.8166666666666667
1.20274561545,0.8222222222222222
1.49402171167,0.8277777777777777
1.49814975268,0.8333333333333334
1.7966284081,0.8388888888888889
1.80068470879,0.8444444444444444
1.80525105444,0.85
1.9007879485,0.8555555555555555
1.9007879485,0.8611111111111112
2.40037314575,0.8666666666666667
2.40564454082,0.8722222222222222
2.69066414876,0.8777777777777778
3.00365080279,0.8833333333333333
3.09783328562,0.8888888888888888
3.10419551406,0.8944444444444445
3.89221225952,0.9
5.50925276904,0.9055555555555556
6.19321892064,0.9111111111111111
6.89522376929,0.9166666666666666
7.39143420625,0.9222222222222223
8.10108167635,0.9277777777777778
14.1035792533,0.9333333333333333
14.7164060033,0.9388888888888889
15.9229297299,0.9444444444444444
17.1243733181,0.95
17.705797166,0.9555555555555556
18.9106651476,0.9611111111111111
20.1213747697,0.9666666666666667
20.7072688075,0.9722222222222222
21.3012898161,0.9777777777777777
21.9057559058,0.9833333333333333
22.3505046141,0.9888888888888889
23.0935936305,0.9944444444444445
24.1515484247,1.0
