Congestion,CDF
0.0,0.005555555555555556
0.0,0.011111111111111112
0.0,0.016666666666666666
0.0,0.022222222222222223
0.0,0.027777777777777776
0.0,0.03333333333333333
0.0,0.03888888888888889
0.0,0.044444444444444446
0.0,0.05
0.0,0.05555555555555555
3.18656074841e-07,0.06111111111111111
3.66120504842e-07,0.06666666666666667
8.24106922112e-07,0.07222222222222222
1.20448020491e-06,0.07777777777777778
1.23247965492e-06,0.08333333333333333
1.6272974192e-06,0.08888888888888889
1.79024253806e-06,0.09444444444444444
2.46736245086e-06,0.1
2.4800916972e-06,0.10555555555555556
2.53736660756e-06,0.1111111111111111
2.58958852368e-06,0.11666666666666667
2.85060791876e-06,0.12222222222222222
2.91672708563e-06,0.12777777777777777
3.25709127912e-06,0.13333333333333333
3.33591581955e-06,0.1388888888888889
3.51276184947e-06,0.14444444444444443
4.06185442181e-06,0.15
4.44532305967e-06,0.15555555555555556
4.64181268056e-06,0.16111111111111112
4.82767606245e-06,0.16666666666666666
4.90405980931e-06,0.17222222222222222
4.94344590397e-06,0.17777777777777778
5.10722931834e-06,0.18333333333333332
5.2846958026e-06,0.18888888888888888
5.37390372687e-06,0.19444444444444445
5.43459226414e-06,0.2
5.46474340805e-06,0.20555555555555555
5.5274971664e-06,0.2111111111111111
5.58151081369e-06,0.21666666666666667
5.59375885204e-06,0.2222222222222222
5.78066070436e-06,0.22777777777777777
5.828888027e-06,0.23333333333333334
5.89580003287e-06,0.2388888888888889
6.38483520832e-06,0.24444444444444444
6.71851622404e-06,0.25
7.29435440703e-06,0.25555555555555554
7.40991311423e-06,0.2611111111111111
7.51654713541e-06,0.26666666666666666
7.77109452347e-06,0.2722222222222222
2.74702307371e-05,0.2777777777777778
5.49404614741e-05,0.2833333333333333
6.02240102456e-05,0.28888888888888886
6.02240102456e-05,0.29444444444444445
6.20022924301e-05,0.3
6.20022924301e-05,0.3055555555555556
9.38678999142e-05,0.3111111111111111
0.000123247965492,0.31666666666666665
0.00012400458486,0.32222222222222224
0.000165103609217,0.3277777777777778
0.000246736245086,0.3333333333333333
0.000256597641834,0.3388888888888889
0.000271729613207,0.34444444444444444
0.000271729613207,0.35
0.000347063084306,0.35555555555555557
0.00052846958026,0.3611111111111111
0.000537390372687,0.36666666666666664
0.000554568600643,0.37222222222222223
0.000597438741119,0.37777777777777777
0.000632095670915,0.38333333333333336
0.000632095670915,0.3888888888888889
0.000720778909891,0.39444444444444443
0.000761731486324,0.4
0.00081906562101,0.40555555555555556
0.000875659298401,0.4111111111111111
0.00108784546546,0.4166666666666667
0.00115018845776,0.4222222222222222
0.00121016174135,0.42777777777777776
0.00148777334241,0.43333333333333335
0.00174673219478,0.4388888888888889
0.00182882477147,0.4444444444444444
0.00225827504587,0.45
0.00255826021217,0.45555555555555555
0.00455148158145,0.46111111111111114
0.00553728544682,0.4666666666666667
0.00579598067402,0.4722222222222222
0.00631439489917,0.4777777777777778
0.00646783229643,0.48333333333333334
0.0068048008801,0.4888888888888889
0.00687933249162,0.49444444444444446
0.0072855179338,0.5
0.0078684067365,0.5055555555555555
0.00791752056211,0.5111111111111111
0.00804743099031,0.5166666666666667
0.00817125722287,0.5222222222222223
0.00846292993143,0.5277777777777778
0.0180832364301,0.5333333333333333
0.0182499617344,0.5388888888888889
0.0207239383178,0.5444444444444444
0.0208519550755,0.55
0.020904042175,0.5555555555555556
0.0209054702126,0.5611111111111111
0.0209137378626,0.5666666666666667
0.0209185080298,0.5722222222222222
0.020930009807,0.5777777777777777
0.0209413106955,0.5833333333333334
0.0209652342503,0.5888888888888889
0.0209656507861,0.5944444444444444
0.0209687841815,0.6
0.0209762256867,0.6055555555555555
0.0209874264581,0.6111111111111112
0.0209874925558,0.6166666666666667
0.0209900389664,0.6222222222222222
0.0209915086203,0.6277777777777778
0.0210080434956,0.6333333333333333
0.0210216414094,0.6388888888888888
0.0210242663696,0.6444444444444445
0.0210271603387,0.65
0.0210291834634,0.6555555555555556
0.0210323952041,0.6611111111111111
0.0210404761516,0.6666666666666666
0.0210452336221,0.6722222222222223
0.0210480707386,0.6777777777777778
0.0210496209105,0.6833333333333333
0.0210506460732,0.6888888888888889
0.0210521500314,0.6944444444444444
0.0210540352268,0.7
0.0210596548107,0.7055555555555556
0.0210628719992,0.7111111111111111
0.0210767422403,0.7166666666666667
0.0210857016838,0.7222222222222222
0.0211026331819,0.7277777777777777
0.0211057539617,0.7333333333333333
0.0211090986777,0.7388888888888889
0.0211151027382,0.7444444444444445
0.524141269652,0.75
0.524141269652,0.7555555555555555
0.697283600994,0.7611111111111111
0.813455014174,0.7666666666666667
1.04568689313,0.7722222222222223
1.04568689313,0.7777777777777778
1.0482825393,0.7833333333333333
1.05248104553,0.7888888888888889
1.05248104553,0.7944444444444444
1.39456720199,0.8
2.0930009807,0.8055555555555556
2.09652342503,0.8111111111111111
2.10452336221,0.8166666666666667
2.10480707386,0.8222222222222222
2.61454548715,0.8277777777777777
2.62176383832,0.8333333333333334
3.1464912427,0.8388888888888889
3.15123030111,0.8444444444444444
3.15919240708,0.85
3.32638175285,0.8555555555555555
3.32638175285,0.8611111111111112
4.20067520473,0.8666666666666667
4.20992688489,0.8722222222222222
4.7086765567,0.8777777777777778
5.25644530425,0.8833333333333333
5.42121158025,0.8888888888888888
5.43234723393,0.8944444444444445
6.81139259057,0.9
9.64120192295,0.9055555555555556
10.8381403544,0.9111111111111111
12.066684261,0.9166666666666666
12.9350187725,0.9222222222222223
14.1769475792,0.9277777777777778
24.6812853028,0.9333333333333333
25.7538951645,0.9388888888888889
27.8654054384,0.9444444444444444
29.9683237847,0.95
30.9852000279,0.9555555555555556
33.0937701963,0.9611111111111111
35.2172416644,0.9666666666666667
36.2386079515,0.9722222222222222
37.2896354961,0.9777777777777777
38.3373505973,0.9833333333333333
39.0979591392,0.9888888888888889
40.4225461048,0.9944444444444445
42.2475422783,1.0
