Congestion,CDF
0.0,0.005555555555555556
0.0,0.011111111111111112
0.0,0.016666666666666666
0.0,0.022222222222222223
0.0,0.027777777777777776
0.0,0.03333333333333333
0.0,0.03888888888888889
0.0,0.044444444444444446
0.0,0.05
0.0,0.05555555555555555
2.98495468481e-07,0.06111111111111111
3.4295693772e-07,0.06666666666666667
7.71967651698e-07,0.07222222222222222
1.12827562826e-06,0.07777777777777778
1.15450362016e-06,0.08333333333333333
1.52434221047e-06,0.08888888888888889
1.67697818207e-06,0.09444444444444444
2.31125834036e-06,0.1
2.32318223779e-06,0.10555555555555556
2.37683350179e-06,0.1111111111111111
2.4257514624e-06,0.11666666666666667
2.67025678576e-06,0.12222222222222222
2.73219275136e-06,0.12777777777777777
3.05102291783e-06,0.13333333333333333
3.12486041845e-06,0.1388888888888889
3.29051782378e-06,0.14444444444444443
3.80487062469e-06,0.15
4.16407812061e-06,0.15555555555555556
4.34813631398e-06,0.16111111111111112
4.52224056502e-06,0.16666666666666666
4.59379169523e-06,0.17222222222222222
4.63068592605e-06,0.17777777777777778
4.78410715622e-06,0.18333333333333332
4.95034576122e-06,0.18888888888888888
5.03390971387e-06,0.19444444444444445
5.09075863279e-06,0.2
5.11900218607e-06,0.20555555555555555
5.17778566449e-06,0.2111111111111111
5.22838199773e-06,0.21666666666666667
5.23985513203e-06,0.2222222222222222
5.41493215198e-06,0.22777777777777777
5.46010824747e-06,0.23333333333333334
5.52278689104e-06,0.2388888888888889
5.98088198267e-06,0.24444444444444444
6.29345180001e-06,0.25
6.83285808087e-06,0.25555555555555554
6.94110566554e-06,0.2611111111111111
7.04099320769e-06,0.26666666666666666
7.2794359924e-06,0.2722222222222222
2.57322550566e-05,0.2777777777777778
5.14645101132e-05,0.2833333333333333
5.64137814132e-05,0.28888888888888886
5.64137814132e-05,0.29444444444444445
5.80795559446e-05,0.3
5.80795559446e-05,0.3055555555555556
8.79291027928e-05,0.3111111111111111
0.000115450362016,0.31666666666666665
0.000116159111889,0.32222222222222224
0.000154657899448,0.3277777777777778
0.000231125834036,0.3333333333333333
0.00024036332384,0.3388888888888889
0.00025453793164,0.34444444444444444
0.00025453793164,0.35
0.000325105234521,0.35555555555555557
0.000495034576122,0.3611111111111111
0.000503390971387,0.36666666666666664
0.000519482374018,0.37222222222222223
0.000559640223423,0.37777777777777777
0.000592104492308,0.38333333333333336
0.000592104492308,0.3888888888888889
0.000675176955238,0.39444444444444443
0.000713538560282,0.4
0.000767245301638,0.40555555555555556
0.000820258432658,0.4111111111111111
0.00101902008933,0.4166666666666667
0.00107741878987,0.4222222222222222
0.00113359770751,0.42777777777777776
0.00139364548772,0.43333333333333335
0.00163622063396,0.4388888888888889
0.00171311941002,0.4444444444444444
0.00211539939451,0.45
0.0023964052181,0.45555555555555555
0.00426352024708,0.46111111111111114
0.00518695466385,0.4666666666666667
0.00542928286386,0.4722222222222222
0.00591489826309,0.4777777777777778
0.00605862804386,0.48333333333333334
0.00637427743262,0.4888888888888889
0.00644409360766,0.49444444444444446
0.00682458067012,0.5
0.00737059149487,0.5055555555555555
0.00741659800641,0.5111111111111111
0.00753828931308,0.5166666666666667
0.00765428135659,0.5222222222222223
0.00792750063172,0.5277777777777778
0.0267676215521,0.5333333333333333
0.0270511492398,0.5388888888888889
0.0314686573189,0.5444444444444444
0.0316565540097,0.55
0.0316589475726,0.5555555555555556
0.0316710993526,0.5611111111111111
0.0316813017864,0.5666666666666667
0.0316841190875,0.5722222222222222
0.0317011107131,0.5777777777777777
0.0317204430181,0.5833333333333334
0.0317614552434,0.5888888888888889
0.0317621307187,0.5944444444444444
0.0317674915073,0.6
0.0317802426902,0.6055555555555555
0.0317997782747,0.6111111111111112
0.0318039281424,0.6166666666666667
0.0318089720621,0.6222222222222222
0.0318150944695,0.6277777777777778
0.0318542929472,0.6333333333333333
0.031858098237,0.6388888888888888
0.031867614174,0.6444444444444445
0.0318749361926,0.65
0.03187662987,0.6555555555555556
0.0318825732787,0.6611111111111111
0.0318903975297,0.6666666666666666
0.0318987650342,0.6722222222222223
0.031903416829,0.6777777777777778
0.0319062015312,0.6833333333333333
0.0319078400312,0.6888888888888889
0.0319106205254,0.6944444444444444
0.0319138536198,0.7
0.0319232751845,0.7055555555555556
0.0319288345462,0.7111111111111111
0.0319526527769,0.7166666666666667
0.0319683993804,0.7222222222222222
0.0319970452327,0.7277777777777777
0.0320025166811,0.7333333333333333
0.0320080305934,0.7388888888888889
0.0320192115591,0.7444444444444445
0.794053267967,0.75
0.794053267967,0.7555555555555555
1.05604339288,0.7611111111111111
1.23170530251,0.7666666666666667
1.58420595437,0.7722222222222223
1.58420595437,0.7777777777777778
1.58810653593,0.7833333333333333
1.59531007656,0.7888888888888889
1.59531007656,0.7944444444444444
2.11208678576,0.8
3.17011107131,0.8055555555555556
3.17614552434,0.8111111111111111
3.18987650342,0.8166666666666667
3.1903416829,0.8222222222222222
3.95970866893,0.8277777777777777
3.97207753698,0.8333333333333334
4.76963524909,0.8388888888888889
4.77528790403,0.8444444444444444
4.78890959527,0.85
5.04069459764,0.8555555555555555
5.04069459764,0.8611111111111112
6.36537634899,0.8666666666666667
6.38126186539,0.8722222222222222
7.13175297074,0.8777777777777778
7.96634995658,0.8833333333333333
8.21393075356,0.8888888888888888
8.23302211608,0.8944444444444445
10.3185143881,0.9
14.612403552,0.9055555555555556
16.4205201085,0.9111111111111111
18.2828534437,0.9166666666666666
19.5972692592,0.9222222222222223
21.4825579669,0.9277777777777778
37.4004568143,0.9333333333333333
39.030421457,0.9388888888888889
42.2323426129,0.9444444444444444
45.4198362322,0.95
46.9534961503,0.9555555555555556
50.1503360883,0.9611111111111111
53.3777288091,0.9666666666666667
54.9154392489,0.9722222222222222
56.524594541,0.9777777777777777
58.0969486958,0.9833333333333333
59.2013566962,0.9888888888888889
61.2640586311,0.9944444444444445
63.9691735551,1.0
