Congestion,CDF
0.0,0.005555555555555556
0.0,0.011111111111111112
0.0,0.016666666666666666
0.0,0.022222222222222223
0.0,0.027777777777777776
0.0,0.03333333333333333
0.0,0.03888888888888889
0.0,0.044444444444444446
0.0,0.05
0.0,0.05555555555555555
4.44014323395e-07,0.06111111111111111
5.10151103566e-07,0.06666666666666667
1.14830786643e-06,0.07222222222222222
1.67831874379e-06,0.07777777777777778
1.71733308505e-06,0.08333333333333333
2.26747085525e-06,0.08888888888888889
2.49451804628e-06,0.09444444444444444
3.43801469888e-06,0.1
3.45575158874e-06,0.10555555555555556
3.53555825987e-06,0.1111111111111111
3.6083241055e-06,0.11666666666666667
3.97202766947e-06,0.12222222222222222
4.06415789845e-06,0.12777777777777777
4.53842024275e-06,0.13333333333333333
4.64825409733e-06,0.1388888888888889
4.89467077199e-06,0.14444444444444443
5.65977455076e-06,0.15
6.19409848564e-06,0.15555555555555556
6.46788647514e-06,0.16111111111111112
6.72686789828e-06,0.16666666666666666
6.83330075916e-06,0.17222222222222222
6.88818121351e-06,0.17777777777777778
7.11639648276e-06,0.18333333333333332
7.36367769643e-06,0.18888888888888888
7.48797972381e-06,0.19444444444444445
7.57254293142e-06,0.2
7.61455543587e-06,0.20555555555555555
7.70199631573e-06,0.2111111111111111
7.77725875366e-06,0.21666666666666667
7.79432512988e-06,0.2222222222222222
8.0547535543e-06,0.22777777777777777
8.12195334656e-06,0.23333333333333334
8.21518831478e-06,0.2388888888888889
8.89660831487e-06,0.24444444444444444
9.3615583413e-06,0.25
1.01639293657e-05,0.25555555555555554
1.03249484871e-05,0.2611111111111111
1.04735319804e-05,0.26666666666666666
1.08282174711e-05,0.2722222222222222
3.82769288811e-05,0.2777777777777778
7.65538577622e-05,0.2833333333333333
8.39159371893e-05,0.28888888888888886
8.39159371893e-05,0.29444444444444445
8.63937897184e-05,0.3
8.63937897184e-05,0.3055555555555556
0.000130795222058,0.3111111111111111
0.000171733308505,0.31666666666666665
0.000172787579437,0.32222222222222224
0.000175617396502,0.3277777777777778
0.000230054824385,0.3333333333333333
0.000343801469888,0.3388888888888889
0.000357542307583,0.34444444444444444
0.000378627146571,0.35
0.000378627146571,0.35555555555555557
0.000483596556666,0.3611111111111111
0.000512226752747,0.36666666666666664
0.000736367769643,0.37222222222222223
0.000748797972381,0.37777777777777777
0.000772734058541,0.38333333333333336
0.000832469170846,0.3888888888888889
0.000880760022486,0.39444444444444443
0.000880760022486,0.4
0.0010043309551,0.40555555555555556
0.00106139413999,0.4111111111111111
0.00114128333411,0.4166666666666667
0.00122014077748,0.4222222222222222
0.00151580028263,0.42777777777777776
0.00160266880242,0.43333333333333335
0.00168623537792,0.4388888888888889
0.00207305846695,0.4444444444444444
0.0024338908775,0.45
0.00254827840303,0.45555555555555555
0.00314667299857,0.46111111111111114
0.00356467133961,0.4666666666666667
0.00625675481705,0.4722222222222222
0.00634201941966,0.4777777777777778
0.00660970960745,0.48333333333333334
0.00661615839107,0.4888888888888889
0.00667764147098,0.49444444444444446
0.00670871867089,0.5
0.00673233939432,0.5055555555555555
0.00678200079214,0.5111111111111111
0.00678540466308,0.5166666666666667
0.00689818920145,0.5222222222222223
0.00689995233951,0.5277777777777778
0.00691466815626,0.5333333333333333
0.00694972001542,0.5388888888888889
0.00700398287606,0.5444444444444444
0.0070148685859,0.55
0.00703445405809,0.5555555555555556
0.00707590681055,0.5611111111111111
0.0071638228232,0.5666666666666667
0.00719012614908,0.5722222222222222
0.00719419006953,0.5777777777777777
0.00721501924856,0.5833333333333334
0.00721898181704,0.5888888888888889
0.00725267318632,0.5944444444444444
0.00726981225811,0.6
0.00727620062716,0.6055555555555555
0.00728847627883,0.6111111111111112
0.00729644529712,0.6166666666666667
0.00730066037474,0.6222222222222222
0.00730880060653,0.6277777777777778
0.00731769442426,0.6333333333333333
0.00734308664856,0.6388888888888888
0.00735848302098,0.6444444444444445
0.00742408179205,0.65
0.00746830431519,0.6555555555555556
0.00754618102824,0.6611111111111111
0.00756152134371,0.6666666666666666
0.00757615054548,0.6722222222222223
0.00760901819018,0.6777777777777778
0.00771563527336,0.6833333333333333
0.00807610034948,0.6888888888888889
0.00879845702048,0.6944444444444444
0.00901225618361,0.7
0.00948178709639,0.7055555555555556
0.009585639198,0.7111111111111111
0.0101516166531,0.7166666666666667
0.0109638119877,0.7222222222222222
0.0110322470303,0.7277777777777777
0.0112132637924,0.7333333333333333
0.0113858028563,0.7388888888888889
0.0117922186461,0.7444444444444445
0.172498808488,0.75
0.172498808488,0.7555555555555555
0.222588049033,0.7611111111111111
0.263828044044,0.7666666666666667
0.335435933544,0.7722222222222223
0.335435933544,0.7777777777777778
0.344997616976,0.7833333333333333
0.364822264856,0.7888888888888889
0.364822264856,0.7944444444444444
0.445176098065,0.8
0.673233939432,0.8055555555555556
0.689818920145,0.8111111111111111
0.727620062716,0.8166666666666667
0.728847627883,0.8222222222222222
0.833469769233,0.8277777777777777
0.86747081003,0.8333333333333334
1.0548549405,0.8388888888888889
1.06522055246,0.8444444444444444
1.10261267152,0.85
1.12463781409,0.8555555555555555
1.12463781409,0.8611111111111112
1.41564211864,0.8666666666666667
1.45938950514,0.8722222222222222
1.51201023554,0.8777777777777778
1.79610061311,0.8833333333333333
1.80644114138,0.8888888888888888
1.85894647895,0.8944444444444445
2.23102285045,0.9
3.31306142546,0.9055555555555556
3.59269479458,0.9111111111111111
4.02151233755,0.9166666666666666
4.2841616102,0.9222222222222223
4.77613044037,0.9277777777777778
8.32728907314,0.9333333333333333
8.787772693,0.9388888888888889
9.54867451202,0.9444444444444444
10.2705726937,0.95
10.4644331166,0.9555555555555556
11.2112635482,0.9611111111111111
12.05240886,0.9666666666666667
12.2501448875,0.9722222222222222
12.6780843417,0.9777777777777777
12.6956460814,0.9833333333333333
12.9577355686,0.9888888888888889
13.6359356478,0.9944444444444445
13.687158323,1.0
