Congestion,CDF
0.0,0.007352941176470588
0.0,0.014705882352941176
0.0,0.022058823529411766
0.0,0.029411764705882353
0.0,0.03676470588235294
0.0,0.04411764705882353
0.0,0.051470588235294115
0.0,0.058823529411764705
0.0,0.0661764705882353
0.0,0.07352941176470588
0.0,0.08088235294117647
0.0,0.08823529411764706
0.0,0.09558823529411764
0.0,0.10294117647058823
6.22992782264e-06,0.11029411764705882
6.22992782264e-06,0.11764705882352941
6.22992782264e-06,0.125
6.22992782264e-06,0.1323529411764706
6.22992782264e-06,0.13970588235294118
6.22992782264e-06,0.14705882352941177
6.22992782264e-06,0.15441176470588236
6.22992782264e-06,0.16176470588235295
6.22992782264e-06,0.16911764705882354
6.22992782264e-06,0.17647058823529413
6.22992782264e-06,0.18382352941176472
6.22992782264e-06,0.19117647058823528
6.22992782264e-06,0.19852941176470587
6.22992782264e-06,0.20588235294117646
6.22992782264e-06,0.21323529411764705
6.22992782264e-06,0.22058823529411764
6.22992782264e-06,0.22794117647058823
6.22992782264e-06,0.23529411764705882
6.22992782264e-06,0.2426470588235294
6.22992782264e-06,0.25
6.22992782264e-06,0.25735294117647056
6.22992782264e-06,0.2647058823529412
6.22992782264e-06,0.27205882352941174
6.22992782264e-06,0.27941176470588236
6.22992782264e-06,0.2867647058823529
6.22992782264e-06,0.29411764705882354
6.22992782264e-06,0.3014705882352941
0.000155748195566,0.3088235294117647
0.000155748195566,0.3161764705882353
0.000168208051211,0.3235294117647059
0.000311496391132,0.33088235294117646
0.000311496391132,0.3382352941176471
0.000311496391132,0.34558823529411764
0.000311496391132,0.35294117647058826
0.000467244586698,0.3602941176470588
0.000519160651887,0.36764705882352944
0.000519160651887,0.375
0.000519160651887,0.38235294117647056
0.000622992782264,0.3897058823529412
0.000622992782264,0.39705882352941174
0.000622992782264,0.40441176470588236
0.000622992782264,0.4117647058823529
0.000622992782264,0.41911764705882354
0.000622992782264,0.4264705882352941
0.000622992782264,0.4338235294117647
0.00077874097783,0.4411764705882353
0.000934489173396,0.4485294117647059
0.000934489173396,0.45588235294117646
0.00114215343415,0.4632352941176471
0.00124598556453,0.47058823529411764
0.00124598556453,0.47794117647058826
0.00186897834679,0.4852941176470588
0.00254388719425,0.49264705882352944
0.00314390863038,0.5
0.00355173342358,0.5073529411764706
0.00451669767142,0.5147058823529411
0.00460104733436,0.5220588235294118
0.00460104733436,0.5294117647058824
0.00460104733436,0.5367647058823529
0.00460104733436,0.5441176470588235
0.00462052980179,0.5514705882352942
0.00478401715515,0.5588235294117647
0.00497522173507,0.5661764705882353
0.00497522173507,0.5735294117647058
0.00501790823365,0.5808823529411765
0.00501790823365,0.5882352941176471
0.00501790823365,0.5955882352941176
0.00506407741395,0.6029411764705882
0.00517850371584,0.6102941176470589
0.00523441296405,0.6176470588235294
0.00537080529042,0.625
0.00563268976846,0.6323529411764706
0.00563268976846,0.6397058823529411
0.00570485585046,0.6470588235294118
0.00577818151216,0.6544117647058824
0.00581975996274,0.6617647058823529
0.00581975996274,0.6691176470588235
0.00581975996274,0.6764705882352942
0.00581975996274,0.6838235294117647
0.00582057768919,0.6911764705882353
0.00582057768919,0.6985294117647058
0.00582057768919,0.7058823529411765
0.0059703474967,0.7132352941176471
0.00742399732198,0.7205882352941176
0.00752782945236,0.7279411764705882
0.00804699010425,0.7352941176470589
0.00815082223462,0.7426470588235294
0.00877381501689,0.75
0.129462592896,0.7573529411764706
0.134270132261,0.7647058823529411
0.13922500592,0.7720588235294118
0.239200857758,0.7794117647058824
0.239200857758,0.7867647058823529
0.285242792523,0.7941176470588235
0.285242792523,0.8014705882352942
0.388387778688,0.8088235294117647
0.438213157292,0.8161764705882353
0.438213157292,0.8235294117647058
0.438213157292,0.8308823529411765
0.460104733436,0.8382352941176471
0.501790823365,0.8455882352941176
0.537080529042,0.8529411764705882
0.581975996274,0.8602941176470589
0.581975996274,0.8676470588235294
0.582057768919,0.875
0.582057768919,0.8823529411764706
0.631253416261,0.8897058823529411
0.699305591194,0.8970588235294118
0.848511769369,0.9044117647058824
0.920209466872,0.9117647058823529
0.935735330798,0.9191176470588235
1.16395199255,0.9264705882352942
1.74617330676,0.9338235294117647
2.07304822028,0.9411764705882353
3.74550658234,0.9485294117647058
4.20834742411,0.9558823529411765
5.50962152514,0.9632352941176471
5.82512637385,0.9705882352941176
6.13951723688,0.9779411764705882
6.92140227136,0.9852941176470589
7.42781001276,0.9926470588235294
7.78298335511,1.0
