Congestion,CDF
0.0,0.007352941176470588
0.0,0.014705882352941176
0.0,0.022058823529411766
0.0,0.029411764705882353
0.0,0.03676470588235294
0.0,0.04411764705882353
0.0,0.051470588235294115
0.0,0.058823529411764705
0.0,0.0661764705882353
0.0,0.07352941176470588
0.0,0.08088235294117647
0.0,0.08823529411764706
0.0,0.09558823529411764
0.0,0.10294117647058823
6.55779655104e-06,0.11029411764705882
6.55779655104e-06,0.11764705882352941
6.55779655104e-06,0.125
6.55779655104e-06,0.1323529411764706
6.55779655104e-06,0.13970588235294118
6.55779655104e-06,0.14705882352941177
6.55779655104e-06,0.15441176470588236
6.55779655104e-06,0.16176470588235295
6.55779655104e-06,0.16911764705882354
6.55779655104e-06,0.17647058823529413
6.55779655104e-06,0.18382352941176472
6.55779655104e-06,0.19117647058823528
6.55779655104e-06,0.19852941176470587
6.55779655104e-06,0.20588235294117646
6.55779655104e-06,0.21323529411764705
6.55779655104e-06,0.22058823529411764
6.55779655104e-06,0.22794117647058823
6.55779655104e-06,0.23529411764705882
6.55779655104e-06,0.2426470588235294
6.55779655104e-06,0.25
6.55779655104e-06,0.25735294117647056
6.55779655104e-06,0.2647058823529412
6.55779655104e-06,0.27205882352941174
6.55779655104e-06,0.27941176470588236
6.55779655104e-06,0.2867647058823529
6.55779655104e-06,0.29411764705882354
6.55779655104e-06,0.3014705882352941
0.000163944913776,0.3088235294117647
0.000163944913776,0.3161764705882353
0.000177060506878,0.3235294117647059
0.000327889827552,0.33088235294117646
0.000327889827552,0.3382352941176471
0.000327889827552,0.34558823529411764
0.000327889827552,0.35294117647058826
0.000428101328262,0.3602941176470588
0.000491834741328,0.36764705882352944
0.00054648304592,0.375
0.00054648304592,0.38235294117647056
0.00054648304592,0.3897058823529412
0.000655779655104,0.39705882352941174
0.000655779655104,0.40441176470588236
0.000655779655104,0.4117647058823529
0.000655779655104,0.41911764705882354
0.000655779655104,0.4264705882352941
0.000655779655104,0.4338235294117647
0.000655779655104,0.4411764705882353
0.000819724568881,0.4485294117647059
0.000983669482657,0.45588235294117646
0.000983669482657,0.4632352941176471
0.00120226270102,0.47058823529411764
0.00131155931021,0.47794117647058826
0.00131155931021,0.4852941176470588
0.0014891305321,0.49264705882352944
0.00196733896531,0.5
0.00267776692501,0.5073529411764706
0.00403696542082,0.5147058823529411
0.00409024862408,0.5220588235294118
0.00419246954408,0.5294117647058824
0.00419246954408,0.5367647058823529
0.00451601575871,0.5441176470588235
0.00470906493549,0.5514705882352942
0.00475440249951,0.5588235294117647
0.00486369910869,0.5661764705882353
0.00497297998579,0.5735294117647058
0.00500319367015,0.5808823529411765
0.00511072426334,0.5882352941176471
0.00511077560383,0.5955882352941176
0.00511194820843,0.6029411764705882
0.00526572102901,0.6102941176470589
0.00531927964085,0.6176470588235294
0.00547039015315,0.625
0.00572186991439,0.6323529411764706
0.00572976340613,0.6397058823529411
0.0058233592915,0.6470588235294118
0.0059186028376,0.6544117647058824
0.00596711646473,0.6617647058823529
0.00596712122377,0.6691176470588235
0.00596758345602,0.6764705882352942
0.00596758561465,0.6838235294117647
0.00596879722203,0.6911764705882353
0.00596879866501,0.6985294117647058
0.00596879866501,0.7058823529411765
0.00628455502808,0.7132352941176471
0.00781470755666,0.7205882352941176
0.00792400416585,0.7279411764705882
0.00847048721177,0.7352941176470589
0.00857978382095,0.7426470588235294
0.00923556347605,0.75
0.131643025725,0.7573529411764706
0.133988875003,0.7647058823529411
0.136759753829,0.7720588235294118
0.225800787936,0.7794117647058824
0.225800787936,0.7867647058823529
0.291167964575,0.7941176470588235
0.291167964575,0.8014705882352942
0.394929077176,0.8088235294117647
0.419246954408,0.8161764705882353
0.445712100915,0.8235294117647058
0.445712100915,0.8308823529411765
0.445712100915,0.8382352941176471
0.511077560383,0.8455882352941176
0.547039015315,0.8529411764705882
0.596712122377,0.8602941176470589
0.596758561465,0.8676470588235294
0.596879866501,0.875
0.596879866501,0.8823529411764706
0.634825650344,0.8897058823529411
0.642837846568,0.8970588235294118
0.838493908817,0.9044117647058824
0.864144305188,0.9117647058823529
0.946031467931,0.9191176470588235
1.19351690707,0.9264705882352942
1.79063945521,0.9338235294117647
2.1106999342,0.9411764705882353
3.77983018864,0.9485294117647058
4.31433988495,0.9558823529411765
5.6430802342,0.9632352941176471
5.65684628989,0.9705882352941176
5.8057593431,0.9779411764705882
7.07941153083,0.9852941176470589
7.55031802438,0.9926470588235294
7.5931281572,1.0
