Congestion,CDF
0.0,0.005555555555555556
0.0,0.011111111111111112
0.0,0.016666666666666666
0.0,0.022222222222222223
0.0,0.027777777777777776
0.0,0.03333333333333333
0.0,0.03888888888888889
0.0,0.044444444444444446
0.0,0.05
0.0,0.05555555555555555
1.12926762276e-06,0.06111111111111111
1.2974741886e-06,0.06666666666666667
2.92050689854e-06,0.07222222222222222
4.26849071792e-06,0.07777777777777778
4.36771641874e-06,0.08333333333333333
5.76688923639e-06,0.08888888888888889
6.34434142243e-06,0.09444444444444444
8.74394919592e-06,0.1
8.78905966734e-06,0.10555555555555556
8.99203305139e-06,0.1111111111111111
9.1770994089e-06,0.11666666666666667
1.01021115931e-05,0.12222222222222222
1.03364276482e-05,0.12777777777777777
1.15426254708e-05,0.13333333333333333
1.18219673959e-05,0.1388888888888889
1.24486822511e-05,0.14444444444444443
1.43945810204e-05,0.15
1.57535342972e-05,0.15555555555555556
1.64498629869e-05,0.16111111111111112
1.71085339366e-05,0.16666666666666666
1.73792260685e-05,0.17222222222222222
1.75188042689e-05,0.17777777777777778
1.8099227244e-05,0.18333333333333332
1.8728140893e-05,0.18888888888888888
1.90442799172e-05,0.19444444444444445
1.92593506647e-05,0.2
1.93662016345e-05,0.20555555555555555
1.95885912046e-05,0.2111111111111111
1.97800071791e-05,0.21666666666666667
1.98234123241e-05,0.2222222222222222
2.04857634516e-05,0.22777777777777777
2.06566735905e-05,0.23333333333333334
2.08937993438e-05,0.2388888888888889
2.2626864029e-05,0.24444444444444444
2.38093777079e-05,0.25
2.58500587661e-05,0.25555555555555554
2.62595808712e-05,0.2611111111111111
2.66374752756e-05,0.26666666666666666
2.75395516723e-05,0.2722222222222222
9.73502299515e-05,0.2777777777777778
0.000194700459903,0.2833333333333333
0.000213424535896,0.28888888888888886
0.000213424535896,0.29444444444444445
0.000219726491683,0.3
0.000219726491683,0.3055555555555556
0.00033265325396,0.3111111111111111
0.000436771641874,0.31666666666666665
0.000439452983367,0.32222222222222224
0.000585101540536,0.3277777777777778
0.000874394919592,0.3333333333333333
0.000909342177599,0.3388888888888889
0.000962967533237,0.34444444444444444
0.000962967533237,0.35
0.00122993765099,0.35555555555555557
0.0018728140893,0.3611111111111111
0.00190442799172,0.36666666666666664
0.00196530496279,0.37222222222222223
0.00211723008032,0.37777777777777777
0.00224004885521,0.38333333333333336
0.00224004885521,0.3888888888888889
0.00255432847629,0.39444444444444443
0.00269945804477,0.4
0.00290264131066,0.40555555555555556
0.00310320051092,0.4111111111111111
0.00334450566773,0.4166666666666667
0.00334469877278,0.4222222222222222
0.00334656205212,0.42777777777777776
0.00334810956892,0.43333333333333335
0.00334822348233,0.4388888888888889
0.0033498297653,0.4444444444444444
0.00335049269385,0.45
0.00335324749944,0.45555555555555555
0.00335329928731,0.46111111111111114
0.00335353230548,0.4666666666666667
0.00335374476596,0.4722222222222222
0.00335480670148,0.4777777777777778
0.00335507570177,0.48333333333333334
0.00335646044495,0.4888888888888889
0.00335678113598,0.49444444444444446
0.00335750061923,0.5
0.00335973455631,0.5055555555555555
0.00336129466631,0.5111111111111111
0.00336209406785,0.5166666666666667
0.00336285023744,0.5222222222222223
0.0033631609983,0.5277777777777778
0.00336332123733,0.5333333333333333
0.00336398757642,0.5388888888888889
0.00336470958392,0.5444444444444444
0.00336507251888,0.55
0.00336531942511,0.5555555555555556
0.00336544209251,0.5611111111111111
0.00336569740091,0.5666666666666667
0.00336591715091,0.5722222222222222
0.00336596698102,0.5777777777777777
0.00336672737554,0.5833333333333334
0.00336692358436,0.5888888888888889
0.00336719581024,0.5944444444444444
0.00336918540884,0.6
0.00337054296207,0.6055555555555555
0.00337288571143,0.6111111111111112
0.00337335585234,0.6166666666666667
0.00337378968392,0.6222222222222222
0.00337482528862,0.6277777777777778
0.00385515532171,0.6333333333333333
0.00407608920078,0.6388888888888888
0.00428862520037,0.6444444444444445
0.00527243758473,0.65
0.00619014752562,0.6555555555555556
0.0064810708635,0.6611111111111111
0.0080029759165,0.6666666666666666
0.00906607674011,0.6722222222222223
0.0161297436056,0.6777777777777778
0.0196232793497,0.6833333333333333
0.020540055044,0.6888888888888889
0.022377234517,0.6944444444444444
0.0229209928148,0.7
0.0241151571238,0.7055555555555556
0.0243792855758,0.7111111111111111
0.0258187436778,0.7166666666666667
0.0278844110369,0.7222222222222222
0.0280584628045,0.7277777777777777
0.0285188451791,0.7333333333333333
0.0289576661096,0.7388888888888889
0.0299913088744,0.7444444444444445
0.0838324821827,0.75
0.0838324821827,0.7555555555555555
0.111552068404,0.7611111111111111
0.131056870635,0.7666666666666667
0.167405478446,0.7722222222222223
0.167405478446,0.7777777777777778
0.167664964365,0.7833333333333333
0.168265971255,0.7888888888888889
0.168265971255,0.7944444444444444
0.223104136808,0.8
0.334822348233,0.8055555555555556
0.335324749944,0.8111111111111111
0.336470958392,0.8166666666666667
0.336507251888,0.8222222222222222
0.418283048956,0.8277777777777777
0.419313152331,0.8333333333333334
0.503737602179,0.8388888888888889
0.50391201575,0.8444444444444444
0.505043932757,0.85
0.531913091581,0.8555555555555555
0.531913091581,0.8611111111111112
0.671740889118,0.8666666666666667
0.673067656495,0.8722222222222222
0.753266025485,0.8777777777777778
0.840481755842,0.8833333333333333
0.866994687366,0.8888888888888888
0.868585829135,0.8944444444444445
1.08947543227,0.9
1.54149183867,0.9055555555555556
1.73337765623,0.9111111111111111
1.92978573449,0.9166666666666666
2.06875213282,0.9222222222222223
2.26707430564,0.9277777777777778
3.94678818074,0.9333333333333333
4.11795930321,0.9388888888888889
4.45544183207,0.9444444444444444
4.7917579319,0.95
4.9548140936,0.9555555555555556
5.29186838981,0.9611111111111111
5.63208724917,0.9666666666666667
5.79502393017,0.9722222222222222
5.96744047972,0.9777777777777777
6.13099738581,0.9833333333333333
6.30294804989,0.9888888888888889
6.46768974424,0.9944444444444445
6.80273901363,1.0
