Congestion,CDF
0.0,0.005555555555555556
0.0,0.011111111111111112
0.0,0.016666666666666666
0.0,0.022222222222222223
0.0,0.027777777777777776
0.0,0.03333333333333333
0.0,0.03888888888888889
0.0,0.044444444444444446
0.0,0.05
0.0,0.05555555555555555
1.05259717398e-06,0.06111111111111111
1.20938353027e-06,0.06666666666666667
2.72222212525e-06,0.07222222222222222
3.97868598753e-06,0.07777777777777778
4.07117486277e-06,0.08333333333333333
5.37535229962e-06,0.08888888888888889
5.91359897108e-06,0.09444444444444444
8.1502878747e-06,0.1
8.19233561765e-06,0.10555555555555556
8.38152833525e-06,0.1111111111111111
8.55402980522e-06,0.11666666666666667
9.41623925082e-06,0.12222222222222222
9.63464666146e-06,0.12777777777777777
1.07589509396e-05,0.13333333333333333
1.10193272357e-05,0.1388888888888889
1.16034919387e-05,0.14444444444444443
1.34172759382e-05,0.15
1.46839644981e-05,0.15555555555555556
1.53330166769e-05,0.16111111111111112
1.59469678486e-05,0.16666666666666666
1.61992816202e-05,0.17222222222222222
1.63293833041e-05,0.17777777777777778
1.6870399066e-05,0.18333333333333332
1.7456613278e-05,0.18888888888888888
1.77512883726e-05,0.19444444444444445
1.79517571157e-05,0.2
1.80513535502e-05,0.20555555555555555
1.82586442122e-05,0.2111111111111111
1.84370641984e-05,0.21666666666666667
1.84775223963e-05,0.2222222222222222
1.90949038841e-05,0.22777777777777777
1.92542102571e-05,0.23333333333333334
1.94752366045e-05,0.2388888888888889
2.10906366684e-05,0.24444444444444444
2.2192864813e-05,0.25
2.40949959567e-05,0.25555555555555554
2.44767139851e-05,0.2611111111111111
2.48289516426e-05,0.26666666666666666
2.56697825022e-05,0.2722222222222222
9.07407375082e-05,0.2777777777777778
0.000181481475016,0.2833333333333333
0.000198934299377,0.28888888888888886
0.000198934299377,0.29444444444444445
0.000204808390441,0.3
0.000204808390441,0.3055555555555556
0.00031006810784,0.3111111111111111
0.000407117486277,0.31666666666666665
0.000409616780882,0.32222222222222224
0.000545376680999,0.3277777777777778
0.00081502878747,0.3333333333333333
0.000847603337802,0.3388888888888889
0.000897587855786,0.34444444444444444
0.000897587855786,0.35
0.00114643231552,0.35555555555555557
0.0017456613278,0.3611111111111111
0.00177512883726,0.36666666666666664
0.00183187262979,0.37222222222222223
0.00197348294974,0.37777777777777777
0.00208796307186,0.38333333333333336
0.00208796307186,0.3888888888888889
0.00238090500549,0.39444444444444443
0.00251618115311,0.4
0.00270556950284,0.40555555555555556
0.00289251194514,0.4111111111111111
0.00359341356743,0.4166666666666667
0.00379934737096,0.4222222222222222
0.00399745346027,0.42777777777777776
0.00491447092773,0.43333333333333335
0.00576987390825,0.4388888888888889
0.00604104530919,0.4444444444444444
0.00745962220413,0.45
0.00845054490486,0.45555555555555555
0.0150346314674,0.46111111111111114
0.0176757457776,0.4666666666666667
0.01781917807,0.4722222222222222
0.0182909772418,0.4777777777777778
0.0191455094054,0.48333333333333334
0.0199182542503,0.4888888888888889
0.0200273101814,0.49444444444444446
0.0200669962293,0.5
0.0200681868473,0.5055555555555555
0.0200765489653,0.5111111111111111
0.020079363962,0.5166666666666667
0.0200892571016,0.5222222222222223
0.020098940754,0.5277777777777778
0.0201194434969,0.5333333333333333
0.0201197799795,0.5388888888888889
0.0201224584905,0.5444444444444444
0.0201288344123,0.55
0.0201385788706,0.5555555555555556
0.0201401542578,0.5611111111111111
0.0201406771516,0.5666666666666667
0.0201424549837,0.5722222222222222
0.020158158831,0.5777777777777777
0.02016776219,0.5833333333333334
0.0201722089491,0.5888888888888889
0.020172526377,0.5944444444444444
0.0201750334731,0.6
0.0201770163553,0.6055555555555555
0.0201839118553,0.6111111111111112
0.0201880721867,0.6166666666666667
0.020190421506,0.6222222222222222
0.0201918035835,0.6277777777777778
0.0201926313893,0.6333333333333333
0.0201939999387,0.6388888888888888
0.0201956164726,0.6444444444444445
0.0202003506885,0.65
0.0202031331881,0.6555555555555556
0.0202150281245,0.6611111111111111
0.0202228174056,0.6666666666666666
0.0202372329913,0.6722222222222223
0.0202399472959,0.6777777777777778
0.0202427283911,0.6833333333333333
0.0202481451376,0.6888888888888889
0.020857955492,0.6944444444444444
0.0213647958867,0.7
0.022477883654,0.7055555555555556
0.0227240793799,0.7111111111111111
0.0240658069737,0.7166666666666667
0.0259912279995,0.7222222222222222
0.0261534627036,0.7277777777777777
0.0265825878966,0.7333333333333333
0.0269916155372,0.7388888888888889
0.0279550802033,0.7444444444444445
0.502994499488,0.75
0.502994499488,0.7555555555555555
0.669312132067,0.7611111111111111
0.781140710112,0.7666666666666667
1.00382744827,0.7722222222222223
1.00382744827,0.7777777777777778
1.00598899898,0.7833333333333333
1.00959017917,0.7888888888888889
1.00959017917,0.7944444444444444
1.33862426413,0.8
2.00892571016,0.8055555555555556
2.01194434969,0.8111111111111111
2.01880721867,0.8166666666666667
2.0190421506,0.8222222222222222
2.50969412242,0.8277777777777777
2.51587794072,0.8333333333333334
3.01964333137,0.8388888888888889
3.02344806623,0.8444444444444444
3.03026183808,0.85
3.19147690869,0.8555555555555555
3.19147690869,0.8611111111111112
4.03042852261,0.8666666666666667
4.03836886593,0.8722222222222222
4.51958819782,0.8777777777777778
5.04284806011,0.8833333333333333
5.20196629179,0.8888888888888888
5.21151197754,0.8944444444444445
6.53684083552,0.9
9.24894531367,0.9055555555555556
10.4002618852,0.9111111111111111
11.5786886832,0.9166666666666666
12.4125077343,0.9222222222222223
13.6024119823,0.9277777777777778
23.6807161869,0.9333333333333333
24.7076236379,0.9388888888888889
26.7324381517,0.9444444444444444
28.749941499,0.95
29.728846345,0.9555555555555556
31.7511280856,0.9611111111111111
33.7868057253,0.9666666666666667
34.7692010322,0.9722222222222222
35.7786311503,0.9777777777777777
36.783216458,0.9833333333333333
37.5462057281,0.9888888888888889
38.7859474761,0.9944444444444445
40.5678652831,1.0
