Congestion,CDF
0.0139702833433,0.009433962264150943
0.0139702833433,0.018867924528301886
0.01397984619,0.02830188679245283
0.01397984619,0.03773584905660377
0.0139810395143,0.04716981132075472
0.0139810395143,0.05660377358490566
0.0139824006296,0.0660377358490566
0.0139824006296,0.07547169811320754
0.0139867245734,0.08490566037735849
0.0139867245734,0.09433962264150944
0.0139888143462,0.10377358490566038
0.0139888143462,0.11320754716981132
0.0139947804861,0.12264150943396226
0.0139947804861,0.1320754716981132
0.0140068711652,0.14150943396226415
0.0140068711652,0.1509433962264151
0.0140161971781,0.16037735849056603
0.0140161971781,0.16981132075471697
0.0140186047262,0.1792452830188679
0.0140186047262,0.18867924528301888
0.0140256774706,0.19811320754716982
0.0140256774706,0.20754716981132076
0.0140365230453,0.2169811320754717
0.0140365230453,0.22641509433962265
0.0140377870923,0.2358490566037736
0.0140377870923,0.24528301886792453
0.0140408624316,0.25471698113207547
0.0140408624316,0.2641509433962264
0.107704853163,0.27358490566037735
0.107704853163,0.2830188679245283
0.143333798047,0.29245283018867924
0.143333798047,0.3018867924528302
0.197353496023,0.3113207547169811
0.197353496023,0.32075471698113206
0.208029695558,0.330188679245283
0.208029695558,0.33962264150943394
0.208166822506,0.3490566037735849
0.208166822506,0.3584905660377358
0.215126265996,0.36792452830188677
0.215126265996,0.37735849056603776
0.237823993921,0.3867924528301887
0.237823993921,0.39622641509433965
0.238081600541,0.4056603773584906
0.238081600541,0.41509433962264153
0.241834315978,0.42452830188679247
0.241834315978,0.4339622641509434
0.254932223104,0.44339622641509435
0.254932223104,0.4528301886792453
0.267122581445,0.46226415094339623
0.267122581445,0.4716981132075472
0.267619661951,0.4811320754716981
0.267619661951,0.49056603773584906
0.30678910208,0.5
0.30678910208,0.5094339622641509
0.317590582429,0.5188679245283019
0.317590582429,0.5283018867924528
0.317827458944,0.5377358490566038
0.317827458944,0.5471698113207547
0.331740669294,0.5566037735849056
0.331740669294,0.5660377358490566
0.339289663553,0.5754716981132075
0.339289663553,0.5849056603773585
0.349579733931,0.5943396226415094
0.349579733931,0.6037735849056604
0.3635202493,0.6132075471698113
0.3635202493,0.6226415094339622
0.376823317674,0.6320754716981132
0.376823317674,0.6415094339622641
0.385280186413,0.6509433962264151
0.385280186413,0.660377358490566
0.394959107107,0.6698113207547169
0.394959107107,0.6792452830188679
0.404816414616,0.6886792452830188
0.404816414616,0.6981132075471698
0.444132032513,0.7075471698113207
0.444132032513,0.7169811320754716
0.452375210313,0.7264150943396226
0.452375210313,0.7358490566037735
0.452904861471,0.7452830188679245
0.452904861471,0.7547169811320755
0.486927446855,0.7641509433962265
0.486927446855,0.7735849056603774
0.487668380922,0.7830188679245284
0.487668380922,0.7924528301886793
0.553260527171,0.8018867924528302
0.553260527171,0.8113207547169812
0.554523702035,0.8207547169811321
0.554523702035,0.8301886792452831
0.569271409184,0.839622641509434
0.569271409184,0.8490566037735849
0.613596144148,0.8584905660377359
0.613596144148,0.8679245283018868
0.614568988969,0.8773584905660378
0.614568988969,0.8867924528301887
0.61826358584,0.8962264150943396
0.61826358584,0.9056603773584906
0.665320037187,0.9150943396226415
0.665320037187,0.9245283018867925
0.666944378065,0.9339622641509434
0.666944378065,0.9433962264150944
0.726400238609,0.9528301886792453
0.726400238609,0.9622641509433962
0.817196691576,0.9716981132075472
0.817196691576,0.9811320754716981
0.853306641234,0.9905660377358491
0.853306641234,1.0
