Congestion,CDF
0.0,0.005555555555555556
0.0,0.011111111111111112
0.0,0.016666666666666666
0.0,0.022222222222222223
0.0,0.027777777777777776
0.0,0.03333333333333333
0.0,0.03888888888888889
0.0,0.044444444444444446
0.0,0.05
0.0,0.05555555555555555
1.05942308282e-06,0.06111111111111111
1.21722617125e-06,0.06666666666666667
2.73987526029e-06,0.07222222222222222
4.00448707128e-06,0.07777777777777778
4.09757572072e-06,0.08333333333333333
5.41021052047e-06,0.08888888888888889
5.95194762758e-06,0.09444444444444444
8.2031410681e-06,0.1
8.24546148332e-06,0.10555555555555556
8.43588108266e-06,0.1111111111111111
8.60950119453e-06,0.11666666666666667
9.4773019178e-06,0.12222222222222222
9.69712566235e-06,0.12777777777777777
1.08287208573e-05,0.13333333333333333
1.10907856483e-05,0.1388888888888889
1.16787385574e-05,0.14444444444444443
1.35042846293e-05,0.15
1.47791874432e-05,0.15555555555555556
1.54324486121e-05,0.16111111111111112
1.60503811499e-05,0.16666666666666666
1.63043311323e-05,0.17222222222222222
1.64352765029e-05,0.17777777777777778
1.69798006575e-05,0.18333333333333332
1.75698163663e-05,0.18888888888888888
1.78664023774e-05,0.19444444444444445
1.80681711253e-05,0.2
1.81684134252e-05,0.20555555555555555
1.8377048331e-05,0.2111111111111111
1.85566253397e-05,0.21666666666666667
1.8597345902e-05,0.2222222222222222
1.92187310008e-05,0.22777777777777777
1.93790704479e-05,0.23333333333333334
1.96015301124e-05,0.2388888888888889
2.12274057636e-05,0.24444444444444444
2.23367816653e-05,0.25
2.42512477973e-05,0.25555555555555554
2.46354412004e-05,0.2611111111111111
2.49899630576e-05,0.26666666666666666
2.58362465584e-05,0.2722222222222222
9.13291753429e-05,0.2777777777777778
0.000182658350686,0.2833333333333333
0.000200224353564,0.28888888888888886
0.000200224353564,0.29444444444444445
0.000206136537083,0.3
0.000206136537083,0.3055555555555556
0.000312078845365,0.3111111111111111
0.000409757572072,0.31666666666666665
0.000412273074166,0.32222222222222224
0.000548913353524,0.3277777777777778
0.00082031410681,0.3333333333333333
0.000853099897412,0.3388888888888889
0.000903408556265,0.34444444444444444
0.000903408556265,0.35
0.00115386672886,0.35555555555555557
0.00175698163663,0.3611111111111111
0.00178664023774,0.36666666666666664
0.00184375200385,0.37222222222222223
0.001986280642,0.37777777777777777
0.00210150314772,0.38333333333333336
0.00210150314772,0.3888888888888889
0.00239634475862,0.39444444444444443
0.00253249814844,0.4
0.00272311464853,0.40555555555555556
0.00291126937993,0.4111111111111111
0.00361671622682,0.4166666666666667
0.0038239854751,0.4222222222222222
0.0040233762478,0.42777777777777776
0.00494634041337,0.43333333333333335
0.00580729053283,0.4388888888888889
0.00608022043294,0.4444444444444444
0.00708177887865,0.45
0.00743054240895,0.45555555555555555
0.00750799655129,0.46111111111111114
0.00850534521267,0.4666666666666667
0.0136211551917,0.4722222222222222
0.0139355531878,0.4777777777777778
0.0139918523745,0.48333333333333334
0.0139963446764,0.4888888888888889
0.0140201822708,0.49444444444444446
0.0140298494823,0.5
0.0140590874227,0.5055555555555555
0.0140876826647,0.5111111111111111
0.0141491966045,0.5166666666666667
0.0141508718938,0.5222222222222223
0.0141591529872,0.5277777777777778
0.014178285957,0.5333333333333333
0.0142061438505,0.5388888888888889
0.014212246417,0.5444444444444444
0.0142137741856,0.55
0.0142155902008,0.5555555555555556
0.0142671285749,0.5611111111111111
0.0142950683482,0.5666666666666667
0.0143082961755,0.5722222222222222
0.0143084320258,0.5777777777777777
0.0143112455169,0.5833333333333334
0.0143223601908,0.5888888888888889
0.0143434371673,0.5944444444444444
0.0143546156645,0.6
0.0143629659151,0.6055555555555555
0.0143660396327,0.6111111111111112
0.0143696146664,0.6166666666666667
0.0143723986296,0.6222222222222222
0.014377247353,0.6277777777777778
0.0143927532863,0.6333333333333333
0.014400257097,0.6388888888888888
0.0144363916801,0.6444444444444445
0.0144586288005,0.65
0.0145024227225,0.6555555555555556
0.0145102355644,0.6611111111111111
0.014519925066,0.6666666666666666
0.0145330439576,0.6722222222222223
0.0151321284266,0.6777777777777778
0.0184095910346,0.6833333333333333
0.0192696646901,0.6888888888888889
0.0209932156905,0.6944444444444444
0.0215033428566,0.7
0.0226236488037,0.7055555555555556
0.0228714410659,0.7111111111111111
0.0242218695288,0.7166666666666667
0.0261597765736,0.7222222222222222
0.0263230633415,0.7277777777777777
0.0267549713364,0.7333333333333333
0.0271666514498,0.7388888888888889
0.028136364016,0.7444444444444445
0.353771797346,0.75
0.353771797346,0.7555555555555555
0.46766164941,0.7611111111111111
0.54185179869,0.7666666666666667
0.70100911354,0.7722222222222223
0.70100911354,0.7777777777777778
0.707543594692,0.7833333333333333
0.718301981635,0.7888888888888889
0.718301981635,0.7944444444444444
0.93532329882,0.8
1.40590874227,0.8055555555555556
1.41491966045,0.8111111111111111
1.43546156645,0.8166666666666667
1.43629659151,0.8222222222222222
1.7529570348,0.8277777777777777
1.77160039304,0.8333333333333334
2.12772197103,0.8388888888888889
2.13891636669,0.8444444444444444
2.15953610129,0.85
2.25811840934,0.8555555555555555
2.25811840934,0.8611111111111112
2.84954791028,0.8666666666666667
2.87318630175,0.8722222222222222
3.16172530127,0.8777777777777778
3.57615622965,0.8833333333333333
3.66876887727,0.8888888888888888
3.69739373797,0.8944444444444445
4.59256850384,0.9
6.56803404621,0.9055555555555556
7.32652175424,0.9111111111111111
8.16581585563,0.9166666666666666
8.74243705297,0.9222222222222223
9.61605812788,0.9277777777777778
16.7474325658,0.9333333333333333
17.5164242157,0.9388888888888889
18.9697286115,0.9444444444444444
20.4008531632,0.95
21.0292164952,0.9555555555555556
22.4750793752,0.9611111111111111
23.9594047517,0.9666666666666667
24.5976475088,0.9722222222222222
25.3215202709,0.9777777777777777
26.0188721506,0.9833333333333333
26.0296981588,0.9888888888888889
27.4124274693,0.9944444444444445
28.1554817102,1.0
