Congestion,CDF
0.0,0.005555555555555556
0.0,0.011111111111111112
0.0,0.016666666666666666
0.0,0.022222222222222223
0.0,0.027777777777777776
0.0,0.03333333333333333
0.0,0.03888888888888889
0.0,0.044444444444444446
0.0,0.05
0.0,0.05555555555555555
1.07537538423e-06,0.06111111111111111
1.23555459837e-06,0.06666666666666667
2.78113103117e-06,0.07222222222222222
4.06478478026e-06,0.07777777777777778
4.15927511541e-06,0.08333333333333333
5.49167496116e-06,0.08888888888888889
6.04156929437e-06,0.09444444444444444
8.32666016158e-06,0.1
8.36961781798e-06,0.10555555555555556
8.56290466732e-06,0.1111111111111111
8.73913907031e-06,0.11666666666666667
9.62000673437e-06,0.12222222222222222
9.84314048292e-06,0.12777777777777777
1.09917747135e-05,0.13333333333333333
1.12577855545e-05,0.1388888888888889
1.18545915858e-05,0.14444444444444443
1.37076258838e-05,0.15
1.5001725593e-05,0.15555555555555556
1.56648232655e-05,0.16111111111111112
1.62920603449e-05,0.16666666666666666
1.65498341883e-05,0.17222222222222222
1.66827512736e-05,0.17777777777777778
1.72354746204e-05,0.18333333333333332
1.7834374512e-05,0.18888888888888888
1.81354263777e-05,0.19444444444444445
1.83402332658e-05,0.2
1.84419849678e-05,0.20555555555555555
1.86537614012e-05,0.2111111111111111
1.88360423972e-05,0.21666666666666667
1.88773761108e-05,0.2222222222222222
1.95081177383e-05,0.22777777777777777
1.96708715024e-05,0.23333333333333334
1.98966808614e-05,0.2388888888888889
2.15470381941e-05,0.24444444444444444
2.26731185635e-05,0.25
2.46164118386e-05,0.25555555555555554
2.50063902478e-05,0.2611111111111111
2.53662503306e-05,0.26666666666666666
2.62252767759e-05,0.2722222222222222
9.27043677055e-05,0.2777777777777778
0.000185408735411,0.2833333333333333
0.000203239239013,0.28888888888888886
0.000203239239013,0.29444444444444445
0.00020924044545,0.3
0.00020924044545,0.3055555555555556
0.000316777983872,0.3111111111111111
0.000415927511541,0.31666666666666665
0.000418480890899,0.32222222222222224
0.000557178636208,0.3277777777777778
0.000832666016158,0.3333333333333333
0.000865945479988,0.3388888888888889
0.000917011663292,0.34444444444444444
0.000917011663292,0.35
0.00117124111889,0.35555555555555557
0.0017834374512,0.3611111111111111
0.00181354263777,0.36666666666666664
0.00187151436637,0.37222222222222223
0.00201618913464,0.37777777777777777
0.00213314660741,0.38333333333333336
0.00213314660741,0.3888888888888889
0.00243242780654,0.39444444444444443
0.00257063133095,0.4
0.00276411804589,0.40555555555555556
0.00295510592396,0.4111111111111111
0.00367117506228,0.4166666666666667
0.00388156527476,0.4222222222222222
0.00408395838125,0.42777777777777776
0.00502082011314,0.43333333333333335
0.00589473402017,0.4388888888888889
0.00617177357213,0.4444444444444444
0.00671731687644,0.45
0.00679963394566,0.45555555555555555
0.00762104848105,0.46111111111111114
0.0078952354722,0.4666666666666667
0.00798547046692,0.4722222222222222
0.00810434671891,0.4777777777777778
0.00812308626215,0.48333333333333334
0.0081248750803,0.4888888888888889
0.00813229397585,0.49444444444444446
0.00813827271439,0.5
0.00813957154174,0.5055555555555555
0.00814134573641,0.5111111111111111
0.0081443791874,0.5166666666666667
0.00815165553124,0.5222222222222223
0.00815804493543,0.5277777777777778
0.00815899509701,0.5333333333333333
0.00816103950736,0.5388888888888889
0.00816530535576,0.5444444444444444
0.00816532931308,0.55
0.00817001196537,0.5555555555555556
0.00817315150685,0.5611111111111111
0.0081819764885,0.5666666666666667
0.00819125623958,0.5722222222222222
0.00819342833136,0.5777777777777777
0.00819677174295,0.5833333333333334
0.0082019243503,0.5888888888888889
0.00820299653407,0.5944444444444444
0.00820588151903,0.6
0.00820626390249,0.6055555555555555
0.00820694977358,0.6111111111111112
0.00820773873723,0.6166666666666667
0.00820802475721,0.6222222222222222
0.00821288326156,0.6277777777777778
0.00821382908051,0.6333333333333333
0.00822211004988,0.6388888888888888
0.00822536551614,0.6444444444444445
0.00823633655274,0.65
0.00823757052271,0.6555555555555556
0.00823984893709,0.6611111111111111
0.00824118271441,0.6666666666666666
0.00863341475599,0.6722222222222223
0.015359980998,0.6777777777777778
0.0186867941178,0.6833333333333333
0.0195598183634,0.6888888888888889
0.0213093217954,0.6944444444444444
0.0218271302198,0.7
0.0229643052142,0.7055555555555556
0.0232158286174,0.7111111111111111
0.0245865912058,0.7166666666666667
0.026553678356,0.7222222222222222
0.0267194238203,0.7277777777777777
0.0271578352854,0.7333333333333333
0.0275757142871,0.7388888888888889
0.0285600283353,0.7444444444444445
0.203974877425,0.75
0.203974877425,0.7555555555555555
0.271076465862,0.7611111111111111
0.315781700202,0.7666666666666667
0.405217335945,0.7722222222222223
0.405217335945,0.7777777777777778
0.40794975485,0.7833333333333333
0.410294075952,0.7888888888888889
0.410294075952,0.7944444444444444
0.542152931723,0.8
0.813827271439,0.8055555555555556
0.815804493543,0.8111111111111111
0.820299653407,0.8166666666666667
0.820626390249,0.8222222222222222
1.01628350364,0.8277777777777777
1.020505413,0.8333333333333334
1.21935190959,0.8388888888888889
1.22729527249,0.8444444444444444
1.23206802629,0.85
1.29576805435,0.8555555555555555
1.29576805435,0.8611111111111112
1.63603827643,0.8666666666666667
1.64110212913,0.8722222222222222
1.83072142238,0.8777777777777778
2.04799024985,0.8833333333333333
2.11070750282,0.8888888888888888
2.11705638051,0.8944444444444445
2.65006425552,0.9
3.75787520578,0.9055555555555556
4.2189630652,0.9111111111111111
4.69754573306,0.9166666666666666
5.03506701594,0.9222222222222223
5.52117938834,0.9277777777777778
9.61371609544,0.9333333333333333
10.0340288196,0.9388888888888889
10.8580137133,0.9444444444444444
11.6762113621,0.95
12.0694315462,0.9555555555555556
12.8919680978,0.9611111111111111
13.7107288249,0.9666666666666667
14.113718365,0.9722222222222222
14.5002523721,0.9777777777777777
14.9276755192,0.9833333333333333
15.1719840597,0.9888888888888889
15.7262225659,0.9944444444444445
16.4061859605,1.0
