Congestion,CDF
0.0,0.005555555555555556
0.0,0.011111111111111112
0.0,0.016666666666666666
0.0,0.022222222222222223
0.0,0.027777777777777776
0.0,0.03333333333333333
0.0,0.03888888888888889
0.0,0.044444444444444446
0.0,0.05
0.0,0.05555555555555555
1.12779266199e-06,0.06111111111111111
1.29577952961e-06,0.06666666666666667
2.91669236156e-06,0.07222222222222222
4.26291555023e-06,0.07777777777777778
4.36201165022e-06,0.08333333333333333
5.75935697811e-06,0.08888888888888889
6.33605494141e-06,0.09444444444444444
8.73252853549e-06,0.1
8.77758008714e-06,0.10555555555555556
8.98028836329e-06,0.1111111111111111
9.16511300164e-06,0.11666666666666667
1.00889170075e-05,0.12222222222222222
1.03229270173e-05,0.12777777777777777
1.1527549399e-05,0.13333333333333333
1.18065264696e-05,0.1388888888888889
1.2432422759e-05,0.14444444444444443
1.43757799479e-05,0.15
1.57329582666e-05,0.15555555555555556
1.64283774665e-05,0.16111111111111112
1.70861881118e-05,0.16666666666666666
1.73565266869e-05,0.17222222222222222
1.74959225812e-05,0.17777777777777778
1.80755874534e-05,0.18333333333333332
1.87036796647e-05,0.18888888888888888
1.90194057729e-05,0.19444444444444445
1.92341956119e-05,0.2
1.93409070213e-05,0.20555555555555555
1.95630061236e-05,0.2111111111111111
1.97541720855e-05,0.21666666666666667
1.97975205382e-05,0.2222222222222222
2.04590065546e-05,0.22777777777777777
2.0629693464e-05,0.23333333333333334
2.08665095023e-05,0.2388888888888889
2.25973105944e-05,0.24444444444444444
2.37782797667e-05,0.25
2.58162954474e-05,0.25555555555555554
2.62252826669e-05,0.2611111111111111
2.66026834952e-05,0.26666666666666666
2.75035816705e-05,0.2722222222222222
9.72230787187e-05,0.2777777777777778
0.000194446157437,0.2833333333333333
0.000201364818788,0.28888888888888886
0.000213145777511,0.29444444444444445
0.000213145777511,0.3
0.000219439502179,0.3055555555555556
0.000219439502179,0.3111111111111111
0.000332218768378,0.31666666666666665
0.00041836512868,0.32222222222222224
0.000436201165022,0.3277777777777778
0.000438879004357,0.3333333333333333
0.000584337326807,0.3388888888888889
0.000873252853549,0.34444444444444444
0.000908154466189,0.35
0.000961709780595,0.35555555555555557
0.000961709780595,0.3611111111111111
0.00122833120292,0.36666666666666664
0.00187036796647,0.37222222222222223
0.00190194057729,0.37777777777777777
0.00196273803563,0.38333333333333336
0.0021144647205,0.3888888888888889
0.00223712307914,0.39444444444444443
0.00223712307914,0.4
0.00255099221284,0.40555555555555556
0.00267242680691,0.4111111111111111
0.00269593222446,0.4166666666666667
0.0028988501083,0.4222222222222222
0.00309914735388,0.42777777777777776
0.00313402331071,0.43333333333333335
0.00325748820496,0.4388888888888889
0.00326372034747,0.4444444444444444
0.00330657786583,0.45
0.00331399449943,0.45555555555555555
0.00335816671534,0.46111111111111114
0.00340123530363,0.4666666666666667
0.00349350704346,0.4722222222222222
0.00349565155421,0.4777777777777778
0.00350794191,0.48333333333333334
0.00353663305816,0.4888888888888889
0.00357934197865,0.49444444444444446
0.00358989079213,0.5
0.00359419156429,0.5055555555555555
0.00359638052709,0.5111111111111111
0.00367923339806,0.5166666666666667
0.00371180712135,0.5222222222222223
0.0037323630469,0.5277777777777778
0.00374001802624,0.5333333333333333
0.0037420190548,0.5388888888888889
0.00375307651603,0.5444444444444444
0.00378441099702,0.55
0.00380204611143,0.5555555555555556
0.00381370422034,0.5611111111111111
0.00381898213335,0.5666666666666667
0.00382367696953,0.5722222222222222
0.00382872718268,0.5777777777777777
0.00383599404176,0.5833333333333334
0.00385012002028,0.5888888888888889
0.00385838567476,0.5944444444444444
0.00387010203074,0.6
0.00392412621779,0.6055555555555555
0.0039584039082,0.6111111111111112
0.00402346755532,0.6166666666666667
0.00403547521627,0.6222222222222222
0.00404911854406,0.6277777777777778
0.00407076533286,0.6333333333333333
0.00407120355681,0.6388888888888888
0.0042830237346,0.6444444444444445
0.0052655511404,0.65
0.00618206244057,0.6555555555555556
0.00647260579721,0.6611111111111111
0.00799252305723,0.6666666666666666
0.00905423534195,0.6722222222222223
0.0161086761999,0.6777777777777778
0.0195976489618,0.6833333333333333
0.0205132272356,0.6888888888888889
0.0223480071288,0.6944444444444444
0.0228910552122,0.7
0.0240836597975,0.7055555555555556
0.0243474432656,0.7111111111111111
0.0257850212604,0.7166666666666667
0.0278479906068,0.7222222222222222
0.0280218150417,0.7277777777777777
0.028481596101,0.7333333333333333
0.028919843878,0.7388888888888889
0.0299521365798,0.7444444444444445
0.0873912888552,0.75
0.0873912888552,0.7555555555555555
0.110466483314,0.7611111111111111
0.135577242953,0.7666666666666667
0.165328893291,0.7722222222222223
0.165328893291,0.7777777777777778
0.17478257771,0.7833333333333333
0.190949106667,0.7888888888888889
0.190949106667,0.7944444444444444
0.220932966629,0.8
0.335816671534,0.8055555555555556
0.349350704346,0.8111111111111111
0.380204611143,0.8166666666666667
0.381370422034,0.8222222222222222
0.413140109351,0.8277777777777777
0.441054594671,0.8333333333333334
0.533252233098,0.8388888888888889
0.548883304532,0.8444444444444444
0.579694432117,0.85
0.579808238979,0.8555555555555555
0.579808238979,0.8611111111111112
0.728229293313,0.8666666666666667
0.753263639714,0.8722222222222222
0.763804015319,0.8777777777777778
0.922701790121,0.8833333333333333
0.931756022801,0.8888888888888888
0.965646806455,0.8944444444444445
1.1264999444,0.9
1.72545832819,0.9055555555555556
1.82888206385,0.9111111111111111
2.05380995849,0.9166666666666666
2.17967625485,0.9222222222222223
2.45615671402,0.9277777777777778
4.28750227999,0.9333333333333333
4.55526427377,0.9388888888888889
4.96238462945,0.9444444444444444
5.33658653493,0.95
5.39103922491,0.9555555555555556
5.78687961573,0.9611111111111111
6.24384057065,0.9666666666666667
6.31184656173,0.9722222222222222
6.51108325134,0.9777777777777777
6.53121973322,0.9833333333333333
6.67126571816,0.9888888888888889
6.98466804923,0.9944444444444445
7.02650456209,1.0
