Congestion,CDF
0.0,0.005555555555555556
0.0,0.011111111111111112
0.0,0.016666666666666666
0.0,0.022222222222222223
0.0,0.027777777777777776
0.0,0.03333333333333333
0.0,0.03888888888888889
0.0,0.044444444444444446
0.0,0.05
0.0,0.05555555555555555
1.11347673096e-06,0.06111111111111111
1.27933121336e-06,0.06666666666666667
2.87966856447e-06,0.07222222222222222
4.20880311711e-06,0.07777777777777778
4.30664131485e-06,0.08333333333333333
5.68624907447e-06,0.08888888888888889
6.25562657139e-06,0.09444444444444444
8.62167990132e-06,0.1
8.66615957933e-06,0.10555555555555556
8.86629472497e-06,0.1111111111111111
9.04877324345e-06,0.11666666666666667
9.96085070159e-06,0.12222222222222222
1.01918902442e-05,0.12777777777777777
1.13812214367e-05,0.13333333333333333
1.16566572389e-05,0.1388888888888889
1.22746085502e-05,0.14444444444444443
1.41932972265e-05,0.15
1.55332478473e-05,0.15555555555555556
1.62198395618e-05,0.16111111111111112
1.68693001157e-05,0.16666666666666666
1.71362070773e-05,0.17222222222222222
1.72738335134e-05,0.17777777777777778
1.7846140258e-05,0.18333333333333332
1.84662596166e-05,0.18888888888888888
1.8777977973e-05,0.19444444444444445
1.89900413209e-05,0.2
1.90953981611e-05,0.20555555555555555
1.93146779905e-05,0.2111111111111111
1.95034173372e-05,0.21666666666666667
1.9546215535e-05,0.2222222222222222
2.01993048057e-05,0.22777777777777777
2.03678250562e-05,0.23333333333333334
2.06016350082e-05,0.2388888888888889
2.23104657241e-05,0.24444444444444444
2.34764439554e-05,0.25
2.54885895512e-05,0.25555555555555554
2.58923851845e-05,0.2611111111111111
2.62649953767e-05,0.26666666666666666
2.71544577655e-05,0.2722222222222222
9.59889521491e-05,0.2777777777777778
0.000191977904298,0.2833333333333333
0.000210440155856,0.28888888888888886
0.000210440155856,0.29444444444444445
0.000216653989483,0.3
0.000216653989483,0.3055555555555556
0.00032800166258,0.3111111111111111
0.000430664131485,0.31666666666666665
0.000433307978966,0.32222222222222224
0.000576919888169,0.3277777777777778
0.000862167990132,0.3333333333333333
0.000896626570027,0.3388888888888889
0.000949502066047,0.34444444444444444
0.000949502066047,0.35
0.00121273905964,0.35555555555555557
0.00184662596166,0.3611111111111111
0.0018777977973,0.36666666666666664
0.0019378235072,0.37222222222222223
0.00208762420972,0.37777777777777777
0.00220872557242,0.38333333333333336
0.00220872557242,0.3888888888888889
0.0025186105262,0.39444444444444443
0.00266171070389,0.4
0.00286205279652,0.40555555555555556
0.00305980751664,0.4111111111111111
0.00355170248986,0.4166666666666667
0.00358249539935,0.4222222222222222
0.00380124751515,0.42777777777777776
0.00393415779339,0.43333333333333335
0.00398122122519,0.4388888888888889
0.00401909200877,0.4444444444444444
0.00404345464412,0.45
0.00405706285117,0.45555555555555555
0.00405908471885,0.46111111111111114
0.00406089030541,0.4666666666666667
0.00406220051354,0.4722222222222222
0.0040622860469,0.4777777777777778
0.00406597905487,0.48333333333333334
0.00406866708138,0.4888888888888889
0.00407153505679,0.49444444444444446
0.00407836831438,0.5
0.00407869081719,0.5055555555555555
0.00407920726835,0.5111111111111111
0.00408035993631,0.5166666666666667
0.00408250039039,0.5222222222222223
0.00408397076497,0.5277777777777778
0.00408486860208,0.5333333333333333
0.00408639880488,0.5388888888888889
0.0040954753483,0.5444444444444444
0.00409605572903,0.55
0.00409791360016,0.5555555555555556
0.00410046039079,0.5611111111111111
0.00410076009382,0.5666666666666667
0.00410209189542,0.5722222222222222
0.0041024349887,0.5777777777777777
0.004102929763,0.5833333333333334
0.00410297386617,0.5888888888888889
0.00410366883675,0.5944444444444444
0.00410623914721,0.6
0.00410625591387,0.6055555555555555
0.00411058091483,0.6111111111111112
0.00411131154177,0.6166666666666667
0.00411739947526,0.6222222222222222
0.00411741845723,0.6277777777777778
0.00411774385898,0.6333333333333333
0.00412041293578,0.6388888888888888
0.00422865605299,0.6444444444444445
0.00519871149027,0.65
0.00610358881462,0.6555555555555556
0.0063904440832,0.6611111111111111
0.00789106787608,0.6666666666666666
0.00893930303832,0.6722222222222223
0.0159041965068,0.6777777777777778
0.0193488810807,0.6833333333333333
0.0202528372223,0.6888888888888889
0.0220643268572,0.6944444444444444
0.0226004816178,0.7
0.023777947565,0.7055555555555556
0.0240383826287,0.7111111111111111
0.0254577123513,0.7166666666666667
0.027494494857,0.7222222222222222
0.0276661128059,0.7277777777777777
0.0281200575141,0.7333333333333333
0.0285527422784,0.7388888888888889
0.0295719313028,0.7444444444444445
0.101980181709,0.75
0.101980181709,0.7555555555555555
0.135532635162,0.7611111111111111
0.158167228836,0.7666666666666667
0.202172732206,0.7722222222222223
0.202172732206,0.7777777777777778
0.203960363418,0.7833333333333333
0.205104594771,0.7888888888888889
0.205104594771,0.7944444444444444
0.271065270325,0.8
0.406866708138,0.8055555555555556
0.407836831438,0.8111111111111111
0.410046039079,0.8166666666666667
0.4102929763,0.8222222222222222
0.508069212249,0.8277777777777777
0.510230220748,0.8333333333333334
0.607879017323,0.8388888888888889
0.613501671267,0.8444444444444444
0.616001656996,0.85
0.647853403904,0.8555555555555555
0.647853403904,0.8611111111111112
0.817924799621,0.8666666666666667
0.820343425697,0.8722222222222222
0.915222717928,0.8777777777777778
1.02374517014,0.8833333333333333
1.05531039074,0.8888888888888888
1.05847731862,0.8944444444444445
1.32482829083,0.9
1.87884630431,0.9055555555555556
2.10939239933,0.9111111111111111
2.34839530843,0.9166666666666666
2.51742839297,0.9222222222222223
2.76013525595,0.9277777777777778
4.80664158095,0.9333333333333333
5.01599823769,0.9388888888888889
5.42774008341,0.9444444444444444
5.83622694362,0.95
6.03435774058,0.9555555555555556
6.44548889476,0.9611111111111111
6.85032601229,0.9666666666666667
7.05553070869,0.9722222222222222
7.24374179163,0.9777777777777777
7.46143918057,0.9833333333333333
7.59891204062,0.9888888888888889
7.85956130309,0.9944444444444445
8.21781084302,1.0
