Congestion,CDF
0.0,0.005555555555555556
0.0,0.011111111111111112
0.0,0.016666666666666666
0.0,0.022222222222222223
0.0,0.027777777777777776
0.0,0.03333333333333333
0.0,0.03888888888888889
0.0,0.044444444444444446
0.0,0.05
0.0,0.05555555555555555
1.06712746822e-06,0.06111111111111111
1.22607813954e-06,0.06666666666666667
2.75980030751e-06,0.07222222222222222
4.03360868682e-06,0.07777777777777778
4.12737429983e-06,0.08333333333333333
5.44955490291e-06,0.08888888888888889
5.9952316556e-06,0.09444444444444444
8.26279632887e-06,0.1
8.30542450856e-06,0.10555555555555556
8.49722888609e-06,0.1111111111111111
8.67211160614e-06,0.11666666666666667
9.54622318985e-06,0.12222222222222222
9.76764554678e-06,0.12777777777777777
1.09074699805e-05,0.13333333333333333
1.11714405711e-05,0.1388888888888889
1.17636692185e-05,0.14444444444444443
1.36024911108e-05,0.15
1.48866653317e-05,0.15555555555555556
1.55446771766e-05,0.16111111111111112
1.61671034719e-05,0.16666666666666666
1.6422900241e-05,0.17222222222222222
1.65547978786e-05,0.17777777777777778
1.71032819469e-05,0.18333333333333332
1.76975883951e-05,0.18888888888888888
1.79963312526e-05,0.19444444444444445
1.81995673126e-05,0.2
1.83005385992e-05,0.20555555555555555
1.85106907493e-05,0.2111111111111111
1.86915736862e-05,0.21666666666666667
1.87325903784e-05,0.2222222222222222
1.93584943427e-05,0.22777777777777777
1.95199998176e-05,0.23333333333333334
1.97440772637e-05,0.2388888888888889
2.13817766827e-05,0.24444444444444444
2.2499220239e-05,0.25
2.44276088399e-05,0.25555555555555554
2.4814596192e-05,0.2611111111111111
2.51716962193e-05,0.26666666666666666
2.60241341021e-05,0.2722222222222222
9.19933435835e-05,0.2777777777777778
0.000183986687167,0.2833333333333333
0.000201680434341,0.28888888888888886
0.000201680434341,0.29444444444444445
0.000207635612714,0.3
0.000207635612714,0.3055555555555556
0.000314348359536,0.3111111111111111
0.000412737429983,0.31666666666666665
0.000415271225428,0.32222222222222224
0.000552905186527,0.3277777777777778
0.000826279632887,0.3333333333333333
0.000859303849827,0.3388888888888889
0.000909978365629,0.34444444444444444
0.000909978365629,0.35
0.0011622579317,0.35555555555555557
0.00176975883951,0.3611111111111111
0.00179963312526,0.36666666666666664
0.0018571602222,0.37222222222222223
0.00200072536368,0.37777777777777777
0.00211678579582,0.38333333333333336
0.00211678579582,0.3888888888888889
0.00241377156748,0.39444444444444443
0.00255091509826,0.4
0.00274291780845,0.40555555555555556
0.00283164000615,0.4111111111111111
0.00293244084736,0.4166666666666667
0.00317869011401,0.4222222222222222
0.00364301787735,0.42777777777777776
0.00385179443861,0.43333333333333335
0.00405263523009,0.4388888888888889
0.00498231141823,0.4444444444444444
0.00584952257884,0.45
0.00612443729236,0.45555555555555555
0.00756259655004,0.46111111111111114
0.00856719817635,0.4666666666666667
0.0100024041316,0.4722222222222222
0.0103652826836,0.4777777777777778
0.0104137317481,0.48333333333333334
0.0104188033653,0.4888888888888889
0.01045197782,0.49444444444444446
0.0104578980094,0.5
0.0104921201445,0.5055555555555555
0.0105255343306,0.5111111111111111
0.0105973014652,0.5166666666666667
0.0105991321265,0.5222222222222223
0.0106087496535,0.5277777777777778
0.0106310684324,0.5333333333333333
0.0106638874459,0.5388888888888889
0.0106724799642,0.5444444444444444
0.0106763384532,0.55
0.010677238376,0.5555555555555556
0.0107437422019,0.5611111111111111
0.010767314718,0.5666666666666667
0.0107830765976,0.5722222222222222
0.0107889119329,0.5777777777777777
0.0107911132333,0.5833333333333334
0.0107992729653,0.5888888888888889
0.010823762264,0.5944444444444444
0.0108371065802,0.6
0.01084654584,0.6055555555555555
0.0108503602175,0.6111111111111112
0.0108543032941,0.6166666666666667
0.0108578529914,0.6222222222222222
0.0108635104033,0.6277777777777778
0.0108812977828,0.6333333333333333
0.0108902068877,0.6388888888888888
0.0109323101545,0.6444444444444445
0.0109586141922,0.65
0.011009442148,0.6555555555555556
0.0110186648103,0.6611111111111111
0.0110296564885,0.6666666666666666
0.0110458714996,0.6722222222222223
0.0152421729888,0.6777777777777778
0.0185434701115,0.6833333333333333
0.0194097984343,0.6888888888888889
0.0211458835217,0.6944444444444444
0.0216597204582,0.7
0.0227881735458,0.7055555555555556
0.0230377678143,0.7111111111111111
0.0243980169254,0.7166666666666667
0.0263500169072,0.7222222222222222
0.0265144911366,0.7277777777777777
0.0269495400727,0.7333333333333333
0.0273642140253,0.7388888888888889
0.0283409785799,0.7444444444444445
0.264978303162,0.75
0.264978303162,0.7555555555555555
0.348596600312,0.7611111111111111
0.402637215473,0.7666666666666667
0.522598890999,0.7722222222222223
0.522598890999,0.7777777777777778
0.529956606324,0.7833333333333333
0.542518010877,0.7888888888888889
0.542518010877,0.7944444444444444
0.697193200624,0.8
1.04921201445,0.8055555555555556
1.05973014652,0.8111111111111111
1.08371065802,0.8166666666666667
1.084654584,0.8222222222222222
1.30635147797,0.8277777777777777
1.3280851464,0.8333333333333334
1.59697311119,0.8388888888888889
1.60890675547,0.8444444444444444
1.63292225517,0.85
1.69868172611,0.8555555555555555
1.69868172611,0.8611111111111112
2.1424430299,0.8666666666666667
2.17006169835,0.8722222222222222
2.35890491103,0.8777777777777778
2.6946920546,0.8833333333333333
2.75341321851,0.8888888888888888
2.78681150439,0.8944444444444445
3.4372125708,0.9
4.95384231479,0.9055555555555556
5.49397528115,0.9111111111111111
6.12848141697,0.9166666666666666
6.5548502465,0.9222222222222223
7.22942563177,0.9277777777777778
12.5941228907,0.9333333333333333
13.1960458658,0.9388888888888889
14.3006330157,0.9444444444444444
15.379524209,0.95
15.8164932171,0.9555555555555556
16.9123546363,0.9611111111111111
18.0556086435,0.9666666666666667
18.5025873727,0.9722222222222222
19.0558490567,0.9777777777777777
19.3390130573,0.9833333333333333
19.5703112102,0.9888888888888889
20.6068394786,0.9944444444444445
20.92470849,1.0
