Congestion,CDF
0.0,0.009433962264150943
0.0,0.018867924528301886
0.0,0.02830188679245283
0.0,0.03773584905660377
0.0,0.04716981132075472
0.0,0.05660377358490566
0.0,0.0660377358490566
0.0,0.07547169811320754
0.0,0.08490566037735849
0.0,0.09433962264150944
0.0,0.10377358490566038
0.0,0.11320754716981132
0.0,0.12264150943396226
0.0,0.1320754716981132
0.0,0.14150943396226415
0.0,0.1509433962264151
0.0,0.16037735849056603
0.0,0.16981132075471697
0.0,0.1792452830188679
0.0,0.18867924528301888
0.0,0.19811320754716982
0.0,0.20754716981132076
0.0,0.2169811320754717
0.0,0.22641509433962265
0.0,0.2358490566037736
0.0,0.24528301886792453
0.0,0.25471698113207547
0.0,0.2641509433962264
0.0,0.27358490566037735
0.0,0.2830188679245283
5.72153110097e-08,0.29245283018867924
1.47400445644e-06,0.3018867924528302
1.65754363544e-06,0.3113207547169811
2.24707244538e-06,0.32075471698113206
2.53653936386e-06,0.330188679245283
3.37518040371e-06,0.33962264150943394
5.1472019915e-06,0.3490566037735849
6.58869045601e-06,0.3584905660377358
6.97290664753e-06,0.36792452830188677
8.13271605215e-06,0.37735849056603776
1.00133210929e-05,0.3867924528301887
1.02427637521e-05,0.39622641509433965
1.08071237524e-05,0.4056603773584906
4.21897550464e-05,0.41509433962264153
4.21897550464e-05,0.42452830188679247
6.92522793605e-05,0.4339622641509434
8.23586307002e-05,0.44339622641509435
8.23586307002e-05,0.4528301886792453
8.43795100928e-05,0.46226415094339623
8.43795100928e-05,0.4716981132075472
8.43795100928e-05,0.4811320754716981
0.000130269916848,0.49056603773584906
0.0001647172614,0.5
0.0001647172614,0.5094339622641509
0.0001647172614,0.5188679245283019
0.000207425567518,0.5283018867924528
0.000207425567518,0.5377358490566038
0.000224707244538,0.5471698113207547
0.000381908485322,0.5566037735849056
0.000381908485322,0.5660377358490566
0.000473193718123,0.5754716981132075
0.000473193718123,0.5849056603773585
0.000726847654509,0.5943396226415094
0.000736734498484,0.6037735849056604
0.00114882476096,0.6132075471698113
0.00119518009054,0.6226415094339622
0.00155390609337,0.6320754716981132
0.00248785235461,0.6415094339622641
0.0155132379065,0.6509433962264151
0.0241880957962,0.660377358490566
0.0243486463714,0.6698113207547169
0.0243672196539,0.6792452830188679
0.025878458761,0.6886792452830188
0.0273759418466,0.6981132075471698
0.0275090955677,0.7075471698113207
0.0290081839511,0.7169811320754716
0.0290681123351,0.7264150943396226
0.0302209241277,0.7358490566037735
0.0309724294445,0.7452830188679245
0.0329796196745,0.7547169811320755
0.0332091183687,0.7641509433962265
0.354639083805,0.7735849056603774
0.362602299389,0.7830188679245284
0.362602299389,0.7924528301886793
0.363351404189,0.8018867924528302
0.363351404189,0.8113207547169812
0.725204598779,0.8207547169811321
0.725204598779,0.8301886792452831
0.725204598779,0.839622641509434
0.726702808377,0.8490566037735849
0.726702808377,0.8584905660377359
0.726702808377,0.8679245283018868
1.55132379065,0.8773584905660378
2.01987664163,0.8867924528301887
2.01987664163,0.8962264150943396
2.09475079591,0.9056603773584906
2.09475079591,0.9150943396226415
2.23699990996,0.9245283018867925
2.23699990996,0.9339622641509434
4.02391567103,0.9433962264150944
4.04686554044,0.9528301886792453
4.43868622124,0.9622641509433962
4.45474127876,0.9716981132075472
4.5314727613,0.9811320754716981
7.08266026265,0.9905660377358491
13.4050240659,1.0
