Congestion,CDF
0.0,0.009433962264150943
0.0,0.018867924528301886
0.0,0.02830188679245283
0.0,0.03773584905660377
0.0,0.04716981132075472
0.0,0.05660377358490566
0.0,0.0660377358490566
0.0,0.07547169811320754
0.0,0.08490566037735849
0.0,0.09433962264150944
0.0,0.10377358490566038
0.0,0.11320754716981132
0.0,0.12264150943396226
0.0,0.1320754716981132
0.0,0.14150943396226415
0.0,0.1509433962264151
0.0,0.16037735849056603
0.0,0.16981132075471697
0.0,0.1792452830188679
0.0,0.18867924528301888
0.0,0.19811320754716982
0.0,0.20754716981132076
0.0,0.2169811320754717
0.0,0.22641509433962265
0.0,0.2358490566037736
0.0,0.24528301886792453
0.0,0.25471698113207547
0.0,0.2641509433962264
0.0,0.27358490566037735
0.0,0.2830188679245283
2.180247173e-08,0.29245283018867924
5.6168427514e-07,0.3018867924528302
6.31623731745e-07,0.3113207547169811
8.56269634841e-07,0.32075471698113206
9.66573925699e-07,0.330188679245283
1.28614655827e-06,0.33962264150943394
1.96139326918e-06,0.3490566037735849
2.51068699741e-06,0.3584905660377358
2.65709645506e-06,0.36792452830188677
3.09905353455e-06,0.37735849056603776
3.81567706614e-06,0.3867924528301887
3.90310850717e-06,0.39622641509433965
4.11816358134e-06,0.4056603773584906
1.60768319784e-05,0.41509433962264153
1.60768319784e-05,0.42452830188679247
2.63892800083e-05,0.4339622641509434
3.13835874677e-05,0.44339622641509435
3.13835874677e-05,0.4528301886792453
3.21536639568e-05,0.46226415094339623
3.21536639568e-05,0.4716981132075472
3.21536639568e-05,0.4811320754716981
4.96406666191e-05,0.49056603773584906
6.27671749354e-05,0.5
6.27671749354e-05,0.5094339622641509
6.27671749354e-05,0.5188679245283019
7.90416060334e-05,0.5283018867924528
7.90416060334e-05,0.5377358490566038
8.56269634841e-05,0.5471698113207547
0.000145530082905,0.5566037735849056
0.000145530082905,0.5660377358490566
0.000180315242199,0.5754716981132075
0.000180315242199,0.5849056603773585
0.000276972634769,0.5943396226415094
0.000280740116452,0.6037735849056604
0.000437771270163,0.6132075471698113
0.00045543543636,0.6226415094339622
0.000592131600333,0.6320754716981132
0.00094802124943,0.6415094339622641
0.0247019677508,0.6509433962264151
0.0573773735842,0.660377358490566
0.057768622798,0.6698113207547169
0.0580603507408,0.6792452830188679
0.0680464216761,0.6886792452830188
0.0755881160103,0.6981132075471698
0.0788138597523,0.7075471698113207
0.0792392380192,0.7169811320754716
0.0827408764945,0.7264150943396226
0.0829157633262,0.7358490566037735
0.0846123845143,0.7452830188679245
0.0900923082966,0.7547169811320755
0.0907071723038,0.7641509433962265
0.930664455267,0.7735849056603774
1.03426095618,0.7830188679245284
1.03426095618,0.7924528301886793
1.03644704158,0.8018867924528302
1.03644704158,0.8113207547169812
2.06852191236,0.8207547169811321
2.06852191236,0.8301886792452831
2.06852191236,0.839622641509434
2.07289408316,0.8490566037735849
2.07289408316,0.8584905660377359
2.07289408316,0.8679245283018868
2.47019677508,0.8773584905660378
5.85011379827,0.8867924528301887
5.85011379827,0.8962264150943396
6.01140098537,0.9056603773584906
6.01140098537,0.9150943396226415
6.30132722348,0.9245283018867925
6.30132722348,0.9339622641509434
11.0799388274,0.9433962264150944
11.1414252281,0.9528301886792453
11.5878511567,0.9622641509433962
11.6269760781,0.9716981132075472
11.8174360595,0.9811320754716981
19.1173703765,0.9905660377358491
36.446615081,1.0
