Congestion,CDF
0.0,0.009433962264150943
0.0,0.018867924528301886
0.0,0.02830188679245283
0.0,0.03773584905660377
0.0,0.04716981132075472
0.0,0.05660377358490566
0.0,0.0660377358490566
0.0,0.07547169811320754
0.0,0.08490566037735849
0.0,0.09433962264150944
0.0,0.10377358490566038
0.0,0.11320754716981132
0.0,0.12264150943396226
0.0,0.1320754716981132
0.0,0.14150943396226415
0.0,0.1509433962264151
0.0,0.16037735849056603
0.0,0.16981132075471697
0.0,0.1792452830188679
0.0,0.18867924528301888
0.0,0.19811320754716982
0.0,0.20754716981132076
0.0,0.2169811320754717
0.0,0.22641509433962265
0.0,0.2358490566037736
0.0,0.24528301886792453
0.0,0.25471698113207547
0.0,0.2641509433962264
0.0,0.27358490566037735
0.0,0.2830188679245283
7.78154455417e-08,0.29245283018867924
2.00471362445e-06,0.3018867924528302
2.25433532074e-06,0.3113207547169811
3.05612152439e-06,0.32075471698113206
3.44980980178e-06,0.330188679245283
4.59040005662e-06,0.33962264150943394
7.00043063987e-06,0.3490566037735849
8.96092102487e-06,0.3584905660377358
9.48347265658e-06,0.36792452830188677
1.10608666088e-05,0.37735849056603776
1.36185756653e-05,0.3867924528301887
1.39306281987e-05,0.39622641509433965
1.46981836676e-05,0.4056603773584906
1.71132910335e-05,0.41509433962264153
5.73800007078e-05,0.42452830188679247
5.73800007078e-05,0.4339622641509434
9.41862742352e-05,0.44339622641509435
0.000112011512811,0.4528301886792453
0.000112011512811,0.46226415094339623
0.000114760001416,0.4716981132075472
0.000114760001416,0.4811320754716981
0.000114760001416,0.49056603773584906
0.000177173058073,0.5
0.000194744192844,0.5094339622641509
0.000224023025622,0.5188679245283019
0.000224023025622,0.5283018867924528
0.000224023025622,0.5377358490566038
0.000256075281979,0.5471698113207547
0.000282108279556,0.5566037735849056
0.000282108279556,0.5660377358490566
0.000283725977938,0.5754716981132075
0.000305612152439,0.5849056603773585
0.000317410130323,0.5943396226415094
0.000519413045512,0.6037735849056604
0.000519413045512,0.6132075471698113
0.000643565146348,0.6226415094339622
0.000643565146348,0.6320754716981132
0.000988546126526,0.6415094339622641
0.00100199268751,0.6509433962264151
0.00156245433339,0.660377358490566
0.0016254997064,0.6698113207547169
0.00171132910335,0.6792452830188679
0.00211338351311,0.6886792452830188
0.00338359323754,0.6981132075471698
0.0089095846109,0.7075471698113207
0.0163285087213,0.7169811320754716
0.0224582960757,0.7264150943396226
0.036290415086,0.7358490566037735
0.0369739844655,0.7452830188679245
0.0420948102941,0.7547169811320755
0.0561565462036,0.7641509433962265
0.0583840790122,0.7735849056603774
0.278665293343,0.7830188679245284
0.453630188575,0.7924528301886793
0.453630188575,0.8018867924528302
0.462174805819,0.8113207547169812
0.462174805819,0.8207547169811321
0.907260377151,0.8301886792452831
0.907260377151,0.839622641509434
0.907260377151,0.8490566037735849
0.924349611638,0.8584905660377359
0.924349611638,0.8679245283018868
0.924349611638,0.8773584905660378
1.36128422494,0.8867924528301887
1.36128422494,0.8962264150943396
1.38075864422,0.9056603773584906
1.39302523797,0.9150943396226415
2.03871979818,0.9245283018867925
2.03871979818,0.9339622641509434
2.06432732638,0.9433962264150944
3.0205455091,0.9528301886792453
3.0205455091,0.9622641509433962
5.08763790507,0.9716981132075472
6.53145961475,0.9811320754716981
6.75421289561,0.9905660377358491
17.9390688916,1.0
