Congestion,CDF
0.0,0.007352941176470588
0.0,0.014705882352941176
0.0,0.022058823529411766
0.0,0.029411764705882353
0.0,0.03676470588235294
0.0,0.04411764705882353
0.0,0.051470588235294115
0.0,0.058823529411764705
0.0,0.0661764705882353
0.0,0.07352941176470588
0.0,0.08088235294117647
0.0,0.08823529411764706
0.0,0.09558823529411764
0.0,0.10294117647058823
1.38765318938e-06,0.11029411764705882
1.38765318938e-06,0.11764705882352941
1.38765318938e-06,0.125
1.38765318938e-06,0.1323529411764706
1.38765318938e-06,0.13970588235294118
1.38765318938e-06,0.14705882352941177
1.38765318938e-06,0.15441176470588236
1.38765318938e-06,0.16176470588235295
1.38765318938e-06,0.16911764705882354
1.38765318938e-06,0.17647058823529413
1.38765318938e-06,0.18382352941176472
1.38765318938e-06,0.19117647058823528
1.38765318938e-06,0.19852941176470587
1.38765318938e-06,0.20588235294117646
1.38765318938e-06,0.21323529411764705
1.38765318938e-06,0.22058823529411764
1.38765318938e-06,0.22794117647058823
1.38765318938e-06,0.23529411764705882
1.38765318938e-06,0.2426470588235294
1.38765318938e-06,0.25
1.38765318938e-06,0.25735294117647056
1.38765318938e-06,0.2647058823529412
1.38765318938e-06,0.27205882352941174
1.38765318938e-06,0.27941176470588236
1.38765318938e-06,0.2867647058823529
1.38765318938e-06,0.29411764705882354
1.38765318938e-06,0.3014705882352941
3.46913297344e-05,0.3088235294117647
3.46913297344e-05,0.3161764705882353
3.74666361131e-05,0.3235294117647059
6.93826594688e-05,0.33088235294117646
6.93826594688e-05,0.3382352941176471
6.93826594688e-05,0.34558823529411764
6.93826594688e-05,0.35294117647058826
0.000104073989203,0.3602941176470588
0.000115637765781,0.36764705882352944
0.000115637765781,0.375
0.000115637765781,0.38235294117647056
0.000138765318938,0.3897058823529412
0.000138765318938,0.39705882352941174
0.000138765318938,0.40441176470588236
0.000138765318938,0.4117647058823529
0.000138765318938,0.41911764705882354
0.000138765318938,0.4264705882352941
0.000138765318938,0.4338235294117647
0.000173456648672,0.4411764705882353
0.000208147978406,0.4485294117647059
0.000208147978406,0.45588235294117646
0.000254403084719,0.4632352941176471
0.000277530637875,0.47058823529411764
0.000277530637875,0.47794117647058826
0.000416295956813,0.4852941176470588
0.000566625052328,0.49264705882352944
0.0010060485623,0.5
0.00102917611545,0.5073529411764706
0.00132983430648,0.5147058823529411
0.00165362005067,0.5220588235294118
0.00167674760383,0.5294117647058824
0.00179238536961,0.5367647058823529
0.00181551292277,0.5441176470588235
0.0019542782417,0.5514705882352942
0.00922756626864,0.5588235294117647
0.010232497897,0.5661764705882353
0.0236590572225,0.5735294117647058
0.0237710790341,0.5808823529411765
0.0240330706691,0.5882352941176471
0.0240716708979,0.5955882352941176
0.0241198211547,0.6029411764705882
0.0241604677811,0.6102941176470589
0.0242533826848,0.6176470588235294
0.0242745674324,0.625
0.0242869772345,0.6323529411764706
0.0242965980105,0.6397058823529411
0.0242977744922,0.6470588235294118
0.0242986091943,0.6544117647058824
0.0242987280931,0.6617647058823529
0.024299756061,0.6691176470588235
0.0243003756234,0.6764705882352942
0.0243040013374,0.6838235294117647
0.0243070808967,0.6911764705882353
0.0243169068121,0.6985294117647058
0.0243207318892,0.7058823529411765
0.0243207459912,0.7132352941176471
0.0243207897755,0.7205882352941176
0.0243207931138,0.7279411764705882
0.0243211708139,0.7352941176470589
0.0243211730395,0.7426470588235294
0.0243211730395,0.75
0.607468202327,0.7573529411764706
0.607600033435,0.7647058823529411
0.62505656646,0.7720588235294118
1.20802338906,0.7794117647058824
1.20802338906,0.7867647058823529
1.21535404484,0.7941176470588235
1.21535404484,0.8014705882352942
1.82240460698,0.8088235294117647
2.02499405217,0.8161764705882353
2.02499405217,0.8235294117647058
2.02499405217,0.8308823529411765
2.41198211547,0.8382352941176471
2.4299756061,0.8455882352941176
2.43040013374,0.8529411764705882
2.43207459912,0.8602941176470589
2.43207931138,0.8676470588235294
2.43211730395,0.875
2.43211730395,0.8823529411764706
3.03750576467,0.8897058823529411
3.61133045597,0.8970588235294118
3.64501384589,0.9044117647058824
4.45245079541,0.9117647058823529
4.81914920527,0.9191176470588235
4.86415828893,0.9264705882352942
7.29635168928,0.9338235294117647
9.92233634237,0.9411764705882353
17.6322577997,0.9485294117647058
18.0081487953,0.9558823529411765
23.3042965779,0.9632352941176471
28.8045341788,0.9705882352941176
29.3780081472,0.9779411764705882
29.7272908057,0.9852941176470589
31.7551160507,0.9926470588235294
32.7783658404,1.0
