Congestion,CDF
0.0,0.007352941176470588
0.0,0.014705882352941176
0.0,0.022058823529411766
0.0,0.029411764705882353
0.0,0.03676470588235294
0.0,0.04411764705882353
0.0,0.051470588235294115
0.0,0.058823529411764705
0.0,0.0661764705882353
0.0,0.07352941176470588
0.0,0.08088235294117647
0.0,0.08823529411764706
0.0,0.09558823529411764
0.0,0.10294117647058823
1.20670392449e-06,0.11029411764705882
1.20670392449e-06,0.11764705882352941
1.20670392449e-06,0.125
1.20670392449e-06,0.1323529411764706
1.20670392449e-06,0.13970588235294118
1.20670392449e-06,0.14705882352941177
1.20670392449e-06,0.15441176470588236
1.20670392449e-06,0.16176470588235295
1.20670392449e-06,0.16911764705882354
1.20670392449e-06,0.17647058823529413
1.20670392449e-06,0.18382352941176472
1.20670392449e-06,0.19117647058823528
1.20670392449e-06,0.19852941176470587
1.20670392449e-06,0.20588235294117646
1.20670392449e-06,0.21323529411764705
1.20670392449e-06,0.22058823529411764
1.20670392449e-06,0.22794117647058823
1.20670392449e-06,0.23529411764705882
1.20670392449e-06,0.2426470588235294
1.20670392449e-06,0.25
1.20670392449e-06,0.25735294117647056
1.20670392449e-06,0.2647058823529412
1.20670392449e-06,0.27205882352941174
1.20670392449e-06,0.27941176470588236
1.20670392449e-06,0.2867647058823529
1.20670392449e-06,0.29411764705882354
1.20670392449e-06,0.3014705882352941
3.01675981122e-05,0.3088235294117647
3.01675981122e-05,0.3161764705882353
3.25810059612e-05,0.3235294117647059
6.03351962244e-05,0.33088235294117646
6.03351962244e-05,0.3382352941176471
6.03351962244e-05,0.34558823529411764
6.03351962244e-05,0.35294117647058826
9.05027943366e-05,0.3602941176470588
0.000100558660374,0.36764705882352944
0.000100558660374,0.375
0.000100558660374,0.38235294117647056
0.000120670392449,0.3897058823529412
0.000120670392449,0.39705882352941174
0.000120670392449,0.40441176470588236
0.000120670392449,0.4117647058823529
0.000120670392449,0.41911764705882354
0.000120670392449,0.4264705882352941
0.000120670392449,0.4338235294117647
0.000150837990561,0.4411764705882353
0.000181005588673,0.4485294117647059
0.000181005588673,0.45588235294117646
0.000221229052823,0.4632352941176471
0.000241340784898,0.47058823529411764
0.000241340784898,0.47794117647058826
0.000362011177346,0.4852941176470588
0.000492737435833,0.49264705882352944
0.000874860345254,0.5
0.000894972077329,0.5073529411764706
0.0011564245943,0.5147058823529411
0.00143798884335,0.5220588235294118
0.00145810057542,0.5294117647058824
0.0015586592358,0.5367647058823529
0.00157877096787,0.5441176470588235
0.00169944136032,0.5514705882352942
0.0133838270228,0.5588235294117647
0.0143751811177,0.5661764705882353
0.0271210041731,0.5735294117647058
0.0272244261772,0.5808823529411765
0.0274578279173,0.5882352941176471
0.0274932680937,0.5955882352941176
0.0275354913945,0.6029411764705882
0.0275782935161,0.6102941176470589
0.0276680360163,0.6176470588235294
0.0276871802338,0.625
0.0277003639832,0.6323529411764706
0.0277090109464,0.6397058823529411
0.0277099853784,0.6470588235294118
0.0277108808709,0.6544117647058824
0.0277109339947,0.6617647058823529
0.0277119338221,0.6691176470588235
0.0277125358264,0.6764705882352942
0.0277161258945,0.6838235294117647
0.0277193105027,0.6911764705882353
0.0277290473353,0.6985294117647058
0.0277328244605,0.7058823529411765
0.0277328369313,0.7132352941176471
0.0277328802285,0.7205882352941176
0.0277328832621,0.7279411764705882
0.0277332611045,0.7352941176470589
0.027733263127,0.7426470588235294
0.027733263127,0.75
0.692772021772,0.7573529411764706
0.692903147363,0.7647058823529411
0.718785876458,0.7720588235294118
1.37891467581,0.7794117647058824
1.37891467581,0.7867647058823529
1.38596552514,0.7941176470588235
1.38596552514,0.8014705882352942
2.07831606532,0.8088235294117647
2.30934134841,0.8161764705882353
2.30934134841,0.8235294117647058
2.30934134841,0.8308823529411765
2.75354913945,0.8382352941176471
2.77119338221,0.8455882352941176
2.77161258945,0.8529411764705882
2.77328369313,0.8602941176470589
2.77328832621,0.8676470588235294
2.7733263127,0.875
2.7733263127,0.8823529411764706
3.46402560441,0.8897058823529411
4.12469746753,0.8970588235294118
4.15686661978,0.9044117647058824
5.07805937179,0.9117647058823529
5.50287594882,0.9191176470588235
5.54657634906,0.9264705882352942
8.31997873585,0.9338235294117647
11.3156537345,0.9411764705882353
20.1060243715,0.9485294117647058
20.5394313837,0.9558823529411765
26.5742359785,0.9632352941176471
32.8791052174,0.9705882352941176
33.5011389966,0.9779411764705882
34.2174879197,0.9852941176470589
36.2235816143,0.9926470588235294
37.6610997261,1.0
