Congestion,CDF
0.0,0.005555555555555556
0.0,0.011111111111111112
0.0,0.016666666666666666
0.0,0.022222222222222223
0.0,0.027777777777777776
0.0,0.03333333333333333
0.0,0.03888888888888889
0.0,0.044444444444444446
0.0,0.05
0.0,0.05555555555555555
3.3645717457e-07,0.06111111111111111
3.86573112321e-07,0.06666666666666667
8.70144046982e-07,0.07222222222222222
1.27176614089e-06,0.07777777777777778
1.30132972552e-06,0.08333333333333333
1.71820321368e-06,0.08888888888888889
1.89025094359e-06,0.09444444444444444
2.60519683886e-06,0.1
2.6186371797e-06,0.10555555555555556
2.67911164114e-06,0.1111111111111111
2.73425083269e-06,0.11666666666666667
3.00985156688e-06,0.12222222222222222
3.07966435196e-06,0.12777777777777777
3.43904232686e-06,0.13333333333333333
3.52227024641e-06,0.1388888888888889
3.70899543466e-06,0.14444444444444443
4.28876199194e-06,0.15
4.69365235687e-06,0.15555555555555556
4.90111848696e-06,0.16111111111111112
5.09736476395e-06,0.16666666666666666
5.17801553976e-06,0.17222222222222222
5.21960186173e-06,0.17777777777777778
5.3925347169e-06,0.18333333333333332
5.57991501995e-06,0.18888888888888888
5.67410637082e-06,0.19444444444444445
5.73818515478e-06,0.2
5.7700206335e-06,0.20555555555555555
5.8362800081e-06,0.2111111111111111
5.89331102238e-06,0.21666666666666667
5.90624327348e-06,0.2222222222222222
6.10358603303e-06,0.22777777777777777
6.15450748093e-06,0.23333333333333334
6.22515739541e-06,0.2388888888888889
6.74151156654e-06,0.24444444444444444
7.09383302098e-06,0.25
7.70183928026e-06,0.25555555555555554
7.82385344911e-06,0.2611111111111111
7.93644437177e-06,0.26666666666666666
8.20521155289e-06,0.2722222222222222
2.90048015661e-05,0.2777777777777778
5.80096031321e-05,0.2833333333333333
6.35883070443e-05,0.28888888888888886
6.35883070443e-05,0.29444444444444445
6.54659294925e-05,0.3
6.54659294925e-05,0.3055555555555556
9.91116469495e-05,0.3111111111111111
0.000130132972552,0.31666666666666665
0.000130931858985,0.32222222222222224
0.000174326800129,0.3277777777777778
0.000260519683886,0.3333333333333333
0.000270931968317,0.3388888888888889
0.000286909257739,0.34444444444444444
0.000286909257739,0.35
0.00036645108618,0.35555555555555557
0.000557991501995,0.3611111111111111
0.000567410637082,0.36666666666666664
0.000585548493217,0.37222222222222223
0.000630813490425,0.37777777777777777
0.000667406461967,0.38333333333333336
0.000667406461967,0.3888888888888889
0.000761043817014,0.39444444444444443
0.000804284129206,0.4
0.000864821123433,0.40555555555555556
0.000924576296162,0.4111111111111111
0.00114861582934,0.4166666666666667
0.00121444149123,0.4222222222222222
0.00127776506527,0.42777777777777776
0.00157088489663,0.43333333333333335
0.0018443099799,0.4388888888888889
0.00193098849818,0.4444444444444444
0.00238442917404,0.45
0.00270117242621,0.45555555555555555
0.00480574121729,0.46111111111111114
0.00584661509169,0.4666666666666667
0.0061197618229,0.4722222222222222
0.00666713624698,0.4777777777777778
0.00682914512499,0.48333333333333334
0.00718493780096,0.4888888888888889
0.0072636329755,0.49444444444444446
0.0076925091747,0.5
0.00830795992279,0.5055555555555555
0.00835981739641,0.5111111111111111
0.00849698501715,0.5166666666666667
0.00862772856053,0.5222222222222223
0.00893569499572,0.5277777777777778
0.0106852697024,0.5333333333333333
0.0109731106059,0.5388888888888889
0.0157386464045,0.5444444444444444
0.0159980176915,0.55
0.0161340458757,0.5555555555555556
0.0161383669041,0.5611111111111111
0.0161391300828,0.5666666666666667
0.0161651850503,0.5722222222222222
0.0161873702183,0.5777777777777777
0.0162085738872,0.5833333333333334
0.0162564115439,0.5888888888888889
0.0162589127818,0.5944444444444444
0.0162657670101,0.6
0.0162806367987,0.6055555555555555
0.0162823462199,0.6111111111111112
0.016300438258,0.6166666666666667
0.0163025398393,0.6222222222222222
0.0163082324933,0.6277777777777778
0.0163179710306,0.6333333333333333
0.0163500440297,0.6388888888888888
0.0163714655267,0.6444444444444445
0.0163727940692,0.65
0.016380252388,0.6555555555555556
0.016392127785,0.6611111111111111
0.0164090735211,0.6666666666666666
0.0164159030953,0.6722222222222223
0.0164242621971,0.6777777777777778
0.0164249204922,0.6833333333333333
0.0164294296862,0.6888888888888889
0.0164297340511,0.6944444444444444
0.016433503699,0.7
0.0164474295767,0.7055555555555556
0.0164516633527,0.7111111111111111
0.0164808152861,0.7166666666666667
0.0164964314693,0.7222222222222222
0.0165311622103,0.7277777777777777
0.0165369271347,0.7333333333333333
0.0165463444518,0.7388888888888889
0.0165520063151,0.7444444444444445
0.406472819544,0.75
0.406472819544,0.7555555555555555
0.538839501676,0.7611111111111111
0.625817262736,0.7666666666666667
0.806918345207,0.7722222222222223
0.806918345207,0.7777777777777778
0.812945639088,0.7833333333333333
0.821246024611,0.7888888888888889
0.821246024611,0.7944444444444444
1.07767900335,0.8
1.61873702183,0.8055555555555556
1.62564115439,0.8111111111111111
1.64159030953,0.8166666666666667
1.64242621971,0.8222222222222222
2.01987740711,0.8277777777777777
2.03453649941,0.8333333333333334
2.43871544827,0.8388888888888889
2.45128985041,0.8444444444444444
2.46758008427,0.85
2.58804116847,0.8555555555555555
2.58804116847,0.8611111111111112
3.26681855044,0.8666666666666667
3.28494067943,0.8722222222222222
3.64073479583,0.8777777777777778
4.09426325552,0.8833333333333333
4.21052255376,0.8888888888888888
4.23278412615,0.8944444444444445
5.27876003463,0.9
7.51611769797,0.9055555555555556
8.41247673052,0.9111111111111111
9.37081354889,0.9166666666666666
10.0390534315,0.9222222222222223
11.0239297699,0.9277777777777778
19.1981140981,0.9333333333333333
20.0568264183,0.9388888888888889
21.7120270499,0.9444444444444444
23.3493064568,0.95
24.1041454271,0.9555555555555556
25.753788574,0.9611111111111111
27.423026308,0.9666666666666667
28.1909609031,0.9722222222222222
28.9968909485,0.9777777777777777
29.8191955251,0.9833333333333333
30.0654179187,0.9888888888888889
31.4189972943,0.9944444444444445
32.5163083549,1.0
