Congestion,CDF
0.0,0.005555555555555556
0.0,0.011111111111111112
0.0,0.016666666666666666
0.0,0.022222222222222223
0.0,0.027777777777777776
0.0,0.03333333333333333
0.0,0.03888888888888889
0.0,0.044444444444444446
0.0,0.05
0.0,0.05555555555555555
3.58402241048e-07,0.06111111111111111
4.11786938298e-07,0.06666666666666667
9.26898280209e-07,0.07222222222222222
1.35471575414e-06,0.07777777777777778
1.38620759259e-06,0.08333333333333333
1.83027121697e-06,0.08888888888888889
2.0135405797e-06,0.09444444444444444
2.77511807145e-06,0.1
2.78943504443e-06,0.10555555555555556
2.85385388923e-06,0.1111111111111111
2.91258947673e-06,0.11666666666666667
3.20616597987e-06,0.12222222222222222
3.28053223068e-06,0.12777777777777777
3.66335025722e-06,0.13333333333333333
3.75200663057e-06,0.1388888888888889
3.95091077347e-06,0.14444444444444443
4.56849199663e-06,0.15
4.99979091114e-06,0.15555555555555556
5.22078880206e-06,0.16111111111111112
5.42983503673e-06,0.16666666666666666
5.51574617484e-06,0.17222222222222222
5.56004492106e-06,0.17777777777777778
5.74425714041e-06,0.18333333333333332
5.94385912729e-06,0.18888888888888888
6.04419401027e-06,0.19444444444444445
6.11245226573e-06,0.2
6.14636418018e-06,0.20555555555555555
6.21694525302e-06,0.2111111111111111
6.27769605541e-06,0.21666666666666667
6.29147179904e-06,0.2222222222222222
6.50168603319e-06,0.22777777777777777
6.55592877914e-06,0.23333333333333334
6.63118676023e-06,0.2388888888888889
7.18121959084e-06,0.24444444444444444
7.55652084278e-06,0.25
8.2041836729e-06,0.25555555555555554
8.334156088e-06,0.2611111111111111
8.45409063555e-06,0.26666666666666666
8.74038787429e-06,0.2722222222222222
3.08966093403e-05,0.2777777777777778
6.17932186806e-05,0.2833333333333333
6.77357877069e-05,0.28888888888888886
6.77357877069e-05,0.29444444444444445
6.97358761109e-05,0.3
6.97358761109e-05,0.3055555555555556
0.000105576100216,0.3111111111111111
0.000138620759259,0.31666666666666665
0.000139471752222,0.32222222222222224
0.000185697082907,0.3277777777777778
0.000277511807145,0.3333333333333333
0.000288603221913,0.3388888888888889
0.000305622613287,0.34444444444444444
0.000305622613287,0.35
0.000390352474098,0.35555555555555557
0.000594385912729,0.3611111111111111
0.000604419401027,0.36666666666666664
0.000623740279813,0.37222222222222223
0.000671957639009,0.37777777777777777
0.000710937348757,0.38333333333333336
0.000710937348757,0.3888888888888889
0.000810682102119,0.39444444444444443
0.000856742718343,0.4
0.000921228174552,0.40555555555555556
0.000984880815777,0.4111111111111111
0.00122353309263,0.4166666666666667
0.00129365216431,0.4222222222222222
0.00136110595208,0.42777777777777776
0.00167334421714,0.43333333333333335
0.00196460316481,0.4388888888888889
0.00205693519857,0.4444444444444444
0.00253995106714,0.45
0.00287735356586,0.45555555555555555
0.00511919064997,0.46111111111111114
0.00622795443161,0.4666666666666667
0.00651891687199,0.4722222222222222
0.00710199321904,0.4777777777777778
0.00727456895627,0.48333333333333334
0.00765356783652,0.4888888888888889
0.00773739582132,0.49444444444444446
0.00819424502098,0.5
0.0088498378989,0.5055555555555555
0.00890507772187,0.5111111111111111
0.00905119195687,0.5166666666666667
0.0091904631108,0.5222222222222223
0.00951851633386,0.5277777777777778
0.00990403350556,0.5333333333333333
0.0100508351884,0.5388888888888889
0.0122101614161,0.5444444444444444
0.0123586127257,0.55
0.0125231457746,0.5555555555555556
0.012542960995,0.5611111111111111
0.0125466934667,0.5666666666666667
0.0125597054787,0.5722222222222222
0.0125702606988,0.5777777777777777
0.0125802203237,0.5833333333333334
0.0125884255219,0.5888888888888889
0.0125972345528,0.5944444444444444
0.0126041338461,0.6
0.0126062725638,0.6055555555555555
0.0126100084432,0.6111111111111112
0.0126138955529,0.6166666666666667
0.0126174446814,0.6222222222222222
0.0126206299348,0.6277777777777778
0.0126256700111,0.6333333333333333
0.0126312193347,0.6388888888888888
0.0126513377406,0.6444444444444445
0.0126628576557,0.65
0.0126660487077,0.6555555555555556
0.012672631181,0.6611111111111111
0.0126816152817,0.6666666666666666
0.0126833909408,0.6722222222222223
0.0126881393507,0.6777777777777778
0.0126892093597,0.6833333333333333
0.012690307198,0.6888888888888889
0.0126917898472,0.6944444444444444
0.0126921898249,0.7
0.0127007927417,0.7055555555555556
0.0127017474813,0.7111111111111111
0.0127169723086,0.7166666666666667
0.0127230913769,0.7222222222222222
0.0127414170831,0.7277777777777777
0.012743891548,0.7333333333333333
0.0127486948164,0.7388888888888889
0.0127502714576,0.7444444444444445
0.315156814096,0.75
0.315156814096,0.7555555555555555
0.418656849291,0.7611111111111111
0.487257959918,0.7666666666666667
0.626157288729,0.7722222222222223
0.626157288729,0.7777777777777778
0.630313628192,0.7833333333333333
0.634406967534,0.7888888888888889
0.634406967534,0.7944444444444444
0.837313698582,0.8
1.25702606988,0.8055555555555556
1.26041338461,0.8111111111111111
1.26833909408,0.8166666666666667
1.26892093597,0.8222222222222222
1.56945291359,0.8277777777777777
1.57690128224,0.8333333333333334
1.88588074401,0.8388888888888889
1.89697396864,0.8444444444444444
1.90534077395,0.85
2.002888203,0.8555555555555555
2.002888203,0.8611111111111112
2.52872330074,0.8666666666666667
2.53755807657,0.8722222222222222
2.82747494597,0.8777777777777778
3.16600468845,0.8833333333333333
3.2618438971,0.8888888888888888
3.27296747718,0.8944444444444445
4.09407981674,0.9
5.81004994131,0.9055555555555556
6.51940144677,0.9111111111111111
7.25907491702,0.9166666666666666
7.7804022911,0.9222222222222223
8.53321662532,0.9277777777777778
14.8596312171,0.9333333333333333
15.5111685451,0.9388888888888889
16.7860380268,0.9444444444444444
18.0511718008,0.95
18.655617636,0.9555555555555556
19.9279267737,0.9611111111111111
21.1984421001,0.9666666666666667
21.8161470559,0.9722222222222222
22.4194582418,0.9777777777777777
23.0749896081,0.9833333333333333
23.4098615923,0.9888888888888889
24.3108508806,0.9944444444444445
25.3159343995,1.0
