Congestion,CDF
0.0,0.005555555555555556
0.0,0.011111111111111112
0.0,0.016666666666666666
0.0,0.022222222222222223
0.0,0.027777777777777776
0.0,0.03333333333333333
0.0,0.03888888888888889
0.0,0.044444444444444446
0.0,0.05
0.0,0.05555555555555555
3.58638912369e-07,0.06111111111111111
4.12058862264e-07,0.06666666666666667
9.27510358526e-07,0.07222222222222222
1.3556103422e-06,0.07777777777777778
1.38712297632e-06,0.08333333333333333
1.83147983862e-06,0.08888888888888889
2.01487022347e-06,0.09444444444444444
2.77695062377e-06,0.1
2.79127705099e-06,0.10555555555555556
2.85573843483e-06,0.1111111111111111
2.91451280845e-06,0.11666666666666667
3.20828317517e-06,0.12222222222222222
3.28269853381e-06,0.12777777777777777
3.66576935467e-06,0.13333333333333333
3.75448427235e-06,0.1388888888888889
3.95351976182e-06,0.14444444444444443
4.57150880543e-06,0.15
5.00309252866e-06,0.15555555555555556
5.22423635579e-06,0.16111111111111112
5.43342063437e-06,0.16666666666666666
5.519388504e-06,0.17222222222222222
5.56371650294e-06,0.17777777777777778
5.74805036704e-06,0.18333333333333332
5.94778416131e-06,0.18888888888888888
6.04818530055e-06,0.19444444444444445
6.11648863043e-06,0.2
6.15042293864e-06,0.20555555555555555
6.22105061977e-06,0.2111111111111111
6.28184153903e-06,0.21666666666666667
6.29562637948e-06,0.2222222222222222
6.50597942884e-06,0.22777777777777777
6.56025799405e-06,0.23333333333333334
6.63556567183e-06,0.2388888888888889
7.18596171723e-06,0.24444444444444444
7.56151079977e-06,0.25
8.20960131477e-06,0.25555555555555554
8.3396595573e-06,0.2611111111111111
8.45967330376e-06,0.26666666666666666
8.7461595992e-06,0.2722222222222222
3.09170119509e-05,0.2777777777777778
6.18340239017e-05,0.2833333333333333
6.77805171101e-05,0.28888888888888886
6.77805171101e-05,0.29444444444444445
6.97819262747e-05,0.3
6.97819262747e-05,0.3055555555555556
0.000105645817512,0.3111111111111111
0.000138712297632,0.31666666666666665
0.000139563852549,0.32222222222222224
0.000185819708184,0.3277777777777778
0.000277695062377,0.3333333333333333
0.000288793801373,0.3388888888888889
0.000305824431521,0.34444444444444444
0.000305824431521,0.35
0.000390610243791,0.35555555555555557
0.000594778416131,0.3611111111111111
0.000604818530055,0.36666666666666664
0.000624152167404,0.37222222222222223
0.000672401366988,0.37777777777777777
0.000711406817031,0.38333333333333336
0.000711406817031,0.3888888888888889
0.000811217436953,0.39444444444444443
0.000857308469356,0.4
0.000921836508608,0.40555555555555556
0.000985531182926,0.4111111111111111
0.00122434105408,0.4166666666666667
0.00129450642897,0.4222222222222222
0.00136200475991,0.42777777777777776
0.00167444921187,0.43333333333333335
0.00196590049271,0.4388888888888889
0.00205829349803,0.4444444444444444
0.00254162832667,0.45
0.00287925362951,0.45555555555555555
0.00512257111325,0.46111111111111114
0.00615618742671,0.4666666666666667
0.00623206706829,0.4722222222222222
0.00647435171726,0.4777777777777778
0.00652322164604,0.48333333333333334
0.00710668302821,0.4888888888888889
0.00727937272602,0.49444444444444446
0.0076586218786,0.5
0.00774250521931,0.5055555555555555
0.00819965609985,0.5111111111111111
0.00885568189926,0.5166666666666667
0.00891095819991,0.5222222222222223
0.00905716892161,0.5277777777777778
0.0091965320434,0.5333333333333333
0.00952480189678,0.5388888888888889
0.0121291391589,0.5444444444444444
0.0124362963443,0.55
0.0125559252497,0.5555555555555556
0.0125615887721,0.5611111111111111
0.0125704887618,0.5666666666666667
0.0125932335776,0.5722222222222222
0.0126204030037,0.5777777777777777
0.0126464255539,0.5833333333333334
0.0127045164107,0.5888888888888889
0.0127071730146,0.5944444444444444
0.0127153636781,0.6
0.0127334192741,0.6055555555555555
0.01274802216,0.6111111111111112
0.012758181926,0.6166666666666667
0.0127633308368,0.6222222222222222
0.0127669382721,0.6277777777777778
0.0127952166989,0.6333333333333333
0.0128337385099,0.6388888888888888
0.0128437118966,0.6444444444444445
0.0128505263019,0.65
0.0128548969617,0.6555555555555556
0.0128690407254,0.6611111111111111
0.0128893986202,0.6666666666666666
0.0128983941472,0.6722222222222223
0.0129078421239,0.6777777777777778
0.0129092411176,0.6833333333333333
0.0129141183265,0.6888888888888889
0.0129151885403,0.6944444444444444
0.0129197669077,0.7
0.012935974074,0.7055555555555556
0.0129416131507,0.7111111111111111
0.012976733835,0.7166666666666667
0.0129964195683,0.7222222222222222
0.0130381816839,0.7277777777777777
0.0130453567465,0.7333333333333333
0.0130560758745,0.7388888888888889
0.0130648387739,0.7444444444444445
0.317679325365,0.75
0.317679325365,0.7555555555555555
0.419774452585,0.7611111111111111
0.486097259723,0.7666666666666667
0.628524438091,0.7722222222222223
0.628524438091,0.7777777777777778
0.635358650731,0.7833333333333333
0.64546205588,0.7888888888888889
0.64546205588,0.7944444444444444
0.839548905171,0.8
1.26204030037,0.8055555555555556
1.27045164107,0.8111111111111111
1.28983941472,0.8166666666666667
1.29078421239,0.8222222222222222
1.57327185034,0.8277777777777777
1.59102125278,0.8333333333333334
1.90804610798,0.8388888888888889
1.92128024848,0.8444444444444444
1.94096623818,0.85
2.02860448528,0.8555555555555555
2.02860448528,0.8611111111111112
2.55971368386,0.8666666666666667
2.58181610549,0.8722222222222222
2.83791440572,0.8777777777777778
3.21279910251,0.8833333333333333
3.29516689502,0.8888888888888888
3.32220189269,0.8944444444444445
4.1234041019,0.9
5.90192596709,0.9055555555555556
6.57993025751,0.9111111111111111
7.33347911391,0.9166666666666666
7.85146662533,0.9222222222222223
8.63729728231,0.9277777777777778
15.0448044251,0.9333333333333333
15.7364481649,0.9388888888888889
17.0429320423,0.9444444444444444
18.3279846725,0.95
18.8914221815,0.9555555555555556
20.1910641383,0.9611111111111111
21.5194046315,0.9666666666666667
22.0959216601,0.9722222222222222
22.7323185474,0.9777777777777777
23.34793729,0.9833333333333333
23.3707238761,0.9888888888888889
24.6143535105,0.9944444444444445
25.2617886822,1.0
