Congestion,CDF
0.0,0.009433962264150943
0.0,0.018867924528301886
0.0,0.02830188679245283
0.0,0.03773584905660377
0.0,0.04716981132075472
0.0,0.05660377358490566
0.0,0.0660377358490566
0.0,0.07547169811320754
0.0,0.08490566037735849
0.0,0.09433962264150944
0.0,0.10377358490566038
0.0,0.11320754716981132
0.0,0.12264150943396226
0.0,0.1320754716981132
0.0,0.14150943396226415
0.0,0.1509433962264151
0.0,0.16037735849056603
0.0,0.16981132075471697
0.0,0.1792452830188679
0.0,0.18867924528301888
0.0,0.19811320754716982
0.0,0.20754716981132076
0.0,0.2169811320754717
0.0,0.22641509433962265
0.0,0.2358490566037736
0.0,0.24528301886792453
0.0,0.25471698113207547
0.0,0.2641509433962264
0.0,0.27358490566037735
0.0,0.2830188679245283
1.64832907082e-07,0.29245283018867924
4.24649338297e-06,0.3018867924528302
4.77525563042e-06,0.3113207547169811
6.47364275506e-06,0.32075471698113206
7.30757466658e-06,0.330188679245283
9.7236349511e-06,0.33962264150943394
1.48286927507e-05,0.3490566037735849
1.89815100638e-05,0.3584905660377358
2.00884073379e-05,0.36792452830188677
2.34297289606e-05,0.37735849056603776
2.88476073305e-05,0.3867924528301887
2.9508613971e-05,0.39622641509433965
3.11344916925e-05,0.4056603773584906
0.0001995104864,0.41509433962264153
0.000273477233,0.42452830188679247
0.000273477233,0.4339622641509434
0.000711806627391,0.44339622641509435
0.000711806627391,0.4528301886792453
0.000711806627391,0.46226415094339623
0.000729272621333,0.4716981132075472
0.000729272621333,0.4811320754716981
0.000729272621333,0.49056603773584906
0.00112589281018,0.5
0.00134454846197,0.5094339622641509
0.00134454846197,0.5188679245283019
0.00142361325478,0.5283018867924528
0.00142361325478,0.5377358490566038
0.00194209282652,0.5471698113207547
0.002475560138,0.5566037735849056
0.002475560138,0.5660377358490566
0.00306727802906,0.5754716981132075
0.00306727802906,0.5849056603773585
0.00387362457707,0.5943396226415094
0.00471148232904,0.6037735849056604
0.0062090108269,0.6132075471698113
0.00621380638509,0.6226415094339622
0.00621442762983,0.6320754716981132
0.00621642307123,0.6415094339622641
0.00621740286096,0.6509433962264151
0.00622024149924,0.660377358490566
0.00622623945077,0.6698113207547169
0.00623111861139,0.6792452830188679
0.00623241910914,0.6886792452830188
0.00623634484044,0.6981132075471698
0.00624271032603,0.7075471698113207
0.00624348694521,0.7169811320754716
0.00624539719504,0.7264150943396226
0.00636742614818,0.7358490566037735
0.00992902712937,0.7452830188679245
0.0100725386599,0.7547169811320755
0.0215019334213,0.7641509433962265
0.0809490287513,0.7735849056603774
0.174944292166,0.7830188679245284
0.174944292166,0.7924528301886793
0.233666947927,0.8018867924528302
0.233666947927,0.8113207547169812
0.233666947927,0.8207547169811321
0.466518112443,0.8301886792452831
0.466518112443,0.839622641509434
0.466518112443,0.8490566037735849
0.467333895854,0.8584905660377359
0.467333895854,0.8679245283018868
1.04931761147,0.8773584905660378
1.04931761147,0.8867924528301887
1.05064644132,0.8962264150943396
1.05064644132,0.9056603773584906
1.05134165289,0.9150943396226415
1.05134165289,0.9245283018867925
1.22691201521,0.9339622641509434
1.86492692137,0.9433962264150944
2.32962925222,0.9528301886792453
2.33997208771,0.9622641509433962
2.45025729661,0.9716981132075472
2.45655602177,0.9811320754716981
4.66409398591,0.9905660377358491
7.94150458636,1.0
