Congestion,CDF
0.0,0.009433962264150943
0.0,0.018867924528301886
0.0,0.02830188679245283
0.0,0.03773584905660377
0.0,0.04716981132075472
0.0,0.05660377358490566
0.0,0.0660377358490566
0.0,0.07547169811320754
0.0,0.08490566037735849
0.0,0.09433962264150944
0.0,0.10377358490566038
0.0,0.11320754716981132
0.0,0.12264150943396226
0.0,0.1320754716981132
0.0,0.14150943396226415
0.0,0.1509433962264151
0.0,0.16037735849056603
0.0,0.16981132075471697
0.0,0.1792452830188679
0.0,0.18867924528301888
0.0,0.19811320754716982
0.0,0.20754716981132076
0.0,0.2169811320754717
0.0,0.22641509433962265
0.0,0.2358490566037736
0.0,0.24528301886792453
0.0,0.25471698113207547
0.0,0.2641509433962264
0.0,0.27358490566037735
0.0,0.2830188679245283
1.93113031906e-07,0.29245283018867924
4.9750576306e-06,0.3018867924528302
4.98922098485e-06,0.3113207547169811
5.59453879229e-06,0.32075471698113206
7.5843155474e-06,0.330188679245283
7.60590712598e-06,0.33962264150943394
8.56132385653e-06,0.3490566037735849
8.5856968531e-06,0.3584905660377358
1.13919038364e-05,0.36792452830188677
1.73728284418e-05,0.37735849056603776
1.74222866675e-05,0.3867924528301887
2.22381381452e-05,0.39622641509433965
2.35349440585e-05,0.4056603773584906
2.36019450412e-05,0.41509433962264153
2.74495310215e-05,0.42452830188679247
2.75276763337e-05,0.4339622641509434
3.37969463345e-05,0.44339622641509435
3.45713608536e-05,0.4528301886792453
3.64761878803e-05,0.46226415094339623
3.65800309327e-05,0.4716981132075472
0.000111284563549,0.4811320754716981
0.000143035012538,0.49056603773584906
0.000194240558644,0.5
0.000233740189431,0.5094339622641509
0.000320397295399,0.5188679245283019
0.000320397295399,0.5283018867924528
0.000683705107838,0.5377358490566038
0.000833930180445,0.5471698113207547
0.000833930180445,0.5566037735849056
0.000833930180445,0.5660377358490566
0.00085439278773,0.5754716981132075
0.00085439278773,0.5849056603773585
0.00085439278773,0.5943396226415094
0.00131906048388,0.6037735849056604
0.00157523054487,0.6132075471698113
0.00157523054487,0.6226415094339622
0.00166786036089,0.6320754716981132
0.00166786036089,0.6415094339622641
0.00227529466422,0.6509433962264151
0.0022817721378,0.660377358490566
0.00290028813043,0.6698113207547169
0.00290028813043,0.6792452830188679
0.00359352613732,0.6886792452830188
0.00359352613732,0.6981132075471698
0.00402285972763,0.7075471698113207
0.00402285972763,0.7169811320754716
0.0041731711331,0.7264150943396226
0.0041731711331,0.7358490566037735
0.0041731711331,0.7452830188679245
0.00453821630513,0.7547169811320755
0.00551982400504,0.7641509433962265
0.00745987552291,0.7735849056603774
0.00765323625131,0.7830188679245284
0.0083463422662,0.7924528301886793
0.0083463422662,0.8018867924528302
0.00911274532755,0.8113207547169812
0.00911274532755,0.8207547169811321
0.00980795689458,0.8301886792452831
0.00980795689458,0.839622641509434
0.0107276259403,0.8490566037735849
0.0107276259403,0.8584905660377359
0.0107276259403,0.8679245283018868
0.0116325348304,0.8773584905660378
0.0117397386865,0.8867924528301887
0.0118006684104,0.8962264150943396
0.0171244556972,0.9056603773584906
0.0180384638544,0.9150943396226415
0.0185310560317,0.9245283018867925
0.0251909866078,0.9339622641509434
0.0369140897353,0.9433962264150944
0.0840695627093,0.9528301886792453
0.0840695627093,0.9622641509433962
0.125739843678,0.9716981132075472
5.14687369326,0.9811320754716981
5.5688537936,0.9905660377358491
10.8860924047,1.0
