Congestion,CDF
0.0,0.009433962264150943
0.0,0.018867924528301886
0.0,0.02830188679245283
0.0,0.03773584905660377
0.0,0.04716981132075472
0.0,0.05660377358490566
0.0,0.0660377358490566
0.0,0.07547169811320754
0.0,0.08490566037735849
0.0,0.09433962264150944
0.0,0.10377358490566038
0.0,0.11320754716981132
0.0,0.12264150943396226
0.0,0.1320754716981132
0.0,0.14150943396226415
0.0,0.1509433962264151
0.0,0.16037735849056603
0.0,0.16981132075471697
0.0,0.1792452830188679
0.0,0.18867924528301888
0.0,0.19811320754716982
0.0,0.20754716981132076
0.0,0.2169811320754717
0.0,0.22641509433962265
0.0,0.2358490566037736
0.0,0.24528301886792453
0.0,0.25471698113207547
0.0,0.2641509433962264
0.0,0.27358490566037735
0.0,0.2830188679245283
1.5630707877e-07,0.29245283018867924
4.02684747516e-06,0.3018867924528302
4.52825998876e-06,0.3113207547169811
6.13879962415e-06,0.32075471698113206
6.9295971857e-06,0.330188679245283
9.22068900644e-06,0.33962264150943394
1.40616924549e-05,0.3490566037735849
1.79997091675e-05,0.3584905660377358
1.9049353213e-05,0.36792452830188677
2.22178480925e-05,0.37735849056603776
2.73554917592e-05,0.3867924528301887
2.7982308448e-05,0.39622641509433965
2.95240891614e-05,0.4056603773584906
0.000189190992655,0.41509433962264153
0.000259331878306,0.42452830188679247
0.000259331878306,0.4339622641509434
0.00067498909378,0.44339622641509435
0.00067498909378,0.4528301886792453
0.00067498909378,0.46226415094339623
0.000691551675483,0.4716981132075472
0.000691551675483,0.4811320754716981
0.000691551675483,0.49056603773584906
0.00106765705515,0.5
0.00127500294738,0.5094339622641509
0.00127500294738,0.5188679245283019
0.00134997818756,0.5283018867924528
0.00134997818756,0.5377358490566038
0.00184163988724,0.5471698113207547
0.00234751409982,0.5566037735849056
0.00234751409982,0.5660377358490566
0.0029086259351,0.5754716981132075
0.0029086259351,0.5849056603773585
0.00367326496032,0.5943396226415094
0.00446778530188,0.6037735849056604
0.00603807697215,0.6132075471698113
0.00941545746593,0.6226415094339622
0.00955154599642,0.6320754716981132
0.0203897659787,0.6415094339622641
0.0238765890299,0.6509433962264151
0.0292811409744,0.660377358490566
0.0370359021668,0.6698113207547169
0.0372408357224,0.6792452830188679
0.0453779732148,0.6886792452830188
0.0453819410835,0.6981132075471698
0.0483999708165,0.7075471698113207
0.0500724288049,0.7169811320754716
0.051130380783,0.7264150943396226
0.0513622539757,0.7358490566037735
0.0529119490143,0.7452830188679245
0.0549154141324,0.7547169811320755
0.0552246791694,0.7641509433962265
0.582211458888,0.7735849056603774
1.44456339307,0.7830188679245284
1.44456339307,0.7924528301886793
1.91738927936,0.8018867924528302
1.91738927936,0.8113207547169812
1.91738927936,0.8207547169811321
3.83477855872,0.8301886792452831
3.83477855872,0.839622641509434
3.85216904818,0.8490566037735849
3.85216904818,0.8584905660377359
3.85216904818,0.8679245283018868
6.6801531281,0.8773584905660378
7.98807372448,0.8867924528301887
7.98807372448,0.8962264150943396
8.32760206945,0.9056603773584906
8.32760206945,0.9150943396226415
8.78434229232,0.9245283018867925
8.8351996167,0.9339622641509434
8.8351996167,0.9433962264150944
16.660680057,0.9528301886792453
16.706790107,0.9622641509433962
20.3180980432,0.9716981132075472
20.4108775543,0.9811320754716981
36.044423086,0.9905660377358491
67.5309703945,1.0
