Congestion,CDF
0.0,0.009433962264150943
0.0,0.018867924528301886
0.0,0.02830188679245283
0.0,0.03773584905660377
0.0,0.04716981132075472
0.0,0.05660377358490566
0.0,0.0660377358490566
0.0,0.07547169811320754
0.0,0.08490566037735849
0.0,0.09433962264150944
0.0,0.10377358490566038
0.0,0.11320754716981132
0.0,0.12264150943396226
0.0,0.1320754716981132
0.0,0.14150943396226415
0.0,0.1509433962264151
0.0,0.16037735849056603
0.0,0.16981132075471697
0.0,0.1792452830188679
0.0,0.18867924528301888
0.0,0.19811320754716982
0.0,0.20754716981132076
0.0,0.2169811320754717
0.0,0.22641509433962265
0.0,0.2358490566037736
0.0,0.24528301886792453
0.0,0.25471698113207547
0.0,0.2641509433962264
0.0,0.27358490566037735
0.0,0.2830188679245283
1.64687602853e-07,0.29245283018867924
4.24274999544e-06,0.3018867924528302
4.77104612607e-06,0.3113207547169811
6.46793608101e-06,0.32075471698113206
7.30113286121e-06,0.330188679245283
7.60590712598e-06,0.33962264150943394
9.71506332964e-06,0.3490566037735849
1.02985918351e-05,0.3584905660377358
1.48156208963e-05,0.36792452830188677
1.89647773995e-05,0.37735849056603776
2.00706989167e-05,0.3867924528301887
2.34090750828e-05,0.39622641509433965
2.75276763337e-05,0.4056603773584906
2.88221774607e-05,0.41509433962264153
2.94826014078e-05,0.42452830188679247
3.11070458783e-05,0.4339622641509434
4.2655438102e-05,0.44339622641509435
0.000167215875266,0.4528301886792453
0.000199334613038,0.46226415094339623
0.000231520883593,0.4716981132075472
0.000241354600059,0.4811320754716981
0.000273236156146,0.49056603773584906
0.000273236156146,0.5
0.000711179152481,0.5094339622641509
0.000711179152481,0.5188679245283019
0.000711179152481,0.5283018867924528
0.000728629749723,0.5377358490566038
0.000728629749723,0.5471698113207547
0.000728629749723,0.5566037735849056
0.0011249003082,0.5660377358490566
0.00134336320969,0.5754716981132075
0.00134336320969,0.5849056603773585
0.00142235830496,0.5943396226415094
0.00142235830496,0.6037735849056604
0.0019403808243,0.6132075471698113
0.0022817721378,0.6226415094339622
0.00247337787133,0.6320754716981132
0.00247337787133,0.6415094339622641
0.00306457414863,0.6509433962264151
0.00306457414863,0.660377358490566
0.00387020988248,0.6698113207547169
0.0047073290424,0.6792452830188679
0.00539115098521,0.6886792452830188
0.00636181310666,0.6981132075471698
0.00716250994006,0.7075471698113207
0.0073451489079,0.7169811320754716
0.00992027444968,0.7264150943396226
0.0100636594713,0.7358490566037735
0.0193102012001,0.7452830188679245
0.0214829789423,0.7547169811320755
0.026063145692,0.7641509433962265
0.0272981967432,0.7735849056603774
0.0932985324408,0.7830188679245284
0.192655770051,0.7924528301886793
0.201445592064,0.8018867924528302
0.201445592064,0.8113207547169812
0.202168161946,0.8207547169811321
0.202168161946,0.8301886792452831
0.202168161946,0.839622641509434
0.371883499491,0.8490566037735849
0.371883499491,0.8584905660377359
0.374200682654,0.8679245283018868
0.379117812928,0.8773584905660378
0.379117812928,0.8867924528301887
0.381480973064,0.8962264150943396
0.404336323891,0.9056603773584906
0.404336323891,0.9150943396226415
0.537188245504,0.9245283018867925
0.537188245504,0.9339622641509434
0.537188245504,0.9433962264150944
2.52546934854,0.9528301886792453
2.52546934854,0.9622641509433962
3.94518926197,0.9716981132075472
8.2897059923,0.9811320754716981
8.66022130766,0.9905660377358491
22.520764437,1.0
