Congestion,CDF
0.0,0.009433962264150943
0.0,0.018867924528301886
0.0,0.02830188679245283
0.0,0.03773584905660377
0.0,0.04716981132075472
0.0,0.05660377358490566
0.0,0.0660377358490566
0.0,0.07547169811320754
0.0,0.08490566037735849
0.0,0.09433962264150944
0.0,0.10377358490566038
0.0,0.11320754716981132
0.0,0.12264150943396226
0.0,0.1320754716981132
0.0,0.14150943396226415
0.0,0.1509433962264151
0.0,0.16037735849056603
0.0,0.16981132075471697
0.0,0.1792452830188679
0.0,0.18867924528301888
0.0,0.19811320754716982
0.0,0.20754716981132076
0.0,0.2169811320754717
0.0,0.22641509433962265
0.0,0.2358490566037736
0.0,0.24528301886792453
0.0,0.25471698113207547
0.0,0.2641509433962264
0.0,0.27358490566037735
0.0,0.2830188679245283
1.56489290502e-07,0.29245283018867924
4.03154168901e-06,0.3018867924528302
4.53353871384e-06,0.3113207547169811
6.14595580237e-06,0.32075471698113206
6.93767521976e-06,0.330188679245283
9.23143783323e-06,0.33962264150943394
1.4078084581e-05,0.3490566037735849
1.80206919548e-05,0.3584905660377358
1.9071559601e-05,0.36792452830188677
2.22437480877e-05,0.37735849056603776
2.73873808558e-05,0.3867924528301887
2.80149282432e-05,0.39622641509433965
2.95585062555e-05,0.4056603773584906
0.000189411538128,0.41509433962264153
0.00025963418906,0.42452830188679247
0.00025963418906,0.4339622641509434
0.000675775948304,0.44339622641509435
0.000675775948304,0.4528301886792453
0.000675775948304,0.46226415094339623
0.000692357837492,0.4716981132075472
0.000692357837492,0.4811320754716981
0.000692357837492,0.49056603773584906
0.0010689016542,0.5
0.00127648925559,0.5094339622641509
0.00127648925559,0.5188679245283019
0.00135155189661,0.5283018867924528
0.00135155189661,0.5377358490566038
0.00184378674071,0.5471698113207547
0.00235025066565,0.5566037735849056
0.00235025066565,0.5660377358490566
0.0029120166054,0.5754716981132075
0.0029120166054,0.5849056603773585
0.00367754699269,0.5943396226415094
0.00440437507577,0.6037735849056604
0.00447299352985,0.6132075471698113
0.00554092948665,0.6226415094339622
0.00604511573503,0.6320754716981132
0.00942643334001,0.6415094339622641
0.00956268051288,0.6509433962264151
0.0204135349251,0.660377358490566
0.0234481013009,0.6698113207547169
0.0238073389429,0.6792452830188679
0.0385995963354,0.6886792452830188
0.0443604505389,0.6981132075471698
0.0474281474812,0.7075471698113207
0.0488063191005,0.7169811320754716
0.0534971659441,0.7264150943396226
0.0537953430533,0.7358490566037735
0.0549013451356,0.7452830188679245
0.0574962703653,0.7547169811320755
0.0580809667005,0.7641509433962265
0.514166349461,0.7735849056603774
1.51299402338,0.7830188679245284
1.51299402338,0.7924528301886793
1.662278846,0.8018867924528302
2.0061437229,0.8113207547169812
2.0061437229,0.8207547169811321
2.0061437229,0.8301886792452831
4.01228744581,0.839622641509434
4.01228744581,0.8490566037735849
4.034650729,0.8584905660377359
4.034650729,0.8679245283018868
4.034650729,0.8773584905660378
4.49956844661,0.8867924528301887
8.00815250117,0.8962264150943396
8.00815250117,0.9056603773584906
8.50831271436,0.9150943396226415
8.50831271436,0.9245283018867925
9.19400314331,0.9339622641509434
9.19400314331,0.9433962264150944
13.784135507,0.9528301886792453
13.8649639765,0.9622641509433962
21.272350197,0.9716981132075472
21.4477590976,0.9811320754716981
34.5160864266,0.9905660377358491
69.2072243967,1.0
