Congestion,CDF
0.0,0.009433962264150943
0.0,0.018867924528301886
0.0,0.02830188679245283
0.0,0.03773584905660377
0.0,0.04716981132075472
0.0,0.05660377358490566
0.0,0.0660377358490566
0.0,0.07547169811320754
0.0,0.08490566037735849
0.0,0.09433962264150944
0.0,0.10377358490566038
0.0,0.11320754716981132
0.0,0.12264150943396226
0.0,0.1320754716981132
0.0,0.14150943396226415
0.0,0.1509433962264151
0.0,0.16037735849056603
0.0,0.16981132075471697
0.0,0.1792452830188679
0.0,0.18867924528301888
0.0,0.19811320754716982
0.0,0.20754716981132076
0.0,0.2169811320754717
0.0,0.22641509433962265
0.0,0.2358490566037736
0.0,0.24528301886792453
0.0,0.25471698113207547
0.0,0.2641509433962264
0.0,0.27358490566037735
0.0,0.2830188679245283
1.05590606333e-07,0.29245283018867924
2.72026878025e-06,0.3018867924528302
3.0589895327e-06,0.3113207547169811
4.14696237412e-06,0.32075471698113206
4.68117230669e-06,0.330188679245283
6.22888067933e-06,0.33962264150943394
9.49913877262e-06,0.3490566037735849
1.21593994319e-05,0.3584905660377358
1.28684687336e-05,0.36792452830188677
1.50088919194e-05,0.37735849056603776
1.84795403004e-05,0.3867924528301887
1.89029757248e-05,0.39622641509433965
1.99444996382e-05,0.4056603773584906
0.0001278047788,0.41509433962264153
0.000175187269106,0.42452830188679247
0.000175187269106,0.4339622641509434
0.000455977478697,0.44339622641509435
0.000455977478697,0.4528301886792453
0.000455977478697,0.46226415094339623
0.00046716605095,0.4716981132075472
0.00046716605095,0.4811320754716981
0.00046716605095,0.49056603773584906
0.000721237686072,0.5
0.000861306700558,0.5094339622641509
0.000861306700558,0.5188679245283019
0.000911954957395,0.5283018867924528
0.000911954957395,0.5377358490566038
0.00124408871224,0.5471698113207547
0.00158582349005,0.5566037735849056
0.00158582349005,0.5660377358490566
0.00175881074828,0.5754716981132075
0.00175979053801,0.5849056603773585
0.0017748067862,0.5943396226415094
0.00177873251749,0.6037735849056604
0.00178778487209,0.6132075471698113
0.00196487311066,0.6226415094339622
0.00196487311066,0.6320754716981132
0.00248141208595,0.6415094339622641
0.00249168363919,0.6509433962264151
0.00301813687967,0.660377358490566
0.00327016528737,0.6698113207547169
0.00329034534287,0.6792452830188679
0.00382634564106,0.6886792452830188
0.00407892088822,0.6981132075471698
0.00488417207527,0.7075471698113207
0.00636045322163,0.7169811320754716
0.00645238552925,0.7264150943396226
0.00655123308767,0.7358490566037735
0.00730597461719,0.7452830188679245
0.00747915587697,0.7547169811320755
0.0137739619319,0.7641509433962265
0.0479590010297,0.7735849056603774
0.0919733987074,0.7830188679245284
0.0919733987074,0.7924528301886793
0.123387950358,0.8018867924528302
0.123387950358,0.8113207547169812
0.123387950358,0.8207547169811321
0.245262396553,0.8301886792452831
0.245262396553,0.839622641509434
0.245262396553,0.8490566037735849
0.246775900715,0.8584905660377359
0.246775900715,0.8679245283018868
0.384180124923,0.8773584905660378
0.384180124923,0.8867924528301887
0.43252179366,0.8962264150943396
0.464828770884,0.9056603773584906
0.464828770884,0.9150943396226415
0.527643224485,0.9245283018867925
0.733983719943,0.9339622641509434
0.733983719943,0.9433962264150944
0.780132995975,0.9528301886792453
0.786431721143,0.9622641509433962
2.43781153379,0.9716981132075472
2.48976591172,0.9811320754716981
2.74632034675,0.9905660377358491
7.87159233174,1.0
