Congestion,CDF
0.0,0.007352941176470588
0.0,0.014705882352941176
0.0,0.022058823529411766
0.0,0.029411764705882353
0.0,0.03676470588235294
0.0,0.04411764705882353
0.0,0.051470588235294115
0.0,0.058823529411764705
0.0,0.0661764705882353
0.0,0.07352941176470588
0.0,0.08088235294117647
0.0,0.08823529411764706
0.0,0.09558823529411764
0.0,0.10294117647058823
1.56306015094e-05,0.11029411764705882
1.56306015094e-05,0.11764705882352941
1.56306015094e-05,0.125
1.56306015094e-05,0.1323529411764706
1.56306015094e-05,0.13970588235294118
1.56306015094e-05,0.14705882352941177
1.56306015094e-05,0.15441176470588236
1.56306015094e-05,0.16176470588235295
1.56306015094e-05,0.16911764705882354
1.56306015094e-05,0.17647058823529413
1.56306015094e-05,0.18382352941176472
1.56306015094e-05,0.19117647058823528
1.56306015094e-05,0.19852941176470587
1.56306015094e-05,0.20588235294117646
1.56306015094e-05,0.21323529411764705
1.56306015094e-05,0.22058823529411764
1.56306015094e-05,0.22794117647058823
1.56306015094e-05,0.23529411764705882
1.56306015094e-05,0.2426470588235294
1.56306015094e-05,0.25
1.56306015094e-05,0.25735294117647056
1.56306015094e-05,0.2647058823529412
1.56306015094e-05,0.27205882352941174
1.56306015094e-05,0.27941176470588236
1.56306015094e-05,0.2867647058823529
1.56306015094e-05,0.29411764705882354
1.56306015094e-05,0.3014705882352941
0.000357404029814,0.3088235294117647
0.000390765037735,0.3161764705882353
0.000390765037735,0.3235294117647059
0.000422026240754,0.33088235294117646
0.000781530075471,0.3382352941176471
0.000781530075471,0.34558823529411764
0.000781530075471,0.35294117647058826
0.000781530075471,0.3602941176470588
0.000935279548945,0.36764705882352944
0.00117229511321,0.375
0.00130255012578,0.38235294117647056
0.00130255012578,0.3897058823529412
0.00130255012578,0.39705882352941174
0.00156306015094,0.40441176470588236
0.00156306015094,0.4117647058823529
0.00156306015094,0.41911764705882354
0.00156306015094,0.4264705882352941
0.00156306015094,0.4338235294117647
0.00156306015094,0.4411764705882353
0.00156306015094,0.4485294117647059
0.00195382518868,0.45588235294117646
0.00234459022641,0.4632352941176471
0.00234459022641,0.47058823529411764
0.00286561027673,0.47794117647058826
0.00312612030188,0.4852941176470588
0.00312612030188,0.49264705882352944
0.00468918045282,0.5
0.00638249561634,0.5073529411764706
0.00874681210381,0.5147058823529411
0.00891398825849,0.5220588235294118
0.0093290857639,0.5294117647058824
0.00941168928148,0.5367647058823529
0.00949757637506,0.5441176470588235
0.00950718376909,0.5514705882352942
0.00964560594803,0.5588235294117647
0.00968515540617,0.5661764705882353
0.00968808917495,0.5735294117647058
0.00970580816404,0.5808823529411765
0.00970983364306,0.5882352941176471
0.00971094961902,0.5955882352941176
0.0097116685431,0.6029411764705882
0.0097136202613,0.6102941176470589
0.00971476463269,0.6176470588235294
0.00971664074955,0.625
0.00971700120228,0.6323529411764706
0.00972741240425,0.6397058823529411
0.00973111916667,0.6470588235294118
0.00973116250453,0.6544117647058824
0.0097312922389,0.6617647058823529
0.0097313057007,0.6691176470588235
0.00973152014941,0.6764705882352942
0.00973152912452,0.6838235294117647
0.00973152912452,0.6911764705882353
0.0113321860943,0.6985294117647058
0.0115926961195,0.7058823529411765
0.0149793264465,0.7132352941176471
0.0186264667987,0.7205882352941176
0.0188869768239,0.7279411764705882
0.0201895269497,0.7352941176470589
0.0204500369748,0.7426470588235294
0.0220130971258,0.75
0.241265026888,0.7573529411764706
0.242791713578,0.7647058823529411
0.242916018739,0.7720588235294118
0.475359188454,0.7794117647058824
0.475359188454,0.7867647058823529
0.485850060114,0.7941176470588235
0.485850060114,0.8014705882352942
0.728375140733,0.8088235294117647
0.809368853752,0.8161764705882353
0.809368853752,0.8235294117647058
0.809368853752,0.8308823529411765
0.949757637506,0.8382352941176471
0.97136202613,0.8455882352941176
0.971664074955,0.8529411764705882
0.973116250453,0.8602941176470589
0.97313057007,0.8676470588235294
0.973152912452,0.875
0.973152912452,0.8823529411764706
1.21426817685,0.8897058823529411
1.40826776484,0.8970588235294118
1.45643087652,0.9044117647058824
1.77788439437,0.9117647058823529
1.89092656565,0.9191176470588235
1.94625979396,0.9264705882352942
2.91945783985,0.9338235294117647
3.96609401863,0.9411764705882353
7.05486181966,0.9485294117647058
7.18389819626,0.9558823529411765
9.32282197395,0.9632352941176471
11.3577737371,0.9705882352941176
11.451301692,0.9779411764705882
11.748061768,0.9852941176470589
12.6394605938,0.9926470588235294
12.6752009968,1.0
