Congestion,CDF
0.0,0.007352941176470588
0.0,0.014705882352941176
0.0,0.022058823529411766
0.0,0.029411764705882353
0.0,0.03676470588235294
0.0,0.04411764705882353
0.0,0.051470588235294115
0.0,0.058823529411764705
0.0,0.0661764705882353
0.0,0.07352941176470588
0.0,0.08088235294117647
0.0,0.08823529411764706
0.0,0.09558823529411764
0.0,0.10294117647058823
1.51364230543e-05,0.11029411764705882
1.51364230543e-05,0.11764705882352941
1.51364230543e-05,0.125
1.51364230543e-05,0.1323529411764706
1.51364230543e-05,0.13970588235294118
1.51364230543e-05,0.14705882352941177
1.51364230543e-05,0.15441176470588236
1.51364230543e-05,0.16176470588235295
1.51364230543e-05,0.16911764705882354
1.51364230543e-05,0.17647058823529413
1.51364230543e-05,0.18382352941176472
1.51364230543e-05,0.19117647058823528
1.51364230543e-05,0.19852941176470587
1.51364230543e-05,0.20588235294117646
1.51364230543e-05,0.21323529411764705
1.51364230543e-05,0.22058823529411764
1.51364230543e-05,0.22794117647058823
1.51364230543e-05,0.23529411764705882
1.51364230543e-05,0.2426470588235294
1.51364230543e-05,0.25
1.51364230543e-05,0.25735294117647056
1.51364230543e-05,0.2647058823529412
1.51364230543e-05,0.27205882352941174
1.51364230543e-05,0.27941176470588236
1.51364230543e-05,0.2867647058823529
1.51364230543e-05,0.29411764705882354
1.51364230543e-05,0.3014705882352941
0.000378410576357,0.3088235294117647
0.000378410576357,0.3161764705882353
0.000408683422466,0.3235294117647059
0.000756821152715,0.33088235294117646
0.000756821152715,0.3382352941176471
0.000756821152715,0.34558823529411764
0.000756821152715,0.35294117647058826
0.00113523172907,0.3602941176470588
0.00126136858786,0.36764705882352944
0.00126136858786,0.375
0.00126136858786,0.38235294117647056
0.00151364230543,0.3897058823529412
0.00151364230543,0.39705882352941174
0.00151364230543,0.40441176470588236
0.00151364230543,0.4117647058823529
0.00151364230543,0.41911764705882354
0.00151364230543,0.4264705882352941
0.00151364230543,0.4338235294117647
0.00189205288179,0.4411764705882353
0.00227046345814,0.4485294117647059
0.00227046345814,0.45588235294117646
0.00277501089329,0.4632352941176471
0.00302728461086,0.47058823529411764
0.00302728461086,0.47794117647058826
0.00454092691629,0.4852941176470588
0.00618070608051,0.49264705882352944
0.0109739067144,0.5
0.0112261804319,0.5073529411764706
0.0129279131076,0.5147058823529411
0.0139900685991,0.5220588235294118
0.0145057387604,0.5294117647058824
0.0180375708064,0.5367647058823529
0.0182898445239,0.5441176470588235
0.0195512131118,0.5514705882352942
0.0198034868294,0.5588235294117647
0.0213171291348,0.5661764705882353
0.0279159106906,0.5735294117647058
0.0280137395108,0.5808823529411765
0.0282623110804,0.5882352941176471
0.0283033358295,0.5955882352941176
0.0283459776658,0.6029411764705882
0.0283706334426,0.6102941176470589
0.0284458590372,0.6176470588235294
0.0284635309615,0.625
0.028471583979,0.6323529411764706
0.0284795966597,0.6397058823529411
0.0284812992348,0.6470588235294118
0.0284822586876,0.6544117647058824
0.0284827820379,0.6617647058823529
0.0284837927041,0.6691176470588235
0.0284842016481,0.6764705882352942
0.0284858653302,0.6838235294117647
0.0284876110863,0.6911764705882353
0.0284950490391,0.6985294117647058
0.0284977222977,0.7058823529411765
0.0284977359787,0.7132352941176471
0.0284978263823,0.7205882352941176
0.0284978302952,0.7279411764705882
0.0284980411826,0.7352941176470589
0.0284980437914,0.7426470588235294
0.0284980437914,0.75
0.712056467191,0.7573529411764706
0.712146633256,0.7647058823529411
0.737358564052,0.7720588235294118
1.41853167213,0.7794117647058824
1.41853167213,0.7867647058823529
1.42438055432,0.7941176470588235
1.42438055432,0.8014705882352942
2.13616940157,0.8088235294117647
2.37357974161,0.8161764705882353
2.37357974161,0.8235294117647058
2.37357974161,0.8308823529411765
2.83459776658,0.8382352941176471
2.84837927041,0.8455882352941176
2.84858653302,0.8529411764705882
2.84977359787,0.8602941176470589
2.84978302952,0.8676470588235294
2.84980437914,0.875
2.84980437914,0.8823529411764706
3.560476632,0.8897058823529411
4.24476278017,0.8970588235294118
4.27234022028,0.9044117647058824
5.21993283776,0.9117647058823529
5.66493134953,0.9191176470588235
5.69956566775,0.9264705882352942
8.54941287655,0.9338235294117647
11.6307138478,0.9411764705882353
20.6606710052,0.9485294117647058
21.1137642614,0.9558823529411765
27.308136205,0.9632352941176471
33.8150494602,0.9705882352941176
34.4276348232,0.9779411764705882
35.1078407709,0.9852941176470589
37.2290087743,0.9926470588235294
38.6280156342,1.0
