Congestion,CDF
0.0,0.007352941176470588
0.0,0.014705882352941176
0.0,0.022058823529411766
0.0,0.029411764705882353
0.0,0.03676470588235294
0.0,0.04411764705882353
0.0,0.051470588235294115
0.0,0.058823529411764705
0.0,0.0661764705882353
0.0,0.07352941176470588
0.0,0.08088235294117647
0.0,0.08823529411764706
0.0,0.09558823529411764
0.0,0.10294117647058823
1.5014042084e-05,0.11029411764705882
1.5014042084e-05,0.11764705882352941
1.5014042084e-05,0.125
1.5014042084e-05,0.1323529411764706
1.5014042084e-05,0.13970588235294118
1.5014042084e-05,0.14705882352941177
1.5014042084e-05,0.15441176470588236
1.5014042084e-05,0.16176470588235295
1.5014042084e-05,0.16911764705882354
1.5014042084e-05,0.17647058823529413
1.5014042084e-05,0.18382352941176472
1.5014042084e-05,0.19117647058823528
1.5014042084e-05,0.19852941176470587
1.5014042084e-05,0.20588235294117646
1.5014042084e-05,0.21323529411764705
1.5014042084e-05,0.22058823529411764
1.5014042084e-05,0.22794117647058823
1.5014042084e-05,0.23529411764705882
1.5014042084e-05,0.2426470588235294
1.5014042084e-05,0.25
1.5014042084e-05,0.25735294117647056
1.5014042084e-05,0.2647058823529412
1.5014042084e-05,0.27205882352941174
1.5014042084e-05,0.27941176470588236
1.5014042084e-05,0.2867647058823529
1.5014042084e-05,0.29411764705882354
1.5014042084e-05,0.3014705882352941
0.0003753510521,0.3088235294117647
0.0003753510521,0.3161764705882353
0.000405379136268,0.3235294117647059
0.0007507021042,0.33088235294117646
0.0007507021042,0.3382352941176471
0.0007507021042,0.34558823529411764
0.0007507021042,0.35294117647058826
0.0011260531563,0.3602941176470588
0.00125117017367,0.36764705882352944
0.00125117017367,0.375
0.00125117017367,0.38235294117647056
0.0015014042084,0.3897058823529412
0.0015014042084,0.39705882352941174
0.0015014042084,0.40441176470588236
0.0015014042084,0.4117647058823529
0.0015014042084,0.41911764705882354
0.0015014042084,0.4264705882352941
0.0015014042084,0.4338235294117647
0.0018767552605,0.4411764705882353
0.0022521063126,0.4485294117647059
0.0022521063126,0.45588235294117646
0.00275257438207,0.4632352941176471
0.0030028084168,0.47058823529411764
0.0030028084168,0.47794117647058826
0.0045042126252,0.4852941176470588
0.00613073385096,0.49264705882352944
0.0108851805109,0.5
0.0111354145456,0.5073529411764706
0.0143884569972,0.5147058823529411
0.0178917334834,0.5220588235294118
0.0181419675182,0.5294117647058824
0.0193931376918,0.5367647058823529
0.0196433717266,0.5441176470588235
0.021144775935,0.5514705882352942
0.0500748606922,0.5588235294117647
0.0506537253019,0.5661764705882353
0.0571529776481,0.5735294117647058
0.0572111969339,0.5808823529411765
0.057305069188,0.5882352941176471
0.057336108058,0.5955882352941176
0.0573566495535,0.6029411764705882
0.0573860714898,0.6102941176470589
0.0574567149956,0.6176470588235294
0.0574674541817,0.625
0.0574784655153,0.6323529411764706
0.0574830811791,0.6397058823529411
0.0574842580587,0.6470588235294118
0.0574851047022,0.6544117647058824
0.0574860670105,0.6617647058823529
0.0574866983135,0.6691176470588235
0.057487079079,0.6764705882352942
0.0574886716088,0.6838235294117647
0.0574906011733,0.6911764705882353
0.0574979264223,0.6985294117647058
0.0575004912142,0.7058823529411765
0.05750050186,0.7132352941176471
0.0575005916783,0.7205882352941176
0.0575005951728,0.7279411764705882
0.0575008062835,0.7352941176470589
0.0575008086134,0.7426470588235294
0.0575008086134,0.75
1.43712761755,0.7573529411764706
1.43721679022,0.7647058823529411
1.53677338454,0.7720588235294118
2.86930357449,0.7794117647058824
2.86930357449,0.7867647058823529
2.87453005866,0.7941176470588235
2.87453005866,0.8014705882352942
4.31138285266,0.8088235294117647
4.79048634306,0.8161764705882353
4.79048634306,0.8235294117647058
4.79048634306,0.8308823529411765
5.73566495535,0.8382352941176471
5.74866983135,0.8455882352941176
5.74886716088,0.8529411764705882
5.750050186,0.8602941176470589
5.75005951728,0.8676470588235294
5.75008086134,0.875
5.75008086134,0.8823529411764706
7.18583552545,0.8897058823529411
8.5998104933,0.8970588235294118
8.62283817658,0.9044117647058824
10.5372317612,0.9117647058823529
11.4692757612,0.9191176470588235
11.5001186851,0.9264705882352942
17.250242351,0.9338235294117647
23.4735984009,0.9411764705882353
41.6876771338,0.9485294117647058
42.6258052362,0.9558823529411765
55.1024861777,0.9632352941176471
68.4101892555,0.9705882352941176
69.4731709058,0.9779411764705882
73.4176753247,0.9852941176470589
75.1942905992,0.9926470588235294
80.2596631294,1.0
