Congestion,CDF
0.0,0.005555555555555556
0.0,0.011111111111111112
0.0,0.016666666666666666
0.0,0.022222222222222223
0.0,0.027777777777777776
0.0,0.03333333333333333
0.0,0.03888888888888889
0.0,0.044444444444444446
0.0,0.05
0.0,0.05555555555555555
1.19040817377e-06,0.06111111111111111
1.36772174127e-06,0.06666666666666667
3.07862831935e-06,0.07222222222222222
4.49959437234e-06,0.07777777777777778
4.60419232851e-06,0.08333333333333333
6.07911884288e-06,0.08888888888888889
6.68783531395e-06,0.09444444444444444
9.2173621062e-06,0.1
9.2649149385e-06,0.10555555555555556
9.47887766139e-06,0.1111111111111111
9.67396383957e-06,0.11666666666666667
1.06490578232e-05,0.12222222222222222
1.08960601649e-05,0.12777777777777777
1.2167563676e-05,0.13333333333333333
1.24620296681e-05,0.1388888888888889
1.31226759766e-05,0.14444444444444443
1.51739291547e-05,0.15
1.6606458571e-05,0.15555555555555556
1.73404877305e-05,0.16111111111111112
1.8034820293e-05,0.16666666666666666
1.83201681768e-05,0.17222222222222222
1.84673033884e-05,0.17777777777777778
1.90791514923e-05,0.18333333333333332
1.97421156412e-05,0.18888888888888888
2.00753709927e-05,0.19444444444444445
2.03020860517e-05,0.2
2.04147221223e-05,0.20555555555555555
2.06491522581e-05,0.2111111111111111
2.08509318327e-05,0.21666666666666667
2.08966870092e-05,0.2222222222222222
2.1594899001e-05,0.22777777777777777
2.17750625177e-05,0.23333333333333334
2.20250266797e-05,0.2388888888888889
2.38519225592e-05,0.24444444444444444
2.5098459625e-05,0.25
2.72496267733e-05,0.25555555555555554
2.76813211312e-05,0.2611111111111111
2.80796754085e-05,0.26666666666666666
2.90305918205e-05,0.2722222222222222
0.000102620943978,0.2777777777777778
0.000123778131236,0.2833333333333333
0.000205241887957,0.28888888888888886
0.000224979718617,0.29444444444444445
0.000224979718617,0.3
0.000231622873463,0.3055555555555556
0.000231622873463,0.3111111111111111
0.000350663690839,0.31666666666666665
0.000460419232851,0.32222222222222224
0.000463245746925,0.3277777777777778
0.000500493562827,0.3333333333333333
0.000616779975177,0.3388888888888889
0.00092173621062,0.34444444444444444
0.000958575575127,0.35
0.00101510430258,0.35555555555555557
0.00101510430258,0.3611111111111111
0.00106470046301,0.36666666666666664
0.00129652865578,0.37222222222222223
0.00149109457926,0.37777777777777777
0.00149982429713,0.38333333333333336
0.0015836683928,0.3888888888888889
0.00162334703988,0.39444444444444443
0.0016583001248,0.4
0.00173067596544,0.40555555555555556
0.00173307006184,0.4111111111111111
0.00188446673682,0.4166666666666667
0.00188683291838,0.4222222222222222
0.0019068858762,0.42777777777777776
0.00195468015668,0.43333333333333335
0.00197421156412,0.4388888888888889
0.00200753709927,0.4444444444444444
0.00202881362851,0.45
0.00204352389628,0.45555555555555555
0.00206967127459,0.46111111111111114
0.00207171005746,0.4666666666666667
0.00212016108913,0.4722222222222222
0.00223186067018,0.4777777777777778
0.00224663790771,0.48333333333333334
0.00227769190554,0.4888888888888889
0.00228256248879,0.49444444444444446
0.00231647991159,0.5
0.00232128839583,0.5055555555555555
0.00236132907127,0.5111111111111111
0.00236132907127,0.5166666666666667
0.00236780620996,0.5222222222222223
0.00238321743598,0.5277777777777778
0.00239999411318,0.5333333333333333
0.00241662839637,0.5388888888888889
0.0024275707011,0.5444444444444444
0.00243324251155,0.55
0.00244445204918,0.5555555555555556
0.00245657351434,0.5611111111111111
0.0024910971238,0.5666666666666667
0.00251213258602,0.5722222222222222
0.0026015567246,0.5777777777777777
0.00266179440439,0.5833333333333334
0.00269262434818,0.5888888888888889
0.00276810317037,0.5944444444444444
0.00278904561893,0.6
0.00280890593682,0.6055555555555555
0.00284561148877,0.6111111111111112
0.0028537760579,0.6166666666666667
0.00305979545686,0.6222222222222222
0.00327121328777,0.6277777777777778
0.00406388026504,0.6333333333333333
0.00429677589599,0.6388888888888888
0.00452081897137,0.6444444444444445
0.00555789670226,0.65
0.00652529308622,0.6555555555555556
0.00683196752935,0.6611111111111111
0.00843627121987,0.6666666666666666
0.00955693020668,0.6722222222222223
0.0170030365183,0.6777777777777778
0.0206857184808,0.6833333333333333
0.0216521300364,0.6888888888888889
0.0235887776629,0.6944444444444444
0.0241619759989,0.7
0.0254207944806,0.7055555555555556
0.0256992233152,0.7111111111111111
0.0272166162306,0.7166666666666667
0.0293941224824,0.7222222222222222
0.0295775977213,0.7277777777777777
0.0300629060138,0.7333333333333333
0.0305254854874,0.7388888888888889
0.0316150915039,0.7444444444444445
0.0471708229594,0.75
0.0471708229594,0.7555555555555555
0.0527889464267,0.7611111111111111
0.0811645453588,0.7666666666666667
0.0811673519941,0.7722222222222223
0.0811673519941,0.7777777777777778
0.0943416459188,0.7833333333333333
0.105577892853,0.7888888888888889
0.121378535055,0.7944444444444444
0.121378535055,0.8
0.16583001248,0.8055555555555556
0.188446673682,0.8111111111111111
0.196280280886,0.8166666666666667
0.239999411318,0.8222222222222222
0.241662839637,0.8277777777777777
0.242638838628,0.8333333333333334
0.308936542548,0.8388888888888889
0.324259897905,0.8444444444444444
0.342581261041,0.85
0.342581261041,0.8555555555555555
0.36934787743,0.8611111111111112
0.375232239601,0.8666666666666667
0.425985684939,0.8722222222222222
0.485656762752,0.8777777777777778
0.520091575825,0.8833333333333333
0.568705102824,0.8888888888888888
0.591690973421,0.8944444444444445
0.597604126309,0.9
1.01265526658,0.9055555555555556
1.07013443405,0.9111111111111111
1.15864259365,0.9166666666666666
1.2033438542,0.9222222222222223
1.43545291069,0.9277777777777778
2.51680253941,0.9333333333333333
2.76871933815,0.9388888888888889
3.05409694394,0.9444444444444444
3.17443621551,0.95
3.28622578353,0.9555555555555556
3.44061565595,0.9611111111111111
3.7287501354,0.9666666666666667
3.83348406967,0.9722222222222222
3.93995411597,0.9777777777777777
3.94076624431,0.9833333333333333
3.99000347226,0.9888888888888889
4.1140732505,0.9944444444444445
4.12645106362,1.0
