Congestion,CDF
0.0,0.005555555555555556
0.0,0.011111111111111112
0.0,0.016666666666666666
0.0,0.022222222222222223
0.0,0.027777777777777776
0.0,0.03333333333333333
0.0,0.03888888888888889
0.0,0.044444444444444446
0.0,0.05
0.0,0.05555555555555555
1.05223988831e-06,0.06111111111111111
1.20897302621e-06,0.06666666666666667
2.72129811462e-06,0.07222222222222222
3.97733549225e-06,0.07777777777777778
4.06979297376e-06,0.08333333333333333
5.37352773042e-06,0.08888888888888889
5.91159170347e-06,0.09444444444444444
8.14752140221e-06,0.1
8.18955487279e-06,0.10555555555555556
8.37868337224e-06,0.1111111111111111
8.5511262896e-06,0.11666666666666667
9.4130430733e-06,0.12222222222222222
9.63137634938e-06,0.12777777777777777
1.07552990021e-05,0.13333333333333333
1.1015586918e-05,0.1388888888888889
1.15995533366e-05,0.14444444444444443
1.34127216789e-05,0.15
1.46789802835e-05,0.15555555555555556
1.53278121529e-05,0.16111111111111112
1.59415549296e-05,0.16666666666666666
1.61937830577e-05,0.17222222222222222
1.63238405809e-05,0.17777777777777778
1.68646727045e-05,0.18333333333333332
1.74506879363e-05,0.18888888888888888
1.77452630086e-05,0.19444444444444445
1.79456637061e-05,0.2
1.80452263343e-05,0.20555555555555555
1.82524466351e-05,0.2111111111111111
1.84308060598e-05,0.21666666666666667
1.8471250525e-05,0.2222222222222222
1.90884224534e-05,0.22777777777777777
1.92476747526e-05,0.23333333333333334
1.94686260764e-05,0.2388888888888889
2.10834778211e-05,0.24444444444444444
2.21853318337e-05,0.25
2.40868173323e-05,0.25555555555555554
2.44684057932e-05,0.2611111111111111
2.48205238898e-05,0.26666666666666666
2.56610693441e-05,0.2722222222222222
9.0709937154e-05,0.2777777777777778
0.000181419874308,0.2833333333333333
0.000198866774612,0.28888888888888886
0.000198866774612,0.29444444444444445
0.00020473887182,0.3
0.00020473887182,0.3055555555555556
0.00030996286065,0.3111111111111111
0.000406979297376,0.31666666666666665
0.00040947774364,0.32222222222222224
0.000545191562435,0.3277777777777778
0.000814752140221,0.3333333333333333
0.000847315633692,0.3388888888888889
0.000897283185307,0.34444444444444444
0.000897283185307,0.35
0.00114604317915,0.35555555555555557
0.00174506879363,0.3611111111111111
0.00177452630086,0.36666666666666664
0.0018312508327,0.37222222222222223
0.00197281308552,0.37777777777777777
0.00208725434936,0.38333333333333336
0.00208725434936,0.3888888888888889
0.00238009684898,0.39444444444444443
0.00251532707949,0.4
0.00270465114465,0.40555555555555556
0.00289153013262,0.4111111111111111
0.00359219384613,0.4166666666666667
0.00379805774903,0.4222222222222222
0.0039960965947,0.42777777777777776
0.00491280279664,0.43333333333333335
0.0057679154256,0.4388888888888889
0.00603899478215,0.4444444444444444
0.00745709016601,0.45
0.00844767651539,0.45555555555555555
0.0105412444779,0.46111111111111114
0.0110518501472,0.4666666666666667
0.015029528225,0.4722222222222222
0.0182847686899,0.4777777777777778
0.0191390107975,0.48333333333333334
0.0204678331868,0.4888888888888889
0.0205744400651,0.49444444444444446
0.0205800511608,0.5
0.020634085158,0.5055555555555555
0.0206697006185,0.5111111111111111
0.0206822267539,0.5166666666666667
0.0207288388762,0.5222222222222223
0.0208279498573,0.5277777777777778
0.0208294624814,0.5333333333333333
0.0208423829771,0.5388888888888889
0.0208508756243,0.5444444444444444
0.0208731810921,0.55
0.0209075252218,0.5555555555555556
0.0209210474564,0.5611111111111111
0.0209304380271,0.5666666666666667
0.0209495305792,0.5722222222222222
0.0209989534781,0.5777777777777777
0.0210613320685,0.5833333333333334
0.0210845035854,0.5888888888888889
0.0211030169737,0.5944444444444444
0.0211064018362,0.6
0.021112716903,0.6055555555555555
0.021139423101,0.6111111111111112
0.0211602716239,0.6166666666666667
0.0211708864316,0.6222222222222222
0.0211735110747,0.6277777777777778
0.0211779966564,0.6333333333333333
0.0211815998996,0.6388888888888888
0.0211889186686,0.6444444444444445
0.0211967360621,0.65
0.0212188772945,0.6555555555555556
0.0212324508094,0.6611111111111111
0.0212901223662,0.6666666666666666
0.0213292744427,0.6722222222222223
0.0213575439809,0.6777777777777778
0.0213974377648,0.6833333333333333
0.0214110117499,0.6888888888888889
0.0214236859027,0.6944444444444444
0.0214532453745,0.7
0.02247025393,0.7055555555555556
0.0227163660891,0.7111111111111111
0.024057638257,0.7166666666666667
0.0259824057323,0.7222222222222222
0.0261445853687,0.7277777777777777
0.0265735649026,0.7333333333333333
0.026982453706,0.7388888888888889
0.0279455913409,0.7444444444444445
0.520736562036,0.75
0.520736562036,0.7555555555555555
0.687802838602,0.7611111111111111
0.799624162205,0.7666666666666667
1.03348503093,0.7722222222222223
1.03348503093,0.7777777777777778
1.04147312407,0.7833333333333333
1.05889983282,0.7888888888888889
1.05889983282,0.7944444444444444
1.3756056772,0.8
2.06822267539,0.8055555555555556
2.08279498573,0.8111111111111111
2.11602716239,0.8166666666666667
2.11708864316,0.8222222222222222
2.57818056854,0.8277777777777777
2.60805467124,0.8333333333333334
3.14378672829,0.8388888888888889
3.15100457846,0.8444444444444444
3.18384171434,0.85
3.32624559713,0.8555555555555555
3.32624559713,0.8611111111111112
4.19723491201,0.8666666666666667
4.2357007686,0.8722222222222222
4.65106445617,0.8777777777777778
5.26989644532,0.8833333333333333
5.40199071669,0.8888888888888888
5.44813332658,0.8944444444444445
6.75951481471,0.9
9.67916427984,0.9055555555555556
10.7862414299,0.9111111111111111
12.0244547142,0.9166666666666666
12.8704797276,0.9222222222222223
14.1641984907,0.9277777777777778
24.6678039974,0.9333333333333333
25.8108968796,0.9388888888888889
27.956221417,0.9444444444444444
30.0674931073,0.95
30.975679093,0.9555555555555556
33.1086065373,0.9611111111111111
35.3286309431,0.9666666666666667
36.2370446262,0.9722222222222222
37.3754142618,0.9777777777777777
38.336939974,0.9833333333333333
38.4295387096,0.9888888888888889
40.4276924962,0.9944444444444445
41.5328775109,1.0
