Congestion,CDF
0.0,0.005555555555555556
0.0,0.011111111111111112
0.0,0.016666666666666666
0.0,0.022222222222222223
0.0,0.027777777777777776
0.0,0.03333333333333333
0.0,0.03888888888888889
0.0,0.044444444444444446
0.0,0.05
0.0,0.05555555555555555
1.04883502323e-06,0.06111111111111111
1.20506099999e-06,0.06666666666666667
2.71249246772e-06,0.07222222222222222
3.96446552709e-06,0.07777777777777778
4.05662383229e-06,0.08333333333333333
5.35613993027e-06,0.08888888888888889
5.89246282198e-06,0.09444444444444444
8.12115744152e-06,0.1
8.1630548991e-06,0.10555555555555556
8.35157141166e-06,0.1111111111111111
8.52345633377e-06,0.11666666666666667
9.38258410482e-06,0.12222222222222222
9.60021089243e-06,0.12777777777777777
1.07204967271e-05,0.13333333333333333
1.09799423967e-05,0.1388888888888889
1.15620192016e-05,0.14444444444444443
1.33693204468e-05,0.15
1.4631481659e-05,0.15555555555555556
1.52782140215e-05,0.16111111111111112
1.58899708335e-05,0.16666666666666666
1.61413827953e-05,0.17222222222222222
1.62710194749e-05,0.17777777777777778
1.68101015599e-05,0.18333333333333332
1.73942205485e-05,0.18888888888888888
1.76878424271e-05,0.19444444444444445
1.78875946629e-05,0.2
1.79868351238e-05,0.20555555555555555
1.81933848958e-05,0.2111111111111111
1.83711671804e-05,0.21666666666666667
1.84114807743e-05,0.2222222222222222
1.90266556418e-05,0.22777777777777777
1.91853926283e-05,0.23333333333333334
1.94056289921e-05,0.2388888888888889
2.10152553577e-05,0.24444444444444444
2.21135439626e-05,0.25
2.40088765852e-05,0.25555555555555554
2.43892302923e-05,0.2611111111111111
2.4740208996e-05,0.26666666666666666
2.55780345915e-05,0.2722222222222222
9.04164155908e-05,0.2777777777777778
0.000180832831182,0.2833333333333333
0.000198223276354,0.28888888888888886
0.000198223276354,0.29444444444444445
0.000204076372478,0.3
0.000204076372478,0.3055555555555556
0.000308959874801,0.3111111111111111
0.000405662383229,0.31666666666666665
0.000408152744955,0.32222222222222224
0.000543427417462,0.3277777777777778
0.000812115744152,0.3333333333333333
0.000844573867828,0.3388888888888889
0.000894379733145,0.34444444444444444
0.000894379733145,0.35
0.00114233478296,0.35555555555555557
0.00173942205485,0.3611111111111111
0.00176878424271,0.36666666666666664
0.00182532522385,0.37222222222222223
0.00196642940586,0.37777777777777777
0.0020805003577,0.38333333333333336
0.0020805003577,0.3888888888888889
0.00237239526998,0.39444444444444443
0.002507187919,0.4
0.00269589936445,0.40555555555555556
0.00288217364455,0.4111111111111111
0.00358057013228,0.4166666666666667
0.00378576789543,0.4222222222222222
0.00398316592188,0.42777777777777776
0.00489690582215,0.43333333333333335
0.00574925145553,0.4388888888888889
0.00601945364649,0.4444444444444444
0.00743296032059,0.45
0.00842034130501,0.45555555555555555
0.0149808952885,0.46111111111111114
0.0180983546922,0.4666666666666667
0.0182256023619,0.4722222222222222
0.0185587069172,0.4777777777777778
0.0190770802908,0.48333333333333334
0.0207834058211,0.4888888888888889
0.0212884346871,0.49444444444444446
0.0223975441006,0.5
0.0226428598836,0.5055555555555555
0.0239797919283,0.5111111111111111
0.0258983311911,0.5166666666666667
0.0260599860425,0.5222222222222223
0.026447225546,0.5277777777777778
0.0264875774733,0.5333333333333333
0.0265379744414,0.5388888888888889
0.0265426200119,0.5444444444444444
0.0265873376125,0.55
0.0266154022933,0.5555555555555556
0.0266271720591,0.5611111111111111
0.0266657527647,0.5666666666666667
0.0267477750752,0.5722222222222222
0.0267490287599,0.5777777777777777
0.0267597218623,0.5833333333333334
0.0267852102996,0.5888888888888889
0.0268119881958,0.5944444444444444
0.0268248079488,0.6
0.0268325950622,0.6055555555555555
0.0268481189018,0.6111111111111112
0.026887543133,0.6166666666666667
0.0268951431837,0.6222222222222222
0.026940921452,0.6277777777777778
0.0269600959612,0.6333333333333333
0.0269728960009,0.6388888888888888
0.0269782133855,0.6444444444444445
0.0269830188793,0.65
0.027005547934,0.6555555555555556
0.0270227864234,0.6611111111111111
0.0270315219649,0.6666666666666666
0.0270315865522,0.6722222222222223
0.0270374622468,0.6777777777777778
0.0270404521528,0.6833333333333333
0.0270464943869,0.6888888888888889
0.0270529638818,0.6944444444444444
0.0270713031318,0.7
0.0270825344734,0.7055555555555556
0.0271302580416,0.7111111111111111
0.0271626231148,0.7166666666666667
0.0272190719256,0.7222222222222222
0.0272302952507,0.7277777777777777
0.0272408001981,0.7333333333333333
0.0272651830465,0.7388888888888889
0.0278551642729,0.7444444444444445
0.668725718997,0.75
0.668725718997,0.7555555555555555
0.886244587082,0.7611111111111111
1.03243336598,0.7666666666666667
1.33077011466,0.7722222222222223
1.33077011466,0.7777777777777778
1.33745143799,0.7833333333333333
1.35187311234,0.7888888888888889
1.35187311234,0.7944444444444444
1.77248917416,0.8
2.66271720591,0.8055555555555556
2.67477750752,0.8111111111111111
2.70227864234,0.8166666666666667
2.70315865522,0.8222222222222222
3.32252316314,0.8277777777777777
3.34724674896,0.8333333333333334
4.02805971475,0.8388888888888889
4.03435390723,0.8444444444444444
4.0615314578,0.85
4.25864006909,0.8555555555555555
4.25864006909,0.8611111111111112
5.37574301007,0.8666666666666667
5.40757503052,0.8722222222222222
5.98909843961,0.8777777777777778
6.73900334592,0.8833333333333333
6.92758348124,0.8888888888888888
6.96577038228,0.8944444444444445
8.68510803573,0.9
12.3694838309,0.9055555555555556
13.8404855515,0.9111111111111111
15.4200121029,0.9166666666666666
16.5164577378,0.9222222222222223
18.1419192955,0.9277777777777778
31.5899867839,0.9333333333333333
33.011527197,0.9388888888888889
35.7380455016,0.9444444444444444
38.4363473896,0.95
39.6635511326,0.9555555555555556
42.379813444,0.9611111111111111
45.1675593008,0.9666666666666667
46.3953954489,0.9722222222222222
47.8122818554,0.9777777777777777
49.0841497622,0.9833333333333333
49.6221173246,0.9888888888888889
51.7653485818,0.9944444444444445
53.6212192735,1.0
