Congestion,CDF
0.0,0.007352941176470588
0.0,0.014705882352941176
0.0,0.022058823529411766
0.0,0.029411764705882353
0.0,0.03676470588235294
0.0,0.04411764705882353
0.0,0.051470588235294115
0.0,0.058823529411764705
0.0,0.0661764705882353
0.0,0.07352941176470588
0.0,0.08088235294117647
0.0,0.08823529411764706
0.0,0.09558823529411764
0.0,0.10294117647058823
1.08364039366e-05,0.11029411764705882
1.08364039366e-05,0.11764705882352941
1.08364039366e-05,0.125
1.08364039366e-05,0.1323529411764706
1.08364039366e-05,0.13970588235294118
1.08364039366e-05,0.14705882352941177
1.08364039366e-05,0.15441176470588236
1.08364039366e-05,0.16176470588235295
1.08364039366e-05,0.16911764705882354
1.08364039366e-05,0.17647058823529413
1.08364039366e-05,0.18382352941176472
1.08364039366e-05,0.19117647058823528
1.08364039366e-05,0.19852941176470587
1.08364039366e-05,0.20588235294117646
1.08364039366e-05,0.21323529411764705
1.08364039366e-05,0.22058823529411764
1.08364039366e-05,0.22794117647058823
1.08364039366e-05,0.23529411764705882
1.08364039366e-05,0.2426470588235294
1.08364039366e-05,0.25
1.08364039366e-05,0.25735294117647056
1.08364039366e-05,0.2647058823529412
1.08364039366e-05,0.27205882352941174
1.08364039366e-05,0.27941176470588236
1.08364039366e-05,0.2867647058823529
1.08364039366e-05,0.29411764705882354
1.08364039366e-05,0.3014705882352941
0.000270910098415,0.3088235294117647
0.000270910098415,0.3161764705882353
0.000292582906288,0.3235294117647059
0.000541820196829,0.33088235294117646
0.000541820196829,0.3382352941176471
0.000541820196829,0.34558823529411764
0.000541820196829,0.35294117647058826
0.000812730295244,0.3602941176470588
0.000903033661382,0.36764705882352944
0.000903033661382,0.375
0.000903033661382,0.38235294117647056
0.00108364039366,0.3897058823529412
0.00108364039366,0.39705882352941174
0.00108364039366,0.40441176470588236
0.00108364039366,0.4117647058823529
0.00108364039366,0.41911764705882354
0.00108364039366,0.4264705882352941
0.00108364039366,0.4338235294117647
0.00135455049207,0.4411764705882353
0.00162546059049,0.4485294117647059
0.00162546059049,0.45588235294117646
0.00198667405504,0.4632352941176471
0.00216728078732,0.47058823529411764
0.00216728078732,0.47794117647058826
0.00305733651044,0.4852941176470588
0.00312147088723,0.49264705882352944
0.00325092118098,0.5
0.00349241075256,0.5073529411764706
0.00349241075256,0.5147058823529411
0.00349241075256,0.5220588235294118
0.00349241075256,0.5294117647058824
0.00354263439448,0.5367647058823529
0.00354823833066,0.5441176470588235
0.0035928580364,0.5514705882352942
0.0035928580364,0.5588235294117647
0.0035928580364,0.5661764705882353
0.0035928580364,0.5735294117647058
0.0035928580364,0.5808823529411765
0.00363586178061,0.5882352941176471
0.00365019654335,0.5955882352941176
0.0036835318701,0.6029411764705882
0.0037091516235,0.6102941176470589
0.0037091516235,0.6176470588235294
0.00373701231838,0.625
0.00376487301326,0.6323529411764706
0.00378353839435,0.6397058823529411
0.00378353839435,0.6470588235294118
0.00378353839435,0.6544117647058824
0.00378353839435,0.6617647058823529
0.00378353839435,0.6691176470588235
0.00378353839435,0.6764705882352942
0.00378353839435,0.6838235294117647
0.00442486494077,0.6911764705882353
0.00785639285402,0.6985294117647058
0.0080369995863,0.7058823529411765
0.0103848871059,0.7132352941176471
0.0129133813578,0.7205882352941176
0.01309398809,0.7279411764705882
0.0139970217514,0.7352941176470589
0.0141776284837,0.7426470588235294
0.0152612688774,0.75
0.0908965445154,0.7573529411764706
0.0920882967525,0.7647058823529411
0.0975781608482,0.7720588235294118
0.177131719724,0.7794117647058824
0.177131719724,0.7867647058823529
0.186850615919,0.7941176470588235
0.186850615919,0.8014705882352942
0.272689633546,0.8088235294117647
0.30465805938,0.8161764705882353
0.30465805938,0.8235294117647058
0.30465805938,0.8308823529411765
0.349241075256,0.8382352941176471
0.35928580364,0.8455882352941176
0.36835318701,0.8529411764705882
0.378353839435,0.8602941176470589
0.378353839435,0.8676470588235294
0.378353839435,0.875
0.378353839435,0.8823529411764706
0.450182348155,0.8897058823529411
0.52637279498,0.8970588235294118
0.557765778269,0.9044117647058824
0.66394386302,0.9117647058823529
0.698482150513,0.9191176470588235
0.75670767887,0.9264705882352942
1.1350615183,0.9338235294117647
1.47341201482,0.9411764705882353
2.6737734012,0.9485294117647058
2.7405651728,0.9558823529411765
3.60856114942,0.9632352941176471
4.24786942195,0.9705882352941176
4.53724209004,0.9779411764705882
4.55360307299,0.9852941176470589
4.89206592311,0.9926470588235294
5.20421301183,1.0
