Congestion,CDF
0.0,0.007352941176470588
0.0,0.014705882352941176
0.0,0.022058823529411766
0.0,0.029411764705882353
0.0,0.03676470588235294
0.0,0.04411764705882353
0.0,0.051470588235294115
0.0,0.058823529411764705
0.0,0.0661764705882353
0.0,0.07352941176470588
0.0,0.08088235294117647
0.0,0.08823529411764706
0.0,0.09558823529411764
0.0,0.10294117647058823
4.98972991106e-06,0.11029411764705882
4.98972991106e-06,0.11764705882352941
4.98972991106e-06,0.125
4.98972991106e-06,0.1323529411764706
4.98972991106e-06,0.13970588235294118
4.98972991106e-06,0.14705882352941177
4.98972991106e-06,0.15441176470588236
4.98972991106e-06,0.16176470588235295
4.98972991106e-06,0.16911764705882354
4.98972991106e-06,0.17647058823529413
4.98972991106e-06,0.18382352941176472
4.98972991106e-06,0.19117647058823528
4.98972991106e-06,0.19852941176470587
4.98972991106e-06,0.20588235294117646
4.98972991106e-06,0.21323529411764705
4.98972991106e-06,0.22058823529411764
4.98972991106e-06,0.22794117647058823
4.98972991106e-06,0.23529411764705882
4.98972991106e-06,0.2426470588235294
4.98972991106e-06,0.25
4.98972991106e-06,0.25735294117647056
4.98972991106e-06,0.2647058823529412
4.98972991106e-06,0.27205882352941174
4.98972991106e-06,0.27941176470588236
4.98972991106e-06,0.2867647058823529
4.98972991106e-06,0.29411764705882354
4.98972991106e-06,0.3014705882352941
0.000124743247776,0.3088235294117647
0.000124743247776,0.3161764705882353
0.000134722707599,0.3235294117647059
0.000249486495553,0.33088235294117646
0.000249486495553,0.3382352941176471
0.000249486495553,0.34558823529411764
0.000249486495553,0.35294117647058826
0.000374229743329,0.3602941176470588
0.000415810825922,0.36764705882352944
0.000415810825922,0.375
0.000415810825922,0.38235294117647056
0.000498972991106,0.3897058823529412
0.000498972991106,0.39705882352941174
0.000498972991106,0.40441176470588236
0.000498972991106,0.4117647058823529
0.000498972991106,0.41911764705882354
0.000498972991106,0.4264705882352941
0.000498972991106,0.4338235294117647
0.000623716238882,0.4411764705882353
0.000748459486659,0.4485294117647059
0.000748459486659,0.45588235294117646
0.000914783817027,0.4632352941176471
0.000997945982212,0.47058823529411764
0.000997945982212,0.47794117647058826
0.00149691897332,0.4852941176470588
0.00203747304702,0.49264705882352944
0.00361755418552,0.5
0.0037007163507,0.5073529411764706
0.0047818244981,0.5147058823529411
0.00594609481068,0.5220588235294118
0.00602925697586,0.5294117647058824
0.00644506780178,0.5367647058823529
0.00652822996697,0.5441176470588235
0.00702720295807,0.5514705882352942
0.0148885317452,0.5588235294117647
0.0154074422989,0.5661764705882353
0.0200500960753,0.5735294117647058
0.0201872325719,0.5808823529411765
0.0202523279038,0.5882352941176471
0.0202530901608,0.5955882352941176
0.0202728853784,0.6029411764705882
0.0204323034655,0.6102941176470589
0.0206845345783,0.6176470588235294
0.0207069415541,0.625
0.0207612947994,0.6323529411764706
0.0207622716789,0.6397058823529411
0.0207632848111,0.6470588235294118
0.020805972671,0.6544117647058824
0.0208199920043,0.6617647058823529
0.020870567461,0.6691176470588235
0.0208807794694,0.6764705882352942
0.0208887614708,0.6838235294117647
0.0209405058644,0.6911764705882353
0.0209925742481,0.6985294117647058
0.021021097621,0.7058823529411765
0.0210211177182,0.7132352941176471
0.0210213372738,0.7205882352941176
0.0210213443704,0.7279411764705882
0.021021989508,0.7352941176470589
0.02102199424,0.7426470588235294
0.02102199424,0.75
0.520149316774,0.7573529411764706
0.521764186525,0.7647058823529411
0.548772265182,0.7720588235294118
1.02161517327,0.7794117647058824
1.02161517327,0.7867647058823529
1.04702529322,0.7941176470588235
1.04702529322,0.8014705882352942
1.56044795032,0.8088235294117647
1.73591323677,0.8161764705882353
1.73591323677,0.8235294117647058
1.73591323677,0.8308823529411765
2.02728853784,0.8382352941176471
2.07622716789,0.8455882352941176
2.0870567461,0.8529411764705882
2.10211177182,0.8602941176470589
2.10213443704,0.8676470588235294
2.102199424,0.875
2.102199424,0.8823529411764706
2.59647779788,0.8897058823529411
3.04033843047,0.8970588235294118
3.1359014403,0.9044117647058824
3.80660739219,0.9117647058823529
4.05259755392,0.9191176470588235
4.20426816443,0.9264705882352942
6.3065977988,0.9338235294117647
8.48474768249,0.9411764705882353
15.2368516837,0.9485294117647058
15.3814237058,0.9558823529411765
20.1190476385,0.9632352941176471
24.4793692977,0.9705882352941176
25.3430270257,0.9779411764705882
25.9682224722,0.9852941176470589
27.3682598161,0.9926470588235294
28.909004046,1.0
