Congestion,CDF
0.0,0.005555555555555556
0.0,0.011111111111111112
0.0,0.016666666666666666
0.0,0.022222222222222223
0.0,0.027777777777777776
0.0,0.03333333333333333
0.0,0.03888888888888889
0.0,0.044444444444444446
0.0,0.05
0.0,0.05555555555555555
1.05013195308e-06,0.06111111111111111
1.20655111001e-06,0.06666666666666667
2.71584658191e-06,0.07222222222222222
3.96936776008e-06,0.07777777777777778
4.061640023e-06,0.08333333333333333
5.36276302881e-06,0.08888888888888889
5.89974910696e-06,0.09444444444444444
8.13119960372e-06,0.1
8.17314886933e-06,0.10555555555555556
8.3618984907e-06,0.1111111111111111
8.53399595594e-06,0.11666666666666667
9.39418607563e-06,0.12222222222222222
9.61208196816e-06,0.12777777777777777
1.07337530847e-05,0.13333333333333333
1.099351957e-05,0.1388888888888889
1.15763161381e-05,0.14444444444444443
1.33858521894e-05,0.15
1.46495741185e-05,0.15555555555555556
1.52971061935e-05,0.16111111111111112
1.59096194692e-05,0.16666666666666666
1.61613423128e-05,0.17222222222222222
1.62911392938e-05,0.17777777777777778
1.68308879771e-05,0.18333333333333332
1.74157292541e-05,0.18888888888888888
1.77097142088e-05,0.19444444444444445
1.79097134469e-05,0.2
1.80090766229e-05,0.20555555555555555
1.82158818026e-05,0.2111111111111111
1.83938839227e-05,0.21666666666666667
1.84342473661e-05,0.2222222222222222
1.90501829239e-05,0.22777777777777777
1.92091161956e-05,0.23333333333333334
1.94296248912e-05,0.2388888888888889
2.10412416293e-05,0.24444444444444444
2.21408883155e-05,0.25
2.40385645989e-05,0.25555555555555554
2.44193886297e-05,0.2611111111111111
2.47708013338e-05,0.26666666666666666
2.56096629369e-05,0.2722222222222222
9.05282193969e-05,0.2777777777777778
0.000181056438794,0.2833333333333333
0.000198468388004,0.28888888888888886
0.000198468388004,0.29444444444444445
0.000204328721733,0.3
0.000204328721733,0.3055555555555556
0.000309341917041,0.3111111111111111
0.0004061640023,0.31666666666666665
0.000408657443467,0.32222222222222224
0.000544099388953,0.3277777777777778
0.000813119960372,0.3333333333333333
0.000845618219922,0.3388888888888889
0.000895485672344,0.34444444444444444
0.000895485672344,0.35
0.0011437473293,0.35555555555555557
0.00174157292541,0.3611111111111111
0.00177097142088,0.36666666666666664
0.00182758231739,0.37222222222222223
0.00196886098082,0.37777777777777777
0.00208307298632,0.38333333333333336
0.00208307298632,0.3888888888888889
0.00237532883927,0.39444444444444443
0.00251028816523,0.4
0.00269923296055,0.40555555555555556
0.00288573757684,0.4111111111111111
0.00358499766201,0.4166666666666667
0.00379044916107,0.4222222222222222
0.00398809127871,0.42777777777777776
0.00490296105787,0.43333333333333335
0.00575636065346,0.4388888888888889
0.00602689696111,0.4444444444444444
0.00744215149731,0.45
0.00843075342099,0.45555555555555555
0.0149994198131,0.46111111111111114
0.0151917826663,0.4666666666666667
0.0156604801906,0.4722222222222222
0.0182481391071,0.4777777777777778
0.0191006699252,0.48333333333333334
0.0208091054007,0.4888888888888889
0.0213147587568,0.49444444444444446
0.022425239632,0.5
0.0226708587586,0.5055555555555555
0.02378890416,0.5111111111111111
0.0239111584144,0.5166666666666667
0.0239158114068,0.5222222222222223
0.0239605284491,0.5277777777777778
0.0239870800727,0.5333333333333333
0.0240003484298,0.5388888888888889
0.0240094439775,0.5444444444444444
0.0240389367233,0.55
0.0241209585194,0.5555555555555556
0.0241222178718,0.5611111111111111
0.0241329123371,0.5666666666666667
0.024157938268,0.5722222222222222
0.0241584016928,0.5777777777777777
0.0241979647721,0.5833333333333334
0.024205785612,0.5888888888888889
0.0242209354651,0.5944444444444444
0.0242583420367,0.6
0.0243141128424,0.6055555555555555
0.0243332798749,0.6111111111111112
0.0243433947433,0.6166666666666667
0.0243513895298,0.6222222222222222
0.0243556313261,0.6277777777777778
0.0243787376252,0.6333333333333333
0.0243959429621,0.6388888888888888
0.0244016586869,0.6444444444444445
0.0244047762424,0.65
0.0244106323118,0.6555555555555556
0.0244136404055,0.6611111111111111
0.0244196511091,0.6666666666666666
0.0244261204024,0.6722222222222223
0.024444492831,0.6777777777777778
0.0244557178774,0.6833333333333333
0.0245034342996,0.6888888888888889
0.024535739632,0.6944444444444444
0.0245922474415,0.7
0.024603451357,0.7055555555555556
0.0246139907366,0.7111111111111111
0.0246382362209,0.7166666666666667
0.0259303555971,0.7222222222222222
0.0260922103417,0.7277777777777777
0.0265203305078,0.7333333333333333
0.0269284001908,0.7388888888888889
0.0278896083876,0.7444444444444445
0.603055446796,0.75
0.603055446796,0.7555555555555555
0.798684281636,0.7611111111111111
0.929366765546,0.7666666666666667
1.19935400363,0.7722222222222223
1.19935400363,0.7777777777777778
1.20611089359,0.7833333333333333
1.22053161559,0.7888888888888889
1.22053161559,0.7944444444444444
1.59736856327,0.8
2.40003484298,0.8055555555555556
2.41209585194,0.8111111111111111
2.43959429621,0.8166666666666667
2.44047762424,0.8222222222222222
2.99417128824,0.8277777777777777
3.01889561607,0.8333333333333334
3.63369347796,0.8388888888888889
3.6403280928,0.8444444444444444
3.66750996725,0.85
3.84272854586,0.8555555555555555
3.84272854586,0.8611111111111112
4.85037827294,0.8666666666666667
4.88220633646,0.8722222222222222
5.39806496056,0.8777777777777778
6.08229320371,0.8833333333333333
6.24899118195,0.8888888888888888
6.28717782896,0.8944444444444445
7.83139294806,0.9
11.1655292157,0.9055555555555556
12.4833008685,0.9111111111111111
13.9095922033,0.9166666666666666
14.8965921022,0.9222222222222223
16.3688169475,0.9277777777777778
28.5034853585,0.9333333333333333
29.7936616233,0.9388888888888889
32.2574852454,0.9444444444444444
34.693048378,0.95
35.7890025844,0.9555555555555556
38.2425765476,0.9611111111111111
40.7669077247,0.9666666666666667
41.8640240977,0.9722222222222222
43.1457981407,0.9777777777777777
44.2898583014,0.9833333333333333
44.6649764073,0.9888888888888889
46.7056521282,0.9944444444444445
48.2717001473,1.0
