Congestion,CDF
0.0,0.005555555555555556
0.0,0.011111111111111112
0.0,0.016666666666666666
0.0,0.022222222222222223
0.0,0.027777777777777776
0.0,0.03333333333333333
0.0,0.03888888888888889
0.0,0.044444444444444446
0.0,0.05
0.0,0.05555555555555555
1.07362126629e-06,0.06111111111111111
1.23353920122e-06,0.06666666666666667
2.77659453917e-06,0.07222222222222222
4.05815443332e-06,0.07777777777777778
4.15249063885e-06,0.08333333333333333
5.48271711659e-06,0.08888888888888889
6.03171447974e-06,0.09444444444444444
8.31307797981e-06,0.1
8.35596556506e-06,0.10555555555555556
8.54893713107e-06,0.1111111111111111
8.72488406614e-06,0.11666666666666667
9.60431488704e-06,0.12222222222222222
9.82708466695e-06,0.12777777777777777
1.09738452821e-05,0.13333333333333333
1.12394222147e-05,0.1388888888888889
1.18352547551e-05,0.14444444444444443
1.36852664428e-05,0.15
1.4977255258e-05,0.15555555555555556
1.56392713068e-05,0.16111111111111112
1.62654852571e-05,0.16666666666666666
1.6522838628e-05,0.17222222222222222
1.66555389032e-05,0.17777777777777778
1.72073606654e-05,0.18333333333333332
1.78052836506e-05,0.18888888888888888
1.81058444502e-05,0.19444444444444445
1.83103172639e-05,0.2
1.84119029917e-05,0.20555555555555555
1.86233339822e-05,0.2111111111111111
1.88053176472e-05,0.21666666666666667
1.88465839386e-05,0.2222222222222222
1.94762967206e-05,0.22777777777777777
1.96387850059e-05,0.23333333333333334
1.98642260319e-05,0.2388888888888889
2.15118913545e-05,0.24444444444444444
2.26361348976e-05,0.25
2.45762583348e-05,0.25555555555555554
2.49656006237e-05,0.2611111111111111
2.53248737143e-05,0.26666666666666666
2.61824989431e-05,0.2722222222222222
9.25531513056e-05,0.2777777777777778
0.000185106302611,0.2833333333333333
0.000202907721666,0.28888888888888886
0.000202907721666,0.29444444444444445
0.000208899139126,0.3
0.000208899139126,0.3055555555555556
0.000234566246285,0.3111111111111111
0.000316261265756,0.31666666666666665
0.000415249063885,0.32222222222222224
0.000417798278253,0.3277777777777778
0.000556269784235,0.3333333333333333
0.000831307797981,0.3388888888888889
0.000864532977414,0.34444444444444444
0.000915515863193,0.35
0.000915515863193,0.35555555555555557
0.000917536479277,0.3611111111111111
0.00116933062783,0.36666666666666664
0.00178052836506,0.37222222222222223
0.00181058444502,0.37777777777777777
0.00186846161199,0.38333333333333336
0.0020129003914,0.3888888888888889
0.00212966708688,0.39444444444444443
0.00212966708688,0.4
0.00242846010809,0.40555555555555556
0.00256643819933,0.4111111111111111
0.00275960930493,0.4166666666666667
0.00295028564968,0.4222222222222222
0.00366518675893,0.42777777777777776
0.00387523378962,0.43333333333333335
0.00407729675894,0.4388888888888889
0.00501263031194,0.4444444444444444
0.00588511871855,0.45
0.00616170637246,0.45555555555555555
0.00760861727049,0.46111111111111114
0.00816042490042,0.4666666666666667
0.00840596903271,0.4722222222222222
0.00841313239246,0.4777777777777778
0.00848207206634,0.48333333333333334
0.00852623066428,0.4888888888888889
0.00854349031099,0.49444444444444446
0.00860296060899,0.5
0.00861933220594,0.5055555555555555
0.00872941292039,0.5111111111111111
0.00873056414683,0.5166666666666667
0.00873134554641,0.5222222222222223
0.0087478312264,0.5277777777777778
0.00878712575263,0.5333333333333333
0.00884818712742,0.5388888888888889
0.00886017731914,0.5444444444444444
0.00888434611267,0.55
0.00894314072431,0.5555555555555556
0.00902718044484,0.5611111111111111
0.00905673968761,0.5666666666666667
0.00907788385647,0.5722222222222222
0.00908467864235,0.5777777777777777
0.00909244899146,0.5833333333333334
0.00912681304716,0.5888888888888889
0.00915340380121,0.5944444444444444
0.00916461178419,0.6
0.009166955918,0.6055555555555555
0.0091760215704,0.6111111111111112
0.0091806244827,0.6166666666666667
0.009189953606,0.6222222222222222
0.00919992728442,0.6277777777777778
0.00922818564973,0.6333333333333333
0.00924550031382,0.6388888888888888
0.00931908116034,0.6444444444444445
0.00936901812774,0.65
0.00945599838051,0.6555555555555556
0.00947331237827,0.6611111111111111
0.00948949356747,0.6666666666666666
0.00952717142949,0.6722222222222223
0.0153349262882,0.6777777777777778
0.0186563128169,0.6833333333333333
0.0195279130133,0.6888888888888889
0.0212745627112,0.6944444444444444
0.021791526503,0.7
0.022926846574,0.7055555555555556
0.0231779597002,0.7111111111111111
0.0245464863445,0.7166666666666667
0.0265103648451,0.7222222222222222
0.0266758399507,0.7277777777777777
0.027113536293,0.7333333333333333
0.0275307336638,0.7388888888888889
0.0285134421305,0.7444444444444445
0.21828363866,0.75
0.21828363866,0.7555555555555555
0.282735735545,0.7611111111111111
0.333353517702,0.7666666666666667
0.426311533214,0.7722222222222223
0.426311533214,0.7777777777777778
0.436567277321,0.7833333333333333
0.45880107852,0.7888888888888889
0.45880107852,0.7944444444444444
0.565471471089,0.8
0.854349031099,0.8055555555555556
0.872941292039,0.8111111111111111
0.915340380121,0.8166666666666667
0.9166955918,0.8222222222222222
1.05888054193,0.8277777777777777
1.09699621392,0.8333333333333334
1.33409991886,0.8388888888888889
1.34361979126,0.8444444444444444
1.38551663407,0.85
1.41850291854,0.8555555555555555
1.41850291854,0.8611111111111112
1.78625714713,0.8666666666666667
1.83533310856,0.8722222222222222
1.91917660283,0.8777777777777778
2.26261515186,0.8833333333333333
2.28244999395,0.8888888888888888
2.34132148351,0.8944444444444445
2.82485057159,0.9
4.17069838003,0.9055555555555556
4.54226615173,0.9111111111111111
5.08114297353,0.9166666666666666
5.41704927437,0.9222222222222223
6.02674281158,0.9277777777777778
10.5058101027,0.9333333333333333
11.0720223098,0.9388888888888889
12.0247394528,0.9444444444444444
12.9339843519,0.95
13.200535114,0.9555555555555556
14.1374369268,0.9611111111111111
15.1845454492,0.9666666666666667
15.4521830713,0.9722222222222222
16.0005879393,0.9777777777777777
16.0923415872,0.9833333333333333
16.3464971437,0.9888888888888889
17.2195535584,0.9944444444444445
17.243010183,1.0
