Congestion,CDF
0.0,0.005555555555555556
0.0,0.011111111111111112
0.0,0.016666666666666666
0.0,0.022222222222222223
0.0,0.027777777777777776
0.0,0.03333333333333333
0.0,0.03888888888888889
0.0,0.044444444444444446
0.0,0.05
0.0,0.05555555555555555
1.05877002416e-06,0.06111111111111111
1.21647583825e-06,0.06666666666666667
2.73818632288e-06,0.07222222222222222
4.002018591e-06,0.07777777777777778
4.09504985794e-06,0.08333333333333333
5.40687551209e-06,0.08888888888888889
5.94827867697e-06,0.09444444444444444
8.19808441752e-06,0.1
8.24037874523e-06,0.10555555555555556
8.43068096448e-06,0.1111111111111111
8.60419405195e-06,0.11666666666666667
9.47145983805e-06,0.12222222222222222
9.69114807697e-06,0.12777777777777777
1.08220457243e-05,0.13333333333333333
1.1083948971e-05,0.1388888888888889
1.16715394492e-05,0.14444444444444443
1.34959602024e-05,0.15
1.47700771297e-05,0.15555555555555556
1.54229356097e-05,0.16111111111111112
1.60404872363e-05,0.16666666666666666
1.62942806766e-05,0.17222222222222222
1.64251453288e-05,0.17777777777777778
1.69693338231e-05,0.18333333333333332
1.75589858293e-05,0.18888888888888888
1.78553890164e-05,0.19444444444444445
1.80570333883e-05,0.2
1.8157213896e-05,0.20555555555555555
1.83657201932e-05,0.2111111111111111
1.85451865055e-05,0.21666666666666667
1.85858819665e-05,0.2222222222222222
1.92068840258e-05,0.22777777777777777
1.9367124635e-05,0.23333333333333334
1.95894471691e-05,0.2388888888888889
2.12143205841e-05,0.24444444444444444
2.23230126347e-05,0.25
2.42362986351e-05,0.25555555555555554
2.46202552105e-05,0.2611111111111111
2.49745585302e-05,0.26666666666666666
2.58203203577e-05,0.2722222222222222
9.12728774292e-05,0.2777777777777778
0.000182545754858,0.2833333333333333
0.00020010092955,0.28888888888888886
0.00020010092955,0.29444444444444445
0.000206009468631,0.3
0.000206009468631,0.3055555555555556
0.000311886471046,0.3111111111111111
0.000409504985794,0.31666666666666665
0.000412018937261,0.32222222222222224
0.000548574987646,0.3277777777777778
0.000819808441752,0.3333333333333333
0.000852574022255,0.3388888888888889
0.000902851669413,0.34444444444444444
0.000902851669413,0.35
0.00115315545244,0.35555555555555557
0.00175589858293,0.3611111111111111
0.00178553890164,0.36666666666666664
0.00184261546243,0.37222222222222223
0.00198505624185,0.37777777777777777
0.00210020772112,0.38333333333333336
0.00210020772112,0.3888888888888889
0.00239486758323,0.39444444444444443
0.0025309370442,0.4
0.00272143604284,0.40555555555555556
0.00290947479028,0.4111111111111111
0.00361448677958,0.4166666666666667
0.00382162826117,0.4222222222222222
0.0040208961237,0.42777777777777776
0.00494329134779,0.43333333333333335
0.00580371075298,0.4388888888888889
0.00607647241131,0.4444444444444444
0.00750336840765,0.45
0.00850010227481,0.45555555555555555
0.0128633178481,0.46111111111111114
0.0129526942696,0.4666666666666667
0.014217066246,0.4722222222222222
0.0142922246283,0.4777777777777778
0.0143332034978,0.48333333333333334
0.0143339943891,0.4888888888888889
0.0143376526765,0.49444444444444446
0.0143414458447,0.5
0.0143480372398,0.5055555555555555
0.0143544998553,0.5111111111111111
0.0143681669699,0.5166666666666667
0.0143683905636,0.5222222222222223
0.0143701754562,0.5277777777777778
0.014374426101,0.5333333333333333
0.0143793496068,0.5388888888888889
0.0143809143331,0.5444444444444444
0.0143823213303,0.55
0.0143831724932,0.5555555555555556
0.0143904654566,0.5611111111111111
0.0143999964108,0.5666666666666667
0.0144003779542,0.5722222222222222
0.0144035569562,0.5777777777777777
0.0144047102793,0.5833333333333334
0.0144065433237,0.5888888888888889
0.0144111445355,0.5944444444444444
0.0144139097629,0.6
0.0144154843031,0.6055555555555555
0.0144164022593,0.6111111111111112
0.0144169569984,0.6166666666666667
0.0144178615826,0.6222222222222222
0.0144189392871,0.6277777777777778
0.0144221037583,0.6333333333333333
0.0144239601126,0.6388888888888888
0.0144318845913,0.6444444444444445
0.0144370416871,0.65
0.0144466916707,0.6555555555555556
0.0144484929793,0.6611111111111111
0.0144503554962,0.6666666666666666
0.0144538941264,0.6722222222222223
0.0151228005502,0.6777777777777778
0.0183982428366,0.6833333333333333
0.0192577863181,0.6888888888888889
0.0209802748724,0.6944444444444444
0.0214900875815,0.7
0.02260970294,0.7055555555555556
0.022857342456,0.7111111111111111
0.0242069384762,0.7166666666666667
0.0261436509397,0.7222222222222222
0.026306837053,0.7277777777777777
0.0267384788074,0.7333333333333333
0.0271499051495,0.7388888888888889
0.0281190199572,0.7444444444444445
0.35920976409,0.75
0.35920976409,0.7555555555555555
0.478048194823,0.7611111111111111
0.558211826881,0.7666666666666667
0.716882633823,0.7722222222222223
0.716882633823,0.7777777777777778
0.718419528179,0.7833333333333333
0.720820112966,0.7888888888888889
0.720820112966,0.7944444444444444
0.956096389646,0.8
1.43480372398,0.8055555555555556
1.43681669699,0.8111111111111111
1.44139097629,0.8166666666666667
1.44154843031,0.8222222222222222
1.79253011387,0.8277777777777777
1.79665237419,0.8333333333333334
2.15592917949,0.8388888888888889
2.15891154627,0.8444444444444444
2.1634550778,0.85
2.27889180024,0.8555555555555555
2.27889180024,0.8611111111111112
2.87799218311,0.8666666666666667
2.883284905,0.8722222222222222
3.2279800994,0.8777777777777778
3.60069770454,0.8833333333333333
3.71473836442,0.8888888888888888
3.72110217607,0.8944444444444445
4.66833579501,0.9
6.60376505992,0.9055555555555556
7.42702960357,0.9111111111111111
8.26836861623,0.9166666666666666
8.86404714919,0.9222222222222223
9.71303778331,0.9277777777777778
16.909507909,0.9333333333333333
17.6418696908,0.9388888888888889
19.0872591034,0.9444444444444444
20.5277301313,0.95
21.2281544244,0.9555555555555556
22.6718585931,0.9611111111111111
24.1236589519,0.9666666666666667
24.8270584763,0.9722222222222222
25.5453655765,0.9777777777777777
26.264993437,0.9833333333333333
26.8316973613,0.9888888888888889
27.6942158998,0.9944444444444445
28.9894853268,1.0
