Congestion,CDF
0.000671113390019,0.005555555555555556
0.000671113390019,0.011111111111111112
0.00075753694143,0.016666666666666666
0.00075753694143,0.022222222222222223
0.000802193578227,0.027777777777777776
0.000802193578227,0.03333333333333333
0.000915826285378,0.03888888888888889
0.000915826285378,0.044444444444444446
0.00092294505622,0.05
0.00092294505622,0.05555555555555555
0.00124331663327,0.06111111111111111
0.00124331663327,0.06666666666666667
0.00134853954169,0.07222222222222222
0.00134853954169,0.07777777777777778
0.00141876128856,0.08333333333333333
0.00141876128856,0.08888888888888889
0.00142620674509,0.09444444444444444
0.00142620674509,0.1
0.0015459318514,0.10555555555555556
0.0015459318514,0.1111111111111111
0.00166107402638,0.11666666666666667
0.00166107402638,0.12222222222222222
0.00190089212403,0.12777777777777777
0.00190089212403,0.13333333333333333
0.0019153175607,0.1388888888888889
0.0019153175607,0.14444444444444443
0.0019282666309,0.15
0.0019282666309,0.15555555555555556
0.00196008881451,0.16111111111111112
0.00196008881451,0.16666666666666666
0.00198031492356,0.17222222222222222
0.00198031492356,0.17777777777777778
0.00198082490587,0.18333333333333332
0.00198082490587,0.18888888888888888
0.00199987927844,0.19444444444444445
0.00199987927844,0.2
0.0020547766925,0.20555555555555555
0.0020547766925,0.2111111111111111
0.00207338734546,0.21666666666666667
0.00207338734546,0.2222222222222222
0.00208242997787,0.22777777777777777
0.00208242997787,0.23333333333333334
0.00208894008393,0.2388888888888889
0.00208894008393,0.24444444444444444
0.00213146379287,0.25
0.00213146379287,0.25555555555555554
0.00223893168259,0.2611111111111111
0.00223893168259,0.26666666666666666
0.00230002836682,0.2722222222222222
0.00230002836682,0.2777777777777778
0.00235068873276,0.2833333333333333
0.00235068873276,0.28888888888888886
0.00235521653641,0.29444444444444445
0.00235521653641,0.3
0.0024436541176,0.3055555555555556
0.0024436541176,0.3111111111111111
0.00268564979516,0.31666666666666665
0.00268564979516,0.32222222222222224
0.00278816777755,0.3277777777777778
0.00278816777755,0.3333333333333333
0.00314850896313,0.3388888888888889
0.00314850896313,0.34444444444444444
0.00330545610967,0.35
0.00330545610967,0.35555555555555557
0.00338319182081,0.3611111111111111
0.00338319182081,0.36666666666666664
0.00340782787958,0.37222222222222223
0.00340782787958,0.37777777777777777
0.00350288671207,0.38333333333333336
0.00350288671207,0.3888888888888889
0.00353601542982,0.39444444444444443
0.00353601542982,0.4
0.00359711716699,0.40555555555555556
0.00359711716699,0.4111111111111111
0.00410358643583,0.4166666666666667
0.00410358643583,0.4222222222222222
0.00414611672415,0.42777777777777776
0.00414611672415,0.43333333333333335
0.00445995226626,0.4388888888888889
0.00445995226626,0.4444444444444444
0.0315780978989,0.45
0.0315780978989,0.45555555555555555
0.037796676719,0.46111111111111114
0.037796676719,0.4666666666666667
0.0505994907904,0.4722222222222222
0.0505994907904,0.4777777777777778
0.0657244419759,0.48333333333333334
0.0657244419759,0.4888888888888889
0.0704026397523,0.49444444444444446
0.0704026397523,0.5
0.0776490837069,0.5055555555555555
0.0776490837069,0.5111111111111111
0.0947771802749,0.5166666666666667
0.0947771802749,0.5222222222222223
0.10321877828,0.5277777777777778
0.10321877828,0.5333333333333333
0.111699104666,0.5388888888888889
0.111699104666,0.5444444444444444
0.112196667741,0.55
0.112196667741,0.5555555555555556
0.112942272271,0.5611111111111111
0.112942272271,0.5666666666666667
0.113135964694,0.5722222222222222
0.113135964694,0.5777777777777777
0.161116150547,0.5833333333333334
0.161116150547,0.5888888888888889
0.177010157939,0.5944444444444444
0.177010157939,0.6
0.181146015306,0.6055555555555555
0.181146015306,0.6111111111111112
0.226904321911,0.6166666666666667
0.226904321911,0.6222222222222222
0.232182318464,0.6277777777777778
0.232182318464,0.6333333333333333
0.241885442498,0.6388888888888888
0.241885442498,0.6444444444444445
0.292779740652,0.65
0.292779740652,0.6555555555555556
0.293723809559,0.6611111111111111
0.293723809559,0.6666666666666666
0.295970104716,0.6722222222222223
0.295970104716,0.6777777777777778
0.311218455281,0.6833333333333333
0.311218455281,0.6888888888888889
0.317496005004,0.6944444444444444
0.317496005004,0.7
0.356465861462,0.7055555555555556
0.356465861462,0.7111111111111111
0.399578173306,0.7166666666666667
0.399578173306,0.7222222222222222
0.429584442722,0.7277777777777777
0.429584442722,0.7333333333333333
0.520112463674,0.7388888888888889
0.520112463674,0.7444444444444445
0.529337949831,0.75
0.529337949831,0.7555555555555555
0.62936204271,0.7611111111111111
0.62936204271,0.7666666666666667
0.64297945245,0.7722222222222223
0.64297945245,0.7777777777777778
0.667541973487,0.7833333333333333
0.667541973487,0.7888888888888889
0.728098007944,0.7944444444444444
0.728098007944,0.8
0.786954567715,0.8055555555555556
0.786954567715,0.8111111111111111
0.792275310717,0.8166666666666667
0.792275310717,0.8222222222222222
0.867657131912,0.8277777777777777
0.867657131912,0.8333333333333334
0.938823522106,0.8388888888888889
0.938823522106,0.8444444444444444
0.971585783207,0.85
0.971585783207,0.8555555555555555
0.976478335178,0.8611111111111112
0.976478335178,0.8666666666666667
1.04126933712,0.8722222222222222
1.04126933712,0.8777777777777778
1.06049163263,0.8833333333333333
1.06049163263,0.8888888888888888
1.27042597918,0.8944444444444445
1.27042597918,0.9
1.28500713956,0.9055555555555556
1.28500713956,0.9111111111111111
1.28922610842,0.9166666666666666
1.28922610842,0.9222222222222223
1.3299188143,0.9277777777777778
1.3299188143,0.9333333333333333
1.4423221591,0.9388888888888889
1.4423221591,0.9444444444444444
1.4516279807,0.95
1.4516279807,0.9555555555555556
1.59713068372,0.9611111111111111
1.59713068372,0.9666666666666667
2.40293737068,0.9722222222222222
2.40293737068,0.9777777777777777
2.51237953852,0.9833333333333333
2.51237953852,0.9888888888888889
2.68414145633,0.9944444444444445
2.68414145633,1.0
