Congestion,CDF
0.0228974388745,0.005555555555555556
0.0228974388745,0.011111111111111112
0.02304831277,0.016666666666666666
0.02304831277,0.022222222222222223
0.0233896502417,0.027777777777777776
0.0233896502417,0.03333333333333333
0.0234532557911,0.03888888888888889
0.0234532557911,0.044444444444444446
0.0237180048679,0.05
0.0237180048679,0.05555555555555555
0.0237805416679,0.06111111111111111
0.0237805416679,0.06666666666666667
0.0239748494474,0.07222222222222222
0.0239748494474,0.07777777777777778
0.0240737147276,0.08333333333333333
0.0240737147276,0.08888888888888889
0.024247657499,0.09444444444444444
0.024247657499,0.1
0.0243771390602,0.10555555555555556
0.0243771390602,0.1111111111111111
0.0243875121795,0.11666666666666667
0.0243875121795,0.12222222222222222
0.0248002065691,0.12777777777777777
0.0248002065691,0.13333333333333333
0.0248242260554,0.1388888888888889
0.0248242260554,0.14444444444444443
0.0249476929406,0.15
0.0249476929406,0.15555555555555556
0.0249952767034,0.16111111111111112
0.0249952767034,0.16666666666666666
0.0249970935808,0.17222222222222222
0.0249970935808,0.17777777777777778
0.0250893107766,0.18333333333333332
0.0250893107766,0.18888888888888888
0.0252073724262,0.19444444444444445
0.0252073724262,0.2
0.0253551323867,0.20555555555555555
0.0253551323867,0.2111111111111111
0.0255497487821,0.21666666666666667
0.0255497487821,0.2222222222222222
0.0256209316612,0.22777777777777777
0.0256209316612,0.23333333333333334
0.0256884648834,0.2388888888888889
0.0256884648834,0.24444444444444444
0.0260867674823,0.25
0.0260867674823,0.25555555555555554
0.0261901471377,0.2611111111111111
0.0261901471377,0.26666666666666666
0.0262095018986,0.2722222222222222
0.0262095018986,0.2777777777777778
0.0264731049162,0.2833333333333333
0.0264731049162,0.28888888888888886
0.0266961176716,0.29444444444444445
0.0266961176716,0.3
0.0272864127138,0.3055555555555556
0.0272864127138,0.3111111111111111
0.0274191695109,0.31666666666666665
0.0274191695109,0.32222222222222224
0.0274334213339,0.3277777777777778
0.0274334213339,0.3333333333333333
0.0274689072513,0.3388888888888889
0.0274689072513,0.34444444444444444
0.0274846618328,0.35
0.0274846618328,0.35555555555555557
0.0276429698399,0.3611111111111111
0.0276429698399,0.36666666666666664
0.0280070474866,0.37222222222222223
0.0280070474866,0.37777777777777777
0.0280448659673,0.38333333333333336
0.0280448659673,0.3888888888888889
0.0280596620396,0.39444444444444443
0.0280596620396,0.4
0.0280742991231,0.40555555555555556
0.0280742991231,0.4111111111111111
0.0282488434714,0.4166666666666667
0.0282488434714,0.4222222222222222
0.0283682284047,0.42777777777777776
0.0283682284047,0.43333333333333335
0.028761873108,0.4388888888888889
0.028761873108,0.4444444444444444
0.700722259106,0.45
0.700722259106,0.45555555555555555
0.832297741254,0.46111111111111114
0.832297741254,0.4666666666666667
0.860822050518,0.4722222222222222
0.860822050518,0.4777777777777778
0.913447051657,0.48333333333333334
0.913447051657,0.4888888888888889
1.50099996789,0.49444444444444446
1.50099996789,0.5
1.82478595974,0.5055555555555555
1.82478595974,0.5111111111111111
2.09745791902,0.5166666666666667
2.09745791902,0.5222222222222223
2.14111364156,0.5277777777777778
2.14111364156,0.5333333333333333
2.58961139587,0.5388888888888889
2.58961139587,0.5444444444444444
2.91813222422,0.55
2.91813222422,0.5555555555555556
2.97725373806,0.5611111111111111
2.97725373806,0.5666666666666667
3.07472765543,0.5722222222222222
3.07472765543,0.5777777777777777
3.08705890633,0.5833333333333334
3.08705890633,0.5888888888888889
3.19737972898,0.5944444444444444
3.19737972898,0.6
3.2470371588,0.6055555555555555
3.2470371588,0.6111111111111112
3.33875906605,0.6166666666666667
3.33875906605,0.6222222222222222
3.50227517585,0.6277777777777778
3.50227517585,0.6333333333333333
3.51663358585,0.6388888888888888
3.51663358585,0.6444444444444445
3.66875118965,0.65
3.66875118965,0.6555555555555556
3.68332996623,0.6611111111111111
3.68332996623,0.6666666666666666
3.7468878877,0.6722222222222223
3.7468878877,0.6777777777777778
3.89260717726,0.6833333333333333
3.89260717726,0.6888888888888889
3.98495949609,0.6944444444444444
3.98495949609,0.7
4.16021910352,0.7055555555555556
4.16021910352,0.7111111111111111
4.21830248536,0.7166666666666667
4.21830248536,0.7222222222222222
4.30878541514,0.7277777777777777
4.30878541514,0.7333333333333333
4.66906907888,0.7388888888888889
4.66906907888,0.7444444444444445
5.60243225115,0.75
5.60243225115,0.7555555555555555
5.73214710606,0.7611111111111111
5.73214710606,0.7666666666666667
5.79674299569,0.7722222222222223
5.79674299569,0.7777777777777778
6.2204986225,0.7833333333333333
6.2204986225,0.7888888888888889
6.31470418816,0.7944444444444444
6.31470418816,0.8
6.45703513892,0.8055555555555556
6.45703513892,0.8111111111111111
6.821096708,0.8166666666666667
6.821096708,0.8222222222222222
7.09394780127,0.8277777777777777
7.09394780127,0.8333333333333334
7.23626574768,0.8388888888888889
7.23626574768,0.8444444444444444
7.89229779369,0.85
7.89229779369,0.8555555555555555
8.67289460324,0.8611111111111112
8.67289460324,0.8666666666666667
8.67862963403,0.8722222222222222
8.67862963403,0.8777777777777778
9.4866928534,0.8833333333333333
9.4866928534,0.8888888888888888
9.60918435217,0.8944444444444445
9.60918435217,0.9
10.2788968068,0.9055555555555556
10.2788968068,0.9111111111111111
10.7125906561,0.9166666666666666
10.7125906561,0.9222222222222223
11.2349435168,0.9277777777777778
11.2349435168,0.9333333333333333
12.3297518428,0.9388888888888889
12.3297518428,0.9444444444444444
12.482292817,0.95
12.482292817,0.9555555555555556
12.8811435993,0.9611111111111111
12.8811435993,0.9666666666666667
14.2368858198,0.9722222222222222
14.2368858198,0.9777777777777777
15.4419300756,0.9833333333333333
15.4419300756,0.9888888888888889
16.0402832586,0.9944444444444445
16.0402832586,1.0
