Congestion,CDF
0.00254759990945,0.005555555555555556
0.00254759990945,0.011111111111111112
0.00301406962363,0.016666666666666666
0.00301406962363,0.022222222222222223
0.00310996447477,0.027777777777777776
0.00310996447477,0.03333333333333333
0.00335476575798,0.03888888888888889
0.00335476575798,0.044444444444444446
0.00337017433255,0.05
0.00337017433255,0.05555555555555555
0.00338441828918,0.06111111111111111
0.00338441828918,0.06666666666666667
0.00350046482317,0.07222222222222222
0.00350046482317,0.07777777777777778
0.00353367148863,0.08333333333333333
0.00353367148863,0.08888888888888889
0.00361103661691,0.09444444444444444
0.00361103661691,0.1
0.0036376573895,0.10555555555555556
0.0036376573895,0.1111111111111111
0.00380434829955,0.11666666666666667
0.00380434829955,0.12222222222222222
0.00381109438518,0.12777777777777777
0.00381109438518,0.13333333333333333
0.00399848095234,0.1388888888888889
0.00399848095234,0.14444444444444443
0.00400319830673,0.15
0.00400319830673,0.15555555555555556
0.00402610709952,0.16111111111111112
0.00402610709952,0.16666666666666666
0.00414606392794,0.17222222222222222
0.00414606392794,0.17777777777777778
0.00418381262971,0.18333333333333332
0.00418381262971,0.18888888888888888
0.00419630043403,0.19444444444444445
0.00419630043403,0.2
0.00423343615899,0.20555555555555555
0.00423343615899,0.2111111111111111
0.00428781328941,0.21666666666666667
0.00428781328941,0.2222222222222222
0.00435704263621,0.22777777777777777
0.00435704263621,0.23333333333333334
0.0045929521627,0.2388888888888889
0.0045929521627,0.24444444444444444
0.00459725577362,0.25
0.00459725577362,0.25555555555555554
0.00463904146856,0.2611111111111111
0.00463904146856,0.26666666666666666
0.00491751105108,0.2722222222222222
0.00491751105108,0.2777777777777778
0.00499328647186,0.2833333333333333
0.00499328647186,0.28888888888888886
0.00514884203561,0.29444444444444445
0.00514884203561,0.3
0.0051580705405,0.3055555555555556
0.0051580705405,0.3111111111111111
0.00525854929714,0.31666666666666665
0.00525854929714,0.32222222222222224
0.00556614518401,0.3277777777777778
0.00556614518401,0.3333333333333333
0.00583135137959,0.3388888888888889
0.00583135137959,0.34444444444444444
0.00597606319139,0.35
0.00597606319139,0.35555555555555557
0.00615245430925,0.3611111111111111
0.00615245430925,0.36666666666666664
0.00617874145183,0.37222222222222223
0.00617874145183,0.37777777777777777
0.00627085092089,0.38333333333333336
0.00627085092089,0.3888888888888889
0.00631996504974,0.39444444444444443
0.00631996504974,0.4
0.00632914091383,0.40555555555555556
0.00632914091383,0.4111111111111111
0.00676700992275,0.4166666666666667
0.00676700992275,0.4222222222222222
0.00694091503124,0.42777777777777776
0.00694091503124,0.43333333333333335
0.00717228761105,0.4388888888888889
0.00717228761105,0.4444444444444444
0.0809822632614,0.45
0.0809822632614,0.45555555555555555
0.144142618984,0.46111111111111114
0.144142618984,0.4666666666666667
0.153053572753,0.4722222222222222
0.153053572753,0.4777777777777778
0.160346305132,0.48333333333333334
0.160346305132,0.4888888888888889
0.203724293309,0.49444444444444446
0.203724293309,0.5
0.265088165458,0.5055555555555555
0.265088165458,0.5111111111111111
0.310877455752,0.5166666666666667
0.310877455752,0.5222222222222223
0.320422172587,0.5277777777777778
0.320422172587,0.5333333333333333
0.33135923038,0.5388888888888889
0.33135923038,0.5444444444444444
0.333450398868,0.55
0.333450398868,0.5555555555555556
0.372101500145,0.5611111111111111
0.372101500145,0.5666666666666667
0.387732501001,0.5722222222222222
0.387732501001,0.5777777777777777
0.43576808806,0.5833333333333334
0.43576808806,0.5888888888888889
0.456009202187,0.5944444444444444
0.456009202187,0.6
0.462889547224,0.6055555555555555
0.462889547224,0.6111111111111112
0.51646576634,0.6166666666666667
0.51646576634,0.6222222222222222
0.551627508755,0.6277777777777778
0.551627508755,0.6333333333333333
0.553963191745,0.6388888888888888
0.553963191745,0.6444444444444445
0.576910120473,0.65
0.576910120473,0.6555555555555556
0.596732670287,0.6611111111111111
0.596732670287,0.6666666666666666
0.664936260692,0.6722222222222223
0.664936260692,0.6777777777777778
0.666082812587,0.6833333333333333
0.666082812587,0.6888888888888889
0.693927854695,0.6944444444444444
0.693927854695,0.7
0.700757137385,0.7055555555555556
0.700757137385,0.7111111111111111
0.821429016831,0.7166666666666667
0.821429016831,0.7222222222222222
0.968442569982,0.7277777777777777
0.968442569982,0.7333333333333333
1.0271800367,0.7388888888888889
1.0271800367,0.7444444444444445
1.03643416928,0.75
1.03643416928,0.7555555555555555
1.07954265349,0.7611111111111111
1.07954265349,0.7666666666666667
1.25864558611,0.7722222222222223
1.25864558611,0.7777777777777778
1.36351988632,0.7833333333333333
1.36351988632,0.7888888888888889
1.43344351838,0.7944444444444444
1.43344351838,0.8
1.45966406081,0.8055555555555556
1.45966406081,0.8111111111111111
1.61062574886,0.8166666666666667
1.61062574886,0.8222222222222222
1.63396769201,0.8277777777777777
1.63396769201,0.8333333333333334
1.6516796002,0.8388888888888889
1.6516796002,0.8444444444444444
1.66624238533,0.85
1.66624238533,0.8555555555555555
1.80902454581,0.8611111111111112
1.80902454581,0.8666666666666667
2.2083495548,0.8722222222222222
2.2083495548,0.8777777777777778
2.25663090389,0.8833333333333333
2.25663090389,0.8888888888888888
2.31066868429,0.8944444444444445
2.31066868429,0.9
2.46692539972,0.9055555555555556
2.46692539972,0.9111111111111111
2.49581756614,0.9166666666666666
2.49581756614,0.9222222222222223
2.57060485506,0.9277777777777778
2.57060485506,0.9333333333333333
2.74597560787,0.9388888888888889
2.74597560787,0.9444444444444444
2.84564322578,0.95
2.84564322578,0.9555555555555556
3.09177584991,0.9611111111111111
3.09177584991,0.9666666666666667
4.04305565399,0.9722222222222222
4.04305565399,0.9777777777777777
4.18044256674,0.9833333333333333
4.18044256674,0.9888888888888889
4.3270875619,0.9944444444444445
4.3270875619,1.0
