Congestion,CDF
0.000699837627716,0.005555555555555556
0.000699837627716,0.011111111111111112
0.000700037643599,0.016666666666666666
0.000700037643599,0.022222222222222223
0.00070196190157,0.027777777777777776
0.00070196190157,0.03333333333333333
0.000703552205255,0.03888888888888889
0.000703552205255,0.044444444444444446
0.000703668986474,0.05
0.000703668986474,0.05555555555555555
0.000705311594535,0.06111111111111111
0.000705311594535,0.06666666666666667
0.000705987275261,0.07222222222222222
0.000705987275261,0.07777777777777778
0.000708781055871,0.08333333333333333
0.000708781055871,0.08888888888888889
0.000708833360053,0.09444444444444444
0.000708833360053,0.1
0.000709068602552,0.10555555555555556
0.000709068602552,0.1111111111111111
0.000709282950225,0.11666666666666667
0.000709282950225,0.12222222222222222
0.000710352303674,0.12777777777777777
0.000710352303674,0.13333333333333333
0.000710622650003,0.1388888888888889
0.000710622650003,0.14444444444444443
0.000712010913043,0.15
0.000712010913043,0.15555555555555556
0.000712331605019,0.16111111111111112
0.000712331605019,0.16666666666666666
0.000713049976227,0.17222222222222222
0.000713049976227,0.17777777777777778
0.000715270638208,0.18333333333333332
0.000715270638208,0.18888888888888888
0.000716812665267,0.19444444444444445
0.000716812665267,0.2
0.00071759999305,0.20555555555555555
0.00071759999305,0.2111111111111111
0.000718342990659,0.21666666666666667
0.000718342990659,0.2222222222222222
0.000718647844672,0.22777777777777777
0.000718647844672,0.23333333333333334
0.000718804925559,0.2388888888888889
0.000718804925559,0.24444444444444444
0.000719457311858,0.25
0.000719457311858,0.25555555555555554
0.000720162708607,0.2611111111111111
0.000720162708607,0.26666666666666666
0.000720516707545,0.2722222222222222
0.000720516707545,0.2777777777777778
0.000720757310392,0.2833333333333333
0.000720757310392,0.28888888888888886
0.000720876778671,0.29444444444444445
0.000720876778671,0.3
0.00072112528506,0.3055555555555556
0.00072112528506,0.3111111111111111
0.000721339024983,0.31666666666666665
0.000721339024983,0.32222222222222224
0.000721387472269,0.3277777777777778
0.000721387472269,0.3333333333333333
0.00072212584794,0.3388888888888889
0.00072212584794,0.34444444444444444
0.000722316095687,0.35
0.000722316095687,0.35555555555555557
0.000722579861162,0.3611111111111111
0.000722579861162,0.36666666666666664
0.000724500926252,0.37222222222222223
0.000724500926252,0.37777777777777777
0.000725317004357,0.38333333333333336
0.000725317004357,0.3888888888888889
0.000725804952614,0.39444444444444443
0.000725804952614,0.4
0.000728042424189,0.40555555555555556
0.000728042424189,0.4111111111111111
0.000728489469257,0.4166666666666667
0.000728489469257,0.4222222222222222
0.000728901404856,0.42777777777777776
0.000728901404856,0.43333333333333335
0.000729882475916,0.4388888888888889
0.000729882475916,0.4444444444444444
0.0244897199068,0.45
0.0244897199068,0.45555555555555555
0.0262219253118,0.46111111111111114
0.0262219253118,0.4666666666666667
0.0342265453538,0.4722222222222222
0.0342265453538,0.4777777777777778
0.0402235702131,0.48333333333333334
0.0402235702131,0.4888888888888889
0.0464694107461,0.49444444444444446
0.0464694107461,0.5
0.0615028461247,0.5055555555555555
0.0615028461247,0.5111111111111111
0.0625948389513,0.5166666666666667
0.0625948389513,0.5222222222222223
0.0632090083149,0.5277777777777778
0.0632090083149,0.5333333333333333
0.0781371370805,0.5388888888888889
0.0781371370805,0.5444444444444444
0.0789328446007,0.55
0.0789328446007,0.5555555555555556
0.0815518441781,0.5611111111111111
0.0815518441781,0.5666666666666667
0.0815627303163,0.5722222222222222
0.0815627303163,0.5777777777777777
0.0838054687491,0.5833333333333334
0.0838054687491,0.5888888888888889
0.0867572738658,0.5944444444444444
0.0867572738658,0.6
0.0912701962598,0.6055555555555555
0.0912701962598,0.6111111111111112
0.0936797480505,0.6166666666666667
0.0936797480505,0.6222222222222222
0.0955694556057,0.6277777777777778
0.0955694556057,0.6333333333333333
0.0959118201956,0.6388888888888888
0.0959118201956,0.6444444444444445
0.0980082926971,0.65
0.0980082926971,0.6555555555555556
0.0983451681106,0.6611111111111111
0.0983451681106,0.6666666666666666
0.103147699976,0.6722222222222223
0.103147699976,0.6777777777777778
0.104498360125,0.6833333333333333
0.104498360125,0.6888888888888889
0.105391662123,0.6944444444444444
0.105391662123,0.7
0.108749857062,0.7055555555555556
0.108749857062,0.7111111111111111
0.113488531919,0.7166666666666667
0.113488531919,0.7222222222222222
0.118096291739,0.7277777777777777
0.118096291739,0.7333333333333333
0.124646748947,0.7388888888888889
0.124646748947,0.7444444444444445
0.138753264012,0.75
0.138753264012,0.7555555555555555
0.141361922314,0.7611111111111111
0.141361922314,0.7666666666666667
0.144660944065,0.7722222222222223
0.144660944065,0.7777777777777778
0.148149042738,0.7833333333333333
0.148149042738,0.7888888888888889
0.155183921289,0.7944444444444444
0.155183921289,0.8
0.158005726558,0.8055555555555556
0.158005726558,0.8111111111111111
0.162930452179,0.8166666666666667
0.162930452179,0.8222222222222222
0.172644509085,0.8277777777777777
0.172644509085,0.8333333333333334
0.178805476221,0.8388888888888889
0.178805476221,0.8444444444444444
0.186793383102,0.85
0.186793383102,0.8555555555555555
0.203188768063,0.8611111111111112
0.203188768063,0.8666666666666667
0.217353700384,0.8722222222222222
0.217353700384,0.8777777777777778
0.224158848131,0.8833333333333333
0.224158848131,0.8888888888888888
0.22798117,0.8944444444444445
0.22798117,0.9
0.244590584915,0.9055555555555556
0.244590584915,0.9111111111111111
0.258308649121,0.9166666666666666
0.258308649121,0.9222222222222223
0.264891634578,0.9277777777777778
0.264891634578,0.9333333333333333
0.292958117522,0.9388888888888889
0.292958117522,0.9444444444444444
0.301634397696,0.95
0.301634397696,0.9555555555555556
0.310926737833,0.9611111111111111
0.310926737833,0.9666666666666667
0.324097714175,0.9722222222222222
0.324097714175,0.9777777777777777
0.351984042903,0.9833333333333333
0.351984042903,0.9888888888888889
0.368998078168,0.9944444444444445
0.368998078168,1.0
