Congestion,CDF
0.0,0.009433962264150943
0.0,0.018867924528301886
0.0,0.02830188679245283
0.0,0.03773584905660377
0.0,0.04716981132075472
0.0,0.05660377358490566
0.0,0.0660377358490566
0.0,0.07547169811320754
0.0,0.08490566037735849
0.0,0.09433962264150944
0.0,0.10377358490566038
0.0,0.11320754716981132
0.0,0.12264150943396226
0.0,0.1320754716981132
0.0,0.14150943396226415
0.0,0.1509433962264151
0.0,0.16037735849056603
0.0,0.16981132075471697
0.0,0.1792452830188679
0.0,0.18867924528301888
0.0,0.19811320754716982
0.0,0.20754716981132076
0.0,0.2169811320754717
0.0,0.22641509433962265
0.0,0.2358490566037736
0.0,0.24528301886792453
0.0,0.25471698113207547
0.0,0.2641509433962264
0.0,0.27358490566037735
0.0,0.2830188679245283
5.03585139726e-08,0.29245283018867924
1.29735682119e-06,0.3018867924528302
1.45890029876e-06,0.3113207547169811
1.97777879978e-06,0.32075471698113206
2.23255542517e-06,0.330188679245283
2.9706920494e-06,0.33962264150943394
4.53035103427e-06,0.3490566037735849
5.79908864489e-06,0.3584905660377358
6.13725960136e-06,0.36792452830188677
7.15807513268e-06,0.37735849056603776
8.81330471287e-06,0.3867924528301887
9.01525050594e-06,0.39622641509433965
9.51197647772e-06,0.4056603773584906
6.0952948018e-05,0.41509433962264153
8.35507138894e-05,0.42452830188679247
8.35507138894e-05,0.4339622641509434
0.000217465824183,0.44339622641509435
0.000217465824183,0.4528301886792453
0.000217465824183,0.46226415094339623
0.000222801903705,0.4716981132075472
0.000222801903705,0.4811320754716981
0.000222801903705,0.49056603773584906
0.000343974330228,0.5
0.000410776365637,0.5094339622641509
0.000410776365637,0.5188679245283019
0.000434931648367,0.5283018867924528
0.000434931648367,0.5377358490566038
0.000593333639935,0.5471698113207547
0.000756314573382,0.5566037735849056
0.000756314573382,0.5660377358490566
0.00093709178718,0.5754716981132075
0.00093709178718,0.5849056603773585
0.00118344073912,0.5943396226415094
0.00143941675784,0.6037735849056604
0.00194532829838,0.6132075471698113
0.00303344192782,0.6226415094339622
0.00307728649467,0.6320754716981132
0.00656910949276,0.6415094339622641
0.0107608972695,0.6509433962264151
0.0145647732207,0.660377358490566
0.0180631170289,0.6698113207547169
0.0181775533769,0.6792452830188679
0.0191996128664,0.6886792452830188
0.0216496070593,0.6981132075471698
0.0224333322683,0.7075471698113207
0.0232023819943,0.7169811320754716
0.0232277829465,0.7264150943396226
0.0249096473327,0.7358490566037735
0.0253711006905,0.7452830188679245
0.0270346913865,0.7547169811320755
0.0272061055467,0.7641509433962265
0.275800602987,0.7735849056603774
0.653281395371,0.7830188679245284
0.653281395371,0.7924528301886793
0.870089324788,0.8018867924528302
0.870089324788,0.8113207547169812
0.870089324788,0.8207547169811321
1.74017864958,0.8301886792452831
1.74017864958,0.839622641509434
1.74208372099,0.8490566037735849
1.74208372099,0.8584905660377359
1.74208372099,0.8679245283018868
2.94350336104,0.8773584905660378
3.46580483644,0.8867924528301887
3.46580483644,0.8962264150943396
3.74142918314,0.9056603773584906
3.74142918314,0.9150943396226415
4.16009721664,0.9245283018867925
4.16009721664,0.9339622641509434
4.36943196621,0.9433962264150944
7.80563051464,0.9528301886792453
7.83137869295,0.9622641509433962
9.85153860122,0.9716981132075472
9.9029628493,0.9811320754716981
16.8978690846,0.9905660377358491
32.7741919392,1.0
