Congestion,CDF
0.0,0.009433962264150943
0.0,0.018867924528301886
0.0,0.02830188679245283
0.0,0.03773584905660377
0.0,0.04716981132075472
0.0,0.05660377358490566
0.0,0.0660377358490566
0.0,0.07547169811320754
0.0,0.08490566037735849
0.0,0.09433962264150944
0.0,0.10377358490566038
0.0,0.11320754716981132
0.0,0.12264150943396226
0.0,0.1320754716981132
0.0,0.14150943396226415
0.0,0.1509433962264151
0.0,0.16037735849056603
0.0,0.16981132075471697
0.0,0.1792452830188679
0.0,0.18867924528301888
0.0,0.19811320754716982
0.0,0.20754716981132076
0.0,0.2169811320754717
0.0,0.22641509433962265
0.0,0.2358490566037736
0.0,0.24528301886792453
0.0,0.25471698113207547
0.0,0.2641509433962264
0.0,0.27358490566037735
0.0,0.2830188679245283
4.58301601441e-08,0.29245283018867924
1.1806955009e-06,0.3018867924528302
1.32771261604e-06,0.3113207547169811
1.79993236443e-06,0.32075471698113206
2.03179888751e-06,0.330188679245283
2.70356056251e-06,0.33962264150943394
4.12297141101e-06,0.3490566037735849
5.27762120681e-06,0.3584905660377358
5.58538305022e-06,0.36792452830188677
6.51440449242e-06,0.37735849056603776
8.02079200768e-06,0.3867924528301887
8.20457836885e-06,0.39622641509433965
8.65663759456e-06,0.4056603773584906
5.54719182231e-05,0.41509433962264153
7.60376408206e-05,0.42452830188679247
7.60376408206e-05,0.4339622641509434
0.000197910795256,0.44339622641509435
0.000197910795256,0.4528301886792453
0.000197910795256,0.46226415094339623
0.000202767042188,0.4716981132075472
0.000202767042188,0.4811320754716981
0.000202767042188,0.49056603773584906
0.000313043364393,0.5
0.000373838406566,0.5094339622641509
0.000373838406566,0.5188679245283019
0.000395821590511,0.5283018867924528
0.000395821590511,0.5377358490566038
0.000539979709328,0.5471698113207547
0.000688305021,0.5566037735849056
0.000688305021,0.5660377358490566
0.000852826330412,0.5754716981132075
0.000852826330412,0.5849056603773585
0.0010770230159,0.5943396226415094
0.0013099810801,0.6037735849056604
0.00177039988703,0.6132075471698113
0.002760667827,0.6226415094339622
0.00280056978919,0.6320754716981132
0.00318224684743,0.6415094339622641
0.00345384194925,0.6509433962264151
0.00597840000245,0.660377358490566
0.0201989808422,0.6698113207547169
0.0205276447646,0.6792452830188679
0.0342283891013,0.6886792452830188
0.0372787988986,0.6981132075471698
0.042366612979,0.7075471698113207
0.0426865738677,0.7169811320754716
0.0469514988105,0.7264150943396226
0.0472898754849,0.7358490566037735
0.0491251620999,0.7452830188679245
0.0519625497916,0.7547169811320755
0.0525125130733,0.7641509433962265
0.45176468851,0.7735849056603774
1.03615258477,0.7830188679245284
1.33002774801,0.7924528301886793
1.33002774801,0.8018867924528302
1.76068120539,0.8113207547169812
1.76068120539,0.8207547169811321
1.76068120539,0.8301886792452831
3.52136241079,0.839622641509434
3.52136241079,0.8490566037735849
3.54674066137,0.8584905660377359
3.54674066137,0.8679245283018868
3.54674066137,0.8773584905660378
3.78020453441,0.8867924528301887
6.84440352815,0.8962264150943396
6.84440352815,0.9056603773584906
7.4167826122,0.9150943396226415
7.4167826122,0.9245283018867925
8.17711938829,0.9339622641509434
8.17711938829,0.9433962264150944
11.9615533017,0.9528301886792453
12.0355026842,0.9622641509433962
19.1228164736,0.9716981132075472
19.2878054581,0.9811320754716981
30.2972139523,0.9905660377358491
62.119419943,1.0
