Congestion,CDF
0.0,0.009433962264150943
0.0,0.018867924528301886
0.0,0.02830188679245283
0.0,0.03773584905660377
0.0,0.04716981132075472
0.0,0.05660377358490566
0.0,0.0660377358490566
0.0,0.07547169811320754
0.0,0.08490566037735849
0.0,0.09433962264150944
0.0,0.10377358490566038
0.0,0.11320754716981132
0.0,0.12264150943396226
0.0,0.1320754716981132
0.0,0.14150943396226415
0.0,0.1509433962264151
0.0,0.16037735849056603
0.0,0.16981132075471697
0.0,0.1792452830188679
0.0,0.18867924528301888
0.0,0.19811320754716982
0.0,0.20754716981132076
0.0,0.2169811320754717
0.0,0.22641509433962265
0.0,0.2358490566037736
0.0,0.24528301886792453
0.0,0.25471698113207547
0.0,0.2641509433962264
0.0,0.27358490566037735
0.0,0.2830188679245283
4.51030655003e-08,0.29245283018867924
1.16196378859e-06,0.3018867924528302
1.30664847992e-06,0.3113207547169811
1.77137647072e-06,0.32075471698113206
1.9995644357e-06,0.330188679245283
2.66066862414e-06,0.33962264150943394
4.05756054576e-06,0.3490566037735849
5.19389184389e-06,0.3584905660377358
5.49677105133e-06,0.36792452830188677
6.41105358552e-06,0.37735849056603776
7.89354229068e-06,0.3867924528301887
8.07441288463e-06,0.39622641509433965
8.51930019908e-06,0.4056603773584906
5.45918572655e-05,0.41509433962264153
7.4831305054e-05,0.42452830188679247
7.4831305054e-05,0.4339622641509434
0.000194770944146,0.44339622641509435
0.000194770944146,0.4528301886792453
0.000194770944146,0.46226415094339623
0.000199550146811,0.4716981132075472
0.000199550146811,0.4811320754716981
0.000199550146811,0.49056603773584906
0.000308076937201,0.5
0.000367907467154,0.5094339622641509
0.000367907467154,0.5188679245283019
0.000389541888292,0.5283018867924528
0.000389541888292,0.5377358490566038
0.000531412941217,0.5471698113207547
0.000677385074561,0.5566037735849056
0.000677385074561,0.5660377358490566
0.000839296256438,0.5754716981132075
0.000839296256438,0.5849056603773585
0.00105993606565,0.5943396226415094
0.00128919825447,0.6037735849056604
0.00174231252553,0.6132075471698113
0.00271686988294,0.6226415094339622
0.00275613880123,0.6320754716981132
0.00588355279689,0.6415094339622641
0.0189632912137,0.6509433962264151
0.0235499251306,0.660377358490566
0.0313344566673,0.6698113207547169
0.0315327853608,0.6792452830188679
0.0380793545244,0.6886792452830188
0.0395415037119,0.6981132075471698
0.0416906758157,0.7075471698113207
0.0443277852529,0.7169811320754716
0.0444089463638,0.7264150943396226
0.0446439001595,0.7358490566037735
0.0468245527185,0.7452830188679245
0.0490602203473,0.7547169811320755
0.0493692412269,0.7641509433962265
0.503326638493,0.7735849056603774
1.25560969198,0.7830188679245284
1.25560969198,0.7924528301886793
1.66533548864,0.8018867924528302
1.66533548864,0.8113207547169812
1.66533548864,0.8207547169811321
3.33067097729,0.8301886792452831
3.33067097729,0.839622641509434
3.34829251196,0.8490566037735849
3.34829251196,0.8584905660377359
3.34829251196,0.8679245283018868
5.52763960777,0.8773584905660378
6.78853869246,0.8867924528301887
6.78853869246,0.8962264150943396
7.06497753918,0.9056603773584906
7.19481233774,0.9150943396226415
7.19481233774,0.9245283018867925
7.77237348929,0.9339622641509434
7.77237348929,0.9433962264150944
14.2450650879,0.9528301886792453
14.2896890439,0.9622641509433962
18.0575478488,0.9716981132075472
18.1502541127,0.9811320754716981
31.2770006892,0.9905660377358491
59.8693021897,1.0
