Congestion,CDF
0.0,0.009433962264150943
0.0,0.018867924528301886
0.0,0.02830188679245283
0.0,0.03773584905660377
0.0,0.04716981132075472
0.0,0.05660377358490566
0.0,0.0660377358490566
0.0,0.07547169811320754
0.0,0.08490566037735849
0.0,0.09433962264150944
0.0,0.10377358490566038
0.0,0.11320754716981132
0.0,0.12264150943396226
0.0,0.1320754716981132
0.0,0.14150943396226415
0.0,0.1509433962264151
0.0,0.16037735849056603
0.0,0.16981132075471697
0.0,0.1792452830188679
0.0,0.18867924528301888
0.0,0.19811320754716982
0.0,0.20754716981132076
0.0,0.2169811320754717
0.0,0.22641509433962265
0.0,0.2358490566037736
0.0,0.24528301886792453
0.0,0.25471698113207547
0.0,0.2641509433962264
0.0,0.27358490566037735
0.0,0.2830188679245283
4.86855081932e-08,0.29245283018867924
1.25425615581e-06,0.3018867924528302
1.41043285127e-06,0.3113207547169811
1.9120732199e-06,0.32075471698113206
2.15838568038e-06,0.330188679245283
2.87199999963e-06,0.33962264150943394
4.37984414149e-06,0.3490566037735849
5.60643187144e-06,0.3584905660377358
5.93336814444e-06,0.36792452830188677
6.9202702389e-06,0.37735849056603776
7.60590712598e-06,0.3867924528301887
8.52050993882e-06,0.39622641509433965
8.71574670789e-06,0.4056603773584906
9.19597049651e-06,0.41509433962264153
5.89279749547e-05,0.42452830188679247
8.07749999896e-05,0.4339622641509434
8.07749999896e-05,0.44339622641509435
0.000210241195179,0.4528301886792453
0.000210241195179,0.46226415094339623
0.000210241195179,0.4716981132075472
0.000215399999972,0.4811320754716981
0.000215399999972,0.49056603773584906
0.000215399999972,0.5
0.000216036667046,0.5094339622641509
0.000332546847623,0.5188679245283019
0.000397129592142,0.5283018867924528
0.000397129592142,0.5377358490566038
0.000420482390358,0.5471698113207547
0.000420482390358,0.5566037735849056
0.000573621965971,0.5660377358490566
0.000731188362292,0.5754716981132075
0.000731188362292,0.5849056603773585
0.000905959812623,0.5943396226415094
0.000905959812623,0.6037735849056604
0.00114412458302,0.6132075471698113
0.00139159659071,0.6226415094339622
0.00188070078599,0.6320754716981132
0.0022817721378,0.6415094339622641
0.00293266520753,0.6509433962264151
0.00297505317434,0.660377358490566
0.00540290270018,0.6698113207547169
0.00574787979676,0.6792452830188679
0.00635087115966,0.6886792452830188
0.0209505277683,0.6981132075471698
0.0246786825876,0.7075471698113207
0.0315790933081,0.7169811320754716
0.031617754906,0.7264150943396226
0.0379956425394,0.7358490566037735
0.0385269852432,0.7452830188679245
0.0403674333169,0.7547169811320755
0.0437660036661,0.7641509433962265
0.0444877946313,0.7735849056603774
0.325344343038,0.7830188679245284
1.08357145996,0.7924528301886793
1.08357145996,0.8018867924528302
1.42483659523,0.8113207547169812
1.42483659523,0.8207547169811321
1.42483659523,0.8301886792452831
2.48857947379,0.839622641509434
2.84967319046,0.8490566037735849
2.84967319046,0.8584905660377359
2.88952389324,0.8679245283018868
2.88952389324,0.8773584905660378
2.88952389324,0.8867924528301887
4.92855069749,0.8962264150943396
4.92855069749,0.9056603773584906
5.70919633331,0.9150943396226415
5.70919633331,0.9245283018867925
6.69353515454,0.9339622641509434
6.69353515454,0.9433962264150944
6.92484944085,0.9528301886792453
7.00246928758,0.9622641509433962
15.9993996417,0.9716981132075472
16.2159369312,0.9811320754716981
21.7812727998,0.9905660377358491
50.6137781048,1.0
