Congestion,CDF
0.0,0.009433962264150943
0.0,0.018867924528301886
0.0,0.02830188679245283
0.0,0.03773584905660377
0.0,0.04716981132075472
0.0,0.05660377358490566
0.0,0.0660377358490566
0.0,0.07547169811320754
0.0,0.08490566037735849
0.0,0.09433962264150944
0.0,0.10377358490566038
0.0,0.11320754716981132
0.0,0.12264150943396226
0.0,0.1320754716981132
0.0,0.14150943396226415
0.0,0.1509433962264151
0.0,0.16037735849056603
0.0,0.16981132075471697
0.0,0.1792452830188679
0.0,0.18867924528301888
0.0,0.19811320754716982
0.0,0.20754716981132076
0.0,0.2169811320754717
0.0,0.22641509433962265
0.0,0.2358490566037736
0.0,0.24528301886792453
0.0,0.25471698113207547
0.0,0.2641509433962264
0.0,0.27358490566037735
0.0,0.2830188679245283
4.59278790215e-08,0.29245283018867924
1.18321297495e-06,0.3018867924528302
1.33054355937e-06,0.3113207547169811
1.80377017275e-06,0.32075471698113206
2.03613108067e-06,0.330188679245283
2.70932508313e-06,0.33962264150943394
4.13176239355e-06,0.3490566037735849
5.28887412886e-06,0.3584905660377358
5.59729218079e-06,0.36792452830188677
6.52829447866e-06,0.37735849056603776
8.03789390713e-06,0.3867924528301887
8.22207213682e-06,0.39622641509433965
8.67509524134e-06,0.4056603773584906
5.5590195217e-05,0.41509433962264153
7.6199767963e-05,0.42452830188679247
7.6199767963e-05,0.4339622641509434
0.000198332779832,0.44339622641509435
0.000198332779832,0.4528301886792453
0.000198332779832,0.46226415094339623
0.000203199381235,0.4716981132075472
0.000203199381235,0.4811320754716981
0.000203199381235,0.49056603773584906
0.000313710834156,0.5
0.000374635503266,0.5094339622641509
0.000374635503266,0.5188679245283019
0.000396665559665,0.5283018867924528
0.000396665559665,0.5377358490566038
0.000541131051825,0.5471698113207547
0.000689772622112,0.5566037735849056
0.000689772622112,0.5660377358490566
0.000854644723176,0.5754716981132075
0.000854644723176,0.5849056603773585
0.00107931943991,0.5943396226415094
0.00131277421633,0.6037735849056604
0.00177417472632,0.6132075471698113
0.0027665541115,0.6226415094339622
0.00280654115248,0.6320754716981132
0.00599114712215,0.6415094339622641
0.0168275132969,0.6509433962264151
0.0213036371531,0.660377358490566
0.0279730399908,0.6698113207547169
0.0281503968592,0.6792452830188679
0.0331667777987,0.6886792452830188
0.035240271371,0.6981132075471698
0.0365538244193,0.7075471698113207
0.0389875408964,0.7169811320754716
0.0391941493183,0.7264150943396226
0.0394657682715,0.7358490566037735
0.041413148396,0.7452830188679245
0.0435393239077,0.7547169811320755
0.0438139276901,0.7641509433962265
0.445629319369,0.7735849056603774
1.10233544958,0.7830188679245284
1.10233544958,0.7924528301886793
1.46203278362,0.8018867924528302
1.46203278362,0.8113207547169812
1.46203278362,0.8207547169811321
2.92406556723,0.8301886792452831
2.92406556723,0.839622641509434
2.93956119887,0.8490566037735849
2.93956119887,0.8584905660377359
2.93956119887,0.8679245283018868
4.85815651572,0.8773584905660378
5.93012253964,0.8867924528301887
5.93012253964,0.8962264150943396
6.31116528446,0.9056603773584906
6.31116528446,0.9150943396226415
6.39109114594,0.9245283018867925
6.85783923184,0.9339622641509434
6.85783923184,0.9433962264150944
12.6050992824,0.9528301886792453
12.6450045778,0.9622641509433962
15.9936105554,0.9716981132075472
16.0759916901,0.9811320754716981
27.6226971066,0.9905660377358491
53.0531183693,1.0
