Congestion,CDF
0.0,0.007352941176470588
0.0,0.014705882352941176
0.0,0.022058823529411766
0.0,0.029411764705882353
0.0,0.03676470588235294
0.0,0.04411764705882353
0.0,0.051470588235294115
0.0,0.058823529411764705
0.0,0.0661764705882353
0.0,0.07352941176470588
0.0,0.08088235294117647
0.0,0.08823529411764706
0.0,0.09558823529411764
0.0,0.10294117647058823
5.19041017276e-06,0.11029411764705882
5.19041017276e-06,0.11764705882352941
5.19041017276e-06,0.125
5.19041017276e-06,0.1323529411764706
5.19041017276e-06,0.13970588235294118
5.19041017276e-06,0.14705882352941177
5.19041017276e-06,0.15441176470588236
5.19041017276e-06,0.16176470588235295
5.19041017276e-06,0.16911764705882354
5.19041017276e-06,0.17647058823529413
5.19041017276e-06,0.18382352941176472
5.19041017276e-06,0.19117647058823528
5.19041017276e-06,0.19852941176470587
5.19041017276e-06,0.20588235294117646
5.19041017276e-06,0.21323529411764705
5.19041017276e-06,0.22058823529411764
5.19041017276e-06,0.22794117647058823
5.19041017276e-06,0.23529411764705882
5.19041017276e-06,0.2426470588235294
5.19041017276e-06,0.25
5.19041017276e-06,0.25735294117647056
5.19041017276e-06,0.2647058823529412
5.19041017276e-06,0.27205882352941174
5.19041017276e-06,0.27941176470588236
5.19041017276e-06,0.2867647058823529
5.19041017276e-06,0.29411764705882354
5.19041017276e-06,0.3014705882352941
0.000129760254319,0.3088235294117647
0.000129760254319,0.3161764705882353
0.000140141074664,0.3235294117647059
0.000259520508638,0.33088235294117646
0.000259520508638,0.3382352941176471
0.000259520508638,0.34558823529411764
0.000259520508638,0.35294117647058826
0.000389280762957,0.3602941176470588
0.000432534181063,0.36764705882352944
0.000432534181063,0.375
0.000432534181063,0.38235294117647056
0.000519041017276,0.3897058823529412
0.000519041017276,0.39705882352941174
0.000519041017276,0.40441176470588236
0.000519041017276,0.4117647058823529
0.000519041017276,0.41911764705882354
0.000519041017276,0.4264705882352941
0.000519041017276,0.4338235294117647
0.000648801271594,0.4411764705882353
0.000778561525913,0.4485294117647059
0.000778561525913,0.45588235294117646
0.000951575198338,0.4632352941176471
0.00103808203455,0.47058823529411764
0.00103808203455,0.47794117647058826
0.00155712305183,0.4852941176470588
0.00211941748721,0.49264705882352944
0.00376304737525,0.5
0.00384955421146,0.5073529411764706
0.00497414308222,0.5147058823529411
0.0061852387892,0.5220588235294118
0.00627174562541,0.5294117647058824
0.00670427980648,0.5367647058823529
0.00679078664269,0.5441176470588235
0.00730982765996,0.5514705882352942
0.013528288574,0.5588235294117647
0.0139114461365,0.5661764705882353
0.0173261930401,0.5735294117647058
0.017412127866,0.5808823529411765
0.0174670160262,0.5882352941176471
0.017468684529,0.5955882352941176
0.0174780348276,0.6029411764705882
0.0176127346591,0.6102941176470589
0.0178178204406,0.6176470588235294
0.0178351301713,0.625
0.0178733194925,0.6323529411764706
0.0178739278267,0.6397058823529411
0.01787474958,0.6470588235294118
0.0179050324487,0.6544117647058824
0.0179150437366,0.6617647058823529
0.0179512756355,0.6691176470588235
0.0179514393485,0.6764705882352942
0.0179566746852,0.6838235294117647
0.0179966685507,0.6911764705882353
0.0180368214467,0.6985294117647058
0.0180587104486,0.7058823529411765
0.0180587242311,0.7132352941176471
0.0180588820164,0.7205882352941176
0.018058887246,0.7279411764705882
0.0180594140412,0.7352941176470589
0.0180594175283,0.7426470588235294
0.0180594175283,0.75
0.447625811217,0.7573529411764706
0.448781890889,0.7647058823529411
0.473605882062,0.7720588235294118
0.880636732953,0.7794117647058824
0.880636732953,0.7867647058823529
0.899833427537,0.7941176470588235
0.899833427537,0.8014705882352942
1.34287743365,0.8088235294117647
1.49357582666,0.8161764705882353
1.49357582666,0.8235294117647058
1.49357582666,0.8308823529411765
1.74780348276,0.8382352941176471
1.78739278267,0.8455882352941176
1.79512756355,0.8529411764705882
1.80587242311,0.8602941176470589
1.8058887246,0.8676470588235294
1.80594175283,0.875
1.80594175283,0.8823529411764706
2.23510076921,0.8897058823529411
2.62184951955,0.8970588235294118
2.69550089605,0.9044117647058824
3.27708884379,0.9117647058823529
3.49450508538,0.9191176470588235
3.61177692624,0.9264705882352942
5.41782490979,0.9338235294117647
7.3034013278,0.9411764705882353
13.0901271949,0.9485294117647058
13.2429089486,0.9558823529411765
17.2872185938,0.9632352941176471
21.0918828575,0.9705882352941176
21.7778634247,0.9779411764705882
22.4447117149,0.9852941176470589
23.5247318776,0.9926470588235294
24.9158764912,1.0
