Congestion,CDF
0.0,0.007352941176470588
0.0,0.014705882352941176
0.0,0.022058823529411766
0.0,0.029411764705882353
0.0,0.03676470588235294
0.0,0.04411764705882353
0.0,0.051470588235294115
0.0,0.058823529411764705
0.0,0.0661764705882353
0.0,0.07352941176470588
0.0,0.08088235294117647
0.0,0.08823529411764706
0.0,0.09558823529411764
0.0,0.10294117647058823
4.87093454835e-06,0.11029411764705882
4.87093454835e-06,0.11764705882352941
4.87093454835e-06,0.125
4.87093454835e-06,0.1323529411764706
4.87093454835e-06,0.13970588235294118
4.87093454835e-06,0.14705882352941177
4.87093454835e-06,0.15441176470588236
4.87093454835e-06,0.16176470588235295
4.87093454835e-06,0.16911764705882354
4.87093454835e-06,0.17647058823529413
4.87093454835e-06,0.18382352941176472
4.87093454835e-06,0.19117647058823528
4.87093454835e-06,0.19852941176470587
4.87093454835e-06,0.20588235294117646
4.87093454835e-06,0.21323529411764705
4.87093454835e-06,0.22058823529411764
4.87093454835e-06,0.22794117647058823
4.87093454835e-06,0.23529411764705882
4.87093454835e-06,0.2426470588235294
4.87093454835e-06,0.25
4.87093454835e-06,0.25735294117647056
4.87093454835e-06,0.2647058823529412
4.87093454835e-06,0.27205882352941174
4.87093454835e-06,0.27941176470588236
4.87093454835e-06,0.2867647058823529
4.87093454835e-06,0.29411764705882354
4.87093454835e-06,0.3014705882352941
0.000121773363709,0.3088235294117647
0.000121773363709,0.3161764705882353
0.000131515232805,0.3235294117647059
0.000243546727418,0.33088235294117646
0.000243546727418,0.3382352941176471
0.000243546727418,0.34558823529411764
0.000243546727418,0.35294117647058826
0.000365320091126,0.3602941176470588
0.000405911212363,0.36764705882352944
0.000405911212363,0.375
0.000405911212363,0.38235294117647056
0.000487093454835,0.3897058823529412
0.000487093454835,0.39705882352941174
0.000487093454835,0.40441176470588236
0.000487093454835,0.4117647058823529
0.000487093454835,0.41911764705882354
0.000487093454835,0.4264705882352941
0.000487093454835,0.4338235294117647
0.000608866818544,0.4411764705882353
0.000730640182253,0.4485294117647059
0.000730640182253,0.45588235294117646
0.000893004667198,0.4632352941176471
0.00097418690967,0.47058823529411764
0.00097418690967,0.47794117647058826
0.00146128036451,0.4852941176470588
0.00198896494058,0.49264705882352944
0.00353142754755,0.5
0.00361260979003,0.5073529411764706
0.00466797894217,0.5147058823529411
0.00580453033679,0.5220588235294118
0.00588571257926,0.5294117647058824
0.00629162379162,0.5367647058823529
0.00637280603409,0.5441176470588235
0.00685989948893,0.5514705882352942
0.01620583661,0.5588235294117647
0.0167619401635,0.5661764705882353
0.0222773477071,0.5735294117647058
0.0224427309864,0.5808823529411765
0.0224468334948,0.5882352941176471
0.0225119636366,0.5955882352941176
0.0225384926535,0.6029411764705882
0.0226650709297,0.6102941176470589
0.0228854983801,0.6176470588235294
0.0229089382446,0.625
0.0229483631666,0.6323529411764706
0.0229494784009,0.6397058823529411
0.0229504007552,0.6470588235294118
0.0229806374203,0.6544117647058824
0.0229904063054,0.6617647058823529
0.0230233333184,0.6691176470588235
0.0230270644649,0.6764705882352942
0.0230313728984,0.6838235294117647
0.0230719792182,0.6911764705882353
0.0231126622451,0.6985294117647058
0.0231347489705,0.7058823529411765
0.0231347699852,0.7132352941176471
0.0231349313764,0.7205882352941176
0.02313493839,0.7279411764705882
0.0231354646032,0.7352941176470589
0.0231354692797,0.7426470588235294
0.0231354692797,0.75
0.574515935508,0.7573529411764706
0.575676611621,0.7647058823529411
0.605676142884,0.7720588235294118
1.13325354649,0.7794117647058824
1.13325354649,0.7867647058823529
1.15359896091,0.7941176470588235
1.15359896091,0.8014705882352942
1.72354780653,0.8088235294117647
1.91653942398,0.8161764705882353
1.91653942398,0.8235294117647058
1.91653942398,0.8308823529411765
2.25384926535,0.8382352941176471
2.29494784009,0.8455882352941176
2.30270644649,0.8529411764705882
2.31347699852,0.8602941176470589
2.313493839,0.8676470588235294
2.31354692797,0.875
2.31354692797,0.8823529411764706
2.86955601103,0.8897058823529411
3.37793689597,0.8970588235294118
3.45673625075,0.9044117647058824
4.20743324844,0.9117647058823529
4.505045629,0.9191176470588235
4.62698697664,0.9264705882352942
6.94064031625,0.9338235294117647
9.37587959175,0.9411764705882353
16.7702558001,0.9485294117647058
17.0051162247,0.9558823529411765
22.1516604095,0.9632352941176471
27.1158335204,0.9705882352941176
27.9107299921,0.9779411764705882
28.7364171814,0.9852941176470589
30.1550030907,0.9926470588235294
31.8311971071,1.0
