Congestion,CDF
0.0,0.007352941176470588
0.0,0.014705882352941176
0.0,0.022058823529411766
0.0,0.029411764705882353
0.0,0.03676470588235294
0.0,0.04411764705882353
0.0,0.051470588235294115
0.0,0.058823529411764705
0.0,0.0661764705882353
0.0,0.07352941176470588
0.0,0.08088235294117647
0.0,0.08823529411764706
0.0,0.09558823529411764
0.0,0.10294117647058823
5.40186843222e-06,0.11029411764705882
5.40186843222e-06,0.11764705882352941
5.40186843222e-06,0.125
5.40186843222e-06,0.1323529411764706
5.40186843222e-06,0.13970588235294118
5.40186843222e-06,0.14705882352941177
5.40186843222e-06,0.15441176470588236
5.40186843222e-06,0.16176470588235295
5.40186843222e-06,0.16911764705882354
5.40186843222e-06,0.17647058823529413
5.40186843222e-06,0.18382352941176472
5.40186843222e-06,0.19117647058823528
5.40186843222e-06,0.19852941176470587
5.40186843222e-06,0.20588235294117646
5.40186843222e-06,0.21323529411764705
5.40186843222e-06,0.22058823529411764
5.40186843222e-06,0.22794117647058823
5.40186843222e-06,0.23529411764705882
5.40186843222e-06,0.2426470588235294
5.40186843222e-06,0.25
5.40186843222e-06,0.25735294117647056
5.40186843222e-06,0.2647058823529412
5.40186843222e-06,0.27205882352941174
5.40186843222e-06,0.27941176470588236
5.40186843222e-06,0.2867647058823529
5.40186843222e-06,0.29411764705882354
5.40186843222e-06,0.3014705882352941
0.000135046710805,0.3088235294117647
0.000135046710805,0.3161764705882353
0.00014585044767,0.3235294117647059
0.000270093421611,0.33088235294117646
0.000270093421611,0.3382352941176471
0.000270093421611,0.34558823529411764
0.000270093421611,0.35294117647058826
0.000405140132416,0.3602941176470588
0.000450155702685,0.36764705882352944
0.000450155702685,0.375
0.000450155702685,0.38235294117647056
0.000540186843222,0.3897058823529412
0.000540186843222,0.39705882352941174
0.000540186843222,0.40441176470588236
0.000540186843222,0.4117647058823529
0.000540186843222,0.41911764705882354
0.000540186843222,0.4264705882352941
0.000540186843222,0.4338235294117647
0.000675233554027,0.4411764705882353
0.000810280264832,0.4485294117647059
0.000810280264832,0.45588235294117646
0.000990342545906,0.4632352941176471
0.00108037368644,0.47058823529411764
0.00108037368644,0.47794117647058826
0.00162056052966,0.4852941176470588
0.00220576294315,0.49264705882352944
0.00391635461336,0.5
0.00400638575389,0.5073529411764706
0.00517679058087,0.5147058823529411
0.00643722654839,0.5220588235294118
0.00652725768893,0.5294117647058824
0.00697741339161,0.5367647058823529
0.00706744453215,0.5441176470588235
0.00760763137537,0.5514705882352942
0.0118735240334,0.5588235294117647
0.0122110982936,0.5661764705882353
0.0151073757752,0.5735294117647058
0.0151698322991,0.5808823529411765
0.0152201753155,0.5882352941176471
0.0152264409292,0.5955882352941176
0.0152419866546,0.6029411764705882
0.0153631954996,0.6102941176470589
0.0155608504745,0.6176470588235294
0.0155757347983,0.625
0.015613206639,0.6323529411764706
0.0156136041301,0.6397058823529411
0.0156143506425,0.6470588235294118
0.0156447378816,0.6544117647058824
0.0156548602606,0.6617647058823529
0.0156908261039,0.6691176470588235
0.0156925779827,0.6764705882352942
0.0156967555269,0.6838235294117647
0.0157364212446,0.6911764705882353
0.0157762443297,0.6985294117647058
0.0157980218184,0.7058823529411765
0.015798031679,0.7132352941176471
0.0157981860822,0.7205882352941176
0.0157981900705,0.7279411764705882
0.0157987169796,0.7352941176470589
0.0157987196392,0.7426470588235294
0.0157987196392,0.75
0.391118447041,0.7573529411764706
0.392270652599,0.7647058823529411
0.413872384723,0.7720588235294118
0.768159774979,0.7794117647058824
0.768159774979,0.7867647058823529
0.786821062229,0.7941176470588235
0.786821062229,0.8014705882352942
1.17335534112,0.8088235294117647
1.30521777499,0.8161764705882353
1.30521777499,0.8235294117647058
1.30521777499,0.8308823529411765
1.52264409292,0.8382352941176471
1.56136041301,0.8455882352941176
1.56908261039,0.8529411764705882
1.5798031679,0.8602941176470589
1.57981900705,0.8676470588235294
1.57987196392,0.875
1.57987196392,0.8823529411764706
1.95255351129,0.8897058823529411
2.28514300488,0.8970588235294118
2.35649661492,0.9044117647058824
2.86279125482,0.9117647058823529
3.04466162447,0.9191176470588235
3.15963761527,0.9264705882352942
4.7396156258,0.9338235294117647
6.3804523632,0.9411764705882353
11.4511292434,0.9485294117647058
11.5674884405,0.9558823529411765
15.1207925136,0.9632352941176471
18.4080306473,0.9705882352941176
19.0465469268,0.9779411764705882
19.5953830507,0.9852941176470589
20.5707455923,0.9926470588235294
21.7918554216,1.0
