Congestion,CDF
0.0,0.007352941176470588
0.0,0.014705882352941176
0.0,0.022058823529411766
0.0,0.029411764705882353
0.0,0.03676470588235294
0.0,0.04411764705882353
0.0,0.051470588235294115
0.0,0.058823529411764705
0.0,0.0661764705882353
0.0,0.07352941176470588
0.00150267980026,0.08088235294117647
0.00150267980026,0.08823529411764706
0.00160694562883,0.09558823529411764
0.00160694562883,0.10294117647058823
0.00161042910777,0.11029411764705882
0.00161042910777,0.11764705882352941
0.00175176336058,0.125
0.00175176336058,0.1323529411764706
0.00194119878912,0.13970588235294118
0.00194119878912,0.14705882352941177
0.00199378350164,0.15441176470588236
0.00199378350164,0.16176470588235295
0.00201465006412,0.16911764705882354
0.00201465006412,0.17647058823529413
0.00235499406594,0.18382352941176472
0.00235499406594,0.19117647058823528
0.00238777383605,0.19852941176470587
0.00238777383605,0.20588235294117646
0.00266227159721,0.21323529411764705
0.00266227159721,0.22058823529411764
0.00276618640278,0.22794117647058823
0.00276618640278,0.23529411764705882
0.0032825408228,0.2426470588235294
0.0032825408228,0.25
0.00369488537309,0.25735294117647056
0.00369488537309,0.2647058823529412
0.00382183708636,0.27205882352941174
0.00382183708636,0.27941176470588236
0.00509492113102,0.2867647058823529
0.00509492113102,0.29411764705882354
0.00511260729393,0.3014705882352941
0.00511260729393,0.3088235294117647
0.00513001656219,0.3161764705882353
0.00513001656219,0.3235294117647059
0.00541488771401,0.33088235294117646
0.00541488771401,0.3382352941176471
0.00607356321801,0.34558823529411764
0.00607356321801,0.35294117647058826
0.00650697982754,0.3602941176470588
0.00650697982754,0.36764705882352944
0.00655622521331,0.375
0.00655622521331,0.38235294117647056
0.00729981618074,0.3897058823529412
0.00729981618074,0.39705882352941174
0.00763989460766,0.40441176470588236
0.00763989460766,0.4117647058823529
0.00786344062893,0.41911764705882354
0.00786344062893,0.4264705882352941
0.00850495445364,0.4338235294117647
0.00850495445364,0.4411764705882353
0.00942505345294,0.4485294117647059
0.00942505345294,0.45588235294117646
0.00942505345294,0.4632352941176471
0.00942505345294,0.47058823529411764
0.0124226637066,0.47794117647058826
0.0124226637066,0.4852941176470588
0.0137036659635,0.49264705882352944
0.0137036659635,0.5
0.0139589819284,0.5073529411764706
0.0139589819284,0.5147058823529411
0.0644825482102,0.5220588235294118
0.0644825482102,0.5294117647058824
0.087588168029,0.5367647058823529
0.087588168029,0.5441176470588235
0.087588168029,0.5514705882352942
0.087588168029,0.5588235294117647
0.130746445402,0.5661764705882353
0.130746445402,0.5735294117647058
0.16086873683,0.5808823529411765
0.16086873683,0.5882352941176471
0.16086873683,0.5955882352941176
0.16086873683,0.6029411764705882
0.161042910777,0.6102941176470589
0.161042910777,0.6176470588235294
0.172438679406,0.625
0.172438679406,0.6323529411764706
0.172438679406,0.6397058823529411
0.172438679406,0.6470588235294118
0.201465006412,0.6544117647058824
0.201465006412,0.6617647058823529
0.364206808307,0.6691176470588235
0.364206808307,0.6764705882352942
0.369488537309,0.6838235294117647
0.369488537309,0.6911764705882353
0.391314809468,0.6985294117647058
0.391314809468,0.7058823529411765
0.441883162258,0.7132352941176471
0.441883162258,0.7205882352941176
0.511260729393,0.7279411764705882
0.511260729393,0.7352941176470589
0.513001656219,0.7426470588235294
0.513001656219,0.75
0.649300261435,0.7573529411764706
0.649300261435,0.7647058823529411
0.650697982754,0.7720588235294118
0.650697982754,0.7794117647058824
0.763989460766,0.7867647058823529
0.763989460766,0.7941176470588235
0.766877249358,0.8014705882352942
0.766877249358,0.8088235294117647
0.766877249358,0.8161764705882353
0.766877249358,0.8235294117647058
0.8107650179,0.8308823529411765
0.8107650179,0.8382352941176471
1.07191828379,0.8455882352941176
1.07191828379,0.8529411764705882
1.13909558927,0.8602941176470589
1.13909558927,0.8676470588235294
1.37036659635,0.875
1.37036659635,0.8823529411764706
1.37173945427,0.8897058823529411
1.37173945427,0.8970588235294118
1.39589819284,0.9044117647058824
1.39589819284,0.9117647058823529
1.48454602539,0.9191176470588235
1.48454602539,0.9264705882352942
1.50119342812,0.9338235294117647
1.50119342812,0.9411764705882353
3.05441474037,0.9485294117647058
3.05441474037,0.9558823529411765
4.00853115984,0.9632352941176471
4.00853115984,0.9705882352941176
5.23759211884,0.9779411764705882
5.23759211884,0.9852941176470589
5.84191093499,0.9926470588235294
5.84191093499,1.0
