Congestion,CDF
0.0,0.007352941176470588
0.0,0.014705882352941176
0.0110015306011,0.022058823529411766
0.0110015306011,0.029411764705882353
0.0110903760713,0.03676470588235294
0.0110903760713,0.04411764705882353
0.0112128281578,0.051470588235294115
0.0112128281578,0.058823529411764705
0.0115658430867,0.0661764705882353
0.0115658430867,0.07352941176470588
0.0122729407784,0.08088235294117647
0.0122729407784,0.08823529411764706
0.0130745701081,0.09558823529411764
0.0130745701081,0.10294117647058823
0.0133580135852,0.11029411764705882
0.0133580135852,0.11764705882352941
0.0133727586617,0.125
0.0133727586617,0.1323529411764706
0.013828847066,0.13970588235294118
0.013828847066,0.14705882352941177
0.0140550450122,0.15441176470588236
0.0140550450122,0.16176470588235295
0.01422750853,0.16911764705882354
0.01422750853,0.17647058823529413
0.0142869261503,0.18382352941176472
0.0142869261503,0.19117647058823528
0.0147807768481,0.19852941176470587
0.0147807768481,0.20588235294117646
0.0161688604555,0.21323529411764705
0.0161688604555,0.22058823529411764
0.0175816283264,0.22794117647058823
0.0175816283264,0.23529411764705882
0.0176813862546,0.2426470588235294
0.0176813862546,0.25
0.0177997700767,0.25735294117647056
0.0177997700767,0.2647058823529412
0.0179673438505,0.27205882352941174
0.0179673438505,0.27941176470588236
0.0180067707019,0.2867647058823529
0.0180067707019,0.29411764705882354
0.0192521179905,0.3014705882352941
0.0192521179905,0.3088235294117647
0.0196535123497,0.3161764705882353
0.0196535123497,0.3235294117647059
0.0210657317786,0.33088235294117646
0.0210657317786,0.3382352941176471
0.0220374188419,0.34558823529411764
0.0220374188419,0.35294117647058826
0.0221213773491,0.3602941176470588
0.0221213773491,0.36764705882352944
0.0222901504971,0.375
0.0222901504971,0.38235294117647056
0.026087252593,0.3897058823529412
0.026087252593,0.39705882352941174
0.0261860524918,0.40441176470588236
0.0261860524918,0.4117647058823529
0.0278214909324,0.41911764705882354
0.0278214909324,0.4264705882352941
0.0364381762665,0.4338235294117647
0.0364381762665,0.4411764705882353
0.215457343127,0.4485294117647059
0.215457343127,0.45588235294117646
0.271012642149,0.4632352941176471
0.271012642149,0.47058823529411764
0.500155418403,0.47794117647058826
0.500155418403,0.4852941176470588
0.512426292315,0.49264705882352944
0.512426292315,0.5
0.565843817877,0.5073529411764706
0.565843817877,0.5147058823529411
0.780183073642,0.5220588235294118
0.780183073642,0.5294117647058824
0.788963291861,0.5367647058823529
0.788963291861,0.5441176470588235
0.895568767635,0.5514705882352942
0.895568767635,0.5588235294117647
1.08236482105,0.5661764705882353
1.08236482105,0.5735294117647058
1.18152821859,0.5808823529411765
1.18152821859,0.5882352941176471
1.1975720536,0.5955882352941176
1.1975720536,0.6029411764705882
1.3458734034,0.6102941176470589
1.3458734034,0.6176470588235294
1.35794079669,0.625
1.35794079669,0.6323529411764706
1.38193017356,0.6397058823529411
1.38193017356,0.6470588235294118
1.40550450122,0.6544117647058824
1.40550450122,0.6617647058823529
1.43523280745,0.6691176470588235
1.43523280745,0.6764705882352942
1.6078715919,0.6838235294117647
1.6078715919,0.6911764705882353
1.74909032696,0.6985294117647058
1.74909032696,0.7058823529411765
1.86986185719,0.7132352941176471
1.86986185719,0.7205882352941176
1.99236318961,0.7279411764705882
1.99236318961,0.7352941176470589
2.02225724442,0.7426470588235294
2.02225724442,0.75
2.17977013325,0.7573529411764706
2.17977013325,0.7647058823529411
2.18688552208,0.7720588235294118
2.18688552208,0.7794117647058824
2.3703675896,0.7867647058823529
2.3703675896,0.7941176470588235
2.63269701024,0.8014705882352942
2.63269701024,0.8088235294117647
2.78214909324,0.8161764705882353
2.78214909324,0.8235294117647058
2.91272018574,0.8308823529411765
2.91272018574,0.8382352941176471
2.93469336613,0.8455882352941176
2.93469336613,0.8529411764705882
3.24912942354,0.8602941176470589
3.24912942354,0.8676470588235294
3.45244658126,0.875
3.45244658126,0.8823529411764706
3.89635889064,0.8897058823529411
3.89635889064,0.8970588235294118
3.98124229572,0.9044117647058824
3.98124229572,0.9117647058823529
5.08501675766,0.9191176470588235
5.08501675766,0.9264705882352942
6.23292097855,0.9338235294117647
6.23292097855,0.9411764705882353
6.26730012381,0.9485294117647058
6.26730012381,0.9558823529411765
7.90585813668,0.9632352941176471
7.90585813668,0.9705882352941176
10.3208762791,0.9779411764705882
10.3208762791,0.9852941176470589
11.9327373557,0.9926470588235294
11.9327373557,1.0
