Congestion,CDF
0.0,0.007352941176470588
0.0,0.014705882352941176
0.0140897346734,0.022058823529411766
0.0140897346734,0.029411764705882353
0.0140988203476,0.03676470588235294
0.0140988203476,0.04411764705882353
0.0141306727992,0.051470588235294115
0.0141306727992,0.058823529411764705
0.0144289593382,0.0661764705882353
0.0144289593382,0.07352941176470588
0.0150347166114,0.08088235294117647
0.0150347166114,0.08823529411764706
0.0159027315449,0.09558823529411764
0.0159027315449,0.10294117647058823
0.0162751381623,0.11029411764705882
0.0162751381623,0.11764705882352941
0.0165052509004,0.125
0.0165052509004,0.1323529411764706
0.0167056356119,0.13970588235294118
0.0167056356119,0.14705882352941177
0.0167410996452,0.15441176470588236
0.0167410996452,0.16176470588235295
0.0169179603754,0.16911764705882354
0.0169179603754,0.17647058823529413
0.0173030320326,0.18382352941176472
0.0173030320326,0.19117647058823528
0.0174711518879,0.19852941176470587
0.0174711518879,0.20588235294117646
0.0188195683392,0.21323529411764705
0.0188195683392,0.22058823529411764
0.0202669209388,0.22794117647058823
0.0202669209388,0.23529411764705882
0.0202879150277,0.2426470588235294
0.0202879150277,0.25
0.0205788655726,0.25735294117647056
0.0205788655726,0.2647058823529412
0.0206356622794,0.27205882352941174
0.0206356622794,0.27941176470588236
0.0206817246686,0.2867647058823529
0.0206817246686,0.29411764705882354
0.0222165065012,0.3014705882352941
0.0222165065012,0.3088235294117647
0.022508458776,0.3161764705882353
0.022508458776,0.3235294117647059
0.0233288050843,0.33088235294117646
0.0233288050843,0.3382352941176471
0.0242734275121,0.34558823529411764
0.0242734275121,0.35294117647058826
0.0245614482944,0.3602941176470588
0.0245614482944,0.36764705882352944
0.02463764187,0.375
0.02463764187,0.38235294117647056
0.0281484681391,0.3897058823529412
0.0281484681391,0.39705882352941174
0.0285013429308,0.40441176470588236
0.0285013429308,0.4117647058823529
0.0299138422205,0.41911764705882354
0.0299138422205,0.4264705882352941
0.090119293861,0.4338235294117647
0.090119293861,0.4411764705882353
0.32402583453,0.4485294117647059
0.32402583453,0.45588235294117646
0.434845557141,0.4632352941176471
0.434845557141,0.47058823529411764
0.595670627022,0.47794117647058826
0.595670627022,0.4852941176470588
0.667064574323,0.49264705882352944
0.667064574323,0.5
0.682751491503,0.5073529411764706
0.682751491503,0.5147058823529411
0.985179846234,0.5220588235294118
0.985179846234,0.5294117647058824
1.01052221016,0.5367647058823529
1.01052221016,0.5441176470588235
1.01514930266,0.5514705882352942
1.01514930266,0.5588235294117647
1.1968798036,0.5661764705882353
1.1968798036,0.5735294117647058
1.36788867432,0.5808823529411765
1.36788867432,0.5882352941176471
1.45406866209,0.5955882352941176
1.45406866209,0.6029411764705882
1.46903999957,0.6102941176470589
1.46903999957,0.6176470588235294
1.62676926925,0.625
1.62676926925,0.6323529411764706
1.64441949544,0.6397058823529411
1.64441949544,0.6470588235294118
1.65052509004,0.6544117647058824
1.65052509004,0.6617647058823529
1.75217809523,0.6691176470588235
1.75217809523,0.6764705882352942
2.17500336063,0.6838235294117647
2.17500336063,0.6911764705882353
2.18011839602,0.6985294117647058
2.18011839602,0.7058823529411765
2.18843285285,0.7132352941176471
2.18843285285,0.7205882352941176
2.35231564094,0.7279411764705882
2.35231564094,0.7352941176470589
2.39481770034,0.7426470588235294
2.39481770034,0.75
2.45990879078,0.7573529411764706
2.45990879078,0.7647058823529411
2.59082349015,0.7720588235294118
2.59082349015,0.7794117647058824
2.74734030182,0.7867647058823529
2.74734030182,0.7941176470588235
2.84737186478,0.8014705882352942
2.84737186478,0.8088235294117647
2.99138422205,0.8161764705882353
2.99138422205,0.8235294117647058
3.18134508797,0.8308823529411765
3.18134508797,0.8382352941176471
3.36461348975,0.8455882352941176
3.36461348975,0.8529411764705882
3.61550289218,0.8602941176470589
3.61550289218,0.8676470588235294
3.77303439991,0.875
3.77303439991,0.8823529411764706
4.20044632346,0.8897058823529411
4.20044632346,0.8970588235294118
4.45488687667,0.9044117647058824
4.45488687667,0.9117647058823529
5.60280038027,0.9191176470588235
5.60280038027,0.9264705882352942
6.69929338804,0.9338235294117647
6.69929338804,0.9411764705882353
6.89943993143,0.9485294117647058
6.89943993143,0.9558823529411765
8.40513881508,0.9632352941176471
8.40513881508,0.9705882352941176
10.9835507471,0.9779411764705882
10.9835507471,0.9852941176470589
12.6472314016,0.9926470588235294
12.6472314016,1.0
