Congestion,CDF
0.0,0.007352941176470588
0.0,0.014705882352941176
0.0,0.022058823529411766
0.0,0.029411764705882353
0.00249813287104,0.03676470588235294
0.00249813287104,0.04411764705882353
0.00259144075438,0.051470588235294115
0.00259144075438,0.058823529411764705
0.00286258171597,0.0661764705882353
0.00286258171597,0.07352941176470588
0.00287521388604,0.08088235294117647
0.00287521388604,0.08823529411764706
0.00308372036466,0.09558823529411764
0.00308372036466,0.10294117647058823
0.00311372945347,0.11029411764705882
0.00311372945347,0.11764705882352941
0.00370534368082,0.125
0.00370534368082,0.1323529411764706
0.00374904851025,0.13970588235294118
0.00374904851025,0.14705882352941177
0.00378124747198,0.15441176470588236
0.00378124747198,0.16176470588235295
0.00381586674154,0.16911764705882354
0.00381586674154,0.17647058823529413
0.00401393728416,0.18382352941176472
0.00401393728416,0.19117647058823528
0.00408677389282,0.19852941176470587
0.00408677389282,0.20588235294117646
0.00493205634645,0.21323529411764705
0.00493205634645,0.22058823529411764
0.00495303821186,0.22794117647058823
0.00495303821186,0.23529411764705882
0.00570588437122,0.2426470588235294
0.00570588437122,0.25
0.0059760240164,0.25735294117647056
0.0059760240164,0.2647058823529412
0.00604032100611,0.27205882352941174
0.00604032100611,0.27941176470588236
0.00610082607704,0.2867647058823529
0.00610082607704,0.29411764705882354
0.00648515994308,0.3014705882352941
0.00648515994308,0.3088235294117647
0.00774199899894,0.3161764705882353
0.00774199899894,0.3235294117647059
0.00859691689838,0.33088235294117646
0.00859691689838,0.3382352941176471
0.00904157923413,0.34558823529411764
0.00904157923413,0.35294117647058826
0.00913408784708,0.3602941176470588
0.00913408784708,0.36764705882352944
0.00913586259925,0.375
0.00913586259925,0.38235294117647056
0.00987449163362,0.3897058823529412
0.00987449163362,0.39705882352941174
0.0101945754048,0.40441176470588236
0.0101945754048,0.4117647058823529
0.0110711108749,0.41911764705882354
0.0110711108749,0.4264705882352941
0.0156386721136,0.4338235294117647
0.0156386721136,0.4411764705882353
0.016597956691,0.4485294117647059
0.016597956691,0.45588235294117646
0.0170485433332,0.4632352941176471
0.0170485433332,0.47058823529411764
0.0286082516066,0.47794117647058826
0.0286082516066,0.4852941176470588
0.105587119067,0.49264705882352944
0.105587119067,0.5
0.116733630276,0.5073529411764706
0.116733630276,0.5147058823529411
0.139558407116,0.5220588235294118
0.139558407116,0.5294117647058824
0.154186018233,0.5367647058823529
0.154186018233,0.5441176470588235
0.154186018233,0.5514705882352942
0.154186018233,0.5588235294117647
0.21825862842,0.5661764705882353
0.21825862842,0.5735294117647058
0.265185586535,0.5808823529411765
0.265185586535,0.5882352941176471
0.273567986106,0.5955882352941176
0.273567986106,0.6029411764705882
0.290019521475,0.6102941176470589
0.290019521475,0.6176470588235294
0.302442972339,0.625
0.302442972339,0.6323529411764706
0.302442972339,0.6397058823529411
0.302442972339,0.6470588235294118
0.378124747198,0.6544117647058824
0.378124747198,0.6617647058823529
0.472479044347,0.6691176470588235
0.472479044347,0.6764705882352942
0.562863407515,0.6838235294117647
0.562863407515,0.6911764705882353
0.594542499564,0.6985294117647058
0.594542499564,0.7058823529411765
0.595104268769,0.7132352941176471
0.595104268769,0.7205882352941176
0.619216695551,0.7279411764705882
0.619216695551,0.7352941176470589
0.765065812047,0.7426470588235294
0.765065812047,0.75
0.779845676198,0.7573529411764706
0.779845676198,0.7647058823529411
0.894872406663,0.7720588235294118
0.894872406663,0.7794117647058824
0.894872406663,0.7867647058823529
0.894872406663,0.7941176470588235
1.10711108749,0.8014705882352942
1.10711108749,0.8088235294117647
1.20528810585,0.8161764705882353
1.20528810585,0.8235294117647058
1.33611905692,0.8308823529411765
1.33611905692,0.8382352941176471
1.6365027179,0.8455882352941176
1.6365027179,0.8529411764705882
1.6597956691,0.8602941176470589
1.6597956691,0.8676470588235294
1.70485433332,0.875
1.70485433332,0.8823529411764706
1.75251497541,0.8897058823529411
1.75251497541,0.8970588235294118
1.82388483666,0.9044117647058824
1.82388483666,0.9117647058823529
1.92034044426,0.9191176470588235
1.92034044426,0.9264705882352942
2.00983499769,0.9338235294117647
2.00983499769,0.9411764705882353
3.560973642,0.9485294117647058
3.560973642,0.9558823529411765
4.92851721379,0.9632352941176471
4.92851721379,0.9705882352941176
6.26080951334,0.9779411764705882
6.26080951334,0.9852941176470589
7.2004524856,0.9926470588235294
7.2004524856,1.0
