Congestion,CDF
0.0,0.007352941176470588
0.0,0.014705882352941176
0.0,0.022058823529411766
0.0,0.029411764705882353
0.0,0.03676470588235294
0.0,0.04411764705882353
0.0,0.051470588235294115
0.0,0.058823529411764705
0.0,0.0661764705882353
0.0,0.07352941176470588
0.0,0.08088235294117647
0.0,0.08823529411764706
0.0,0.09558823529411764
0.0,0.10294117647058823
7.71768416381e-06,0.11029411764705882
7.71768416381e-06,0.11764705882352941
7.71768416381e-06,0.125
7.71768416381e-06,0.1323529411764706
7.71768416381e-06,0.13970588235294118
7.71768416381e-06,0.14705882352941177
7.71768416381e-06,0.15441176470588236
7.71768416381e-06,0.16176470588235295
7.71768416381e-06,0.16911764705882354
7.71768416381e-06,0.17647058823529413
7.71768416381e-06,0.18382352941176472
7.71768416381e-06,0.19117647058823528
7.71768416381e-06,0.19852941176470587
7.71768416381e-06,0.20588235294117646
7.71768416381e-06,0.21323529411764705
7.71768416381e-06,0.22058823529411764
7.71768416381e-06,0.22794117647058823
7.71768416381e-06,0.23529411764705882
7.71768416381e-06,0.2426470588235294
7.71768416381e-06,0.25
7.71768416381e-06,0.25735294117647056
7.71768416381e-06,0.2647058823529412
7.71768416381e-06,0.27205882352941174
7.71768416381e-06,0.27941176470588236
7.71768416381e-06,0.2867647058823529
7.71768416381e-06,0.29411764705882354
7.71768416381e-06,0.3014705882352941
0.000192942104095,0.3088235294117647
0.000192942104095,0.3161764705882353
0.000208377472423,0.3235294117647059
0.000329915676397,0.33088235294117646
0.00038588420819,0.3382352941176471
0.00038588420819,0.34558823529411764
0.00038588420819,0.35294117647058826
0.00038588420819,0.3602941176470588
0.000578826312286,0.36764705882352944
0.000643140346984,0.375
0.000643140346984,0.38235294117647056
0.000643140346984,0.3897058823529412
0.000771768416381,0.39705882352941174
0.000771768416381,0.40441176470588236
0.000771768416381,0.4117647058823529
0.000771768416381,0.41911764705882354
0.000771768416381,0.4264705882352941
0.000771768416381,0.4338235294117647
0.000771768416381,0.4411764705882353
0.000964710520476,0.4485294117647059
0.00107797946474,0.45588235294117646
0.00115765262457,0.4632352941176471
0.00115765262457,0.47058823529411764
0.00141490876336,0.47794117647058826
0.00154353683276,0.4852941176470588
0.00154353683276,0.49264705882352944
0.00231530524914,0.5
0.00315138770022,0.5073529411764706
0.00559532101876,0.5147058823529411
0.00572394908816,0.5220588235294118
0.0060727851656,0.5294117647058824
0.00627990998335,0.5367647058823529
0.00655854889467,0.5441176470588235
0.00667751959305,0.5514705882352942
0.00675272174815,0.5588235294117647
0.00682155192994,0.5661764705882353
0.0070666265963,0.5735294117647058
0.00711672848753,0.5808823529411765
0.00715638774683,0.5882352941176471
0.00716516538165,0.5955882352941176
0.0071678763718,0.6029411764705882
0.007169899301,0.6102941176470589
0.00717248802924,0.6176470588235294
0.00717252778348,0.625
0.00717613563296,0.6323529411764706
0.00719136258551,0.6397058823529411
0.00720326537591,0.6470588235294118
0.00722989615599,0.6544117647058824
0.00724156854549,0.6617647058823529
0.00724161456128,0.6691176470588235
0.00724184886773,0.6764705882352942
0.00724186324794,0.6838235294117647
0.00724199203866,0.6911764705882353
0.00724200162581,0.6985294117647058
0.00724200162581,0.7058823529411765
0.00739611399032,0.7132352941176471
0.00919690696187,0.7205882352941176
0.00932553503127,0.7279411764705882
0.00996867537825,0.7352941176470589
0.0100973034476,0.7426470588235294
0.010869071864,0.75
0.177252182417,0.7573529411764706
0.179312200731,0.7647058823529411
0.179784064638,0.7720588235294118
0.341077596497,0.7794117647058824
0.341077596497,0.7867647058823529
0.360163268796,0.7941176470588235
0.360163268796,0.8014705882352942
0.537936602193,0.8088235294117647
0.598180524818,0.8161764705882353
0.598180524818,0.8235294117647058
0.598180524818,0.8308823529411765
0.675272174815,0.8382352941176471
0.71678763718,0.8455882352941176
0.719136258551,0.8529411764705882
0.724161456128,0.8602941176470589
0.724186324794,0.8676470588235294
0.724200162581,0.875
0.724200162581,0.8823529411764706
0.896302130831,0.8897058823529411
0.996932485964,0.8970588235294118
1.07777683209,0.9044117647058824
1.30985337357,0.9117647058823529
1.34302413412,0.9191176470588235
1.44837121157,0.9264705882352942
2.17259952903,0.9338235294117647
2.92778683099,0.9411764705882353
5.24907311591,0.9485294117647058
5.28538046069,0.9558823529411765
6.93040652512,0.9632352941176471
8.23261559734,0.9705882352941176
8.34041354381,0.9779411764705882
8.7238221319,0.9852941176470589
9.35181313023,0.9926470588235294
9.38480469787,1.0
