Congestion,CDF
0.0,0.005555555555555556
0.0,0.011111111111111112
0.0,0.016666666666666666
0.0,0.022222222222222223
0.0,0.027777777777777776
0.0,0.03333333333333333
0.0,0.03888888888888889
0.0,0.044444444444444446
0.0,0.05
0.0,0.05555555555555555
1.08463692105e-06,0.06111111111111111
1.24619565876e-06,0.06666666666666667
2.80508317646e-06,0.07222222222222222
4.0997922339e-06,0.07777777777777778
4.19509635531e-06,0.08333333333333333
5.53897132911e-06,0.08888888888888889
6.09360155891e-06,0.09444444444444444
8.39837248716e-06,0.1
8.44170011104e-06,0.10555555555555556
8.63665161935e-06,0.1111111111111111
8.81440381922e-06,0.11666666666666667
9.70285784654e-06,0.12222222222222222
9.92791330676e-06,0.12777777777777777
1.10864400069e-05,0.13333333333333333
1.13547418332e-05,0.1388888888888889
1.19566877822e-05,0.14444444444444443
1.38256811078e-05,0.15
1.51309260898e-05,0.15555555555555556
1.57997346086e-05,0.16111111111111112
1.64323736894e-05,0.16666666666666666
1.6692367578e-05,0.17222222222222222
1.68264293951e-05,0.17777777777777778
1.7383913003e-05,0.18333333333333332
1.79879708455e-05,0.18888888888888888
1.8291615483e-05,0.19444444444444445
1.8498186245e-05,0.2
1.86008142709e-05,0.20555555555555555
1.88144146025e-05,0.2111111111111111
1.89982654709e-05,0.21666666666666667
1.9039955166e-05,0.2222222222222222
1.96761289774e-05,0.22777777777777777
1.9840284438e-05,0.23333333333333334
2.00680385521e-05,0.2388888888888889
2.17326093821e-05,0.24444444444444444
2.28683879787e-05,0.25
2.48284176255e-05,0.25555555555555554
2.52217546753e-05,0.2611111111111111
2.55847140084e-05,0.26666666666666666
2.64511387122e-05,0.2722222222222222
9.35027725486e-05,0.2777777777777778
0.000187005545097,0.2833333333333333
0.000204989611695,0.28888888888888886
0.000204989611695,0.29444444444444445
0.000211042502776,0.3
0.000211042502776,0.3055555555555556
0.000319506194881,0.3111111111111111
0.000419509635531,0.31666666666666665
0.000422085005552,0.32222222222222224
0.000561977267951,0.3277777777777778
0.000839837248716,0.3333333333333333
0.000873403327792,0.3388888888888889
0.000924909312252,0.34444444444444444
0.000924909312252,0.35
0.00118132828743,0.35555555555555557
0.00179879708455,0.3611111111111111
0.0018291615483,0.36666666666666664
0.00188763255121,0.37222222222222223
0.00203355331294,0.37777777777777777
0.0021515180674,0.38333333333333336
0.0021515180674,0.3888888888888889
0.00245337678866,0.39444444444444443
0.00259277057374,0.4
0.00278792366896,0.40555555555555556
0.00298055640639,0.4111111111111111
0.00370279260116,0.4166666666666667
0.00391499477319,0.4222222222222222
0.00411913096514,0.42777777777777776
0.00484510954843,0.43333333333333335
0.00494172503268,0.4388888888888889
0.00506406130224,0.4444444444444444
0.00594550168416,0.45
0.00616244046801,0.45555555555555555
0.00622492720483,0.46111111111111114
0.00629117316784,0.4666666666666667
0.00649944781225,0.4722222222222222
0.00652282881859,0.4777777777777778
0.00653552660749,0.48333333333333334
0.00653635498321,0.4888888888888889
0.00655503296229,0.49444444444444446
0.00656908301084,0.5
0.0065783801256,0.5055555555555555
0.00658157866365,0.5111111111111111
0.00658340894887,0.5166666666666667
0.00659758104829,0.5222222222222223
0.0065986155458,0.5277777777777778
0.00660364620561,0.5333333333333333
0.00660874820661,0.5388888888888889
0.00661416726057,0.5444444444444444
0.00661425968856,0.55
0.00661958135558,0.5555555555555556
0.00662942769985,0.5611111111111111
0.0066427277451,0.5666666666666667
0.00665199462022,0.5722222222222222
0.00665529061187,0.5777777777777777
0.00665644592998,0.5833333333333334
0.00665857006775,0.5888888888888889
0.00666021900679,0.5944444444444444
0.00666155948461,0.6
0.00666541226379,0.6055555555555555
0.00666816113095,0.6111111111111112
0.00667083250557,0.6166666666666667
0.0066726586325,0.6222222222222222
0.0066791002505,0.6277777777777778
0.00668564997173,0.6333333333333333
0.006688080569,0.6388888888888888
0.00669213458306,0.6444444444444445
0.00669639096586,0.65
0.0066983962434,0.6555555555555556
0.00671440058496,0.6611111111111111
0.00768668381375,0.6666666666666666
0.00870776896738,0.6722222222222223
0.015492266925,0.6777777777777778
0.0188477318093,0.6833333333333333
0.0197282748677,0.6888888888888889
0.0214928456805,0.6944444444444444
0.0220151136656,0.7
0.0231620824383,0.7055555555555556
0.0234157720555,0.7111111111111111
0.0247983401663,0.7166666666666667
0.02678236861,0.7222222222222222
0.0269495415366,0.7277777777777777
0.0273917287659,0.7333333333333333
0.0278132066985,0.7388888888888889
0.0288059980292,0.7444444444444445
0.165218705165,0.75
0.165218705165,0.7555555555555555
0.21927933752,0.7611111111111111
0.254206142328,0.7666666666666667
0.324972390612,0.7722222222222223
0.324972390612,0.7777777777777778
0.330437410331,0.7833333333333333
0.332928503387,0.7888888888888889
0.332928503387,0.7944444444444444
0.43855867504,0.8
0.658340894887,0.8055555555555556
0.65986155458,0.8111111111111111
0.665529061187,0.8166666666666667
0.667083250557,0.8222222222222222
0.820722001394,0.8277777777777777
0.827176840724,0.8333333333333334
0.977255272472,0.8388888888888889
0.994345229444,0.8444444444444444
1.00187746883,0.85
1.05168945693,0.8555555555555555
1.05168945693,0.8611111111111112
1.32714895179,0.8666666666666667
1.33168500965,0.8722222222222222
1.47887986776,0.8777777777777778
1.66036713012,0.8833333333333333
1.71165564027,0.8888888888888888
1.71959948198,0.8944444444444445
2.14315264227,0.9
3.05322395891,0.9055555555555556
3.42025339828,0.9111111111111111
3.80275881333,0.9166666666666666
4.08167936713,0.9222222222222223
4.47239790992,0.9277777777777778
7.80216918929,0.9333333333333333
8.13428967403,0.9388888888888889
8.80350313233,0.9444444444444444
9.4638677529,0.95
9.79496273408,0.9555555555555556
10.4635277312,0.9611111111111111
11.0946756861,0.9666666666666667
11.4482582267,0.9722222222222222
11.7109197329,0.9777777777777777
12.101893725,0.9833333333333333
12.1954306878,0.9888888888888889
12.7310110418,0.9944444444444445
13.2251835451,1.0
