Congestion,CDF
0.0,0.007352941176470588
0.0,0.014705882352941176
0.0,0.022058823529411766
0.0,0.029411764705882353
0.0,0.03676470588235294
0.0,0.04411764705882353
0.0,0.051470588235294115
0.0,0.058823529411764705
0.0,0.0661764705882353
0.0,0.07352941176470588
0.0,0.08088235294117647
0.0,0.08823529411764706
0.0,0.09558823529411764
0.0,0.10294117647058823
1.85866482323e-05,0.11029411764705882
1.85866482323e-05,0.11764705882352941
1.85866482323e-05,0.125
1.85866482323e-05,0.1323529411764706
1.85866482323e-05,0.13970588235294118
1.85866482323e-05,0.14705882352941177
1.85866482323e-05,0.15441176470588236
1.85866482323e-05,0.16176470588235295
1.85866482323e-05,0.16911764705882354
1.85866482323e-05,0.17647058823529413
1.85866482323e-05,0.18382352941176472
1.85866482323e-05,0.19117647058823528
1.85866482323e-05,0.19852941176470587
1.85866482323e-05,0.20588235294117646
1.85866482323e-05,0.21323529411764705
1.85866482323e-05,0.22058823529411764
1.85866482323e-05,0.22794117647058823
1.85866482323e-05,0.23529411764705882
1.85866482323e-05,0.2426470588235294
1.85866482323e-05,0.25
1.85866482323e-05,0.25735294117647056
1.85866482323e-05,0.2647058823529412
1.85866482323e-05,0.27205882352941174
1.85866482323e-05,0.27941176470588236
1.85866482323e-05,0.2867647058823529
1.85866482323e-05,0.29411764705882354
1.85866482323e-05,0.3014705882352941
0.000464666205807,0.3088235294117647
0.000464666205807,0.3161764705882353
0.000501839502272,0.3235294117647059
0.000929332411615,0.33088235294117646
0.000929332411615,0.3382352941176471
0.000929332411615,0.34558823529411764
0.000929332411615,0.35294117647058826
0.00139399861742,0.3602941176470588
0.00154888735269,0.36764705882352944
0.00154888735269,0.375
0.00154888735269,0.38235294117647056
0.00174329788597,0.3897058823529412
0.00174329788597,0.39705882352941174
0.00174329788597,0.40441176470588236
0.00174329788597,0.4117647058823529
0.00174329788597,0.41911764705882354
0.00174329788597,0.4264705882352941
0.00174329788597,0.4338235294117647
0.00174329788597,0.4411764705882353
0.00174329788597,0.4485294117647059
0.00174329788597,0.45588235294117646
0.00174329788597,0.4632352941176471
0.00174329788597,0.47058823529411764
0.00174329788597,0.47794117647058826
0.00174329788597,0.4852941176470588
0.00174329788597,0.49264705882352944
0.00174329788597,0.5
0.00174329788597,0.5073529411764706
0.00174329788597,0.5147058823529411
0.00174329788597,0.5220588235294118
0.00174329788597,0.5294117647058824
0.00174329788597,0.5367647058823529
0.00174329788597,0.5441176470588235
0.00174329788597,0.5514705882352942
0.00174329788597,0.5588235294117647
0.00174329788597,0.5661764705882353
0.00174329788597,0.5735294117647058
0.00174329788597,0.5808823529411765
0.00185866482323,0.5882352941176471
0.00185866482323,0.5955882352941176
0.00185866482323,0.6029411764705882
0.00185866482323,0.6102941176470589
0.00185866482323,0.6176470588235294
0.00185866482323,0.625
0.00185866482323,0.6323529411764706
0.00232333102904,0.6397058823529411
0.00278799723484,0.6470588235294118
0.00278799723484,0.6544117647058824
0.00340755217592,0.6617647058823529
0.00371732964646,0.6691176470588235
0.00371732964646,0.6764705882352942
0.00557599446969,0.6838235294117647
0.00758954802819,0.6911764705882353
0.0134753199684,0.6985294117647058
0.013785097439,0.7058823529411765
0.0178122045559,0.7132352941176471
0.0221490891435,0.7205882352941176
0.022458866614,0.7279411764705882
0.0240077539667,0.7352941176470589
0.0243175314373,0.7426470588235294
0.0261761962605,0.75
0.0435824471491,0.7573529411764706
0.0435824471491,0.7647058823529411
0.0470690429211,0.7720588235294118
0.0871648942983,0.7794117647058824
0.0871648942983,0.7867647058823529
0.0871648942983,0.7941176470588235
0.0871648942983,0.8014705882352942
0.130747341447,0.8088235294117647
0.14527482383,0.8161764705882353
0.14527482383,0.8235294117647058
0.14527482383,0.8308823529411765
0.174329788597,0.8382352941176471
0.174329788597,0.8455882352941176
0.174329788597,0.8529411764705882
0.174329788597,0.8602941176470589
0.174329788597,0.8676470588235294
0.174329788597,0.875
0.174329788597,0.8823529411764706
0.217912235746,0.8897058823529411
0.261494682895,0.8970588235294118
0.261494682895,0.9044117647058824
0.319604612427,0.9117647058823529
0.348659577193,0.9191176470588235
0.348659577193,0.9264705882352942
0.52298936579,0.9338235294117647
0.711846636769,0.9411764705882353
1.26389096732,0.9485294117647058
1.29294593209,0.9558823529411765
1.67066047405,0.9632352941176471
2.07742998078,0.9705882352941176
2.10648494554,0.9779411764705882
2.25175976937,0.9852941176470589
2.28081473414,0.9926470588235294
2.45514452273,1.0
