Congestion,CDF
0.00921978074599,0.005555555555555556
0.00921978074599,0.011111111111111112
0.0099549639421,0.016666666666666666
0.0099549639421,0.022222222222222223
0.0101340058574,0.027777777777777776
0.0101340058574,0.03333333333333333
0.0104067658494,0.03888888888888889
0.0104067658494,0.044444444444444446
0.0105466949675,0.05
0.0105466949675,0.05555555555555555
0.0105612848648,0.06111111111111111
0.0105612848648,0.06666666666666667
0.0106445434021,0.07222222222222222
0.0106445434021,0.07777777777777778
0.0106957874032,0.08333333333333333
0.0106957874032,0.08888888888888889
0.0107136962801,0.09444444444444444
0.0107136962801,0.1
0.0107276537402,0.10555555555555556
0.0107276537402,0.1111111111111111
0.0108263259238,0.11666666666666667
0.0108263259238,0.12222222222222222
0.0109261751644,0.12777777777777777
0.0109261751644,0.13333333333333333
0.0109373948353,0.1388888888888889
0.0109373948353,0.14444444444444443
0.011091901939,0.15
0.011091901939,0.15555555555555556
0.0111034341419,0.16111111111111112
0.0111034341419,0.16666666666666666
0.0111074177992,0.17222222222222222
0.0111074177992,0.17777777777777778
0.0113480705241,0.18333333333333332
0.0113480705241,0.18888888888888888
0.0113558204667,0.19444444444444445
0.0113558204667,0.2
0.0113776949705,0.20555555555555555
0.0113776949705,0.2111111111111111
0.011434132804,0.21666666666666667
0.011434132804,0.2222222222222222
0.0115262159636,0.22777777777777777
0.0115262159636,0.23333333333333334
0.0115525284453,0.2388888888888889
0.0115525284453,0.24444444444444444
0.0115731302461,0.25
0.0115731302461,0.25555555555555554
0.0117909415985,0.2611111111111111
0.0117909415985,0.26666666666666666
0.0119470196683,0.2722222222222222
0.0119470196683,0.2777777777777778
0.0120014321487,0.2833333333333333
0.0120014321487,0.28888888888888886
0.0121410776893,0.29444444444444445
0.0121410776893,0.3
0.012610498945,0.3055555555555556
0.012610498945,0.3111111111111111
0.0132594106258,0.31666666666666665
0.0132594106258,0.32222222222222224
0.0133266322943,0.3277777777777778
0.0133266322943,0.3333333333333333
0.013440283088,0.3388888888888889
0.013440283088,0.34444444444444444
0.0135253941616,0.35
0.0135253941616,0.35555555555555557
0.0137362933665,0.3611111111111111
0.0137362933665,0.36666666666666664
0.0138115233484,0.37222222222222223
0.0138115233484,0.37777777777777777
0.013828441245,0.38333333333333336
0.013828441245,0.3888888888888889
0.0138429095798,0.39444444444444443
0.0138429095798,0.4
0.014129248822,0.40555555555555556
0.014129248822,0.4111111111111111
0.014250156518,0.4166666666666667
0.014250156518,0.4222222222222222
0.0143036175392,0.42777777777777776
0.0143036175392,0.43333333333333335
0.0145376983011,0.4388888888888889
0.0145376983011,0.4444444444444444
0.286306271136,0.45
0.286306271136,0.45555555555555555
0.354087701967,0.46111111111111114
0.354087701967,0.4666666666666667
0.398696320544,0.4722222222222222
0.398696320544,0.4777777777777778
0.40211694351,0.48333333333333334
0.40211694351,0.4888888888888889
0.725973381025,0.49444444444444446
0.725973381025,0.5
0.796950869723,0.5055555555555555
0.796950869723,0.5111111111111111
0.879710071283,0.5166666666666667
0.879710071283,0.5222222222222223
0.88051447545,0.5277777777777778
0.88051447545,0.5333333333333333
1.00873908427,0.5388888888888889
1.00873908427,0.5444444444444444
1.27326426313,0.55
1.27326426313,0.5555555555555556
1.36544174001,0.5611111111111111
1.36544174001,0.5666666666666667
1.37594376692,0.5722222222222222
1.37594376692,0.5777777777777777
1.38658279073,0.5833333333333334
1.38658279073,0.5888888888888889
1.43423719565,0.5944444444444444
1.43423719565,0.6
1.4882087377,0.6055555555555555
1.4882087377,0.6111111111111112
1.50672778937,0.6166666666666667
1.50672778937,0.6222222222222222
1.51104146425,0.6277777777777778
1.51104146425,0.6333333333333333
1.56819547089,0.6388888888888888
1.56819547089,0.6444444444444445
1.6036570521,0.65
1.6036570521,0.6555555555555556
1.6762140501,0.6611111111111111
1.6762140501,0.6666666666666666
1.72432636517,0.6722222222222223
1.72432636517,0.6777777777777778
1.74268773632,0.6833333333333333
1.74268773632,0.6888888888888889
1.83797212672,0.6944444444444444
1.83797212672,0.7
1.90769264965,0.7055555555555556
1.90769264965,0.7111111111111111
1.92048889562,0.7166666666666667
1.92048889562,0.7222222222222222
2.14669145275,0.7277777777777777
2.14669145275,0.7333333333333333
2.29204492645,0.7388888888888889
2.29204492645,0.7444444444444445
2.81906978001,0.75
2.81906978001,0.7555555555555555
2.84787988413,0.7611111111111111
2.84787988413,0.7666666666666667
3.00070034354,0.7722222222222223
3.00070034354,0.7777777777777778
3.06294549418,0.7833333333333333
3.06294549418,0.7888888888888889
3.26377399419,0.7944444444444444
3.26377399419,0.8
3.33579768073,0.8055555555555556
3.33579768073,0.8111111111111111
3.5698767324,0.8166666666666667
3.5698767324,0.8222222222222222
3.58672133057,0.8277777777777777
3.58672133057,0.8333333333333334
3.59671226799,0.8388888888888889
3.59671226799,0.8444444444444444
4.14477286118,0.85
4.14477286118,0.8555555555555555
4.1880992762,0.8611111111111112
4.1880992762,0.8666666666666667
4.71597266553,0.8722222222222222
4.71597266553,0.8777777777777778
5.04217218201,0.8833333333333333
5.04217218201,0.8888888888888888
5.10000764422,0.8944444444444445
5.10000764422,0.9
5.39341994999,0.9055555555555556
5.39341994999,0.9111111111111111
5.47081176434,0.9166666666666666
5.47081176434,0.9222222222222223
5.9625431107,0.9277777777777778
5.9625431107,0.9333333333333333
6.32858604729,0.9388888888888889
6.32858604729,0.9444444444444444
6.45223111429,0.95
6.45223111429,0.9555555555555556
6.50144810238,0.9611111111111111
6.50144810238,0.9666666666666667
7.97124221152,0.9722222222222222
7.97124221152,0.9777777777777777
8.64870005967,0.9833333333333333
8.64870005967,0.9888888888888889
8.84313491064,0.9944444444444445
8.84313491064,1.0
