Congestion,CDF
0.00486417137603,0.005555555555555556
0.00486417137603,0.011111111111111112
0.00530800322205,0.016666666666666666
0.00530800322205,0.022222222222222223
0.00545687691372,0.027777777777777776
0.00545687691372,0.03333333333333333
0.00555712441589,0.03888888888888889
0.00555712441589,0.044444444444444446
0.00572504607112,0.05
0.00572504607112,0.05555555555555555
0.00576887422711,0.06111111111111111
0.00576887422711,0.06666666666666667
0.00600447972314,0.07222222222222222
0.00600447972314,0.07777777777777778
0.00606167364945,0.08333333333333333
0.00606167364945,0.08888888888888889
0.00615659495505,0.09444444444444444
0.00615659495505,0.1
0.0061784828627,0.10555555555555556
0.0061784828627,0.1111111111111111
0.00623953150056,0.11666666666666667
0.00623953150056,0.12222222222222222
0.00640168823829,0.12777777777777777
0.00640168823829,0.13333333333333333
0.00643430639423,0.1388888888888889
0.00643430639423,0.14444444444444443
0.00666387870263,0.15
0.00666387870263,0.15555555555555556
0.00666763668411,0.16111111111111112
0.00666763668411,0.16666666666666666
0.00677611212347,0.17222222222222222
0.00677611212347,0.17777777777777778
0.00680204838182,0.18333333333333332
0.00680204838182,0.18888888888888888
0.00680797449765,0.19444444444444445
0.00680797449765,0.2
0.00681098024137,0.20555555555555555
0.00681098024137,0.2111111111111111
0.00694055768709,0.21666666666666667
0.00694055768709,0.2222222222222222
0.00709764547521,0.22777777777777777
0.00709764547521,0.23333333333333334
0.00711531997557,0.2388888888888889
0.00711531997557,0.24444444444444444
0.00712437091797,0.25
0.00712437091797,0.25555555555555554
0.00716800708147,0.2611111111111111
0.00716800708147,0.26666666666666666
0.0073851388377,0.2722222222222222
0.0073851388377,0.2777777777777778
0.00763172348766,0.2833333333333333
0.00763172348766,0.28888888888888886
0.00770837920044,0.29444444444444445
0.00770837920044,0.3
0.00803854208379,0.3055555555555556
0.00803854208379,0.3111111111111111
0.00809323728392,0.31666666666666665
0.00809323728392,0.32222222222222224
0.00873891091739,0.3277777777777778
0.00873891091739,0.3333333333333333
0.00873937919888,0.3388888888888889
0.00873937919888,0.34444444444444444
0.00874127382358,0.35
0.00874127382358,0.35555555555555557
0.00878760969351,0.3611111111111111
0.00878760969351,0.36666666666666664
0.00893054238402,0.37222222222222223
0.00893054238402,0.37777777777777777
0.0089546263806,0.38333333333333336
0.0089546263806,0.3888888888888889
0.0090770908609,0.39444444444444443
0.0090770908609,0.4
0.0091457593533,0.40555555555555556
0.0091457593533,0.4111111111111111
0.00958394747652,0.4166666666666667
0.00958394747652,0.4222222222222222
0.00958682086519,0.42777777777777776
0.00958682086519,0.43333333333333335
0.0100171082286,0.4388888888888889
0.0100171082286,0.4444444444444444
0.150599393845,0.45
0.150599393845,0.45555555555555555
0.215151178009,0.46111111111111114
0.215151178009,0.4666666666666667
0.251036621028,0.4722222222222222
0.251036621028,0.4777777777777778
0.254002555533,0.48333333333333334
0.254002555533,0.4888888888888889
0.439021419287,0.49444444444444446
0.439021419287,0.5
0.467120316344,0.5055555555555555
0.467120316344,0.5111111111111111
0.488170963573,0.5166666666666667
0.488170963573,0.5222222222222223
0.519202452396,0.5277777777777778
0.519202452396,0.5333333333333333
0.542543594469,0.5388888888888889
0.542543594469,0.5444444444444444
0.631721792261,0.55
0.631721792261,0.5555555555555556
0.752359647604,0.5611111111111111
0.752359647604,0.5666666666666667
0.760047193779,0.5722222222222222
0.760047193779,0.5777777777777777
0.770921288386,0.5833333333333334
0.770921288386,0.5888888888888889
0.795831171003,0.5944444444444444
0.795831171003,0.6
0.823185830901,0.6055555555555555
0.823185830901,0.6111111111111112
0.846904298663,0.6166666666666667
0.846904298663,0.6222222222222222
0.865398953016,0.6277777777777778
0.865398953016,0.6333333333333333
0.892066311192,0.6388888888888888
0.892066311192,0.6444444444444445
0.971815578648,0.65
0.971815578648,0.6555555555555556
0.995102478031,0.6611111111111111
0.995102478031,0.6666666666666666
1.01900538639,0.6722222222222223
1.01900538639,0.6777777777777778
1.05850782617,0.6833333333333333
1.05850782617,0.6888888888888889
1.07234627029,0.6944444444444444
1.07234627029,0.7
1.13388398475,0.7055555555555556
1.13388398475,0.7111111111111111
1.21964094251,0.7166666666666667
1.21964094251,0.7222222222222222
1.45711966293,0.7277777777777777
1.45711966293,0.7333333333333333
1.47932543995,0.7388888888888889
1.47932543995,0.7444444444444445
1.72252827861,0.75
1.72252827861,0.7555555555555555
1.81408882294,0.7611111111111111
1.81408882294,0.7666666666666667
1.82548918233,0.7722222222222223
1.82548918233,0.7777777777777778
1.97866292046,0.7833333333333333
1.97866292046,0.7888888888888889
2.17254255545,0.7944444444444444
2.17254255545,0.8
2.18721718778,0.8055555555555556
2.18721718778,0.8111111111111111
2.29455572727,0.8166666666666667
2.29455572727,0.8222222222222222
2.34740527573,0.8277777777777777
2.34740527573,0.8333333333333334
2.41013638635,0.8388888888888889
2.41013638635,0.8444444444444444
2.55222043066,0.85
2.55222043066,0.8555555555555555
2.72349895371,0.8611111111111112
2.72349895371,0.8666666666666667
3.24709239082,0.8722222222222222
3.24709239082,0.8777777777777778
3.36588724298,0.8833333333333333
3.36588724298,0.8888888888888888
3.43139837389,0.8944444444444445
3.43139837389,0.9
3.45382746934,0.9055555555555556
3.45382746934,0.9111111111111111
3.61139582257,0.9166666666666666
3.61139582257,0.9222222222222223
4.00210607543,0.9277777777777778
4.00210607543,0.9333333333333333
4.00811822522,0.9388888888888889
4.00811822522,0.9444444444444444
4.04910983293,0.95
4.04910983293,0.9555555555555556
4.32095567074,0.9611111111111111
4.32095567074,0.9666666666666667
5.62005119207,0.9722222222222222
5.62005119207,0.9777777777777777
6.06845184959,0.9833333333333333
6.06845184959,0.9888888888888889
6.07809081207,0.9944444444444445
6.07809081207,1.0
