Congestion,CDF
0.00602437732293,0.005555555555555556
0.00602437732293,0.011111111111111112
0.00634959446317,0.016666666666666666
0.00634959446317,0.022222222222222223
0.00668228807386,0.027777777777777776
0.00668228807386,0.03333333333333333
0.00670451718817,0.03888888888888889
0.00670451718817,0.044444444444444446
0.00672413078558,0.05
0.00672413078558,0.05555555555555555
0.00672882758815,0.06111111111111111
0.00672882758815,0.06666666666666667
0.00675680681016,0.07222222222222222
0.00675680681016,0.07777777777777778
0.00682190149071,0.08333333333333333
0.00682190149071,0.08888888888888889
0.00683804526027,0.09444444444444444
0.00683804526027,0.1
0.00695507204549,0.10555555555555556
0.00695507204549,0.1111111111111111
0.00698681000203,0.11666666666666667
0.00698681000203,0.12222222222222222
0.00699435874,0.12777777777777777
0.00699435874,0.13333333333333333
0.00701050608832,0.1388888888888889
0.00701050608832,0.14444444444444443
0.00702537317769,0.15
0.00702537317769,0.15555555555555556
0.00711574503836,0.16111111111111112
0.00711574503836,0.16666666666666666
0.00713002475407,0.17222222222222222
0.00713002475407,0.17777777777777778
0.00719634380794,0.18333333333333332
0.00719634380794,0.18888888888888888
0.00722943823064,0.19444444444444445
0.00722943823064,0.2
0.00724495467224,0.20555555555555555
0.00724495467224,0.2111111111111111
0.00728705011916,0.21666666666666667
0.00728705011916,0.2222222222222222
0.00729042578371,0.22777777777777777
0.00729042578371,0.23333333333333334
0.00730957194101,0.2388888888888889
0.00730957194101,0.24444444444444444
0.00731955787119,0.25
0.00731955787119,0.25555555555555554
0.00732571553348,0.2611111111111111
0.00732571553348,0.26666666666666666
0.00735329751867,0.2722222222222222
0.00735329751867,0.2777777777777778
0.0074596777979,0.2833333333333333
0.0074596777979,0.28888888888888886
0.00748265473581,0.29444444444444445
0.00748265473581,0.3
0.00755622548424,0.3055555555555556
0.00755622548424,0.3111111111111111
0.0077313438978,0.31666666666666665
0.0077313438978,0.32222222222222224
0.00773481122326,0.3277777777777778
0.00773481122326,0.3333333333333333
0.00777774444135,0.3388888888888889
0.00777774444135,0.34444444444444444
0.00781241313386,0.35
0.00781241313386,0.35555555555555557
0.00792887065584,0.3611111111111111
0.00792887065584,0.36666666666666664
0.00792999986004,0.37222222222222223
0.00792999986004,0.37777777777777777
0.00804226917699,0.38333333333333336
0.00804226917699,0.3888888888888889
0.00806238856931,0.39444444444444443
0.00806238856931,0.4
0.00824534606105,0.40555555555555556
0.00824534606105,0.4111111111111111
0.00827685875584,0.4166666666666667
0.00827685875584,0.4222222222222222
0.00831801997946,0.42777777777777776
0.00831801997946,0.43333333333333335
0.00841040746522,0.4388888888888889
0.00841040746522,0.4444444444444444
0.212125425652,0.45
0.212125425652,0.45555555555555555
0.245767366565,0.46111111111111114
0.245767366565,0.4666666666666667
0.277422676657,0.4722222222222222
0.277422676657,0.4777777777777778
0.315913347071,0.48333333333333334
0.315913347071,0.4888888888888889
0.472033943033,0.49444444444444446
0.472033943033,0.5
0.545449489819,0.5055555555555555
0.545449489819,0.5111111111111111
0.558155813458,0.5166666666666667
0.558155813458,0.5222222222222223
0.562710060643,0.5277777777777778
0.562710060643,0.5333333333333333
0.630363968815,0.5388888888888889
0.630363968815,0.5444444444444444
0.755564681839,0.55
0.755564681839,0.5555555555555556
0.776194301402,0.5611111111111111
0.776194301402,0.5666666666666667
0.844335019075,0.5722222222222222
0.844335019075,0.5777777777777777
0.858059253594,0.5833333333333334
0.858059253594,0.5888888888888889
0.860552894874,0.5944444444444444
0.860552894874,0.6
0.894987763512,0.6055555555555555
0.894987763512,0.6111111111111112
0.904228851566,0.6166666666666667
0.904228851566,0.6222222222222222
0.931797697687,0.6277777777777778
0.931797697687,0.6333333333333333
0.941128058081,0.6388888888888888
0.941128058081,0.6444444444444445
0.998024649028,0.65
0.998024649028,0.6555555555555556
1.01393530055,0.6611111111111111
1.01393530055,0.6666666666666666
1.0346839119,0.6722222222222223
1.0346839119,0.6777777777777778
1.04613502929,0.6833333333333333
1.04613502929,0.6888888888888889
1.07990006088,0.6944444444444444
1.07990006088,0.7
1.08688083921,0.7055555555555556
1.08688083921,0.7111111111111111
1.12149416816,0.7166666666666667
1.12149416816,0.7222222222222222
1.23249470063,0.7277777777777777
1.23249470063,0.7333333333333333
1.24235978221,0.7388888888888889
1.24235978221,0.7444444444444445
1.51089593556,0.75
1.51089593556,0.7555555555555555
1.55371281912,0.7611111111111111
1.55371281912,0.7666666666666667
1.61628153085,0.7722222222222223
1.61628153085,0.7777777777777778
1.7647730747,0.7833333333333333
1.7647730747,0.7888888888888889
1.88167905262,0.7944444444444444
1.88167905262,0.8
1.90227671738,0.8055555555555556
1.90227671738,0.8111111111111111
1.94388451618,0.8166666666666667
1.94388451618,0.8222222222222222
1.98385247427,0.8277777777777777
1.98385247427,0.8333333333333334
2.06146930559,0.8388888888888889
2.06146930559,0.8444444444444444
2.34848583384,0.85
2.34848583384,0.8555555555555555
2.40202211873,0.8611111111111112
2.40202211873,0.8666666666666667
2.63555829002,0.8722222222222222
2.63555829002,0.8777777777777778
2.79493842616,0.8833333333333333
2.79493842616,0.8888888888888888
2.85181845113,0.8944444444444445
2.85181845113,0.9
2.88658580961,0.9055555555555556
2.88658580961,0.9111111111111111
3.06081564049,0.9166666666666666
3.06081564049,0.9222222222222223
3.16865772174,0.9277777777777778
3.16865772174,0.9333333333333333
3.51264789501,0.9388888888888889
3.51264789501,0.9444444444444444
3.5924163639,0.95
3.5924163639,0.9555555555555556
3.64910165288,0.9611111111111111
3.64910165288,0.9666666666666667
4.48354155212,0.9722222222222222
4.48354155212,0.9777777777777777
4.86364791529,0.9833333333333333
4.86364791529,0.9888888888888889
4.96327053272,0.9944444444444445
4.96327053272,1.0
