Congestion,CDF
0.0146471006204,0.005555555555555556
0.0146471006204,0.011111111111111112
0.0152279729929,0.016666666666666666
0.0152279729929,0.022222222222222223
0.015508803436,0.027777777777777776
0.015508803436,0.03333333333333333
0.0157063662149,0.03888888888888889
0.0157063662149,0.044444444444444446
0.0158116073072,0.05
0.0158116073072,0.05555555555555555
0.0158475085009,0.06111111111111111
0.0158475085009,0.06666666666666667
0.0160085097685,0.07222222222222222
0.0160085097685,0.07777777777777778
0.0160451534344,0.08333333333333333
0.0160451534344,0.08888888888888889
0.0160572109066,0.09444444444444444
0.0160572109066,0.1
0.0161103990628,0.10555555555555556
0.0161103990628,0.1111111111111111
0.0162298560147,0.11666666666666667
0.0162298560147,0.12222222222222222
0.0162359401819,0.12777777777777777
0.0162359401819,0.13333333333333333
0.0162750929175,0.1388888888888889
0.0162750929175,0.14444444444444443
0.0164054349869,0.15
0.0164054349869,0.15555555555555556
0.0164056858135,0.16111111111111112
0.0164056858135,0.16666666666666666
0.016455417492,0.17222222222222222
0.016455417492,0.17777777777777778
0.01657562111,0.18333333333333332
0.01657562111,0.18888888888888888
0.016629501676,0.19444444444444445
0.016629501676,0.2
0.0166731402721,0.20555555555555555
0.0166731402721,0.2111111111111111
0.0167660578813,0.21666666666666667
0.0167660578813,0.2222222222222222
0.0168745968493,0.22777777777777777
0.0168745968493,0.23333333333333334
0.0169239542784,0.2388888888888889
0.0169239542784,0.24444444444444444
0.0171869289271,0.25
0.0171869289271,0.25555555555555554
0.0172804638273,0.2611111111111111
0.0172804638273,0.26666666666666666
0.01731979863,0.2722222222222222
0.01731979863,0.2777777777777778
0.0174351970427,0.2833333333333333
0.0174351970427,0.28888888888888886
0.0174883926374,0.29444444444444445
0.0174883926374,0.3
0.0179895552666,0.3055555555555556
0.0179895552666,0.3111111111111111
0.0181114874383,0.31666666666666665
0.0181114874383,0.32222222222222224
0.0181853516724,0.3277777777777778
0.0181853516724,0.3333333333333333
0.0182656790266,0.3388888888888889
0.0182656790266,0.34444444444444444
0.0183387328354,0.35
0.0183387328354,0.35555555555555557
0.0184302078449,0.3611111111111111
0.0184302078449,0.36666666666666664
0.0185492669671,0.37222222222222223
0.0185492669671,0.37777777777777777
0.0186430652941,0.38333333333333336
0.0186430652941,0.3888888888888889
0.0188147752246,0.39444444444444443
0.0188147752246,0.4
0.0189324785625,0.40555555555555556
0.0189324785625,0.4111111111111111
0.0189402344295,0.4166666666666667
0.0189402344295,0.4222222222222222
0.0191562448121,0.42777777777777776
0.0191562448121,0.43333333333333335
0.0191588656515,0.4388888888888889
0.0191588656515,0.4444444444444444
0.481120295724,0.45
0.481120295724,0.45555555555555555
0.564476658608,0.46111111111111114
0.564476658608,0.4666666666666667
0.606921824989,0.4722222222222222
0.606921824989,0.4777777777777778
0.658184332879,0.48333333333333334
0.658184332879,0.4888888888888889
1.03357224047,0.49444444444444446
1.03357224047,0.5
1.23052603299,0.5055555555555555
1.23052603299,0.5111111111111111
1.32298829941,0.5166666666666667
1.32298829941,0.5222222222222223
1.34754370915,0.5277777777777778
1.34754370915,0.5333333333333333
1.58061027961,0.5388888888888889
1.58061027961,0.5444444444444444
1.87102460777,0.55
1.87102460777,0.5555555555555556
1.87513934448,0.5611111111111111
1.87513934448,0.5666666666666667
1.97546969344,0.5722222222222222
1.97546969344,0.5777777777777777
2.02604139352,0.5833333333333334
2.02604139352,0.5888888888888889
2.0916924141,0.5944444444444444
2.0916924141,0.6
2.12162304754,0.6055555555555555
2.12162304754,0.6111111111111112
2.16876036372,0.6166666666666667
2.16876036372,0.6222222222222222
2.21445480931,0.6277777777777778
2.21445480931,0.6333333333333333
2.2626255058,0.6388888888888888
2.2626255058,0.6444444444444445
2.33496327344,0.65
2.33496327344,0.6555555555555556
2.43978326129,0.6611111111111111
2.43978326129,0.6666666666666666
2.4502377658,0.6722222222222223
2.4502377658,0.6777777777777778
2.47332657289,0.6833333333333333
2.47332657289,0.6888888888888889
2.62778490741,0.6944444444444444
2.62778490741,0.7
2.63311220663,0.7055555555555556
2.63311220663,0.7111111111111111
2.67521230169,0.7166666666666667
2.67521230169,0.7222222222222222
2.7945427906,0.7277777777777777
2.7945427906,0.7333333333333333
3.0261641019,0.7388888888888889
3.0261641019,0.7444444444444445
3.6650934216,0.75
3.6650934216,0.7555555555555555
3.73946734598,0.7611111111111111
3.73946734598,0.7666666666666667
3.83300269648,0.7722222222222223
3.83300269648,0.7777777777777778
4.14923083397,0.7833333333333333
4.14923083397,0.7888888888888889
4.20869196321,0.7944444444444444
4.20869196321,0.8
4.32793777286,0.8055555555555556
4.32793777286,0.8111111111111111
4.56482879137,0.8166666666666667
4.56482879137,0.8222222222222222
4.64438173073,0.8277777777777777
4.64438173073,0.8333333333333334
4.77981665337,0.8388888888888889
4.77981665337,0.8444444444444444
5.30844067833,0.85
5.30844067833,0.8555555555555555
5.68454161724,0.8611111111111112
5.68454161724,0.8666666666666667
5.87583586558,0.8722222222222222
5.87583586558,0.8777777777777778
6.32001754612,0.8833333333333333
6.32001754612,0.8888888888888888
6.46502636116,0.8944444444444445
6.46502636116,0.9
6.75108980171,0.9055555555555556
6.75108980171,0.9111111111111111
7.07510334321,0.9166666666666666
7.07510334321,0.9222222222222223
7.40537893309,0.9277777777777778
7.40537893309,0.9333333333333333
8.13350804748,0.9388888888888889
8.13350804748,0.9444444444444444
8.21626657996,0.95
8.21626657996,0.9555555555555556
8.46132422308,0.9611111111111111
8.46132422308,0.9666666666666667
9.73792014617,0.9722222222222222
9.73792014617,0.9777777777777777
10.55343646,0.9833333333333333
10.55343646,0.9888888888888889
10.9029739884,0.9944444444444445
10.9029739884,1.0
