Congestion,CDF
0.0172011425312,0.005555555555555556
0.0172011425312,0.011111111111111112
0.0178072471691,0.016666666666666666
0.0178072471691,0.022222222222222223
0.0178409090781,0.027777777777777776
0.0178409090781,0.03333333333333333
0.0180320273637,0.03888888888888889
0.0180320273637,0.044444444444444446
0.0182500467784,0.05
0.0182500467784,0.05555555555555555
0.0183707889479,0.06111111111111111
0.0183707889479,0.06666666666666667
0.0186152744046,0.07222222222222222
0.0186152744046,0.07777777777777778
0.0186168457669,0.08333333333333333
0.0186168457669,0.08888888888888889
0.0186271687963,0.09444444444444444
0.0186271687963,0.1
0.0186659444302,0.10555555555555556
0.0186659444302,0.1111111111111111
0.018688769504,0.11666666666666667
0.018688769504,0.12222222222222222
0.0187479065591,0.12777777777777777
0.0187479065591,0.13333333333333333
0.0188991546006,0.1388888888888889
0.0188991546006,0.14444444444444443
0.0189482252836,0.15
0.0189482252836,0.15555555555555556
0.018960754154,0.16111111111111112
0.018960754154,0.16666666666666666
0.018984800959,0.17222222222222222
0.018984800959,0.17777777777777778
0.0190145652922,0.18333333333333332
0.0190145652922,0.18888888888888888
0.0191155868984,0.19444444444444445
0.0191155868984,0.2
0.0193109822642,0.20555555555555555
0.0193109822642,0.2111111111111111
0.0194095753846,0.21666666666666667
0.0194095753846,0.2222222222222222
0.0194285952278,0.22777777777777777
0.0194285952278,0.23333333333333334
0.0196548570747,0.2388888888888889
0.0196548570747,0.24444444444444444
0.0197861853404,0.25
0.0197861853404,0.25555555555555554
0.0199390897565,0.2611111111111111
0.0199390897565,0.26666666666666666
0.0199604396381,0.2722222222222222
0.0199604396381,0.2777777777777778
0.0201393969949,0.2833333333333333
0.0201393969949,0.28888888888888886
0.0202248740341,0.29444444444444445
0.0202248740341,0.3
0.0207522985952,0.3055555555555556
0.0207522985952,0.3111111111111111
0.0208253700091,0.31666666666666665
0.0208253700091,0.32222222222222224
0.0209106666775,0.3277777777777778
0.0209106666775,0.3333333333333333
0.0209893561527,0.3388888888888889
0.0209893561527,0.34444444444444444
0.0210608687566,0.35
0.0210608687566,0.35555555555555557
0.0211415526628,0.3611111111111111
0.0211415526628,0.36666666666666664
0.0213420584389,0.37222222222222223
0.0213420584389,0.37777777777777777
0.0214057958923,0.38333333333333336
0.0214057958923,0.3888888888888889
0.0215748979916,0.39444444444444443
0.0215748979916,0.4
0.0216814389853,0.40555555555555556
0.0216814389853,0.4111111111111111
0.0216882621362,0.4166666666666667
0.0216882621362,0.4222222222222222
0.0219236190338,0.42777777777777776
0.0219236190338,0.43333333333333335
0.021982223111,0.4388888888888889
0.021982223111,0.4444444444444444
0.556266625137,0.45
0.556266625137,0.45555555555555555
0.648532397484,0.46111111111111114
0.648532397484,0.4666666666666667
0.700678847602,0.4722222222222222
0.700678847602,0.4777777777777778
0.756315221602,0.48333333333333334
0.756315221602,0.4888888888888889
1.18397085772,0.49444444444444446
1.18397085772,0.5
1.42672006348,0.5055555555555555
1.42672006348,0.5111111111111111
1.54542128109,0.5166666666666667
1.54542128109,0.5222222222222223
1.57619870934,0.5277777777777778
1.57619870934,0.5333333333333333
1.86616356345,0.5388888888888889
1.86616356345,0.5444444444444444
2.17191218694,0.55
2.17191218694,0.5555555555555556
2.18726196814,0.5611111111111111
2.18726196814,0.5666666666666667
2.2936079047,0.5722222222222222
2.2936079047,0.5777777777777777
2.33823268675,0.5833333333333334
2.33823268675,0.5888888888888889
2.44543975972,0.5944444444444444
2.44543975972,0.6
2.44578560011,0.6055555555555555
2.44578560011,0.6111111111111112
2.49741209038,0.6166666666666667
2.49741209038,0.6222222222222222
2.58266794321,0.6277777777777778
2.58266794321,0.6333333333333333
2.66561525708,0.6388888888888888
2.66561525708,0.6444444444444445
2.68893676283,0.65
2.68893676283,0.6555555555555556
2.82062711292,0.6611111111111111
2.82062711292,0.6666666666666666
2.83498956117,0.6722222222222223
2.83498956117,0.6777777777777778
2.86061314736,0.6833333333333333
2.86061314736,0.6888888888888889
3.02750682482,0.6944444444444444
3.02750682482,0.7
3.10472643866,0.7055555555555556
3.10472643866,0.7111111111111111
3.11856850407,0.7166666666666667
3.11856850407,0.7222222222222222
3.2001431785,0.7277777777777777
3.2001431785,0.7333333333333333
3.49197800479,0.7388888888888889
3.49197800479,0.7444444444444445
4.21816450323,0.75
4.21816450323,0.7555555555555555
4.31534178374,0.7611111111111111
4.31534178374,0.7666666666666667
4.39919149918,0.7722222222222223
4.39919149918,0.7777777777777778
4.77176383941,0.7833333333333333
4.77176383941,0.7888888888888889
4.80194173501,0.7944444444444444
4.80194173501,0.8
4.95506072875,0.8055555555555556
4.95506072875,0.8111111111111111
5.22117152584,0.8166666666666667
5.22117152584,0.8222222222222222
5.33762532688,0.8277777777777777
5.33762532688,0.8333333333333334
5.49145325037,0.8388888888888889
5.49145325037,0.8444444444444444
6.06456931177,0.85
6.06456931177,0.8555555555555555
6.5435115462,0.8611111111111112
6.5435115462,0.8666666666666667
6.69627141199,0.8722222222222222
6.69627141199,0.8777777777777778
7.21949981167,0.8833333333333333
7.21949981167,0.8888888888888888
7.38271744386,0.8944444444444445
7.38271744386,0.9
7.74019671673,0.9055555555555556
7.74019671673,0.9111111111111111
8.11321229226,0.9166666666666666
8.11321229226,0.9222222222222223
8.47877612188,0.9277777777777778
8.47877612188,0.9333333333333333
9.31253042144,0.9388888888888889
9.31253042144,0.9444444444444444
9.42231852546,0.95
9.42231852546,0.9555555555555556
9.71325039757,0.9611111111111111
9.71325039757,0.9666666666666667
11.0589671539,0.9722222222222222
11.0589671539,0.9777777777777777
11.9874301347,0.9833333333333333
11.9874301347,0.9888888888888889
12.4060290434,0.9944444444444445
12.4060290434,1.0
