Congestion,CDF
0.0135683179256,0.005555555555555556
0.0135683179256,0.011111111111111112
0.0142597745214,0.016666666666666666
0.0142597745214,0.022222222222222223
0.0144654531778,0.027777777777777776
0.0144654531778,0.03333333333333333
0.0147157610083,0.03888888888888889
0.0147157610083,0.044444444444444446
0.0147317853978,0.05
0.0147317853978,0.05555555555555555
0.014737434206,0.06111111111111111
0.014737434206,0.06666666666666667
0.014786087192,0.07222222222222222
0.014786087192,0.07777777777777778
0.0149301039477,0.08333333333333333
0.0149301039477,0.08888888888888889
0.015027045367,0.09444444444444444
0.015027045367,0.1
0.0150419707187,0.10555555555555556
0.0150419707187,0.1111111111111111
0.0151154144534,0.11666666666666667
0.0151154144534,0.12222222222222222
0.0151629505611,0.12777777777777777
0.0151629505611,0.13333333333333333
0.0152830959193,0.1388888888888889
0.0152830959193,0.14444444444444443
0.0152998814832,0.15
0.0152998814832,0.15555555555555556
0.015311843281,0.16111111111111112
0.015311843281,0.16666666666666666
0.0153656074707,0.17222222222222222
0.0153656074707,0.17777777777777778
0.0154067699208,0.18333333333333332
0.0154067699208,0.18888888888888888
0.0154366036334,0.19444444444444445
0.0154366036334,0.2
0.0154631834133,0.20555555555555555
0.0154631834133,0.2111111111111111
0.0154689810539,0.21666666666666667
0.0154689810539,0.2222222222222222
0.0154972602099,0.22777777777777777
0.0154972602099,0.23333333333333334
0.0157182627036,0.2388888888888889
0.0157182627036,0.24444444444444444
0.0157321988953,0.25
0.0157321988953,0.25555555555555554
0.0158126667392,0.2611111111111111
0.0158126667392,0.26666666666666666
0.0161963717311,0.2722222222222222
0.0161963717311,0.2777777777777778
0.0165683202217,0.2833333333333333
0.0165683202217,0.28888888888888886
0.0166434921364,0.29444444444444445
0.0166434921364,0.3
0.0172863976401,0.3055555555555556
0.0172863976401,0.3111111111111111
0.0176081884176,0.31666666666666665
0.0176081884176,0.32222222222222224
0.0176535858966,0.3277777777777778
0.0176535858966,0.3333333333333333
0.0177949254749,0.3388888888888889
0.0177949254749,0.34444444444444444
0.0180890628037,0.35
0.0180890628037,0.35555555555555557
0.0181513405236,0.3611111111111111
0.0181513405236,0.36666666666666664
0.0182796457228,0.37222222222222223
0.0182796457228,0.37777777777777777
0.0183174952274,0.38333333333333336
0.0183174952274,0.3888888888888889
0.0183370795961,0.39444444444444443
0.0183370795961,0.4
0.0183417673769,0.40555555555555556
0.0183417673769,0.4111111111111111
0.0187358898938,0.4166666666666667
0.0187358898938,0.4222222222222222
0.0187623646127,0.42777777777777776
0.0187623646127,0.43333333333333335
0.0189321759346,0.4388888888888889
0.0189321759346,0.4444444444444444
0.411147263441,0.45
0.411147263441,0.45555555555555555
0.493238869863,0.46111111111111114
0.493238869863,0.4666666666666667
0.535271634826,0.4722222222222222
0.535271634826,0.4777777777777778
0.538864044459,0.48333333333333334
0.538864044459,0.4888888888888889
0.952272297036,0.49444444444444446
0.952272297036,0.5
1.08768579087,0.5055555555555555
1.08768579087,0.5111111111111111
1.2514010896,0.5166666666666667
1.2514010896,0.5222222222222223
1.27228312214,0.5277777777777778
1.27228312214,0.5333333333333333
1.48075194638,0.5388888888888889
1.48075194638,0.5444444444444444
1.83075221078,0.55
1.83075221078,0.5555555555555556
1.84174772286,0.5611111111111111
1.84174772286,0.5666666666666667
1.92510546632,0.5722222222222222
1.92510546632,0.5777777777777777
1.97312653889,0.5833333333333334
1.97312653889,0.5888888888888889
1.9979243957,0.5944444444444444
1.9979243957,0.6
2.01738547771,0.6055555555555555
2.01738547771,0.6111111111111112
2.07450554378,0.6166666666666667
2.07450554378,0.6222222222222222
2.0883255154,0.6277777777777778
2.0883255154,0.6333333333333333
2.20524997497,0.6388888888888888
2.20524997497,0.6444444444444445
2.23934609362,0.65
2.23934609362,0.6555555555555556
2.32597776192,0.6611111111111111
2.32597776192,0.6666666666666666
2.40327782252,0.6722222222222223
2.40327782252,0.6777777777777778
2.40389386944,0.6833333333333333
2.40389386944,0.6888888888888889
2.53276835275,0.6944444444444444
2.53276835275,0.7
2.55447338305,0.7055555555555556
2.55447338305,0.7111111111111111
2.67390935909,0.7166666666666667
2.67390935909,0.7222222222222222
2.79177355122,0.7277777777777777
2.79177355122,0.7333333333333333
3.04123119557,0.7388888888888889
3.04123119557,0.7444444444444445
3.71608339772,0.75
3.71608339772,0.7555555555555555
3.79938168173,0.7611111111111111
3.79938168173,0.7666666666666667
3.90776527837,0.7722222222222223
3.90776527837,0.7777777777777778
4.12629965341,0.7833333333333333
4.12629965341,0.7888888888888889
4.28068885124,0.7944444444444444
4.28068885124,0.8
4.28471535408,0.8055555555555556
4.28471535408,0.8111111111111111
4.65571167765,0.8166666666666667
4.65571167765,0.8222222222222222
4.71428867235,0.8277777777777777
4.71428867235,0.8333333333333334
4.79339608951,0.8388888888888889
4.79339608951,0.8444444444444444
5.39299614632,0.85
5.39299614632,0.8555555555555555
5.62768311324,0.8611111111111112
5.62768311324,0.8666666666666667
6.0249344425,0.8722222222222222
6.0249344425,0.8777777777777778
6.46899103963,0.8833333333333333
6.46899103963,0.8888888888888888
6.5968732344,0.8944444444444445
6.5968732344,0.9
6.95991809096,0.9055555555555556
6.95991809096,0.9111111111111111
7.19736846947,0.9166666666666666
7.19736846947,0.9222222222222223
7.65731040218,0.9277777777777778
7.65731040218,0.9333333333333333
8.33570148273,0.9388888888888889
8.33570148273,0.9444444444444444
8.34364300669,0.95
8.34364300669,0.9555555555555556
8.60956756411,0.9611111111111111
8.60956756411,0.9666666666666667
10.0449930931,0.9722222222222222
10.0449930931,0.9777777777777777
10.900030302,0.9833333333333333
10.900030302,0.9888888888888889
11.2333094758,0.9944444444444445
11.2333094758,1.0
