Congestion,CDF
0.0,0.009433962264150943
0.0,0.018867924528301886
0.0,0.02830188679245283
0.0,0.03773584905660377
0.0,0.04716981132075472
0.0,0.05660377358490566
0.0,0.0660377358490566
0.0,0.07547169811320754
0.0,0.08490566037735849
0.0,0.09433962264150944
0.0,0.10377358490566038
0.0,0.11320754716981132
0.0,0.12264150943396226
0.0,0.1320754716981132
0.0,0.14150943396226415
0.0,0.1509433962264151
0.0,0.16037735849056603
0.0,0.16981132075471697
0.0,0.1792452830188679
0.0,0.18867924528301888
0.0,0.19811320754716982
0.0,0.20754716981132076
0.0,0.2169811320754717
0.0,0.22641509433962265
0.0,0.2358490566037736
0.0,0.24528301886792453
0.0,0.25471698113207547
0.0,0.2641509433962264
0.0,0.27358490566037735
0.0,0.2830188679245283
6.96726933141e-08,0.29245283018867924
1.79493668084e-06,0.3018867924528302
2.01843750088e-06,0.3113207547169811
2.73632331239e-06,0.32075471698113206
3.08881531987e-06,0.330188679245283
4.11005209966e-06,0.33962264150943394
6.26789262265e-06,0.3490566037735849
8.02323366565e-06,0.3584905660377358
8.49110452759e-06,0.36792452830188677
9.90343705755e-06,0.37735849056603776
1.2193502705e-05,0.3867924528301887
1.24729014838e-05,0.39622641509433965
1.3160138528e-05,0.4056603773584906
1.71132910335e-05,0.41509433962264153
5.13756512457e-05,0.42452830188679247
5.13756512457e-05,0.4339622641509434
8.43304481972e-05,0.44339622641509435
0.000100290420821,0.4528301886792453
0.000100290420821,0.46226415094339623
0.000102751302491,0.4716981132075472
0.000102751302491,0.4811320754716981
0.000102751302491,0.49056603773584906
0.000158633341398,0.5
0.000200580841641,0.5094339622641509
0.000200580841641,0.5188679245283019
0.000200580841641,0.5283018867924528
0.000252587947111,0.5377358490566038
0.000252587947111,0.5471698113207547
0.000273632331239,0.5566037735849056
0.000465060703199,0.5660377358490566
0.000465060703199,0.5754716981132075
0.000576221298446,0.5849056603773585
0.000576221298446,0.5943396226415094
0.000885102830433,0.6037735849056604
0.000897142318393,0.6132075471698113
0.00139895622045,0.6226415094339622
0.00145540440895,0.6320754716981132
0.00171132910335,0.6415094339622641
0.00189223515125,0.6509433962264151
0.00302952777945,0.660377358490566
0.00613697654501,0.6698113207547169
0.00641841093377,0.6792452830188679
0.00878043647272,0.6886792452830188
0.009691365326,0.6981132075471698
0.0193441680443,0.7075471698113207
0.0203552960514,0.7169811320754716
0.0225549263394,0.7264150943396226
0.0226839003452,0.7358490566037735
0.0364563745639,0.7452830188679245
0.0383417031745,0.7547169811320755
0.051574374279,0.7641509433962265
0.0524570650375,0.7735849056603774
0.281936579242,0.7830188679245284
0.281936579242,0.7924528301886793
0.283548754316,0.8018867924528302
0.283548754316,0.8113207547169812
0.294812110404,0.8207547169811321
0.563873158484,0.8301886792452831
0.563873158484,0.839622641509434
0.563873158484,0.8490566037735849
0.567097508631,0.8584905660377359
0.567097508631,0.8679245283018868
0.567097508631,0.8773584905660378
1.05005359986,0.8867924528301887
1.05005359986,0.8962264150943396
1.53269373577,0.9056603773584906
1.53269373577,0.9150943396226415
1.66375125436,0.9245283018867925
1.69189469323,0.9339622641509434
2.38830406175,0.9433962264150944
2.38830406175,0.9528301886792453
2.41073738305,0.9622641509433962
5.72292276146,0.9716981132075472
5.81119183731,0.9811320754716981
5.95652740267,0.9905660377358491
17.756588978,1.0
