Congestion,CDF
0.0,0.009433962264150943
0.0,0.018867924528301886
0.0,0.02830188679245283
0.0,0.03773584905660377
0.0,0.04716981132075472
0.0,0.05660377358490566
0.0,0.0660377358490566
0.0,0.07547169811320754
0.0,0.08490566037735849
0.0,0.09433962264150944
0.0,0.10377358490566038
0.0,0.11320754716981132
0.0,0.12264150943396226
0.0,0.1320754716981132
0.0,0.14150943396226415
0.0,0.1509433962264151
0.0,0.16037735849056603
0.0,0.16981132075471697
0.0,0.1792452830188679
0.0,0.18867924528301888
0.0,0.19811320754716982
0.0,0.20754716981132076
0.0,0.2169811320754717
0.0,0.22641509433962265
0.0,0.2358490566037736
0.0,0.24528301886792453
0.0,0.25471698113207547
0.0,0.2641509433962264
0.0,0.27358490566037735
0.0,0.2830188679245283
1.31951579331e-07,0.29245283018867924
3.39939104647e-06,0.3018867924528302
3.82267432695e-06,0.3113207547169811
5.18226245397e-06,0.32075471698113206
5.84983930332e-06,0.330188679245283
7.78393714788e-06,0.33962264150943394
1.1870623788e-05,0.3490566037735849
1.51950255281e-05,0.3584905660377358
1.60811158487e-05,0.36792452830188677
1.87559013206e-05,0.37735849056603776
2.30930062118e-05,0.3867924528301887
2.36221534052e-05,0.39622641509433965
2.49236965069e-05,0.4056603773584906
9.72992143484e-05,0.41509433962264153
9.72992143484e-05,0.42452830188679247
0.000159711578467,0.4339622641509434
0.000189937819101,0.44339622641509435
0.000189937819101,0.4528301886792453
0.000194598428697,0.46226415094339623
0.000194598428697,0.4716981132075472
0.000194598428697,0.4811320754716981
0.000300432191383,0.49056603773584906
0.000379875638203,0.5
0.000379875638203,0.5094339622641509
0.000379875638203,0.5188679245283019
0.000478370749798,0.5283018867924528
0.000478370749798,0.5377358490566038
0.000518226245397,0.5471698113207547
0.000880768222852,0.5566037735849056
0.000880768222852,0.5660377358490566
0.00109129282588,0.5754716981132075
0.00109129282588,0.5849056603773585
0.00167627675622,0.5943396226415094
0.0016990780773,0.6037735849056604
0.00264945237397,0.6132075471698113
0.00275635835492,0.6226415094339622
0.00358366247657,0.6320754716981132
0.00573755593633,0.6415094339622641
0.00610653012506,0.6509433962264151
0.00785929568434,0.660377358490566
0.00793466727771,0.6698113207547169
0.00800465768149,0.6792452830188679
0.00837273146356,0.6886792452830188
0.0101018279601,0.6981132075471698
0.0119426247945,0.7075471698113207
0.0119904207134,0.7169811320754716
0.0123929127501,0.7264150943396226
0.0145482208301,0.7358490566037735
0.017356335866,0.7452830188679245
0.018445758032,0.7547169811320755
0.0187184966651,0.7641509433962265
0.149282809931,0.7735849056603774
0.149282809931,0.7830188679245284
0.149880258918,0.7924528301886793
0.149880258918,0.8018867924528302
0.153774479844,0.8113207547169812
0.298565619862,0.8207547169811321
0.298565619862,0.8301886792452831
0.298565619862,0.839622641509434
0.299760517836,0.8490566037735849
0.299760517836,0.8584905660377359
0.299760517836,0.8679245283018868
0.610653012506,0.8773584905660378
0.695896432734,0.8867924528301887
0.695896432734,0.8962264150943396
0.804254466853,0.9056603773584906
0.804254466853,0.9150943396226415
1.02657411035,0.9245283018867925
1.02657411035,0.9339622641509434
1.48182600117,0.9433962264150944
1.49636220088,0.9528301886792453
1.64152761321,0.9622641509433962
2.14373887205,0.9716981132075472
2.17101273536,0.9811320754716981
3.07011985222,0.9905660377358491
7.07695930437,1.0
