Congestion,CDF
0.0,0.009433962264150943
0.0,0.018867924528301886
0.0,0.02830188679245283
0.0,0.03773584905660377
0.0,0.04716981132075472
0.0,0.05660377358490566
0.0,0.0660377358490566
0.0,0.07547169811320754
0.0,0.08490566037735849
0.0,0.09433962264150944
0.0,0.10377358490566038
0.0,0.11320754716981132
0.0,0.12264150943396226
0.0,0.1320754716981132
0.0,0.14150943396226415
0.0,0.1509433962264151
0.0,0.16037735849056603
0.0,0.16981132075471697
0.0,0.1792452830188679
0.0,0.18867924528301888
0.0,0.19811320754716982
0.0,0.20754716981132076
0.0,0.2169811320754717
0.0,0.22641509433962265
0.0,0.2358490566037736
0.0,0.24528301886792453
0.0,0.25471698113207547
0.0,0.2641509433962264
0.0,0.27358490566037735
0.0,0.2830188679245283
2.13861669632e-07,0.29245283018867924
5.50959259918e-06,0.3018867924528302
6.19563265684e-06,0.3113207547169811
8.39919693648e-06,0.32075471698113206
9.48117792022e-06,0.330188679245283
1.26158838204e-05,0.33962264150943394
1.71132910335e-05,0.3490566037735849
1.92394167297e-05,0.3584905660377358
1.93178179195e-05,0.36792452830188677
2.46274697585e-05,0.37735849056603776
2.60636083509e-05,0.3867924528301887
3.03987901641e-05,0.39622641509433965
3.74281906312e-05,0.4056603773584906
3.82858105464e-05,0.41509433962264153
4.03952978465e-05,0.42452830188679247
5.31043763426e-05,0.4339622641509434
6.19372717508e-05,0.44339622641509435
8.23050695986e-05,0.4528301886792453
0.000124442435447,0.46226415094339623
0.000157698547755,0.4716981132075472
0.000157698547755,0.4811320754716981
0.00025885392963,0.49056603773584906
0.000307843371981,0.5
0.000307843371981,0.5094339622641509
0.000315397095511,0.5188679245283019
0.000315397095511,0.5283018867924528
0.000315397095511,0.5377358490566038
0.000486928086699,0.5471698113207547
0.00053528920045,0.5566037735849056
0.000615686743962,0.5660377358490566
0.000615686743962,0.5754716981132075
0.000615686743962,0.5849056603773585
0.000775323552578,0.5943396226415094
0.000775323552578,0.6037735849056604
0.000839919693648,0.6132075471698113
0.00142751275622,0.6226415094339622
0.00142751275622,0.6320754716981132
0.00171132910335,0.6415094339622641
0.00176872233728,0.6509433962264151
0.00176872233728,0.660377358490566
0.00256647801491,0.6698113207547169
0.00264234850583,0.6792452830188679
0.0027168401293,0.6886792452830188
0.00275379556872,0.6981132075471698
0.00429412297438,0.7075471698113207
0.00446739177263,0.7169811320754716
0.00580825212193,0.7264150943396226
0.00929919367678,0.7358490566037735
0.016865478335,0.7452830188679245
0.0214917514303,0.7547169811320755
0.0320809751864,0.7641509433962265
0.0320809751864,0.7735849056603774
0.0330293563229,0.7830188679245284
0.0330293563229,0.7924528301886793
0.0389806808948,0.8018867924528302
0.0400939166708,0.8113207547169812
0.0641619503728,0.8207547169811321
0.0641619503728,0.8301886792452831
0.0641619503728,0.839622641509434
0.0660587126459,0.8490566037735849
0.0660587126459,0.8584905660377359
0.0660587126459,0.8679245283018868
0.0677655503264,0.8773584905660378
0.0677655503264,0.8867924528301887
0.0696973321184,0.8962264150943396
0.0759960572863,0.9056603773584906
0.0918747915318,0.9150943396226415
0.0918747915318,0.9245283018867925
0.0980685187069,0.9339622641509434
0.123534163314,0.9433962264150944
0.908384248258,0.9528301886792453
0.908384248258,0.9622641509433962
1.01270328333,0.9716981132075472
3.96317842099,0.9811320754716981
4.07450199859,0.9905660377358491
11.0952398109,1.0
