Congestion,CDF
0.0,0.009433962264150943
0.0,0.018867924528301886
0.0,0.02830188679245283
0.0,0.03773584905660377
0.0,0.04716981132075472
0.0,0.05660377358490566
0.0,0.0660377358490566
0.0,0.07547169811320754
0.0,0.08490566037735849
0.0,0.09433962264150944
0.0,0.10377358490566038
0.0,0.11320754716981132
0.0,0.12264150943396226
0.0,0.1320754716981132
0.0,0.14150943396226415
0.0,0.1509433962264151
0.0,0.16037735849056603
0.0,0.16981132075471697
0.0,0.1792452830188679
0.0,0.18867924528301888
0.0,0.19811320754716982
0.0,0.20754716981132076
0.0,0.2169811320754717
0.0,0.22641509433962265
0.0,0.2358490566037736
0.0,0.24528301886792453
0.0,0.25471698113207547
0.0,0.2641509433962264
0.0,0.27358490566037735
0.0,0.2830188679245283
8.50021976565e-08,0.29245283018867924
2.18986169858e-06,0.3018867924528302
2.46253754873e-06,0.3113207547169811
3.33837381602e-06,0.32075471698113206
3.7684217138e-06,0.330188679245283
5.01435274475e-06,0.33962264150943394
7.64696500532e-06,0.3490566037735849
9.78851916657e-06,0.3584905660377358
1.03593317704e-05,0.36792452830188677
1.20824081028e-05,0.37735849056603776
1.48763378844e-05,0.3867924528301887
1.52172104571e-05,0.39622641509433965
1.60556545633e-05,0.4056603773584906
6.26794093093e-05,0.41509433962264153
6.26794093093e-05,0.42452830188679247
0.000102884976669,0.4339622641509434
0.000122356489582,0.44339622641509435
0.000122356489582,0.4528301886792453
0.000125358818619,0.46226415094339623
0.000125358818619,0.4716981132075472
0.000125358818619,0.4811320754716981
0.000193536118657,0.49056603773584906
0.000244712979164,0.5
0.000244712979164,0.5094339622641509
0.000244712979164,0.5188679245283019
0.000308162776328,0.5283018867924528
0.000308162776328,0.5377358490566038
0.000333837381602,0.5471698113207547
0.000567384149158,0.5566037735849056
0.000567384149158,0.5660377358490566
0.00070300248741,0.5754716981132075
0.00070300248741,0.5849056603773585
0.00107984465879,0.5943396226415094
0.00109453309534,0.6037735849056604
0.0017067569446,0.6132075471698113
0.00177562495944,0.6226415094339622
0.00230856794374,0.6320754716981132
0.00369608962803,0.6415094339622641
0.00610653012506,0.6509433962264151
0.0104144742119,0.660377358490566
0.0105158772528,0.6698113207547169
0.0106102445291,0.6792452830188679
0.0116411598819,0.6886792452830188
0.0145859077654,0.6981132075471698
0.0177372754385,0.7075471698113207
0.0178082622939,0.7169811320754716
0.0186061414865,0.7264150943396226
0.0242721514976,0.7358490566037735
0.0285992383629,0.7452830188679245
0.0336560609348,0.7547169811320755
0.0341556276997,0.7641509433962265
0.221715942981,0.7735849056603774
0.221715942981,0.7830188679245284
0.222603278674,0.7924528301886793
0.222603278674,0.8018867924528302
0.23870895148,0.8113207547169812
0.443431885963,0.8207547169811321
0.443431885963,0.8301886792452831
0.443431885963,0.839622641509434
0.445206557348,0.8490566037735849
0.445206557348,0.8584905660377359
0.445206557348,0.8679245283018868
0.610653012506,0.8773584905660378
0.970113084293,0.8867924528301887
0.970113084293,0.8962264150943396
1.17361460993,0.9056603773584906
1.17361460993,0.9150943396226415
1.65792679653,0.9245283018867925
1.65792679653,0.9339622641509434
2.01156050548,0.9433962264150944
2.03113753721,0.9528301886792453
2.33773059812,0.9622641509433962
3.80992531513,0.9716981132075472
3.85988199163,0.9811320754716981
4.69215555511,0.9905660377358491
12.1876579396,1.0
