Congestion,CDF
0.0,0.005555555555555556
0.0,0.011111111111111112
0.0,0.016666666666666666
0.0,0.022222222222222223
0.0,0.027777777777777776
0.0,0.03333333333333333
0.0,0.03888888888888889
0.0,0.044444444444444446
0.0,0.05
0.0,0.05555555555555555
2.8885876197e-07,0.06111111111111111
3.31884825397e-07,0.06666666666666667
7.47045244221e-07,0.07222222222222222
1.09185008e-06,0.07777777777777778
1.11723132048e-06,0.08333333333333333
1.4751299441e-06,0.08888888888888889
1.6228381757e-06,0.09444444444444444
2.2366410659e-06,0.1
2.24818000907e-06,0.10555555555555556
2.3000991815e-06,0.1111111111111111
2.34743786176e-06,0.11666666666666667
2.5840495107e-06,0.12222222222222222
2.64398591924e-06,0.12777777777777777
2.95252288844e-06,0.13333333333333333
3.0239765997e-06,0.1388888888888889
3.18428587762e-06,0.14444444444444443
3.6820331769e-06,0.15
4.02964392319e-06,0.15555555555555556
4.20775993325e-06,0.16111111111111112
4.37624335669e-06,0.16666666666666666
4.44548451132e-06,0.17222222222222222
4.48118763905e-06,0.17777777777777778
4.62965577772e-06,0.18333333333333332
4.79052749171e-06,0.18888888888888888
4.87139364364e-06,0.19444444444444445
4.92640723706e-06,0.2
4.953738968e-06,0.20555555555555555
5.01062466509e-06,0.2111111111111111
5.05958753295e-06,0.21666666666666667
5.07069026556e-06,0.2222222222222222
5.24011505277e-06,0.22777777777777777
5.28383267126e-06,0.23333333333333334
5.34448778096e-06,0.2388888888888889
5.7877936097e-06,0.24444444444444444
6.09027234054e-06,0.25
6.61226428661e-06,0.25555555555555554
6.71701717769e-06,0.2611111111111111
6.81367992405e-06,0.26666666666666666
7.04442475895e-06,0.2722222222222222
2.49015081407e-05,0.2777777777777778
4.98030162814e-05,0.2833333333333333
5.45925040001e-05,0.28888888888888886
5.45925040001e-05,0.29444444444444445
5.62045002267e-05,0.3
5.62045002267e-05,0.3055555555555556
8.50903764237e-05,0.3111111111111111
0.000111723132048,0.31666666666666665
0.000112409000453,0.32222222222222224
0.00014966488299,0.3277777777777778
0.00022366410659,0.3333333333333333
0.000232603370834,0.3388888888888889
0.000246320361853,0.34444444444444444
0.000246320361853,0.35
0.000314609451297,0.35555555555555557
0.000479052749171,0.3611111111111111
0.000487139364364,0.36666666666666664
0.000502711267905,0.37222222222222223
0.000541572650697,0.37777777777777777
0.000572988834555,0.38333333333333336
0.000572988834555,0.3888888888888889
0.000653379364159,0.39444444444444443
0.000690502493018,0.4
0.000742475351757,0.40555555555555556
0.000793776992858,0.4111111111111111
0.000986121775726,0.4166666666666667
0.00104263511721,0.4222222222222222
0.00109700033983,0.42777777777777776
0.00134865266885,0.43333333333333335
0.00158339645503,0.4388888888888889
0.0016578126107,0.4444444444444444
0.00204710528197,0.45
0.00231903903936,0.45555555555555555
0.0041258756338,0.46111111111111114
0.00501949765006,0.4666666666666667
0.00525400246248,0.4722222222222222
0.00572394012595,0.4777777777777778
0.00586302969654,0.48333333333333334
0.00616848857709,0.4888888888888889
0.0062360507883,0.49444444444444446
0.00660425410599,0.5
0.00713263737311,0.5055555555555555
0.00717715859829,0.5111111111111111
0.00729492119068,0.5166666666666667
0.00740716851644,0.5222222222222223
0.00767156710836,0.5277777777777778
0.0383374220393,0.5333333333333333
0.0385544509835,0.5388888888888889
0.0418335117281,0.5444444444444444
0.041921181115,0.55
0.0419229212195,0.5555555555555556
0.041939690526,0.5611111111111111
0.0419479409294,0.5666666666666667
0.0419546280317,0.5722222222222222
0.0419690979894,0.5777777777777777
0.0419781757833,0.5833333333333334
0.0419998560476,0.5888888888888889
0.0420003251533,0.5944444444444444
0.0420043345683,0.6
0.0420138926486,0.6055555555555555
0.0420287466668,0.6111111111111112
0.0420316621398,0.6166666666666667
0.0420371849361,0.6222222222222222
0.0420484737473,0.6277777777777778
0.0420722843314,0.6333333333333333
0.042079476574,0.6388888888888888
0.0420800377337,0.6444444444444445
0.0420862684787,0.65
0.042087610294,0.6555555555555556
0.0420965195153,0.6611111111111111
0.0421014191048,0.6666666666666666
0.0421029835783,0.6722222222222223
0.0421062839974,0.6777777777777778
0.0421084903994,0.6833333333333333
0.0421096085894,0.6888888888888889
0.0421118790492,0.6944444444444444
0.0421143001217,0.7
0.0421211779439,0.7055555555555556
0.0421253908318,0.7111111111111111
0.0421432852889,0.7166666666666667
0.042155401682,0.7222222222222222
0.0421765928568,0.7277777777777777
0.0421807992673,0.7333333333333333
0.042184739069,0.7388888888888889
0.0421938446245,0.7444444444444445
1.05000812883,0.75
1.05000812883,0.7555555555555555
1.3979896842,0.7611111111111111
1.63306188958,0.7666666666666667
2.09739704647,0.7722222222222223
2.09739704647,0.7777777777777778
2.10001625766,0.7833333333333333
2.10542451997,0.7888888888888889
2.10542451997,0.7944444444444444
2.7959793684,0.8
4.19546280317,0.8055555555555556
4.19998560476,0.8111111111111111
4.21029835783,0.8166666666666667
4.21062839974,0.8222222222222222
5.24212624033,0.8277777777777777
5.25139739369,0.8333333333333334
6.30540081984,0.8388888888888889
6.30829918665,0.8444444444444444
6.31849016457,0.85
6.65881787347,0.8555555555555555
6.65881787347,0.8611111111111112
8.40979133206,0.8666666666666667
8.42172837,0.8722222222222222
9.43903603927,0.8777777777777778
10.5194870916,0.8833333333333333
10.856615511,0.8888888888888888
10.8709356679,0.8944444444444445
13.6469836967,0.9
19.2912160191,0.9055555555555556
21.7077255065,0.9111111111111111
24.1649329046,0.9166666666666666
25.9081589633,0.9222222222222223
28.3825921903,0.9277777777777778
49.4103358414,0.9333333333333333
51.5418875786,0.9388888888888889
55.761272041,0.9444444444444444
59.9700330704,0.95
62.0287540213,0.9555555555555556
66.2442941895,0.9611111111111111
70.4855758007,0.9666666666666667
72.5454097296,0.9722222222222222
74.6689269735,0.9777777777777777
76.7502571043,0.9833333333333333
78.5026691775,0.9888888888888889
80.9480746826,0.9944444444444445
84.803519781,1.0
