Congestion,CDF
0.0,0.005555555555555556
0.0,0.011111111111111112
0.0,0.016666666666666666
0.0,0.022222222222222223
0.0,0.027777777777777776
0.0,0.03333333333333333
0.0,0.03888888888888889
0.0,0.044444444444444446
0.0,0.05
0.0,0.05555555555555555
3.08858124012e-07,0.06111111111111111
3.54863130553e-07,0.06666666666666667
7.98767505299e-07,0.07222222222222222
1.16744517325e-06,0.07777777777777778
1.19458370374e-06,0.08333333333333333
1.57726171816e-06,0.08888888888888889
1.73519664456e-06,0.09444444444444444
2.39149665737e-06,0.1
2.40383450829e-06,0.10555555555555556
2.45934834518e-06,0.1111111111111111
2.50996455594e-06,0.11666666666666667
2.76295819725e-06,0.12222222222222222
2.82704434985e-06,0.12777777777777777
3.15694311715e-06,0.13333333333333333
3.23334398192e-06,0.1388888888888889
3.40475239793e-06,0.14444444444444443
3.93696162032e-06,0.15
4.30863946819e-06,0.15555555555555556
4.49908747935e-06,0.16111111111111112
4.67923598423e-06,0.16666666666666666
4.75327110429e-06,0.17222222222222222
4.79144616596e-06,0.17777777777777778
4.95019361219e-06,0.18333333333333332
5.12220340498e-06,0.18888888888888888
5.20866838812e-06,0.19444444444444445
5.26749089065e-06,0.2
5.29671495534e-06,0.20555555555555555
5.3575391781e-06,0.2111111111111111
5.40989202837e-06,0.21666666666666667
5.42176346734e-06,0.2222222222222222
5.60291851205e-06,0.22777777777777777
5.64966295401e-06,0.23333333333333334
5.71451756761e-06,0.2388888888888889
6.18851602172e-06,0.24444444444444444
6.51193710378e-06,0.25
7.07006957003e-06,0.25555555555555554
7.18207510935e-06,0.2611111111111111
7.28543037647e-06,0.26666666666666666
7.53215101027e-06,0.2722222222222222
2.662558351e-05,0.2777777777777778
5.325116702e-05,0.2833333333333333
5.83722586624e-05,0.28888888888888886
5.83722586624e-05,0.29444444444444445
6.00958627071e-05,0.3
6.00958627071e-05,0.3055555555555556
9.09816751084e-05,0.3111111111111111
0.000119458370374,0.31666666666666665
0.000120191725414,0.32222222222222224
0.000160027048083,0.3277777777777778
0.000239149665737,0.3333333333333333
0.000248707846924,0.3388888888888889
0.000263374544532,0.34444444444444444
0.000263374544532,0.35
0.000336391682432,0.35555555555555557
0.000512220340498,0.3611111111111111
0.000520866838812,0.36666666666666664
0.000537516875259,0.37222222222222223
0.000579068856247,0.37777777777777777
0.000612660164137,0.38333333333333336
0.000612660164137,0.3888888888888889
0.000698616594859,0.39444444444444443
0.000738309972546,0.4
0.000793881212761,0.40555555555555556
0.000848734763061,0.4111111111111111
0.00105439668723,0.4166666666666667
0.00111482277406,0.4222222222222222
0.00117295201534,0.42777777777777776
0.00144202768995,0.43333333333333335
0.00169302414555,0.4388888888888889
0.00177259256189,0.4444444444444444
0.00218883821537,0.45
0.00247959951889,0.45555555555555555
0.00441153385645,0.46111111111111114
0.00536702649112,0.4666666666666667
0.00561776742742,0.4722222222222222
0.00612024159214,0.4777777777777778
0.0062689611378,0.48333333333333334
0.00659556870257,0.4888888888888889
0.00666780863626,0.49444444444444446
0.00706150479829,0.5
0.00762647109369,0.5055555555555555
0.00767407478067,0.5111111111111111
0.00779999075815,0.5166666666666667
0.00792000961518,0.5222222222222223
0.00820271405017,0.5277777777777778
0.0147265198362,0.5333333333333333
0.0152580210544,0.5388888888888889
0.0249922506266,0.5444444444444444
0.0249974484562,0.55
0.025003823082,0.5555555555555556
0.0250653110925,0.5611111111111111
0.0251105538178,0.5666666666666667
0.0251201229228,0.5722222222222222
0.0251731436724,0.5777777777777777
0.0252859273498,0.5833333333333334
0.0252876393644,0.5888888888888889
0.0253023402672,0.5944444444444444
0.0253373848,0.6
0.0253919286605,0.6055555555555555
0.0254025407191,0.6111111111111112
0.025425300178,0.6166666666666667
0.0254766016047,0.6222222222222222
0.0254884257003,0.6277777777777778
0.0255514876385,0.6333333333333333
0.0255778655182,0.6388888888888888
0.0256028054801,0.6444444444444445
0.0256074238731,0.65
0.0256115578642,0.6555555555555556
0.025640352665,0.6611111111111111
0.0256641449068,0.6666666666666666
0.0256761557664,0.6722222222222223
0.0256842879174,0.6777777777777778
0.025688350125,0.6833333333333333
0.0256892512857,0.6888888888888889
0.0256967479832,0.6944444444444444
0.0257056389775,0.7
0.0257307662726,0.7055555555555556
0.0257462215933,0.7111111111111111
0.0258118664148,0.7166666666666667
0.0258565634807,0.7222222222222222
0.0259339812456,0.7277777777777777
0.0259494710109,0.7333333333333333
0.0259638227988,0.7388888888888889
0.0259977817588,0.7444444444444445
0.632190984111,0.75
0.632190984111,0.7555555555555555
0.835510369752,0.7611111111111111
0.974231827782,0.7666666666666667
1.25552769089,0.7722222222222223
1.25552769089,0.7777777777777778
1.26438196822,0.7833333333333333
1.28421439587,0.7888888888888889
1.28421439587,0.7944444444444444
1.6710207395,0.8
2.51201229228,0.8055555555555556
2.52859273498,0.8111111111111111
2.56641449068,0.8166666666666667
2.56761557664,0.8222222222222222
3.13193582974,0.8277777777777777
3.16592946411,0.8333333333333334
3.8162700782,0.8388888888888889
3.82340726193,0.8444444444444444
3.8607642481,0.85
4.03601952976,0.8555555555555555
4.03601952976,0.8611111111111112
5.09319893376,0.8666666666666667
5.13697838843,0.8722222222222222
5.64925019697,0.8777777777777778
6.39308206025,0.8833333333333333
6.55658859771,0.8888888888888888
6.60909615701,0.8944444444444445
8.2070367488,0.9
11.7407470002,0.9055555555555556
13.0929904357,0.9111111111111111
14.594466039,0.9166666666666666
15.6232244624,0.9222222222222223
17.1878641635,0.9277777777777778
29.932806475,0.9333333333333333
31.3128717133,0.9388888888888889
33.9126498892,0.9444444444444444
36.4738056756,0.95
37.5862859568,0.9555555555555556
40.1719423049,0.9611111111111111
42.8590008824,0.9666666666666667
43.9700000136,0.9722222222222222
45.358225945,0.9777777777777777
46.5188425836,0.9833333333333333
46.8308779287,0.9888888888888889
49.0665027441,0.9944444444444445
50.5923048495,1.0
