Congestion,CDF
0.0,0.005555555555555556
0.0,0.011111111111111112
0.0,0.016666666666666666
0.0,0.022222222222222223
0.0,0.027777777777777776
0.0,0.03333333333333333
0.0,0.03888888888888889
0.0,0.044444444444444446
0.0,0.05
0.0,0.05555555555555555
2.92836817935e-07,0.06111111111111111
3.36455420384e-07,0.06666666666666667
7.57333274847e-07,0.07222222222222222
1.10688663522e-06,0.07777777777777778
1.13261741674e-06,0.08333333333333333
1.49544488775e-06,0.08888888888888889
1.64518730245e-06,0.09444444444444444
2.26744325889e-06,0.1
2.27914111211e-06,0.10555555555555556
2.33177529618e-06,0.1111111111111111
2.37976590721e-06,0.11666666666666667
2.61963608422e-06,0.12222222222222222
2.68039791479e-06,0.12777777777777777
2.99318394095e-06,0.13333333333333333
3.06562168627e-06,0.1388888888888889
3.22813868424e-06,0.14444444444444443
3.73274077511e-06,0.15
4.08513868795e-06,0.15555555555555556
4.26570764578e-06,0.16111111111111112
4.43651136057e-06,0.16666666666666666
4.50670607876e-06,0.17222222222222222
4.54290089675e-06,0.17777777777777778
4.69341368368e-06,0.18333333333333332
4.85650086337e-06,0.18888888888888888
4.93848067403e-06,0.19444444444444445
4.99425189429e-06,0.2
5.02196002772e-06,0.20555555555555555
5.07962913357e-06,0.2111111111111111
5.12926629993e-06,0.21666666666666667
5.14052193526e-06,0.2222222222222222
5.31227997794e-06,0.22777777777777777
5.35659965929e-06,0.23333333333333334
5.41809008871e-06,0.2388888888888889
5.86750096127e-06,0.24444444444444444
6.17414531724e-06,0.25
6.70332594321e-06,0.25555555555555554
6.80952145233e-06,0.2611111111111111
6.90751540226e-06,0.26666666666666666
7.14143796962e-06,0.2722222222222222
2.52444424949e-05,0.2777777777777778
5.04888849898e-05,0.2833333333333333
5.53443317608e-05,0.28888888888888886
5.53443317608e-05,0.29444444444444445
5.69785278029e-05,0.3
5.69785278029e-05,0.3055555555555556
8.62622095963e-05,0.3111111111111111
0.000113261741674,0.31666666666666665
0.000113957055606,0.32222222222222224
0.000151726012369,0.3277777777777778
0.000226744325889,0.3333333333333333
0.000235806698372,0.3388888888888889
0.000249712594715,0.34444444444444444
0.000249712594715,0.35
0.000318942136225,0.35555555555555557
0.000485650086337,0.3611111111111111
0.000493848067403,0.36666666666666664
0.000509634421436,0.37222222222222223
0.000549030988809,0.37777777777777777
0.000580879824724,0.38333333333333336
0.000580879824724,0.3888888888888889
0.00066237746295,0.39444444444444443
0.000700011837801,0.4
0.000752700447515,0.40555555555555556
0.000804708595832,0.4111111111111111
0.000999702279863,0.4166666666666667
0.00105699390217,0.4222222222222222
0.00111210782252,0.42777777777777776
0.00136722581428,0.43333333333333335
0.001605202405,0.4388888888888889
0.00168064339242,0.4444444444444444
0.00207529725829,0.45
0.00235097598675,0.45555555555555555
0.00418269566606,0.46111111111111114
0.00508862431401,0.4666666666666667
0.00532635863992,0.4722222222222222
0.00580276811097,0.4777777777777778
0.00594377317164,0.48333333333333334
0.00625343871885,0.4888888888888889
0.00632193137183,0.49444444444444446
0.00669520544934,0.5
0.00723086541527,0.5055555555555555
0.00727599977028,0.5111111111111111
0.00739538414551,0.5166666666666667
0.00750917729989,0.5222222222222223
0.00777721709137,0.5277777777777778
0.0296889025461,0.5333333333333333
0.0300954227408,0.5388888888888889
0.0369080821482,0.5444444444444444
0.0369245172089,0.55
0.0369289607842,0.5555555555555556
0.0369718160014,0.5611111111111111
0.0370017030221,0.5666666666666667
0.0370100135301,0.5722222222222222
0.0370469714494,0.5777777777777777
0.0371255777855,0.5833333333333334
0.0371267719214,0.5888888888888889
0.0371370180375,0.5944444444444444
0.0371614432151,0.6
0.0371994496418,0.6055555555555555
0.0372068547893,0.6111111111111112
0.037222442462,0.6166666666666667
0.0372479964409,0.6222222222222222
0.0372644216929,0.6277777777777778
0.0373106664055,0.6333333333333333
0.0373290502697,0.6388888888888888
0.0373464285467,0.6444444444444445
0.0373466759055,0.65
0.0373521088379,0.6555555555555556
0.0373726023309,0.6611111111111111
0.0373891744989,0.6666666666666666
0.0373975560076,0.6722222222222223
0.0374032190966,0.6777777777777778
0.0374037592395,0.6833333333333333
0.0374060546302,0.6888888888888889
0.0374118994073,0.6944444444444444
0.0374180946013,0.7
0.0374356179472,0.7055555555555556
0.0374463889209,0.7111111111111111
0.0374921377582,0.7166666666666667
0.0375232597803,0.7222222222222222
0.0375772495624,0.7277777777777777
0.0375880379418,0.7333333333333333
0.0375980513896,0.7388888888888889
0.0376216551975,0.7444444444444445
0.928169298034,0.75
0.928169298034,0.7555555555555555
1.23239386671,0.7611111111111111
1.43943805369,0.7666666666666667
1.8500851511,0.7722222222222223
1.8500851511,0.7777777777777778
1.85633859607,0.7833333333333333
1.87016095483,0.7888888888888889
1.87016095483,0.7944444444444444
2.46478773343,0.8
3.70100135301,0.8055555555555556
3.71255777855,0.8111111111111111
3.73891744989,0.8166666666666667
3.73975560076,0.8222222222222222
4.62062101893,0.8277777777777777
4.64431361954,0.8333333333333334
5.58475274166,0.8388888888888889
5.59010591901,0.8444444444444444
5.61614373503,0.85
5.90080847369,0.8555555555555555
5.90080847369,0.8611111111111112
7.45021512883,0.8666666666666667
7.48072691002,0.8722222222222222
8.32531816386,0.8777777777777778
9.33129585974,0.8833333333333333
9.6077741268,0.8888888888888888
9.64437026841,0.8944444444444445
12.0582231908,0.9
17.1213861023,0.9055555555555556
19.2014786789,0.9111111111111111
21.3855808163,0.9166666666666666
22.9151804827,0.9222222222222223
25.1433057726,0.9277777777777778
43.7771720479,0.9333333333333333
45.7141323365,0.9388888888888889
49.4762978562,0.9444444444444444
53.21150874,0.95
54.9620300314,0.9555555555555556
58.7143560095,0.9611111111111111
62.5366374056,0.9666666666666667
64.2866854068,0.9722222222222222
66.2274456205,0.9777777777777777
68.0131275761,0.9833333333333333
69.1963358751,0.9888888888888889
71.7379272202,0.9944444444444445
74.7474694942,1.0
