Congestion,CDF
0.0,0.005555555555555556
0.0,0.011111111111111112
0.0,0.016666666666666666
0.0,0.022222222222222223
0.0,0.027777777777777776
0.0,0.03333333333333333
0.0,0.03888888888888889
0.0,0.044444444444444446
0.0,0.05
0.0,0.05555555555555555
3.20550252393e-07,0.06111111111111111
3.68296823752e-07,0.06666666666666667
8.29005635664e-07,0.07222222222222222
1.21163995973e-06,0.07777777777777778
1.23980584601e-06,0.08333333333333333
1.63697051344e-06,0.08888888888888889
1.80088422198e-06,0.09444444444444444
2.48202911796e-06,0.1
2.49483403037e-06,0.10555555555555556
2.55244939822e-06,0.1111111111111111
2.60498173547e-06,0.11666666666666667
2.86755270016e-06,0.12222222222222222
2.93406489717e-06,0.12777777777777777
3.27645230711e-06,0.13333333333333333
3.35574540184e-06,0.1388888888888889
3.53364265221e-06,0.14444444444444443
4.08599917872e-06,0.15
4.47174725746e-06,0.15555555555555556
4.66940486559e-06,0.16111111111111112
4.8563730695e-06,0.16666666666666666
4.93321086193e-06,0.17222222222222222
4.97283107814e-06,0.17777777777777778
5.13758806525e-06,0.18333333333333332
5.31610945809e-06,0.18888888888888888
5.4058476583e-06,0.19444444444444445
5.46689694458e-06,0.2
5.49722731501e-06,0.20555555555555555
5.56035409862e-06,0.2111111111111111
5.61468881757e-06,0.21666666666666667
5.62700966156e-06,0.2222222222222222
5.81502250885e-06,0.22777777777777777
5.86353650768e-06,0.23333333333333334
5.93084625653e-06,0.2388888888888889
6.42278838882e-06,0.24444444444444444
6.75845289437e-06,0.25
7.33771401466e-06,0.25555555555555554
7.45395963394e-06,0.2611111111111111
7.56122751646e-06,0.26666666666666666
7.81728800277e-06,0.2722222222222222
2.76335211888e-05,0.2777777777777778
5.52670423776e-05,0.2833333333333333
6.05819979863e-05,0.28888888888888886
6.05819979863e-05,0.29444444444444445
6.23708507591e-05,0.3
6.23708507591e-05,0.3055555555555556
9.44258759984e-05,0.3111111111111111
0.000123980584601,0.31666666666666665
0.000124741701518,0.32222222222222224
0.000166085029548,0.3277777777777778
0.000248202911796,0.3333333333333333
0.000258122927342,0.3388888888888889
0.000273344847229,0.34444444444444444
0.000273344847229,0.35
0.000349126120775,0.35555555555555557
0.000531610945809,0.3611111111111111
0.00054058476583,0.36666666666666664
0.0005578651058,0.37222222222222223
0.00060099007794,0.37777777777777777
0.000635853017863,0.38333333333333336
0.000635853017863,0.3888888888888889
0.000725063413902,0.39444444444444443
0.000766259423482,0.4
0.00082393436771,0.40555555555555556
0.000880864453165,0.4111111111111111
0.00109431191197,0.4166666666666667
0.0011570254878,0.4222222222222222
0.00121735526875,0.42777777777777776
0.00149661706795,0.43333333333333335
0.0017571152415,0.4388888888888889
0.00183969579858,0.4444444444444444
0.0022716988411,0.45
0.00257346720005,0.45555555555555555
0.0045785368141,0.46111111111111114
0.00557020056321,0.4666666666666667
0.00583043354453,0.4722222222222222
0.00635192936348,0.4777777777777778
0.00650627883397,0.48333333333333334
0.00684525044968,0.4888888888888889
0.00692022509718,0.49444444444444446
0.00732882501505,0.5
0.00791517866582,0.5055555555555555
0.00796458443723,0.5111111111111111
0.00809526708801,0.5166666666666667
0.00821982937706,0.5222222222222223
0.00851323586677,0.5277777777777778
0.00885292963888,0.5333333333333333
0.00940489879959,0.5388888888888889
0.0202068317859,0.5444444444444444
0.0202266209552,0.55
0.0202337680012,0.5555555555555556
0.020302709129,0.5611111111111111
0.0203539724229,0.5666666666666667
0.0203641666783,0.5722222222222222
0.0204236125616,0.5777777777777777
0.0205500671755,0.5833333333333334
0.0205519863417,0.5888888888888889
0.020568469159,0.5944444444444444
0.0206077614339,0.6
0.0206689202662,0.6055555555555555
0.020680815091,0.6111111111111112
0.0207064271069,0.6166666666666667
0.0207510915173,0.6222222222222222
0.0207774820628,0.6277777777777778
0.0208478161318,0.6333333333333333
0.0208773916176,0.6388888888888888
0.0209053562377,0.6444444444444445
0.0209114849874,0.65
0.020915312616,0.6555555555555556
0.0209474527986,0.6611111111111111
0.0209741330665,0.6666666666666666
0.0209875956699,0.6722222222222223
0.0209967154449,0.6777777777777778
0.0210012683223,0.6833333333333333
0.0210027504984,0.6888888888888889
0.0210106874074,0.6944444444444444
0.0210206567203,0.7
0.0210488256027,0.7055555555555556
0.021066154662,0.7111111111111111
0.0211397578738,0.7166666666666667
0.0211898844565,0.7222222222222222
0.0212766739165,0.7277777777777777
0.021294044204,0.7333333333333333
0.0213101313625,0.7388888888888889
0.0213482314671,0.7444444444444445
0.513799658542,0.75
0.513799658542,0.7555555555555555
0.676756970967,0.7611111111111111
0.788304855191,0.7666666666666667
1.01769862115,0.7722222222222223
1.01769862115,0.7777777777777778
1.02759931708,0.7833333333333333
1.04983577224,0.7888888888888889
1.04983577224,0.7944444444444444
1.35351394193,0.8
2.03641666783,0.8055555555555556
2.05500671755,0.8111111111111111
2.09741330665,0.8166666666666667
2.09875956699,0.8222222222222222
2.53646175406,0.8277777777777777
2.57457580193,0.8333333333333334
3.10884711989,0.8388888888888889
3.11672779887,0.8444444444444444
3.15861245333,0.85
3.29010395218,0.8555555555555555
3.29010395218,0.8611111111111112
4.15039245521,0.8666666666666667
4.19947897868,0.8722222222222222
4.57882301022,0.8777777777777778
5.2177965396,0.8833333333333333
5.33611438608,0.8888888888888888
5.39498651245,0.8944444444444445
6.66656217198,0.9
9.58849135931,0.9055555555555556
10.6495951384,0.9111111111111111
11.878020128,0.9166666666666666
12.7064420543,0.9222222222222223
14.0056875196,0.9277777777777778
24.3950602458,0.9333333333333333
25.5523674583,0.9388888888888889
27.687190605,0.9444444444444444
29.7787218666,0.95
30.6359883248,0.9555555555555556
32.7549767704,0.9611111111111111
34.9878440363,0.9666666666666667
35.8433181023,0.9722222222222222
37.0085272149,0.9777777777777777
37.8938201788,0.9833333333333333
37.9210663086,0.9888888888888889
39.9961754603,0.9944444444444445
40.9366653402,1.0
