Congestion,CDF
0.0,0.005555555555555556
0.0,0.011111111111111112
0.0,0.016666666666666666
0.0,0.022222222222222223
0.0,0.027777777777777776
0.0,0.03333333333333333
0.0,0.03888888888888889
0.0,0.044444444444444446
0.0,0.05
0.0,0.05555555555555555
3.11344693337e-07,0.06111111111111111
3.57720079121e-07,0.06666666666666667
8.05198259818e-07,0.07222222222222222
1.17684409505e-06,0.07777777777777778
1.20420111368e-06,0.08333333333333333
1.58996001003e-06,0.08888888888888889
1.74916644627e-06,0.09444444444444444
2.41075022969e-06,0.1
2.42318741075e-06,0.10555555555555556
2.47914818103e-06,0.1111111111111111
2.53017189513e-06,0.11666666666666667
2.78520234938e-06,0.12222222222222222
2.84980444976e-06,0.12777777777777777
3.18235918137e-06,0.13333333333333333
3.25937513777e-06,0.1388888888888889
3.43216353662e-06,0.14444444444444443
3.96865749373e-06,0.15
4.34332766287e-06,0.15555555555555556
4.53530894172e-06,0.16111111111111112
4.71690779455e-06,0.16666666666666666
4.79153895999e-06,0.17222222222222222
4.83002136322e-06,0.17777777777777778
4.99004686076e-06,0.18333333333333332
5.16344147797e-06,0.18888888888888888
5.25060257741e-06,0.19444444444444445
5.30989865088e-06,0.2
5.33935799402e-06,0.20555555555555555
5.40067190326e-06,0.2111111111111111
5.45344623829e-06,0.21666666666666667
5.46541325239e-06,0.2222222222222222
5.64802674855e-06,0.22777777777777777
5.69514752283e-06,0.23333333333333334
5.76052427096e-06,0.2388888888888889
6.23833881384e-06,0.24444444444444444
6.56436370937e-06,0.25
7.12698961438e-06,0.25555555555555554
7.2398968931e-06,0.2611111111111111
7.3440842576e-06,0.26666666666666666
7.59279120134e-06,0.2722222222222222
2.68399419939e-05,0.2777777777777778
5.36798839878e-05,0.2833333333333333
5.88422047527e-05,0.28888888888888886
5.88422047527e-05,0.29444444444444445
6.05796852688e-05,0.3
6.05796852688e-05,0.3055555555555556
9.17141546026e-05,0.3111111111111111
0.000120420111368,0.31666666666666665
0.000121159370538,0.32222222222222224
0.000161315401272,0.3277777777777778
0.000241075022969,0.3333333333333333
0.000250710155606,0.3388888888888889
0.000265494932544,0.34444444444444444
0.000265494932544,0.35
0.000339099920207,0.35555555555555557
0.000516344147797,0.3611111111111111
0.000525060257741,0.36666666666666664
0.000541844341075,0.37222222222222223
0.000583730850681,0.37777777777777777
0.000617592597032,0.38333333333333336
0.000617592597032,0.3888888888888889
0.000704241049777,0.39444444444444443
0.000744253992752,0.4
0.000800272628488,0.40555555555555556
0.000855567796298,0.4111111111111111
0.00106288547304,0.4166666666666667
0.00112379804101,0.4222222222222222
0.00118239527189,0.42777777777777776
0.00145363723343,0.43333333333333335
0.00170665442294,0.4388888888888889
0.00178686343239,0.4444444444444444
0.0022064602157,0.45
0.00249956239383,0.45555555555555555
0.00444705043805,0.46111111111111114
0.00541023559718,0.4666666666666667
0.00566299521026,0.4722222222222222
0.00616951471731,0.4777777777777778
0.00631943158119,0.48333333333333334
0.00664866861331,0.4888888888888889
0.00672149013961,0.49444444444444446
0.00711835588898,0.5
0.00768787064126,0.5055555555555555
0.00773585757822,0.5111111111111111
0.00786278728589,0.5166666666666667
0.00798377239632,0.5222222222222223
0.00826875284129,0.5277777777777778
0.0132299212448,0.5333333333333333
0.0137697134223,0.5388888888888889
0.0237968047098,0.5444444444444444
0.023804741581,0.55
0.0238113093118,0.5555555555555556
0.0238746606017,0.5611111111111111
0.0239214200916,0.5666666666666667
0.0239311338619,0.5722222222222222
0.0239857608947,0.5777777777777777
0.0241019623062,0.5833333333333334
0.0241037261087,0.5888888888888889
0.0241188724901,0.5944444444444444
0.0241549789584,0.6
0.0242111765622,0.6055555555555555
0.0242221093121,0.6111111111111112
0.0242455832469,0.6166666666666667
0.0242960497029,0.6222222222222222
0.0243107269922,0.6277777777777778
0.0243755697619,0.6333333333333333
0.0244027470431,0.6388888888888888
0.0244284431712,0.6444444444444445
0.0244334588625,0.65
0.0244374986065,0.6555555555555556
0.0244671276984,0.6611111111111111
0.0244916419472,0.6666666666666666
0.0245040157423,0.6722222222222223
0.0245123947994,0.6777777777777778
0.0245165796744,0.6833333333333333
0.0245176737169,0.6888888888888889
0.02452523284,0.6944444444444444
0.0245343934141,0.7
0.0245602811051,0.7055555555555556
0.0245762048605,0.7111111111111111
0.02464383928,0.7166666666666667
0.0246898937731,0.7222222222222222
0.0247696544136,0.7277777777777777
0.0247856143129,0.7333333333333333
0.0248003999397,0.7388888888888889
0.0248353942736,0.7444444444444445
0.602593152719,0.75
0.602593152719,0.7555555555555555
0.795822020055,0.7611111111111111
0.927698710636,0.7666666666666667
1.19607100458,0.7722222222222223
1.19607100458,0.7777777777777778
1.20518630544,0.7833333333333333
1.22561973997,0.7888888888888889
1.22561973997,0.7944444444444444
1.59164404011,0.8
2.39311338619,0.8055555555555556
2.41019623062,0.8111111111111111
2.44916419472,0.8166666666666667
2.45040157423,0.8222222222222222
2.98306731082,0.8277777777777777
3.01809104856,0.8333333333333334
3.63941689083,0.8388888888888889
3.64673739619,0.8444444444444444
3.68522629941,0.85
3.84954063536,0.8555555555555555
3.84954063536,0.8611111111111112
4.85749731419,0.8666666666666667
4.90260353613,0.8722222222222222
5.38164340028,0.8777777777777778
6.09926068019,0.8833333333333333
6.2514700448,0.8888888888888888
6.30556874587,0.8944444444444445
7.82191810459,0.9
11.2026830899,0.9055555555555556
12.4821416113,0.9111111111111111
13.9153545612,0.9166666666666666
14.8940288604,0.9222222222222223
16.3923200026,0.9277777777777778
28.5483699177,0.9333333333333333
29.8727456502,0.9388888888888889
32.3562850776,0.9444444444444444
34.8000349382,0.95
35.8487115491,0.9555555555555556
38.3177009264,0.9611111111111111
40.8912192007,0.9666666666666667
41.9383302556,0.9722222222222222
43.2708996717,0.9777777777777777
44.3694029548,0.9833333333333333
44.5938917962,0.9888888888888889
46.7990079251,0.9944444444444445
48.1759792674,1.0
