Congestion,CDF
0.0213463296804,0.005555555555555556
0.0213463296804,0.011111111111111112
0.0215063707756,0.016666666666666666
0.0215063707756,0.022222222222222223
0.0218192909923,0.027777777777777776
0.0218192909923,0.03333333333333333
0.0218287901714,0.03888888888888889
0.0218287901714,0.044444444444444446
0.0219036201418,0.05
0.0219036201418,0.05555555555555555
0.0220424202816,0.06111111111111111
0.0220424202816,0.06666666666666667
0.0221254938033,0.07222222222222222
0.0221254938033,0.07777777777777778
0.0221390435592,0.08333333333333333
0.0221390435592,0.08888888888888889
0.0224922982714,0.09444444444444444
0.0224922982714,0.1
0.0225560553355,0.10555555555555556
0.0225560553355,0.1111111111111111
0.0226710265316,0.11666666666666667
0.0226710265316,0.12222222222222222
0.0226928636337,0.12777777777777777
0.0226928636337,0.13333333333333333
0.0228023724917,0.1388888888888889
0.0228023724917,0.14444444444444443
0.0229200905937,0.15
0.0229200905937,0.15555555555555556
0.0229545045978,0.16111111111111112
0.0229545045978,0.16666666666666666
0.023200073933,0.17222222222222222
0.023200073933,0.17777777777777778
0.0234297761435,0.18333333333333332
0.0234297761435,0.18888888888888888
0.0234922482723,0.19444444444444445
0.0234922482723,0.2
0.0234937335081,0.20555555555555555
0.0234937335081,0.2111111111111111
0.0235162020352,0.21666666666666667
0.0235162020352,0.2222222222222222
0.0235397815828,0.22777777777777777
0.0235397815828,0.23333333333333334
0.0235514917659,0.2388888888888889
0.0235514917659,0.24444444444444444
0.0236213115455,0.25
0.0236213115455,0.25555555555555554
0.0237650504293,0.2611111111111111
0.0237650504293,0.26666666666666666
0.0242102790892,0.2722222222222222
0.0242102790892,0.2777777777777778
0.0247083416132,0.2833333333333333
0.0247083416132,0.28888888888888886
0.0249421842125,0.29444444444444445
0.0249421842125,0.3
0.0255350849695,0.3055555555555556
0.0255350849695,0.3111111111111111
0.025610333004,0.31666666666666665
0.025610333004,0.32222222222222224
0.0256592269373,0.3277777777777778
0.0256592269373,0.3333333333333333
0.0256948614616,0.3388888888888889
0.0256948614616,0.34444444444444444
0.0258470178025,0.35
0.0258470178025,0.35555555555555557
0.0260141136628,0.3611111111111111
0.0260141136628,0.36666666666666664
0.0260739776176,0.37222222222222223
0.0260739776176,0.37777777777777777
0.0261432344509,0.38333333333333336
0.0261432344509,0.3888888888888889
0.0263567252183,0.39444444444444443
0.0263567252183,0.4
0.0263682811312,0.40555555555555556
0.0263682811312,0.4111111111111111
0.0263953072006,0.4166666666666667
0.0263953072006,0.4222222222222222
0.0266146840315,0.42777777777777776
0.0266146840315,0.43333333333333335
0.0270180646586,0.4388888888888889
0.0270180646586,0.4444444444444444
0.641549715219,0.45
0.641549715219,0.45555555555555555
0.744299108491,0.46111111111111114
0.744299108491,0.4666666666666667
0.777303941406,0.4722222222222222
0.777303941406,0.4777777777777778
0.801609978039,0.48333333333333334
0.801609978039,0.4888888888888889
1.3586754258,0.49444444444444446
1.3586754258,0.5
1.64103350005,0.5055555555555555
1.64103350005,0.5111111111111111
1.99244487258,0.5166666666666667
1.99244487258,0.5222222222222223
2.03997355984,0.5277777777777778
2.03997355984,0.5333333333333333
2.4502656284,0.5388888888888889
2.4502656284,0.5444444444444444
2.77107540432,0.55
2.77107540432,0.5555555555555556
2.8622100194,0.5611111111111111
2.8622100194,0.5666666666666667
2.90736464091,0.5722222222222222
2.90736464091,0.5777777777777777
2.92367845463,0.5833333333333334
2.92367845463,0.5888888888888889
2.97337084585,0.5944444444444444
2.97337084585,0.6
3.01358547186,0.6055555555555555
3.01358547186,0.6111111111111112
3.15426893212,0.6166666666666667
3.15426893212,0.6222222222222222
3.26327817248,0.6277777777777778
3.26327817248,0.6333333333333333
3.30246105551,0.6388888888888888
3.30246105551,0.6444444444444445
3.41294484138,0.65
3.41294484138,0.6555555555555556
3.54174127068,0.6611111111111111
3.54174127068,0.6666666666666666
3.55758040201,0.6722222222222223
3.55758040201,0.6777777777777778
3.69385083126,0.6833333333333333
3.69385083126,0.6888888888888889
3.73201274658,0.6944444444444444
3.73201274658,0.7
3.91565775739,0.7055555555555556
3.91565775739,0.7111111111111111
4.05997634412,0.7166666666666667
4.05997634412,0.7222222222222222
4.12615393931,0.7277777777777777
4.12615393931,0.7333333333333333
4.47443859724,0.7388888888888889
4.47443859724,0.7444444444444445
5.38048926425,0.75
5.38048926425,0.7555555555555555
5.51862772235,0.7611111111111111
5.51862772235,0.7666666666666667
5.55895148744,0.7722222222222223
5.55895148744,0.7777777777777778
5.91410239137,0.7833333333333333
5.91410239137,0.7888888888888889
6.0181253551,0.7944444444444444
6.0181253551,0.8
6.05063949054,0.8055555555555556
6.05063949054,0.8111111111111111
6.51028678666,0.8166666666666667
6.51028678666,0.8222222222222222
6.81649755038,0.8277777777777777
6.81649755038,0.8333333333333334
6.90199942166,0.8388888888888889
6.90199942166,0.8444444444444444
7.50170514421,0.85
7.50170514421,0.8555555555555555
8.2500511923,0.8611111111111112
8.2500511923,0.8666666666666667
8.2756974226,0.8722222222222222
8.2756974226,0.8777777777777778
9.15061852831,0.8833333333333333
9.15061852831,0.8888888888888888
9.18645664259,0.8944444444444445
9.18645664259,0.9
9.97307331877,0.9055555555555556
9.97307331877,0.9111111111111111
10.3245491047,0.9166666666666666
10.3245491047,0.9222222222222223
10.9161499177,0.9277777777777778
10.9161499177,0.9333333333333333
11.9378049527,0.9388888888888889
11.9378049527,0.9444444444444444
12.0389426672,0.95
12.0389426672,0.9555555555555556
12.4491015051,0.9611111111111111
12.4491015051,0.9666666666666667
13.5869769068,0.9722222222222222
13.5869769068,0.9777777777777777
14.7561155937,0.9833333333333333
14.7561155937,0.9888888888888889
15.3362099174,0.9944444444444445
15.3362099174,1.0
