Congestion,CDF
0.0203694645544,0.005555555555555556
0.0203694645544,0.011111111111111112
0.0205349485712,0.016666666666666666
0.0205349485712,0.022222222222222223
0.0208163492061,0.027777777777777776
0.0208163492061,0.03333333333333333
0.0208192758526,0.03888888888888889
0.0208192758526,0.044444444444444446
0.0208974162291,0.05
0.0208974162291,0.05555555555555555
0.0210150276637,0.06111111111111111
0.0210150276637,0.06666666666666667
0.0210829203453,0.07222222222222222
0.0210829203453,0.07777777777777778
0.0211714649853,0.08333333333333333
0.0211714649853,0.08888888888888889
0.0213442661753,0.09444444444444444
0.0213442661753,0.1
0.0214146421184,0.10555555555555556
0.0214146421184,0.1111111111111111
0.0215615342085,0.11666666666666667
0.0215615342085,0.12222222222222222
0.0216927698951,0.12777777777777777
0.0216927698951,0.13333333333333333
0.0217553643989,0.1388888888888889
0.0217553643989,0.14444444444444443
0.0217738965439,0.15
0.0217738965439,0.15555555555555556
0.0219077994388,0.16111111111111112
0.0219077994388,0.16666666666666666
0.0221779942943,0.17222222222222222
0.0221779942943,0.17777777777777778
0.0222821725452,0.18333333333333332
0.0222821725452,0.18888888888888888
0.022287886259,0.19444444444444445
0.022287886259,0.2
0.0223705298747,0.20555555555555555
0.0223705298747,0.2111111111111111
0.0223824774052,0.21666666666666667
0.0223824774052,0.2222222222222222
0.0223991579166,0.22777777777777777
0.0223991579166,0.23333333333333334
0.0224047854982,0.2388888888888889
0.0224047854982,0.24444444444444444
0.0224083130193,0.25
0.0224083130193,0.25555555555555554
0.0225921961733,0.2611111111111111
0.0225921961733,0.26666666666666666
0.0230277415633,0.2722222222222222
0.0230277415633,0.2777777777777778
0.0235305934689,0.2833333333333333
0.0235305934689,0.28888888888888886
0.0238169854371,0.29444444444444445
0.0238169854371,0.3
0.0243951235107,0.3055555555555556
0.0243951235107,0.3111111111111111
0.0245104891095,0.31666666666666665
0.0245104891095,0.32222222222222224
0.0245564943957,0.3277777777777778
0.0245564943957,0.3333333333333333
0.0245932555272,0.3388888888888889
0.0245932555272,0.34444444444444444
0.0247129871389,0.35
0.0247129871389,0.35555555555555557
0.0248604763595,0.3611111111111111
0.0248604763595,0.36666666666666664
0.0249889185024,0.37222222222222223
0.0249889185024,0.37777777777777777
0.0250076236751,0.38333333333333336
0.0250076236751,0.3888888888888889
0.0252355392266,0.39444444444444443
0.0252355392266,0.4
0.0252591954978,0.40555555555555556
0.0252591954978,0.4111111111111111
0.0252657398865,0.4166666666666667
0.0252657398865,0.4222222222222222
0.0254856901614,0.42777777777777776
0.0254856901614,0.43333333333333335
0.0258459229639,0.4388888888888889
0.0258459229639,0.4444444444444444
0.607303546401,0.45
0.607303546401,0.45555555555555555
0.704369231878,0.46111111111111114
0.704369231878,0.4666666666666667
0.743001811006,0.4722222222222222
0.743001811006,0.4777777777777778
0.760813939275,0.48333333333333334
0.760813939275,0.4888888888888889
1.2950405119,0.49444444444444446
1.2950405119,0.5
1.561361299,0.5055555555555555
1.561361299,0.5111111111111111
1.896002646,0.5166666666666667
1.896002646,0.5222222222222223
1.94115369775,0.5277777777777778
1.94115369775,0.5333333333333333
2.32600163622,0.5388888888888889
2.32600163622,0.5444444444444444
2.64751821472,0.55
2.64751821472,0.5555555555555556
2.72912156159,0.5611111111111111
2.72912156159,0.5666666666666667
2.78012118754,0.5722222222222222
2.78012118754,0.5777777777777777
2.79309929814,0.5833333333333334
2.79309929814,0.5888888888888889
2.83637498877,0.5944444444444444
2.83637498877,0.6
2.88175888626,0.6055555555555555
2.88175888626,0.6111111111111112
2.99877058954,0.6166666666666667
2.99877058954,0.6222222222222222
3.11412317281,0.6277777777777778
3.11412317281,0.6333333333333333
3.13912028482,0.6388888888888888
3.13912028482,0.6444444444444445
3.26235845803,0.65
3.26235845803,0.6555555555555556
3.36908031765,0.6611111111111111
3.36908031765,0.6666666666666666
3.39943699945,0.6722222222222223
3.39943699945,0.6777777777777778
3.51248771615,0.6833333333333333
3.51248771615,0.6888888888888889
3.56804763828,0.6944444444444444
3.56804763828,0.7
3.74965073581,0.7055555555555556
3.74965073581,0.7111111111111111
3.87718967007,0.7166666666666667
3.87718967007,0.7222222222222222
3.92353391707,0.7277777777777777
3.92353391707,0.7333333333333333
4.28434510327,0.7388888888888889
4.28434510327,0.7444444444444445
5.1569796064,0.75
5.1569796064,0.7555555555555555
5.28694678452,0.7611111111111111
5.28694678452,0.7666666666666667
5.33281336639,0.7722222222222223
5.33281336639,0.7777777777777778
5.67695362767,0.7833333333333333
5.67695362767,0.7888888888888889
5.75614288687,0.7944444444444444
5.75614288687,0.8
5.78410681283,0.8055555555555556
5.78410681283,0.8111111111111111
6.24793296533,0.8166666666666667
6.24793296533,0.8222222222222222
6.53637214052,0.8277777777777777
6.53637214052,0.8333333333333334
6.6073905782,0.8388888888888889
6.6073905782,0.8444444444444444
7.19627211257,0.85
7.19627211257,0.8555555555555555
7.88624353994,0.8611111111111112
7.88624353994,0.8666666666666667
7.95176407837,0.8722222222222222
7.95176407837,0.8777777777777778
8.79405820109,0.8833333333333333
8.79405820109,0.8888888888888888
8.81981663076,0.8944444444444445
8.81981663076,0.9
9.58576170573,0.9055555555555556
9.58576170573,0.9111111111111111
9.90631250538,0.9166666666666666
9.90631250538,0.9222222222222223
10.4988885397,0.9277777777777778
10.4988885397,0.9333333333333333
11.4705688154,0.9388888888888889
11.4705688154,0.9444444444444444
11.5495316748,0.95
11.5495316748,0.9555555555555556
11.9433370599,0.9611111111111111
11.9433370599,0.9666666666666667
13.0686053584,0.9722222222222222
13.0686053584,0.9777777777777777
14.1946632936,0.9833333333333333
14.1946632936,0.9888888888888889
14.7433034282,0.9944444444444445
14.7433034282,1.0
