Congestion,CDF
0.0179333021601,0.005555555555555556
0.0179333021601,0.011111111111111112
0.0181127023302,0.016666666666666666
0.0181127023302,0.022222222222222223
0.0182276479415,0.027777777777777776
0.0182276479415,0.03333333333333333
0.0183777816913,0.03888888888888889
0.0183777816913,0.044444444444444446
0.0183786117337,0.05
0.0183786117337,0.05555555555555555
0.0183948980555,0.06111111111111111
0.0183948980555,0.06666666666666667
0.0184732493083,0.07222222222222222
0.0184732493083,0.07777777777777778
0.018694298693,0.08333333333333333
0.018694298693,0.08888888888888889
0.0187742257322,0.09444444444444444
0.0187742257322,0.1
0.0188323557567,0.10555555555555556
0.0188323557567,0.1111111111111111
0.0188979440396,0.11666666666666667
0.0188979440396,0.12222222222222222
0.0189083128717,0.12777777777777777
0.0189083128717,0.13333333333333333
0.0189174085083,0.1388888888888889
0.0189174085083,0.14444444444444443
0.0192538692212,0.15
0.0192538692212,0.15555555555555556
0.0193867103986,0.16111111111111112
0.0193867103986,0.16666666666666666
0.0194024158975,0.17222222222222222
0.0194024158975,0.17777777777777778
0.0194108726843,0.18333333333333332
0.0194108726843,0.18888888888888888
0.0194781689147,0.19444444444444445
0.0194781689147,0.2
0.0195392728608,0.20555555555555555
0.0195392728608,0.2111111111111111
0.0196108864409,0.21666666666666667
0.0196108864409,0.2222222222222222
0.019637001774,0.22777777777777777
0.019637001774,0.23333333333333334
0.0196590602692,0.2388888888888889
0.0196590602692,0.24444444444444444
0.0197252586702,0.25
0.0197252586702,0.25555555555555554
0.01972919484,0.2611111111111111
0.01972919484,0.26666666666666666
0.0201237696406,0.2722222222222222
0.0201237696406,0.2777777777777778
0.0207126070943,0.2833333333333333
0.0207126070943,0.28888888888888886
0.0210486000063,0.29444444444444445
0.0210486000063,0.3
0.0216120424916,0.3055555555555556
0.0216120424916,0.3111111111111111
0.0217690115419,0.31666666666666665
0.0217690115419,0.32222222222222224
0.0218110557748,0.3277777777777778
0.0218110557748,0.3333333333333333
0.0218460912307,0.3388888888888889
0.0218460912307,0.34444444444444444
0.0219547518812,0.35
0.0219547518812,0.35555555555555557
0.022002577072,0.3611111111111111
0.022002577072,0.36666666666666664
0.0221084304139,0.37222222222222223
0.0221084304139,0.37777777777777777
0.0224104946584,0.38333333333333336
0.0224104946584,0.3888888888888889
0.0224276716395,0.39444444444444443
0.0224276716395,0.4
0.0224348230424,0.40555555555555556
0.0224348230424,0.4111111111111111
0.0225798680881,0.4166666666666667
0.0225798680881,0.4222222222222222
0.0226548929142,0.42777777777777776
0.0226548929142,0.43333333333333335
0.0230496472965,0.4388888888888889
0.0230496472965,0.4444444444444444
0.525777317946,0.45
0.525777317946,0.45555555555555555
0.609316747705,0.46111111111111114
0.609316747705,0.4666666666666667
0.657589491272,0.4722222222222222
0.657589491272,0.4777777777777778
0.669601687611,0.48333333333333334
0.669601687611,0.4888888888888889
1.14375153787,0.49444444444444446
1.14375153787,0.5
1.37669850802,0.5055555555555555
1.37669850802,0.5111111111111111
1.65755366646,0.5166666666666667
1.65755366646,0.5222222222222223
1.69314428006,0.5277777777777778
1.69314428006,0.5333333333333333
2.0187053875,0.5388888888888889
2.0187053875,0.5444444444444444
2.34434900623,0.55
2.34434900623,0.5555555555555556
2.40064754737,0.5611111111111111
2.40064754737,0.5666666666666667
2.4637687459,0.5722222222222222
2.4637687459,0.5777777777777777
2.46564373601,0.5833333333333334
2.46564373601,0.5888888888888889
2.49879780216,0.5944444444444444
2.49879780216,0.6
2.55713363917,0.6055555555555555
2.55713363917,0.6111111111111112
2.61352129627,0.6166666666666667
2.61352129627,0.6222222222222222
2.73572952832,0.6277777777777778
2.73572952832,0.6333333333333333
2.74739782412,0.6388888888888888
2.74739782412,0.6444444444444445
2.89174479846,0.65
2.89174479846,0.6555555555555556
2.94711316956,0.6611111111111111
2.94711316956,0.6666666666666666
3.00305639493,0.6722222222222223
3.00305639493,0.6777777777777778
3.0646845261,0.6833333333333333
3.0646845261,0.6888888888888889
3.16524465106,0.6944444444444444
3.16524465106,0.7
3.33917989178,0.7055555555555556
3.33917989178,0.7111111111111111
3.42488314951,0.7166666666666667
3.42488314951,0.7222222222222222
3.42648655546,0.7277777777777777
3.42648655546,0.7333333333333333
3.81494036323,0.7388888888888889
3.81494036323,0.7444444444444445
4.59856225944,0.75
4.59856225944,0.7555555555555555
4.70720351421,0.7611111111111111
4.70720351421,0.7666666666666667
4.76776253282,0.7722222222222223
4.76776253282,0.7777777777777778
5.0845278443,0.7833333333333333
5.0845278443,0.7888888888888889
5.10391569092,0.7944444444444444
5.10391569092,0.8
5.12087199616,0.8055555555555556
5.12087199616,0.8111111111111111
5.59190287615,0.8166666666666667
5.59190287615,0.8222222222222222
5.83597732975,0.8277777777777777
5.83597732975,0.8333333333333334
5.868398037,0.8388888888888889
5.868398037,0.8444444444444444
6.43105708083,0.85
6.43105708083,0.8555555555555555
6.982398577,0.8611111111111112
6.982398577,0.8666666666666667
7.14143210391,0.8722222222222222
7.14143210391,0.8777777777777778
7.90191495927,0.8833333333333333
7.90191495927,0.8888888888888888
7.90247445928,0.8944444444444445
7.90247445928,0.9
8.61682613925,0.9055555555555556
8.61682613925,0.9111111111111111
8.86088521885,0.9166666666666666
8.86088521885,0.9222222222222223
9.45447009404,0.9277777777777778
9.45447009404,0.9333333333333333
10.3044021452,0.9388888888888889
10.3044021452,0.9444444444444444
10.3259740785,0.95
10.3259740785,0.9555555555555556
10.6780052398,0.9611111111111111
10.6780052398,0.9666666666666667
11.7795451295,0.9722222222222222
11.7795451295,0.9777777777777777
12.7968519556,0.9833333333333333
12.7968519556,0.9888888888888889
13.26564894,0.9944444444444445
13.26564894,1.0
