Congestion,CDF
0.00817246517064,0.005555555555555556
0.00817246517064,0.011111111111111112
0.00848010620134,0.016666666666666666
0.00848010620134,0.022222222222222223
0.00856215174712,0.027777777777777776
0.00856215174712,0.03333333333333333
0.00871829560873,0.03888888888888889
0.00871829560873,0.044444444444444446
0.00891153380771,0.05
0.00891153380771,0.05555555555555555
0.00900787213408,0.06111111111111111
0.00900787213408,0.06666666666666667
0.00908288278881,0.07222222222222222
0.00908288278881,0.07777777777777778
0.0091910505111,0.08333333333333333
0.0091910505111,0.08888888888888889
0.00926722148621,0.09444444444444444
0.00926722148621,0.1
0.00931477449468,0.10555555555555556
0.00931477449468,0.1111111111111111
0.00936693080917,0.11666666666666667
0.00936693080917,0.12222222222222222
0.00939271146188,0.12777777777777777
0.00939271146188,0.13333333333333333
0.00946886069727,0.1388888888888889
0.00946886069727,0.14444444444444443
0.00946897244123,0.15
0.00946897244123,0.15555555555555556
0.00950610364129,0.16111111111111112
0.00950610364129,0.16666666666666666
0.00951505330307,0.17222222222222222
0.00951505330307,0.17777777777777778
0.00962706359381,0.18333333333333332
0.00962706359381,0.18888888888888888
0.00962754752305,0.19444444444444445
0.00962754752305,0.2
0.00974777243238,0.20555555555555555
0.00974777243238,0.2111111111111111
0.00978513728888,0.21666666666666667
0.00978513728888,0.2222222222222222
0.00985299014145,0.22777777777777777
0.00985299014145,0.23333333333333334
0.00993411957778,0.2388888888888889
0.00993411957778,0.24444444444444444
0.0100919161463,0.25
0.0100919161463,0.25555555555555554
0.0103159063976,0.2611111111111111
0.0103159063976,0.26666666666666666
0.0103376760315,0.2722222222222222
0.0103376760315,0.2777777777777778
0.0104599155744,0.2833333333333333
0.0104599155744,0.28888888888888886
0.0109825410317,0.29444444444444445
0.0109825410317,0.3
0.0113755601674,0.3055555555555556
0.0113755601674,0.3111111111111111
0.0115070239231,0.31666666666666665
0.0115070239231,0.32222222222222224
0.0115944212114,0.3277777777777778
0.0115944212114,0.3333333333333333
0.011733910392,0.3388888888888889
0.011733910392,0.34444444444444444
0.0117945206567,0.35
0.0117945206567,0.35555555555555557
0.0118284894057,0.3611111111111111
0.0118284894057,0.36666666666666664
0.0118546395503,0.37222222222222223
0.0118546395503,0.37777777777777777
0.011869572379,0.38333333333333336
0.011869572379,0.3888888888888889
0.0121505574495,0.39444444444444443
0.0121505574495,0.4
0.0121799439266,0.40555555555555556
0.0121799439266,0.4111111111111111
0.0122913067104,0.4166666666666667
0.0122913067104,0.4222222222222222
0.0126842164992,0.42777777777777776
0.0126842164992,0.43333333333333335
0.0127741143999,0.4388888888888889
0.0127741143999,0.4444444444444444
0.244332314253,0.45
0.244332314253,0.45555555555555555
0.293362671793,0.46111111111111114
0.293362671793,0.4666666666666667
0.348616925609,0.4722222222222222
0.348616925609,0.4777777777777778
0.352175847797,0.48333333333333334
0.352175847797,0.4888888888888889
0.61651608578,0.49444444444444446
0.61651608578,0.5
0.704165125471,0.5055555555555555
0.704165125471,0.5111111111111111
0.775599466017,0.5166666666666667
0.775599466017,0.5222222222222223
0.796276824622,0.5277777777777778
0.796276824622,0.5333333333333333
0.917477724338,0.5388888888888889
0.917477724338,0.5444444444444444
1.11293850149,0.55
1.11293850149,0.5555555555555556
1.18291027537,0.5611111111111111
1.18291027537,0.5666666666666667
1.23334483214,0.5722222222222222
1.23334483214,0.5777777777777777
1.23670536442,0.5833333333333334
1.23670536442,0.5888888888888889
1.26267897738,0.5944444444444444
1.26267897738,0.6
1.27868142643,0.6055555555555555
1.27868142643,0.6111111111111112
1.32260476335,0.6166666666666667
1.32260476335,0.6222222222222222
1.33665555149,0.6277777777777778
1.33665555149,0.6333333333333333
1.39161677497,0.6388888888888888
1.39161677497,0.6444444444444445
1.40225199721,0.65
1.40225199721,0.6555555555555556
1.45473183493,0.6611111111111111
1.45473183493,0.6666666666666666
1.47728440619,0.6722222222222223
1.47728440619,0.6777777777777778
1.53388197526,0.6833333333333333
1.53388197526,0.6888888888888889
1.57646397274,0.6944444444444444
1.57646397274,0.7
1.6510511952,0.7055555555555556
1.6510511952,0.7111111111111111
1.67574923406,0.7166666666666667
1.67574923406,0.7222222222222222
1.83776014318,0.7277777777777777
1.83776014318,0.7333333333333333
2.06612293389,0.7388888888888889
2.06612293389,0.7444444444444445
2.47709244698,0.75
2.47709244698,0.7555555555555555
2.5126817146,0.7611111111111111
2.5126817146,0.7666666666666667
2.62582843844,0.7722222222222223
2.62582843844,0.7777777777777778
2.64469377272,0.7833333333333333
2.64469377272,0.7888888888888889
2.77513601876,0.7944444444444444
2.77513601876,0.8
2.87115386023,0.8055555555555556
2.87115386023,0.8111111111111111
3.02157300892,0.8166666666666667
3.02157300892,0.8222222222222222
3.11438974747,0.8277777777777777
3.11438974747,0.8333333333333334
3.20654254374,0.8388888888888889
3.20654254374,0.8444444444444444
3.50295249771,0.85
3.50295249771,0.8555555555555555
3.65148171682,0.8611111111111112
3.65148171682,0.8666666666666667
4.06861663263,0.8722222222222222
4.06861663263,0.8777777777777778
4.3922394873,0.8833333333333333
4.3922394873,0.8888888888888888
4.53871198097,0.8944444444444445
4.53871198097,0.9
4.81157265719,0.9055555555555556
4.81157265719,0.9111111111111111
4.92645055935,0.9166666666666666
4.92645055935,0.9222222222222223
5.44408896268,0.9277777777777778
5.44408896268,0.9333333333333333
5.64374089262,0.9388888888888889
5.64374089262,0.9444444444444444
5.75452428893,0.95
5.75452428893,0.9555555555555556
5.86796023289,0.9611111111111111
5.86796023289,0.9666666666666667
6.86532672181,0.9722222222222222
6.86532672181,0.9777777777777777
7.46497056376,0.9833333333333333
7.46497056376,0.9888888888888889
7.60889854664,0.9944444444444445
7.60889854664,1.0
