Congestion,CDF
0.0228121784036,0.005555555555555556
0.0228121784036,0.011111111111111112
0.0229642908157,0.016666666666666666
0.0229642908157,0.022222222222222223
0.0233355635009,0.027777777777777776
0.0233355635009,0.03333333333333333
0.023379246872,0.03888888888888889
0.023379246872,0.044444444444444446
0.0234653664527,0.05
0.0234653664527,0.05555555555555555
0.0234851115899,0.06111111111111111
0.0234851115899,0.06666666666666667
0.0236004600845,0.07222222222222222
0.0236004600845,0.07777777777777778
0.0238217962206,0.08333333333333333
0.0238217962206,0.08888888888888889
0.0241318423853,0.09444444444444444
0.0241318423853,0.1
0.0242143113908,0.10555555555555556
0.0242143113908,0.1111111111111111
0.0243511199872,0.11666666666666667
0.0243511199872,0.12222222222222222
0.0244158976735,0.12777777777777777
0.0244158976735,0.13333333333333333
0.0244679885498,0.1388888888888889
0.0244679885498,0.14444444444444443
0.0245718048823,0.15
0.0245718048823,0.15555555555555556
0.024721566662,0.16111111111111112
0.024721566662,0.16666666666666666
0.0248148744402,0.17222222222222222
0.0248148744402,0.17777777777777778
0.0251851203978,0.18333333333333332
0.0251851203978,0.18888888888888888
0.0252133626907,0.19444444444444445
0.0252133626907,0.2
0.025223104881,0.20555555555555555
0.025223104881,0.2111111111111111
0.0252544872279,0.21666666666666667
0.0252544872279,0.2222222222222222
0.025335794151,0.22777777777777777
0.025335794151,0.23333333333333334
0.0253685540144,0.2388888888888889
0.0253685540144,0.24444444444444444
0.0254950432394,0.25
0.0254950432394,0.25555555555555554
0.0255315185784,0.2611111111111111
0.0255315185784,0.26666666666666666
0.0259888716648,0.2722222222222222
0.0259888716648,0.2777777777777778
0.0264921589207,0.2833333333333333
0.0264921589207,0.28888888888888886
0.0266313865347,0.29444444444444445
0.0266313865347,0.3
0.0272656706785,0.3055555555555556
0.0272656706785,0.3111111111111111
0.0272748391695,0.31666666666666665
0.0272748391695,0.32222222222222224
0.0273167414484,0.3277777777777778
0.0273167414484,0.3333333333333333
0.0273486638376,0.3388888888888889
0.0273486638376,0.34444444444444444
0.0275605474967,0.35
0.0275605474967,0.35555555555555557
0.027721174846,0.3611111111111111
0.027721174846,0.36666666666666664
0.0278105619657,0.37222222222222223
0.0278105619657,0.37777777777777777
0.0278762264764,0.38333333333333336
0.0278762264764,0.3888888888888889
0.0280239464272,0.39444444444444443
0.0280239464272,0.4
0.028069346172,0.40555555555555556
0.028069346172,0.4111111111111111
0.0281021234535,0.4166666666666667
0.0281021234535,0.4222222222222222
0.0283518021485,0.42777777777777776
0.0283518021485,0.43333333333333335
0.028794608858,0.4388888888888889
0.028794608858,0.4444444444444444
0.693623417343,0.45
0.693623417343,0.45555555555555555
0.804895134957,0.46111111111111114
0.804895134957,0.4666666666666667
0.828845401711,0.4722222222222222
0.828845401711,0.4777777777777778
0.867697295414,0.48333333333333334
0.867697295414,0.4888888888888889
1.45859427792,0.49444444444444446
1.45859427792,0.5
1.76579659302,0.5055555555555555
1.76579659302,0.5111111111111111
2.13697561443,0.5166666666666667
2.13697561443,0.5222222222222223
2.18765583882,0.5277777777777778
2.18765583882,0.5333333333333333
2.6415700706,0.5388888888888889
2.6415700706,0.5444444444444444
2.95807235842,0.55
2.95807235842,0.5555555555555556
3.06283440347,0.5611111111111111
3.06283440347,0.5666666666666667
3.10103154873,0.5722222222222222
3.10103154873,0.5777777777777777
3.12668294985,0.5833333333333334
3.12668294985,0.5888888888888889
3.18200121704,0.5944444444444444
3.18200121704,0.6
3.21807937349,0.6055555555555555
3.21807937349,0.6111111111111112
3.38790139475,0.6166666666666667
3.38790139475,0.6222222222222222
3.49200325914,0.6277777777777778
3.49200325914,0.6333333333333333
3.55180562564,0.6388888888888888
3.55180562564,0.6444444444444445
3.63979762685,0.65
3.63979762685,0.6555555555555556
3.79880452772,0.6611111111111111
3.79880452772,0.6666666666666666
3.80102284853,0.6722222222222223
3.80102284853,0.6777777777777778
3.96652580508,0.6833333333333333
3.96652580508,0.6888888888888889
3.98247998881,0.6944444444444444
3.98247998881,0.7
4.16787341107,0.7055555555555556
4.16787341107,0.7111111111111111
4.33442011251,0.7166666666666667
4.33442011251,0.7222222222222222
4.43567355055,0.7277777777777777
4.43567355055,0.7333333333333333
4.76134539218,0.7388888888888889
4.76134539218,0.7444444444444445
5.71584434324,0.75
5.71584434324,0.7555555555555555
5.86597843906,0.7611111111111111
5.86597843906,0.7666666666666667
5.89824712537,0.7722222222222223
5.89824712537,0.7777777777777778
6.26994967641,0.7833333333333333
6.26994967641,0.7888888888888889
6.41127093003,0.7944444444444444
6.41127093003,0.8
6.4512319698,0.8055555555555556
6.4512319698,0.8111111111111111
6.90373550602,0.8166666666666667
6.90373550602,0.8222222222222222
7.23660234051,0.8277777777777777
7.23660234051,0.8333333333333334
7.3430022102,0.8388888888888889
7.3430022102,0.8444444444444444
7.95925347177,0.85
7.95925347177,0.8555555555555555
8.76138936405,0.8611111111111112
8.76138936405,0.8666666666666667
8.79692682292,0.8722222222222222
8.79692682292,0.8777777777777778
9.68555316793,0.8833333333333333
9.68555316793,0.8888888888888888
9.73592453837,0.8944444444444445
9.73592453837,0.9
10.5550185531,0.9055555555555556
10.5550185531,0.9111111111111111
10.9533391078,0.9166666666666666
10.9533391078,0.9222222222222223
11.545052293,0.9277777777777778
11.545052293,0.9333333333333333
12.6415883403,0.9388888888888889
12.6415883403,0.9444444444444444
12.7755735287,0.95
12.7755735287,0.9555555555555556
13.2097344933,0.9611111111111111
13.2097344933,0.9666666666666667
14.3655139109,0.9722222222222222
14.3655139109,0.9777777777777777
15.5988960477,0.9833333333333333
15.5988960477,0.9888888888888889
16.2258990324,0.9944444444444445
16.2258990324,1.0
