Congestion,CDF
0.0174478565815,0.005555555555555556
0.0174478565815,0.011111111111111112
0.0176300520459,0.016666666666666666
0.0176300520459,0.022222222222222223
0.0176781126114,0.027777777777777776
0.0176781126114,0.03333333333333333
0.0177986971753,0.03888888888888889
0.0177986971753,0.044444444444444446
0.0178972651354,0.05
0.0178972651354,0.05555555555555555
0.0179127083811,0.06111111111111111
0.0179127083811,0.06666666666666667
0.0179915440739,0.07222222222222222
0.0179915440739,0.07777777777777778
0.0182274417598,0.08333333333333333
0.0182274417598,0.08888888888888889
0.0182458204394,0.09444444444444444
0.0182458204394,0.1
0.018338131745,0.10555555555555556
0.018338131745,0.1111111111111111
0.0183628960672,0.11666666666666667
0.0183628960672,0.12222222222222222
0.018367614426,0.12777777777777777
0.018367614426,0.13333333333333333
0.018380803023,0.1388888888888889
0.018380803023,0.14444444444444443
0.0186652645263,0.15
0.0186652645263,0.15555555555555556
0.0188128460205,0.16111111111111112
0.0188128460205,0.16666666666666666
0.0188246283023,0.17222222222222222
0.0188246283023,0.17777777777777778
0.0188859856554,0.18333333333333332
0.0188859856554,0.18888888888888888
0.0189686082556,0.19444444444444445
0.0189686082556,0.2
0.0190195194807,0.20555555555555555
0.0190195194807,0.2111111111111111
0.0190544207675,0.21666666666666667
0.0190544207675,0.2222222222222222
0.0190837785212,0.22777777777777777
0.0190837785212,0.23333333333333334
0.0191561934406,0.2388888888888889
0.0191561934406,0.24444444444444444
0.0191616688146,0.25
0.0191616688146,0.25555555555555554
0.0191963557574,0.2611111111111111
0.0191963557574,0.26666666666666666
0.0195466326984,0.2722222222222222
0.0195466326984,0.2777777777777778
0.0201576857742,0.2833333333333333
0.0201576857742,0.28888888888888886
0.0204962585731,0.29444444444444445
0.0204962585731,0.3
0.021056869157,0.3055555555555556
0.021056869157,0.3111111111111111
0.021222493138,0.31666666666666665
0.021222493138,0.32222222222222224
0.0212644593116,0.3277777777777778
0.0212644593116,0.3333333333333333
0.0212984336525,0.3388888888888889
0.0212984336525,0.34444444444444444
0.0214035741925,0.35
0.0214035741925,0.35555555555555557
0.0214305765548,0.3611111111111111
0.0214305765548,0.36666666666666664
0.0215335246225,0.37222222222222223
0.0215335246225,0.37777777777777777
0.0218470162916,0.38333333333333336
0.0218470162916,0.3888888888888889
0.0218632707555,0.39444444444444443
0.0218632707555,0.4
0.0219189170151,0.40555555555555556
0.0219189170151,0.4111111111111111
0.0220436792654,0.4166666666666667
0.0220436792654,0.4222222222222222
0.0220871294855,0.42777777777777776
0.0220871294855,0.43333333333333335
0.0224927969342,0.4388888888888889
0.0224927969342,0.4444444444444444
0.509856603123,0.45
0.509856603123,0.45555555555555555
0.590531703857,0.46111111111111114
0.590531703857,0.4666666666666667
0.640588636077,0.4722222222222222
0.640588636077,0.4777777777777778
0.651664476346,0.48333333333333334
0.651664476346,0.4888888888888889
1.11367867756,0.49444444444444446
1.11367867756,0.5
1.34007990572,0.5055555555555555
1.34007990572,0.5111111111111111
1.61071228007,0.5166666666666667
1.61071228007,0.5222222222222223
1.64344420123,0.5277777777777778
1.64344420123,0.5333333333333333
1.95813148246,0.5388888888888889
1.95813148246,0.5444444444444444
2.28369378652,0.55
2.28369378652,0.5555555555555556
2.33454079473,0.5611111111111111
2.33454079473,0.5666666666666667
2.39735482105,0.5722222222222222
2.39735482105,0.5777777777777777
2.40277782324,0.5833333333333334
2.40277782324,0.5888888888888889
2.43184412517,0.5944444444444444
2.43184412517,0.6
2.49248365193,0.6055555555555555
2.49248365193,0.6111111111111112
2.53754749924,0.6166666666666667
2.53754749924,0.6222222222222222
2.65469570687,0.6277777777777778
2.65469570687,0.6333333333333333
2.6754610302,0.6388888888888888
2.6754610302,0.6444444444444445
2.81817911166,0.65
2.81817911166,0.6555555555555556
2.86301231521,0.6611111111111111
2.86301231521,0.6666666666666666
2.92355932595,0.6722222222222223
2.92355932595,0.6777777777777778
2.97493122074,0.6833333333333333
2.97493122074,0.6888888888888889
3.08499471631,0.6944444444444444
3.08499471631,0.7
3.25726063347,0.7055555555555556
3.25726063347,0.7111111111111111
3.32674852474,0.7166666666666667
3.32674852474,0.7222222222222222
3.33456652581,0.7277777777777777
3.33456652581,0.7333333333333333
3.72102875831,0.7388888888888889
3.72102875831,0.7444444444444445
4.48696093117,0.75
4.48696093117,0.7555555555555555
4.59112979016,0.7611111111111111
4.59112979016,0.7666666666666667
4.65481375724,0.7722222222222223
4.65481375724,0.7777777777777778
4.96614091459,0.7833333333333333
4.96614091459,0.7888888888888889
4.97359328185,0.7944444444444444
4.97359328185,0.8
4.9899228272,0.8055555555555556
4.9899228272,0.8111111111111111
5.46067777264,0.8166666666666667
5.46067777264,0.8222222222222222
5.69590058329,0.8277777777777777
5.69590058329,0.8333333333333334
5.72010773083,0.8388888888888889
5.72010773083,0.8444444444444444
6.27769366136,0.85
6.27769366136,0.8555555555555555
6.80235217089,0.8611111111111112
6.80235217089,0.8666666666666667
6.97927673313,0.8722222222222222
6.97927673313,0.8777777777777778
7.71807781678,0.8833333333333333
7.71807781678,0.8888888888888888
7.72417156583,0.8944444444444445
7.72417156583,0.9
8.42291324445,0.9055555555555556
8.42291324445,0.9111111111111111
8.65138955783,0.9166666666666666
8.65138955783,0.9222222222222223
9.245323913,0.9277777777777778
9.245323913,0.9333333333333333
10.0709745371,0.9388888888888889
10.0709745371,0.9444444444444444
10.0807663757,0.95
10.0807663757,0.9555555555555556
10.4240737703,0.9611111111111111
10.4240737703,0.9666666666666667
11.5216088777,0.9722222222222222
11.5216088777,0.9777777777777777
12.5175070852,0.9833333333333333
12.5175070852,0.9888888888888889
12.9703287351,0.9944444444444445
12.9703287351,1.0
