Congestion,CDF
0.0259328229801,0.005555555555555556
0.0259328229801,0.011111111111111112
0.0260172208253,0.016666666666666666
0.0260172208253,0.022222222222222223
0.0264587683255,0.027777777777777776
0.0264587683255,0.03333333333333333
0.0265339105177,0.03888888888888889
0.0265339105177,0.044444444444444446
0.0266017934534,0.05
0.0266017934534,0.05555555555555555
0.026621455381,0.06111111111111111
0.026621455381,0.06666666666666667
0.0268448316218,0.07222222222222222
0.0268448316218,0.07777777777777778
0.0272728861207,0.08333333333333333
0.0272728861207,0.08888888888888889
0.0273608381472,0.09444444444444444
0.0273608381472,0.1
0.0278584180424,0.10555555555555556
0.0278584180424,0.1111111111111111
0.027898856082,0.11666666666666667
0.027898856082,0.12222222222222222
0.0279053210733,0.12777777777777777
0.0279053210733,0.13333333333333333
0.0281999775192,0.1388888888888889
0.0281999775192,0.14444444444444443
0.0283028449876,0.15
0.0283028449876,0.15555555555555556
0.0283891961729,0.16111111111111112
0.0283891961729,0.16666666666666666
0.0284223150423,0.17222222222222222
0.0284223150423,0.17777777777777778
0.0287021058816,0.18333333333333332
0.0287021058816,0.18888888888888888
0.0287381732688,0.19444444444444445
0.0287381732688,0.2
0.0287553358215,0.20555555555555555
0.0287553358215,0.2111111111111111
0.0288435582851,0.21666666666666667
0.0288435582851,0.2222222222222222
0.0290840901018,0.22777777777777777
0.0290840901018,0.23333333333333334
0.0290842030298,0.2388888888888889
0.0290842030298,0.24444444444444444
0.0291752271216,0.25
0.0291752271216,0.25555555555555554
0.0293809455276,0.2611111111111111
0.0293809455276,0.26666666666666666
0.0297484649182,0.2722222222222222
0.0297484649182,0.2777777777777778
0.0300217126812,0.2833333333333333
0.0300217126812,0.28888888888888886
0.0301349375555,0.29444444444444445
0.0301349375555,0.3
0.0307570551397,0.3055555555555556
0.0307570551397,0.3111111111111111
0.0307571668077,0.31666666666666665
0.0307571668077,0.32222222222222224
0.0307744754679,0.3277777777777778
0.0307744754679,0.3333333333333333
0.0307998333541,0.3388888888888889
0.0307998333541,0.34444444444444444
0.0310727130197,0.35
0.0310727130197,0.35555555555555557
0.0311414917159,0.3611111111111111
0.0311414917159,0.36666666666666664
0.0313778015159,0.37222222222222223
0.0313778015159,0.37777777777777777
0.0314057562355,0.38333333333333336
0.0314057562355,0.3888888888888889
0.0314799958988,0.39444444444444443
0.0314799958988,0.4
0.0315035455625,0.40555555555555556
0.0315035455625,0.4111111111111111
0.0316234582788,0.4166666666666667
0.0316234582788,0.4222222222222222
0.0319875228471,0.42777777777777776
0.0319875228471,0.43333333333333335
0.032413055894,0.4388888888888889
0.032413055894,0.4444444444444444
0.799792274613,0.45
0.799792274613,0.45555555555555555
0.932425754077,0.46111111111111114
0.932425754077,0.4666666666666667
0.950052108639,0.4722222222222222
0.950052108639,0.4777777777777778
1.0235771223,0.48333333333333334
1.0235771223,0.4888888888888889
1.67076351993,0.49444444444444446
1.67076351993,0.5
2.05963807383,0.5055555555555555
2.05963807383,0.5111111111111111
2.43273870252,0.5166666666666667
2.43273870252,0.5222222222222223
2.49250998715,0.5277777777777778
2.49250998715,0.5333333333333333
3.03809543907,0.5388888888888889
3.03809543907,0.5444444444444444
3.345551035,0.55
3.345551035,0.5555555555555556
3.46484893014,0.5611111111111111
3.46484893014,0.5666666666666667
3.50224893482,0.5722222222222222
3.50224893482,0.5777777777777777
3.54034251765,0.5833333333333334
3.54034251765,0.5888888888888889
3.61140087495,0.5944444444444444
3.61140087495,0.6
3.65569422144,0.6055555555555555
3.65569422144,0.6111111111111112
3.87344825336,0.6166666666666667
3.87344825336,0.6222222222222222
3.96432625796,0.6277777777777778
3.96432625796,0.6333333333333333
4.05577421682,0.6388888888888888
4.05577421682,0.6444444444444445
4.10345809401,0.65
4.10345809401,0.6555555555555556
4.28528574702,0.6611111111111111
4.28528574702,0.6666666666666666
4.32056474139,0.6722222222222223
4.32056474139,0.6777777777777778
4.51994151819,0.6833333333333333
4.51994151819,0.6888888888888889
4.52300797419,0.6944444444444444
4.52300797419,0.7
4.67585939069,0.7055555555555556
4.67585939069,0.7111111111111111
4.88437100028,0.7166666666666667
4.88437100028,0.7222222222222222
5.05855698742,0.7277777777777777
5.05855698742,0.7333333333333333
5.33741465848,0.7388888888888889
5.33741465848,0.7444444444444445
6.38685582942,0.75
6.38685582942,0.7555555555555555
6.56078963279,0.7611111111111111
6.56078963279,0.7666666666666667
6.57727471687,0.7722222222222223
6.57727471687,0.7777777777777778
6.98344390622,0.7833333333333333
6.98344390622,0.7888888888888889
7.1996911287,0.7944444444444444
7.1996911287,0.8
7.25577025136,0.8055555555555556
7.25577025136,0.8111111111111111
7.69325296457,0.8166666666666667
7.69325296457,0.8222222222222222
8.08056497354,0.8277777777777777
8.08056497354,0.8333333333333334
8.22701448888,0.8388888888888889
8.22701448888,0.8444444444444444
8.87878176002,0.85
8.87878176002,0.8555555555555555
9.74062719268,0.8611111111111112
9.74062719268,0.8666666666666667
9.90279127743,0.8722222222222222
9.90279127743,0.8777777777777778
10.7659311619,0.8833333333333333
10.7659311619,0.8888888888888888
10.8451114006,0.8944444444444445
10.8451114006,0.9
11.7284669371,0.9055555555555556
11.7284669371,0.9111111111111111
12.2178814876,0.9166666666666666
12.2178814876,0.9222222222222223
12.8083373935,0.9277777777777778
12.8083373935,0.9333333333333333
14.0517840836,0.9388888888888889
14.0517840836,0.9444444444444444
14.2492372907,0.95
14.2492372907,0.9555555555555556
14.7307175681,0.9611111111111111
14.7307175681,0.9666666666666667
15.9256778001,0.9722222222222222
15.9256778001,0.9777777777777777
17.2871579996,0.9833333333333333
17.2871579996,0.9888888888888889
18.0071222541,0.9944444444444445
18.0071222541,1.0
