Congestion,CDF
0.0122363876303,0.005555555555555556
0.0122363876303,0.011111111111111112
0.0127514054234,0.016666666666666666
0.0127514054234,0.022222222222222223
0.0128101586891,0.027777777777777776
0.0128101586891,0.03333333333333333
0.0128263270017,0.03888888888888889
0.0128263270017,0.044444444444444446
0.0130148372924,0.05
0.0130148372924,0.05555555555555555
0.0130476252079,0.06111111111111111
0.0130476252079,0.06666666666666667
0.0130631944234,0.07222222222222222
0.0130631944234,0.07777777777777778
0.0130774006417,0.08333333333333333
0.0130774006417,0.08888888888888889
0.0131632145347,0.09444444444444444
0.0131632145347,0.1
0.0131963869656,0.10555555555555556
0.0131963869656,0.1111111111111111
0.0132093881356,0.11666666666666667
0.0132093881356,0.12222222222222222
0.0132972424385,0.12777777777777777
0.0132972424385,0.13333333333333333
0.0132989249105,0.1388888888888889
0.0132989249105,0.14444444444444443
0.0133065773318,0.15
0.0133065773318,0.15555555555555556
0.0133118458052,0.16111111111111112
0.0133118458052,0.16666666666666666
0.0136019023537,0.17222222222222222
0.0136019023537,0.17777777777777778
0.0136771404516,0.18333333333333332
0.0136771404516,0.18888888888888888
0.0136999854697,0.19444444444444445
0.0136999854697,0.2
0.0137297065262,0.20555555555555555
0.0137297065262,0.2111111111111111
0.013799171899,0.21666666666666667
0.013799171899,0.2222222222222222
0.0138294810825,0.22777777777777777
0.0138294810825,0.23333333333333334
0.0138816900594,0.2388888888888889
0.0138816900594,0.24444444444444444
0.0139574977909,0.25
0.0139574977909,0.25555555555555554
0.014308886066,0.2611111111111111
0.014308886066,0.26666666666666666
0.0145216752892,0.2722222222222222
0.0145216752892,0.2777777777777778
0.014673225348,0.2833333333333333
0.014673225348,0.28888888888888886
0.0148755574784,0.29444444444444445
0.0148755574784,0.3
0.0156677304075,0.3055555555555556
0.0156677304075,0.3111111111111111
0.0157712992242,0.31666666666666665
0.0157712992242,0.32222222222222224
0.0158933317905,0.3277777777777778
0.0158933317905,0.3333333333333333
0.0159475044333,0.3388888888888889
0.0159475044333,0.34444444444444444
0.0159501065954,0.35
0.0159501065954,0.35555555555555557
0.016015781964,0.3611111111111111
0.016015781964,0.36666666666666664
0.0160224592179,0.37222222222222223
0.0160224592179,0.37777777777777777
0.0163398363344,0.38333333333333336
0.0163398363344,0.3888888888888889
0.0163677364622,0.39444444444444443
0.0163677364622,0.4
0.0163708731152,0.40555555555555556
0.0163708731152,0.4111111111111111
0.0167391696608,0.4166666666666667
0.0167391696608,0.4222222222222222
0.0167933751283,0.42777777777777776
0.0167933751283,0.43333333333333335
0.0168869541803,0.4388888888888889
0.0168869541803,0.4444444444444444
0.361548614853,0.45
0.361548614853,0.45555555555555555
0.417865262311,0.46111111111111114
0.417865262311,0.4666666666666667
0.475474138647,0.4722222222222222
0.475474138647,0.4777777777777778
0.477557396971,0.48333333333333334
0.477557396971,0.4888888888888889
0.828095982869,0.49444444444444446
0.828095982869,0.5
0.978285197424,0.5055555555555555
0.978285197424,0.5111111111111111
1.14587836351,0.5166666666666667
1.14587836351,0.5222222222222223
1.1610711789,0.5277777777777778
1.1610711789,0.5333333333333333
1.368479988,0.5388888888888889
1.368479988,0.5444444444444444
1.67011833016,0.55
1.67011833016,0.5555555555555556
1.69299667472,0.5611111111111111
1.69299667472,0.5666666666666667
1.72638361484,0.5722222222222222
1.72638361484,0.5777777777777777
1.79061778129,0.5833333333333334
1.79061778129,0.5888888888888889
1.7917010187,0.5944444444444444
1.7917010187,0.6
1.80232692494,0.6055555555555555
1.80232692494,0.6111111111111112
1.8556080567,0.6166666666666667
1.8556080567,0.6222222222222222
1.87003279123,0.6277777777777778
1.87003279123,0.6333333333333333
1.98371133705,0.6388888888888888
1.98371133705,0.6444444444444445
2.0171831701,0.65
2.0171831701,0.6555555555555556
2.09607290585,0.6611111111111111
2.09607290585,0.6666666666666666
2.11785355555,0.6722222222222223
2.11785355555,0.6777777777777778
2.13345718162,0.6833333333333333
2.13345718162,0.6888888888888889
2.29592855168,0.6944444444444444
2.29592855168,0.7
2.33208771537,0.7055555555555556
2.33208771537,0.7111111111111111
2.42863482567,0.7166666666666667
2.42863482567,0.7222222222222222
2.46071323248,0.7277777777777777
2.46071323248,0.7333333333333333
2.79597402068,0.7388888888888889
2.79597402068,0.7444444444444445
3.38466686892,0.75
3.38466686892,0.7555555555555555
3.43423540245,0.7611111111111111
3.43423540245,0.7666666666666667
3.53803830359,0.7722222222222223
3.53803830359,0.7777777777777778
3.67887665993,0.7833333333333333
3.67887665993,0.7888888888888889
3.73163700616,0.7944444444444444
3.73163700616,0.8
3.79468443252,0.8055555555555556
3.79468443252,0.8111111111111111
4.1522518396,0.8166666666666667
4.1522518396,0.8222222222222222
4.23211564988,0.8277777777777777
4.23211564988,0.8333333333333334
4.3066397657,0.8388888888888889
4.3066397657,0.8444444444444444
4.73732903962,0.85
4.73732903962,0.8555555555555555
5.05362332709,0.8611111111111112
5.05362332709,0.8666666666666667
5.35581830685,0.8722222222222222
5.35581830685,0.8777777777777778
5.87711907512,0.8833333333333333
5.87711907512,0.8888888888888888
5.95455125181,0.8944444444444445
5.95455125181,0.9
6.48041204039,0.9055555555555556
6.48041204039,0.9111111111111111
6.53771615169,0.9166666666666666
6.53771615169,0.9222222222222223
7.14597713486,0.9277777777777778
7.14597713486,0.9333333333333333
7.62673654132,0.9388888888888889
7.62673654132,0.9444444444444444
7.73764591729,0.95
7.73764591729,0.9555555555555556
7.85927316491,0.9611111111111111
7.85927316491,0.9666666666666667
8.93910326168,0.9722222222222222
8.93910326168,0.9777777777777777
9.71919683565,0.9833333333333333
9.71919683565,0.9888888888888889
10.0075915565,0.9944444444444445
10.0075915565,1.0
