Congestion,CDF
0.0320499103731,0.005555555555555556
0.0320499103731,0.011111111111111112
0.0321060014344,0.016666666666666666
0.0321060014344,0.022222222222222223
0.0329550914151,0.027777777777777776
0.0329550914151,0.03333333333333333
0.033064384382,0.03888888888888889
0.033064384382,0.044444444444444446
0.033083250815,0.05
0.033083250815,0.05555555555555555
0.0336803298145,0.06111111111111111
0.0336803298145,0.06666666666666667
0.0336909537799,0.07222222222222222
0.0336909537799,0.07777777777777778
0.0338403166922,0.08333333333333333
0.0338403166922,0.08888888888888889
0.0342798543459,0.09444444444444444
0.0342798543459,0.1
0.0344266995419,0.10555555555555556
0.0344266995419,0.1111111111111111
0.0345753701813,0.11666666666666667
0.0345753701813,0.12222222222222222
0.0350791755841,0.12777777777777777
0.0350791755841,0.13333333333333333
0.0350833032638,0.1388888888888889
0.0350833032638,0.14444444444444443
0.0351706267001,0.15
0.0351706267001,0.15555555555555556
0.0351969496721,0.16111111111111112
0.0351969496721,0.16666666666666666
0.0352136045903,0.17222222222222222
0.0352136045903,0.17777777777777778
0.0353717434009,0.18333333333333332
0.0353717434009,0.18888888888888888
0.0354330982907,0.19444444444444445
0.0354330982907,0.2
0.035589099204,0.20555555555555555
0.035589099204,0.2111111111111111
0.0357012241298,0.21666666666666667
0.0357012241298,0.2222222222222222
0.0358925356649,0.22777777777777777
0.0358925356649,0.23333333333333334
0.0359428127254,0.2388888888888889
0.0359428127254,0.24444444444444444
0.0361438222884,0.25
0.0361438222884,0.25555555555555554
0.0363341648927,0.2611111111111111
0.0363341648927,0.26666666666666666
0.0364790538215,0.2722222222222222
0.0364790538215,0.2777777777777778
0.0365914013229,0.2833333333333333
0.0365914013229,0.28888888888888886
0.036802576774,0.29444444444444445
0.036802576774,0.3
0.0371451698879,0.3055555555555556
0.0371451698879,0.3111111111111111
0.0371472676056,0.31666666666666665
0.0371472676056,0.32222222222222224
0.0372215935043,0.3277777777777778
0.0372215935043,0.3333333333333333
0.0373937485566,0.3388888888888889
0.0373937485566,0.34444444444444444
0.0374382489931,0.35
0.0374382489931,0.35555555555555557
0.0377504064435,0.3611111111111111
0.0377504064435,0.36666666666666664
0.0378405714813,0.37222222222222223
0.0378405714813,0.37777777777777777
0.0378928652772,0.38333333333333336
0.0378928652772,0.3888888888888889
0.0379176383399,0.39444444444444443
0.0379176383399,0.4
0.0379601309389,0.40555555555555556
0.0379601309389,0.4111111111111111
0.0381098416189,0.4166666666666667
0.0381098416189,0.4222222222222222
0.038384867996,0.42777777777777776
0.038384867996,0.43333333333333335
0.038686514033,0.4388888888888889
0.038686514033,0.4444444444444444
1.02142716831,0.45
1.02142716831,0.45555555555555555
1.15103312954,0.46111111111111114
1.15103312954,0.4666666666666667
1.30010854213,0.4722222222222222
1.30010854213,0.4777777777777778
1.40398600619,0.48333333333333334
1.40398600619,0.4888888888888889
2.1221087727,0.49444444444444446
2.1221087727,0.5
2.71610489858,0.5055555555555555
2.71610489858,0.5111111111111111
2.98834610902,0.5166666666666667
2.98834610902,0.5222222222222223
3.05584630344,0.5277777777777778
3.05584630344,0.5333333333333333
3.73362046758,0.5388888888888889
3.73362046758,0.5444444444444444
4.03006105135,0.55
4.03006105135,0.5555555555555556
4.15810311001,0.5611111111111111
4.15810311001,0.5666666666666667
4.21181864312,0.5722222222222222
4.21181864312,0.5777777777777777
4.26412044031,0.5833333333333334
4.26412044031,0.5888888888888889
4.43190411448,0.5944444444444444
4.43190411448,0.6
4.50831476872,0.6055555555555555
4.50831476872,0.6111111111111112
4.73512724571,0.6166666666666667
4.73512724571,0.6222222222222222
4.84095179896,0.6277777777777778
4.84095179896,0.6333333333333333
4.92820498044,0.6388888888888888
4.92820498044,0.6444444444444445
4.98601805709,0.65
4.98601805709,0.6555555555555556
5.12938470889,0.6611111111111111
5.12938470889,0.6666666666666666
5.21436254178,0.6722222222222223
5.21436254178,0.6777777777777778
5.48996207497,0.6833333333333333
5.48996207497,0.6888888888888889
5.49827216385,0.6944444444444444
5.49827216385,0.7
5.55876625118,0.7055555555555556
5.55876625118,0.7111111111111111
5.8326266847,0.7166666666666667
5.8326266847,0.7222222222222222
6.1361566594,0.7277777777777777
6.1361566594,0.7333333333333333
6.33398136218,0.7388888888888889
6.33398136218,0.7444444444444445
7.54083762373,0.75
7.54083762373,0.7555555555555555
7.7453470009,0.7611111111111111
7.7453470009,0.7666666666666667
7.753070996,0.7722222222222223
7.753070996,0.7777777777777778
8.20765408723,0.7833333333333333
8.20765408723,0.7888888888888889
8.54491678461,0.7944444444444444
8.54491678461,0.8
8.62855212384,0.8055555555555556
8.62855212384,0.8111111111111111
9.04149937755,0.8166666666666667
9.04149937755,0.8222222222222222
9.51744332812,0.8277777777777777
9.51744332812,0.8333333333333334
9.72383126423,0.8388888888888889
9.72383126423,0.8444444444444444
10.435940315,0.85
10.435940315,0.8555555555555555
11.3964870449,0.8611111111111112
11.3964870449,0.8666666666666667
11.7677093848,0.8722222222222222
11.7677093848,0.8777777777777778
12.5831833558,0.8833333333333333
12.5831833558,0.8888888888888888
12.7100940545,0.8944444444444445
12.7100940545,0.9
13.700894028,0.9055555555555556
13.700894028,0.9111111111111111
14.3358125774,0.9166666666666666
14.3358125774,0.9222222222222223
14.9284413436,0.9277777777777778
14.9284413436,0.9333333333333333
16.4136293851,0.9388888888888889
16.4136293851,0.9444444444444444
16.7109891051,0.95
16.7109891051,0.9555555555555556
17.270877312,0.9611111111111111
17.270877312,0.9666666666666667
18.5380291814,0.9722222222222222
18.5380291814,0.9777777777777777
20.1114632636,0.9833333333333333
20.1114632636,0.9888888888888889
20.9841078451,0.9944444444444445
20.9841078451,1.0
