Congestion,CDF
0.0,0.007352941176470588
0.0,0.014705882352941176
0.0,0.022058823529411766
0.0,0.029411764705882353
0.0,0.03676470588235294
0.0,0.04411764705882353
0.0,0.051470588235294115
0.0,0.058823529411764705
0.0,0.0661764705882353
0.0,0.07352941176470588
0.0,0.08088235294117647
0.0,0.08823529411764706
0.0,0.09558823529411764
0.0,0.10294117647058823
6.09294270103e-07,0.11029411764705882
6.09294270103e-07,0.11764705882352941
6.09294270103e-07,0.125
6.09294270103e-07,0.1323529411764706
6.09294270103e-07,0.13970588235294118
6.09294270103e-07,0.14705882352941177
6.09294270103e-07,0.15441176470588236
6.09294270103e-07,0.16176470588235295
6.09294270103e-07,0.16911764705882354
6.09294270103e-07,0.17647058823529413
6.09294270103e-07,0.18382352941176472
6.09294270103e-07,0.19117647058823528
6.09294270103e-07,0.19852941176470587
6.09294270103e-07,0.20588235294117646
6.09294270103e-07,0.21323529411764705
6.09294270103e-07,0.22058823529411764
6.09294270103e-07,0.22794117647058823
6.09294270103e-07,0.23529411764705882
6.09294270103e-07,0.2426470588235294
6.09294270103e-07,0.25
6.09294270103e-07,0.25735294117647056
6.09294270103e-07,0.2647058823529412
6.09294270103e-07,0.27205882352941174
6.09294270103e-07,0.27941176470588236
6.09294270103e-07,0.2867647058823529
6.09294270103e-07,0.29411764705882354
6.09294270103e-07,0.3014705882352941
1.52323567526e-05,0.3088235294117647
1.52323567526e-05,0.3161764705882353
1.64509452928e-05,0.3235294117647059
3.04647135051e-05,0.33088235294117646
3.04647135051e-05,0.3382352941176471
3.04647135051e-05,0.34558823529411764
3.04647135051e-05,0.35294117647058826
4.56970702577e-05,0.3602941176470588
5.07745225086e-05,0.36764705882352944
5.07745225086e-05,0.375
5.07745225086e-05,0.38235294117647056
6.09294270103e-05,0.3897058823529412
6.09294270103e-05,0.39705882352941174
6.09294270103e-05,0.40441176470588236
6.09294270103e-05,0.4117647058823529
6.09294270103e-05,0.41911764705882354
6.09294270103e-05,0.4264705882352941
6.09294270103e-05,0.4338235294117647
7.61617837628e-05,0.4411764705882353
9.13941405154e-05,0.4485294117647059
9.13941405154e-05,0.45588235294117646
0.000111703949519,0.4632352941176471
0.000121858854021,0.47058823529411764
0.000121858854021,0.47794117647058826
0.000182788281031,0.4852941176470588
0.000248795160292,0.49264705882352944
0.000441738345824,0.5
0.000451893250326,0.5073529411764706
0.000583907008848,0.5147058823529411
0.000726075671872,0.5220588235294118
0.000736230576374,0.5294117647058824
0.000787005098883,0.5367647058823529
0.000797160003384,0.5441176470588235
0.000858089430395,0.5514705882352942
0.0428669576625,0.5588235294117647
0.0436856293438,0.5661764705882353
0.0531871781956,0.5735294117647058
0.0532441496265,0.5808823529411765
0.0533697737359,0.5882352941176471
0.0534086507999,0.5955882352941176
0.0534308874443,0.6029411764705882
0.053440489393,0.6102941176470589
0.0534970335995,0.6176470588235294
0.0535093797939,0.625
0.0535129604718,0.6323529411764706
0.0535171122423,0.6397058823529411
0.0535196592558,0.6470588235294118
0.0535201816475,0.6544117647058824
0.0535205553556,0.6617647058823529
0.0535211451387,0.6691176470588235
0.053521337284,0.6764705882352942
0.0535223824109,0.6838235294117647
0.0535224995208,0.6911764705882353
0.0535276744097,0.6985294117647058
0.0535292868901,0.7058823529411765
0.0535292960671,0.7132352941176471
0.0535293887498,0.7205882352941176
0.0535293915509,0.7279411764705882
0.0535294798714,0.7352941176470589
0.0535294817388,0.7426470588235294
0.0535294817388,0.75
1.33800454119,0.7573529411764706
1.33805956027,0.7647058823529411
1.42355144394,0.7720588235294118
2.67202446965,0.7794117647058824
2.67202446965,0.7867647058823529
2.67612497604,0.7941176470588235
2.67612497604,0.8014705882352942
4.01401362356,0.8088235294117647
4.46005274332,0.8161764705882353
4.46005274332,0.8235294117647058
4.46005274332,0.8308823529411765
5.34308874443,0.8382352941176471
5.35211451387,0.8455882352941176
5.35223824109,0.8529411764705882
5.35292960671,0.8602941176470589
5.35293915509,0.8676470588235294
5.35294817388,0.875
5.35294817388,0.8823529411764706
6.69013826959,0.8897058823529411
8.00900184324,0.8970588235294118
8.02783620027,0.9044117647058824
9.81099072271,0.9117647058823529
10.6839538244,0.9191176470588235
10.7058780301,0.9264705882352942
16.0588443349,0.9338235294117647
21.8543610623,0.9411764705882353
38.808640221,0.9485294117647058
39.6870796146,0.9558823529411765
51.2975853813,0.9632352941176471
63.6987531019,0.9705882352941176
64.6767176287,0.9779411764705882
67.9854488681,0.9852941176470589
70.0011325914,0.9926470588235294
74.3696955258,1.0
