Congestion,CDF
0.0,0.007352941176470588
0.0,0.014705882352941176
0.0,0.022058823529411766
0.0,0.029411764705882353
0.0,0.03676470588235294
0.0,0.04411764705882353
0.0,0.051470588235294115
0.0,0.058823529411764705
0.0,0.0661764705882353
0.0,0.07352941176470588
0.0,0.08088235294117647
0.0,0.08823529411764706
0.0,0.09558823529411764
0.0,0.10294117647058823
2.19453452113e-06,0.11029411764705882
2.19453452113e-06,0.11764705882352941
2.19453452113e-06,0.125
2.19453452113e-06,0.1323529411764706
2.19453452113e-06,0.13970588235294118
2.19453452113e-06,0.14705882352941177
2.19453452113e-06,0.15441176470588236
2.19453452113e-06,0.16176470588235295
2.19453452113e-06,0.16911764705882354
2.19453452113e-06,0.17647058823529413
2.19453452113e-06,0.18382352941176472
2.19453452113e-06,0.19117647058823528
2.19453452113e-06,0.19852941176470587
2.19453452113e-06,0.20588235294117646
2.19453452113e-06,0.21323529411764705
2.19453452113e-06,0.22058823529411764
2.19453452113e-06,0.22794117647058823
2.19453452113e-06,0.23529411764705882
2.19453452113e-06,0.2426470588235294
2.19453452113e-06,0.25
2.19453452113e-06,0.25735294117647056
2.19453452113e-06,0.2647058823529412
2.19453452113e-06,0.27205882352941174
2.19453452113e-06,0.27941176470588236
2.19453452113e-06,0.2867647058823529
2.19453452113e-06,0.29411764705882354
2.19453452113e-06,0.3014705882352941
5.48633630283e-05,0.3088235294117647
5.48633630283e-05,0.3161764705882353
5.92524320706e-05,0.3235294117647059
0.000109726726057,0.33088235294117646
0.000109726726057,0.3382352941176471
0.000109726726057,0.34558823529411764
0.000109726726057,0.35294117647058826
0.000164590089085,0.3602941176470588
0.000182877876761,0.36764705882352944
0.000182877876761,0.375
0.000182877876761,0.38235294117647056
0.000219453452113,0.3897058823529412
0.000219453452113,0.39705882352941174
0.000219453452113,0.40441176470588236
0.000219453452113,0.4117647058823529
0.000219453452113,0.41911764705882354
0.000219453452113,0.4264705882352941
0.000219453452113,0.4338235294117647
0.000240236290946,0.4411764705882353
0.000274316815142,0.4485294117647059
0.00032918017817,0.45588235294117646
0.00032918017817,0.4632352941176471
0.000402331328874,0.47058823529411764
0.000438906904227,0.47794117647058826
0.000438906904227,0.4852941176470588
0.00065836035634,0.49264705882352944
0.000892221119146,0.5
0.000896101596129,0.5073529411764706
0.00159103752782,0.5147058823529411
0.00162761310317,0.5220588235294118
0.00210309558275,0.5294117647058824
0.00261515363768,0.5367647058823529
0.00265172921304,0.5441176470588235
0.0028346070898,0.5514705882352942
0.00287118266515,0.5588235294117647
0.00309063611726,0.5661764705882353
0.0152156975012,0.5735294117647058
0.0153475357218,0.5808823529411765
0.0157296236798,0.5882352941176471
0.0157952599795,0.5955882352941176
0.0158575804678,0.6029411764705882
0.0158658207103,0.6102941176470589
0.0159423591746,0.6176470588235294
0.015968985137,0.625
0.0159716974001,0.6323529411764706
0.0159812219319,0.6397058823529411
0.0159854227898,0.6470588235294118
0.015985458305,0.6544117647058824
0.0159864418287,0.6617647058823529
0.0159872501829,0.6691176470588235
0.0159876233869,0.6764705882352942
0.0159881215197,0.6838235294117647
0.0159889586827,0.6911764705882353
0.0159942307306,0.6985294117647058
0.0159962703898,0.7058823529411765
0.0159962941699,0.7132352941176471
0.0159963929884,0.7205882352941176
0.0159963989915,0.7279411764705882
0.0159964861553,0.7352941176470589
0.0159964901573,0.7426470588235294
0.0159964901573,0.75
0.39868656955,0.7573529411764706
0.399661045717,0.7647058823529411
0.399723967068,0.7720588235294118
0.79287902339,0.7794117647058824
0.79287902339,0.7867647058823529
0.799406075986,0.7941176470588235
0.799406075986,0.8014705882352942
1.19898313715,0.8088235294117647
1.33223243911,0.8161764705882353
1.33223243911,0.8235294117647058
1.33223243911,0.8308823529411765
1.58658207103,0.8382352941176471
1.59872501829,0.8455882352941176
1.59889586827,0.8529411764705882
1.59962941699,0.8602941176470589
1.59963989915,0.8676470588235294
1.59964901573,0.875
1.59964901573,0.8823529411764706
1.99842338441,0.8897058823529411
2.36584139137,0.8970588235294118
2.39752826918,0.9044117647058824
2.92940217912,0.9117647058823529
3.16610806898,0.9191176470588235
3.19927919799,0.9264705882352942
4.798946647,0.9338235294117647
6.52792667231,0.9411764705882353
11.597206268,0.9485294117647058
11.8444437923,0.9558823529411765
15.3282678562,0.9632352941176471
18.8979630027,0.9705882352941176
18.9871851147,0.9779411764705882
19.3226946391,0.9852941176470589
20.8574482112,0.9926470588235294
20.8814718403,1.0
