Congestion,CDF
0.0,0.007352941176470588
0.0,0.014705882352941176
0.0,0.022058823529411766
0.0,0.029411764705882353
0.0,0.03676470588235294
0.0,0.04411764705882353
0.0,0.051470588235294115
0.0,0.058823529411764705
0.0,0.0661764705882353
0.0,0.07352941176470588
0.0,0.08088235294117647
0.0,0.08823529411764706
0.0,0.09558823529411764
0.0,0.10294117647058823
9.24000098607e-06,0.11029411764705882
9.24000098607e-06,0.11764705882352941
9.24000098607e-06,0.125
9.24000098607e-06,0.1323529411764706
9.24000098607e-06,0.13970588235294118
9.24000098607e-06,0.14705882352941177
9.24000098607e-06,0.15441176470588236
9.24000098607e-06,0.16176470588235295
9.24000098607e-06,0.16911764705882354
9.24000098607e-06,0.17647058823529413
9.24000098607e-06,0.18382352941176472
9.24000098607e-06,0.19117647058823528
9.24000098607e-06,0.19852941176470587
9.24000098607e-06,0.20588235294117646
9.24000098607e-06,0.21323529411764705
9.24000098607e-06,0.22058823529411764
9.24000098607e-06,0.22794117647058823
9.24000098607e-06,0.23529411764705882
9.24000098607e-06,0.2426470588235294
9.24000098607e-06,0.25
9.24000098607e-06,0.25735294117647056
9.24000098607e-06,0.2647058823529412
9.24000098607e-06,0.27205882352941174
9.24000098607e-06,0.27941176470588236
9.24000098607e-06,0.2867647058823529
9.24000098607e-06,0.29411764705882354
9.24000098607e-06,0.3014705882352941
0.000231000024652,0.3088235294117647
0.000231000024652,0.3161764705882353
0.000231714469852,0.3235294117647059
0.000249480026624,0.33088235294117646
0.000462000049303,0.3382352941176471
0.000462000049303,0.34558823529411764
0.000462000049303,0.35294117647058826
0.000462000049303,0.3602941176470588
0.000560741580182,0.36764705882352944
0.000693000073955,0.375
0.000770000082172,0.38235294117647056
0.000770000082172,0.3897058823529412
0.000770000082172,0.39705882352941174
0.000924000098607,0.40441176470588236
0.000924000098607,0.4117647058823529
0.000924000098607,0.41911764705882354
0.000924000098607,0.4264705882352941
0.000924000098607,0.4338235294117647
0.000924000098607,0.4411764705882353
0.000924000098607,0.4485294117647059
0.00115500012326,0.45588235294117646
0.00138600014791,0.4632352941176471
0.00138600014791,0.47058823529411764
0.00169400018078,0.47794117647058826
0.00184800019721,0.4852941176470588
0.00184800019721,0.49264705882352944
0.00277200029582,0.5
0.00280795302565,0.5073529411764706
0.0030202497697,0.5147058823529411
0.00340976030546,0.5220588235294118
0.00354573826716,0.5294117647058824
0.0036295077943,0.5367647058823529
0.00368088413012,0.5441176470588235
0.00377300040264,0.5514705882352942
0.00391720202636,0.5588235294117647
0.00396990031658,0.5661764705882353
0.00398577771661,0.5735294117647058
0.00400582782307,0.5808823529411765
0.00401282194585,0.5882352941176471
0.00401531091883,0.5955882352941176
0.00401639620254,0.6029411764705882
0.00401902948905,0.6102941176470589
0.00402051162388,0.6176470588235294
0.00402428035801,0.625
0.0040264623996,0.6323529411764706
0.00404635521313,0.6397058823529411
0.00405287147357,0.6470588235294118
0.00405291410417,0.6544117647058824
0.00405326288191,0.6617647058823529
0.00405327604976,0.6691176470588235
0.0040536277906,0.6764705882352942
0.00405363656977,0.6838235294117647
0.00405363656977,0.6911764705882353
0.0066990007149,0.6985294117647058
0.00685300073133,0.7058823529411765
0.00885500094498,0.7132352941176471
0.0110110011751,0.7205882352941176
0.0111650011915,0.7279411764705882
0.0119350012737,0.7352941176470589
0.0120890012901,0.7426470588235294
0.0130130013887,0.75
0.0973196508155,0.7573529411764706
0.100382772971,0.7647058823529411
0.10060700895,0.7720588235294118
0.184044206506,0.7794117647058824
0.184044206506,0.7867647058823529
0.20132311998,0.7941176470588235
0.20132311998,0.8014705882352942
0.301148318912,0.8088235294117647
0.334750513449,0.8161764705882353
0.334750513449,0.8235294117647058
0.334750513449,0.8308823529411765
0.36295077943,0.8382352941176471
0.401902948905,0.8455882352941176
0.402428035801,0.8529411764705882
0.405291410417,0.8602941176470589
0.405327604976,0.8676470588235294
0.405363656977,0.875
0.405363656977,0.8823529411764706
0.502433935359,0.8897058823529411
0.525020237053,0.8970588235294118
0.601905902287,0.9044117647058824
0.717524606147,0.9117647058823529
0.731740545107,0.9191176470588235
0.810653893166,0.9264705882352942
1.21609009301,0.9338235294117647
1.64072701797,0.9411764705882353
2.9379295529,0.9485294117647058
2.94823197222,0.9558823529411765
3.87863870765,0.9632352941176471
4.47157211798,0.9705882352941176
4.527646276,0.9779411764705882
4.87912238159,0.9852941176470589
5.18114735856,0.9926470588235294
5.20431880555,1.0
