Congestion,CDF
0.0,0.007352941176470588
0.0,0.014705882352941176
0.0,0.022058823529411766
0.0,0.029411764705882353
0.0,0.03676470588235294
0.0,0.04411764705882353
0.0,0.051470588235294115
0.0,0.058823529411764705
0.0,0.0661764705882353
0.0,0.07352941176470588
0.0,0.08088235294117647
0.0,0.08823529411764706
0.0,0.09558823529411764
0.0,0.10294117647058823
5.89852137929e-07,0.11029411764705882
5.89852137929e-07,0.11764705882352941
5.89852137929e-07,0.125
5.89852137929e-07,0.1323529411764706
5.89852137929e-07,0.13970588235294118
5.89852137929e-07,0.14705882352941177
5.89852137929e-07,0.15441176470588236
5.89852137929e-07,0.16176470588235295
5.89852137929e-07,0.16911764705882354
5.89852137929e-07,0.17647058823529413
5.89852137929e-07,0.18382352941176472
5.89852137929e-07,0.19117647058823528
5.89852137929e-07,0.19852941176470587
5.89852137929e-07,0.20588235294117646
5.89852137929e-07,0.21323529411764705
5.89852137929e-07,0.22058823529411764
5.89852137929e-07,0.22794117647058823
5.89852137929e-07,0.23529411764705882
5.89852137929e-07,0.2426470588235294
5.89852137929e-07,0.25
5.89852137929e-07,0.25735294117647056
5.89852137929e-07,0.2647058823529412
5.89852137929e-07,0.27205882352941174
5.89852137929e-07,0.27941176470588236
5.89852137929e-07,0.2867647058823529
5.89852137929e-07,0.29411764705882354
5.89852137929e-07,0.3014705882352941
1.47463034482e-05,0.3088235294117647
1.47463034482e-05,0.3161764705882353
1.59260077241e-05,0.3235294117647059
2.94926068964e-05,0.33088235294117646
2.94926068964e-05,0.3382352941176471
2.94926068964e-05,0.34558823529411764
2.94926068964e-05,0.35294117647058826
4.42389103447e-05,0.3602941176470588
4.91543448274e-05,0.36764705882352944
4.91543448274e-05,0.375
4.91543448274e-05,0.38235294117647056
5.89852137929e-05,0.3897058823529412
5.89852137929e-05,0.39705882352941174
5.89852137929e-05,0.40441176470588236
5.89852137929e-05,0.4117647058823529
5.89852137929e-05,0.41911764705882354
5.89852137929e-05,0.4264705882352941
5.89852137929e-05,0.4338235294117647
7.37315172411e-05,0.4411764705882353
8.84778206893e-05,0.4485294117647059
8.84778206893e-05,0.45588235294117646
0.00010813955862,0.4632352941176471
0.000117970427586,0.47058823529411764
0.000117970427586,0.47794117647058826
0.000176955641379,0.4852941176470588
0.000240856289654,0.49264705882352944
0.000427642799998,0.5
0.000437473668964,0.5073529411764706
0.000565274965515,0.5147058823529411
0.000702907131032,0.5220588235294118
0.000712737999997,0.5294117647058824
0.000761892344825,0.5367647058823529
0.00077172321379,0.5441176470588235
0.000830708427583,0.5514705882352942
0.0450088102697,0.5588235294117647
0.0457971296441,0.5661764705882353
0.0549013103692,0.5735294117647058
0.0549569303629,0.5808823529411765
0.055076800331,0.5882352941176471
0.0551154321591,0.5955882352941176
0.0551370660334,0.6029411764705882
0.0551467485716,0.6102941176470589
0.0552032771463,0.6176470588235294
0.0552154443949,0.625
0.0552191068643,0.6323529411764706
0.0552231694682,0.6397058823529411
0.0552257064367,0.6470588235294118
0.0552262272595,0.6544117647058824
0.0552266091474,0.6617647058823529
0.0552271917167,0.6691176470588235
0.0552273835431,0.6764705882352942
0.055228427701,0.6838235294117647
0.0552285470677,0.6911764705882353
0.055233721309,0.6985294117647058
0.0552353319209,0.7058823529411765
0.0552353410588,0.7132352941176471
0.0552354337371,0.7205882352941176
0.0552354365346,0.7279411764705882
0.0552355248573,0.7352941176470589
0.0552355267223,0.7426470588235294
0.0552355267223,0.75
1.38065568149,0.7573529411764706
1.38071069252,0.7647058823529411
1.47047316135,0.7720588235294118
2.75733742858,0.7794117647058824
2.75733742858,0.7867647058823529
2.76142735338,0.7941176470588235
2.76142735338,0.8014705882352942
4.14196704446,0.8088235294117647
4.60222325524,0.8161764705882353
4.60222325524,0.8235294117647058
4.60222325524,0.8308823529411765
5.51370660334,0.8382352941176471
5.52271917167,0.8455882352941176
5.5228427701,0.8529411764705882
5.52353410588,0.8602941176470589
5.52354365346,0.8676470588235294
5.52355267223,0.875
5.52355267223,0.8823529411764706
6.90339403579,0.8897058823529411
8.26501746168,0.8970588235294118
8.2837443002,0.9044117647058824
10.1237676947,0.9117647058823529
11.0252498193,0.9191176470588235
11.0470870272,0.9264705882352942
16.5706578302,0.9338235294117647
22.5509973774,0.9411764705882353
40.0455228479,0.9485294117647058
40.9524302154,0.9558823529411765
52.9325455874,0.9632352941176471
65.7328285332,0.9705882352941176
66.738200574,0.9779411764705882
70.2337095602,0.9852941176470589
72.2338936103,0.9926470588235294
76.8136065747,1.0
