Congestion,CDF
0.0,0.007352941176470588
0.0,0.014705882352941176
0.0,0.022058823529411766
0.0,0.029411764705882353
0.0,0.03676470588235294
0.0,0.04411764705882353
0.0,0.051470588235294115
0.0,0.058823529411764705
0.0,0.0661764705882353
0.0,0.07352941176470588
0.0,0.08088235294117647
0.0,0.08823529411764706
0.0,0.09558823529411764
0.0,0.10294117647058823
8.27925259964e-07,0.11029411764705882
8.27925259964e-07,0.11764705882352941
8.27925259964e-07,0.125
8.27925259964e-07,0.1323529411764706
8.27925259964e-07,0.13970588235294118
8.27925259964e-07,0.14705882352941177
8.27925259964e-07,0.15441176470588236
8.27925259964e-07,0.16176470588235295
8.27925259964e-07,0.16911764705882354
8.27925259964e-07,0.17647058823529413
8.27925259964e-07,0.18382352941176472
8.27925259964e-07,0.19117647058823528
8.27925259964e-07,0.19852941176470587
8.27925259964e-07,0.20588235294117646
8.27925259964e-07,0.21323529411764705
8.27925259964e-07,0.22058823529411764
8.27925259964e-07,0.22794117647058823
8.27925259964e-07,0.23529411764705882
8.27925259964e-07,0.2426470588235294
8.27925259964e-07,0.25
8.27925259964e-07,0.25735294117647056
8.27925259964e-07,0.2647058823529412
8.27925259964e-07,0.27205882352941174
8.27925259964e-07,0.27941176470588236
8.27925259964e-07,0.2867647058823529
8.27925259964e-07,0.29411764705882354
8.27925259964e-07,0.3014705882352941
2.06981314991e-05,0.3088235294117647
2.06981314991e-05,0.3161764705882353
2.2353982019e-05,0.3235294117647059
4.13962629982e-05,0.33088235294117646
4.13962629982e-05,0.3382352941176471
4.13962629982e-05,0.34558823529411764
4.13962629982e-05,0.35294117647058826
6.20943944973e-05,0.3602941176470588
6.89937716637e-05,0.36764705882352944
6.89937716637e-05,0.375
6.89937716637e-05,0.38235294117647056
8.27925259964e-05,0.3897058823529412
8.27925259964e-05,0.39705882352941174
8.27925259964e-05,0.40441176470588236
8.27925259964e-05,0.4117647058823529
8.27925259964e-05,0.41911764705882354
8.27925259964e-05,0.4264705882352941
8.27925259964e-05,0.4338235294117647
0.000103490657496,0.4411764705882353
0.000124188788995,0.4485294117647059
0.000124188788995,0.45588235294117646
0.00015178629766,0.4632352941176471
0.000165585051993,0.47058823529411764
0.000165585051993,0.47794117647058826
0.000248377577989,0.4852941176470588
0.000338069481152,0.49264705882352944
0.000600245813474,0.5
0.000614044567807,0.5073529411764706
0.000793428374132,0.5147058823529411
0.000986610934791,0.5220588235294118
0.00100040968912,0.5294117647058824
0.00106940346079,0.5367647058823529
0.00108320221512,0.5441176470588235
0.00116599474112,0.5514705882352942
0.0254960154984,0.5588235294117647
0.0265451579832,0.5661764705882353
0.0394487150799,0.5735294117647058
0.0395208222957,0.5808823529411765
0.039708414466,0.5882352941176471
0.0397505388044,0.5955882352941176
0.0397804135265,0.6029411764705882
0.0397887401287,0.6102941176470589
0.0398460440401,0.6176470588235294
0.0398607096435,0.625
0.039863259557,0.6323529411764706
0.0398685590472,0.6397058823529411
0.0398712576082,0.6470588235294118
0.039871807317,0.6544117647058824
0.0398720561648,0.6617647058823529
0.0398727549498,0.6691176470588235
0.0398729531601,0.6764705882352942
0.0398740154836,0.6838235294117647
0.039874090992,0.6911764705882353
0.0398792842842,0.6985294117647058
0.0398809261179,0.7058823529411765
0.0398809360044,0.7132352941176471
0.0398810287865,0.7205882352941176
0.0398810316651,0.7279411764705882
0.0398811199413,0.7352941176470589
0.0398811218603,0.7426470588235294
0.0398811218603,0.75
0.996795182926,0.7573529411764706
0.996850387091,0.7647058823529411
1.04763289627,0.7720588235294118
1.98943700643,0.7794117647058824
1.98943700643,0.7867647058823529
1.9937045496,0.7941176470588235
1.9937045496,0.8014705882352942
2.99038554878,0.8088235294117647
3.32268749029,0.8161764705882353
3.32268749029,0.8235294117647058
3.32268749029,0.8308823529411765
3.97804135265,0.8382352941176471
3.98727549498,0.8455882352941176
3.98740154836,0.8529411764705882
3.98809360044,0.8602941176470589
3.98810316651,0.8676470588235294
3.98811218603,0.875
3.98811218603,0.8823529411764706
4.98409049893,0.8897058823529411
5.96027845303,0.8970588235294118
5.98056045432,0.9044117647058824
7.30875845464,0.9117647058823529
7.95309523309,0.9191176470588235
7.97620604516,0.9264705882352942
11.9643363662,0.9338235294117647
16.2812591007,0.9411764705882353
28.9135790107,0.9485294117647058
29.5640589658,0.9558823529411765
38.217899479,0.9632352941176471
47.4223041599,0.9705882352941176
48.184785889,0.9779411764705882
49.9719057097,0.9852941176470589
52.1368681186,0.9926470588235294
54.7913839169,1.0
