Congestion,CDF
0.0,0.007352941176470588
0.0,0.014705882352941176
0.0,0.022058823529411766
0.0,0.029411764705882353
0.0,0.03676470588235294
0.0,0.04411764705882353
0.0,0.051470588235294115
0.0,0.058823529411764705
0.0,0.0661764705882353
0.0,0.07352941176470588
0.0,0.08088235294117647
0.0,0.08823529411764706
0.0,0.09558823529411764
0.0,0.10294117647058823
8.6685542059e-07,0.11029411764705882
8.6685542059e-07,0.11764705882352941
8.6685542059e-07,0.125
8.6685542059e-07,0.1323529411764706
8.6685542059e-07,0.13970588235294118
8.6685542059e-07,0.14705882352941177
8.6685542059e-07,0.15441176470588236
8.6685542059e-07,0.16176470588235295
8.6685542059e-07,0.16911764705882354
8.6685542059e-07,0.17647058823529413
8.6685542059e-07,0.18382352941176472
8.6685542059e-07,0.19117647058823528
8.6685542059e-07,0.19852941176470587
8.6685542059e-07,0.20588235294117646
8.6685542059e-07,0.21323529411764705
8.6685542059e-07,0.22058823529411764
8.6685542059e-07,0.22794117647058823
8.6685542059e-07,0.23529411764705882
8.6685542059e-07,0.2426470588235294
8.6685542059e-07,0.25
8.6685542059e-07,0.25735294117647056
8.6685542059e-07,0.2647058823529412
8.6685542059e-07,0.27205882352941174
8.6685542059e-07,0.27941176470588236
8.6685542059e-07,0.2867647058823529
8.6685542059e-07,0.29411764705882354
8.6685542059e-07,0.3014705882352941
2.16713855148e-05,0.3088235294117647
2.16713855148e-05,0.3161764705882353
2.34050963559e-05,0.3235294117647059
4.33427710295e-05,0.33088235294117646
4.33427710295e-05,0.3382352941176471
4.33427710295e-05,0.34558823529411764
4.33427710295e-05,0.35294117647058826
6.50141565443e-05,0.3602941176470588
7.22379517159e-05,0.36764705882352944
7.22379517159e-05,0.375
7.22379517159e-05,0.38235294117647056
8.6685542059e-05,0.3897058823529412
8.6685542059e-05,0.39705882352941174
8.6685542059e-05,0.40441176470588236
8.6685542059e-05,0.4117647058823529
8.6685542059e-05,0.41911764705882354
8.6685542059e-05,0.4264705882352941
8.6685542059e-05,0.4338235294117647
0.000108356927574,0.4411764705882353
0.000130028313089,0.4485294117647059
0.000130028313089,0.45588235294117646
0.000158923493775,0.4632352941176471
0.000173371084118,0.47058823529411764
0.000173371084118,0.47794117647058826
0.000260056626177,0.4852941176470588
0.000353965963408,0.49264705882352944
0.000628470179928,0.5
0.000642917770271,0.5073529411764706
0.000830736444733,0.5147058823529411
0.00103300270954,0.5220588235294118
0.00104745029988,0.5294117647058824
0.0011196882516,0.5367647058823529
0.00113413584194,0.5441176470588235
0.001220821384,0.5514705882352942
0.023302961192,0.5588235294117647
0.0243766639228,0.5661764705882353
0.0377267804161,0.5735294117647058
0.0378015716672,0.5808823529411765
0.0379996860034,0.5882352941176471
0.0380424806111,0.5955882352941176
0.0380738620824,0.6029411764705882
0.0380818831052,0.6102941176470589
0.0381394561776,0.6176470588235294
0.0381545903552,0.625
0.0381569381368,0.6323529411764706
0.0381624678355,0.6397058823529411
0.0381652010959,0.6470588235294118
0.0381657577688,0.6544117647058824
0.0381659778162,0.6617647058823529
0.0381667015987,0.6691176470588235
0.0381669014825,0.6764705882352942
0.0381679682694,0.6838235294117647
0.0381680325992,0.6911764705882353
0.0381732320652,0.6985294117647058
0.0381748808847,0.7058823529411765
0.0381748909587,0.7132352941176471
0.0381749837722,0.7205882352941176
0.0381749866742,0.7279411764705882
0.0381750749374,0.7352941176470589
0.0381750768721,0.7426470588235294
0.0381750768721,0.75
0.954143944221,0.7573529411764706
0.954199206734,0.7647058823529411
1.00058408517,0.7720588235294118
1.90409415526,0.7794117647058824
1.90409415526,0.7867647058823529
1.90840162996,0.7941176470588235
1.90840162996,0.8014705882352942
2.86243183266,0.8088235294117647
3.18051652082,0.8161764705882353
3.18051652082,0.8235294117647058
3.18051652082,0.8308823529411765
3.80738620824,0.8382352941176471
3.81667015987,0.8455882352941176
3.81679682694,0.8529411764705882
3.81748909587,0.8602941176470589
3.81749866742,0.8676470588235294
3.81750768721,0.875
3.81750768721,0.8823529411764706
4.77083409247,0.8897058823529411
5.7040627556,0.8970588235294118
5.72464841351,0.9044117647058824
6.99597555634,0.9117647058823529
7.61163426935,0.9191176470588235
7.63499704464,0.9264705882352942
11.4525228682,0.9338235294117647
15.5846185548,0.9411764705882353
27.6766963039,0.9485294117647058
28.2986338841,0.9558823529411765
36.5829376612,0.9632352941176471
45.3870089507,0.9705882352941176
46.1232798884,0.9779411764705882
47.7173050699,0.9852941176470589
49.9034370551,0.9926470588235294
52.3411034474,1.0
