Congestion,CDF
0.00116549891502,0.005555555555555556
0.00116549891502,0.011111111111111112
0.00116569896078,0.016666666666666666
0.00116569896078,0.022222222222222223
0.00116762354815,0.027777777777777776
0.00116762354815,0.03333333333333333
0.00116921355236,0.03888888888888889
0.00116921355236,0.044444444444444446
0.00116933030366,0.05
0.00116933030366,0.05555555555555555
0.00117097288184,0.06111111111111111
0.00117097288184,0.06666666666666667
0.00117164862241,0.07222222222222222
0.00117164862241,0.07777777777777778
0.00117444240307,0.08333333333333333
0.00117444240307,0.08888888888888889
0.00117449491844,0.09444444444444444
0.00117449491844,0.1
0.00117472991989,0.10555555555555556
0.00117472991989,0.1111111111111111
0.00117494438853,0.11666666666666667
0.00117494438853,0.12222222222222222
0.0011760137115,0.12777777777777777
0.0011760137115,0.13333333333333333
0.00117628393731,0.1388888888888889
0.00117628393731,0.14444444444444443
0.00117767229104,0.15
0.00117767229104,0.15555555555555556
0.00117799289233,0.16111111111111112
0.00117799289233,0.16666666666666666
0.00117871132352,0.17222222222222222
0.00117871132352,0.17777777777777778
0.00118093198555,0.18333333333333332
0.00118093198555,0.18888888888888888
0.0011824740441,0.19444444444444445
0.0011824740441,0.2
0.00118326128036,0.20555555555555555
0.00118326128036,0.2111111111111111
0.0011840043683,0.21666666666666667
0.0011840043683,0.2222222222222222
0.00118430913198,0.22777777777777777
0.00118430913198,0.23333333333333334
0.00118446624282,0.2388888888888889
0.00118446624282,0.24444444444444444
0.00118511862958,0.25
0.00118511862958,0.25555555555555554
0.00118582402614,0.2611111111111111
0.00118582402614,0.26666666666666666
0.00118617802529,0.2722222222222222
0.00118617802529,0.2777777777777778
0.0011864186279,0.2833333333333333
0.0011864186279,0.28888888888888886
0.00118653818787,0.29444444444444445
0.00118653818787,0.3
0.00118678660257,0.3055555555555556
0.00118678660257,0.3111111111111111
0.00118700034253,0.31666666666666665
0.00118700034253,0.32222222222222224
0.00118704875958,0.3277777777777778
0.00118704875958,0.3333333333333333
0.00118778713525,0.3388888888888889
0.00118778713525,0.34444444444444444
0.00118797747407,0.35
0.00118797747407,0.35555555555555557
0.0011882411787,0.3611111111111111
0.0011882411787,0.36666666666666664
0.00119016227378,0.37222222222222223
0.00119016227378,0.37777777777777777
0.00119097832165,0.38333333333333336
0.00119097832165,0.3888888888888889
0.00119146633056,0.39444444444444443
0.00119146633056,0.4
0.00119370377271,0.40555555555555556
0.00119370377271,0.4111111111111111
0.00119415078741,0.4166666666666667
0.00119415078741,0.4222222222222222
0.00119456272284,0.42777777777777776
0.00119456272284,0.43333333333333335
0.00119554379412,0.4388888888888889
0.00119554379412,0.4444444444444444
0.0404893791637,0.45
0.0404893791637,0.45555555555555555
0.0434354779161,0.46111111111111114
0.0434354779161,0.4666666666666667
0.0567136266133,0.4722222222222222
0.0567136266133,0.4777777777777778
0.0666906574563,0.48333333333333334
0.0666906574563,0.4888888888888889
0.0770160082662,0.49444444444444446
0.0770160082662,0.5
0.101496274286,0.5055555555555555
0.101496274286,0.5111111111111111
0.10338427434,0.5166666666666667
0.10338427434,0.5222222222222223
0.10480012731,0.5277777777777778
0.10480012731,0.5333333333333333
0.128495652234,0.5388888888888889
0.128495652234,0.5444444444444444
0.130075987014,0.55
0.130075987014,0.5555555555555556
0.134397379421,0.5611111111111111
0.134397379421,0.5666666666666667
0.134485994541,0.5722222222222222
0.134485994541,0.5777777777777777
0.138075773596,0.5833333333333334
0.138075773596,0.5888888888888889
0.143850563718,0.5944444444444444
0.143850563718,0.6
0.149975378666,0.6055555555555555
0.149975378666,0.6111111111111112
0.15509419163,0.6166666666666667
0.15509419163,0.6222222222222222
0.157464316173,0.6277777777777778
0.157464316173,0.6333333333333333
0.158616922649,0.6388888888888888
0.158616922649,0.6444444444444445
0.161591823295,0.65
0.161591823295,0.6555555555555556
0.162167502407,0.6611111111111111
0.162167502407,0.6666666666666666
0.170409895933,0.6722222222222223
0.170409895933,0.6777777777777778
0.173551555038,0.6833333333333333
0.173551555038,0.6888888888888889
0.173560728551,0.6944444444444444
0.173560728551,0.7
0.17938937799,0.7055555555555556
0.17938937799,0.7111111111111111
0.187030616188,0.7166666666666667
0.187030616188,0.7222222222222222
0.19491050512,0.7277777777777777
0.19491050512,0.7333333333333333
0.205153850491,0.7388888888888889
0.205153850491,0.7444444444444445
0.228900516261,0.75
0.228900516261,0.7555555555555555
0.233300182509,0.7611111111111111
0.233300182509,0.7666666666666667
0.23850109047,0.7722222222222223
0.23850109047,0.7777777777777778
0.244465326062,0.7833333333333333
0.244465326062,0.7888888888888889
0.257669208624,0.7944444444444444
0.257669208624,0.8
0.26166800894,0.8055555555555556
0.26166800894,0.8111111111111111
0.269196757963,0.8166666666666667
0.269196757963,0.8222222222222222
0.285278824492,0.8277777777777777
0.285278824492,0.8333333333333334
0.295223676946,0.8388888888888889
0.295223676946,0.8444444444444444
0.309275437118,0.85
0.309275437118,0.8555555555555555
0.335325156414,0.8611111111111112
0.335325156414,0.8666666666666667
0.358945471635,0.8722222222222222
0.358945471635,0.8777777777777778
0.369423575486,0.8833333333333333
0.369423575486,0.8888888888888888
0.376222407495,0.8944444444444445
0.376222407495,0.9
0.403393029998,0.9055555555555556
0.403393029998,0.9111111111111111
0.426410118418,0.9166666666666666
0.426410118418,0.9222222222222223
0.436828115969,0.9277777777777778
0.436828115969,0.9333333333333333
0.482804651515,0.9388888888888889
0.482804651515,0.9444444444444444
0.497345767496,0.95
0.497345767496,0.9555555555555556
0.51345530632,0.9611111111111111
0.51345530632,0.9666666666666667
0.535436337431,0.9722222222222222
0.535436337431,0.9777777777777777
0.581232724734,0.9833333333333333
0.581232724734,0.9888888888888889
0.609700681581,0.9944444444444445
0.609700681581,1.0
