Congestion,CDF
0.0091224721885,0.005555555555555556
0.0091224721885,0.011111111111111112
0.00948105479884,0.016666666666666666
0.00948105479884,0.022222222222222223
0.00960208185527,0.027777777777777776
0.00960208185527,0.03333333333333333
0.0098077590645,0.03888888888888889
0.0098077590645,0.044444444444444446
0.00983804556525,0.05
0.00983804556525,0.05555555555555555
0.0100197939211,0.06111111111111111
0.0100197939211,0.06666666666666667
0.0100311873725,0.07222222222222222
0.0100311873725,0.07777777777777778
0.0100415840545,0.08333333333333333
0.0100415840545,0.08888888888888889
0.0100660279153,0.09444444444444444
0.0100660279153,0.1
0.0102299098681,0.10555555555555556
0.0102299098681,0.1111111111111111
0.0102932581444,0.11666666666666667
0.0102932581444,0.12222222222222222
0.0103513191349,0.12777777777777777
0.0103513191349,0.13333333333333333
0.010364071314,0.1388888888888889
0.010364071314,0.14444444444444443
0.0103788209536,0.15
0.0103788209536,0.15555555555555556
0.0104502573764,0.16111111111111112
0.0104502573764,0.16666666666666666
0.0104516970589,0.17222222222222222
0.0104516970589,0.17777777777777778
0.0104990152954,0.18333333333333332
0.0104990152954,0.18888888888888888
0.010542686871,0.19444444444444445
0.010542686871,0.2
0.0106393960234,0.20555555555555555
0.0106393960234,0.2111111111111111
0.0107246424437,0.21666666666666667
0.0107246424437,0.2222222222222222
0.0107631015059,0.22777777777777777
0.0107631015059,0.23333333333333334
0.0108891992165,0.2388888888888889
0.0108891992165,0.24444444444444444
0.011179404533,0.25
0.011179404533,0.25555555555555554
0.0112123396036,0.2611111111111111
0.0112123396036,0.26666666666666666
0.0114043588836,0.2722222222222222
0.0114043588836,0.2777777777777778
0.0114381196577,0.2833333333333333
0.0114381196577,0.28888888888888886
0.0118835865565,0.29444444444444445
0.0118835865565,0.3
0.0124372421103,0.3055555555555556
0.0124372421103,0.3111111111111111
0.0124479004127,0.31666666666666665
0.0124479004127,0.32222222222222224
0.0124584463365,0.3277777777777778
0.0124584463365,0.3333333333333333
0.0126650700535,0.3388888888888889
0.0126650700535,0.34444444444444444
0.0127715449853,0.35
0.0127715449853,0.35555555555555557
0.0127785810352,0.3611111111111111
0.0127785810352,0.36666666666666664
0.0127991388564,0.37222222222222223
0.0127991388564,0.37777777777777777
0.0128617373834,0.38333333333333336
0.0128617373834,0.3888888888888889
0.0131071459465,0.39444444444444443
0.0131071459465,0.4
0.0131216390806,0.40555555555555556
0.0131216390806,0.4111111111111111
0.0133934489163,0.4166666666666667
0.0133934489163,0.4222222222222222
0.0136414284291,0.42777777777777776
0.0136414284291,0.43333333333333335
0.0136926880414,0.4388888888888889
0.0136926880414,0.4444444444444444
0.272440497353,0.45
0.272440497353,0.45555555555555555
0.322028095452,0.46111111111111114
0.322028095452,0.4666666666666667
0.377751150025,0.4722222222222222
0.377751150025,0.4777777777777778
0.382449675216,0.48333333333333334
0.382449675216,0.4888888888888889
0.663677624207,0.49444444444444446
0.663677624207,0.5
0.769003175248,0.5055555555555555
0.769003175248,0.5111111111111111
0.87130855715,0.5166666666666667
0.87130855715,0.5222222222222223
0.877786892793,0.5277777777777778
0.877786892793,0.5333333333333333
1.03179661772,0.5388888888888889
1.03179661772,0.5444444444444444
1.25762069511,0.55
1.25762069511,0.5555555555555556
1.3179858606,0.5611111111111111
1.3179858606,0.5666666666666667
1.34187533302,0.5722222222222222
1.34187533302,0.5777777777777777
1.39209518966,0.5833333333333334
1.39209518966,0.5888888888888889
1.39266750987,0.5944444444444444
1.39266750987,0.6
1.39810978458,0.6055555555555555
1.39810978458,0.6111111111111112
1.43070226398,0.6166666666666667
1.43070226398,0.6222222222222222
1.5103867511,0.6277777777777778
1.5103867511,0.6333333333333333
1.51243004554,0.6388888888888888
1.51243004554,0.6444444444444445
1.57696713333,0.65
1.57696713333,0.6555555555555556
1.57972456975,0.6611111111111111
1.57972456975,0.6666666666666666
1.63958834897,0.6722222222222223
1.63958834897,0.6777777777777778
1.70111849617,0.6833333333333333
1.70111849617,0.6888888888888889
1.74223716856,0.6944444444444444
1.74223716856,0.7
1.79832898969,0.7055555555555556
1.79832898969,0.7111111111111111
1.86755474444,0.7166666666666667
1.86755474444,0.7222222222222222
1.97432869121,0.7277777777777777
1.97432869121,0.7333333333333333
2.23599536842,0.7388888888888889
2.23599536842,0.7444444444444445
2.71611170825,0.75
2.71611170825,0.7555555555555555
2.71880578811,0.7611111111111111
2.71880578811,0.7666666666666667
2.85296289898,0.7722222222222223
2.85296289898,0.7777777777777778
2.86226859203,0.7833333333333333
2.86226859203,0.7888888888888889
2.99104741518,0.7944444444444444
2.99104741518,0.8
3.0781027315,0.8055555555555556
3.0781027315,0.8111111111111111
3.30383031953,0.8166666666666667
3.30383031953,0.8222222222222222
3.34709068835,0.8277777777777777
3.34709068835,0.8333333333333334
3.45787094598,0.8388888888888889
3.45787094598,0.8444444444444444
3.78118450437,0.85
3.78118450437,0.8555555555555555
3.98764851106,0.8611111111111112
3.98764851106,0.8666666666666667
4.35798074543,0.8722222222222222
4.35798074543,0.8777777777777778
4.73205038588,0.8833333333333333
4.73205038588,0.8888888888888888
4.86355663697,0.8944444444444445
4.86355663697,0.9
5.21861261763,0.9055555555555556
5.21861261763,0.9111111111111111
5.29265194182,0.9166666666666666
5.29265194182,0.9222222222222223
5.84583074817,0.9277777777777778
5.84583074817,0.9333333333333333
6.11436248207,0.9388888888888889
6.11436248207,0.9444444444444444
6.25344354156,0.95
6.25344354156,0.9555555555555556
6.30746080948,0.9611111111111111
6.30746080948,0.9666666666666667
7.3157787927,0.9722222222222222
7.3157787927,0.9777777777777777
7.96066406999,0.9833333333333333
7.96066406999,0.9888888888888889
8.14530410513,0.9944444444444445
8.14530410513,1.0
