Congestion,CDF
0.0330088090703,0.005555555555555556
0.0330088090703,0.011111111111111112
0.0330350753717,0.016666666666666666
0.0330350753717,0.022222222222222223
0.0339383352109,0.027777777777777776
0.0339383352109,0.03333333333333333
0.0339774799868,0.03888888888888889
0.0339774799868,0.044444444444444446
0.0340157858392,0.05
0.0340157858392,0.05555555555555555
0.0343901224747,0.06111111111111111
0.0343901224747,0.06666666666666667
0.0347165112488,0.07222222222222222
0.0347165112488,0.07777777777777778
0.035155534869,0.08333333333333333
0.035155534869,0.08888888888888889
0.035200162306,0.09444444444444444
0.035200162306,0.1
0.035712589695,0.10555555555555556
0.035712589695,0.1111111111111111
0.035739682758,0.11666666666666667
0.035739682758,0.12222222222222222
0.0361883991445,0.12777777777777777
0.0361883991445,0.13333333333333333
0.0362905622998,0.1388888888888889
0.0362905622998,0.14444444444444443
0.0363808087003,0.15
0.0363808087003,0.15555555555555556
0.0364968991569,0.16111111111111112
0.0364968991569,0.16666666666666666
0.0365548614641,0.17222222222222222
0.0365548614641,0.17777777777777778
0.036604505701,0.18333333333333332
0.036604505701,0.18888888888888888
0.0366951911699,0.19444444444444445
0.0366951911699,0.2
0.0369470682804,0.20555555555555555
0.0369470682804,0.2111111111111111
0.0369689030801,0.21666666666666667
0.0369689030801,0.2222222222222222
0.0370797718255,0.22777777777777777
0.0370797718255,0.23333333333333334
0.0372221017392,0.2388888888888889
0.0372221017392,0.24444444444444444
0.0374799157779,0.25
0.0374799157779,0.25555555555555554
0.0377391543925,0.2611111111111111
0.0377391543925,0.26666666666666666
0.0377675699872,0.2722222222222222
0.0377675699872,0.2777777777777778
0.0379418862109,0.2833333333333333
0.0379418862109,0.28888888888888886
0.0381773481225,0.29444444444444445
0.0381773481225,0.3
0.0383875226129,0.3055555555555556
0.0383875226129,0.3111111111111111
0.0384034571112,0.31666666666666665
0.0384034571112,0.32222222222222224
0.0385013364761,0.3277777777777778
0.0385013364761,0.3333333333333333
0.0386677896114,0.3388888888888889
0.0386677896114,0.34444444444444444
0.0386935604042,0.35
0.0386935604042,0.35555555555555557
0.0390497105295,0.3611111111111111
0.0390497105295,0.36666666666666664
0.0390990672385,0.37222222222222223
0.0390990672385,0.37777777777777777
0.0392246342555,0.38333333333333336
0.0392246342555,0.3888888888888889
0.0392267828905,0.39444444444444443
0.0392267828905,0.4
0.0394393039103,0.40555555555555556
0.0394393039103,0.4111111111111111
0.0394450630086,0.4166666666666667
0.0394450630086,0.4222222222222222
0.0398282463524,0.42777777777777776
0.0398282463524,0.43333333333333335
0.0401665372979,0.4388888888888889
0.0401665372979,0.4444444444444444
1.04622522718,0.45
1.04622522718,0.45555555555555555
1.1905228333,0.46111111111111114
1.1905228333,0.4666666666666667
1.32583126635,0.4722222222222222
1.32583126635,0.4777777777777778
1.42081306369,0.48333333333333334
1.42081306369,0.4888888888888889
2.18177241019,0.49444444444444446
2.18177241019,0.5
2.78522444554,0.5055555555555555
2.78522444554,0.5111111111111111
3.10556948295,0.5166666666666667
3.10556948295,0.5222222222222223
3.1787818312,0.5277777777777778
3.1787818312,0.5333333333333333
3.89487717822,0.5388888888888889
3.89487717822,0.5444444444444444
4.18876962564,0.55
4.18876962564,0.5555555555555556
4.33409062019,0.5611111111111111
4.33409062019,0.5666666666666667
4.37282291733,0.5722222222222222
4.37282291733,0.5777777777777777
4.44047480374,0.5833333333333334
4.44047480374,0.5888888888888889
4.5850411051,0.5944444444444444
4.5850411051,0.6
4.66799276753,0.6055555555555555
4.66799276753,0.6111111111111112
4.93215284866,0.6166666666666667
4.93215284866,0.6222222222222222
5.01916953038,0.6277777777777778
5.01916953038,0.6333333333333333
5.1372994557,0.6388888888888888
5.1372994557,0.6444444444444445
5.16317510896,0.65
5.16317510896,0.6555555555555556
5.33890797401,0.6611111111111111
5.33890797401,0.6666666666666666
5.4488702244,0.6722222222222223
5.4488702244,0.6777777777777778
5.7035546673,0.6833333333333333
5.7035546673,0.6888888888888889
5.72414722629,0.6944444444444444
5.72414722629,0.7
5.76748147279,0.7055555555555556
5.76748147279,0.7111111111111111
6.08403875563,0.7166666666666667
6.08403875563,0.7222222222222222
6.4124640861,0.7277777777777777
6.4124640861,0.7333333333333333
6.58650812844,0.7388888888888889
6.58650812844,0.7444444444444445
7.84100312863,0.75
7.84100312863,0.7555555555555555
8.04893774493,0.7611111111111111
8.04893774493,0.7666666666666667
8.07672945717,0.7722222222222223
8.07672945717,0.7777777777777778
8.51985096847,0.7833333333333333
8.51985096847,0.7888888888888889
8.88259533626,0.7944444444444444
8.88259533626,0.8
8.96583882596,0.8055555555555556
8.96583882596,0.8111111111111111
9.38931986877,0.8166666666666667
9.38931986877,0.8222222222222222
9.89401009419,0.8277777777777777
9.89401009419,0.8333333333333334
10.1205296435,0.8388888888888889
10.1205296435,0.8444444444444444
10.8468472884,0.85
10.8468472884,0.8555555555555555
11.8338567888,0.8611111111111112
11.8338567888,0.8666666666666667
12.2512875275,0.8722222222222222
12.2512875275,0.8777777777777778
13.0715430815,0.8833333333333333
13.0715430815,0.8888888888888888
13.2101692604,0.8944444444444445
13.2101692604,0.9
14.246770723,0.9055555555555556
14.246770723,0.9111111111111111
14.9164669125,0.9166666666666666
14.9164669125,0.9222222222222223
15.5199448933,0.9277777777777778
15.5199448933,0.9333333333333333
17.0647084003,0.9388888888888889
17.0647084003,0.9444444444444444
17.3842358462,0.95
17.3842358462,0.9555555555555556
17.9721522229,0.9611111111111111
17.9721522229,0.9666666666666667
19.2352175749,0.9722222222222222
19.2352175749,0.9777777777777777
20.8717610593,0.9833333333333333
20.8717610593,0.9888888888888889
21.7928482645,0.9944444444444445
21.7928482645,1.0
