Congestion,CDF
0.0294175947013,0.005555555555555556
0.0294175947013,0.011111111111111112
0.0294656699949,0.016666666666666666
0.0294656699949,0.022222222222222223
0.0299507017536,0.027777777777777776
0.0299507017536,0.03333333333333333
0.0300246455951,0.03888888888888889
0.0300246455951,0.044444444444444446
0.030130431534,0.05
0.030130431534,0.05555555555555555
0.0301943963047,0.06111111111111111
0.0301943963047,0.06666666666666667
0.0306994782128,0.07222222222222222
0.0306994782128,0.07777777777777778
0.0308939055452,0.08333333333333333
0.0308939055452,0.08888888888888889
0.0313427822906,0.09444444444444444
0.0313427822906,0.1
0.0317260485983,0.10555555555555556
0.0317260485983,0.1111111111111111
0.0318261396275,0.11666666666666667
0.0318261396275,0.12222222222222222
0.0318456214611,0.12777777777777777
0.0318456214611,0.13333333333333333
0.0321655749606,0.1388888888888889
0.0321655749606,0.14444444444444443
0.032252232011,0.15
0.032252232011,0.15555555555555556
0.0323778326975,0.16111111111111112
0.0323778326975,0.16666666666666666
0.0326058320815,0.17222222222222222
0.0326058320815,0.17777777777777778
0.0326064953957,0.18333333333333332
0.0326064953957,0.18888888888888888
0.0326888731486,0.19444444444444445
0.0326888731486,0.2
0.0327020999434,0.20555555555555555
0.0327020999434,0.2111111111111111
0.0328408298747,0.21666666666666667
0.0328408298747,0.2222222222222222
0.0330213825561,0.22777777777777777
0.0330213825561,0.23333333333333334
0.033118576126,0.2388888888888889
0.033118576126,0.24444444444444444
0.0333163079195,0.25
0.0333163079195,0.25555555555555554
0.0335180044942,0.2611111111111111
0.0335180044942,0.26666666666666666
0.0338335911876,0.2722222222222222
0.0338335911876,0.2777777777777778
0.0339349245037,0.2833333333333333
0.0339349245037,0.28888888888888886
0.0341691884588,0.29444444444444445
0.0341691884588,0.3
0.0345403321324,0.3055555555555556
0.0345403321324,0.3111111111111111
0.0345763544979,0.31666666666666665
0.0345763544979,0.32222222222222224
0.0346710262468,0.3277777777777778
0.0346710262468,0.3333333333333333
0.0346939305823,0.3388888888888889
0.0346939305823,0.34444444444444444
0.0348309704511,0.35
0.0348309704511,0.35555555555555557
0.0350643923411,0.3611111111111111
0.0350643923411,0.36666666666666664
0.0352207118942,0.37222222222222223
0.0352207118942,0.37777777777777777
0.035293713732,0.38333333333333336
0.035293713732,0.3888888888888889
0.0353744681418,0.39444444444444443
0.0353744681418,0.4
0.0355467598506,0.40555555555555556
0.0355467598506,0.4111111111111111
0.0355678191472,0.4166666666666667
0.0355678191472,0.4222222222222222
0.0359843857896,0.42777777777777776
0.0359843857896,0.43333333333333335
0.0363988868701,0.4388888888888889
0.0363988868701,0.4444444444444444
0.914348504894,0.45
0.914348504894,0.45555555555555555
1.05807177305,0.46111111111111114
1.05807177305,0.4666666666666667
1.11805039999,0.4722222222222222
1.11805039999,0.4777777777777778
1.1985795945,0.48333333333333334
1.1985795945,0.4888888888888889
1.91351720383,0.49444444444444446
1.91351720383,0.5
2.39326671345,0.5055555555555555
2.39326671345,0.5111111111111111
2.77540507208,0.5166666666666667
2.77540507208,0.5222222222222223
2.84402332147,0.5277777777777778
2.84402332147,0.5333333333333333
3.48140500882,0.5388888888888889
3.48140500882,0.5444444444444444
3.77996201296,0.55
3.77996201296,0.5555555555555556
3.92057337821,0.5611111111111111
3.92057337821,0.5666666666666667
3.94853485844,0.5722222222222222
3.94853485844,0.5777777777777777
4.008132538,0.5833333333333334
4.008132538,0.5888888888888889
4.09157336688,0.5944444444444444
4.09157336688,0.6
4.15283629742,0.6055555555555555
4.15283629742,0.6111111111111112
4.41668230949,0.6166666666666667
4.41668230949,0.6222222222222222
4.49281210245,0.6277777777777778
4.49281210245,0.6333333333333333
4.6159897845,0.6388888888888888
4.6159897845,0.6444444444444445
4.63201270171,0.65
4.63201270171,0.6555555555555556
4.83249520307,0.6611111111111111
4.83249520307,0.6666666666666666
4.91354226287,0.6722222222222223
4.91354226287,0.6777777777777778
5.11626077294,0.6833333333333333
5.11626077294,0.6888888888888889
5.14513423653,0.6944444444444444
5.14513423653,0.7
5.236821848,0.7055555555555556
5.236821848,0.7111111111111111
5.51461306282,0.7166666666666667
5.51461306282,0.7222222222222222
5.76743216347,0.7277777777777777
5.76743216347,0.7333333333333333
5.98814630168,0.7388888888888889
5.98814630168,0.7444444444444445
7.14926483936,0.75
7.14926483936,0.7555555555555555
7.34841411258,0.7611111111111111
7.34841411258,0.7666666666666667
7.36204350786,0.7722222222222223
7.36204350786,0.7777777777777778
7.78573683427,0.7833333333333333
7.78573683427,0.7888888888888889
8.07743548041,0.7944444444444444
8.07743548041,0.8
8.14519998039,0.8055555555555556
8.14519998039,0.8111111111111111
8.58066045974,0.8166666666666667
8.58066045974,0.8222222222222222
9.03263900677,0.8277777777777777
9.03263900677,0.8333333333333334
9.22464331661,0.8388888888888889
9.22464331661,0.8444444444444444
9.91328051051,0.85
9.91328051051,0.8555555555555555
10.8405611552,0.8611111111111112
10.8405611552,0.8666666666666667
11.1369245848,0.8722222222222222
11.1369245848,0.8777777777777778
11.982154837,0.8833333333333333
11.982154837,0.8888888888888888
12.0922301586,0.8944444444444445
12.0922301586,0.9
13.0635028838,0.9055555555555556
13.0635028838,0.9111111111111111
13.6480259168,0.9166666666666666
13.6480259168,0.9222222222222223
14.2479113124,0.9277777777777778
14.2479113124,0.9333333333333333
15.6489208924,0.9388888888888889
15.6489208924,0.9444444444444444
15.9103534869,0.95
15.9103534869,0.9555555555555556
16.4505620589,0.9611111111111111
16.4505620589,0.9666666666666667
17.6678342363,0.9722222222222222
17.6678342363,0.9777777777777777
19.177281341,0.9833333333333333
19.177281341,0.9888888888888889
20.0072719172,0.9944444444444445
20.0072719172,1.0
