Congestion,CDF
0.0,0.007352941176470588
0.0,0.014705882352941176
0.0234545568915,0.022058823529411766
0.0234545568915,0.029411764705882353
0.0238188483006,0.03676470588235294
0.0238188483006,0.04411764705882353
0.0245588445108,0.051470588235294115
0.0245588445108,0.058823529411764705
0.0247010238617,0.0661764705882353
0.0247010238617,0.07352941176470588
0.0251575840063,0.08088235294117647
0.0251575840063,0.08823529411764706
0.0255422678305,0.09558823529411764
0.0255422678305,0.10294117647058823
0.0261614270425,0.11029411764705882
0.0261614270425,0.11764705882352941
0.0265139993997,0.125
0.0265139993997,0.1323529411764706
0.0274792606921,0.13970588235294118
0.0274792606921,0.14705882352941177
0.0286862881735,0.15441176470588236
0.0286862881735,0.16176470588235295
0.0290210392347,0.16911764705882354
0.0290210392347,0.17647058823529413
0.0290294609227,0.18382352941176472
0.0290294609227,0.19117647058823528
0.0296022128051,0.19852941176470587
0.0296022128051,0.20588235294117646
0.0300028780208,0.21323529411764705
0.0300028780208,0.22058823529411764
0.0305243112308,0.22794117647058823
0.0305243112308,0.23529411764705882
0.0308884600479,0.2426470588235294
0.0308884600479,0.25
0.0311728691134,0.25735294117647056
0.0311728691134,0.2647058823529412
0.0314462985053,0.27205882352941174
0.0314462985053,0.27941176470588236
0.0319128935284,0.2867647058823529
0.0319128935284,0.29411764705882354
0.0322399532376,0.3014705882352941
0.0322399532376,0.3088235294117647
0.0331296930632,0.3161764705882353
0.0331296930632,0.3235294117647059
0.0337037971512,0.33088235294117646
0.0337037971512,0.3382352941176471
0.0346475428693,0.34558823529411764
0.0346475428693,0.35294117647058826
0.0348897412659,0.3602941176470588
0.0348897412659,0.36764705882352944
0.035132816577,0.375
0.035132816577,0.38235294117647056
0.0365939201845,0.3897058823529412
0.0365939201845,0.39705882352941174
0.037850136369,0.40441176470588236
0.037850136369,0.4117647058823529
0.0379035691002,0.41911764705882354
0.0379035691002,0.4264705882352941
0.0409170282135,0.4338235294117647
0.0409170282135,0.4411764705882353
0.66429748099,0.4485294117647059
0.66429748099,0.45588235294117646
0.92788039096,0.4632352941176471
0.92788039096,0.47058823529411764
0.98480111439,0.47794117647058826
0.98480111439,0.4852941176470588
1.05293039579,0.49264705882352944
1.05293039579,0.5
1.17684513253,0.5073529411764706
1.17684513253,0.5147058823529411
1.56853469705,0.5220588235294118
1.56853469705,0.5294117647058824
1.62847624598,0.5367647058823529
1.62847624598,0.5441176470588235
1.73210334019,0.5514705882352942
1.73210334019,0.5588235294117647
2.01548668769,0.5661764705882353
2.01548668769,0.5735294117647058
2.12628858026,0.5808823529411765
2.12628858026,0.5882352941176471
2.38764456934,0.5955882352941176
2.38764456934,0.6029411764705882
2.53488311894,0.6102941176470589
2.53488311894,0.6176470588235294
2.61521620978,0.625
2.61521620978,0.6323529411764706
2.73265952528,0.6397058823529411
2.73265952528,0.6470588235294118
3.14462985053,0.6544117647058824
3.14462985053,0.6617647058823529
3.34708056988,0.6691176470588235
3.34708056988,0.6764705882352942
3.42876594717,0.6838235294117647
3.42876594717,0.6911764705882353
3.59930389403,0.6985294117647058
3.59930389403,0.7058823529411765
3.7025615176,0.7132352941176471
3.7025615176,0.7205882352941176
3.82634524978,0.7279411764705882
3.82634524978,0.7352941176470589
3.88690503786,0.7426470588235294
3.88690503786,0.75
3.88904244938,0.7573529411764706
3.88904244938,0.7647058823529411
4.09170282135,0.7720588235294118
4.09170282135,0.7794117647058824
4.47501518798,0.7867647058823529
4.47501518798,0.7941176470588235
4.80843003246,0.8014705882352942
4.80843003246,0.8088235294117647
5.0460440426,0.8161764705882353
5.0460440426,0.8235294117647058
5.17193195382,0.8308823529411765
5.17193195382,0.8382352941176471
5.50446081428,0.8455882352941176
5.50446081428,0.8529411764705882
5.59934929689,0.8602941176470589
5.59934929689,0.8676470588235294
5.79923119723,0.875
5.79923119723,0.8823529411764706
6.01416721391,0.8897058823529411
6.01416721391,0.8970588235294118
7.5070484907,0.9044117647058824
7.5070484907,0.9117647058823529
8.89837285125,0.9191176470588235
8.89837285125,0.9264705882352942
9.35548940001,0.9338235294117647
9.35548940001,0.9411764705882353
11.2179221143,0.9485294117647058
11.2179221143,0.9558823529411765
11.5578971881,0.9632352941176471
11.5578971881,0.9705882352941176
15.1451961367,0.9779411764705882
15.1451961367,0.9852941176470589
17.5266834428,0.9926470588235294
17.5266834428,1.0
