Congestion,CDF
0.0,0.007352941176470588
0.0,0.014705882352941176
0.0,0.022058823529411766
0.0,0.029411764705882353
0.0100049100337,0.03676470588235294
0.0100049100337,0.04411764705882353
0.0102782855854,0.051470588235294115
0.0102782855854,0.058823529411764705
0.0116226332499,0.0661764705882353
0.0116226332499,0.07352941176470588
0.0120520761244,0.08088235294117647
0.0120520761244,0.08823529411764706
0.0125258350401,0.09558823529411764
0.0125258350401,0.10294117647058823
0.0127600487934,0.11029411764705882
0.0127600487934,0.11764705882352941
0.0129605670599,0.125
0.0129605670599,0.1323529411764706
0.0135222670799,0.13970588235294118
0.0135222670799,0.14705882352941177
0.0135537149084,0.15441176470588236
0.0135537149084,0.16176470588235295
0.0136362809424,0.16911764705882354
0.0136362809424,0.17647058823529413
0.0144989820847,0.18382352941176472
0.0144989820847,0.19117647058823528
0.0156120274337,0.19852941176470587
0.0156120274337,0.20588235294117646
0.015751644946,0.21323529411764705
0.015751644946,0.22058823529411764
0.0157850411934,0.22794117647058823
0.0157850411934,0.23529411764705882
0.0167587332491,0.2426470588235294
0.0167587332491,0.25
0.0169520153123,0.25735294117647056
0.0169520153123,0.2647058823529412
0.0170223003781,0.27205882352941174
0.0170223003781,0.27941176470588236
0.0171073939839,0.2867647058823529
0.0171073939839,0.29411764705882354
0.0175286327982,0.3014705882352941
0.0175286327982,0.3088235294117647
0.0176604028707,0.3161764705882353
0.0176604028707,0.3235294117647059
0.0179901239272,0.33088235294117646
0.0179901239272,0.3382352941176471
0.0204273985064,0.34558823529411764
0.0204273985064,0.35294117647058826
0.0208390607017,0.3602941176470588
0.0208390607017,0.36764705882352944
0.0228931823065,0.375
0.0228931823065,0.38235294117647056
0.0232006763013,0.3897058823529412
0.0232006763013,0.39705882352941174
0.0256513756027,0.40441176470588236
0.0256513756027,0.4117647058823529
0.0264000587317,0.41911764705882354
0.0264000587317,0.4264705882352941
0.027711456406,0.4338235294117647
0.027711456406,0.4411764705882353
0.201548439635,0.4485294117647059
0.201548439635,0.45588235294117646
0.319243734193,0.4632352941176471
0.319243734193,0.47058823529411764
0.363279453696,0.47794117647058826
0.363279453696,0.4852941176470588
0.585819940154,0.49264705882352944
0.585819940154,0.5
0.614497524998,0.5073529411764706
0.614497524998,0.5147058823529411
0.748623271823,0.5220588235294118
0.748623271823,0.5294117647058824
0.884609940854,0.5367647058823529
0.884609940854,0.5441176470588235
0.887549404097,0.5514705882352942
0.887549404097,0.5588235294117647
0.960072599541,0.5661764705882353
0.960072599541,0.5735294117647058
1.26525671922,0.5808823529411765
1.26525671922,0.5882352941176471
1.28615506707,0.5955882352941176
1.28615506707,0.6029411764705882
1.3452213031,0.6102941176470589
1.3452213031,0.6176470588235294
1.35662959072,0.625
1.35662959072,0.6323529411764706
1.37861062043,0.6397058823529411
1.37861062043,0.6470588235294118
1.69339327118,0.6544117647058824
1.69339327118,0.6617647058823529
1.69520153123,0.6691176470588235
1.69520153123,0.6764705882352942
1.88938407673,0.6838235294117647
1.88938407673,0.6911764705882353
1.89774785353,0.6985294117647058
1.89774785353,0.7058823529411765
1.91457551236,0.7132352941176471
1.91457551236,0.7205882352941176
1.98956980742,0.7279411764705882
1.98956980742,0.7352941176470589
2.20301360566,0.7426470588235294
2.20301360566,0.75
2.32006763013,0.7573529411764706
2.32006763013,0.7647058823529411
2.3278092386,0.7720588235294118
2.3278092386,0.7794117647058824
2.48994537406,0.7867647058823529
2.48994537406,0.7941176470588235
2.64000587317,0.8014705882352942
2.64000587317,0.8088235294117647
2.7711456406,0.8161764705882353
2.7711456406,0.8235294117647058
3.0553406644,0.8308823529411765
3.0553406644,0.8382352941176471
3.15610569338,0.8455882352941176
3.15610569338,0.8529411764705882
3.18836827042,0.8602941176470589
3.18836827042,0.8676470588235294
3.44053566089,0.875
3.44053566089,0.8823529411764706
4.02356592062,0.8897058823529411
4.02356592062,0.8970588235294118
4.54620523742,0.9044117647058824
4.54620523742,0.9117647058823529
5.42773684902,0.9191176470588235
5.42773684902,0.9264705882352942
6.09747822351,0.9338235294117647
6.09747822351,0.9411764705882353
6.97799133616,0.9485294117647058
6.97799133616,0.9558823529411765
7.97628907404,0.9632352941176471
7.97628907404,0.9705882352941176
10.3784128431,0.9779411764705882
10.3784128431,0.9852941176470589
12.154602565,0.9926470588235294
12.154602565,1.0
