Congestion,CDF
0.0,0.007352941176470588
0.0,0.014705882352941176
0.0,0.022058823529411766
0.0,0.029411764705882353
0.00379521697977,0.03676470588235294
0.00379521697977,0.04411764705882353
0.00423535985981,0.051470588235294115
0.00423535985981,0.058823529411764705
0.00434883474576,0.0661764705882353
0.00434883474576,0.07352941176470588
0.00442778668902,0.08088235294117647
0.00442778668902,0.08823529411764706
0.00477204427359,0.09558823529411764
0.00477204427359,0.10294117647058823
0.00489199583338,0.11029411764705882
0.00489199583338,0.11764705882352941
0.00498723716605,0.125
0.00498723716605,0.1323529411764706
0.0053433691979,0.13970588235294118
0.0053433691979,0.14705882352941177
0.00548083175443,0.15441176470588236
0.00548083175443,0.16176470588235295
0.00564223911314,0.16911764705882354
0.00564223911314,0.17647058823529413
0.00597636208192,0.18382352941176472
0.00597636208192,0.19117647058823528
0.00605497843674,0.19852941176470587
0.00605497843674,0.20588235294117646
0.00620212205513,0.21323529411764705
0.00620212205513,0.22058823529411764
0.00651646073996,0.22794117647058823
0.00651646073996,0.23529411764705882
0.00658512968428,0.2426470588235294
0.00658512968428,0.25
0.00662822101118,0.25735294117647056
0.00662822101118,0.2647058823529412
0.0066641902742,0.27205882352941174
0.0066641902742,0.27941176470588236
0.00691830545473,0.2867647058823529
0.00691830545473,0.29411764705882354
0.0082043539367,0.3014705882352941
0.0082043539367,0.3088235294117647
0.00905374293644,0.3161764705882353
0.00905374293644,0.3235294117647059
0.00925959489591,0.33088235294117646
0.00925959489591,0.3382352941176471
0.0101712100869,0.34558823529411764
0.0101712100869,0.35294117647058826
0.0107318284711,0.3602941176470588
0.0107318284711,0.36764705882352944
0.0120291284129,0.375
0.0120291284129,0.38235294117647056
0.0138882120829,0.3897058823529412
0.0138882120829,0.39705882352941174
0.0168483850244,0.40441176470588236
0.0168483850244,0.4117647058823529
0.0180171834473,0.41911764705882354
0.0180171834473,0.4264705882352941
0.0184118869178,0.4338235294117647
0.0184118869178,0.4411764705882353
0.0225115879159,0.4485294117647059
0.0225115879159,0.45588235294117646
0.0257261269811,0.4632352941176471
0.0257261269811,0.47058823529411764
0.142944252322,0.47794117647058826
0.142944252322,0.4852941176470588
0.144911447802,0.49264705882352944
0.144911447802,0.5
0.221389334451,0.5073529411764706
0.221389334451,0.5147058823529411
0.221389334451,0.5220588235294118
0.221389334451,0.5294117647058824
0.25269111477,0.5367647058823529
0.25269111477,0.5441176470588235
0.30345693178,0.5514705882352942
0.30345693178,0.5588235294117647
0.323379726241,0.5661764705882353
0.323379726241,0.5735294117647058
0.329024685382,0.5808823529411765
0.329024685382,0.5882352941176471
0.401281497303,0.5955882352941176
0.401281497303,0.6029411764705882
0.503055691463,0.6102941176470589
0.503055691463,0.6176470588235294
0.521235304521,0.625
0.521235304521,0.6323529411764706
0.571675589841,0.6397058823529411
0.571675589841,0.6470588235294118
0.571675589841,0.6544117647058824
0.571675589841,0.6617647058823529
0.620212205513,0.6691176470588235
0.620212205513,0.6764705882352942
0.640310513202,0.6838235294117647
0.640310513202,0.6911764705882353
0.717556672455,0.6985294117647058
0.717556672455,0.7058823529411765
0.755726254241,0.7132352941176471
0.755726254241,0.7205882352941176
0.757811106149,0.7279411764705882
0.757811106149,0.7352941176470589
0.794709266688,0.7426470588235294
0.794709266688,0.75
0.939687382637,0.7573529411764706
0.939687382637,0.7647058823529411
0.939687382637,0.7720588235294118
0.939687382637,0.7794117647058824
1.2546542196,0.7867647058823529
1.2546542196,0.7941176470588235
1.38882120829,0.8014705882352942
1.38882120829,0.8088235294117647
1.71827940527,0.8161764705882353
1.71827940527,0.8235294117647058
1.78528179814,0.8308823529411765
1.78528179814,0.8382352941176471
1.80171834473,0.8455882352941176
1.80171834473,0.8529411764705882
1.81183027538,0.8602941176470589
1.81183027538,0.8676470588235294
1.84118869178,0.875
1.84118869178,0.8823529411764706
1.96136030525,0.8897058823529411
1.96136030525,0.8970588235294118
2.33904293481,0.9044117647058824
2.33904293481,0.9117647058823529
2.52362345689,0.9191176470588235
2.52362345689,0.9264705882352942
3.04965198803,0.9338235294117647
3.04965198803,0.9411764705882353
3.67747714761,0.9485294117647058
3.67747714761,0.9558823529411765
5.32774553895,0.9632352941176471
5.32774553895,0.9705882352941176
6.56409741019,0.9779411764705882
6.56409741019,0.9852941176470589
7.79214724832,0.9926470588235294
7.79214724832,1.0
