Congestion,CDF
0.0,0.007352941176470588
0.0,0.014705882352941176
0.0,0.022058823529411766
0.0,0.029411764705882353
0.00692639038514,0.03676470588235294
0.00692639038514,0.04411764705882353
0.0071965757749,0.051470588235294115
0.0071965757749,0.058823529411764705
0.0080206578908,0.0661764705882353
0.0080206578908,0.07352941176470588
0.00875348064531,0.08088235294117647
0.00875348064531,0.08823529411764706
0.00905792209787,0.09558823529411764
0.00905792209787,0.10294117647058823
0.00932590536811,0.11029411764705882
0.00932590536811,0.11764705882352941
0.00936871686054,0.125
0.00936871686054,0.1323529411764706
0.00963769213312,0.13970588235294118
0.00963769213312,0.14705882352941177
0.0098485006416,0.15441176470588236
0.0098485006416,0.16176470588235295
0.00987869020942,0.16911764705882354
0.00987869020942,0.17647058823529413
0.0100393184326,0.18382352941176472
0.0100393184326,0.19117647058823528
0.0113508464772,0.19852941176470587
0.0113508464772,0.20588235294117646
0.0114079156086,0.21323529411764705
0.0114079156086,0.22058823529411764
0.0116658280597,0.22794117647058823
0.0116658280597,0.23529411764705882
0.0118882698858,0.2426470588235294
0.0118882698858,0.25
0.0122711360813,0.25735294117647056
0.0122711360813,0.2647058823529412
0.0123384016405,0.27205882352941174
0.0123384016405,0.27941176470588236
0.0125890074271,0.2867647058823529
0.0125890074271,0.29411764705882354
0.0132547757989,0.3014705882352941
0.0132547757989,0.3088235294117647
0.0132768059546,0.3161764705882353
0.0132768059546,0.3235294117647059
0.0132867140761,0.33088235294117646
0.0132867140761,0.3382352941176471
0.0158404034449,0.34558823529411764
0.0158404034449,0.35294117647058826
0.0164763802984,0.3602941176470588
0.0164763802984,0.36764705882352944
0.0186887178013,0.375
0.0186887178013,0.38235294117647056
0.0197315212621,0.3897058823529412
0.0197315212621,0.39705882352941174
0.0220232706641,0.40441176470588236
0.0220232706641,0.4117647058823529
0.0229039680877,0.41911764705882354
0.0229039680877,0.4264705882352941
0.0237863080585,0.4338235294117647
0.0237863080585,0.4411764705882353
0.0927020556326,0.4485294117647059
0.0927020556326,0.45588235294117646
0.131004895951,0.4632352941176471
0.131004895951,0.47058823529411764
0.249444817802,0.47794117647058826
0.249444817802,0.4852941176470588
0.426890083703,0.49264705882352944
0.426890083703,0.5
0.467210963715,0.5073529411764706
0.467210963715,0.5147058823529411
0.492997926859,0.5220588235294118
0.492997926859,0.5294117647058824
0.525073887457,0.5367647058823529
0.525073887457,0.5441176470588235
0.64484280856,0.5514705882352942
0.64484280856,0.5588235294117647
0.77495615768,0.5661764705882353
0.77495615768,0.5735294117647058
0.801929704132,0.5808823529411765
0.801929704132,0.5882352941176471
0.859873252276,0.5955882352941176
0.859873252276,0.6029411764705882
0.95050372214,0.6102941176470589
0.95050372214,0.6176470588235294
0.990299807175,0.625
0.990299807175,0.6323529411764706
1.01773238593,0.6397058823529411
1.01773238593,0.6470588235294118
1.12789584675,0.6544117647058824
1.12789584675,0.6617647058823529
1.16658280597,0.6691176470588235
1.16658280597,0.6764705882352942
1.19779996722,0.6838235294117647
1.19779996722,0.6911764705882353
1.26608954368,0.6985294117647058
1.26608954368,0.7058823529411765
1.37021915862,0.7132352941176471
1.37021915862,0.7205882352941176
1.38995113218,0.7279411764705882
1.38995113218,0.7352941176470589
1.42116705495,0.7426470588235294
1.42116705495,0.75
1.59975597126,0.7573529411764706
1.59975597126,0.7647058823529411
1.62073744849,0.7720588235294118
1.62073744849,0.7794117647058824
1.97315212621,0.7867647058823529
1.97315212621,0.7941176470588235
2.29039680877,0.8014705882352942
2.29039680877,0.8088235294117647
2.34613330711,0.8161764705882353
2.34613330711,0.8235294117647058
2.37863080585,0.8308823529411765
2.37863080585,0.8382352941176471
2.43089245849,0.8455882352941176
2.43089245849,0.8529411764705882
2.64862422012,0.8602941176470589
2.64862422012,0.8676470588235294
2.71193619125,0.875
2.71193619125,0.8823529411764706
3.37481294262,0.8897058823529411
3.37481294262,0.8970588235294118
3.52940940804,0.9044117647058824
3.52940940804,0.9117647058823529
4.27650059976,0.9191176470588235
4.27650059976,0.9264705882352942
5.03195702345,0.9338235294117647
5.03195702345,0.9411764705882353
5.49691371871,0.9485294117647058
5.49691371871,0.9558823529411765
6.87135468102,0.9632352941176471
6.87135468102,0.9705882352941176
8.83554128743,0.9779411764705882
8.83554128743,0.9852941176470589
10.4265214278,0.9926470588235294
10.4265214278,1.0
