Congestion,CDF
0.0298260621703,0.007352941176470588
0.0298260621703,0.014705882352941176
0.0307861848264,0.022058823529411766
0.0307861848264,0.029411764705882353
0.0308233331068,0.03676470588235294
0.0308233331068,0.04411764705882353
0.0312216769732,0.051470588235294115
0.0312216769732,0.058823529411764705
0.0312486282613,0.0661764705882353
0.0312486282613,0.07352941176470588
0.0318890787507,0.08088235294117647
0.0318890787507,0.08823529411764706
0.0318963057205,0.09558823529411764
0.0318963057205,0.10294117647058823
0.0320654152066,0.11029411764705882
0.0320654152066,0.11764705882352941
0.0329567912339,0.125
0.0329567912339,0.1323529411764706
0.0331076603692,0.13970588235294118
0.0331076603692,0.14705882352941177
0.0332419535924,0.15441176470588236
0.0332419535924,0.16176470588235295
0.0333422241319,0.16911764705882354
0.0333422241319,0.17647058823529413
0.0338745254964,0.18382352941176472
0.0338745254964,0.19117647058823528
0.0338819698678,0.19852941176470587
0.0338819698678,0.20588235294117646
0.0351244038666,0.21323529411764705
0.0351244038666,0.22058823529411764
0.035218620332,0.22794117647058823
0.035218620332,0.23529411764705882
0.0353920775782,0.2426470588235294
0.0353920775782,0.25
0.0362095427673,0.25735294117647056
0.0362095427673,0.2647058823529412
0.0363970988495,0.27205882352941174
0.0363970988495,0.27941176470588236
0.0368075185994,0.2867647058823529
0.0368075185994,0.29411764705882354
0.0373105014998,0.3014705882352941
0.0373105014998,0.3088235294117647
0.0373921219173,0.3161764705882353
0.0373921219173,0.3235294117647059
0.0378751684021,0.33088235294117646
0.0378751684021,0.3382352941176471
0.0382793070195,0.34558823529411764
0.0382793070195,0.35294117647058826
0.038626273114,0.3602941176470588
0.038626273114,0.36764705882352944
0.0406153358225,0.375
0.0406153358225,0.38235294117647056
0.0413069571837,0.3897058823529412
0.0413069571837,0.39705882352941174
0.042920918293,0.40441176470588236
0.042920918293,0.4117647058823529
0.0434155975663,0.41911764705882354
0.0434155975663,0.4264705882352941
0.259912983523,0.4338235294117647
0.259912983523,0.4411764705882353
0.89619602171,0.4485294117647059
0.89619602171,0.45588235294117646
1.09946927944,0.4632352941176471
1.09946927944,0.47058823529411764
1.30885590237,0.47794117647058826
1.30885590237,0.4852941176470588
1.331105532,0.49264705882352944
1.331105532,0.5
1.50110228063,0.5073529411764706
1.50110228063,0.5147058823529411
1.70424942486,0.5220588235294118
1.70424942486,0.5294117647058824
1.8269100519,0.5367647058823529
1.8269100519,0.5441176470588235
2.08871211725,0.5514705882352942
2.08871211725,0.5588235294117647
2.15159073679,0.5661764705882353
2.15159073679,0.5735294117647058
2.3984536037,0.5808823529411765
2.3984536037,0.5882352941176471
2.5639691818,0.5955882352941176
2.5639691818,0.6029411764705882
2.95009168666,0.6102941176470589
2.95009168666,0.6176470588235294
3.08609724503,0.625
3.08609724503,0.6323529411764706
3.18688251292,0.6397058823529411
3.18688251292,0.6470588235294118
3.34403695208,0.6544117647058824
3.34403695208,0.6617647058823529
3.70784334585,0.6691176470588235
3.70784334585,0.6764705882352942
3.77299327295,0.6838235294117647
3.77299327295,0.6911764705882353
4.05285448069,0.6985294117647058
4.05285448069,0.7058823529411765
4.10041613337,0.7132352941176471
4.10041613337,0.7205882352941176
4.15329249899,0.7279411764705882
4.15329249899,0.7352941176470589
4.17500668313,0.7426470588235294
4.17500668313,0.75
4.2920918293,0.7573529411764706
4.2920918293,0.7647058823529411
4.51645073039,0.7720588235294118
4.51645073039,0.7794117647058824
4.90256954534,0.7867647058823529
4.90256954534,0.7941176470588235
4.97527753054,0.8014705882352942
4.97527753054,0.8088235294117647
5.59084858616,0.8161764705882353
5.59084858616,0.8235294117647058
5.6912308806,0.8308823529411765
5.6912308806,0.8382352941176471
5.74912834997,0.8455882352941176
5.74912834997,0.8529411764705882
6.12831235867,0.8602941176470589
6.12831235867,0.8676470588235294
6.2281340965,0.875
6.2281340965,0.8823529411764706
6.23561128888,0.8897058823529411
6.23561128888,0.8970588235294118
7.85445228005,0.9044117647058824
7.85445228005,0.9117647058823529
9.24926374201,0.9191176470588235
9.24926374201,0.9264705882352942
9.6102855026,0.9338235294117647
9.6102855026,0.9411764705882353
11.5886581602,0.9485294117647058
11.5886581602,0.9558823529411765
11.8097679883,0.9632352941176471
11.8097679883,0.9705882352941176
15.3495124412,0.9779411764705882
15.3495124412,0.9852941176470589
17.6572658287,0.9926470588235294
17.6572658287,1.0
