Congestion,CDF
0.00648250421704,0.007352941176470588
0.00648250421704,0.014705882352941176
0.00648250421704,0.022058823529411766
0.00648250421704,0.029411764705882353
0.00651899836218,0.03676470588235294
0.00651899836218,0.04411764705882353
0.00656909626531,0.051470588235294115
0.00656909626531,0.058823529411764705
0.00665102816309,0.0661764705882353
0.00665102816309,0.07352941176470588
0.00671515269779,0.08088235294117647
0.00671515269779,0.08823529411764706
0.00672279043326,0.09558823529411764
0.00672279043326,0.10294117647058823
0.00688501421568,0.11029411764705882
0.00688501421568,0.11764705882352941
0.00689865240732,0.125
0.00689865240732,0.1323529411764706
0.00689865240732,0.13970588235294118
0.00689865240732,0.14705882352941177
0.00697140294451,0.15441176470588236
0.00697140294451,0.16176470588235295
0.00702688446897,0.16911764705882354
0.00702688446897,0.17647058823529413
0.00703766618497,0.18382352941176472
0.00703766618497,0.19117647058823528
0.00714265778453,0.19852941176470587
0.00714265778453,0.20588235294117646
0.00731730272252,0.21323529411764705
0.00731730272252,0.22058823529411764
0.00734916781288,0.22794117647058823
0.00734916781288,0.23529411764705882
0.00739797487073,0.2426470588235294
0.00739797487073,0.25
0.00739797487073,0.25735294117647056
0.00739797487073,0.2647058823529412
0.00762109024405,0.27205882352941174
0.00762109024405,0.27941176470588236
0.0077595173452,0.2867647058823529
0.0077595173452,0.29411764705882354
0.00776372311405,0.3014705882352941
0.00776372311405,0.3088235294117647
0.00779937016819,0.3161764705882353
0.00779937016819,0.3235294117647059
0.00795812052541,0.33088235294117646
0.00795812052541,0.3382352941176471
0.00808234201457,0.34558823529411764
0.00808234201457,0.35294117647058826
0.00822754049482,0.3602941176470588
0.00822754049482,0.36764705882352944
0.00866688460984,0.375
0.00866688460984,0.38235294117647056
0.00876005072671,0.3897058823529412
0.00876005072671,0.39705882352941174
0.00876005072671,0.40441176470588236
0.00876005072671,0.4117647058823529
0.0407909432416,0.41911764705882354
0.0407909432416,0.4264705882352941
0.0933323909081,0.4338235294117647
0.0933323909081,0.4411764705882353
0.20000230403,0.4485294117647059
0.20000230403,0.45588235294117646
0.246481840891,0.4632352941176471
0.246481840891,0.47058823529411764
0.295435985725,0.47794117647058826
0.295435985725,0.4852941176470588
0.295690398129,0.49264705882352944
0.295690398129,0.5
0.357102017611,0.5073529411764706
0.357102017611,0.5147058823529411
0.36470473537,0.5220588235294118
0.36470473537,0.5294117647058824
0.404291847026,0.5367647058823529
0.404291847026,0.5441176470588235
0.457858940828,0.5514705882352942
0.457858940828,0.5588235294117647
0.459366323565,0.5661764705882353
0.459366323565,0.5735294117647058
0.472536207939,0.5808823529411765
0.472536207939,0.5882352941176471
0.517044115352,0.5955882352941176
0.517044115352,0.6029411764705882
0.597287599491,0.6102941176470589
0.597287599491,0.6176470588235294
0.630724326538,0.625
0.630724326538,0.6323529411764706
0.640638939579,0.6397058823529411
0.640638939579,0.6470588235294118
0.655321960451,0.6544117647058824
0.655321960451,0.6617647058823529
0.735108198384,0.6691176470588235
0.735108198384,0.6764705882352942
0.766771613724,0.6838235294117647
0.766771613724,0.6911764705882353
0.808125016338,0.6985294117647058
0.808125016338,0.7058823529411765
0.828568510808,0.7132352941176471
0.828568510808,0.7205882352941176
0.854937956559,0.7279411764705882
0.854937956559,0.7352941176470589
0.859250983501,0.7426470588235294
0.859250983501,0.75
0.876005072671,0.7573529411764706
0.876005072671,0.7647058823529411
0.903973752378,0.7720588235294118
0.903973752378,0.7794117647058824
0.940832869984,0.7867647058823529
0.940832869984,0.7941176470588235
0.985498292022,0.8014705882352942
0.985498292022,0.8088235294117647
1.03844565519,0.8161764705882353
1.03844565519,0.8235294117647058
1.11758192415,0.8308823529411765
1.11758192415,0.8382352941176471
1.12268628203,0.8455882352941176
1.12268628203,0.8529411764705882
1.14525806504,0.8602941176470589
1.14525806504,0.8676470588235294
1.19970276827,0.875
1.19970276827,0.8823529411764706
1.24694208781,0.8897058823529411
1.24694208781,0.8970588235294118
1.49990924931,0.9044117647058824
1.49990924931,0.9117647058823529
1.79152146457,0.9191176470588235
1.79152146457,0.9264705882352942
1.93428433324,0.9338235294117647
1.93428433324,0.9411764705882353
2.26947872546,0.9485294117647058
2.26947872546,0.9558823529411765
2.40299338569,0.9632352941176471
2.40299338569,0.9705882352941176
3.15376786418,0.9779411764705882
3.15376786418,0.9852941176470589
3.61285693256,0.9926470588235294
3.61285693256,1.0
