Congestion,CDF
0.0,0.007352941176470588
0.0,0.014705882352941176
0.0,0.022058823529411766
0.0,0.029411764705882353
0.0113639150483,0.03676470588235294
0.0113639150483,0.04411764705882353
0.011801641329,0.051470588235294115
0.011801641329,0.058823529411764705
0.0130526631454,0.0661764705882353
0.0130526631454,0.07352941176470588
0.013158155291,0.08088235294117647
0.013158155291,0.08823529411764706
0.0138160561839,0.09558823529411764
0.0138160561839,0.10294117647058823
0.0141108032013,0.11029411764705882
0.0141108032013,0.11764705882352941
0.0142511742658,0.125
0.0142511742658,0.1323529411764706
0.0150321999892,0.13970588235294118
0.0150321999892,0.14705882352941177
0.0152116695204,0.15441176470588236
0.0152116695204,0.16176470588235295
0.0155581325184,0.16911764705882354
0.0155581325184,0.17647058823529413
0.016436349491,0.18382352941176472
0.016436349491,0.19117647058823528
0.0169215293582,0.19852941176470587
0.0169215293582,0.20588235294117646
0.0173522422966,0.21323529411764705
0.0173522422966,0.22058823529411764
0.017566100579,0.22794117647058823
0.017566100579,0.23529411764705882
0.0182651900972,0.2426470588235294
0.0182651900972,0.25
0.0186312258639,0.25735294117647056
0.0186312258639,0.2647058823529412
0.0188744065354,0.27205882352941174
0.0188744065354,0.27941176470588236
0.0189156615692,0.2867647058823529
0.0189156615692,0.29411764705882354
0.0191968613506,0.3014705882352941
0.0191968613506,0.3088235294117647
0.0197559050854,0.3161764705882353
0.0197559050854,0.3235294117647059
0.0197867860235,0.33088235294117646
0.0197867860235,0.3382352941176471
0.0219730413813,0.34558823529411764
0.0219730413813,0.35294117647058826
0.0226605647589,0.3602941176470588
0.0226605647589,0.36764705882352944
0.0244945090068,0.375
0.0244945090068,0.38235294117647056
0.0245218634066,0.3897058823529412
0.0245218634066,0.39705882352941174
0.0270928214084,0.40441176470588236
0.0270928214084,0.4117647058823529
0.0277940424611,0.41911764705882354
0.0277940424611,0.4264705882352941
0.0292815683242,0.4338235294117647
0.0292815683242,0.4411764705882353
0.247329830308,0.4485294117647059
0.247329830308,0.45588235294117646
0.385000623212,0.4632352941176471
0.385000623212,0.47058823529411764
0.413803419948,0.47794117647058826
0.413803419948,0.4852941176470588
0.62919522148,0.49264705882352944
0.62919522148,0.5
0.691109280991,0.5073529411764706
0.691109280991,0.5147058823529411
0.859249638073,0.5220588235294118
0.859249638073,0.5294117647058824
0.977969481234,0.5367647058823529
0.977969481234,0.5441176470588235
1.03859771848,0.5514705882352942
1.03859771848,0.5588235294117647
1.05577858557,0.5661764705882353
1.05577858557,0.5735294117647058
1.42150385267,0.5808823529411765
1.42150385267,0.5882352941176471
1.43734883799,0.5955882352941176
1.43734883799,0.6029411764705882
1.4415183865,0.6102941176470589
1.4415183865,0.6176470588235294
1.49279646638,0.625
1.49279646638,0.6323529411764706
1.51028363806,0.6397058823529411
1.51028363806,0.6470588235294118
1.88744065354,0.6544117647058824
1.88744065354,0.6617647058823529
1.89351839425,0.6691176470588235
1.89351839425,0.6764705882352942
2.07424286341,0.6838235294117647
2.07424286341,0.6911764705882353
2.12022485287,0.6985294117647058
2.12022485287,0.7058823529411765
2.14366961537,0.7132352941176471
2.14366961537,0.7205882352941176
2.38977286297,0.7279411764705882
2.38977286297,0.7352941176470589
2.42980782747,0.7426470588235294
2.42980782747,0.75
2.45218634066,0.7573529411764706
2.45218634066,0.7647058823529411
2.58886772334,0.7720588235294118
2.58886772334,0.7794117647058824
2.77940424611,0.7867647058823529
2.77940424611,0.7941176470588235
2.89471535887,0.8014705882352942
2.89471535887,0.8088235294117647
2.92815683242,0.8161764705882353
2.92815683242,0.8235294117647058
3.3049356928,0.8308823529411765
3.3049356928,0.8382352941176471
3.39575482953,0.8455882352941176
3.39575482953,0.8529411764705882
3.48107390553,0.8602941176470589
3.48107390553,0.8676470588235294
3.70757486239,0.875
3.70757486239,0.8823529411764706
4.27244201986,0.8897058823529411
4.27244201986,0.8970588235294118
4.92926224779,0.9044117647058824
4.92926224779,0.9117647058823529
5.87508325215,0.9191176470588235
5.87508325215,0.9264705882352942
6.50687825924,0.9338235294117647
6.50687825924,0.9411764705882353
7.53339759692,0.9485294117647058
7.53339759692,0.9558823529411765
8.41684321936,0.9632352941176471
8.41684321936,0.9705882352941176
10.9801769725,0.9779411764705882
10.9801769725,0.9852941176470589
12.8352567637,0.9926470588235294
12.8352567637,1.0
