Congestion,CDF
0.0106294206777,0.007352941176470588
0.0106294206777,0.014705882352941176
0.0106963214288,0.022058823529411766
0.0106963214288,0.029411764705882353
0.0107217466796,0.03676470588235294
0.0107217466796,0.04411764705882353
0.0107764879353,0.051470588235294115
0.0107764879353,0.058823529411764705
0.0113300088947,0.0661764705882353
0.0113300088947,0.07352941176470588
0.0113683817674,0.08088235294117647
0.0113683817674,0.08823529411764706
0.0115431436575,0.09558823529411764
0.0115431436575,0.10294117647058823
0.0116715617814,0.11029411764705882
0.0116715617814,0.11764705882352941
0.0118040896047,0.125
0.0118040896047,0.1323529411764706
0.011832846318,0.13970588235294118
0.011832846318,0.14705882352941177
0.0118729333415,0.15441176470588236
0.0118729333415,0.16176470588235295
0.0121366655882,0.16911764705882354
0.0121366655882,0.17647058823529413
0.0123908046467,0.18382352941176472
0.0123908046467,0.19117647058823528
0.012465118263,0.19852941176470587
0.012465118263,0.20588235294117646
0.0131247121442,0.21323529411764705
0.0131247121442,0.22058823529411764
0.01325872602,0.22794117647058823
0.01325872602,0.23529411764705882
0.0133985415092,0.2426470588235294
0.0133985415092,0.25
0.0139378843954,0.25735294117647056
0.0139378843954,0.2647058823529412
0.0140612561968,0.27205882352941174
0.0140612561968,0.27941176470588236
0.0141651386918,0.2867647058823529
0.0141651386918,0.29411764705882354
0.0144115980761,0.3014705882352941
0.0144115980761,0.3088235294117647
0.0146211059353,0.3161764705882353
0.0146211059353,0.3235294117647059
0.0150178603956,0.33088235294117646
0.0150178603956,0.3382352941176471
0.0154992345488,0.34558823529411764
0.0154992345488,0.35294117647058826
0.0156444879265,0.3602941176470588
0.0156444879265,0.36764705882352944
0.0168613825477,0.375
0.0168613825477,0.38235294117647056
0.0172491256083,0.3897058823529412
0.0172491256083,0.39705882352941174
0.0174344475568,0.40441176470588236
0.0174344475568,0.4117647058823529
0.0407909432416,0.41911764705882354
0.0407909432416,0.4264705882352941
0.110554941441,0.4338235294117647
0.110554941441,0.4411764705882353
0.282534295077,0.4485294117647059
0.282534295077,0.45588235294117646
0.402338934114,0.4632352941176471
0.402338934114,0.47058823529411764
0.433121303397,0.47794117647058826
0.433121303397,0.4852941176470588
0.507195416871,0.49264705882352944
0.507195416871,0.5
0.546785619782,0.5073529411764706
0.546785619782,0.5147058823529411
0.661059556891,0.5220588235294118
0.661059556891,0.5294117647058824
0.759803884275,0.5367647058823529
0.759803884275,0.5441176470588235
0.765650398144,0.5514705882352942
0.765650398144,0.5588235294117647
0.788116610166,0.5661764705882353
0.788116610166,0.5735294117647058
0.877532473801,0.5808823529411765
0.877532473801,0.5882352941176471
0.96262364951,0.5955882352941176
0.96262364951,0.6029411764705882
1.05354725121,0.6102941176470589
1.05354725121,0.6176470588235294
1.0761467478,0.625
1.0761467478,0.6323529411764706
1.08284255346,0.6397058823529411
1.08284255346,0.6470588235294118
1.13961801723,0.6544117647058824
1.13961801723,0.6617647058823529
1.26063365104,0.6691176470588235
1.26063365104,0.6764705882352942
1.46725954417,0.6838235294117647
1.46725954417,0.6911764705882353
1.47696895165,0.6985294117647058
1.47696895165,0.7058823529411765
1.48003940922,0.7132352941176471
1.48003940922,0.7205882352941176
1.48791322577,0.7279411764705882
1.48791322577,0.7352941176470589
1.55798717089,0.7426470588235294
1.55798717089,0.75
1.64909370207,0.7573529411764706
1.64909370207,0.7647058823529411
1.67694994453,0.7720588235294118
1.67694994453,0.7794117647058824
1.67987380691,0.7867647058823529
1.67987380691,0.7941176470588235
1.74344475568,0.8014705882352942
1.74344475568,0.8088235294117647
1.92445977944,0.8161764705882353
1.92445977944,0.8235294117647058
1.96533299972,0.8308823529411765
1.96533299972,0.8382352941176471
2.18121577935,0.8455882352941176
2.18121577935,0.8529411764705882
2.18973902685,0.8602941176470589
2.18973902685,0.8676470588235294
2.28240710761,0.875
2.28240710761,0.8823529411764706
2.49604710913,0.8897058823529411
2.49604710913,0.8970588235294118
2.94035049361,0.9044117647058824
2.94035049361,0.9117647058823529
3.55179281588,0.9191176470588235
3.55179281588,0.9264705882352942
3.86656158946,0.9338235294117647
3.86656158946,0.9411764705882353
4.47772086972,0.9485294117647058
4.47772086972,0.9558823529411765
4.8900381371,0.9632352941176471
4.8900381371,0.9705882352941176
6.36739536697,0.9779411764705882
6.36739536697,0.9852941176470589
7.33472479095,0.9926470588235294
7.33472479095,1.0
