Congestion,CDF
0.0,0.007352941176470588
0.0,0.014705882352941176
0.0,0.022058823529411766
0.0,0.029411764705882353
0.0,0.03676470588235294
0.0,0.04411764705882353
0.0,0.051470588235294115
0.0,0.058823529411764705
0.0,0.0661764705882353
0.0,0.07352941176470588
0.0,0.08088235294117647
0.0,0.08823529411764706
0.0,0.09558823529411764
0.0,0.10294117647058823
1.37677059472e-06,0.11029411764705882
1.37677059472e-06,0.11764705882352941
1.37677059472e-06,0.125
1.37677059472e-06,0.1323529411764706
1.37677059472e-06,0.13970588235294118
1.37677059472e-06,0.14705882352941177
1.37677059472e-06,0.15441176470588236
1.37677059472e-06,0.16176470588235295
1.37677059472e-06,0.16911764705882354
1.37677059472e-06,0.17647058823529413
1.37677059472e-06,0.18382352941176472
1.37677059472e-06,0.19117647058823528
1.37677059472e-06,0.19852941176470587
1.37677059472e-06,0.20588235294117646
1.37677059472e-06,0.21323529411764705
1.37677059472e-06,0.22058823529411764
1.37677059472e-06,0.22794117647058823
1.37677059472e-06,0.23529411764705882
1.37677059472e-06,0.2426470588235294
1.37677059472e-06,0.25
1.37677059472e-06,0.25735294117647056
1.37677059472e-06,0.2647058823529412
1.37677059472e-06,0.27205882352941174
1.37677059472e-06,0.27941176470588236
1.37677059472e-06,0.2867647058823529
1.37677059472e-06,0.29411764705882354
1.37677059472e-06,0.3014705882352941
3.4419264868e-05,0.3088235294117647
3.4419264868e-05,0.3161764705882353
3.71728060574e-05,0.3235294117647059
6.8838529736e-05,0.33088235294117646
6.8838529736e-05,0.3382352941176471
6.8838529736e-05,0.34558823529411764
6.8838529736e-05,0.35294117647058826
0.000103257794604,0.3602941176470588
0.000114730882893,0.36764705882352944
0.000114730882893,0.375
0.000114730882893,0.38235294117647056
0.000137677059472,0.3897058823529412
0.000137677059472,0.39705882352941174
0.000137677059472,0.40441176470588236
0.000137677059472,0.4117647058823529
0.000137677059472,0.41911764705882354
0.000137677059472,0.4264705882352941
0.000137677059472,0.4338235294117647
0.00017209632434,0.4411764705882353
0.000206515589208,0.4485294117647059
0.000206515589208,0.45588235294117646
0.000252407942365,0.4632352941176471
0.000275354118944,0.47058823529411764
0.000275354118944,0.47794117647058826
0.000413031178416,0.4852941176470588
0.000562181326177,0.49264705882352944
0.000998158681172,0.5
0.00102110485775,0.5073529411764706
0.00131940515327,0.5147058823529411
0.00164065162537,0.5220588235294118
0.00166359780195,0.5294117647058824
0.00177832868485,0.5367647058823529
0.00180127486142,0.5441176470588235
0.0019389519209,0.5514705882352942
0.0213108308035,0.5588235294117647
0.0214906363947,0.5661764705882353
0.0233272118161,0.5735294117647058
0.0233609962335,0.5808823529411765
0.0233738510313,0.5882352941176471
0.0234018169791,0.5955882352941176
0.0234097620559,0.6029411764705882
0.023434594709,0.6102941176470589
0.0234954662175,0.6176470588235294
0.0235027072046,0.625
0.0235123436476,0.6323529411764706
0.0235146584433,0.6397058823529411
0.0235160884654,0.6470588235294118
0.0235167252387,0.6544117647058824
0.0235177658486,0.6617647058823529
0.0235181368699,0.6691176470588235
0.0235184092156,0.6764705882352942
0.0235197027183,0.6838235294117647
0.0235210084462,0.6911764705882353
0.0235273593189,0.6985294117647058
0.0235294567686,0.7058823529411765
0.0235294647732,0.7132352941176471
0.0235295621039,0.7205882352941176
0.0235295650937,0.7279411764705882
0.0235297205075,0.7352941176470589
0.0235297225008,0.7426470588235294
0.0235297225008,0.75
0.587918130968,0.7573529411764706
0.587992567958,0.7647058823529411
0.629997285906,0.7720588235294118
1.17172973545,0.7794117647058824
1.17172973545,0.7867647058823529
1.17605042231,0.7941176470588235
1.17605042231,0.8014705882352942
1.7637543929,0.8088235294117647
1.95978031444,0.8161764705882353
1.95978031444,0.8235294117647058
1.95978031444,0.8308823529411765
2.34097620559,0.8382352941176471
2.35181368699,0.8455882352941176
2.35197027183,0.8529411764705882
2.35294647732,0.8602941176470589
2.35295650937,0.8676470588235294
2.35297225008,0.875
2.35297225008,0.8823529411764706
2.93975905253,0.8897058823529411
3.50911483857,0.8970588235294118
3.52751626663,0.9044117647058824
4.3100510349,0.9117647058823529
4.6811579035,0.9191176470588235
4.70591271975,0.9264705882352942
7.05891655092,0.9338235294117647
9.60312963882,0.9411764705882353
17.0587139928,0.9485294117647058
17.4344570309,0.9558823529411765
22.5472806614,0.9632352941176471
27.9574509546,0.9705882352941176
28.4260312928,0.9779411764705882
30.0885340349,0.9852941176470589
30.7621309162,0.9926470588235294
32.9111945557,1.0
