Congestion,CDF
0.0,0.007352941176470588
0.0,0.014705882352941176
0.0,0.022058823529411766
0.0,0.029411764705882353
0.0,0.03676470588235294
0.0,0.04411764705882353
0.0,0.051470588235294115
0.0,0.058823529411764705
0.0,0.0661764705882353
0.0,0.07352941176470588
0.0,0.08088235294117647
0.0,0.08823529411764706
0.0,0.09558823529411764
0.0,0.10294117647058823
6.11872404832e-07,0.11029411764705882
6.11872404832e-07,0.11764705882352941
6.11872404832e-07,0.125
6.11872404832e-07,0.1323529411764706
6.11872404832e-07,0.13970588235294118
6.11872404832e-07,0.14705882352941177
6.11872404832e-07,0.15441176470588236
6.11872404832e-07,0.16176470588235295
6.11872404832e-07,0.16911764705882354
6.11872404832e-07,0.17647058823529413
6.11872404832e-07,0.18382352941176472
6.11872404832e-07,0.19117647058823528
6.11872404832e-07,0.19852941176470587
6.11872404832e-07,0.20588235294117646
6.11872404832e-07,0.21323529411764705
6.11872404832e-07,0.22058823529411764
6.11872404832e-07,0.22794117647058823
6.11872404832e-07,0.23529411764705882
6.11872404832e-07,0.2426470588235294
6.11872404832e-07,0.25
6.11872404832e-07,0.25735294117647056
6.11872404832e-07,0.2647058823529412
6.11872404832e-07,0.27205882352941174
6.11872404832e-07,0.27941176470588236
6.11872404832e-07,0.2867647058823529
6.11872404832e-07,0.29411764705882354
6.11872404832e-07,0.3014705882352941
1.52968101208e-05,0.3088235294117647
1.52968101208e-05,0.3161764705882353
1.65205549305e-05,0.3235294117647059
3.05936202416e-05,0.33088235294117646
3.05936202416e-05,0.3382352941176471
3.05936202416e-05,0.34558823529411764
3.05936202416e-05,0.35294117647058826
4.58904303624e-05,0.3602941176470588
5.09893670693e-05,0.36764705882352944
5.09893670693e-05,0.375
5.09893670693e-05,0.38235294117647056
6.11872404832e-05,0.3897058823529412
6.11872404832e-05,0.39705882352941174
6.11872404832e-05,0.40441176470588236
6.11872404832e-05,0.4117647058823529
6.11872404832e-05,0.41911764705882354
6.11872404832e-05,0.4264705882352941
6.11872404832e-05,0.4338235294117647
7.6484050604e-05,0.4411764705882353
9.17808607248e-05,0.4485294117647059
9.17808607248e-05,0.45588235294117646
0.000112176607553,0.4632352941176471
0.000122374480966,0.47058823529411764
0.000122374480966,0.47794117647058826
0.00018356172145,0.4852941176470588
0.00024984789864,0.49264705882352944
0.000443607493503,0.5
0.000453805366917,0.5073529411764706
0.000586377721297,0.5147058823529411
0.000729147949092,0.5220588235294118
0.000739345822505,0.5294117647058824
0.000790335189575,0.5367647058823529
0.000800533062989,0.5441176470588235
0.000861720303472,0.5514705882352942
0.04741956906,0.5588235294117647
0.0478542811083,0.5661764705882353
0.0526459290671,0.5735294117647058
0.0526954208684,0.5808823529411765
0.0527659827846,0.5882352941176471
0.0527990440412,0.5955882352941176
0.0528170406229,0.6029411764705882
0.0528386986016,0.6102941176470589
0.0529038827417,0.6176470588235294
0.0529144820404,0.625
0.0529227826598,0.6323529411764706
0.0529267239894,0.6397058823529411
0.0529284636265,0.6470588235294118
0.0529291831146,0.6544117647058824
0.0529299658841,0.6617647058823529
0.0529305590696,0.6691176470588235
0.0529308563028,0.6764705882352942
0.0529322004176,0.6838235294117647
0.0529333553395,0.6911764705882353
0.0529398306551,0.6985294117647058
0.0529419996845,0.7058823529411765
0.0529420100259,0.7132352941176471
0.052942108052,0.7205882352941176
0.0529421114696,0.7279411764705882
0.0529422666874,0.7352941176470589
0.0529422689659,0.7426470588235294
0.0529422689659,0.75
1.32322957787,0.7573529411764706
1.32330501044,0.7647058823529411
1.41755328585,0.7720588235294118
2.64193493008,0.7794117647058824
2.64193493008,0.7867647058823529
2.64666776697,0.7941176470588235
2.64666776697,0.8014705882352942
3.9696887336,0.8088235294117647
4.41081670919,0.8161764705882353
4.41081670919,0.8235294117647058
4.41081670919,0.8308823529411765
5.28170406229,0.8382352941176471
5.29305590696,0.8455882352941176
5.29322004176,0.8529411764705882
5.29420100259,0.8602941176470589
5.29421114696,0.8676470588235294
5.29422689659,0.875
5.29422689659,0.8823529411764706
6.61631520814,0.8897058823529411
7.91853320854,0.8970588235294118
7.93934016591,0.9044117647058824
9.70226491323,0.9117647058823529
10.5616084664,0.9191176470588235
10.5884219522,0.9264705882352942
15.8826804619,0.9338235294117647
21.6131844127,0.9411764705882353
38.3828083956,0.9485294117647058
39.2477725302,0.9558823529411765
50.7342759372,0.9632352941176471
62.9925071118,0.9705882352941176
63.9658943691,0.9779411764705882
67.7344640178,0.9852941176470589
69.235436456,0.9926470588235294
74.0208645668,1.0
