Congestion,CDF
0.00399182641912,0.009433962264150943
0.00399182641912,0.018867924528301886
0.00400139003338,0.02830188679245283
0.00400139003338,0.03773584905660377
0.00400258259015,0.04716981132075472
0.00400258259015,0.05660377358490566
0.00400394370545,0.0660377358490566
0.00400394370545,0.07547169811320754
0.00400826611405,0.08490566037735849
0.00400826611405,0.09433962264150944
0.00401035895716,0.10377358490566038
0.00401035895716,0.11320754716981132
0.00401632279441,0.12264150943396226
0.00401632279441,0.1320754716981132
0.00402841347349,0.14150943396226415
0.00402841347349,0.1509433962264151
0.00403773948635,0.16037735849056603
0.00403773948635,0.16981132075471697
0.00404014780208,0.1792452830188679
0.00404014780208,0.18867924528301888
0.00404722131399,0.19811320754716982
0.00404722131399,0.20754716981132076
0.00405806381839,0.2169811320754717
0.00405806381839,0.22641509433962265
0.00405933170327,0.2358490566037736
0.00405933170327,0.24528301886792453
0.00406240550748,0.25471698113207547
0.00406240550748,0.2641509433962264
0.0309474981118,0.27358490566037735
0.0309474981118,0.2830188679245283
0.0409906323937,0.29245283018867924
0.0409906323937,0.3018867924528302
0.0566316528441,0.3113207547169811
0.0566316528441,0.32075471698113206
0.0595407025189,0.330188679245283
0.0595407025189,0.33962264150943394
0.059677829467,0.3490566037735849
0.059677829467,0.3584905660377358
0.0616115558943,0.36792452830188677
0.0616115558943,0.37735849056603776
0.0683181425979,0.3867924528301887
0.0683181425979,0.39622641509433965
0.0685757492178,0.4056603773584906
0.0685757492178,0.41509433962264153
0.0691302671134,0.42452830188679247
0.0691302671134,0.4339622641509434
0.0730903463597,0.44339622641509435
0.0730903463597,0.4528301886792453
0.0770567133396,0.46226415094339623
0.0770567133396,0.4716981132075472
0.0775537938459,0.4811320754716981
0.0775537938459,0.49056603773584906
0.0893099038503,0.5
0.0893099038503,0.5094339622641509
0.0909735563195,0.5188679245283019
0.0909735563195,0.5283018867924528
0.0912104328346,0.5377358490566038
0.0912104328346,0.5471698113207547
0.0955289738039,0.5566037735849056
0.0955289738039,0.5660377358490566
0.0971384144816,0.5754716981132075
0.0971384144816,0.5849056603773585
0.100118330016,0.5943396226415094
0.100118330016,0.6037735849056604
0.104464176003,0.6132075471698113
0.104464176003,0.6226415094339622
0.108172574997,0.6320754716981132
0.108172574997,0.6415094339622641
0.110232971895,0.6509433962264151
0.110232971895,0.660377358490566
0.113515497506,0.6698113207547169
0.113515497506,0.6792452830188679
0.116976333176,0.6886792452830188
0.116976333176,0.6981132075471698
0.127507942929,0.7075471698113207
0.127507942929,0.7169811320754716
0.12981149039,0.7264150943396226
0.12981149039,0.7358490566037735
0.130341141548,0.7452830188679245
0.130341141548,0.7547169811320755
0.140148671106,0.7641509433962265
0.140148671106,0.7735849056603774
0.140889605174,0.7830188679245284
0.140889605174,0.7924528301886793
0.159314584363,0.8018867924528302
0.159314584363,0.8113207547169812
0.159879082536,0.8207547169811321
0.159879082536,0.8301886792452831
0.163553862371,0.839622641509434
0.163553862371,0.8490566037735849
0.175896391649,0.8584905660377359
0.175896391649,0.8679245283018868
0.176412394969,0.8773584905660378
0.176412394969,0.8867924528301887
0.1773656358,0.8962264150943396
0.1773656358,0.9056603773584906
0.190865948041,0.9150943396226415
0.190865948041,0.9245283018867925
0.192439881461,0.9339622641509434
0.192439881461,0.9433962264150944
0.208288168774,0.9528301886792453
0.208288168774,0.9622641509433962
0.235576975115,0.9716981132075472
0.235576975115,0.9811320754716981
0.24610111417,0.9905660377358491
0.24610111417,1.0
