Congestion,CDF
0.0,0.009433962264150943
0.0,0.018867924528301886
0.0,0.02830188679245283
0.0,0.03773584905660377
0.0,0.04716981132075472
0.0,0.05660377358490566
0.0,0.0660377358490566
0.0,0.07547169811320754
0.0,0.08490566037735849
0.0,0.09433962264150944
0.0,0.10377358490566038
0.0,0.11320754716981132
0.0,0.12264150943396226
0.0,0.1320754716981132
0.0,0.14150943396226415
0.0,0.1509433962264151
0.0,0.16037735849056603
0.0,0.16981132075471697
0.0,0.1792452830188679
0.0,0.18867924528301888
0.0,0.19811320754716982
0.0,0.20754716981132076
0.0,0.2169811320754717
0.0,0.22641509433962265
0.0,0.2358490566037736
0.0,0.24528301886792453
0.0,0.25471698113207547
0.0,0.2641509433962264
0.0,0.27358490566037735
0.0,0.2830188679245283
1.79802749866e-07,0.29245283018867924
4.63215265119e-06,0.3018867924528302
5.20893618186e-06,0.3113207547169811
7.06156792119e-06,0.32075471698113206
7.60590712598e-06,0.330188679245283
7.97123610303e-06,0.33962264150943394
8.5856968531e-06,0.3490566037735849
1.06067188515e-05,0.3584905660377358
1.61754092717e-05,0.36792452830188677
2.07053783524e-05,0.37735849056603776
2.19128021444e-05,0.3867924528301887
2.36019450412e-05,0.39622641509433965
2.55575768837e-05,0.4056603773584906
2.57469170887e-05,0.41509433962264153
2.75276763337e-05,0.42452830188679247
3.14674977034e-05,0.4339622641509434
3.21885358369e-05,0.44339622641509435
3.3962072993e-05,0.4528301886792453
3.65800309327e-05,0.46226415094339623
0.000150965084592,0.4716981132075472
0.000174212366782,0.4811320754716981
0.000217629687644,0.49056603773584906
0.000298313967699,0.5
0.000298313967699,0.5094339622641509
0.000408565894315,0.5188679245283019
0.000776451688216,0.5283018867924528
0.000776451688216,0.5377358490566038
0.000776451688216,0.5471698113207547
0.000795503913864,0.5566037735849056
0.000795503913864,0.5660377358490566
0.000795503913864,0.5754716981132075
0.00122814447011,0.5849056603773585
0.00146665805432,0.5943396226415094
0.00146665805432,0.6037735849056604
0.00155290337643,0.6132075471698113
0.00155290337643,0.6226415094339622
0.00211847037636,0.6320754716981132
0.0022817721378,0.6415094339622641
0.00270038627693,0.6509433962264151
0.00270038627693,0.660377358490566
0.00334584297511,0.6698113207547169
0.00334584297511,0.6792452830188679
0.00376167649416,0.6886792452830188
0.00422542053788,0.6981132075471698
0.00424589300416,0.7075471698113207
0.00424589300416,0.7169811320754716
0.00513937109829,0.7264150943396226
0.00653296375432,0.7358490566037735
0.00653296375432,0.7452830188679245
0.00653296375432,0.7547169811320755
0.00694570490368,0.7641509433962265
0.00791741805786,0.7735849056603774
0.00911793558373,0.7830188679245284
0.0108307643962,0.7924528301886793
0.0109873093985,0.8018867924528302
0.0113223813444,0.8113207547169812
0.0113223813444,0.8207547169811321
0.0113223813444,0.8301886792452831
0.011800834637,0.839622641509434
0.011800834637,0.8490566037735849
0.0120421439924,0.8584905660377359
0.0120421439924,0.8679245283018868
0.0130659275086,0.8773584905660378
0.0130659275086,0.8867924528301887
0.013732616429,0.8962264150943396
0.0166997135241,0.9056603773584906
0.0173146453942,0.9150943396226415
0.0200313415969,0.9245283018867925
0.0234547022498,0.9339622641509434
0.0465568449894,0.9433962264150944
0.432334221413,0.9528301886792453
0.432334221413,0.9622641509433962
0.715071588835,0.9716981132075472
5.02210821167,0.9811320754716981
5.20658777268,0.9905660377358491
13.1803670303,1.0
