Congestion,CDF
0.0,0.009433962264150943
0.0,0.018867924528301886
0.0,0.02830188679245283
0.0,0.03773584905660377
0.0,0.04716981132075472
0.0,0.05660377358490566
0.0,0.0660377358490566
0.0,0.07547169811320754
0.0,0.08490566037735849
0.0,0.09433962264150944
0.0,0.10377358490566038
0.0,0.11320754716981132
0.0,0.12264150943396226
0.0,0.1320754716981132
0.0,0.14150943396226415
0.0,0.1509433962264151
0.0,0.16037735849056603
0.0,0.16981132075471697
0.0,0.1792452830188679
0.0,0.18867924528301888
0.0,0.19811320754716982
0.0,0.20754716981132076
0.0,0.2169811320754717
0.0,0.22641509433962265
0.0,0.2358490566037736
0.0,0.24528301886792453
0.0,0.25471698113207547
0.0,0.2641509433962264
0.0,0.27358490566037735
0.0,0.2830188679245283
2.96888779971e-08,0.29245283018867924
7.64857128313e-07,0.3018867924528302
8.60095137106e-07,0.3113207547169811
1.16600012312e-06,0.32075471698113206
1.31620376399e-06,0.330188679245283
1.75137244657e-06,0.33962264150943394
2.67086989926e-06,0.3490566037735849
3.41885456284e-06,0.3584905660377358
3.61822335823e-06,0.36792452830188677
4.22004548077e-06,0.37735849056603776
5.19588660846e-06,0.3867924528301887
5.31494381526e-06,0.39622641509433965
5.60778877058e-06,0.4056603773584906
1.71132910335e-05,0.41509433962264153
2.18921555821e-05,0.42452830188679247
2.18921555821e-05,0.4339622641509434
3.59348299725e-05,0.44339622641509435
4.27356820354e-05,0.4528301886792453
4.27356820354e-05,0.46226415094339623
4.37843111642e-05,0.4716981132075472
4.37843111642e-05,0.4811320754716981
4.37843111642e-05,0.49056603773584906
6.75967254172e-05,0.5
8.54713640709e-05,0.5094339622641509
8.54713640709e-05,0.5188679245283019
8.54713640709e-05,0.5283018867924528
0.000107632594473,0.5377358490566038
0.000107632594473,0.5471698113207547
0.000116600012312,0.5566037735849056
0.00019817133258,0.5660377358490566
0.00019817133258,0.5754716981132075
0.000245539005529,0.5849056603773585
0.000245539005529,0.5943396226415094
0.000377159381928,0.6037735849056604
0.000382289639884,0.6132075471698113
0.000596122219144,0.6226415094339622
0.000620175880658,0.6320754716981132
0.000806317882588,0.6415094339622641
0.00129094019988,0.6509433962264151
0.00171132910335,0.660377358490566
0.0203554723024,0.6698113207547169
0.0209909299357,0.6792452830188679
0.0218421763788,0.6886792452830188
0.0396375077344,0.6981132075471698
0.059963408732,0.7075471698113207
0.0610300926419,0.7169811320754716
0.0661155504355,0.7264150943396226
0.0743665239389,0.7358490566037735
0.074725247981,0.7452830188679245
0.0763649190051,0.7547169811320755
0.0851952586272,0.7641509433962265
0.0864251752166,0.7735849056603774
0.687029376221,0.7830188679245284
0.929581549237,0.7924528301886793
0.929581549237,0.8018867924528302
0.934065599763,0.8113207547169812
0.934065599763,0.8207547169811321
1.85916309847,0.8301886792452831
1.85916309847,0.839622641509434
1.85916309847,0.8490566037735849
1.86813119953,0.8584905660377359
1.86813119953,0.8679245283018868
1.86813119953,0.8773584905660378
4.8618175856,0.8867924528301887
4.8618175856,0.8962264150943396
5.16942467077,0.9056603773584906
5.16942467077,0.9150943396226415
5.68189309925,0.9245283018867925
5.68189309925,0.9339622641509434
6.89736481584,0.9433962264150944
6.96091057917,0.9528301886792453
7.35364230866,0.9622641509433962
10.3831730117,0.9716981132075472
10.5061646707,0.9811320754716981
14.8150685435,0.9905660377358491
32.6742400458,1.0
