Congestion,CDF
0.0,0.005555555555555556
0.0,0.011111111111111112
0.0,0.016666666666666666
0.0,0.022222222222222223
0.0,0.027777777777777776
0.0,0.03333333333333333
0.0,0.03888888888888889
0.0,0.044444444444444446
0.0,0.05
0.0,0.05555555555555555
1.05672023559e-06,0.06111111111111111
1.21412072977e-06,0.06666666666666667
2.73288516882e-06,0.07222222222222222
3.99427064599e-06,0.07777777777777778
4.08712180353e-06,0.08333333333333333
5.39640775108e-06,0.08888888888888889
5.93676275442e-06,0.09444444444444444
8.18221285024e-06,0.1
8.22442529574e-06,0.10555555555555556
8.41435908813e-06,0.1111111111111111
8.58753625267e-06,0.11666666666666667
9.45312300418e-06,0.12222222222222222
9.67238592463e-06,0.12777777777777777
1.08010941437e-05,0.13333333333333333
1.10624903433e-05,0.1388888888888889
1.16489432408e-05,0.14444444444444443
1.34698318986e-05,0.15
1.47414821238e-05,0.15555555555555556
1.53930766637e-05,0.16111111111111112
1.60094327046e-05,0.16666666666666666
1.62627347985e-05,0.17222222222222222
1.63933460955e-05,0.17777777777777778
1.69364810359e-05,0.18333333333333332
1.75249914703e-05,0.18888888888888888
1.7820820818e-05,0.19444444444444445
1.80220748046e-05,0.2
1.81220613619e-05,0.20555555555555555
1.8330163989e-05,0.2111111111111111
1.85092828529e-05,0.21666666666666667
1.8549899527e-05,0.2222222222222222
1.91696993207e-05,0.22777777777777777
1.93296297026e-05,0.23333333333333334
1.95515218182e-05,0.2388888888888889
2.11732494632e-05,0.24444444444444444
2.22797950758e-05,0.25
2.41893769367e-05,0.25555555555555554
2.45725901686e-05,0.2611111111111111
2.49262075538e-05,0.26666666666666666
2.57703319786e-05,0.2722222222222222
9.10961722941e-05,0.2777777777777778
0.000182192344588,0.2833333333333333
0.000199713532299,0.28888888888888886
0.000199713532299,0.29444444444444445
0.000205610632393,0.3
0.000205610632393,0.3055555555555556
0.000311282655953,0.3111111111111111
0.000408712180353,0.31666666666666665
0.000411221264787,0.32222222222222224
0.000547512941395,0.3277777777777778
0.000818221285024,0.3333333333333333
0.000850923431061,0.3388888888888889
0.000901103740229,0.34444444444444444
0.000901103740229,0.35
0.00115092293281,0.35555555555555557
0.00175249914703,0.3611111111111111
0.0017820820818,0.36666666666666664
0.00183904814184,0.37222222222222223
0.0019812131546,0.37777777777777777
0.00209614169954,0.38333333333333336
0.00209614169954,0.3888888888888889
0.00239023109743,0.39444444444444443
0.00252603712667,0.4
0.00271616731748,0.40555555555555556
0.00290384202017,0.4111111111111111
0.00360748909974,0.4166666666666667
0.0038142295535,0.4222222222222222
0.00401311163161,0.42777777777777776
0.00493372109,0.43333333333333335
0.00579247471527,0.4388888888888889
0.0060647083045,0.4444444444444444
0.007488841817,0.45
0.00848364599817,0.45555555555555555
0.0113337973679,0.46111111111111114
0.0115735076862,0.4666666666666667
0.0150935226685,0.4722222222222222
0.0154401925751,0.4777777777777778
0.0156775387008,0.48333333333333334
0.0158716648681,0.4888888888888889
0.0158881600927,0.49444444444444446
0.015896121271,0.5
0.0159184740581,0.5055555555555555
0.0159366101784,0.5111111111111111
0.0159520230757,0.5166666666666667
0.0159893618486,0.5222222222222223
0.0159930162573,0.5277777777777778
0.0159978942022,0.5333333333333333
0.0160046545576,0.5388888888888889
0.0160111735069,0.5444444444444444
0.0160174035139,0.55
0.0160264032922,0.5555555555555556
0.0160308878598,0.5611111111111111
0.0160387544513,0.5666666666666667
0.0160410877554,0.5722222222222222
0.0160805828331,0.5777777777777777
0.0160952507528,0.5833333333333334
0.0160991341565,0.5888888888888889
0.0161120937871,0.5944444444444444
0.0161275490391,0.6
0.0161298260076,0.6055555555555555
0.016137484101,0.6111111111111112
0.0161405669462,0.6166666666666667
0.0161416814566,0.6222222222222222
0.0161449079718,0.6277777777777778
0.0161449895049,0.6333333333333333
0.0161603273541,0.6388888888888888
0.0161604234132,0.6444444444444445
0.0161881020511,0.65
0.0161989219847,0.6555555555555556
0.0162285136255,0.6611111111111111
0.0162335311026,0.6666666666666666
0.0162425904507,0.6722222222222223
0.0162451684027,0.6777777777777778
0.0183626236683,0.6833333333333333
0.0192205030656,0.6888888888888889
0.0209396568661,0.6944444444444444
0.0214484825732,0.7
0.022565930346,0.7055555555555556
0.0228130904295,0.7111111111111111
0.0241600736194,0.7166666666666667
0.0260930365897,0.7222222222222222
0.0262559067731,0.7277777777777777
0.0266867128651,0.7333333333333333
0.0270973426819,0.7388888888888889
0.0280645812744,0.7444444444444445
0.399947355054,0.75
0.399947355054,0.7555555555555555
0.530615801936,0.7611111111111111
0.61665037206,0.7666666666666667
0.793583243405,0.7722222222222223
0.793583243405,0.7777777777777778
0.799894710109,0.7833333333333333
0.806874205049,0.7888888888888889
0.806874205049,0.7944444444444444
1.06123160387,0.8
1.59366101784,0.8055555555555556
1.59930162573,0.8111111111111111
1.61298260076,0.8166666666666667
1.61405669462,0.8222222222222222
1.98876336433,0.8277777777777777
2.00168770644,0.8333333333333334
2.3947005941,0.8388888888888889
2.40996299103,0.8444444444444444
2.42441155037,0.85
2.54487596489,0.8555555555555555
2.54487596489,0.8611111111111112
3.21247122295,0.8666666666666667
3.22747339793,0.8722222222222222
3.5839656719,0.8777777777777778
4.02413113669,0.8833333333333333
4.14182858366,0.8888888888888888
4.16091830621,0.8944444444444445
5.19387908754,0.9
7.38772990474,0.9055555555555556
8.27631667565,0.9111111111111111
9.21608765373,0.9166666666666666
9.87678213141,0.9222222222222223
10.8389390163,0.9277777777777778
18.8790109866,0.9333333333333333
19.7138966612,0.9388888888888889
21.3381557062,0.9444444444444444
22.9462139895,0.95
23.7026915883,0.9555555555555556
25.3225837868,0.9611111111111111
26.9447900288,0.9666666666666667
27.7188073594,0.9722222222222222
28.4888092863,0.9777777777777777
29.3177435443,0.9833333333333333
29.6221890231,0.9888888888888889
30.8854974144,0.9944444444444445
32.042848183,1.0
