Congestion,CDF
0.0,0.005555555555555556
0.0,0.011111111111111112
0.0,0.016666666666666666
0.0,0.022222222222222223
0.0,0.027777777777777776
0.0,0.03333333333333333
0.0,0.03888888888888889
0.0,0.044444444444444446
0.0,0.05
0.0,0.05555555555555555
1.10396634376e-06,0.06111111111111111
1.26840423584e-06,0.06666666666666667
2.85507284343e-06,0.07222222222222222
4.17285504007e-06,0.07777777777777778
4.26985758573e-06,0.08333333333333333
5.63768188943e-06,0.08888888888888889
6.20219623985e-06,0.09444444444444444
8.54804072061e-06,0.1
8.5921404904e-06,0.10555555555555556
8.79056624897e-06,0.1111111111111111
8.97148618852e-06,0.11666666666666667
9.87577344365e-06,0.12222222222222222
1.01048396397e-05,0.12777777777777777
1.12840125596e-05,0.13333333333333333
1.15570958195e-05,0.1388888888888889
1.21697691073e-05,0.14444444444444443
1.40720699493e-05,0.15
1.54005758323e-05,0.15555555555555556
1.60813032544e-05,0.16111111111111112
1.67252166593e-05,0.16666666666666666
1.69898439249e-05,0.17222222222222222
1.71262948711e-05,0.17777777777777778
1.76937134499e-05,0.18333333333333332
1.83085362675e-05,0.18888888888888888
1.86175921863e-05,0.19444444444444445
1.88278442665e-05,0.2
1.89323012366e-05,0.20555555555555555
1.9149708161e-05,0.2111111111111111
1.93368354541e-05,0.21666666666666667
1.93792681054e-05,0.2222222222222222
2.00267792337e-05,0.22777777777777777
2.01938601251e-05,0.23333333333333334
2.0425673068e-05,0.2388888888888889
2.21199083807e-05,0.24444444444444444
2.3275927801e-05,0.25
2.52708873316e-05,0.25555555555555554
2.56712340801e-05,0.2611111111111111
2.60406617477e-05,0.26666666666666666
2.69225270925e-05,0.2722222222222222
9.51690947809e-05,0.2777777777777778
0.000190338189562,0.2833333333333333
0.000208642752003,0.28888888888888886
0.000208642752003,0.29444444444444445
0.00021480351226,0.3
0.00021480351226,0.3055555555555556
0.000325200146636,0.3111111111111111
0.000426985758573,0.31666666666666665
0.00042960702452,0.32222222222222224
0.000571992320875,0.3277777777777778
0.000854804072061,0.3333333333333333
0.000888968335579,0.3388888888888889
0.000941392213323,0.34444444444444444
0.000941392213323,0.35
0.00120238085662,0.35555555555555557
0.00183085362675,0.3611111111111111
0.00186175921863,0.36666666666666664
0.00192127223911,0.37222222222222223
0.00206979346928,0.37777777777777777
0.0021898604854,0.38333333333333336
0.0021898604854,0.3888888888888889
0.00249709866102,0.39444444444444443
0.00263897659665,0.4
0.00283760753464,0.40555555555555556
0.00303367319929,0.4111111111111111
0.00371226103502,0.4166666666666667
0.00376842347182,0.4222222222222222
0.00376878043729,0.42777777777777776
0.00398476428539,0.43333333333333335
0.00419253840877,0.4388888888888889
0.00440551898334,0.4444444444444444
0.00448417876421,0.45
0.00461432568207,0.45555555555555555
0.00462584526384,0.46111111111111114
0.00463348259142,0.4666666666666667
0.00463473613343,0.4722222222222222
0.00465286395915,0.4777777777777778
0.00465908491501,0.48333333333333334
0.0046646684041,0.4888888888888889
0.00466787051499,0.49444444444444446
0.00466881007456,0.5
0.00467572103374,0.5055555555555555
0.00467904562539,0.5111111111111111
0.0046798241241,0.5166666666666667
0.00468345395193,0.5222222222222223
0.00468620495432,0.5277777777777778
0.00468803209738,0.5333333333333333
0.00468939571208,0.5388888888888889
0.00469531050457,0.5444444444444444
0.00470554268158,0.55
0.0047088512693,0.5555555555555556
0.00471171522753,0.5611111111111111
0.00471273559642,0.5666666666666667
0.00471488195027,0.5722222222222222
0.00471569378831,0.5777777777777777
0.00471650109342,0.5833333333333334
0.00471691453656,0.5888888888888889
0.0047201679615,0.5944444444444444
0.00472082196974,0.6
0.00472126635967,0.6055555555555555
0.00472513039228,0.6111111111111112
0.00472945957394,0.6166666666666667
0.00473070534307,0.6222222222222222
0.00473473239088,0.6277777777777778
0.00473780809068,0.6333333333333333
0.00473862836951,0.6388888888888888
0.00474631422691,0.6444444444444445
0.00515430844362,0.65
0.00605145706247,0.6555555555555556
0.0063358622532,0.6611111111111111
0.00782366897239,0.6666666666666666
0.00886295098636,0.6722222222222223
0.0157683561585,0.6777777777777778
0.019183619117,0.6833333333333333
0.0200798544211,0.6888888888888889
0.0218758718263,0.6944444444444444
0.0224074472012,0.7
0.0235748562188,0.7055555555555556
0.0238330668639,0.7111111111111111
0.0252402738589,0.7166666666666667
0.0272596598714,0.7222222222222222
0.0274298120033,0.7277777777777777
0.0278798794954,0.7333333333333333
0.0283088686282,0.7388888888888889
0.0293193525922,0.7444444444444445
0.117086348798,0.75
0.117086348798,0.7555555555555555
0.155488946803,0.7611111111111111
0.180676928618,0.7666666666666667
0.230716284103,0.7722222222222223
0.230716284103,0.7777777777777778
0.234172697597,0.7833333333333333
0.235744097513,0.7888888888888889
0.235744097513,0.7944444444444444
0.310977893607,0.8
0.466787051499,0.8055555555555556
0.467904562539,0.8111111111111111
0.471273559642,0.8166666666666667
0.47201679615,0.8222222222222222
0.582372744714,0.8277777777777777
0.586025920007,0.8333333333333334
0.693300810487,0.8388888888888889
0.704547307251,0.8444444444444444
0.708804120288,0.85
0.744656532175,0.8555555555555555
0.744656532175,0.8611111111111112
0.939857585805,0.8666666666666667
0.942923668985,0.8722222222222222
1.04925375217,0.8777777777777778
1.17611668608,0.8833333333333333
1.21239999374,0.8888888888888888
1.2171695714,0.8944444444444445
1.51980802033,0.9
2.16087782121,0.9055555555555556
2.42296501742,0.9111111111111111
2.69553887735,0.9166666666666666
2.89158551285,0.9222222222222223
3.16931968642,0.9277777777777778
5.52458997003,0.9333333333333333
5.76222287844,0.9388888888888889
6.23569611753,0.9444444444444444
6.70367852994,0.95
6.93561907858,0.9555555555555556
7.40856503598,0.9611111111111111
7.86032759957,0.9666666666666667
8.10685342346,0.9722222222222222
8.3008794979,0.9777777777777777
8.5703270368,0.9833333333333333
8.6721056014,0.9888888888888889
9.01874491322,0.9944444444444445
9.3955872604,1.0
