Congestion,CDF
0.0,0.005555555555555556
0.0,0.011111111111111112
0.0,0.016666666666666666
0.0,0.022222222222222223
0.0,0.027777777777777776
0.0,0.03333333333333333
0.0,0.03888888888888889
0.0,0.044444444444444446
0.0,0.05
0.0,0.05555555555555555
1.08960274518e-06,0.06111111111111111
1.25190115186e-06,0.06666666666666667
2.81792576872e-06,0.07222222222222222
4.11856242954e-06,0.07777777777777778
4.21430288453e-06,0.08333333333333333
5.56433055942e-06,0.08888888888888889
6.1215000686e-06,0.09444444444444444
8.43682299529e-06,0.1
8.48034898726e-06,0.10555555555555556
8.67619304762e-06,0.1111111111111111
8.85475905546e-06,0.11666666666666667
9.74728071717e-06,0.12222222222222222
9.97336655522e-06,0.12777777777777777
1.11371973711e-05,0.13333333333333333
1.14067275713e-05,0.1388888888888889
1.20114294267e-05,0.14444444444444443
1.38889796177e-05,0.15
1.520020044e-05,0.15555555555555556
1.58720709839e-05,0.16111111111111112
1.65076064942e-05,0.16666666666666666
1.67687907202e-05,0.17222222222222222
1.69034663164e-05,0.17777777777777778
1.74635022674e-05,0.18333333333333332
1.80703256852e-05,0.18888888888888888
1.83753605075e-05,0.19444444444444445
1.85828770184e-05,0.2
1.8685974909e-05,0.20555555555555555
1.89005531731e-05,0.2111111111111111
1.90852457712e-05,0.21666666666666667
1.91271263354e-05,0.2222222222222222
1.97662127595e-05,0.22777777777777777
1.99311197777e-05,0.23333333333333334
2.01599166249e-05,0.2388888888888889
2.1832108407e-05,0.24444444444444444
2.29730869712e-05,0.25
2.49420902776e-05,0.25555555555555554
2.53372281536e-05,0.2611111111111111
2.57018492338e-05,0.26666666666666666
2.65722407144e-05,0.2722222222222222
9.39308589572e-05,0.2777777777777778
0.000187861717914,0.2833333333333333
0.000205928121477,0.28888888888888886
0.000205928121477,0.29444444444444445
0.000212008724682,0.3
0.000212008724682,0.3055555555555556
0.000320968999199,0.3111111111111111
0.000421430288453,0.31666666666666665
0.000424017449363,0.32222222222222224
0.00049298601353,0.3277777777777778
0.000564550184495,0.3333333333333333
0.000721954177493,0.3388888888888889
0.000843682299529,0.34444444444444444
0.000877402055141,0.35
0.000929143850918,0.35555555555555557
0.000929143850918,0.3611111111111111
0.0011867367964,0.36666666666666664
0.00180703256852,0.37222222222222223
0.00183753605075,0.37777777777777777
0.00189627475312,0.38333333333333336
0.00204286358803,0.3888888888888889
0.00216136842389,0.39444444444444443
0.00216136842389,0.4
0.00246460915353,0.40555555555555556
0.00260464112916,0.4111111111111111
0.00280068769936,0.4166666666666667
0.00299420237274,0.4222222222222222
0.00371974520206,0.42777777777777776
0.00393291890534,0.43333333333333335
0.00413798969984,0.4388888888888889
0.00508724623844,0.4444444444444444
0.00527392845182,0.45
0.0056170144347,0.45555555555555555
0.00592802110591,0.46111111111111114
0.00596246176676,0.4666666666666667
0.00597272214398,0.4722222222222222
0.00598586583408,0.4777777777777778
0.0060175064436,0.48333333333333334
0.0060413599994,0.4888888888888889
0.00605283960441,0.49444444444444446
0.00609287368294,0.5
0.00611085053273,0.5055555555555555
0.00611493148898,0.5111111111111111
0.00612692277144,0.5166666666666667
0.00613955196896,0.5222222222222223
0.00615317345515,0.5277777777777778
0.00615717832014,0.5333333333333333
0.00615762063147,0.5388888888888889
0.00616469405945,0.5444444444444444
0.00619113938308,0.55
0.00622294573986,0.5555555555555556
0.00625342696647,0.5611111111111111
0.00626102875868,0.5666666666666667
0.00626786462497,0.5722222222222222
0.00628984180781,0.5777777777777777
0.00630471052502,0.5833333333333334
0.00631356008883,0.5888888888888889
0.00631542325364,0.5944444444444444
0.00632148697374,0.6
0.00632605429272,0.6055555555555555
0.00633199545958,0.6111111111111112
0.00633825204592,0.6166666666666667
0.00634762639821,0.6222222222222222
0.00636011522287,0.6277777777777778
0.00639746968038,0.6333333333333333
0.00640824341476,0.6388888888888888
0.006444002106,0.6444444444444445
0.00645147003719,0.65
0.00645913478674,0.6555555555555556
0.00648014949984,0.6611111111111111
0.00772187597734,0.6666666666666666
0.00874763599423,0.6722222222222223
0.0155631956122,0.6777777777777778
0.018934022917,0.6833333333333333
0.0198185973908,0.6888888888888889
0.0215912469884,0.6944444444444444
0.0221159060879,0.7
0.0232681260605,0.7055555555555556
0.0235229771521,0.7111111111111111
0.0249118751138,0.7166666666666667
0.0269049870916,0.7222222222222222
0.0270729253907,0.7277777777777777
0.0275171370985,0.7333333333333333
0.0279405446955,0.7388888888888889
0.028937881351,0.7444444444444445
0.153173069286,0.75
0.153173069286,0.7555555555555555
0.20058354812,0.7611111111111111
0.230144248843,0.7666666666666667
0.296401055296,0.7722222222222223
0.296401055296,0.7777777777777778
0.306346138572,0.7833333333333333
0.315771162682,0.7888888888888889
0.315771162682,0.7944444444444444
0.40116709624,0.8
0.60413599994,0.8055555555555556
0.611085053273,0.8111111111111111
0.630471052502,0.8166666666666667
0.633199545958,0.8222222222222222
0.749419245962,0.8277777777777777
0.768935132433,0.8333333333333334
0.907894204194,0.8388888888888889
0.932240568627,0.8444444444444444
0.954361088556,0.85
0.987321061552,0.8555555555555555
0.987321061552,0.8611111111111112
1.24388296798,0.8666666666666667
1.26307648177,0.8722222222222222
1.3547032064,0.8777777777777778
1.564389266,0.8833333333333333
1.59630514305,0.8888888888888888
1.62333258384,0.8944444444444445
1.98080608227,0.9
2.88788813868,0.9055555555555556
3.18221278801,0.9111111111111111
3.54242493805,0.9166666666666666
3.79616798491,0.9222222222222223
4.18682514865,0.9277777777777778
7.31788132818,0.9333333333333333
7.65943790014,0.9388888888888889
8.30535137882,0.9444444444444444
8.9276459528,0.95
9.19074847694,0.9555555555555556
9.83157281841,0.9611111111111111
10.4508575025,0.9666666666666667
10.7436917057,0.9722222222222222
10.9782503477,0.9777777777777777
11.027548949,0.9833333333333333
11.352979074,0.9888888888888889
11.9146805175,0.9944444444444445
11.9868759352,1.0
