Congestion,CDF
0.0,0.005555555555555556
0.0,0.011111111111111112
0.0,0.016666666666666666
0.0,0.022222222222222223
0.0,0.027777777777777776
0.0,0.03333333333333333
0.0,0.03888888888888889
0.0,0.044444444444444446
0.0,0.05
0.0,0.05555555555555555
1.06983907727e-06,0.06111111111111111
1.22919364793e-06,0.06666666666666667
2.76681305876e-06,0.07222222222222222
4.04385823071e-06,0.07777777777777778
4.13786210549e-06,0.08333333333333333
5.46340241675e-06,0.08888888888888889
6.01046575358e-06,0.09444444444444444
8.28379238975e-06,0.1
8.32652888918e-06,0.10555555555555556
8.51882064848e-06,0.1111111111111111
8.69414775178e-06,0.11666666666666667
9.57048048427e-06,0.12222222222222222
9.79246548333e-06,0.12777777777777777
1.09351862517e-05,0.13333333333333333
1.1199827601e-05,0.1388888888888889
1.17935611225e-05,0.14444444444444443
1.3637055527e-05,0.15
1.49244928806e-05,0.15555555555555556
1.5584176757e-05,0.16111111111111112
1.62081846598e-05,0.16666666666666666
1.64646314177e-05,0.17222222222222222
1.65968642119e-05,0.17777777777777778
1.71467419978e-05,0.18333333333333332
1.77425585999e-05,0.18888888888888888
1.80420605738e-05,0.19444444444444445
1.82458130638e-05,0.2
1.83470409221e-05,0.20555555555555555
1.85577270763e-05,0.2111111111111111
1.87390696432e-05,0.21666666666666667
1.87801905603e-05,0.2222222222222222
1.94076849689e-05,0.22777777777777777
1.95696008351e-05,0.23333333333333334
1.97942476699e-05,0.2388888888888889
2.14361085417e-05,0.24444444444444444
2.2556391562e-05,0.25
2.44896802673e-05,0.25555555555555554
2.48776509681e-05,0.2611111111111111
2.52356583994e-05,0.26666666666666666
2.60902623573e-05,0.2722222222222222
9.22271019585e-05,0.2777777777777778
0.000184454203917,0.2833333333333333
0.000202192911535,0.28888888888888886
0.000202192911535,0.29444444444444445
0.000208163222229,0.3
0.000208163222229,0.3055555555555556
0.000315147129956,0.3111111111111111
0.000413786210549,0.31666666666666665
0.000416326444459,0.32222222222222224
0.000554310138373,0.3277777777777778
0.000828379238975,0.3333333333333333
0.000861487371631,0.3388888888888889
0.00091229065319,0.34444444444444444
0.00091229065319,0.35
0.00116521127066,0.35555555555555557
0.00177425585999,0.3611111111111111
0.00180420605738,0.36666666666666664
0.00186187933272,0.37222222222222223
0.00200580927836,0.37777777777777777
0.00212216462421,0.38333333333333336
0.00212216462421,0.3888888888888889
0.00241990504733,0.39444444444444443
0.00255739706472,0.4
0.00274988766067,0.40555555555555556
0.0029398922844,0.4111111111111111
0.00365227491602,0.4166666666666667
0.00386158198599,0.4222222222222222
0.0040629331211,0.42777777777777776
0.0046451750995,0.43333333333333335
0.00488381434561,0.4388888888888889
0.00499497164967,0.4444444444444444
0.00586438642485,0.45
0.00613999970649,0.45555555555555555
0.00758181337826,0.46111111111111114
0.00858896773321,0.4666666666666667
0.00892455512226,0.4722222222222222
0.00921593104067,0.4777777777777778
0.00949870057047,0.48333333333333334
0.00954058244972,0.4888888888888889
0.00956340715985,0.49444444444444446
0.00958945793357,0.5
0.00960832892086,0.5055555555555555
0.0096149879964,0.5111111111111111
0.00963140408937,0.5166666666666667
0.0096430581212,0.5222222222222223
0.0096627459173,0.5277777777777778
0.00967492152364,0.5333333333333333
0.00967866256452,0.5388888888888889
0.00968995536193,0.5444444444444444
0.00969674533309,0.55
0.00970483816356,0.5555555555555556
0.00970695296441,0.5611111111111111
0.00973243362678,0.5666666666666667
0.00974577148906,0.5722222222222222
0.00978638428718,0.5777777777777777
0.00979561826287,0.5833333333333334
0.0098129315811,0.5888888888888889
0.00982222330542,0.5944444444444444
0.009831104066,0.6
0.0098332350721,0.6055555555555555
0.00983603554943,0.6111111111111112
0.00983979489138,0.6166666666666667
0.00984841561562,0.6222222222222222
0.00985356370357,0.6277777777777778
0.00985767685751,0.6333333333333333
0.00987157076644,0.6388888888888888
0.00990155289564,0.6444444444444445
0.00990828661324,0.65
0.00993698379105,0.6555555555555556
0.00994304650947,0.6611111111111111
0.00994636000994,0.6666666666666666
0.00997041809699,0.6722222222222223
0.0152809038953,0.6777777777777778
0.018590589732,0.6833333333333333
0.019459119426,0.6888888888888889
0.0211996159678,0.6944444444444444
0.0217147585822,0.7
0.0228460791095,0.7055555555555556
0.023096307606,0.7111111111111111
0.0244600131587,0.7166666666666667
0.0264169732422,0.7222222222222222
0.0265818654066,0.7277777777777777
0.0270180198176,0.7333333333333333
0.0274337474714,0.7388888888888889
0.0284129940198,0.7444444444444445
0.241966564113,0.75
0.241966564113,0.7555555555555555
0.319648597786,0.7611111111111111
0.369247631669,0.7666666666666667
0.474935028523,0.7722222222222223
0.474935028523,0.7777777777777778
0.483933128226,0.7833333333333333
0.4915552033,0.7888888888888889
0.4915552033,0.7944444444444444
0.639297195571,0.8
0.960832892086,0.8055555555555556
0.96627459173,0.8111111111111111
0.982222330542,0.8166666666666667
0.984841561562,0.8222222222222222
1.19602480908,0.8277777777777777
1.21245038047,0.8333333333333334
1.43924084064,0.8388888888888889
1.46225049974,0.8444444444444444
1.48097493792,0.85
1.54675774809,0.8555555555555555
1.54675774809,0.8611111111111112
1.95098818165,0.8666666666666667
1.96620181968,0.8722222222222222
2.15752360872,0.8777777777777778
2.44585405468,0.8833333333333333
2.51166080454,0.8888888888888888
2.53391482473,0.8944444444444445
3.13616203744,0.9
4.5020798935,0.9055555555555556
5.01475926861,0.9111111111111111
5.57975951822,0.9166666666666666
5.98375480481,0.9222222222222223
6.57345789733,0.9277777777777778
11.4711910687,0.9333333333333333
11.9798184226,0.9388888888888889
12.9744544236,0.9444444444444444
13.9490315725,0.95
14.4034724084,0.9555555555555556
15.3943010698,0.9611111111111111
16.3557645655,0.9666666666666667
16.8389106316,0.9722222222222222
17.2482200778,0.9777777777777777
17.7127375877,0.9833333333333333
17.8020510405,0.9888888888888889
18.7236441446,0.9944444444444445
19.2120255791,1.0
