Congestion,CDF
0.000665674059858,0.009433962264150943
0.000665674059858,0.018867924528301886
0.000675237981183,0.02830188679245283
0.000675237981183,0.03773584905660377
0.000676430229302,0.04716981132075472
0.000676430229302,0.05660377358490566
0.000677791345285,0.0660377358490566
0.000677791345285,0.07547169811320754
0.000682113137679,0.08490566037735849
0.000682113137679,0.09433962264150944
0.000684207217079,0.10377358490566038
0.000684207217079,0.11320754716981132
0.000690170123598,0.12264150943396226
0.000690170123598,0.1320754716981132
0.000702260806261,0.14150943396226415
0.000702260806261,0.1509433962264151
0.000711586811214,0.16037735849056603
0.000711586811214,0.16981132075471697
0.000713995434994,0.1792452830188679
0.000713995434994,0.18867924528301888
0.000721069261794,0.19811320754716982
0.000721069261794,0.20754716981132076
0.000731910513581,0.2169811320754717
0.000731910513581,0.22641509433962265
0.000733179955961,0.2358490566037736
0.000733179955961,0.24528301886792453
0.000736253136347,0.25471698113207547
0.000736253136347,0.2641509433962264
0.00536171309488,0.27358490566037735
0.00536171309488,0.2830188679245283
0.00687624211595,0.29245283018867924
0.00687624211595,0.3018867924528302
0.00972437005792,0.3113207547169811
0.00972437005792,0.32075471698113206
0.0100443672266,0.330188679245283
0.0100443672266,0.33962264150943394
0.0101814940455,0.3490566037735849
0.0101814940455,0.3584905660377358
0.0104399858605,0.36792452830188677
0.0104399858605,0.37735849056603776
0.0115622508254,0.3867924528301887
0.0115622508254,0.39622641509433965
0.0118161902836,0.4056603773584906
0.0118161902836,0.41509433962264153
0.0120737966745,0.42452830188679247
0.0120737966745,0.4339622641509434
0.0124763842213,0.44339622641509435
0.0124763842213,0.4528301886792453
0.013701421232,0.46226415094339623
0.013701421232,0.4716981132075472
0.014198501609,0.4811320754716981
0.014198501609,0.49056603773584906
0.0154345425639,0.5
0.0154345425639,0.5094339622641509
0.0156714189384,0.5188679245283019
0.0156714189384,0.5283018867924528
0.0164213267036,0.5377358490566038
0.0164213267036,0.5471698113207547
0.0167917366475,0.5566037735849056
0.0167917366475,0.5660377358490566
0.0168168356714,0.5754716981132075
0.0168168356714,0.5849056603773585
0.0169645287858,0.5943396226415094
0.0169645287858,0.6037735849056604
0.0181121515713,0.6132075471698113
0.0181121515713,0.6226415094339622
0.0185505652962,0.6320754716981132
0.0185505652962,0.6415094339622641
0.0186223274375,0.6509433962264151
0.0186223274375,0.660377358490566
0.0197009628484,0.6698113207547169
0.0197009628484,0.6792452830188679
0.0210296394566,0.6886792452830188
0.0210296394566,0.6981132075471698
0.0219665795674,0.7075471698113207
0.0219665795674,0.7169811320754716
0.0222902454865,0.7264150943396226
0.0222902454865,0.7358490566037735
0.0228198966214,0.7452830188679245
0.0228198966214,0.7547169811320755
0.0245557449476,0.7641509433962265
0.0245557449476,0.7735849056603774
0.025296679004,0.7830188679245284
0.025296679004,0.7924528301886793
0.0275782034525,0.8018867924528302
0.0275782034525,0.8113207547169812
0.0283146730652,0.8207547169811321
0.0283146730652,0.8301886792452831
0.0287519340224,0.839622641509434
0.0287519340224,0.8490566037735849
0.0299964688753,0.8584905660377359
0.0299964688753,0.8679245283018868
0.0303601949073,0.8773584905660378
0.0303601949073,0.8867924528301887
0.0303996492192,0.8962264150943396
0.0303996492192,0.9056603773584906
0.0321731330386,0.9150943396226415
0.0321731330386,0.9245283018867925
0.0348131612137,0.9339622641509434
0.0348131612137,0.9433962264150944
0.0355841508981,0.9528301886792453
0.0355841508981,0.9622641509433962
0.0417037365978,0.9716981132075472
0.0417037365978,0.9811320754716981
0.0436992703179,0.9905660377358491
0.0436992703179,1.0
