Congestion,CDF
0.0,0.009433962264150943
0.0,0.018867924528301886
0.0,0.02830188679245283
0.0,0.03773584905660377
0.0,0.04716981132075472
0.0,0.05660377358490566
0.0,0.0660377358490566
0.0,0.07547169811320754
0.0,0.08490566037735849
0.0,0.09433962264150944
0.0,0.10377358490566038
0.0,0.11320754716981132
0.0,0.12264150943396226
0.0,0.1320754716981132
0.0,0.14150943396226415
0.0,0.1509433962264151
0.0,0.16037735849056603
0.0,0.16981132075471697
0.0,0.1792452830188679
0.0,0.18867924528301888
0.0,0.19811320754716982
0.0,0.20754716981132076
0.0,0.2169811320754717
0.0,0.22641509433962265
0.0,0.2358490566037736
0.0,0.24528301886792453
0.0,0.25471698113207547
0.0,0.2641509433962264
0.0,0.27358490566037735
0.0,0.2830188679245283
3.92091304315e-07,0.29245283018867924
1.01012180077e-05,0.3018867924528302
1.13589952498e-05,0.3113207547169811
1.53989823781e-05,0.32075471698113206
1.73826727509e-05,0.330188679245283
2.31298032543e-05,0.33962264150943394
3.52733054633e-05,0.3490566037735849
4.51516943461e-05,0.3584905660377358
4.77846928392e-05,0.36792452830188677
5.57327608333e-05,0.37735849056603776
6.86203755352e-05,0.3867924528301887
7.01927251373e-05,0.39622641509433965
7.40602327104e-05,0.4056603773584906
0.000289122540679,0.41509433962264153
0.000289122540679,0.42452830188679247
0.00047457954981,0.4339622641509434
0.000564396179326,0.44339622641509435
0.000564396179326,0.4528301886792453
0.000578245081358,0.46226415094339623
0.000578245081358,0.4716981132075472
0.000578245081358,0.4811320754716981
0.000892727850436,0.49056603773584906
0.00112879235865,0.5
0.00112879235865,0.5094339622641509
0.00112879235865,0.5188679245283019
0.0014214684825,0.5283018867924528
0.0014214684825,0.5377358490566038
0.00153989823781,0.5471698113207547
0.00261718399317,0.5566037735849056
0.00261718399317,0.5660377358490566
0.00324275336196,0.5754716981132075
0.00324275336196,0.5849056603773585
0.0039406466339,0.5943396226415094
0.00395143663982,0.6037735849056604
0.0039528344405,0.6132075471698113
0.00395732418364,0.6226415094339622
0.00395952871052,0.6320754716981132
0.00396591564665,0.6415094339622641
0.00397941103761,0.6509433962264151
0.003990389149,0.660377358490566
0.00399331526895,0.6698113207547169
0.00400214816435,0.6792452830188679
0.00401647050694,0.6886792452830188
0.00401821790009,0.6981132075471698
0.0040225159622,0.7075471698113207
0.00498102063705,0.7169811320754716
0.00504877427644,0.7264150943396226
0.00787279123373,0.7358490566037735
0.0081904600765,0.7452830188679245
0.010648776633,0.7547169811320755
0.0170490251202,0.7641509433962265
0.0495739455832,0.7735849056603774
0.0495739455832,0.7830188679245284
0.0498798643625,0.7924528301886793
0.0498798643625,0.8018867924528302
0.0517501542442,0.8113207547169812
0.0991478911663,0.8207547169811321
0.0991478911663,0.8301886792452831
0.0991478911663,0.839622641509434
0.099759728725,0.8490566037735849
0.099759728725,0.8584905660377359
0.099759728725,0.8679245283018868
0.297095531971,0.8773584905660378
0.297095531971,0.8867924528301887
0.298424361826,0.8962264150943396
0.298424361826,0.9056603773584906
0.299119573393,0.9150943396226415
0.299119573393,0.9245283018867925
0.395732418364,0.9339622641509434
0.493518473336,0.9433962264150944
0.501275599955,0.9528301886792453
0.695072444445,0.9622641509433962
0.698639178261,0.9716981132075472
0.701371169613,0.9811320754716981
0.990663557778,0.9905660377358491
1.69353665596,1.0
