Congestion,CDF
0.0,0.005555555555555556
0.0,0.011111111111111112
0.0,0.016666666666666666
0.0,0.022222222222222223
0.0,0.027777777777777776
0.0,0.03333333333333333
0.0,0.03888888888888889
0.0,0.044444444444444446
0.0,0.05
0.0,0.05555555555555555
3.26863919262e-07,0.06111111111111111
3.75550923341e-07,0.06666666666666667
8.45334012813e-07,0.07222222222222222
1.23550483275e-06,0.07777777777777778
1.26422548391e-06,0.08333333333333333
1.66921284181e-06,0.08888888888888889
1.83635505054e-06,0.09444444444444444
2.53091600821e-06,0.1
2.54397313054e-06,0.10555555555555556
2.60272331028e-06,0.1111111111111111
2.65629034233e-06,0.11666666666666667
2.92403299411e-06,0.12222222222222222
2.99185523798e-06,0.12777777777777777
3.34098642688e-06,0.13333333333333333
3.4218413054e-06,0.1388888888888889
3.60324248055e-06,0.14444444444444443
4.1664784092e-06,0.15
4.55982431339e-06,0.15555555555555556
4.76137505305e-06,0.16111111111111112
4.95202584633e-06,0.16666666666666666
5.03037706207e-06,0.17222222222222222
5.07077765154e-06,0.17777777777777778
5.23877974835e-06,0.18333333333333332
5.4208173593e-06,0.18888888888888888
5.51232307365e-06,0.19444444444444445
5.57457480745e-06,0.2
5.60550257518e-06,0.20555555555555555
5.66987272539e-06,0.2111111111111111
5.72527763947e-06,0.21666666666666667
5.73784115899e-06,0.2222222222222222
5.92955717131e-06,0.22777777777777777
5.97902671838e-06,0.23333333333333334
6.04766222295e-06,0.2388888888888889
6.5492938149e-06,0.24444444444444444
6.8915696828e-06,0.25
7.48224012726e-06,0.25555555555555554
7.60077535983e-06,0.2611111111111111
7.71015602707e-06,0.26666666666666666
7.97125996787e-06,0.2722222222222222
2.81778004271e-05,0.2777777777777778
5.63556008542e-05,0.2833333333333333
6.17752416376e-05,0.28888888888888886
6.17752416376e-05,0.29444444444444445
6.35993282634e-05,0.3
6.35993282634e-05,0.3055555555555556
9.62857201897e-05,0.3111111111111111
0.000126422548391,0.31666666666666665
0.000127198656527,0.32222222222222224
0.000169356296816,0.3277777777777778
0.000253091600821,0.3333333333333333
0.000263207004371,0.3388888888888889
0.000278728740372,0.34444444444444444
0.000278728740372,0.35
0.000356002627674,0.35555555555555557
0.00054208173593,0.3611111111111111
0.000551232307365,0.36666666666666664
0.000568853006792,0.37222222222222223
0.000612827383061,0.37777777777777777
0.000648376995314,0.38333333333333336
0.000648376995314,0.3888888888888889
0.000739344509675,0.39444444444444443
0.000781351929881,0.4
0.00084016285944,0.40555555555555556
0.000898214259234,0.4111111111111111
0.00111586585183,0.4166666666666667
0.0011798146556,0.4222222222222222
0.00124133271244,0.42777777777777776
0.00152609494709,0.43333333333333335
0.00179172398132,0.4388888888888889
0.00187593107316,0.4444444444444444
0.00231644299464,0.45
0.00262415508589,0.45555555555555555
0.00466871723348,0.46111111111111114
0.0056799131293,0.4666666666666667
0.005945271748,0.4722222222222222
0.00647703912609,0.4777777777777778
0.00663442871628,0.48333333333333334
0.0069800768323,0.4888888888888889
0.00705652820597,0.49444444444444446
0.00747317604689,0.5
0.00807107871873,0.5055555555555555
0.00812145760304,0.5111111111111111
0.00825471422378,0.5166666666666667
0.00838172993406,0.5222222222222223
0.00868091545786,0.5277777777777778
0.0141723960892,0.5333333333333333
0.0143986187797,0.5388888888888889
0.0179914575757,0.5444444444444444
0.0182083418714,0.55
0.0183844374151,0.5555555555555556
0.0183969915356,0.5611111111111111
0.0184027966717,0.5666666666666667
0.0184232731419,0.5722222222222222
0.0184401704772,0.5777777777777777
0.0184555409494,0.5833333333333334
0.0184928219573,0.5888888888888889
0.0184931211688,0.5944444444444444
0.0184964571162,0.6
0.0185022912708,0.6055555555555555
0.0185139764664,0.6111111111111112
0.0185141640398,0.6166666666666667
0.0185245418069,0.6222222222222222
0.0185276125293,0.6277777777777778
0.0185356661847,0.6333333333333333
0.0185395749848,0.6388888888888888
0.0185757908052,0.6444444444444445
0.0185853392749,0.65
0.0185904119736,0.6555555555555556
0.0186010402703,0.6611111111111111
0.0186149036655,0.6666666666666666
0.0186183184741,0.6722222222222223
0.0186254538009,0.6777777777777778
0.0186268371944,0.6833333333333333
0.0186291868177,0.6888888888888889
0.0186308935401,0.6944444444444444
0.0186321454452,0.7
0.0186450395838,0.7055555555555556
0.0186465115236,0.7111111111111111
0.0186707186735,0.7166666666666667
0.0186813725167,0.7222222222222222
0.018709039067,0.7277777777777777
0.0187133941705,0.7333333333333333
0.0187227243759,0.7388888888888889
0.0187227473407,0.7444444444444445
0.462411427906,0.75
0.462411427906,0.7555555555555555
0.614109104729,0.7611111111111111
0.714656120546,0.7666666666666667
0.919221870757,0.7722222222222223
0.919221870757,0.7777777777777778
0.924822855811,0.7833333333333333
0.931272690044,0.7888888888888889
0.931272690044,0.7944444444444444
1.22821820946,0.8
1.84401704772,0.8055555555555556
1.84931211688,0.8111111111111111
1.86183184741,0.8166666666666667
1.86268371944,0.8222222222222222
2.30211058147,0.8277777777777777
2.31380907454,0.8333333333333334
2.77063827473,0.8388888888888889
2.78403394297,0.8444444444444444
2.79709758989,0.85
2.93944120891,0.8555555555555555
2.93944120891,0.8611111111111112
3.71108891507,0.8666666666666667
3.72504639193,0.8722222222222222
4.14766467641,0.8777777777777778
4.64695262474,0.8833333333333333
4.78645210676,0.8888888888888888
4.80394516729,0.8944444444444445
6.00670587377,0.9
8.52811925328,0.9055555555555556
9.56617298283,0.9111111111111111
10.6519418331,0.9166666666666666
11.4164021099,0.9222222222222223
12.5228457398,0.9277777777777778
21.8076107172,0.9333333333333333
22.7661841735,0.9388888888888889
24.6384566111,0.9444444444444444
26.4960356916,0.95
27.3788036593,0.9555555555555556
29.246940911,0.9611111111111111
31.1206314648,0.9666666666666667
32.0186169624,0.9722222222222222
32.9197772224,0.9777777777777777
33.8678991582,0.9833333333333333
34.3370168313,0.9888888888888889
35.6887333453,0.9944444444444445
37.1285952233,1.0
