Congestion,CDF
0.0,0.007352941176470588
0.0,0.014705882352941176
0.0,0.022058823529411766
0.0,0.029411764705882353
0.0,0.03676470588235294
0.0,0.04411764705882353
0.0,0.051470588235294115
0.0,0.058823529411764705
0.0,0.0661764705882353
0.0,0.07352941176470588
0.0,0.08088235294117647
0.0,0.08823529411764706
0.0,0.09558823529411764
0.0,0.10294117647058823
7.56090134713e-07,0.11029411764705882
7.56090134713e-07,0.11764705882352941
7.56090134713e-07,0.125
7.56090134713e-07,0.1323529411764706
7.56090134713e-07,0.13970588235294118
7.56090134713e-07,0.14705882352941177
7.56090134713e-07,0.15441176470588236
7.56090134713e-07,0.16176470588235295
7.56090134713e-07,0.16911764705882354
7.56090134713e-07,0.17647058823529413
7.56090134713e-07,0.18382352941176472
7.56090134713e-07,0.19117647058823528
7.56090134713e-07,0.19852941176470587
7.56090134713e-07,0.20588235294117646
7.56090134713e-07,0.21323529411764705
7.56090134713e-07,0.22058823529411764
7.56090134713e-07,0.22794117647058823
7.56090134713e-07,0.23529411764705882
7.56090134713e-07,0.2426470588235294
7.56090134713e-07,0.25
7.56090134713e-07,0.25735294117647056
7.56090134713e-07,0.2647058823529412
7.56090134713e-07,0.27205882352941174
7.56090134713e-07,0.27941176470588236
7.56090134713e-07,0.2867647058823529
7.56090134713e-07,0.29411764705882354
7.56090134713e-07,0.3014705882352941
1.89022533678e-05,0.3088235294117647
1.89022533678e-05,0.3161764705882353
2.04144336373e-05,0.3235294117647059
3.78045067357e-05,0.33088235294117646
3.78045067357e-05,0.3382352941176471
3.78045067357e-05,0.34558823529411764
3.78045067357e-05,0.35294117647058826
5.67067601035e-05,0.3602941176470588
6.30075112261e-05,0.36764705882352944
6.30075112261e-05,0.375
6.30075112261e-05,0.38235294117647056
7.56090134713e-05,0.3897058823529412
7.56090134713e-05,0.39705882352941174
7.56090134713e-05,0.40441176470588236
7.56090134713e-05,0.4117647058823529
7.56090134713e-05,0.41911764705882354
7.56090134713e-05,0.4264705882352941
7.56090134713e-05,0.4338235294117647
9.45112668391e-05,0.4411764705882353
0.000113413520207,0.4485294117647059
0.000113413520207,0.45588235294117646
0.000138616524697,0.4632352941176471
0.000151218026943,0.47058823529411764
0.000151218026943,0.47794117647058826
0.000226827040414,0.4852941176470588
0.000308736805008,0.49264705882352944
0.000548165347667,0.5
0.000560766849912,0.5073529411764706
0.0007245863791,0.5147058823529411
0.000901007410533,0.5220588235294118
0.000913608912778,0.5294117647058824
0.000976616424005,0.5367647058823529
0.00098921792625,0.5441176470588235
0.00106482693972,0.5514705882352942
0.0331362361654,0.5588235294117647
0.0339061995795,0.5661764705882353
0.0428364527492,0.5735294117647058
0.0429108596879,0.5808823529411765
0.0430456989453,0.5882352941176471
0.0430722442938,0.5955882352941176
0.0430974812867,0.6029411764705882
0.0431424660631,0.6102941176470589
0.0432236939744,0.6176470588235294
0.0432370423682,0.625
0.0432510267734,0.6323529411764706
0.0432569401687,0.6397058823529411
0.0432576861347,0.6470588235294118
0.0432585281351,0.6544117647058824
0.0432591369844,0.6617647058823529
0.0432597895292,0.6691176470588235
0.0432603594083,0.6764705882352942
0.0432631998357,0.6838235294117647
0.0432661706646,0.6911764705882353
0.0432751338741,0.6985294117647058
0.0432784922897,0.7058823529411765
0.0432785014475,0.7132352941176471
0.0432785433394,0.7205882352941176
0.0432785457973,0.7279411764705882
0.0432788938414,0.7352941176470589
0.0432788954807,0.7426470588235294
0.0432788954807,0.75
1.08146320338,0.7573529411764706
1.08157999589,0.7647058823529411
1.1471671143,0.7720588235294118
2.15712330316,0.7794117647058824
2.15712330316,0.7867647058823529
2.16330853323,0.7941176470588235
2.16330853323,0.8014705882352942
3.24438961014,0.8088235294117647
3.60496607043,0.8161764705882353
3.60496607043,0.8235294117647058
3.60496607043,0.8308823529411765
4.30974812867,0.8382352941176471
4.32597895292,0.8455882352941176
4.32631998357,0.8529411764705882
4.32785014475,0.8602941176470589
4.32785457973,0.8676470588235294
4.32788954807,0.875
4.32788954807,0.8823529411764706
5.4074991442,0.8897058823529411
6.46169319769,0.8970588235294118
6.4890025501,0.9044117647058824
7.92867030725,0.9117647058823529
8.61697255805,0.9191176470588235
8.65570891367,0.9264705882352942
12.9836684803,0.9338235294117647
17.664357866,0.9411764705882353
31.3766567636,0.9485294117647058
32.0725208738,0.9558823529411765
41.4724447546,0.9632352941176471
51.4348319045,0.9705882352941176
52.2865499821,0.9779411764705882
54.748455521,0.9852941176470589
56.5776359509,0.9926470588235294
59.9682559088,1.0
