Congestion,CDF
0.0,0.007352941176470588
0.0,0.014705882352941176
0.0,0.022058823529411766
0.0,0.029411764705882353
0.0,0.03676470588235294
0.0,0.04411764705882353
0.0,0.051470588235294115
0.0,0.058823529411764705
0.0,0.0661764705882353
0.0,0.07352941176470588
0.0,0.08088235294117647
0.0,0.08823529411764706
0.0,0.09558823529411764
0.0,0.10294117647058823
6.73213720081e-07,0.11029411764705882
6.73213720081e-07,0.11764705882352941
6.73213720081e-07,0.125
6.73213720081e-07,0.1323529411764706
6.73213720081e-07,0.13970588235294118
6.73213720081e-07,0.14705882352941177
6.73213720081e-07,0.15441176470588236
6.73213720081e-07,0.16176470588235295
6.73213720081e-07,0.16911764705882354
6.73213720081e-07,0.17647058823529413
6.73213720081e-07,0.18382352941176472
6.73213720081e-07,0.19117647058823528
6.73213720081e-07,0.19852941176470587
6.73213720081e-07,0.20588235294117646
6.73213720081e-07,0.21323529411764705
6.73213720081e-07,0.22058823529411764
6.73213720081e-07,0.22794117647058823
6.73213720081e-07,0.23529411764705882
6.73213720081e-07,0.2426470588235294
6.73213720081e-07,0.25
6.73213720081e-07,0.25735294117647056
6.73213720081e-07,0.2647058823529412
6.73213720081e-07,0.27205882352941174
6.73213720081e-07,0.27941176470588236
6.73213720081e-07,0.2867647058823529
6.73213720081e-07,0.29411764705882354
6.73213720081e-07,0.3014705882352941
1.6830343002e-05,0.3088235294117647
1.6830343002e-05,0.3161764705882353
1.81767704422e-05,0.3235294117647059
3.36606860041e-05,0.33088235294117646
3.36606860041e-05,0.3382352941176471
3.36606860041e-05,0.34558823529411764
3.36606860041e-05,0.35294117647058826
5.04910290061e-05,0.3602941176470588
5.61011433401e-05,0.36764705882352944
5.61011433401e-05,0.375
5.61011433401e-05,0.38235294117647056
6.73213720081e-05,0.3897058823529412
6.73213720081e-05,0.39705882352941174
6.73213720081e-05,0.40441176470588236
6.73213720081e-05,0.4117647058823529
6.73213720081e-05,0.41911764705882354
6.73213720081e-05,0.4264705882352941
6.73213720081e-05,0.4338235294117647
8.41517150102e-05,0.4411764705882353
0.000100982058012,0.4485294117647059
0.000100982058012,0.45588235294117646
0.000123422515348,0.4632352941176471
0.000134642744016,0.47058823529411764
0.000134642744016,0.47794117647058826
0.000201964116024,0.4852941176470588
0.000274895602367,0.49264705882352944
0.000488079947059,0.5
0.000499300175727,0.5073529411764706
0.000645163148411,0.5147058823529411
0.000802246349764,0.5220588235294118
0.000813466578432,0.5294117647058824
0.000869567721772,0.5367647058823529
0.00088078795044,0.5441176470588235
0.000948109322448,0.5514705882352942
0.0397866034285,0.5588235294117647
0.0404502463867,0.5661764705882353
0.0479886828772,0.5735294117647058
0.0480573574964,0.5808823529411765
0.0481687565618,0.5882352941176471
0.048194072822,0.5955882352941176
0.0482164136867,0.6029411764705882
0.0482618787299,0.6102941176470589
0.0483428247742,0.6176470588235294
0.0483552941894,0.625
0.0483696694133,0.6323529411764706
0.0483751479085,0.6397058823529411
0.048375836649,0.6470588235294118
0.0483766683841,0.6544117647058824
0.0483773244176,0.6617647058823529
0.0483779357746,0.6691176470588235
0.0483785033944,0.6764705882352942
0.0483813373724,0.6838235294117647
0.0483843237328,0.6911764705882353
0.0483932802171,0.6985294117647058
0.0483966275768,0.7058823529411765
0.0483966364693,0.7132352941176471
0.0483966783248,0.7205882352941176
0.048396680754,0.7279411764705882
0.0483970288146,0.7352941176470589
0.0483970304349,0.7426470588235294
0.0483970304349,0.75
1.2094167096,0.7573529411764706
1.20953343431,0.7647058823529411
1.28838987103,0.7720588235294118
2.41309393649,0.7794117647058824
2.41309393649,0.7867647058823529
2.41921618664,0.7941176470588235
2.41921618664,0.8014705882352942
3.62825012881,0.8088235294117647
4.03147803221,0.8161764705882353
4.03147803221,0.8235294117647058
4.03147803221,0.8308823529411765
4.82164136867,0.8382352941176471
4.83779357746,0.8455882352941176
4.83813373724,0.8529411764705882
4.83966364693,0.8602941176470589
4.8396680754,0.8676470588235294
4.83970304349,0.875
4.83970304349,0.8823529411764706
6.04726704905,0.8897058823529411
7.22996959267,0.8970588235294118
7.25673097749,0.9044117647058824
8.86700745115,0.9117647058823529
9.64104865087,0.9191176470588235
9.67933590788,0.9264705882352942
14.5191089684,0.9338235294117647
19.7542711005,0.9411764705882353
35.0873047152,0.9485294117647058
35.8686549655,0.9558823529411765
46.3773269558,0.9632352941176471
57.5385414968,0.9705882352941176
58.4710248746,0.9779411764705882
61.5172018396,0.9852941176470589
63.2767606243,0.9926470588235294
67.3217852629,1.0
