Congestion,CDF
0.0,0.007352941176470588
0.0,0.014705882352941176
0.0,0.022058823529411766
0.0,0.029411764705882353
0.0,0.03676470588235294
0.0,0.04411764705882353
0.0,0.051470588235294115
0.0,0.058823529411764705
0.0,0.0661764705882353
0.0,0.07352941176470588
0.0,0.08088235294117647
0.0,0.08823529411764706
0.0,0.09558823529411764
0.0,0.10294117647058823
9.51605149102e-07,0.11029411764705882
9.51605149102e-07,0.11764705882352941
9.51605149102e-07,0.125
9.51605149102e-07,0.1323529411764706
9.51605149102e-07,0.13970588235294118
9.51605149102e-07,0.14705882352941177
9.51605149102e-07,0.15441176470588236
9.51605149102e-07,0.16176470588235295
9.51605149102e-07,0.16911764705882354
9.51605149102e-07,0.17647058823529413
9.51605149102e-07,0.18382352941176472
9.51605149102e-07,0.19117647058823528
9.51605149102e-07,0.19852941176470587
9.51605149102e-07,0.20588235294117646
9.51605149102e-07,0.21323529411764705
9.51605149102e-07,0.22058823529411764
9.51605149102e-07,0.22794117647058823
9.51605149102e-07,0.23529411764705882
9.51605149102e-07,0.2426470588235294
9.51605149102e-07,0.25
9.51605149102e-07,0.25735294117647056
9.51605149102e-07,0.2647058823529412
9.51605149102e-07,0.27205882352941174
9.51605149102e-07,0.27941176470588236
9.51605149102e-07,0.2867647058823529
9.51605149102e-07,0.29411764705882354
9.51605149102e-07,0.3014705882352941
2.37901287275e-05,0.3088235294117647
2.37901287275e-05,0.3161764705882353
2.56933390258e-05,0.3235294117647059
4.75802574551e-05,0.33088235294117646
4.75802574551e-05,0.3382352941176471
4.75802574551e-05,0.34558823529411764
4.75802574551e-05,0.35294117647058826
7.13703861826e-05,0.3602941176470588
7.93004290918e-05,0.36764705882352944
7.93004290918e-05,0.375
7.93004290918e-05,0.38235294117647056
9.51605149102e-05,0.3897058823529412
9.51605149102e-05,0.39705882352941174
9.51605149102e-05,0.40441176470588236
9.51605149102e-05,0.4117647058823529
9.51605149102e-05,0.41911764705882354
9.51605149102e-05,0.4264705882352941
9.51605149102e-05,0.4338235294117647
0.000118950643638,0.4411764705882353
0.000142740772365,0.4485294117647059
0.000142740772365,0.45588235294117646
0.000174460944002,0.4632352941176471
0.00019032102982,0.47058823529411764
0.00019032102982,0.47794117647058826
0.000285481544731,0.4852941176470588
0.00038857210255,0.49264705882352944
0.000689913733099,0.5
0.000705773818917,0.5073529411764706
0.000911954934556,0.5147058823529411
0.00113399613601,0.5220588235294118
0.00114985622183,0.5294117647058824
0.00122915665092,0.5367647058823529
0.00124501673674,0.5441176470588235
0.00134017725165,0.5514705882352942
0.0219253177378,0.5588235294117647
0.022857663634,0.5661764705882353
0.0342274330906,0.5735294117647058
0.0343151738251,0.5808823529411765
0.0345020064898,0.5882352941176471
0.0345319137143,0.5955882352941176
0.0345646713063,0.6029411764705882
0.0346080994096,0.6102941176470589
0.0346907444035,0.6176470588235294
0.0347064388869,0.625
0.0347194153966,0.6323529411764706
0.0347264799441,0.6397058823529411
0.0347274013813,0.6470588235294118
0.0347282793254,0.6544117647058824
0.0347287420585,0.6617647058823529
0.0347295211821,0.6691176470588235
0.0347300997473,0.6764705882352942
0.0347329630957,0.6838235294117647
0.0347358762298,0.6911764705882353
0.0347448721257,0.6985294117647058
0.0347482660775,0.7058823529411765
0.0347482762002,0.7132352941176471
0.0347483182583,0.7205882352941176
0.0347483208396,0.7279411764705882
0.0347486688157,0.7352941176470589
0.0347486705373,0.7426470588235294
0.0347486705373,0.75
0.868206983136,0.7573529411764706
0.868324077393,0.7647058823529411
0.91147230425,0.7720588235294118
1.73040497048,0.7794117647058824
1.73040497048,0.7867647058823529
1.73679381149,0.7941176470588235
1.73679381149,0.8014705882352942
2.60462094941,0.8088235294117647
2.89411110657,0.8161764705882353
2.89411110657,0.8235294117647058
2.89411110657,0.8308823529411765
3.45646713063,0.8382352941176471
3.47295211821,0.8455882352941176
3.47329630957,0.8529411764705882
3.47482762002,0.8602941176470589
3.47483208396,0.8676470588235294
3.47486705373,0.875
3.47486705373,0.8823529411764706
4.34121695786,0.8897058823529411
5.18060561946,0.8970588235294118
5.2094418059,0.9044117647058824
6.36475499526,0.9117647058823529
6.90965850206,0.9191176470588235
6.9496639098,0.9264705882352942
10.424600989,0.9338235294117647
14.1811543885,0.9411764705882353
25.192243204,0.9485294117647058
25.7453887946,0.9558823529411765
33.2976353346,0.9632352941176471
41.2583962252,0.9705882352941176
41.9790186802,0.9779411764705882
43.450927999,0.9852941176470589
45.4105360627,0.9926470588235294
47.6963024261,1.0
