Congestion,CDF
0.0,0.007352941176470588
0.0,0.014705882352941176
0.0,0.022058823529411766
0.0,0.029411764705882353
0.0,0.03676470588235294
0.0,0.04411764705882353
0.0,0.051470588235294115
0.0,0.058823529411764705
0.0,0.0661764705882353
0.0,0.07352941176470588
0.0,0.08088235294117647
0.0,0.08823529411764706
0.0,0.09558823529411764
0.0,0.10294117647058823
1.61646436531e-06,0.11029411764705882
1.61646436531e-06,0.11764705882352941
1.61646436531e-06,0.125
1.61646436531e-06,0.1323529411764706
1.61646436531e-06,0.13970588235294118
1.61646436531e-06,0.14705882352941177
1.61646436531e-06,0.15441176470588236
1.61646436531e-06,0.16176470588235295
1.61646436531e-06,0.16911764705882354
1.61646436531e-06,0.17647058823529413
1.61646436531e-06,0.18382352941176472
1.61646436531e-06,0.19117647058823528
1.61646436531e-06,0.19852941176470587
1.61646436531e-06,0.20588235294117646
1.61646436531e-06,0.21323529411764705
1.61646436531e-06,0.22058823529411764
1.61646436531e-06,0.22794117647058823
1.61646436531e-06,0.23529411764705882
1.61646436531e-06,0.2426470588235294
1.61646436531e-06,0.25
1.61646436531e-06,0.25735294117647056
1.61646436531e-06,0.2647058823529412
1.61646436531e-06,0.27205882352941174
1.61646436531e-06,0.27941176470588236
1.61646436531e-06,0.2867647058823529
1.61646436531e-06,0.29411764705882354
1.61646436531e-06,0.3014705882352941
4.04116091328e-05,0.3088235294117647
4.04116091328e-05,0.3161764705882353
4.36445378635e-05,0.3235294117647059
8.08232182657e-05,0.33088235294117646
8.08232182657e-05,0.3382352941176471
8.08232182657e-05,0.34558823529411764
8.08232182657e-05,0.35294117647058826
0.000121234827398,0.3602941176470588
0.000134705363776,0.36764705882352944
0.000134705363776,0.375
0.000134705363776,0.38235294117647056
0.000161646436531,0.3897058823529412
0.000161646436531,0.39705882352941174
0.000161646436531,0.40441176470588236
0.000161646436531,0.4117647058823529
0.000161646436531,0.41911764705882354
0.000161646436531,0.4264705882352941
0.000161646436531,0.4338235294117647
0.000202058045664,0.4411764705882353
0.000242469654797,0.4485294117647059
0.000242469654797,0.45588235294117646
0.000296351800307,0.4632352941176471
0.000323292873063,0.47058823529411764
0.000323292873063,0.47794117647058826
0.000484939309594,0.4852941176470588
0.000660056282503,0.49264705882352944
0.00117193666485,0.5
0.00119887773761,0.5073529411764706
0.00154911168343,0.5147058823529411
0.001926286702,0.5220588235294118
0.00195322777475,0.5294117647058824
0.00208793313853,0.5367647058823529
0.00211487421128,0.5441176470588235
0.00227652064782,0.5514705882352942
0.0178772850589,0.5588235294117647
0.0180563542599,0.5661764705882353
0.0198428753771,0.5735294117647058
0.0198827320334,0.5808823529411765
0.0198881819262,0.5882352941176471
0.0199044037574,0.5955882352941176
0.0199091994641,0.6029411764705882
0.0199605569762,0.6102941176470589
0.0200331661786,0.6176470588235294
0.0200396946464,0.625
0.0200563919381,0.6323529411764706
0.0200590055545,0.6397058823529411
0.0200591504336,0.6470588235294118
0.0200598304369,0.6544117647058824
0.0200609339588,0.6617647058823529
0.0200611538136,0.6691176470588235
0.0200616707591,0.6764705882352942
0.0200644143827,0.6838235294117647
0.0200676940128,0.6911764705882353
0.0200763846557,0.6985294117647058
0.0200795997964,0.7058823529411765
0.0200796043104,0.7132352941176471
0.0200796445712,0.7205882352941176
0.0200796461117,0.7279411764705882
0.0200799945294,0.7352941176470589
0.0200799955572,0.7426470588235294
0.0200799955572,0.75
0.501495760923,0.7573529411764706
0.501610359568,0.7647058823529411
0.536579560057,0.7720588235294118
0.998027848812,0.7794117647058824
0.998027848812,0.7867647058823529
1.00338470064,0.7941176470588235
1.00338470064,0.8014705882352942
1.50448728277,0.8088235294117647
1.67174446828,0.8161764705882353
1.67174446828,0.8235294117647058
1.67174446828,0.8308823529411765
1.99091994641,0.8382352941176471
2.00611538136,0.8455882352941176
2.00644143827,0.8529411764705882
2.00796043104,0.8602941176470589
2.00796461117,0.8676470588235294
2.00799955572,0.875
2.00799955572,0.8823529411764706
2.50766283684,0.8897058823529411
2.98684604143,0.8970588235294118
3.00928525609,0.9044117647058824
3.67571393291,0.9117647058823529
3.98136032215,0.9191176470588235
4.01592906829,0.9264705882352942
6.02399856438,0.9338235294117647
8.19161608235,0.9411764705882353
14.5574584029,0.9485294117647058
14.8686744819,0.9558823529411765
19.2402260374,0.9632352941176471
23.8211683832,0.9705882352941176
24.2551504873,0.9779411764705882
25.6088968891,0.9852941176470589
26.2434236906,0.9926470588235294
28.0490591166,1.0
