Congestion,CDF
0.0,0.007352941176470588
0.0,0.014705882352941176
0.0,0.022058823529411766
0.0,0.029411764705882353
0.0,0.03676470588235294
0.0,0.04411764705882353
0.0,0.051470588235294115
0.0,0.058823529411764705
0.0,0.0661764705882353
0.0,0.07352941176470588
0.0,0.08088235294117647
0.0,0.08823529411764706
0.0,0.09558823529411764
0.0,0.10294117647058823
7.32563581232e-07,0.11029411764705882
7.32563581232e-07,0.11764705882352941
7.32563581232e-07,0.125
7.32563581232e-07,0.1323529411764706
7.32563581232e-07,0.13970588235294118
7.32563581232e-07,0.14705882352941177
7.32563581232e-07,0.15441176470588236
7.32563581232e-07,0.16176470588235295
7.32563581232e-07,0.16911764705882354
7.32563581232e-07,0.17647058823529413
7.32563581232e-07,0.18382352941176472
7.32563581232e-07,0.19117647058823528
7.32563581232e-07,0.19852941176470587
7.32563581232e-07,0.20588235294117646
7.32563581232e-07,0.21323529411764705
7.32563581232e-07,0.22058823529411764
7.32563581232e-07,0.22794117647058823
7.32563581232e-07,0.23529411764705882
7.32563581232e-07,0.2426470588235294
7.32563581232e-07,0.25
7.32563581232e-07,0.25735294117647056
7.32563581232e-07,0.2647058823529412
7.32563581232e-07,0.27205882352941174
7.32563581232e-07,0.27941176470588236
7.32563581232e-07,0.2867647058823529
7.32563581232e-07,0.29411764705882354
7.32563581232e-07,0.3014705882352941
1.83140895308e-05,0.3088235294117647
1.83140895308e-05,0.3161764705882353
1.97792166933e-05,0.3235294117647059
3.66281790616e-05,0.33088235294117646
3.66281790616e-05,0.3382352941176471
3.66281790616e-05,0.34558823529411764
3.66281790616e-05,0.35294117647058826
5.49422685924e-05,0.3602941176470588
6.10469651026e-05,0.36764705882352944
6.10469651026e-05,0.375
6.10469651026e-05,0.38235294117647056
7.32563581232e-05,0.3897058823529412
7.32563581232e-05,0.39705882352941174
7.32563581232e-05,0.40441176470588236
7.32563581232e-05,0.4117647058823529
7.32563581232e-05,0.41911764705882354
7.32563581232e-05,0.4264705882352941
7.32563581232e-05,0.4338235294117647
9.1570447654e-05,0.4411764705882353
0.000109884537185,0.4485294117647059
0.000109884537185,0.45588235294117646
0.000134303323226,0.4632352941176471
0.000146512716246,0.47058823529411764
0.000146512716246,0.47794117647058826
0.000219769074369,0.4852941176470588
0.000299130129003,0.49264705882352944
0.000531108596393,0.5
0.000543317989413,0.5073529411764706
0.00070204009868,0.5147058823529411
0.000872971600968,0.5220588235294118
0.000885180993988,0.5294117647058824
0.000946227959091,0.5367647058823529
0.000958437352111,0.5441176470588235
0.00103169371023,0.5514705882352942
0.0321211811449,0.5588235294117647
0.0330704820268,0.5661764705882353
0.0444112347593,0.5735294117647058
0.0444773911511,0.5808823529411765
0.0446362111332,0.5882352941176471
0.0446760346178,0.5955882352941176
0.0447025222488,0.6029411764705882
0.0447138985176,0.6102941176470589
0.0447726690999,0.6176470588235294
0.0447862342988,0.625
0.0447900868319,0.6323529411764706
0.0447949589612,0.6397058823529411
0.044797452578,0.6470588235294118
0.0447980333558,0.6544117647058824
0.0447984164754,0.6617647058823529
0.0447990776159,0.6691176470588235
0.0447992940631,0.6764705882352942
0.0448004131645,0.6838235294117647
0.0448007086556,0.6911764705882353
0.0448061770418,0.6985294117647058
0.0448079258731,0.7058823529411765
0.0448079358034,0.7132352941176471
0.0448080313242,0.7205882352941176
0.0448080343406,0.7279411764705882
0.0448081354177,0.7352941176470589
0.0448081374287,0.7426470588235294
0.0448081374287,0.75
1.1199508339,0.7573529411764706
1.12001032911,0.7647058823529411
1.18400881536,0.7720588235294118
2.23569492588,0.7794117647058824
2.23569492588,0.7867647058823529
2.24003543278,0.7941176470588235
2.24003543278,0.8014705882352942
3.35985250169,0.8088235294117647
3.73320958227,0.8161764705882353
3.73320958227,0.8235294117647058
3.73320958227,0.8308823529411765
4.47025222488,0.8382352941176471
4.47990776159,0.8455882352941176
4.48004131645,0.8529411764705882
4.48079358034,0.8602941176470589
4.48080343406,0.8676470588235294
4.48081374287,0.875
4.48081374287,0.8823529411764706
5.59988024021,0.8897058823529411
6.6993160392,0.8970588235294118
6.7195313289,0.9044117647058824
8.21183301215,0.9117647058823529
8.93785568667,0.9191176470588235
8.96160656649,0.9264705882352942
13.4424410275,0.9338235294117647
18.2928392316,0.9411764705882353
32.4856440908,0.9485294117647058
33.2176340796,0.9558823529411765
42.93950681,0.9632352941176471
53.2959292814,0.9705882352941176
54.1380468221,0.9779411764705882
56.5080473959,0.9852941176470589
58.5857859372,0.9926470588235294
61.8928341399,1.0
