Congestion,CDF
0.0,0.007352941176470588
0.0,0.014705882352941176
0.0,0.022058823529411766
0.0,0.029411764705882353
0.0,0.03676470588235294
0.0,0.04411764705882353
0.0,0.051470588235294115
0.0,0.058823529411764705
0.0,0.0661764705882353
0.0,0.07352941176470588
0.0,0.08088235294117647
0.0,0.08823529411764706
0.0,0.09558823529411764
0.0,0.10294117647058823
1.01166978149e-06,0.11029411764705882
1.01166978149e-06,0.11764705882352941
1.01166978149e-06,0.125
1.01166978149e-06,0.1323529411764706
1.01166978149e-06,0.13970588235294118
1.01166978149e-06,0.14705882352941177
1.01166978149e-06,0.15441176470588236
1.01166978149e-06,0.16176470588235295
1.01166978149e-06,0.16911764705882354
1.01166978149e-06,0.17647058823529413
1.01166978149e-06,0.18382352941176472
1.01166978149e-06,0.19117647058823528
1.01166978149e-06,0.19852941176470587
1.01166978149e-06,0.20588235294117646
1.01166978149e-06,0.21323529411764705
1.01166978149e-06,0.22058823529411764
1.01166978149e-06,0.22794117647058823
1.01166978149e-06,0.23529411764705882
1.01166978149e-06,0.2426470588235294
1.01166978149e-06,0.25
1.01166978149e-06,0.25735294117647056
1.01166978149e-06,0.2647058823529412
1.01166978149e-06,0.27205882352941174
1.01166978149e-06,0.27941176470588236
1.01166978149e-06,0.2867647058823529
1.01166978149e-06,0.29411764705882354
1.01166978149e-06,0.3014705882352941
2.52917445372e-05,0.3088235294117647
2.52917445372e-05,0.3161764705882353
2.73150841002e-05,0.3235294117647059
5.05834890744e-05,0.33088235294117646
5.05834890744e-05,0.3382352941176471
5.05834890744e-05,0.34558823529411764
5.05834890744e-05,0.35294117647058826
7.58752336116e-05,0.3602941176470588
8.4305815124e-05,0.36764705882352944
8.4305815124e-05,0.375
8.4305815124e-05,0.38235294117647056
0.000101166978149,0.3897058823529412
0.000101166978149,0.39705882352941174
0.000101166978149,0.40441176470588236
0.000101166978149,0.4117647058823529
0.000101166978149,0.41911764705882354
0.000101166978149,0.4264705882352941
0.000101166978149,0.4338235294117647
0.000126458722686,0.4411764705882353
0.000151750467223,0.4485294117647059
0.000151750467223,0.45588235294117646
0.000185472793273,0.4632352941176471
0.000202333956298,0.47058823529411764
0.000202333956298,0.47794117647058826
0.000303500934447,0.4852941176470588
0.000413098494108,0.49264705882352944
0.000733460591579,0.5
0.000750321754604,0.5073529411764706
0.000969516873927,0.5147058823529411
0.00120557315627,0.5220588235294118
0.0012224343193,0.5294117647058824
0.00130674013442,0.5367647058823529
0.00132360129745,0.5441176470588235
0.0014247682756,0.5514705882352942
0.0290594679325,0.5588235294117647
0.0292956021071,0.5661764705882353
0.0317876884488,0.5735294117647058
0.0318229255135,0.5808823529411765
0.0318527843929,0.5882352941176471
0.0318862726177,0.5955882352941176
0.0318978528873,0.6029411764705882
0.0319117142421,0.6102941176470589
0.0319690099337,0.6176470588235294
0.0319780492095,0.625
0.0319839177792,0.6323529411764706
0.0319865465642,0.6397058823529411
0.0319887485145,0.6470588235294118
0.0319892753511,0.6544117647058824
0.031989898205,0.6617647058823529
0.0319903500303,0.6691176470588235
0.0319905540331,0.6764705882352942
0.0319916393893,0.6838235294117647
0.0319920188679,0.6911764705882353
0.0319974463077,0.6985294117647058
0.0319991379304,0.7058823529411765
0.0319991464472,0.7132352941176471
0.0319992417414,0.7205882352941176
0.0319992445892,0.7279411764705882
0.0319993457593,0.7352941176470589
0.0319993476579,0.7426470588235294
0.0319993476579,0.75
0.799731883777,0.7573529411764706
0.799790984734,0.7647058823529411
0.857356574111,0.7720588235294118
1.59558571211,0.7794117647058824
1.59558571211,0.7867647058823529
1.5996009434,0.7941176470588235
1.5996009434,0.8014705882352942
2.39919565133,0.8088235294117647
2.66581448566,0.8161764705882353
2.66581448566,0.8235294117647058
2.66581448566,0.8308823529411765
3.18978528873,0.8382352941176471
3.19903500303,0.8455882352941176
3.19916393893,0.8529411764705882
3.19991464472,0.8602941176470589
3.19992445892,0.8676470588235294
3.19993476579,0.875
3.19993476579,0.8823529411764706
3.99878728709,0.8897058823529411
4.78086415139,0.8970588235294118
4.79825559981,0.9044117647058824
5.86361940661,0.9117647058823529
6.37841255051,0.9191176470588235
6.39984863305,0.9264705882352942
9.59980410751,0.9338235294117647
13.0626265963,0.9411764705882353
23.1992721631,0.9485294117647058
23.7187327084,0.9558823529411765
30.6644322229,0.9632352941176471
38.0567782551,0.9705882352941176
38.6610796006,0.9779411764705882
40.9627250484,0.9852941176470589
41.843372152,0.9926470588235294
44.7729323627,1.0
