Congestion,CDF
0.0,0.007352941176470588
0.0,0.014705882352941176
0.0,0.022058823529411766
0.0,0.029411764705882353
0.0,0.03676470588235294
0.0,0.04411764705882353
0.0,0.051470588235294115
0.0,0.058823529411764705
0.0,0.0661764705882353
0.0,0.07352941176470588
0.0,0.08088235294117647
0.0,0.08823529411764706
0.0,0.09558823529411764
0.0,0.10294117647058823
9.75329777743e-06,0.11029411764705882
9.75329777743e-06,0.11764705882352941
9.75329777743e-06,0.125
9.75329777743e-06,0.1323529411764706
9.75329777743e-06,0.13970588235294118
9.75329777743e-06,0.14705882352941177
9.75329777743e-06,0.15441176470588236
9.75329777743e-06,0.16176470588235295
9.75329777743e-06,0.16911764705882354
9.75329777743e-06,0.17647058823529413
9.75329777743e-06,0.18382352941176472
9.75329777743e-06,0.19117647058823528
9.75329777743e-06,0.19852941176470587
9.75329777743e-06,0.20588235294117646
9.75329777743e-06,0.21323529411764705
9.75329777743e-06,0.22058823529411764
9.75329777743e-06,0.22794117647058823
9.75329777743e-06,0.23529411764705882
9.75329777743e-06,0.2426470588235294
9.75329777743e-06,0.25
9.75329777743e-06,0.25735294117647056
9.75329777743e-06,0.2647058823529412
9.75329777743e-06,0.27205882352941174
9.75329777743e-06,0.27941176470588236
9.75329777743e-06,0.2867647058823529
9.75329777743e-06,0.29411764705882354
9.75329777743e-06,0.3014705882352941
0.000230692565957,0.3088235294117647
0.000243832444436,0.3161764705882353
0.000243832444436,0.3235294117647059
0.000263339039991,0.33088235294117646
0.000487664888872,0.3382352941176471
0.000487664888872,0.34558823529411764
0.000487664888872,0.35294117647058826
0.000487664888872,0.3602941176470588
0.00055892953421,0.36764705882352944
0.000731497333307,0.375
0.000812774814786,0.38235294117647056
0.000812774814786,0.3897058823529412
0.000812774814786,0.39705882352941174
0.000975329777743,0.40441176470588236
0.000975329777743,0.4117647058823529
0.000975329777743,0.41911764705882354
0.000975329777743,0.4264705882352941
0.000975329777743,0.4338235294117647
0.000975329777743,0.4411764705882353
0.000975329777743,0.4485294117647059
0.00121916222218,0.45588235294117646
0.00146299466661,0.4632352941176471
0.00146299466661,0.47058823529411764
0.00178810459253,0.47794117647058826
0.00195065955549,0.4852941176470588
0.00195065955549,0.49264705882352944
0.00259997954589,0.5
0.0028155364082,0.5073529411764706
0.00292598933323,0.5147058823529411
0.00319654937936,0.5220588235294118
0.00333025278065,0.5294117647058824
0.00341365132509,0.5367647058823529
0.00347493033335,0.5441176470588235
0.00371954424815,0.5514705882352942
0.00377160451249,0.5588235294117647
0.00379152594057,0.5661764705882353
0.00381164921094,0.5735294117647058
0.00381800174207,0.5808823529411765
0.0038206315161,0.5882352941176471
0.00382205974404,0.5955882352941176
0.00382470775002,0.6029411764705882
0.00382622919461,0.6102941176470589
0.00383035799213,0.6176470588235294
0.00383349402628,0.625
0.00385460192889,0.6323529411764706
0.00386159863519,0.6397058823529411
0.00386164171211,0.6470588235294118
0.00386199418252,0.6544117647058824
0.00386200755705,0.6617647058823529
0.00386241745934,0.6691176470588235
0.00386242637646,0.6764705882352942
0.00386242637646,0.6838235294117647
0.00398259659245,0.6911764705882353
0.00707114088864,0.6985294117647058
0.0072336958516,0.7058823529411765
0.00934691037004,0.7132352941176471
0.0116226798514,0.7205882352941176
0.0117852348144,0.7279411764705882
0.0125980096292,0.7352941176470589
0.0127605645921,0.7426470588235294
0.0137358943699,0.75
0.0923794419781,0.7573529411764706
0.0955157879026,0.7647058823529411
0.0957589498032,0.7720588235294118
0.173746516667,0.7794117647058824
0.173746516667,0.7867647058823529
0.191674701314,0.7941176470588235
0.191674701314,0.8014705882352942
0.286547363708,0.8088235294117647
0.318541462441,0.8161764705882353
0.318541462441,0.8235294117647058
0.318541462441,0.8308823529411765
0.341365132509,0.8382352941176471
0.382470775002,0.8455882352941176
0.383035799213,0.8529411764705882
0.386164171211,0.8602941176470589
0.386200755705,0.8676470588235294
0.386242637646,0.875
0.386242637646,0.8823529411764706
0.478138707364,0.8897058823529411
0.493401454603,0.8970588235294118
0.572839622408,0.9044117647058824
0.674390410574,0.9117647058823529
0.69570191369,0.9191176470588235
0.772400173957,0.9264705882352942
1.15872702123,0.9338235294117647
1.56135691921,0.9411764705882353
2.79921017971,0.9485294117647058
2.80275977438,0.9558823529411765
3.69488653636,0.9632352941176471
4.23054959415,0.9705882352941176
4.28644254757,0.9779411764705882
4.64687875283,0.9852941176470589
4.92843239364,0.9926470588235294
4.95150165024,1.0
