Congestion,CDF
0.0,0.007352941176470588
0.0,0.014705882352941176
0.0,0.022058823529411766
0.0,0.029411764705882353
0.0,0.03676470588235294
0.0,0.04411764705882353
0.0,0.051470588235294115
0.0,0.058823529411764705
0.0,0.0661764705882353
0.0,0.07352941176470588
0.0,0.08088235294117647
0.0,0.08823529411764706
0.0,0.09558823529411764
0.0,0.10294117647058823
6.322708683e-07,0.11029411764705882
6.322708683e-07,0.11764705882352941
6.322708683e-07,0.125
6.322708683e-07,0.1323529411764706
6.322708683e-07,0.13970588235294118
6.322708683e-07,0.14705882352941177
6.322708683e-07,0.15441176470588236
6.322708683e-07,0.16176470588235295
6.322708683e-07,0.16911764705882354
6.322708683e-07,0.17647058823529413
6.322708683e-07,0.18382352941176472
6.322708683e-07,0.19117647058823528
6.322708683e-07,0.19852941176470587
6.322708683e-07,0.20588235294117646
6.322708683e-07,0.21323529411764705
6.322708683e-07,0.22058823529411764
6.322708683e-07,0.22794117647058823
6.322708683e-07,0.23529411764705882
6.322708683e-07,0.2426470588235294
6.322708683e-07,0.25
6.322708683e-07,0.25735294117647056
6.322708683e-07,0.2647058823529412
6.322708683e-07,0.27205882352941174
6.322708683e-07,0.27941176470588236
6.322708683e-07,0.2867647058823529
6.322708683e-07,0.29411764705882354
6.322708683e-07,0.3014705882352941
1.58067717075e-05,0.3088235294117647
1.58067717075e-05,0.3161764705882353
1.70713134441e-05,0.3235294117647059
3.1613543415e-05,0.33088235294117646
3.1613543415e-05,0.3382352941176471
3.1613543415e-05,0.34558823529411764
3.1613543415e-05,0.35294117647058826
4.74203151225e-05,0.3602941176470588
5.2689239025e-05,0.36764705882352944
5.2689239025e-05,0.375
5.2689239025e-05,0.38235294117647056
6.322708683e-05,0.3897058823529412
6.322708683e-05,0.39705882352941174
6.322708683e-05,0.40441176470588236
6.322708683e-05,0.4117647058823529
6.322708683e-05,0.41911764705882354
6.322708683e-05,0.4264705882352941
6.322708683e-05,0.4338235294117647
7.90338585375e-05,0.4411764705882353
9.4840630245e-05,0.4485294117647059
9.4840630245e-05,0.45588235294117646
0.000115916325855,0.4632352941176471
0.00012645417366,0.47058823529411764
0.00012645417366,0.47794117647058826
0.00018968126049,0.4852941176470588
0.000258177271223,0.49264705882352944
0.000458396379518,0.5
0.000468934227323,0.5073529411764706
0.000605926248788,0.5147058823529411
0.000753456118058,0.5220588235294118
0.000763993965863,0.5294117647058824
0.000816683204888,0.5367647058823529
0.000827221052693,0.5441176470588235
0.000890448139523,0.5514705882352942
0.0462747391711,0.5588235294117647
0.0466643779187,0.5661764705882353
0.0509383643558,0.5735294117647058
0.0509817839609,0.5808823529411765
0.051043542132,0.5882352941176471
0.0510792714132,0.5955882352941176
0.0510957092141,0.6029411764705882
0.0511084392155,0.6102941176470589
0.0511669267031,0.6176470588235294
0.0511775062917,0.625
0.0511827225719,0.6323529411764706
0.0511861070733,0.6397058823529411
0.0511884327074,0.6470588235294118
0.0511889869633,0.6544117647058824
0.0511895069073,0.6617647058823529
0.0511900474144,0.6691176470588235
0.0511902583956,0.6764705882352942
0.0511913610716,0.6838235294117647
0.0511916950513,0.6911764705882353
0.0511971516982,0.6985294117647058
0.0511988691606,0.7058823529411765
0.0511988784243,0.7132352941176471
0.0511989738685,0.7205882352941176
0.0511989768227,0.7279411764705882
0.0511990779365,0.7352941176470589
0.051199079906,0.7426470588235294
0.051199079906,0.75
1.27972467408,0.7573529411764706
1.27978402679,0.7647058823529411
1.37181986626,0.7720588235294118
2.55542196078,0.7794117647058824
2.55542196078,0.7867647058823529
2.55958475256,0.7941176470588235
2.55958475256,0.8014705882352942
3.83917402225,0.8088235294117647
4.26578979112,0.8161764705882353
4.26578979112,0.8235294117647058
4.26578979112,0.8308823529411765
5.10957092141,0.8382352941176471
5.11900474144,0.8455882352941176
5.11913610716,0.8529411764705882
5.11988784243,0.8602941176470589
5.11989768227,0.8676470588235294
5.1199079906,0.875
5.1199079906,0.8823529411764706
6.39875051364,0.8897058823529411
7.65977617397,0.8970588235294118
7.67819545989,0.9044117647058824
9.38354042029,0.9117647058823529
10.2174980627,0.9191176470588235
10.2397950691,0.9264705882352942
15.3597237748,0.9338235294117647
20.9024957369,0.9411764705882353
37.1190776293,0.9485294117647058
37.9581507883,0.9558823529411765
49.0641673428,0.9632352941176471
60.9292614606,0.9705882352941176
61.8606350598,0.9779411764705882
65.5567353777,0.9852941176470589
66.9588134559,0.9926470588235294
71.6252512478,1.0
