Congestion,CDF
0.0,0.007352941176470588
0.0,0.014705882352941176
0.0,0.022058823529411766
0.0,0.029411764705882353
0.0,0.03676470588235294
0.0,0.04411764705882353
0.0,0.051470588235294115
0.0,0.058823529411764705
0.0,0.0661764705882353
0.0,0.07352941176470588
0.0,0.08088235294117647
0.0,0.08823529411764706
0.0,0.09558823529411764
0.0,0.10294117647058823
6.32213057637e-07,0.11029411764705882
6.32213057637e-07,0.11764705882352941
6.32213057637e-07,0.125
6.32213057637e-07,0.1323529411764706
6.32213057637e-07,0.13970588235294118
6.32213057637e-07,0.14705882352941177
6.32213057637e-07,0.15441176470588236
6.32213057637e-07,0.16176470588235295
6.32213057637e-07,0.16911764705882354
6.32213057637e-07,0.17647058823529413
6.32213057637e-07,0.18382352941176472
6.32213057637e-07,0.19117647058823528
6.32213057637e-07,0.19852941176470587
6.32213057637e-07,0.20588235294117646
6.32213057637e-07,0.21323529411764705
6.32213057637e-07,0.22058823529411764
6.32213057637e-07,0.22794117647058823
6.32213057637e-07,0.23529411764705882
6.32213057637e-07,0.2426470588235294
6.32213057637e-07,0.25
6.32213057637e-07,0.25735294117647056
6.32213057637e-07,0.2647058823529412
6.32213057637e-07,0.27205882352941174
6.32213057637e-07,0.27941176470588236
6.32213057637e-07,0.2867647058823529
6.32213057637e-07,0.29411764705882354
6.32213057637e-07,0.3014705882352941
1.58053264409e-05,0.3088235294117647
1.58053264409e-05,0.3161764705882353
1.70697525562e-05,0.3235294117647059
3.16106528818e-05,0.33088235294117646
3.16106528818e-05,0.3382352941176471
3.16106528818e-05,0.34558823529411764
3.16106528818e-05,0.35294117647058826
4.74159793228e-05,0.3602941176470588
5.26844214697e-05,0.36764705882352944
5.26844214697e-05,0.375
5.26844214697e-05,0.38235294117647056
6.32213057637e-05,0.3897058823529412
6.32213057637e-05,0.39705882352941174
6.32213057637e-05,0.40441176470588236
6.32213057637e-05,0.4117647058823529
6.32213057637e-05,0.41911764705882354
6.32213057637e-05,0.4264705882352941
6.32213057637e-05,0.4338235294117647
7.90266322046e-05,0.4411764705882353
9.48319586455e-05,0.4485294117647059
9.48319586455e-05,0.45588235294117646
0.000115905727233,0.4632352941176471
0.000126442611527,0.47058823529411764
0.000126442611527,0.47794117647058826
0.000189663917291,0.4852941176470588
0.000258153665202,0.49264705882352944
0.000458354466787,0.5
0.000468891351081,0.5073529411764706
0.000605870846902,0.5147058823529411
0.000753387227017,0.5220588235294118
0.000763924111311,0.5294117647058824
0.000816608532781,0.5367647058823529
0.000827145417075,0.5441176470588235
0.000890366722839,0.5514705882352942
0.0408023002007,0.5588235294117647
0.0416310365481,0.5661764705882353
0.0512768770196,0.5735294117647058
0.0513360793912,0.5808823529411765
0.0514660905351,0.5882352941176471
0.0515044902801,0.5955882352941176
0.0515275812054,0.6029411764705882
0.0515394876809,0.6102941176470589
0.0515980019813,0.6176470588235294
0.0516105432527,0.625
0.0516148550011,0.6323529411764706
0.0516192193255,0.6397058823529411
0.0516216489056,0.6470588235294118
0.0516222186183,0.6544117647058824
0.0516226543417,0.6617647058823529
0.0516232694468,0.6691176470588235
0.0516234835143,0.6764705882352942
0.0516245956991,0.6838235294117647
0.0516249076935,0.6911764705882353
0.0516303695636,0.6985294117647058
0.0516321061617,0.7058823529411765
0.0516321158086,0.7132352941176471
0.0516322112928,0.7205882352941176
0.0516322142801,0.7279411764705882
0.0516323153741,0.7352941176470589
0.0516323173657,0.7426470588235294
0.0516323173657,0.75
1.29055546546,0.7573529411764706
1.29061489248,0.7647058823529411
1.37194530785,0.7720588235294118
2.57697438404,0.7794117647058824
2.57697438404,0.7867647058823529
2.58124538468,0.7941176470588235
2.58124538468,0.8014705882352942
3.87166639637,0.8088235294117647
4.30189198812,0.8161764705882353
4.30189198812,0.8235294117647058
4.30189198812,0.8308823529411765
5.15275812054,0.8382352941176471
5.16232694468,0.8455882352941176
5.16245956991,0.8529411764705882
5.16321158086,0.8602941176470589
5.16322142801,0.8676470588235294
5.16323173657,0.875
5.16323173657,0.8823529411764706
6.45290381688,0.8897058823529411
7.72358343756,0.8970588235294118
7.74316731722,0.9044117647058824
9.46294631339,0.9117647058823529
10.3032071486,0.9191176470588235
10.3264425573,0.9264705882352942
15.4896950105,0.9338235294117647
21.0793881839,0.9411764705882353
37.4331746573,0.9485294117647058
38.2791090794,0.9558823529411765
49.4793489865,0.9632352941176471
61.4335873675,0.9705882352941176
62.3840018038,0.9779411764705882
65.5138173876,0.9852941176470589
67.5176097429,0.9926470588235294
71.6807133978,1.0
