Congestion,CDF
0.0,0.007352941176470588
0.0,0.014705882352941176
0.0,0.022058823529411766
0.0,0.029411764705882353
0.0,0.03676470588235294
0.0,0.04411764705882353
0.0,0.051470588235294115
0.0,0.058823529411764705
0.0,0.0661764705882353
0.0,0.07352941176470588
0.0,0.08088235294117647
0.0,0.08823529411764706
0.0,0.09558823529411764
0.0,0.10294117647058823
5.24599692238e-07,0.11029411764705882
5.24599692238e-07,0.11764705882352941
5.24599692238e-07,0.125
5.24599692238e-07,0.1323529411764706
5.24599692238e-07,0.13970588235294118
5.24599692238e-07,0.14705882352941177
5.24599692238e-07,0.15441176470588236
5.24599692238e-07,0.16176470588235295
5.24599692238e-07,0.16911764705882354
5.24599692238e-07,0.17647058823529413
5.24599692238e-07,0.18382352941176472
5.24599692238e-07,0.19117647058823528
5.24599692238e-07,0.19852941176470587
5.24599692238e-07,0.20588235294117646
5.24599692238e-07,0.21323529411764705
5.24599692238e-07,0.22058823529411764
5.24599692238e-07,0.22794117647058823
5.24599692238e-07,0.23529411764705882
5.24599692238e-07,0.2426470588235294
5.24599692238e-07,0.25
5.24599692238e-07,0.25735294117647056
5.24599692238e-07,0.2647058823529412
5.24599692238e-07,0.27205882352941174
5.24599692238e-07,0.27941176470588236
5.24599692238e-07,0.2867647058823529
5.24599692238e-07,0.29411764705882354
5.24599692238e-07,0.3014705882352941
1.31149923059e-05,0.3088235294117647
1.31149923059e-05,0.3161764705882353
1.41641916904e-05,0.3235294117647059
2.62299846119e-05,0.33088235294117646
2.62299846119e-05,0.3382352941176471
2.62299846119e-05,0.34558823529411764
2.62299846119e-05,0.35294117647058826
3.93449769178e-05,0.3602941176470588
4.37166410198e-05,0.36764705882352944
4.37166410198e-05,0.375
4.37166410198e-05,0.38235294117647056
5.24599692238e-05,0.3897058823529412
5.24599692238e-05,0.39705882352941174
5.24599692238e-05,0.40441176470588236
5.24599692238e-05,0.4117647058823529
5.24599692238e-05,0.41911764705882354
5.24599692238e-05,0.4264705882352941
5.24599692238e-05,0.4338235294117647
6.55749615297e-05,0.4411764705882353
7.86899538357e-05,0.4485294117647059
7.86899538357e-05,0.45588235294117646
9.61766102436e-05,0.4632352941176471
0.000104919938448,0.47058823529411764
0.000104919938448,0.47794117647058826
0.000157379907671,0.4852941176470588
0.000214211540997,0.49264705882352944
0.000380334776872,0.5
0.000389078105076,0.5073529411764706
0.000502741371728,0.5147058823529411
0.000625147966583,0.5220588235294118
0.000633891294787,0.5294117647058824
0.000677607935807,0.5367647058823529
0.000686351264011,0.5441176470588235
0.000738811233235,0.5514705882352942
0.0536098679231,0.5588235294117647
0.0542546339595,0.5661764705882353
0.0615579807959,0.5735294117647058
0.0616096983131,0.5808823529411765
0.0617076184027,0.5882352941176471
0.0617447045616,0.5955882352941176
0.0617645445555,0.6029411764705882
0.0617768692685,0.6102941176470589
0.061835335474,0.6176470588235294
0.0618469149692,0.625
0.0618516682115,0.6323529411764706
0.0618555527775,0.6397058823529411
0.0618579298849,0.6470588235294118
0.0618584916046,0.6544117647058824
0.0618589699583,0.6617647058823529
0.0618595473862,0.6691176470588235
0.0618597598455,0.6764705882352942
0.0618608671051,0.6838235294117647
0.0618611905201,0.6911764705882353
0.0618666494094,0.6985294117647058
0.0618683763009,0.7058823529411765
0.061868385749,0.7132352941176471
0.061868481212,0.7205882352941176
0.0618684841818,0.7279411764705882
0.0618685852862,0.7352941176470589
0.0618685872661,0.7426470588235294
0.0618685872661,0.75
1.54646229012,0.7573529411764706
1.54652167763,0.7647058823529411
1.65337828219,0.7720588235294118
3.08884346342,0.7794117647058824
3.08884346342,0.7867647058823529
3.09305952601,0.7941176470588235
3.09305952601,0.8014705882352942
4.63938687035,0.8088235294117647
5.15491496391,0.8161764705882353
5.15491496391,0.8235294117647058
5.15491496391,0.8308823529411765
6.17645445555,0.8382352941176471
6.18595473862,0.8455882352941176
6.18608671051,0.8529411764705882
6.1868385749,0.8602941176470589
6.18684841818,0.8676470588235294
6.18685872661,0.875
6.18685872661,0.8823529411764706
7.73243827466,0.8897058823529411
9.25960530369,0.8970588235294118
9.27861480376,0.9044117647058824
11.3396064608,0.9117647058823529
12.3509249117,0.9191176470588235
12.3736965394,0.9264705882352942
18.5605759818,0.9338235294117647
25.259204973,0.9411764705882353
44.8544704038,0.9485294117647058
45.8711884447,0.9558823529411765
59.2891098347,0.9632352941176471
73.6375167397,0.9705882352941176
74.7528914596,0.9779411764705882
78.998503532,0.9852941176470589
80.9138612909,0.9926470588235294
86.3393246868,1.0
