Congestion,CDF
0.0,0.007352941176470588
0.0,0.014705882352941176
0.0,0.022058823529411766
0.0,0.029411764705882353
0.0,0.03676470588235294
0.0,0.04411764705882353
0.0,0.051470588235294115
0.0,0.058823529411764705
0.0,0.0661764705882353
0.0,0.07352941176470588
0.0,0.08088235294117647
0.0,0.08823529411764706
0.0,0.09558823529411764
0.0,0.10294117647058823
5.5613337002e-07,0.11029411764705882
5.5613337002e-07,0.11764705882352941
5.5613337002e-07,0.125
5.5613337002e-07,0.1323529411764706
5.5613337002e-07,0.13970588235294118
5.5613337002e-07,0.14705882352941177
5.5613337002e-07,0.15441176470588236
5.5613337002e-07,0.16176470588235295
5.5613337002e-07,0.16911764705882354
5.5613337002e-07,0.17647058823529413
5.5613337002e-07,0.18382352941176472
5.5613337002e-07,0.19117647058823528
5.5613337002e-07,0.19852941176470587
5.5613337002e-07,0.20588235294117646
5.5613337002e-07,0.21323529411764705
5.5613337002e-07,0.22058823529411764
5.5613337002e-07,0.22794117647058823
5.5613337002e-07,0.23529411764705882
5.5613337002e-07,0.2426470588235294
5.5613337002e-07,0.25
5.5613337002e-07,0.25735294117647056
5.5613337002e-07,0.2647058823529412
5.5613337002e-07,0.27205882352941174
5.5613337002e-07,0.27941176470588236
5.5613337002e-07,0.2867647058823529
5.5613337002e-07,0.29411764705882354
5.5613337002e-07,0.3014705882352941
1.39033342505e-05,0.3088235294117647
1.39033342505e-05,0.3161764705882353
1.50156009905e-05,0.3235294117647059
2.7806668501e-05,0.33088235294117646
2.7806668501e-05,0.3382352941176471
2.7806668501e-05,0.34558823529411764
2.7806668501e-05,0.35294117647058826
4.17100027515e-05,0.3602941176470588
4.63444475017e-05,0.36764705882352944
4.63444475017e-05,0.375
4.63444475017e-05,0.38235294117647056
5.5613337002e-05,0.3897058823529412
5.5613337002e-05,0.39705882352941174
5.5613337002e-05,0.40441176470588236
5.5613337002e-05,0.4117647058823529
5.5613337002e-05,0.41911764705882354
5.5613337002e-05,0.4264705882352941
5.5613337002e-05,0.4338235294117647
6.95166712525e-05,0.4411764705882353
8.3420005503e-05,0.4485294117647059
8.3420005503e-05,0.45588235294117646
0.000101957784504,0.4632352941176471
0.000111226674004,0.47058823529411764
0.000111226674004,0.47794117647058826
0.000166840011006,0.4852941176470588
0.000227087792758,0.49264705882352944
0.000403196693265,0.5
0.000412465582765,0.5073529411764706
0.000532961146269,0.5147058823529411
0.000662725599274,0.5220588235294118
0.000671994488774,0.5294117647058824
0.000718338936276,0.5367647058823529
0.000727607825776,0.5441176470588235
0.000783221162778,0.5514705882352942
0.0493697229647,0.5588235294117647
0.0500754256451,0.5661764705882353
0.0581327123771,0.5735294117647058
0.0581866262746,0.5808823529411765
0.0582940807704,0.5882352941176471
0.0583315286111,0.5955882352941176
0.0583522760999,0.6029411764705882
0.0583644931647,0.6102941176470589
0.0584229526749,0.6176470588235294
0.0584347987924,0.625
0.0584394285902,0.6323529411764706
0.058443446443,0.6397058823529411
0.0584458372578,0.6470588235294118
0.0584464009484,0.6544117647058824
0.0584468682232,0.6617647058823529
0.0584474554892,0.6691176470588235
0.0584476683346,0.6764705882352942
0.0584487768021,0.6838235294117647
0.0584490974479,0.6911764705882353
0.0584545568813,0.6985294117647058
0.0584562862769,0.7058823529411765
0.0584562957736,0.7132352941176471
0.0584563912413,0.7205882352941176
0.058456394215,0.7279411764705882
0.058456495317,0.7352941176470589
0.0584564972996,0.7426470588235294
0.0584564972996,0.75
1.46116002371,0.7573529411764706
1.46121942005,0.7647058823529411
1.55962901122,0.7720588235294118
2.91822465824,0.7794117647058824
2.91822465824,0.7867647058823529
2.92245487239,0.7941176470588235
2.92245487239,0.8014705882352942
4.38348007113,0.8088235294117647
4.87057401902,0.8161764705882353
4.87057401902,0.8235294117647058
4.87057401902,0.8308823529411765
5.83522760999,0.8382352941176471
5.84474554892,0.8455882352941176
5.84487768021,0.8529411764705882
5.84562957736,0.8602941176470589
5.8456394215,0.8676470588235294
5.84564972996,0.875
5.84564972996,0.8823529411764706
7.30592685717,0.8897058823529411
8.74763273528,0.8970588235294118
8.76679951669,0.9044117647058824
10.7140538983,0.9117647058823529
11.6683804711,0.9191176470588235
11.6912785456,0.9264705882352942
17.5369489916,0.9338235294117647
23.8659332474,0.9411764705882353
42.3807051624,0.9485294117647058
43.3405070714,0.9558823529411765
56.0191897419,0.9632352941176471
69.5697915155,0.9705882352941176
70.6299321176,0.9779411764705882
74.506763812,0.9852941176470589
76.4485947451,0.9926470588235294
81.4561373096,1.0
