Congestion,CDF
0.0,0.007352941176470588
0.0,0.014705882352941176
0.0,0.022058823529411766
0.0,0.029411764705882353
0.0,0.03676470588235294
0.0,0.04411764705882353
0.0,0.051470588235294115
0.0,0.058823529411764705
0.0,0.0661764705882353
0.0,0.07352941176470588
0.0,0.08088235294117647
0.0,0.08823529411764706
0.0,0.09558823529411764
0.0,0.10294117647058823
5.61905479062e-07,0.11029411764705882
5.61905479062e-07,0.11764705882352941
5.61905479062e-07,0.125
5.61905479062e-07,0.1323529411764706
5.61905479062e-07,0.13970588235294118
5.61905479062e-07,0.14705882352941177
5.61905479062e-07,0.15441176470588236
5.61905479062e-07,0.16176470588235295
5.61905479062e-07,0.16911764705882354
5.61905479062e-07,0.17647058823529413
5.61905479062e-07,0.18382352941176472
5.61905479062e-07,0.19117647058823528
5.61905479062e-07,0.19852941176470587
5.61905479062e-07,0.20588235294117646
5.61905479062e-07,0.21323529411764705
5.61905479062e-07,0.22058823529411764
5.61905479062e-07,0.22794117647058823
5.61905479062e-07,0.23529411764705882
5.61905479062e-07,0.2426470588235294
5.61905479062e-07,0.25
5.61905479062e-07,0.25735294117647056
5.61905479062e-07,0.2647058823529412
5.61905479062e-07,0.27205882352941174
5.61905479062e-07,0.27941176470588236
5.61905479062e-07,0.2867647058823529
5.61905479062e-07,0.29411764705882354
5.61905479062e-07,0.3014705882352941
1.40476369766e-05,0.3088235294117647
1.40476369766e-05,0.3161764705882353
1.51714479347e-05,0.3235294117647059
2.80952739531e-05,0.33088235294117646
2.80952739531e-05,0.3382352941176471
2.80952739531e-05,0.34558823529411764
2.80952739531e-05,0.35294117647058826
4.21429109297e-05,0.3602941176470588
4.68254565885e-05,0.36764705882352944
4.68254565885e-05,0.375
4.68254565885e-05,0.38235294117647056
5.61905479062e-05,0.3897058823529412
5.61905479062e-05,0.39705882352941174
5.61905479062e-05,0.40441176470588236
5.61905479062e-05,0.4117647058823529
5.61905479062e-05,0.41911764705882354
5.61905479062e-05,0.4264705882352941
5.61905479062e-05,0.4338235294117647
7.02381848828e-05,0.4411764705882353
8.42858218593e-05,0.4485294117647059
8.42858218593e-05,0.45588235294117646
0.000103016004495,0.4632352941176471
0.000112381095812,0.47058823529411764
0.000112381095812,0.47794117647058826
0.000168571643719,0.4852941176470588
0.000229444737284,0.49264705882352944
0.00040738147232,0.5
0.000416746563638,0.5073529411764706
0.000538492750768,0.5147058823529411
0.000669604029216,0.5220588235294118
0.000678969120533,0.5294117647058824
0.000725794577122,0.5367647058823529
0.000735159668439,0.5441176470588235
0.000791350216346,0.5514705882352942
0.0521600975714,0.5588235294117647
0.0525893667365,0.5661764705882353
0.0573289789316,0.5735294117647058
0.057373945749,0.5808823529411765
0.0574422367487,0.5882352941176471
0.0574782698258,0.5955882352941176
0.0574954413593,0.6029411764705882
0.0575080636398,0.6102941176470589
0.0575665914571,0.6176470588235294
0.0575773908287,0.625
0.0575825075722,0.6323529411764706
0.0575860014526,0.6397058823529411
0.0575883402966,0.6470588235294118
0.0575888967437,0.6544117647058824
0.057589405892,0.6617647058823529
0.0575899558733,0.6691176470588235
0.0575901673145,0.6764705882352942
0.0575912713527,0.6838235294117647
0.0575916021095,0.6911764705882353
0.0575970598934,0.6985294117647058
0.0575987798506,0.7058823529411765
0.0575987891699,0.7132352941176471
0.0575988846208,0.7205882352941176
0.0575988875805,0.7279411764705882
0.057598988691,0.7352941176470589
0.0575989906642,0.7426470588235294
0.0575989906642,0.75
1.43972241859,0.7573529411764706
1.43978178382,0.7647058823529411
1.54360790259,0.7720588235294118
2.87540318199,0.7794117647058824
2.87540318199,0.7867647058823529
2.87958010547,0.7941176470588235
2.87958010547,0.8014705882352942
4.31916725578,0.8088235294117647
4.79911554563,0.8161764705882353
4.79911554563,0.8235294117647058
4.79911554563,0.8308823529411765
5.74954413593,0.8382352941176471
5.75899558733,0.8455882352941176
5.75912713527,0.8529411764705882
5.75987891699,0.8602941176470589
5.75988875805,0.8676470588235294
5.75989906642,0.875
5.75989906642,0.8823529411764706
7.19873915004,0.8897058823529411
8.61962685686,0.8970588235294118
8.63818025073,0.9044117647058824
10.5568546285,0.9117647058823529
11.4973711185,0.9191176470588235
11.5197772201,0.9264705882352942
17.2796970019,0.9338235294117647
23.5157908722,0.9411764705882353
41.7590129079,0.9485294117647058
42.7047078284,0.9558823529411765
55.1974145484,0.9632352941176471
68.5546036969,0.9705882352941176
69.5938455563,0.9779411764705882
73.7706134541,0.9852941176470589
75.3312401312,0.9926470588235294
80.5901768049,1.0
