Congestion,CDF
0.0,0.007352941176470588
0.0,0.014705882352941176
0.0,0.022058823529411766
0.0,0.029411764705882353
0.0,0.03676470588235294
0.0,0.04411764705882353
0.0,0.051470588235294115
0.0,0.058823529411764705
0.0,0.0661764705882353
0.0,0.07352941176470588
0.0,0.08088235294117647
0.0,0.08823529411764706
0.0,0.09558823529411764
0.0,0.10294117647058823
5.01952449399e-06,0.11029411764705882
5.01952449399e-06,0.11764705882352941
5.01952449399e-06,0.125
5.01952449399e-06,0.1323529411764706
5.01952449399e-06,0.13970588235294118
5.01952449399e-06,0.14705882352941177
5.01952449399e-06,0.15441176470588236
5.01952449399e-06,0.16176470588235295
5.01952449399e-06,0.16911764705882354
5.01952449399e-06,0.17647058823529413
5.01952449399e-06,0.18382352941176472
5.01952449399e-06,0.19117647058823528
5.01952449399e-06,0.19852941176470587
5.01952449399e-06,0.20588235294117646
5.01952449399e-06,0.21323529411764705
5.01952449399e-06,0.22058823529411764
5.01952449399e-06,0.22794117647058823
5.01952449399e-06,0.23529411764705882
5.01952449399e-06,0.2426470588235294
5.01952449399e-06,0.25
5.01952449399e-06,0.25735294117647056
5.01952449399e-06,0.2647058823529412
5.01952449399e-06,0.27205882352941174
5.01952449399e-06,0.27941176470588236
5.01952449399e-06,0.2867647058823529
5.01952449399e-06,0.29411764705882354
5.01952449399e-06,0.3014705882352941
0.00012548811235,0.3088235294117647
0.00012548811235,0.3161764705882353
0.000135527161338,0.3235294117647059
0.0002509762247,0.33088235294117646
0.0002509762247,0.3382352941176471
0.0002509762247,0.34558823529411764
0.0002509762247,0.35294117647058826
0.000376464337049,0.3602941176470588
0.000418293707833,0.36764705882352944
0.000418293707833,0.375
0.000418293707833,0.38235294117647056
0.000501952449399,0.3897058823529412
0.000501952449399,0.39705882352941174
0.000501952449399,0.40441176470588236
0.000501952449399,0.4117647058823529
0.000501952449399,0.41911764705882354
0.000501952449399,0.4264705882352941
0.000501952449399,0.4338235294117647
0.000627440561749,0.4411764705882353
0.000752928674099,0.4485294117647059
0.000752928674099,0.45588235294117646
0.000920246157232,0.4632352941176471
0.0010039048988,0.47058823529411764
0.0010039048988,0.47794117647058826
0.0015058573482,0.4852941176470588
0.00204963916838,0.49264705882352944
0.00363915525815,0.5
0.00372281399971,0.5073529411764706
0.00481037764008,0.5147058823529411
0.00598160002201,0.5220588235294118
0.00606525876358,0.5294117647058824
0.00639991075904,0.5367647058823529
0.00639991075904,0.5441176470588235
0.00639991075904,0.5514705882352942
0.00639991075904,0.5588235294117647
0.00639991075904,0.5661764705882353
0.00639991075904,0.5735294117647058
0.00639991075904,0.5808823529411765
0.00639991075904,0.5882352941176471
0.00639991075904,0.5955882352941176
0.00639991075904,0.6029411764705882
0.00639991075904,0.6102941176470589
0.00639991075904,0.6176470588235294
0.00639991075904,0.625
0.00639991075904,0.6323529411764706
0.00639991075904,0.6397058823529411
0.00639991075904,0.6470588235294118
0.00639991075904,0.6544117647058824
0.00639991075904,0.6617647058823529
0.00639991075904,0.6691176470588235
0.00639991075904,0.6764705882352942
0.00639991075904,0.6838235294117647
0.00639991075904,0.6911764705882353
0.00639991075904,0.6985294117647058
0.00639991075904,0.7058823529411765
0.00639991075904,0.7132352941176471
0.00639991075904,0.7205882352941176
0.00639991075904,0.7279411764705882
0.00648355247141,0.7352941176470589
0.00656721121297,0.7426470588235294
0.00706916366237,0.75
0.159997768976,0.7573529411764706
0.159997768976,0.7647058823529411
0.172797590494,0.7720588235294118
0.319995537952,0.7794117647058824
0.319995537952,0.7867647058823529
0.319995537952,0.7941176470588235
0.319995537952,0.8014705882352942
0.479993306928,0.8088235294117647
0.533325896587,0.8161764705882353
0.533325896587,0.8235294117647058
0.533325896587,0.8308823529411765
0.639991075904,0.8382352941176471
0.639991075904,0.8455882352941176
0.639991075904,0.8529411764705882
0.639991075904,0.8602941176470589
0.639991075904,0.8676470588235294
0.639991075904,0.875
0.639991075904,0.8823529411764706
0.79998884488,0.8897058823529411
0.959986613856,0.8970588235294118
0.959986613856,0.9044117647058824
1.17331697249,0.9117647058823529
1.27998215181,0.9191176470588235
1.27998215181,0.9264705882352942
1.91997322771,0.9338235294117647
2.61329689328,0.9411764705882353
4.63993530031,0.9485294117647058
4.74660047962,0.9558823529411765
6.13324781075,0.9632352941176471
7.62656032119,0.9705882352941176
7.73322550051,0.9779411764705882
8.2665513971,0.9852941176470589
8.37321657641,0.9926470588235294
9.01320765232,1.0
