Congestion,CDF
0.0,0.007352941176470588
0.0,0.014705882352941176
0.0,0.022058823529411766
0.0,0.029411764705882353
0.0,0.03676470588235294
0.0,0.04411764705882353
0.0,0.051470588235294115
0.0,0.058823529411764705
0.0,0.0661764705882353
0.0,0.07352941176470588
0.0,0.08088235294117647
0.0,0.08823529411764706
0.0,0.09558823529411764
0.0,0.10294117647058823
1.21450382902e-06,0.11029411764705882
1.21450382902e-06,0.11764705882352941
1.21450382902e-06,0.125
1.21450382902e-06,0.1323529411764706
1.21450382902e-06,0.13970588235294118
1.21450382902e-06,0.14705882352941177
1.21450382902e-06,0.15441176470588236
1.21450382902e-06,0.16176470588235295
1.21450382902e-06,0.16911764705882354
1.21450382902e-06,0.17647058823529413
1.21450382902e-06,0.18382352941176472
1.21450382902e-06,0.19117647058823528
1.21450382902e-06,0.19852941176470587
1.21450382902e-06,0.20588235294117646
1.21450382902e-06,0.21323529411764705
1.21450382902e-06,0.22058823529411764
1.21450382902e-06,0.22794117647058823
1.21450382902e-06,0.23529411764705882
1.21450382902e-06,0.2426470588235294
1.21450382902e-06,0.25
1.21450382902e-06,0.25735294117647056
1.21450382902e-06,0.2647058823529412
1.21450382902e-06,0.27205882352941174
1.21450382902e-06,0.27941176470588236
1.21450382902e-06,0.2867647058823529
1.21450382902e-06,0.29411764705882354
1.21450382902e-06,0.3014705882352941
3.03625957254e-05,0.3088235294117647
3.03625957254e-05,0.3161764705882353
3.27916033835e-05,0.3235294117647059
6.07251914508e-05,0.33088235294117646
6.07251914508e-05,0.3382352941176471
6.07251914508e-05,0.34558823529411764
6.07251914508e-05,0.35294117647058826
9.10877871763e-05,0.3602941176470588
0.000101208652418,0.36764705882352944
0.000101208652418,0.375
0.000101208652418,0.38235294117647056
0.000121450382902,0.3897058823529412
0.000121450382902,0.39705882352941174
0.000121450382902,0.40441176470588236
0.000121450382902,0.4117647058823529
0.000121450382902,0.41911764705882354
0.000121450382902,0.4264705882352941
0.000121450382902,0.4338235294117647
0.000151812978627,0.4411764705882353
0.000182175574353,0.4485294117647059
0.000182175574353,0.45588235294117646
0.00022265903532,0.4632352941176471
0.000242900765803,0.47058823529411764
0.000242900765803,0.47794117647058826
0.000364351148705,0.4852941176470588
0.000495922396849,0.49264705882352944
0.000880515276037,0.5
0.000900757006521,0.5073529411764706
0.00116389950281,0.5147058823529411
0.00144728372958,0.5220588235294118
0.00146752546006,0.5294117647058824
0.00156873411248,0.5367647058823529
0.00158897584296,0.5441176470588235
0.00171042622587,0.5514705882352942
0.0105687925063,0.5588235294117647
0.0117086647627,0.5661764705882353
0.0271743006024,0.5735294117647058
0.0272704008772,0.5808823529411765
0.0275422659734,0.5882352941176471
0.0275904547046,0.5955882352941176
0.0276348567266,0.6029411764705882
0.0276418788662,0.6102941176470589
0.0277054425727,0.6176470588235294
0.0277247265636,0.625
0.0277261917098,0.6323529411764706
0.0277338521996,0.6397058823529411
0.0277368124583,0.6470588235294118
0.0277374915947,0.6544117647058824
0.0277374999261,0.6617647058823529
0.0277384896544,0.6691176470588235
0.0277387337272,0.6764705882352942
0.0277399201626,0.6838235294117647
0.0277400379424,0.6911764705882353
0.0277456243829,0.6985294117647058
0.027747471921,0.7058823529411765
0.0277474847567,0.7132352941176471
0.027747580886,0.7205882352941176
0.0277475843286,0.7279411764705882
0.0277476851823,0.7352941176470589
0.0277476874774,0.7426470588235294
0.0277476874774,0.75
0.693437498153,0.7573529411764706
0.693498004065,0.7647058823529411
0.714169619943,0.7720588235294118
1.38209394331,0.7794117647058824
1.38209394331,0.7867647058823529
1.38700189712,0.7941176470588235
1.38700189712,0.8014705882352942
2.08031249446,0.8088235294117647
2.3114959175,0.8161764705882353
2.3114959175,0.8235294117647058
2.3114959175,0.8308823529411765
2.76348567266,0.8382352941176471
2.77384896544,0.8455882352941176
2.77399201626,0.8529411764705882
2.77474847567,0.8602941176470589
2.77475843286,0.8676470588235294
2.77476874774,0.875
2.77476874774,0.8823529411764706
3.46731087087,0.8897058823529411
4.13632054065,0.8970588235294118
4.16038711708,0.9044117647058824
5.08396857386,0.9117647058823529
5.52253114311,0.9191176470588235
5.54951652146,0.9264705882352942
8.32430601372,0.9338235294117647
11.3264049133,0.9411764705882353
20.116816207,0.9485294117647058
20.5630116877,0.9558823529411765
26.5898764599,0.9632352941176471
32.9392934317,0.9705882352941176
33.522882748,0.9779411764705882
33.9961726823,0.9852941176470589
36.2499228357,0.9926470588235294
37.420789312,1.0
