Congestion,CDF
0.0,0.007352941176470588
0.0,0.014705882352941176
0.0,0.022058823529411766
0.0,0.029411764705882353
0.0,0.03676470588235294
0.0,0.04411764705882353
0.0,0.051470588235294115
0.0,0.058823529411764705
0.0,0.0661764705882353
0.0,0.07352941176470588
0.0,0.08088235294117647
0.0,0.08823529411764706
0.0,0.09558823529411764
0.0,0.10294117647058823
7.95780785018e-07,0.11029411764705882
7.95780785018e-07,0.11764705882352941
7.95780785018e-07,0.125
7.95780785018e-07,0.1323529411764706
7.95780785018e-07,0.13970588235294118
7.95780785018e-07,0.14705882352941177
7.95780785018e-07,0.15441176470588236
7.95780785018e-07,0.16176470588235295
7.95780785018e-07,0.16911764705882354
7.95780785018e-07,0.17647058823529413
7.95780785018e-07,0.18382352941176472
7.95780785018e-07,0.19117647058823528
7.95780785018e-07,0.19852941176470587
7.95780785018e-07,0.20588235294117646
7.95780785018e-07,0.21323529411764705
7.95780785018e-07,0.22058823529411764
7.95780785018e-07,0.22794117647058823
7.95780785018e-07,0.23529411764705882
7.95780785018e-07,0.2426470588235294
7.95780785018e-07,0.25
7.95780785018e-07,0.25735294117647056
7.95780785018e-07,0.2647058823529412
7.95780785018e-07,0.27205882352941174
7.95780785018e-07,0.27941176470588236
7.95780785018e-07,0.2867647058823529
7.95780785018e-07,0.29411764705882354
7.95780785018e-07,0.3014705882352941
1.98945196255e-05,0.3088235294117647
1.98945196255e-05,0.3161764705882353
2.14860811955e-05,0.3235294117647059
3.97890392509e-05,0.33088235294117646
3.97890392509e-05,0.3382352941176471
3.97890392509e-05,0.34558823529411764
3.97890392509e-05,0.35294117647058826
5.96835588764e-05,0.3602941176470588
6.63150654182e-05,0.36764705882352944
6.63150654182e-05,0.375
6.63150654182e-05,0.38235294117647056
7.95780785018e-05,0.3897058823529412
7.95780785018e-05,0.39705882352941174
7.95780785018e-05,0.40441176470588236
7.95780785018e-05,0.4117647058823529
7.95780785018e-05,0.41911764705882354
7.95780785018e-05,0.4264705882352941
7.95780785018e-05,0.4338235294117647
9.94725981273e-05,0.4411764705882353
0.000119367117753,0.4485294117647059
0.000119367117753,0.45588235294117646
0.00014589314392,0.4632352941176471
0.000159156157004,0.47058823529411764
0.000159156157004,0.47794117647058826
0.000238734235506,0.4852941176470588
0.000324943820549,0.49264705882352944
0.000576941069138,0.5
0.000590204082222,0.5073529411764706
0.000762623252309,0.5147058823529411
0.00094830543548,0.5220588235294118
0.000961568448564,0.5294117647058824
0.00102788351398,0.5367647058823529
0.00104114652707,0.5441176470588235
0.00112072460557,0.5514705882352942
0.0277437230146,0.5588235294117647
0.0287497297356,0.5661764705882353
0.0409731888781,0.5735294117647058
0.0410437142082,0.5808823529411765
0.0412201456659,0.5882352941176471
0.0412609621656,0.5955882352941176
0.0412897506425,0.6029411764705882
0.0413007157285,0.6102941176470589
0.0413597748999,0.6176470588235294
0.0413740443102,0.625
0.041377586944,0.6323529411764706
0.0413828067037,0.6397058823529411
0.0413853485031,0.6470588235294118
0.0413859383035,0.6544117647058824
0.0413862815959,0.6617647058823529
0.04138697741,0.6691176470588235
0.0413871959052,0.6764705882352942
0.0413883207151,0.6838235294117647
0.0413886022641,0.6911764705882353
0.0413940773255,0.6985294117647058
0.0413958356006,0.7058823529411765
0.0413958457675,0.7132352941176471
0.0413959413233,0.7205882352941176
0.0413959443667,0.7279411764705882
0.0413960454285,0.7352941176470589
0.0413960474574,0.7426470588235294
0.0413960474574,0.75
1.03464845759,0.7573529411764706
1.03470801788,0.7647058823529411
1.08995059232,0.7720588235294118
2.06503578642,0.7794117647058824
2.06503578642,0.7867647058823529
2.0694301132,0.7941176470588235
2.0694301132,0.8014705882352942
3.10394537276,0.8088235294117647
3.44886809224,0.8161764705882353
3.44886809224,0.8235294117647058
3.44886809224,0.8308823529411765
4.12897506425,0.8382352941176471
4.138697741,0.8455882352941176
4.13883207151,0.8529411764705882
4.13958457675,0.8602941176470589
4.13959443667,0.8676470588235294
4.13960474574,0.875
4.13960474574,0.8823529411764706
5.17336804811,0.8897058823529411
6.18705035302,0.8970588235294118
6.20771078358,0.9044117647058824
7.58627252325,0.9117647058823529
8.25507128081,0.9191176470588235
8.279188569,0.9264705882352942
12.4188140343,0.9338235294117647
16.8995620409,0.9411764705882353
30.011878758,0.9485294117647058
30.6868478406,0.9558823529411765
39.669584696,0.9632352941176471
49.2262883623,0.9705882352941176
50.015054174,0.9779411764705882
52.0006606637,0.9852941176470589
54.1194255948,0.9926470588235294
56.9943985684,1.0
