Congestion,CDF
0.0,0.009433962264150943
0.0,0.018867924528301886
0.0,0.02830188679245283
0.0,0.03773584905660377
0.0,0.04716981132075472
0.0,0.05660377358490566
0.0,0.0660377358490566
0.0,0.07547169811320754
0.0,0.08490566037735849
0.0,0.09433962264150944
0.0,0.10377358490566038
0.0,0.11320754716981132
0.0,0.12264150943396226
0.0,0.1320754716981132
0.0,0.14150943396226415
0.0,0.1509433962264151
0.0,0.16037735849056603
0.0,0.16981132075471697
0.0,0.1792452830188679
0.0,0.18867924528301888
0.0,0.19811320754716982
0.0,0.20754716981132076
0.0,0.2169811320754717
0.0,0.22641509433962265
0.0,0.2358490566037736
0.0,0.24528301886792453
0.0,0.25471698113207547
0.0,0.2641509433962264
0.0,0.27358490566037735
0.0,0.2830188679245283
2.24119674765e-07,0.29245283018867924
5.77386356116e-06,0.3018867924528302
6.49280994769e-06,0.3113207547169811
8.80206952902e-06,0.32075471698113206
9.9359483891e-06,0.330188679245283
1.32210123655e-05,0.33962264150943394
2.01622470616e-05,0.3490566037735849
2.58087413329e-05,0.3584905660377358
2.73137651869e-05,0.36792452830188677
3.1856886634e-05,0.37735849056603776
3.92234565724e-05,0.3867924528301887
4.01222127487e-05,0.39622641509433965
4.23328828909e-05,0.4056603773584906
0.000165262654569,0.41509433962264153
0.000165262654569,0.42452830188679247
0.000271270015895,0.4339622641509434
0.000322609266661,0.44339622641509435
0.000322609266661,0.4528301886792453
0.000330525309137,0.46226415094339623
0.000330525309137,0.4716981132075472
0.000330525309137,0.4811320754716981
0.000510283888706,0.49056603773584906
0.000645218533323,0.5
0.000645218533323,0.5094339622641509
0.000645218533323,0.5188679245283019
0.000812512418614,0.5283018867924528
0.000812512418614,0.5377358490566038
0.000880206952902,0.5471698113207547
0.00149598427431,0.5566037735849056
0.00149598427431,0.5660377358490566
0.00185356018057,0.5754716981132075
0.00185356018057,0.5849056603773585
0.00284715501948,0.5943396226415094
0.00288588304904,0.6037735849056604
0.0035991231934,0.6132075471698113
0.00360132772029,0.6226415094339622
0.00363511427871,0.6320754716981132
0.00364394717412,0.6415094339622641
0.00366431497197,0.6509433962264151
0.00396453601414,0.660377358490566
0.00433223431354,0.6698113207547169
0.0045000931961,0.6792452830188679
0.00468167293771,0.6886792452830188
0.00556745904133,0.6981132075471698
0.00560522677932,0.7075471698113207
0.00608684846966,0.7169811320754716
0.00673867854011,0.7264150943396226
0.00974523516066,0.7358490566037735
0.0139763677154,0.7452830188679245
0.0158278636468,0.7547169811320755
0.0163793006381,0.7641509433962265
0.0695932380166,0.7735849056603774
0.0695932380166,0.7830188679245284
0.0700653347416,0.7924528301886793
0.0700653347416,0.8018867924528302
0.0905354940272,0.8113207547169812
0.139186476033,0.8207547169811321
0.139186476033,0.8301886792452831
0.139186476033,0.839622641509434
0.140130669483,0.8490566037735849
0.140130669483,0.8584905660377359
0.140130669483,0.8679245283018868
0.321414286694,0.8773584905660378
0.321414286694,0.8867924528301887
0.337885373465,0.8962264150943396
0.337885373465,0.9056603773584906
0.35991231934,0.9150943396226415
0.476592499764,0.9245283018867925
0.476592499764,0.9339622641509434
0.681547058722,0.9433962264150944
0.68784578389,0.9528301886792453
0.702280090877,0.9622641509433962
1.24770130458,0.9716981132075472
1.72244493744,0.9811320754716981
1.77758863656,0.9905660377358491
5.37426284531,1.0
