Congestion,CDF
0.0,0.009433962264150943
0.0,0.018867924528301886
0.0,0.02830188679245283
0.0,0.03773584905660377
0.0,0.04716981132075472
0.0,0.05660377358490566
0.0,0.0660377358490566
0.0,0.07547169811320754
0.0,0.08490566037735849
0.0,0.09433962264150944
0.0,0.10377358490566038
0.0,0.11320754716981132
0.0,0.12264150943396226
0.0,0.1320754716981132
0.0,0.14150943396226415
0.0,0.1509433962264151
0.0,0.16037735849056603
0.0,0.16981132075471697
0.0,0.1792452830188679
0.0,0.18867924528301888
0.0,0.19811320754716982
0.0,0.20754716981132076
0.0,0.2169811320754717
0.0,0.22641509433962265
0.0,0.2358490566037736
0.0,0.24528301886792453
0.0,0.25471698113207547
0.0,0.2641509433962264
0.0,0.27358490566037735
0.0,0.2830188679245283
1.5708354678e-07,0.29245283018867924
4.0468511645e-06,0.3018867924528302
4.55075448516e-06,0.3113207547169811
6.16929460598e-06,0.32075471698113206
6.96402051814e-06,0.330188679245283
7.60590712598e-06,0.33962264150943394
9.26649352213e-06,0.3490566037735849
1.41315450454e-05,0.3584905660377358
1.80891241733e-05,0.36792452830188677
1.91439824101e-05,0.37735849056603776
2.23282170433e-05,0.3867924528301887
2.74913823689e-05,0.39622641509433965
2.81213128202e-05,0.4056603773584906
2.96707524536e-05,0.41509433962264153
4.869281215e-05,0.42452830188679247
0.000190130814157,0.4339622641509434
0.00026062013031,0.44339622641509435
0.00026062013031,0.4528301886792453
0.000678342156498,0.46226415094339623
0.000678342156498,0.4716981132075472
0.000678342156498,0.4811320754716981
0.00069498701416,0.49056603773584906
0.00069498701416,0.5
0.00069498701416,0.5094339622641509
0.00107296072761,0.5188679245283019
0.00128133662726,0.5283018867924528
0.00128133662726,0.5377358490566038
0.001356684313,0.5471698113207547
0.001356684313,0.5566037735849056
0.00185078838179,0.5660377358490566
0.0022817721378,0.5754716981132075
0.00235917556529,0.5849056603773585
0.00235917556529,0.5943396226415094
0.00292307476882,0.6037735849056604
0.00292307476882,0.6132075471698113
0.00369151220002,0.6226415094339622
0.0044899793854,0.6320754716981132
0.00606807160609,0.6415094339622641
0.00946222950964,0.6509433962264151
0.00959899407087,0.660377358490566
0.012234404905,0.6698113207547169
0.012574611697,0.6792452830188679
0.0204910537843,0.6886792452830188
0.0270495458531,0.6981132075471698
0.0298718999023,0.7075471698113207
0.0360321488679,0.7169811320754716
0.0364628423146,0.7264150943396226
0.0412988012445,0.7358490566037735
0.0417245392683,0.7452830188679245
0.0437532405865,0.7547169811320755
0.046888476123,0.7641509433962265
0.0475070984923,0.7735849056603774
0.375453907974,0.7830188679245284
1.17350266692,0.7924528301886793
1.17350266692,0.8018867924528302
1.54870504667,0.8113207547169812
1.54870504667,0.8207547169811321
1.54870504667,0.8301886792452831
2.85328803683,0.839622641509434
3.09741009334,0.8490566037735849
3.09741009334,0.8584905660377359
3.12934044512,0.8679245283018868
3.12934044512,0.8773584905660378
3.12934044512,0.8867924528301887
5.69562019094,0.8962264150943396
5.69562019094,0.9056603773584906
6.38864819956,0.9150943396226415
6.38864819956,0.9245283018867925
7.2572710179,0.9339622641509434
7.2572710179,0.9433962264150944
9.14138930319,0.9528301886792453
9.21793583139,0.9622641509433962
17.1799181061,0.9716981132075472
17.3655048169,0.9811320754716981
25.3853853677,0.9905660377358491
55.1606369746,1.0
