Congestion,CDF
0.0,0.009433962264150943
0.0,0.018867924528301886
0.0,0.02830188679245283
0.0,0.03773584905660377
0.0,0.04716981132075472
0.0,0.05660377358490566
0.0,0.0660377358490566
0.0,0.07547169811320754
0.0,0.08490566037735849
0.0,0.09433962264150944
0.0,0.10377358490566038
0.0,0.11320754716981132
0.0,0.12264150943396226
0.0,0.1320754716981132
0.0,0.14150943396226415
0.0,0.1509433962264151
0.0,0.16037735849056603
0.0,0.16981132075471697
0.0,0.1792452830188679
0.0,0.18867924528301888
0.0,0.19811320754716982
0.0,0.20754716981132076
0.0,0.2169811320754717
0.0,0.22641509433962265
0.0,0.2358490566037736
0.0,0.24528301886792453
0.0,0.25471698113207547
0.0,0.2641509433962264
0.0,0.27358490566037735
0.0,0.2830188679245283
1.56416248944e-07,0.29245283018867924
4.02965996223e-06,0.3018867924528302
4.53142267936e-06,0.3113207547169811
6.14308717034e-06,0.32075471698113206
6.93443705177e-06,0.330188679245283
9.22712904887e-06,0.33962264150943394
1.40715136186e-05,0.3490566037735849
1.80122807758e-05,0.3584905660377358
1.90626579284e-05,0.36792452830188677
2.22333657924e-05,0.37735849056603776
2.73745977639e-05,0.3867924528301887
2.80018522428e-05,0.39622641509433965
2.95447097882e-05,0.4056603773584906
0.000189323130072,0.41509433962264153
0.000259513004499,0.42452830188679247
0.000259513004499,0.4339622641509434
0.000675460529093,0.44339622641509435
0.000675460529093,0.4528301886792453
0.000675460529093,0.46226415094339623
0.000692034678665,0.4716981132075472
0.000692034678665,0.4811320754716981
0.000692034678665,0.49056603773584906
0.00106840274311,0.5
0.00127589345275,0.5094339622641509
0.00127589345275,0.5188679245283019
0.00135092105819,0.5283018867924528
0.00135092105819,0.5377358490566038
0.0018429261511,0.5471698113207547
0.00234915368342,0.5566037735849056
0.00234915368342,0.5660377358490566
0.00291065741826,0.5754716981132075
0.00291065741826,0.5849056603773585
0.00367583049335,0.5943396226415094
0.00447090575491,0.6037735849056604
0.00604229417022,0.6132075471698113
0.00942203354127,0.6226415094339622
0.00955821712062,0.6320754716981132
0.0198212310804,0.6415094339622641
0.0204040068839,0.6509433962264151
0.024204208707,0.660377358490566
0.0331424979246,0.6698113207547169
0.0333596015614,0.6792452830188679
0.0410162255677,0.6886792452830188
0.0422307068042,0.6981132075471698
0.0450137507271,0.7075471698113207
0.0475975802832,0.7169811320754716
0.0479826715613,0.7264150943396226
0.0482454248345,0.7358490566037735
0.0505668511267,0.7452830188679245
0.0529574848862,0.7547169811320755
0.0533008511696,0.7641509433962265
0.539439086234,0.7735849056603774
1.35690257347,0.7830188679245284
1.35690257347,0.7924528301886793
1.79935018355,0.8018867924528302
1.79935018355,0.8113207547169812
1.79935018355,0.8207547169811321
3.5987003671,0.8301886792452831
3.5987003671,0.839622641509434
3.61840686258,0.8490566037735849
3.61840686258,0.8584905660377359
3.61840686258,0.8679245283018868
5.89025879029,0.8773584905660378
7.2612626121,0.8867924528301887
7.32074058749,0.8962264150943396
7.32074058749,0.9056603773584906
7.77046216793,0.9150943396226415
7.77046216793,0.9245283018867925
8.39518596288,0.9339622641509434
8.39518596288,0.9433962264150944
15.227524201,0.9528301886792453
15.2763725192,0.9622641509433962
19.4957990807,0.9716981132075472
19.5988089657,0.9811320754716981
33.6237807751,0.9905660377358491
64.5674634152,1.0
