Congestion,CDF
0.0,0.007352941176470588
0.0,0.014705882352941176
0.0,0.022058823529411766
0.0,0.029411764705882353
0.0,0.03676470588235294
0.0,0.04411764705882353
0.0,0.051470588235294115
0.0,0.058823529411764705
0.0,0.0661764705882353
0.0,0.07352941176470588
0.0,0.08088235294117647
0.0,0.08823529411764706
0.0,0.09558823529411764
0.0,0.10294117647058823
3.52164839827e-06,0.11029411764705882
3.52164839827e-06,0.11764705882352941
3.52164839827e-06,0.125
3.52164839827e-06,0.1323529411764706
3.52164839827e-06,0.13970588235294118
3.52164839827e-06,0.14705882352941177
3.52164839827e-06,0.15441176470588236
3.52164839827e-06,0.16176470588235295
3.52164839827e-06,0.16911764705882354
3.52164839827e-06,0.17647058823529413
3.52164839827e-06,0.18382352941176472
3.52164839827e-06,0.19117647058823528
3.52164839827e-06,0.19852941176470587
3.52164839827e-06,0.20588235294117646
3.52164839827e-06,0.21323529411764705
3.52164839827e-06,0.22058823529411764
3.52164839827e-06,0.22794117647058823
3.52164839827e-06,0.23529411764705882
3.52164839827e-06,0.2426470588235294
3.52164839827e-06,0.25
3.52164839827e-06,0.25735294117647056
3.52164839827e-06,0.2647058823529412
3.52164839827e-06,0.27205882352941174
3.52164839827e-06,0.27941176470588236
3.52164839827e-06,0.2867647058823529
3.52164839827e-06,0.29411764705882354
3.52164839827e-06,0.3014705882352941
8.80412099569e-05,0.3088235294117647
8.80412099569e-05,0.3161764705882353
9.50845067534e-05,0.3235294117647059
0.000176082419914,0.33088235294117646
0.000176082419914,0.3382352941176471
0.000176082419914,0.34558823529411764
0.000176082419914,0.35294117647058826
0.000264123629871,0.3602941176470588
0.000293470699856,0.36764705882352944
0.000293470699856,0.375
0.000293470699856,0.38235294117647056
0.000352164839827,0.3897058823529412
0.000352164839827,0.39705882352941174
0.000352164839827,0.40441176470588236
0.000352164839827,0.4117647058823529
0.000352164839827,0.41911764705882354
0.000352164839827,0.4264705882352941
0.000352164839827,0.4338235294117647
0.000440206049784,0.4411764705882353
0.000528247259741,0.4485294117647059
0.000528247259741,0.45588235294117646
0.000645635539684,0.4632352941176471
0.000704329679655,0.47058823529411764
0.000704329679655,0.47794117647058826
0.00105649451948,0.4852941176470588
0.0014380064293,0.49264705882352944
0.00255319508875,0.5
0.00261188922872,0.5073529411764706
0.00337491304835,0.5147058823529411
0.00419663100794,0.5220588235294118
0.00425532514791,0.5294117647058824
0.00454879584777,0.5367647058823529
0.00460748998774,0.5441176470588235
0.00495965482757,0.5514705882352942
0.00689589471674,0.5588235294117647
0.00714677782267,0.5661764705882353
0.0088512770029,0.5735294117647058
0.00885637766993,0.5808823529411765
0.00888201705656,0.5882352941176471
0.00888201705656,0.5955882352941176
0.00899422927036,0.6029411764705882
0.00903733911686,0.6102941176470589
0.00922313345352,0.6176470588235294
0.00922769196053,0.625
0.00927361473256,0.6323529411764706
0.00927361473256,0.6397058823529411
0.00927361473256,0.6470588235294118
0.00931797933917,0.6544117647058824
0.00933278229443,0.6617647058823529
0.00938086873471,0.6691176470588235
0.00940216512703,0.6764705882352942
0.00940305857462,0.6838235294117647
0.0094510719634,0.6911764705882353
0.00949937700006,0.6985294117647058
0.00952667467469,0.7058823529411765
0.00952667467469,0.7132352941176471
0.00952682269836,0.7205882352941176
0.00952682269836,0.7279411764705882
0.00952744973224,0.7352941176470589
0.00952744973224,0.7426470588235294
0.00952744973224,0.75
0.232949483479,0.7573529411764706
0.234521718368,0.7647058823529411
0.246294246301,0.7720588235294118
0.451866955843,0.7794117647058824
0.451866955843,0.7867647058823529
0.47255359817,0.7941176470588235
0.47255359817,0.8014705882352942
0.698848450438,0.8088235294117647
0.778563944995,0.8161764705882353
0.778563944995,0.8235294117647058
0.778563944995,0.8308823529411765
0.888201705656,0.8382352941176471
0.927361473256,0.8455882352941176
0.938086873471,0.8529411764705882
0.952667467469,0.8602941176470589
0.952682269836,0.8676470588235294
0.952744973224,0.875
0.952744973224,0.8823529411764706
1.16031095673,0.8897058823529411
1.33750472284,0.8970588235294118
1.41285945563,0.9044117647058824
1.70133314105,0.9117647058823529
1.77640341131,0.9191176470588235
1.90536453967,0.9264705882352942
2.85823491967,0.9338235294117647
3.79359784824,0.9411764705882353
6.86911129048,0.9485294117647058
6.90345611265,0.9558823529411765
9.10451135582,0.9632352941176471
10.8681471249,0.9705882352941176
11.4575873242,0.9779411764705882
11.5577365966,0.9852941176470589
12.3570102512,0.9926470588235294
13.0716880335,1.0
