Congestion,CDF
0.0,0.007352941176470588
0.0,0.014705882352941176
0.0,0.022058823529411766
0.0,0.029411764705882353
0.0,0.03676470588235294
0.0,0.04411764705882353
0.0,0.051470588235294115
0.0,0.058823529411764705
0.0,0.0661764705882353
0.0,0.07352941176470588
0.0,0.08088235294117647
0.0,0.08823529411764706
0.0,0.09558823529411764
0.0,0.10294117647058823
2.13010139414e-06,0.11029411764705882
2.13010139414e-06,0.11764705882352941
2.13010139414e-06,0.125
2.13010139414e-06,0.1323529411764706
2.13010139414e-06,0.13970588235294118
2.13010139414e-06,0.14705882352941177
2.13010139414e-06,0.15441176470588236
2.13010139414e-06,0.16176470588235295
2.13010139414e-06,0.16911764705882354
2.13010139414e-06,0.17647058823529413
2.13010139414e-06,0.18382352941176472
2.13010139414e-06,0.19117647058823528
2.13010139414e-06,0.19852941176470587
2.13010139414e-06,0.20588235294117646
2.13010139414e-06,0.21323529411764705
2.13010139414e-06,0.22058823529411764
2.13010139414e-06,0.22794117647058823
2.13010139414e-06,0.23529411764705882
2.13010139414e-06,0.2426470588235294
2.13010139414e-06,0.25
2.13010139414e-06,0.25735294117647056
2.13010139414e-06,0.2647058823529412
2.13010139414e-06,0.27205882352941174
2.13010139414e-06,0.27941176470588236
2.13010139414e-06,0.2867647058823529
2.13010139414e-06,0.29411764705882354
2.13010139414e-06,0.3014705882352941
5.32525348534e-05,0.3088235294117647
5.32525348534e-05,0.3161764705882353
5.75127376417e-05,0.3235294117647059
0.000106505069707,0.33088235294117646
0.000106505069707,0.3382352941176471
0.000106505069707,0.34558823529411764
0.000106505069707,0.35294117647058826
0.00015975760456,0.3602941176470588
0.000177508449511,0.36764705882352944
0.000177508449511,0.375
0.000177508449511,0.38235294117647056
0.000213010139414,0.3897058823529412
0.000213010139414,0.39705882352941174
0.000213010139414,0.40441176470588236
0.000213010139414,0.4117647058823529
0.000213010139414,0.41911764705882354
0.000213010139414,0.4264705882352941
0.000213010139414,0.4338235294117647
0.000266262674267,0.4411764705882353
0.000319515209121,0.4485294117647059
0.000319515209121,0.45588235294117646
0.000390518588925,0.4632352941176471
0.000426020278827,0.47058823529411764
0.000426020278827,0.47794117647058826
0.000639030418241,0.4852941176470588
0.000869791402606,0.49264705882352944
0.00154432351075,0.5
0.00157982520065,0.5073529411764706
0.00204134716938,0.5147058823529411
0.00253837082801,0.5220588235294118
0.00257387251792,0.5294117647058824
0.00275138096743,0.5367647058823529
0.00278688265733,0.5441176470588235
0.00299989279674,0.5514705882352942
0.00818124971022,0.5588235294117647
0.00880153404193,0.5661764705882353
0.0148280923855,0.5735294117647058
0.0150310055328,0.5808823529411765
0.0150501836703,0.5882352941176471
0.0151062741943,0.5955882352941176
0.01513901047,0.6029411764705882
0.0152911887884,0.6102941176470589
0.0155586833519,0.6176470588235294
0.0155865583129,0.625
0.0156421483041,0.6323529411764706
0.0156435941938,0.6397058823529411
0.0156447160328,0.6470588235294118
0.0156873288928,0.6544117647058824
0.0157011124573,0.6617647058823529
0.0157521286344,0.6691176470588235
0.0157588662014,0.6764705882352942
0.015769292722,0.6838235294117647
0.0158216066307,0.6911764705882353
0.0158742303518,0.6985294117647058
0.0159029474063,0.7058823529411765
0.0159029746571,0.7132352941176471
0.0159031982688,0.7205882352941176
0.0159032072557,0.7279411764705882
0.015903851855,0.7352941176470589
0.0159038578472,0.7426470588235294
0.0159038578472,0.75
0.392183222321,0.7573529411764706
0.393803215859,0.7647058823529411
0.407192700017,0.7720588235294118
0.764559439418,0.7794117647058824
0.764559439418,0.7867647058823529
0.791080331537,0.7941176470588235
0.791080331537,0.8014705882352942
1.17654966696,0.8088235294117647
1.30935685342,0.8161764705882353
1.30935685342,0.8235294117647058
1.30935685342,0.8308823529411765
1.513901047,0.8382352941176471
1.56435941938,0.8455882352941176
1.57521286344,0.8529411764705882
1.59029746571,0.8602941176470589
1.59032072557,0.8676470588235294
1.59038578472,0.875
1.59038578472,0.8823529411764706
1.9566548256,0.8897058823529411
2.26765999269,0.8970588235294118
2.36800960374,0.9044117647058824
2.86801268471,0.9117647058823529
3.02452846643,0.9191176470588235
3.18064055245,0.9264705882352942
4.77115675495,0.9338235294117647
6.39458592882,0.9411764705882353
11.5261927296,0.9485294117647058
11.5830263881,0.9558823529411765
15.2140529497,0.9632352941176471
18.3580240858,0.9705882352941176
19.1579491736,0.9779411764705882
19.1761490568,0.9852941176470589
20.6629675407,0.9926470588235294
21.5431209448,1.0
