Congestion,CDF
0.0274601115352,0.005555555555555556
0.0274601115352,0.011111111111111112
0.0275460775388,0.016666666666666666
0.0275460775388,0.022222222222222223
0.0282253663122,0.027777777777777776
0.0282253663122,0.03333333333333333
0.0283547364931,0.03888888888888889
0.0283547364931,0.044444444444444446
0.0283793570721,0.05
0.0283793570721,0.05555555555555555
0.0287425055547,0.06111111111111111
0.0287425055547,0.06666666666666667
0.0288126770386,0.07222222222222222
0.0288126770386,0.07777777777777778
0.0289528763283,0.08333333333333333
0.0289528763283,0.08888888888888889
0.0293438531147,0.09444444444444444
0.0293438531147,0.1
0.0293524204198,0.10555555555555556
0.0293524204198,0.1111111111111111
0.0295571762985,0.11666666666666667
0.0295571762985,0.12222222222222222
0.0300256218171,0.12777777777777777
0.0300256218171,0.13333333333333333
0.0300417044932,0.1388888888888889
0.0300417044932,0.14444444444444443
0.0301678872735,0.15
0.0301678872735,0.15555555555555556
0.0301744260414,0.16111111111111112
0.0301744260414,0.16666666666666666
0.0301761394386,0.17222222222222222
0.0301761394386,0.17777777777777778
0.0303288541734,0.18333333333333332
0.0303288541734,0.18888888888888888
0.0304310966734,0.19444444444444445
0.0304310966734,0.2
0.0305569866976,0.20555555555555555
0.0305569866976,0.2111111111111111
0.0306930845252,0.21666666666666667
0.0306930845252,0.2222222222222222
0.0308744797615,0.22777777777777777
0.0308744797615,0.23333333333333334
0.0308934579095,0.2388888888888889
0.0308934579095,0.24444444444444444
0.031174536903,0.25
0.031174536903,0.25555555555555554
0.0313430043909,0.2611111111111111
0.0313430043909,0.26666666666666666
0.0314426042393,0.2722222222222222
0.0314426042393,0.2777777777777778
0.0316039182009,0.2833333333333333
0.0316039182009,0.28888888888888886
0.0318195327911,0.29444444444444445
0.0318195327911,0.3
0.0323199512392,0.3055555555555556
0.0323199512392,0.3111111111111111
0.0323462085587,0.31666666666666665
0.0323462085587,0.32222222222222224
0.0324273196815,0.3277777777777778
0.0324273196815,0.3333333333333333
0.0325341288066,0.3388888888888889
0.0325341288066,0.34444444444444444
0.0325542337728,0.35
0.0325542337728,0.35555555555555557
0.0329410178976,0.3611111111111111
0.0329410178976,0.36666666666666664
0.0329548658024,0.37222222222222223
0.0329548658024,0.37777777777777777
0.0329987558852,0.38333333333333336
0.0329987558852,0.3888888888888889
0.0330302499583,0.39444444444444443
0.0330302499583,0.4
0.0330595584766,0.40555555555555556
0.0330595584766,0.4111111111111111
0.0332716983729,0.4166666666666667
0.0332716983729,0.4222222222222222
0.0334450608089,0.42777777777777776
0.0334450608089,0.43333333333333335
0.0337933276226,0.4388888888888889
0.0337933276226,0.4444444444444444
0.858656015896,0.45
0.858656015896,0.45555555555555555
0.992882773754,0.46111111111111114
0.992882773754,0.4666666666666667
1.07393779317,0.4722222222222222
1.07393779317,0.4777777777777778
1.14670094121,0.48333333333333334
1.14670094121,0.4888888888888889
1.80724053918,0.49444444444444446
1.80724053918,0.5
2.26880448473,0.5055555555555555
2.26880448473,0.5111111111111111
2.55251960665,0.5166666666666667
2.55251960665,0.5222222222222223
2.60794593758,0.5277777777777778
2.60794593758,0.5333333333333333
3.17621161345,0.5388888888888889
3.17621161345,0.5444444444444444
3.49124478745,0.55
3.49124478745,0.5555555555555556
3.58404725956,0.5611111111111111
3.58404725956,0.5666666666666667
3.66099139968,0.5722222222222222
3.66099139968,0.5777777777777777
3.68053950668,0.5833333333333334
3.68053950668,0.5888888888888889
3.82310875532,0.5944444444444444
3.82310875532,0.6
3.88389908935,0.6055555555555555
3.88389908935,0.6111111111111112
4.05503597869,0.6166666666666667
4.05503597869,0.6222222222222222
4.1871936525,0.6277777777777778
4.1871936525,0.6333333333333333
4.23174082429,0.6388888888888888
4.23174082429,0.6444444444444445
4.33363741362,0.65
4.33363741362,0.6555555555555556
4.44880931916,0.6611111111111111
4.44880931916,0.6666666666666666
4.46460905531,0.6722222222222223
4.46460905531,0.6777777777777778
4.71140874725,0.6833333333333333
4.71140874725,0.6888888888888889
4.7630743516,0.6944444444444444
4.7630743516,0.7
4.86805492682,0.7055555555555556
4.86805492682,0.7111111111111111
5.03811493161,0.7166666666666667
5.03811493161,0.7222222222222222
5.24645075681,0.7277777777777777
5.24645075681,0.7333333333333333
5.52865441535,0.7388888888888889
5.52865441535,0.7444444444444445
6.59070166088,0.75
6.59070166088,0.7555555555555555
6.75730795488,0.7611111111111111
6.75730795488,0.7666666666666667
6.78700145285,0.7722222222222223
6.78700145285,0.7777777777777778
7.2245504074,0.7833333333333333
7.2245504074,0.7888888888888889
7.46397382964,0.7944444444444444
7.46397382964,0.8
7.55781841245,0.8055555555555556
7.55781841245,0.8111111111111111
7.94839560794,0.8166666666666667
7.94839560794,0.8222222222222222
8.34310228089,0.8277777777777777
8.34310228089,0.8333333333333334
8.50384235764,0.8388888888888889
8.50384235764,0.8444444444444444
9.18224733082,0.85
9.18224733082,0.8555555555555555
10.0474426752,0.8611111111111112
10.0474426752,0.8666666666666667
10.2585561928,0.8722222222222222
10.2585561928,0.8777777777777778
11.0791926273,0.8833333333333333
11.0791926273,0.8888888888888888
11.1851210584,0.8944444444444445
11.1851210584,0.9
12.0418455224,0.9055555555555556
12.0418455224,0.9111111111111111
12.5699261196,0.9166666666666666
12.5699261196,0.9222222222222223
13.1386511488,0.9277777777777778
13.1386511488,0.9333333333333333
14.4341056146,0.9388888888888889
14.4341056146,0.9444444444444444
14.6588660387,0.95
14.6588660387,0.9555555555555556
15.1392593802,0.9611111111111111
15.1392593802,0.9666666666666667
16.4115720274,0.9722222222222222
16.4115720274,0.9777777777777777
17.8041170257,0.9833333333333333
17.8041170257,0.9888888888888889
18.5470970254,0.9944444444444445
18.5470970254,1.0
