Congestion,CDF
0.0212545937077,0.005555555555555556
0.0212545937077,0.011111111111111112
0.02143202952,0.016666666666666666
0.02143202952,0.022222222222222223
0.021794435693,0.027777777777777776
0.021794435693,0.03333333333333333
0.0218602367779,0.03888888888888889
0.0218602367779,0.044444444444444446
0.0218854579527,0.05
0.0218854579527,0.05555555555555555
0.0219741579283,0.06111111111111111
0.0219741579283,0.06666666666666667
0.021990961792,0.07222222222222222
0.021990961792,0.07777777777777778
0.0220480539422,0.08333333333333333
0.0220480539422,0.08888888888888889
0.0225321304975,0.09444444444444444
0.0225321304975,0.1
0.0225341805559,0.10555555555555556
0.0225341805559,0.1111111111111111
0.0225624245404,0.11666666666666667
0.0225624245404,0.12222222222222222
0.0225629008603,0.12777777777777777
0.0225629008603,0.13333333333333333
0.0228648898025,0.1388888888888889
0.0228648898025,0.14444444444444443
0.0228894867885,0.15
0.0228894867885,0.15555555555555556
0.022937393881,0.16111111111111112
0.022937393881,0.16666666666666666
0.0230803606307,0.17222222222222222
0.0230803606307,0.17777777777777778
0.0232765288447,0.18333333333333332
0.0232765288447,0.18888888888888888
0.0233413696272,0.19444444444444445
0.0233413696272,0.2
0.0233573098554,0.20555555555555555
0.0233573098554,0.2111111111111111
0.0234294365298,0.21666666666666667
0.0234294365298,0.2222222222222222
0.0235604624645,0.22777777777777777
0.0235604624645,0.23333333333333334
0.0236376965881,0.2388888888888889
0.0236376965881,0.24444444444444444
0.0236523349317,0.25
0.0236523349317,0.25555555555555554
0.0237892046648,0.2611111111111111
0.0237892046648,0.26666666666666666
0.0242299950803,0.2722222222222222
0.0242299950803,0.2777777777777778
0.0246579241892,0.2833333333333333
0.0246579241892,0.28888888888888886
0.0246935407327,0.29444444444444445
0.0246935407327,0.3
0.0255325078082,0.3055555555555556
0.0255325078082,0.3111111111111111
0.0255434779916,0.31666666666666665
0.0255434779916,0.32222222222222224
0.0256091215304,0.3277777777777778
0.0256091215304,0.3333333333333333
0.0256209272918,0.3388888888888889
0.0256209272918,0.34444444444444444
0.0258823905708,0.35
0.0258823905708,0.35555555555555557
0.0259032722956,0.3611111111111111
0.0259032722956,0.36666666666666664
0.0259424059839,0.37222222222222223
0.0259424059839,0.37777777777777777
0.0261308352947,0.38333333333333336
0.0261308352947,0.3888888888888889
0.026259842152,0.39444444444444443
0.026259842152,0.4
0.0262623774535,0.40555555555555556
0.0262623774535,0.4111111111111111
0.0263432321306,0.4166666666666667
0.0263432321306,0.4222222222222222
0.0265120121278,0.42777777777777776
0.0265120121278,0.43333333333333335
0.0269612813829,0.4388888888888889
0.0269612813829,0.4444444444444444
0.642612932268,0.45
0.642612932268,0.45555555555555555
0.747276487616,0.46111111111111114
0.747276487616,0.4666666666666667
0.773268925232,0.4722222222222222
0.773268925232,0.4777777777777778
0.804777077741,0.48333333333333334
0.804777077741,0.4888888888888889
1.36337474633,0.49444444444444446
1.36337474633,0.5
1.6371127918,0.5055555555555555
1.6371127918,0.5111111111111111
1.96782886807,0.5166666666666667
1.96782886807,0.5222222222222223
2.01118928852,0.5277777777777778
2.01118928852,0.5333333333333333
2.41947282145,0.5388888888888889
2.41947282145,0.5444444444444444
2.75227098333,0.55
2.75227098333,0.5555555555555556
2.82764669512,0.5611111111111111
2.82764669512,0.5666666666666667
2.89495890306,0.5722222222222222
2.89495890306,0.5777777777777777
2.8953449393,0.5833333333333334
2.8953449393,0.5888888888888889
2.9680614897,0.5944444444444444
2.9680614897,0.6
3.0006945432,0.6055555555555555
3.0006945432,0.6111111111111112
3.1212028141,0.6166666666666667
3.1212028141,0.6222222222222222
3.25861770866,0.6277777777777778
3.25861770866,0.6333333333333333
3.27626999237,0.6388888888888888
3.27626999237,0.6444444444444445
3.40891319182,0.65
3.40891319182,0.6555555555555556
3.48585322739,0.6611111111111111
3.48585322739,0.6666666666666666
3.53022117416,0.6722222222222223
3.53022117416,0.6777777777777778
3.65376489898,0.6833333333333333
3.65376489898,0.6888888888888889
3.71720591241,0.6944444444444444
3.71720591241,0.7
3.9092122183,0.7055555555555556
3.9092122183,0.7111111111111111
4.00398084705,0.7166666666666667
4.00398084705,0.7222222222222222
4.06578458684,0.7277777777777777
4.06578458684,0.7333333333333333
4.44371164663,0.7388888888888889
4.44371164663,0.7444444444444445
5.33240599643,0.75
5.33240599643,0.7555555555555555
5.45567632617,0.7611111111111111
5.45567632617,0.7666666666666667
5.51432487322,0.7722222222222223
5.51432487322,0.7777777777777778
5.88852305193,0.7833333333333333
5.88852305193,0.7888888888888889
5.98858111395,0.7944444444444444
5.98858111395,0.8
6.04977273811,0.8055555555555556
6.04977273811,0.8111111111111111
6.47471809473,0.8166666666666667
6.47471809473,0.8222222222222222
6.76894709071,0.8277777777777777
6.76894709071,0.8333333333333334
6.85636779365,0.8388888888888889
6.85636779365,0.8444444444444444
7.47288857852,0.85
7.47288857852,0.8555555555555555
8.19969785745,0.8611111111111112
8.19969785745,0.8666666666666667
8.23083049638,0.8722222222222222
8.23083049638,0.8777777777777778
9.08116374426,0.8833333333333333
9.08116374426,0.8888888888888888
9.13410287968,0.8944444444444445
9.13410287968,0.9
9.87581950664,0.9055555555555556
9.87581950664,0.9111111111111111
10.2350265288,0.9166666666666666
10.2350265288,0.9222222222222223
10.809830332,0.9277777777777778
10.809830332,0.9333333333333333
11.8338732876,0.9388888888888889
11.8338732876,0.9444444444444444
11.9402918249,0.95
11.9402918249,0.9555555555555556
12.336350393,0.9611111111111111
12.336350393,0.9666666666666667
13.5407083099,0.9722222222222222
13.5407083099,0.9777777777777777
14.6993358247,0.9833333333333333
14.6993358247,0.9888888888888889
15.2718830159,0.9944444444444445
15.2718830159,1.0
