Congestion,CDF
0.0,0.007352941176470588
0.0,0.014705882352941176
0.0,0.022058823529411766
0.0,0.029411764705882353
0.0,0.03676470588235294
0.0,0.04411764705882353
0.0,0.051470588235294115
0.0,0.058823529411764705
0.0,0.0661764705882353
0.0,0.07352941176470588
0.0,0.08088235294117647
0.0,0.08823529411764706
0.0,0.09558823529411764
0.0,0.10294117647058823
1.51010399448e-05,0.11029411764705882
1.51010399448e-05,0.11764705882352941
1.51010399448e-05,0.125
1.51010399448e-05,0.1323529411764706
1.51010399448e-05,0.13970588235294118
1.51010399448e-05,0.14705882352941177
1.51010399448e-05,0.15441176470588236
1.51010399448e-05,0.16176470588235295
1.51010399448e-05,0.16911764705882354
1.51010399448e-05,0.17647058823529413
1.51010399448e-05,0.18382352941176472
1.51010399448e-05,0.19117647058823528
1.51010399448e-05,0.19852941176470587
1.51010399448e-05,0.20588235294117646
1.51010399448e-05,0.21323529411764705
1.51010399448e-05,0.22058823529411764
1.51010399448e-05,0.22794117647058823
1.51010399448e-05,0.23529411764705882
1.51010399448e-05,0.2426470588235294
1.51010399448e-05,0.25
1.51010399448e-05,0.25735294117647056
1.51010399448e-05,0.2647058823529412
1.51010399448e-05,0.27205882352941174
1.51010399448e-05,0.27941176470588236
1.51010399448e-05,0.2867647058823529
1.51010399448e-05,0.29411764705882354
1.51010399448e-05,0.3014705882352941
0.00037752599862,0.3088235294117647
0.00037752599862,0.3161764705882353
0.00040772807851,0.3235294117647059
0.000755051997241,0.33088235294117646
0.000755051997241,0.3382352941176471
0.000755051997241,0.34558823529411764
0.000755051997241,0.35294117647058826
0.00113257799586,0.3602941176470588
0.0012584199954,0.36764705882352944
0.0012584199954,0.375
0.0012584199954,0.38235294117647056
0.00151010399448,0.3897058823529412
0.00151010399448,0.39705882352941174
0.00151010399448,0.40441176470588236
0.00151010399448,0.4117647058823529
0.00151010399448,0.41911764705882354
0.00151010399448,0.4264705882352941
0.00151010399448,0.4338235294117647
0.0018876299931,0.4411764705882353
0.00226515599172,0.4485294117647059
0.00226515599172,0.45588235294117646
0.00276852398988,0.4632352941176471
0.00302020798896,0.47058823529411764
0.00302020798896,0.47794117647058826
0.00453031198345,0.4852941176470588
0.00616625797747,0.49264705882352944
0.01094825396,0.5
0.0111999379591,0.5073529411764706
0.0144718299471,0.5147058823529411
0.0179954059342,0.5220588235294118
0.0182470899333,0.5294117647058824
0.0195055099287,0.5367647058823529
0.0197571939278,0.5441176470588235
0.0212672979223,0.5514705882352942
0.0248572878966,0.5588235294117647
0.0254689821592,0.5661764705882353
0.032219719238,0.5735294117647058
0.0323269817648,0.5808823529411765
0.0324106363088,0.5882352941176471
0.0324648517839,0.5955882352941176
0.0324929962746,0.6029411764705882
0.0325649680437,0.6102941176470589
0.0327102768379,0.6176470588235294
0.0327298711547,0.625
0.032765945576,0.6323529411764706
0.032766862951,0.6397058823529411
0.0327675754017,0.6470588235294118
0.032772252402,0.6544117647058824
0.0327733030072,0.6617647058823529
0.0327735290106,0.6691176470588235
0.0327802906699,0.6764705882352942
0.0327887659599,0.6838235294117647
0.0328015904485,0.6911764705882353
0.0328226820135,0.6985294117647058
0.0328324932574,0.7058823529411765
0.032832507878,0.7132352941176471
0.0328326394123,0.7205882352941176
0.0328326436994,0.7279411764705882
0.0328327439833,0.7352941176470589
0.0328327468414,0.7426470588235294
0.0328327468414,0.75
0.819306310049,0.7573529411764706
0.819719148997,0.7647058823529411
0.867887890816,0.7720588235294118
1.62824840218,0.7794117647058824
1.62824840218,0.7867647058823529
1.64007952243,0.7941176470588235
1.64007952243,0.8014705882352942
2.45791893015,0.8088235294117647
2.73147642607,0.8161764705882353
2.73147642607,0.8235294117647058
2.73147642607,0.8308823529411765
3.24929962746,0.8382352941176471
3.2766862951,0.8455882352941176
3.27887659599,0.8529411764705882
3.2832507878,0.8602941176470589
3.28326436994,0.8676470588235294
3.28327468414,0.875
3.28327468414,0.8823529411764706
4.09606385022,0.8897058823529411
4.86931203306,0.8970588235294118
4.91810858942,0.9044117647058824
6.00446354154,0.9117647058823529
6.49578480585,0.9191176470588235
6.56652831118,0.9264705882352942
9.84982376662,0.9338235294117647
13.380821129,0.9411764705882353
23.8025713403,0.9485294117647058
24.2845607565,0.9558823529411765
31.4563954902,0.9632352941176471
38.8716295192,0.9705882352941176
39.6518343803,0.9779411764705882
41.3573583089,0.9852941176470589
42.8845325568,0.9926470588235294
45.4314307727,1.0
