Congestion,CDF
0.0,0.007352941176470588
0.0,0.014705882352941176
0.0,0.022058823529411766
0.0,0.029411764705882353
0.0,0.03676470588235294
0.0,0.04411764705882353
0.0,0.051470588235294115
0.0,0.058823529411764705
0.0,0.0661764705882353
0.0,0.07352941176470588
0.0,0.08088235294117647
0.0,0.08823529411764706
0.0,0.09558823529411764
0.0,0.10294117647058823
1.58939421202e-05,0.11029411764705882
1.58939421202e-05,0.11764705882352941
1.58939421202e-05,0.125
1.58939421202e-05,0.1323529411764706
1.58939421202e-05,0.13970588235294118
1.58939421202e-05,0.14705882352941177
1.58939421202e-05,0.15441176470588236
1.58939421202e-05,0.16176470588235295
1.58939421202e-05,0.16911764705882354
1.58939421202e-05,0.17647058823529413
1.58939421202e-05,0.18382352941176472
1.58939421202e-05,0.19117647058823528
1.58939421202e-05,0.19852941176470587
1.58939421202e-05,0.20588235294117646
1.58939421202e-05,0.21323529411764705
1.58939421202e-05,0.22058823529411764
1.58939421202e-05,0.22794117647058823
1.58939421202e-05,0.23529411764705882
1.58939421202e-05,0.2426470588235294
1.58939421202e-05,0.25
1.58939421202e-05,0.25735294117647056
1.58939421202e-05,0.2647058823529412
1.58939421202e-05,0.27205882352941174
1.58939421202e-05,0.27941176470588236
1.58939421202e-05,0.2867647058823529
1.58939421202e-05,0.29411764705882354
1.58939421202e-05,0.3014705882352941
0.000397348553005,0.3088235294117647
0.000397348553005,0.3161764705882353
0.000429136437245,0.3235294117647059
0.000794697106009,0.33088235294117646
0.000794697106009,0.3382352941176471
0.000794697106009,0.34558823529411764
0.000794697106009,0.35294117647058826
0.00119204565901,0.3602941176470588
0.00132449517668,0.36764705882352944
0.00132449517668,0.375
0.00132449517668,0.38235294117647056
0.00158939421202,0.3897058823529412
0.00158939421202,0.39705882352941174
0.00158939421202,0.40441176470588236
0.00158939421202,0.4117647058823529
0.00158939421202,0.41911764705882354
0.00158939421202,0.4264705882352941
0.00158939421202,0.4338235294117647
0.00198674276502,0.4411764705882353
0.00238409131803,0.4485294117647059
0.00238409131803,0.45588235294117646
0.0029138893887,0.4632352941176471
0.00317878842404,0.47058823529411764
0.00317878842404,0.47794117647058826
0.00476818263606,0.4852941176470588
0.0058168108056,0.49264705882352944
0.00588094518238,0.5
0.00639386507965,0.5073529411764706
0.00639386507965,0.5147058823529411
0.00639386507965,0.5220588235294118
0.00639386507965,0.5294117647058824
0.00642631916891,0.5367647058823529
0.00645210614944,0.5441176470588235
0.00649002636574,0.5514705882352942
0.00651034721924,0.5588235294117647
0.00651034721924,0.5661764705882353
0.00653106578732,0.5735294117647058
0.00653106578732,0.5808823529411765
0.00653106578732,0.5882352941176471
0.00653759701832,0.5955882352941176
0.00653977414655,0.6029411764705882
0.00654964762583,0.6102941176470589
0.00654964762583,0.6176470588235294
0.00655121144607,0.625
0.00656377845262,0.6323529411764706
0.00657790927941,0.6397058823529411
0.0065855234983,0.6470588235294118
0.0065855234983,0.6544117647058824
0.0065855234983,0.6617647058823529
0.0065855234983,0.6691176470588235
0.0065855234983,0.6764705882352942
0.0065855234983,0.6838235294117647
0.0065855234983,0.6911764705882353
0.0115231080371,0.6985294117647058
0.0117880070725,0.7058823529411765
0.0152316945318,0.7132352941176471
0.0189402810266,0.7205882352941176
0.0192051800619,0.7279411764705882
0.0205296752386,0.7352941176470589
0.0207945742739,0.7426470588235294
0.0223839684859,0.75
0.163439925458,0.7573529411764706
0.163780286152,0.7647058823529411
0.174733763508,0.7720588235294118
0.322605307472,0.7794117647058824
0.322605307472,0.7867647058823529
0.328188922631,0.7941176470588235
0.328188922631,0.8014705882352942
0.490319776374,0.8088235294117647
0.545212683161,0.8161764705882353
0.545212683161,0.8235294117647058
0.545212683161,0.8308823529411765
0.639386507965,0.8382352941176471
0.653106578732,0.8455882352941176
0.655121144607,0.8529411764705882
0.65855234983,0.8602941176470589
0.65855234983,0.8676470588235294
0.65855234983,0.875
0.65855234983,0.8823529411764706
0.81654650419,0.8897058823529411
0.961991815437,0.8970588235294118
0.983153685214,0.9044117647058824
1.19624740508,0.9117647058823529
1.27877301593,0.9191176470588235
1.31710469966,0.9264705882352942
1.97565704949,0.9338235294117647
2.66797234481,0.9411764705882353
4.77364673496,0.9485294117647058
4.8378597793,0.9558823529411765
6.3048392687,0.9632352941176471
7.71801111863,0.9705882352941176
7.94295771649,0.9779411764705882
8.29969219919,0.9852941176470589
8.58558963339,0.9926470588235294
9.17368415162,1.0
