Congestion,CDF
0.0,0.007352941176470588
0.0,0.014705882352941176
0.0,0.022058823529411766
0.0,0.029411764705882353
0.0,0.03676470588235294
0.0,0.04411764705882353
0.0,0.051470588235294115
0.0,0.058823529411764705
0.0,0.0661764705882353
0.0,0.07352941176470588
0.0,0.08088235294117647
0.0,0.08823529411764706
0.0,0.09558823529411764
0.0,0.10294117647058823
1.72138569341e-05,0.11029411764705882
1.72138569341e-05,0.11764705882352941
1.72138569341e-05,0.125
1.72138569341e-05,0.1323529411764706
1.72138569341e-05,0.13970588235294118
1.72138569341e-05,0.14705882352941177
1.72138569341e-05,0.15441176470588236
1.72138569341e-05,0.16176470588235295
1.72138569341e-05,0.16911764705882354
1.72138569341e-05,0.17647058823529413
1.72138569341e-05,0.18382352941176472
1.72138569341e-05,0.19117647058823528
1.72138569341e-05,0.19852941176470587
1.72138569341e-05,0.20588235294117646
1.72138569341e-05,0.21323529411764705
1.72138569341e-05,0.22058823529411764
1.72138569341e-05,0.22794117647058823
1.72138569341e-05,0.23529411764705882
1.72138569341e-05,0.2426470588235294
1.72138569341e-05,0.25
1.72138569341e-05,0.25735294117647056
1.72138569341e-05,0.2647058823529412
1.72138569341e-05,0.27205882352941174
1.72138569341e-05,0.27941176470588236
1.72138569341e-05,0.2867647058823529
1.72138569341e-05,0.29411764705882354
1.72138569341e-05,0.3014705882352941
0.000430346423353,0.3088235294117647
0.000430346423353,0.3161764705882353
0.000464774137222,0.3235294117647059
0.000860692846707,0.33088235294117646
0.000860692846707,0.3382352941176471
0.000860692846707,0.34558823529411764
0.000860692846707,0.35294117647058826
0.00129103927006,0.3602941176470588
0.00143448807784,0.36764705882352944
0.00143448807784,0.375
0.00143448807784,0.38235294117647056
0.00172138569341,0.3897058823529412
0.00172138569341,0.39705882352941174
0.00172138569341,0.40441176470588236
0.00172138569341,0.4117647058823529
0.00172138569341,0.41911764705882354
0.00172138569341,0.4264705882352941
0.00172138569341,0.4338235294117647
0.00215173211677,0.4411764705882353
0.00258207854012,0.4485294117647059
0.00258207854012,0.45588235294117646
0.00277810074665,0.4632352941176471
0.00277810074665,0.47058823529411764
0.00277810074665,0.47794117647058826
0.00277810074665,0.4852941176470588
0.00277810074665,0.49264705882352944
0.00277810074665,0.5
0.00277810074665,0.5073529411764706
0.00277810074665,0.5147058823529411
0.00277810074665,0.5220588235294118
0.00277810074665,0.5294117647058824
0.00277810074665,0.5367647058823529
0.00277810074665,0.5441176470588235
0.00277810074665,0.5514705882352942
0.00277810074665,0.5588235294117647
0.00277810074665,0.5661764705882353
0.00277810074665,0.5735294117647058
0.00277810074665,0.5808823529411765
0.00277810074665,0.5882352941176471
0.00277810074665,0.5955882352941176
0.00277810074665,0.6029411764705882
0.00277810074665,0.6102941176470589
0.00277810074665,0.6176470588235294
0.00277810074665,0.625
0.00277810074665,0.6323529411764706
0.00277810074665,0.6397058823529411
0.00277810074665,0.6470588235294118
0.00277810074665,0.6544117647058824
0.00315587377126,0.6617647058823529
0.00344277138683,0.6691176470588235
0.00344277138683,0.6764705882352942
0.00516415708024,0.6838235294117647
0.00702899158144,0.6911764705882353
0.0124800462773,0.6985294117647058
0.0127669438928,0.7058823529411765
0.0164966128952,0.7132352941176471
0.0205131795132,0.7205882352941176
0.0208000771288,0.7279411764705882
0.0222345652066,0.7352941176470589
0.0225214628222,0.7426470588235294
0.0242428485156,0.75
0.0694525186662,0.7573529411764706
0.0694525186662,0.7647058823529411
0.0750087201595,0.7720588235294118
0.138905037332,0.7794117647058824
0.138905037332,0.7867647058823529
0.138905037332,0.7941176470588235
0.138905037332,0.8014705882352942
0.208357555999,0.8088235294117647
0.231508395554,0.8161764705882353
0.231508395554,0.8235294117647058
0.231508395554,0.8308823529411765
0.277810074665,0.8382352941176471
0.277810074665,0.8455882352941176
0.277810074665,0.8529411764705882
0.277810074665,0.8602941176470589
0.277810074665,0.8676470588235294
0.277810074665,0.875
0.277810074665,0.8823529411764706
0.347262593331,0.8897058823529411
0.416715111997,0.8970588235294118
0.416715111997,0.9044117647058824
0.509318470219,0.9117647058823529
0.55562014933,0.9191176470588235
0.55562014933,0.9264705882352942
0.833430223995,0.9338235294117647
1.13439113822,0.9411764705882353
2.01412304132,0.9485294117647058
2.06042472043,0.9558823529411765
2.66234654887,0.9632352941176471
3.31057005642,0.9705882352941176
3.35687173553,0.9779411764705882
3.58838013109,0.9852941176470589
3.6346818102,0.9926470588235294
3.91249188486,1.0
