Congestion,CDF
0.0,0.007352941176470588
0.0,0.014705882352941176
0.0,0.022058823529411766
0.0,0.029411764705882353
0.0,0.03676470588235294
0.0,0.04411764705882353
0.0,0.051470588235294115
0.0,0.058823529411764705
0.0,0.0661764705882353
0.0,0.07352941176470588
0.0,0.08088235294117647
0.0,0.08823529411764706
0.0,0.09558823529411764
0.0,0.10294117647058823
1.54943990569e-05,0.11029411764705882
1.54943990569e-05,0.11764705882352941
1.54943990569e-05,0.125
1.54943990569e-05,0.1323529411764706
1.54943990569e-05,0.13970588235294118
1.54943990569e-05,0.14705882352941177
1.54943990569e-05,0.15441176470588236
1.54943990569e-05,0.16176470588235295
1.54943990569e-05,0.16911764705882354
1.54943990569e-05,0.17647058823529413
1.54943990569e-05,0.18382352941176472
1.54943990569e-05,0.19117647058823528
1.54943990569e-05,0.19852941176470587
1.54943990569e-05,0.20588235294117646
1.54943990569e-05,0.21323529411764705
1.54943990569e-05,0.22058823529411764
1.54943990569e-05,0.22794117647058823
1.54943990569e-05,0.23529411764705882
1.54943990569e-05,0.2426470588235294
1.54943990569e-05,0.25
1.54943990569e-05,0.25735294117647056
1.54943990569e-05,0.2647058823529412
1.54943990569e-05,0.27205882352941174
1.54943990569e-05,0.27941176470588236
1.54943990569e-05,0.2867647058823529
1.54943990569e-05,0.29411764705882354
1.54943990569e-05,0.3014705882352941
0.000387359976422,0.3088235294117647
0.000387359976422,0.3161764705882353
0.000418348774536,0.3235294117647059
0.000774719952844,0.33088235294117646
0.000774719952844,0.3382352941176471
0.000774719952844,0.34558823529411764
0.000774719952844,0.35294117647058826
0.00116207992927,0.3602941176470588
0.00129119992141,0.36764705882352944
0.00129119992141,0.375
0.00129119992141,0.38235294117647056
0.00154943990569,0.3897058823529412
0.00154943990569,0.39705882352941174
0.00154943990569,0.40441176470588236
0.00154943990569,0.4117647058823529
0.00154943990569,0.41911764705882354
0.00154943990569,0.4264705882352941
0.00154943990569,0.4338235294117647
0.00193679988211,0.4411764705882353
0.00232415985853,0.4485294117647059
0.00232415985853,0.45588235294117646
0.00284063982709,0.4632352941176471
0.00309887981138,0.47058823529411764
0.00309887981138,0.47794117647058826
0.00464831971706,0.4852941176470588
0.00632687961489,0.49264705882352944
0.00898510777063,0.5
0.00916666911774,0.5073529411764706
0.0106797685787,0.5147058823529411
0.0106931366179,0.5220588235294118
0.0107166634658,0.5294117647058824
0.0107166634658,0.5367647058823529
0.0107562432433,0.5441176470588235
0.0108233860049,0.5514705882352942
0.0109553421209,0.5588235294117647
0.0109598720447,0.5661764705882353
0.0109947883679,0.5735294117647058
0.0109947883679,0.5808823529411765
0.010994897134,0.5882352941176471
0.0110090478769,0.5955882352941176
0.011013762547,0.6029411764705882
0.0110328099392,0.6102941176470589
0.0110340869236,0.6176470588235294
0.0110354569143,0.625
0.0110604681721,0.6323529411764706
0.0110869022358,0.6397058823529411
0.0111007115251,0.6470588235294118
0.0111007115251,0.6544117647058824
0.0111008355678,0.6617647058823529
0.0111008355678,0.6691176470588235
0.0111010737656,0.6764705882352942
0.0111010737656,0.6838235294117647
0.0111010737656,0.6911764705882353
0.0112334393162,0.6985294117647058
0.0114916793005,0.7058823529411765
0.0148487990962,0.7132352941176471
0.0184641588761,0.7205882352941176
0.0187223988604,0.7279411764705882
0.0200135987818,0.7352941176470589
0.0202718387661,0.7426470588235294
0.0218212786718,0.75
0.275226196923,0.7573529411764706
0.275886422856,0.7647058823529411
0.292416176392,0.7720588235294118
0.541169300247,0.7794117647058824
0.541169300247,0.7867647058823529
0.553023408604,0.7941176470588235
0.553023408604,0.8014705882352942
0.82567859077,0.8088235294117647
0.918238038014,0.8161764705882353
0.918238038014,0.8235294117647058
0.918238038014,0.8308823529411765
1.07166634658,0.8382352941176471
1.09947883679,0.8455882352941176
1.10354569143,0.8529411764705882
1.11007115251,0.8602941176470589
1.11008355678,0.8676470588235294
1.11010737656,0.875
1.11010737656,0.8823529411764706
1.37471591032,0.8897058823529411
1.61048296204,0.8970588235294118
1.65643210097,0.9044117647058824
2.01422524249,0.9117647058823529
2.14333269316,0.9191176470588235
2.22016711355,0.9264705882352942
3.33032212968,0.9338235294117647
4.49191162193,0.9411764705882353
8.0465179711,0.9485294117647058
8.14284037675,0.9558823529411765
10.6264696413,0.9632352941176471
12.9646328898,0.9705882352941176
13.3861827362,0.9779411764705882
13.8631436669,0.9852941176470589
14.4618070605,0.9926470588235294
15.3784739723,1.0
