Congestion,CDF
0.0,0.007352941176470588
0.0,0.014705882352941176
0.0,0.022058823529411766
0.0,0.029411764705882353
0.0,0.03676470588235294
0.0,0.04411764705882353
0.0,0.051470588235294115
0.0,0.058823529411764705
0.0,0.0661764705882353
0.0,0.07352941176470588
0.0,0.08088235294117647
0.0,0.08823529411764706
0.0,0.09558823529411764
0.0,0.10294117647058823
1.51813703613e-05,0.11029411764705882
1.51813703613e-05,0.11764705882352941
1.51813703613e-05,0.125
1.51813703613e-05,0.1323529411764706
1.51813703613e-05,0.13970588235294118
1.51813703613e-05,0.14705882352941177
1.51813703613e-05,0.15441176470588236
1.51813703613e-05,0.16176470588235295
1.51813703613e-05,0.16911764705882354
1.51813703613e-05,0.17647058823529413
1.51813703613e-05,0.18382352941176472
1.51813703613e-05,0.19117647058823528
1.51813703613e-05,0.19852941176470587
1.51813703613e-05,0.20588235294117646
1.51813703613e-05,0.21323529411764705
1.51813703613e-05,0.22058823529411764
1.51813703613e-05,0.22794117647058823
1.51813703613e-05,0.23529411764705882
1.51813703613e-05,0.2426470588235294
1.51813703613e-05,0.25
1.51813703613e-05,0.25735294117647056
1.51813703613e-05,0.2647058823529412
1.51813703613e-05,0.27205882352941174
1.51813703613e-05,0.27941176470588236
1.51813703613e-05,0.2867647058823529
1.51813703613e-05,0.29411764705882354
1.51813703613e-05,0.3014705882352941
0.000379534259032,0.3088235294117647
0.000379534259032,0.3161764705882353
0.000409896999754,0.3235294117647059
0.000759068518063,0.33088235294117646
0.000759068518063,0.3382352941176471
0.000759068518063,0.34558823529411764
0.000759068518063,0.35294117647058826
0.00113860277709,0.3602941176470588
0.00126511419677,0.36764705882352944
0.00126511419677,0.375
0.00126511419677,0.38235294117647056
0.00151813703613,0.3897058823529412
0.00151813703613,0.39705882352941174
0.00151813703613,0.40441176470588236
0.00151813703613,0.4117647058823529
0.00151813703613,0.41911764705882354
0.00151813703613,0.4264705882352941
0.00151813703613,0.4338235294117647
0.00189767129516,0.4411764705882353
0.00227720555419,0.4485294117647059
0.00227720555419,0.45588235294117646
0.0027832512329,0.4632352941176471
0.00303627407225,0.47058823529411764
0.00303627407225,0.47794117647058826
0.00455441110838,0.4852941176470588
0.00619905956418,0.49264705882352944
0.0110064935119,0.5
0.0112595163513,0.5073529411764706
0.0145488132629,0.5147058823529411
0.014841522741,0.5220588235294118
0.0155114655719,0.5294117647058824
0.0180911330138,0.5367647058823529
0.0183441558532,0.5441176470588235
0.01960927005,0.5514705882352942
0.0198622928893,0.5588235294117647
0.0213804299254,0.5661764705882353
0.0229478353029,0.5735294117647058
0.023087890411,0.5808823529411765
0.0231815723081,0.5882352941176471
0.0232383257159,0.5955882352941176
0.0232744094661,0.6029411764705882
0.0233707656709,0.6102941176470589
0.0235507105845,0.6176470588235294
0.0235730742737,0.625
0.0236131214674,0.6323529411764706
0.0236143789661,0.6397058823529411
0.0236150751668,0.6470588235294118
0.0236283866079,0.6544117647058824
0.0236324235167,0.6617647058823529
0.0236417787447,0.6691176470588235
0.0236509608662,0.6764705882352942
0.0236557838898,0.6838235294117647
0.0236798721369,0.6911764705882353
0.0237085425158,0.6985294117647058
0.0237231521323,0.7058823529411765
0.0237231732026,0.7132352941176471
0.0237233290539,0.7205882352941176
0.0237233355947,0.7279411764705882
0.0237235778545,0.7352941176470589
0.0237235822154,0.7426470588235294
0.0237235822154,0.75
0.590709665197,0.7573529411764706
0.591394597244,0.7647058823529411
0.619081628193,0.7720588235294118
1.16853828355,0.7794117647058824
1.16853828355,0.7867647058823529
1.18399360684,0.7941176470588235
1.18399360684,0.8014705882352942
1.77212899559,0.8088235294117647
1.969851713,0.8161764705882353
1.969851713,0.8235294117647058
1.969851713,0.8308823529411765
2.32744094661,0.8382352941176471
2.36143789661,0.8455882352941176
2.36557838898,0.8529411764705882
2.37231732026,0.8602941176470589
2.37233355947,0.8676470588235294
2.37235822154,0.875
2.37235822154,0.8823529411764706
2.95221718187,0.8897058823529411
3.48669551436,0.8970588235294118
3.54908969347,0.9044117647058824
4.32715914037,0.9117647058823529
4.65127351821,0.9191176470588235
4.74466646486,0.9264705882352942
7.11707422854,0.9338235294117647
9.64481893822,0.9411764705882353
17.1977678241,0.9485294117647058
17.4955874206,0.9558823529411765
22.7224673956,0.9632352941176471
27.9283399834,0.9705882352941176
28.6357349635,0.9779411764705882
29.4124922575,0.9852941176470589
30.9445240046,0.9926470588235294
32.4956705618,1.0
