Congestion,CDF
0.0,0.007352941176470588
0.0,0.014705882352941176
0.0,0.022058823529411766
0.0,0.029411764705882353
0.0,0.03676470588235294
0.0,0.04411764705882353
0.0,0.051470588235294115
0.0,0.058823529411764705
0.0,0.0661764705882353
0.0,0.07352941176470588
0.0,0.08088235294117647
0.0,0.08823529411764706
0.0,0.09558823529411764
0.0,0.10294117647058823
1.53752181415e-05,0.11029411764705882
1.53752181415e-05,0.11764705882352941
1.53752181415e-05,0.125
1.53752181415e-05,0.1323529411764706
1.53752181415e-05,0.13970588235294118
1.53752181415e-05,0.14705882352941177
1.53752181415e-05,0.15441176470588236
1.53752181415e-05,0.16176470588235295
1.53752181415e-05,0.16911764705882354
1.53752181415e-05,0.17647058823529413
1.53752181415e-05,0.18382352941176472
1.53752181415e-05,0.19117647058823528
1.53752181415e-05,0.19852941176470587
1.53752181415e-05,0.20588235294117646
1.53752181415e-05,0.21323529411764705
1.53752181415e-05,0.22058823529411764
1.53752181415e-05,0.22794117647058823
1.53752181415e-05,0.23529411764705882
1.53752181415e-05,0.2426470588235294
1.53752181415e-05,0.25
1.53752181415e-05,0.25735294117647056
1.53752181415e-05,0.2647058823529412
1.53752181415e-05,0.27205882352941174
1.53752181415e-05,0.27941176470588236
1.53752181415e-05,0.2867647058823529
1.53752181415e-05,0.29411764705882354
1.53752181415e-05,0.3014705882352941
0.000384380453538,0.3088235294117647
0.000384380453538,0.3161764705882353
0.000415130889821,0.3235294117647059
0.000768760907075,0.33088235294117646
0.000768760907075,0.3382352941176471
0.000768760907075,0.34558823529411764
0.000768760907075,0.35294117647058826
0.00115314136061,0.3602941176470588
0.00128126817846,0.36764705882352944
0.00128126817846,0.375
0.00128126817846,0.38235294117647056
0.00153752181415,0.3897058823529412
0.00153752181415,0.39705882352941174
0.00153752181415,0.40441176470588236
0.00153752181415,0.4117647058823529
0.00153752181415,0.41911764705882354
0.00153752181415,0.4264705882352941
0.00153752181415,0.4338235294117647
0.00192190226769,0.4411764705882353
0.00230628272123,0.4485294117647059
0.00230628272123,0.45588235294117646
0.00281878999261,0.4632352941176471
0.0030750436283,0.47058823529411764
0.0030750436283,0.47794117647058826
0.00461256544245,0.4852941176470588
0.00627821407445,0.49264705882352944
0.0111150793493,0.5
0.0111470331526,0.5073529411764706
0.0113486984249,0.5147058823529411
0.0114032867883,0.5220588235294118
0.0133984483338,0.5294117647058824
0.0134342948007,0.5367647058823529
0.0134669447934,0.5441176470588235
0.0134688051822,0.5514705882352942
0.0134859797007,0.5588235294117647
0.0135790927466,0.5661764705882353
0.0137259572424,0.5735294117647058
0.0137342548753,0.5808823529411765
0.0137712166466,0.5882352941176471
0.0137713679685,0.5955882352941176
0.0137717812769,0.6029411764705882
0.0137854047747,0.6102941176470589
0.0137899433984,0.6176470588235294
0.0138072047868,0.625
0.0138099501334,0.6323529411764706
0.013812239438,0.6397058823529411
0.0138372726672,0.6470588235294118
0.0138646525303,0.6544117647058824
0.0138787686642,0.6617647058823529
0.0138787729882,0.6691176470588235
0.0138789166726,0.6764705882352942
0.0138789186205,0.6838235294117647
0.0138791614177,0.6911764705882353
0.0138791627165,0.6985294117647058
0.0138791627165,0.7058823529411765
0.0147345840523,0.7132352941176471
0.018322134952,0.7205882352941176
0.0185783885877,0.7279411764705882
0.0198596567661,0.7352941176470589
0.0201159104018,0.7426470588235294
0.021653432216,0.75
0.344635119367,0.7573529411764706
0.34530598595,0.7647058823529411
0.365931452866,0.7720588235294118
0.678954637331,0.7794117647058824
0.678954637331,0.7867647058823529
0.691863633358,0.7941176470588235
0.691863633358,0.8014705882352942
1.0339053581,0.8088235294117647
1.14960588526,0.8161764705882353
1.14960588526,0.8235294117647058
1.14960588526,0.8308823529411765
1.34688051822,0.8382352941176471
1.37713679685,0.8455882352941176
1.3812239438,0.8529411764705882
1.38787729882,0.8602941176470589
1.38789186205,0.8676470588235294
1.38791627165,0.875
1.38791627165,0.8823529411764706
1.72181324706,0.8897058823529411
2.0223841174,0.8970588235294118
2.0728586467,0.9044117647058824
2.5230313728,0.9117647058823529
2.69357499756,0.9191176470588235
2.77578352931,0.9264705882352942
4.16374868508,0.9338235294117647
5.62567759384,0.9411764705882353
10.0605923656,0.9485294117647058
10.2002593282,0.9558823529411765
13.2885271372,0.9632352941176471
16.2560632765,0.9705882352941176
16.7421062626,0.9779411764705882
17.3675712115,0.9852941176470589
18.0907042327,0.9926470588235294
19.2255740752,1.0
