Congestion,CDF
0.0,0.007352941176470588
0.0,0.014705882352941176
0.0,0.022058823529411766
0.0,0.029411764705882353
0.0,0.03676470588235294
0.0,0.04411764705882353
0.0,0.051470588235294115
0.0,0.058823529411764705
0.0,0.0661764705882353
0.0,0.07352941176470588
0.0,0.08088235294117647
0.0,0.08823529411764706
0.0,0.09558823529411764
0.0,0.10294117647058823
1.50855776127e-05,0.11029411764705882
1.50855776127e-05,0.11764705882352941
1.50855776127e-05,0.125
1.50855776127e-05,0.1323529411764706
1.50855776127e-05,0.13970588235294118
1.50855776127e-05,0.14705882352941177
1.50855776127e-05,0.15441176470588236
1.50855776127e-05,0.16176470588235295
1.50855776127e-05,0.16911764705882354
1.50855776127e-05,0.17647058823529413
1.50855776127e-05,0.18382352941176472
1.50855776127e-05,0.19117647058823528
1.50855776127e-05,0.19852941176470587
1.50855776127e-05,0.20588235294117646
1.50855776127e-05,0.21323529411764705
1.50855776127e-05,0.22058823529411764
1.50855776127e-05,0.22794117647058823
1.50855776127e-05,0.23529411764705882
1.50855776127e-05,0.2426470588235294
1.50855776127e-05,0.25
1.50855776127e-05,0.25735294117647056
1.50855776127e-05,0.2647058823529412
1.50855776127e-05,0.27205882352941174
1.50855776127e-05,0.27941176470588236
1.50855776127e-05,0.2867647058823529
1.50855776127e-05,0.29411764705882354
1.50855776127e-05,0.3014705882352941
0.000377139440318,0.3088235294117647
0.000377139440318,0.3161764705882353
0.000407310595543,0.3235294117647059
0.000754278880635,0.33088235294117646
0.000754278880635,0.3382352941176471
0.000754278880635,0.34558823529411764
0.000754278880635,0.35294117647058826
0.00113141832095,0.3602941176470588
0.00125713146773,0.36764705882352944
0.00125713146773,0.375
0.00125713146773,0.38235294117647056
0.00150855776127,0.3897058823529412
0.00150855776127,0.39705882352941174
0.00150855776127,0.40441176470588236
0.00150855776127,0.4117647058823529
0.00150855776127,0.41911764705882354
0.00150855776127,0.4264705882352941
0.00150855776127,0.4338235294117647
0.00188569720159,0.4411764705882353
0.00226283664191,0.4485294117647059
0.00226283664191,0.45588235294117646
0.002765689229,0.4632352941176471
0.00301711552254,0.47058823529411764
0.00301711552254,0.47794117647058826
0.00452567328381,0.4852941176470588
0.00615994419186,0.49264705882352944
0.0109370437692,0.5
0.0111884700628,0.5073529411764706
0.0144570118788,0.5147058823529411
0.0179769799885,0.5220588235294118
0.018228406282,0.5294117647058824
0.0194855377497,0.5367647058823529
0.0197369640433,0.5441176470588235
0.0212455218046,0.5514705882352942
0.0249727115611,0.5588235294117647
0.0257711534895,0.5661764705882353
0.0351547774398,0.5735294117647058
0.035245511505,0.5808823529411765
0.0353959686475,0.5882352941176471
0.0354320565388,0.5955882352941176
0.03546378434,0.6029411764705882
0.035514723598,0.6102941176470589
0.0356149725095,0.6176470588235294
0.0356319840257,0.625
0.0356522189555,0.6323529411764706
0.0356590748192,0.6397058823529411
0.0356590882158,0.6470588235294118
0.0356594695131,0.6544117647058824
0.0356596193797,0.6617647058823529
0.0356599536304,0.6691176470588235
0.0356604572933,0.6764705882352942
0.0356670284171,0.6838235294117647
0.0356719466051,0.6911764705882353
0.0356840759051,0.6985294117647058
0.0356890481178,0.7058823529411765
0.0356890611696,0.7132352941176471
0.0356891226057,0.7205882352941176
0.0356891263675,0.7279411764705882
0.0356895723631,0.7352941176470589
0.0356895748711,0.7426470588235294
0.0356895748711,0.75
0.891490484492,0.7573529411764706
0.891675710428,0.7647058823529411
0.940655656755,0.7720588235294118
1.7757361799,0.7794117647058824
1.7757361799,0.7867647058823529
1.78359733026,0.7941176470588235
1.78359733026,0.8014705882352942
2.67447145348,0.8088235294117647
2.97180246878,0.8161764705882353
2.97180246878,0.8235294117647058
2.97180246878,0.8308823529411765
3.546378434,0.8382352941176471
3.56599536304,0.8455882352941176
3.56670284171,0.8529411764705882
3.56890611696,0.8602941176470589
3.56891263675,0.8676470588235294
3.56895748711,0.875
3.56895748711,0.8823529411764706
4.45753621382,0.8897058823529411
5.31533304465,0.8970588235294118
5.34954428156,0.9044117647058824
6.53500087135,0.9117647058823529
7.08958408788,0.9191176470588235
7.13782489732,0.9264705882352942
10.7068722105,0.9338235294117647
14.5612415276,0.9411764705882353
25.874183747,0.9485294117647058
26.4334758298,0.9558823529411765
34.1979911366,0.9632352941176471
42.3538707063,0.9705882352941176
43.1127573137,0.9779411764705882
44.8511418624,0.9852941176470589
46.6373084642,0.9926470588235294
49.2144238131,1.0
