Congestion,CDF
0.0,0.007352941176470588
0.0,0.014705882352941176
0.0,0.022058823529411766
0.0,0.029411764705882353
0.0,0.03676470588235294
0.0,0.04411764705882353
0.0,0.051470588235294115
0.0,0.058823529411764705
0.0,0.0661764705882353
0.0,0.07352941176470588
0.0,0.08088235294117647
0.0,0.08823529411764706
0.0,0.09558823529411764
0.0,0.10294117647058823
1.56057518973e-05,0.11029411764705882
1.56057518973e-05,0.11764705882352941
1.56057518973e-05,0.125
1.56057518973e-05,0.1323529411764706
1.56057518973e-05,0.13970588235294118
1.56057518973e-05,0.14705882352941177
1.56057518973e-05,0.15441176470588236
1.56057518973e-05,0.16176470588235295
1.56057518973e-05,0.16911764705882354
1.56057518973e-05,0.17647058823529413
1.56057518973e-05,0.18382352941176472
1.56057518973e-05,0.19117647058823528
1.56057518973e-05,0.19852941176470587
1.56057518973e-05,0.20588235294117646
1.56057518973e-05,0.21323529411764705
1.56057518973e-05,0.22058823529411764
1.56057518973e-05,0.22794117647058823
1.56057518973e-05,0.23529411764705882
1.56057518973e-05,0.2426470588235294
1.56057518973e-05,0.25
1.56057518973e-05,0.25735294117647056
1.56057518973e-05,0.2647058823529412
1.56057518973e-05,0.27205882352941174
1.56057518973e-05,0.27941176470588236
1.56057518973e-05,0.2867647058823529
1.56057518973e-05,0.29411764705882354
1.56057518973e-05,0.3014705882352941
0.000110672540476,0.3088235294117647
0.000390143797434,0.3161764705882353
0.000390143797434,0.3235294117647059
0.000421355301228,0.33088235294117646
0.000780287594867,0.3382352941176471
0.000780287594867,0.34558823529411764
0.000780287594867,0.35294117647058826
0.000780287594867,0.3602941176470588
0.000848878422745,0.36764705882352944
0.0011704313923,0.375
0.00130047932478,0.38235294117647056
0.00130047932478,0.3897058823529412
0.00130047932478,0.39705882352941174
0.00156057518973,0.40441176470588236
0.00156057518973,0.4117647058823529
0.00156057518973,0.41911764705882354
0.00156057518973,0.4264705882352941
0.00156057518973,0.4338235294117647
0.00156057518973,0.4411764705882353
0.00156057518973,0.4485294117647059
0.00195071898717,0.45588235294117646
0.0023408627846,0.4632352941176471
0.0023408627846,0.47058823529411764
0.00286105451451,0.47794117647058826
0.00312115037947,0.4852941176470588
0.00312115037947,0.49264705882352944
0.0046817255692,0.5
0.00637234869142,0.5073529411764706
0.0090897841424,0.5147058823529411
0.0092642668712,0.5220588235294118
0.00962923025208,0.5294117647058824
0.00970916656927,0.5367647058823529
0.00979256585576,0.5441176470588235
0.00982542227721,0.5514705882352942
0.00998865033225,0.5588235294117647
0.0100296624255,0.5661764705882353
0.0100437197595,0.5735294117647058
0.0100617133668,0.5808823529411765
0.0100631663065,0.5882352941176471
0.0100637440211,0.5955882352941176
0.0100651766479,0.6029411764705882
0.010065861995,0.6102941176470589
0.0100670489931,0.6176470588235294
0.01007388936,0.625
0.0100773615399,0.6323529411764706
0.0100922925013,0.6397058823529411
0.0100982739672,0.6470588235294118
0.0100983173667,0.6544117647058824
0.0100984133319,0.6617647058823529
0.0100984264537,0.6691176470588235
0.010098874599,0.6764705882352942
0.0100988833476,0.6838235294117647
0.0100988833476,0.6911764705882353
0.0113141701256,0.6985294117647058
0.0115742659905,0.7058823529411765
0.014955512235,0.7132352941176471
0.0185968543443,0.7205882352941176
0.0188569502093,0.7279411764705882
0.0201574295341,0.7352941176470589
0.020417525399,0.7426470588235294
0.0219781005888,0.75
0.249652346594,0.7573529411764706
0.251629416198,0.7647058823529411
0.251847233999,0.7720588235294118
0.49127111386,0.7794117647058824
0.49127111386,0.7867647058823529
0.503868076994,0.7941176470588235
0.503868076994,0.8014705882352942
0.754888248593,0.8088235294117647
0.838934784235,0.8161764705882353
0.838934784235,0.8235294117647058
0.838934784235,0.8308823529411765
0.979256585576,0.8382352941176471
1.0065861995,0.8455882352941176
1.007388936,0.8529411764705882
1.00983173667,0.8602941176470589
1.00984264537,0.8676470588235294
1.00988833476,0.875
1.00988833476,0.8823529411764706
1.25833431551,0.8897058823529411
1.45419413907,0.8970588235294118
1.51003941368,0.9044117647058824
1.84190102678,0.9117647058823529
1.9501732425,0.9191176470588235
2.01968397856,0.9264705882352942
3.02966412942,0.9338235294117647
4.1101719299,0.9411764705882353
7.32085447536,0.9485294117647058
7.44220910376,0.9558823529411765
9.67288658672,0.9632352941176471
11.7555548996,0.9705882352941176
11.7666221536,0.9779411764705882
12.1872979763,0.9852941176470589
13.1137246635,0.9926470588235294
13.1986125057,1.0
