Congestion,CDF
0.0,0.009433962264150943
0.0,0.018867924528301886
0.0,0.02830188679245283
0.0,0.03773584905660377
0.0,0.04716981132075472
0.0,0.05660377358490566
0.0,0.0660377358490566
0.0,0.07547169811320754
0.0,0.08490566037735849
0.0,0.09433962264150944
0.0,0.10377358490566038
0.0,0.11320754716981132
0.0,0.12264150943396226
0.0,0.1320754716981132
0.0,0.14150943396226415
0.0,0.1509433962264151
0.0,0.16037735849056603
0.0,0.16981132075471697
0.0,0.1792452830188679
0.0,0.18867924528301888
0.0,0.19811320754716982
0.0,0.20754716981132076
0.0,0.2169811320754717
0.0,0.22641509433962265
0.0,0.2358490566037736
0.0,0.24528301886792453
0.0,0.25471698113207547
0.0,0.2641509433962264
0.0,0.27358490566037735
0.0,0.2830188679245283
1.24095936326e-07,0.29245283018867924
3.19701072915e-06,0.3018867924528302
3.59509414194e-06,0.3113207547169811
4.87374016114e-06,0.32075471698113206
5.50157329971e-06,0.330188679245283
7.32052601087e-06,0.33962264150943394
1.11639146816e-05,0.3490566037735849
1.42904005391e-05,0.3584905660377358
1.51237381055e-05,0.36792452830188677
1.76392821353e-05,0.37735849056603776
2.17181805853e-05,0.3867924528301887
2.22158253787e-05,0.39622641509433965
2.34398820416e-05,0.4056603773584906
9.15065751359e-05,0.41509433962264153
9.15065751359e-05,0.42452830188679247
0.000150203263746,0.4339622641509434
0.000178630006739,0.44339622641509435
0.000178630006739,0.4528301886792453
0.000183013150272,0.46226415094339623
0.000183013150272,0.4716981132075472
0.000183013150272,0.4811320754716981
0.000282546175507,0.49056603773584906
0.000357260013478,0.5
0.000357260013478,0.5094339622641509
0.000357260013478,0.5188679245283019
0.000449891288972,0.5283018867924528
0.000449891288972,0.5377358490566038
0.000487374016114,0.5471698113207547
0.000828332315954,0.5566037735849056
0.000828332315954,0.5660377358490566
0.00102632348715,0.5754716981132075
0.00102632348715,0.5849056603773585
0.00157648081712,0.5943396226415094
0.00159792467784,0.6037735849056604
0.00249171911974,0.6132075471698113
0.00259226052949,0.6226415094339622
0.00337031169131,0.6320754716981132
0.00539597464275,0.6415094339622641
0.0125374703996,0.6509433962264151
0.0125482604055,0.660377358490566
0.0125496582062,0.6698113207547169
0.0125541479493,0.6792452830188679
0.0125563524762,0.6886792452830188
0.0125627394123,0.6981132075471698
0.0125762348033,0.7075471698113207
0.0125872129147,0.7169811320754716
0.0125901390346,0.7264150943396226
0.01259897193,0.7358490566037735
0.0126132942726,0.7452830188679245
0.0126150416658,0.7547169811320755
0.0126193397279,0.7641509433962265
0.157034242654,0.7735849056603774
0.157034242654,0.7830188679245284
0.157340161434,0.7924528301886793
0.157340161434,0.8018867924528302
0.163508863198,0.8113207547169812
0.314068485308,0.8207547169811321
0.314068485308,0.8301886792452831
0.314068485308,0.839622641509434
0.314680322867,0.8490566037735849
0.314680322867,0.8584905660377359
0.314680322867,0.8679245283018868
0.941857314397,0.8773584905660378
0.941857314397,0.8867924528301887
0.943186144252,0.8962264150943396
0.943186144252,0.9056603773584906
0.943881355819,0.9150943396226415
0.943881355819,0.9245283018867925
1.25541479493,0.9339622641509434
1.56812144405,0.9433962264150944
1.57587857067,0.9528301886792453
2.19951660344,0.9622641509433962
2.20308333726,0.9716981132075472
2.20581532861,0.9811320754716981
3.1398694992,0.9905660377358491
5.34718675637,1.0
