Congestion,CDF
0.0,0.009433962264150943
0.0,0.018867924528301886
0.0,0.02830188679245283
0.0,0.03773584905660377
0.0,0.04716981132075472
0.0,0.05660377358490566
0.0,0.0660377358490566
0.0,0.07547169811320754
0.0,0.08490566037735849
0.0,0.09433962264150944
0.0,0.10377358490566038
0.0,0.11320754716981132
0.0,0.12264150943396226
0.0,0.1320754716981132
0.0,0.14150943396226415
0.0,0.1509433962264151
0.0,0.16037735849056603
0.0,0.16981132075471697
0.0,0.1792452830188679
0.0,0.18867924528301888
0.0,0.19811320754716982
0.0,0.20754716981132076
0.0,0.2169811320754717
0.0,0.22641509433962265
0.0,0.2358490566037736
0.0,0.24528301886792453
0.0,0.25471698113207547
0.0,0.2641509433962264
0.0,0.27358490566037735
0.0,0.2830188679245283
7.49151689727e-08,0.29245283018867924
1.92999550246e-06,0.3018867924528302
2.17031349367e-06,0.3113207547169811
2.94221614754e-06,0.32075471698113206
3.32123118264e-06,0.330188679245283
4.41931024748e-06,0.33962264150943394
6.73951605131e-06,0.3490566037735849
8.62693656839e-06,0.3584905660377358
9.13001206342e-06,0.36792452830188677
1.06486146191e-05,0.37735849056603776
1.31109947393e-05,0.3867924528301887
1.34114166941e-05,0.39622641509433965
1.41503644345e-05,0.4056603773584906
1.71132910335e-05,0.41509433962264153
5.52413780935e-05,0.42452830188679247
5.52413780935e-05,0.4339622641509434
9.0675836913e-05,0.44339622641509435
0.000107836707105,0.4528301886792453
0.000107836707105,0.46226415094339623
0.000110482756187,0.4716981132075472
0.000110482756187,0.4811320754716981
0.000110482756187,0.49056603773584906
0.000134607137765,0.5
0.000170569602096,0.5094339622641509
0.00021567341421,0.5188679245283019
0.00021567341421,0.5283018867924528
0.00021567341421,0.5377358490566038
0.000271593759882,0.5471698113207547
0.000271593759882,0.5566037735849056
0.000294221614754,0.5660377358490566
0.000345162017618,0.5754716981132075
0.000477378844693,0.5849056603773585
0.000500053887764,0.5943396226415094
0.000500053887764,0.6037735849056604
0.00061957868837,0.6132075471698113
0.00061957868837,0.6226415094339622
0.000951701806634,0.6320754716981132
0.000964647197892,0.6415094339622641
0.00150421975461,0.6509433962264151
0.00156491534967,0.660377358490566
0.00171132910335,0.6698113207547169
0.0017572341147,0.6792452830188679
0.00203461513182,0.6886792452830188
0.00325748259052,0.6981132075471698
0.00992466054576,0.7075471698113207
0.0152323124688,0.7169811320754716
0.0237176244889,0.7264150943396226
0.0384483864741,0.7358490566037735
0.039185531149,0.7452830188679245
0.0430757989518,0.7547169811320755
0.0570312491622,0.7641509433962265
0.0594131505103,0.7735849056603774
0.288760209157,0.7830188679245284
0.480604830926,0.7924528301886793
0.480604830926,0.8018867924528302
0.489819139362,0.8113207547169812
0.489819139362,0.8207547169811321
0.961209661852,0.8301886792452831
0.961209661852,0.839622641509434
0.961209661852,0.8490566037735849
0.979638278725,0.8584905660377359
0.979638278725,0.8679245283018868
0.979638278725,0.8773584905660378
1.46665699758,0.8867924528301887
1.46665699758,0.8962264150943396
1.48011771135,0.9056603773584906
1.50117319934,0.9150943396226415
2.15630519473,0.9245283018867925
2.15630519473,0.9339622641509434
2.2040430792,0.9433962264150944
3.12421391788,0.9528301886792453
3.12421391788,0.9622641509433962
5.45624252408,0.9716981132075472
6.67354888651,0.9811320754716981
6.91173902131,0.9905660377358491
18.2327330726,1.0
