Congestion,CDF
0.0,0.009433962264150943
0.0,0.018867924528301886
0.0,0.02830188679245283
0.0,0.03773584905660377
0.0,0.04716981132075472
0.0,0.05660377358490566
0.0,0.0660377358490566
0.0,0.07547169811320754
0.0,0.08490566037735849
0.0,0.09433962264150944
0.0,0.10377358490566038
0.0,0.11320754716981132
0.0,0.12264150943396226
0.0,0.1320754716981132
0.0,0.14150943396226415
0.0,0.1509433962264151
0.0,0.16037735849056603
0.0,0.16981132075471697
0.0,0.1792452830188679
0.0,0.18867924528301888
0.0,0.19811320754716982
0.0,0.20754716981132076
0.0,0.2169811320754717
0.0,0.22641509433962265
0.0,0.2358490566037736
0.0,0.24528301886792453
0.0,0.25471698113207547
0.0,0.2641509433962264
0.0,0.27358490566037735
0.0,0.2830188679245283
1.51204797705e-08,0.29245283018867924
3.89540040453e-07,0.3018867924528302
4.38044547275e-07,0.3113207547169811
5.93841278735e-07,0.32075471698113206
6.70339660165e-07,0.330188679245283
8.91970105827e-07,0.33962264150943394
1.36026812079e-06,0.3490566037735849
1.74121505234e-06,0.3584905660377358
1.84275313802e-06,0.36792452830188677
2.14925981133e-06,0.37735849056603776
2.6462535351e-06,0.3867924528301887
2.70688910669e-06,0.39622641509433965
2.85603439346e-06,0.4056603773584906
1.11496263228e-05,0.41509433962264153
1.11496263228e-05,0.42452830188679247
1.83015292699e-05,0.4339622641509434
2.17651881543e-05,0.44339622641509435
2.17651881543e-05,0.4528301886792453
2.22992526457e-05,0.46226415094339623
2.22992526457e-05,0.4716981132075472
2.22992526457e-05,0.4811320754716981
3.44268624541e-05,0.49056603773584906
4.35303763085e-05,0.5
4.35303763085e-05,0.5094339622641509
4.35303763085e-05,0.5188679245283019
5.48170418408e-05,0.5283018867924528
5.48170418408e-05,0.5377358490566038
5.93841278735e-05,0.5471698113207547
0.000100928220516,0.5566037735849056
0.000100928220516,0.5660377358490566
0.000125052471378,0.5754716981132075
0.000125052471378,0.5849056603773585
0.000192086437394,0.5943396226415094
0.000194699266402,0.6037735849056604
0.000303603725146,0.6132075471698113
0.000315854201649,0.6226415094339622
0.000410655910724,0.6320754716981132
0.000657472982951,0.6415094339622641
0.0309122384275,0.6509433962264151
0.0805369749642,0.660377358490566
0.0811352876454,0.6698113207547169
0.0814439884023,0.6792452830188679
0.0959351668585,0.6886792452830188
0.11203843076,0.6981132075471698
0.11366438085,0.7075471698113207
0.117180823368,0.7169811320754716
0.122662202622,0.7264150943396226
0.12293957076,0.7358490566037735
0.12348657777,0.7452830188679245
0.129539928541,0.7547169811320755
0.130465014518,0.7641509433962265
1.34194058549,0.7735849056603774
1.53327753277,0.7830188679245284
1.53327753277,0.7924528301886793
1.5367446345,0.8018867924528302
1.5367446345,0.8113207547169812
3.06655506555,0.8207547169811321
3.06655506555,0.8301886792452831
3.06655506555,0.839622641509434
3.07348926899,0.8490566037735849
3.07348926899,0.8584905660377359
3.07348926899,0.8679245283018868
3.09122384275,0.8773584905660378
8.75324120977,0.8867924528301887
8.75324120977,0.8962264150943396
8.92906333565,0.9056603773584906
8.92906333565,0.9150943396226415
9.24435105575,0.9245283018867925
9.24435105575,0.9339622641509434
16.0240150214,0.9433962264150944
16.1165236191,0.9528301886792453
16.8069387062,0.9622641509433962
16.8667699743,0.9716981132075472
17.0734621759,0.9811320754716981
27.7669310773,0.9905660377358491
52.5887327722,1.0
