Congestion,CDF
0.0476980409109,0.007352941176470588
0.0476980409109,0.014705882352941176
0.0485595649311,0.022058823529411766
0.0485595649311,0.029411764705882353
0.0491832689512,0.03676470588235294
0.0491832689512,0.04411764705882353
0.0491835469102,0.051470588235294115
0.0491835469102,0.058823529411764705
0.0492657389866,0.0661764705882353
0.0492657389866,0.07352941176470588
0.0497430958154,0.08088235294117647
0.0497430958154,0.08823529411764706
0.0497864980428,0.09558823529411764
0.0497864980428,0.10294117647058823
0.0505548999702,0.11029411764705882
0.0505548999702,0.11764705882352941
0.0507743732982,0.125
0.0507743732982,0.1323529411764706
0.0511477169817,0.13970588235294118
0.0511477169817,0.14705882352941177
0.0512871327956,0.15441176470588236
0.0512871327956,0.16176470588235295
0.0514564180464,0.16911764705882354
0.0514564180464,0.17647058823529413
0.0517147270403,0.18382352941176472
0.0517147270403,0.19117647058823528
0.0520229459445,0.19852941176470587
0.0520229459445,0.20588235294117646
0.0523187801696,0.21323529411764705
0.0523187801696,0.22058823529411764
0.0527613212944,0.22794117647058823
0.0527613212944,0.23529411764705882
0.0527912711956,0.2426470588235294
0.0527912711956,0.25
0.0529748456551,0.25735294117647056
0.0529748456551,0.2647058823529412
0.0534829099333,0.27205882352941174
0.0534829099333,0.27941176470588236
0.0537522364127,0.2867647058823529
0.0537522364127,0.29411764705882354
0.0539501734677,0.3014705882352941
0.0539501734677,0.3088235294117647
0.0539971039749,0.3161764705882353
0.0539971039749,0.3235294117647059
0.0543693151478,0.33088235294117646
0.0543693151478,0.3382352941176471
0.0545923709167,0.34558823529411764
0.0545923709167,0.35294117647058826
0.0546166628893,0.3602941176470588
0.0546166628893,0.36764705882352944
0.0557912082313,0.375
0.0557912082313,0.38235294117647056
0.0567975763462,0.3897058823529412
0.0567975763462,0.39705882352941174
0.05906915092,0.40441176470588236
0.05906915092,0.4117647058823529
0.0699163073073,0.41911764705882354
0.0699163073073,0.4264705882352941
0.419569655282,0.4338235294117647
0.419569655282,0.4411764705882353
1.53234260895,0.4485294117647059
1.53234260895,0.45588235294117646
1.63055424979,0.4632352941176471
1.63055424979,0.47058823529411764
2.04535142768,0.47794117647058826
2.04535142768,0.4852941176470588
2.33011294428,0.49264705882352944
2.33011294428,0.5
2.47997346666,0.5073529411764706
2.47997346666,0.5147058823529411
2.49772970705,0.5220588235294118
2.49772970705,0.5294117647058824
2.58026381128,0.5367647058823529
2.58026381128,0.5441176470588235
3.03181165707,0.5514705882352942
3.03181165707,0.5588235294117647
3.30311009156,0.5661764705882353
3.30311009156,0.5735294117647058
3.78973689666,0.5808823529411765
3.78973689666,0.5882352941176471
3.92166798821,0.5955882352941176
3.92166798821,0.6029411764705882
4.4857902343,0.6102941176470589
4.4857902343,0.6176470588235294
4.8183005394,0.625
4.8183005394,0.6323529411764706
5.06714001968,0.6397058823529411
5.06714001968,0.6470588235294118
5.16196170965,0.6544117647058824
5.16196170965,0.6617647058823529
5.22966183177,0.6691176470588235
5.22966183177,0.6764705882352942
5.64463995977,0.6838235294117647
5.64463995977,0.6911764705882353
5.906915092,0.6985294117647058
5.906915092,0.7058823529411765
5.96209146545,0.7132352941176471
5.96209146545,0.7205882352941176
6.06387165368,0.7279411764705882
6.06387165368,0.7352941176470589
6.09195480997,0.7426470588235294
6.09195480997,0.75
6.4053216099,0.7573529411764706
6.4053216099,0.7647058823529411
6.97748785809,0.7720588235294118
6.97748785809,0.7794117647058824
7.24784983526,0.7867647058823529
7.24784983526,0.7941176470588235
7.48217156908,0.8014705882352942
7.48217156908,0.8088235294117647
8.03004610088,0.8161764705882353
8.03004610088,0.8235294117647058
8.2152562762,0.8308823529411765
8.2152562762,0.8382352941176471
8.6488436693,0.8455882352941176
8.6488436693,0.8529411764705882
9.31193122281,0.8602941176470589
9.31193122281,0.8676470588235294
9.58058973007,0.875
9.58058973007,0.8823529411764706
9.98184408516,0.8897058823529411
9.98184408516,0.8970588235294118
11.4780382861,0.9044117647058824
11.4780382861,0.9117647058823529
13.251558191,0.9191176470588235
13.251558191,0.9264705882352942
13.340504497,0.9338235294117647
13.340504497,0.9411764705882353
16.0740967849,0.9485294117647058
16.0740967849,0.9558823529411765
16.5697699013,0.9632352941176471
16.5697699013,0.9705882352941176
20.9421518988,0.9779411764705882
20.9421518988,0.9852941176470589
23.9720752493,0.9926470588235294
23.9720752493,1.0
