Congestion,CDF
0.0,0.007352941176470588
0.0,0.014705882352941176
0.0,0.022058823529411766
0.0,0.029411764705882353
0.0171404357125,0.03676470588235294
0.0171404357125,0.04411764705882353
0.0182182771334,0.051470588235294115
0.0182182771334,0.058823529411764705
0.0184445510321,0.0661764705882353
0.0184445510321,0.07352941176470588
0.0185261037592,0.08088235294117647
0.0185261037592,0.08823529411764706
0.018832646223,0.09558823529411764
0.018832646223,0.10294117647058823
0.0197902852528,0.11029411764705882
0.0197902852528,0.11764705882352941
0.0206337110548,0.125
0.0206337110548,0.1323529411764706
0.0212160076556,0.13970588235294118
0.0212160076556,0.14705882352941177
0.0221205833183,0.15441176470588236
0.0221205833183,0.16176470588235295
0.0223309515207,0.16911764705882354
0.0223309515207,0.17647058823529413
0.0226386336096,0.18382352941176472
0.0226386336096,0.19117647058823528
0.0236770571846,0.19852941176470587
0.0236770571846,0.20588235294117646
0.0241530094155,0.21323529411764705
0.0241530094155,0.22058823529411764
0.0241739785455,0.22794117647058823
0.0241739785455,0.23529411764705882
0.0248384103487,0.2426470588235294
0.0248384103487,0.25
0.0248945081305,0.25735294117647056
0.0248945081305,0.2647058823529412
0.0251832900945,0.27205882352941174
0.0251832900945,0.27941176470588236
0.0257947936078,0.2867647058823529
0.0257947936078,0.29411764705882354
0.0258416873951,0.3014705882352941
0.0258416873951,0.3088235294117647
0.0265796309348,0.3161764705882353
0.0265796309348,0.3235294117647059
0.0270683664768,0.33088235294117646
0.0270683664768,0.3382352941176471
0.0276841124204,0.34558823529411764
0.0276841124204,0.35294117647058826
0.0294979158259,0.3602941176470588
0.0294979158259,0.36764705882352944
0.0295158242153,0.375
0.0295158242153,0.38235294117647056
0.0298481543348,0.3897058823529412
0.0298481543348,0.39705882352941174
0.0315448111973,0.40441176470588236
0.0315448111973,0.4117647058823529
0.0323695836831,0.41911764705882354
0.0323695836831,0.4264705882352941
0.034343270087,0.4338235294117647
0.034343270087,0.4411764705882353
0.479318677861,0.4485294117647059
0.479318677861,0.45588235294117646
0.652899509172,0.4632352941176471
0.652899509172,0.47058823529411764
0.780904003458,0.47794117647058826
0.780904003458,0.4852941176470588
0.803864691237,0.49264705882352944
0.803864691237,0.5
1.01430692683,0.5073529411764706
1.01430692683,0.5147058823529411
1.26138903879,0.5220588235294118
1.26138903879,0.5294117647058824
1.31058709615,0.5367647058823529
1.31058709615,0.5441176470588235
1.33106054932,0.5514705882352942
1.33106054932,0.5588235294117647
1.73742500599,0.5661764705882353
1.73742500599,0.5735294117647058
1.86545570616,0.5808823529411765
1.86545570616,0.5882352941176471
1.96458393628,0.5955882352941176
1.96458393628,0.6029411764705882
2.03192646549,0.6102941176470589
2.03192646549,0.6176470588235294
2.06654906872,0.625
2.06654906872,0.6323529411764706
2.22038793476,0.6397058823529411
2.22038793476,0.6470588235294118
2.76841124204,0.6544117647058824
2.76841124204,0.6617647058823529
2.81342600901,0.6691176470588235
2.81342600901,0.6764705882352942
2.83614343451,0.6838235294117647
2.83614343451,0.6911764705882353
2.94979158259,0.6985294117647058
2.94979158259,0.7058823529411765
3.03578318326,0.7132352941176471
3.03578318326,0.7205882352941176
3.19620494501,0.7279411764705882
3.19620494501,0.7352941176470589
3.22445631847,0.7426470588235294
3.22445631847,0.75
3.23695836831,0.7573529411764706
3.23695836831,0.7647058823529411
3.4343270087,0.7720588235294118
3.4343270087,0.7794117647058824
3.67733136921,0.7867647058823529
3.67733136921,0.7941176470588235
4.140220575,0.8014705882352942
4.140220575,0.8088235294117647
4.19697303621,0.8161764705882353
4.19697303621,0.8235294117647058
4.40726683701,0.8308823529411765
4.40726683701,0.8382352941176471
4.68900742752,0.8455882352941176
4.68900742752,0.8529411764705882
4.8389542131,0.8602941176470589
4.8389542131,0.8676470588235294
4.94199689293,0.875
4.94199689293,0.8823529411764706
5.13074232483,0.8897058823529411
5.13074232483,0.8970588235294118
6.51443439512,0.9044117647058824
6.51443439512,0.9117647058823529
7.52571826815,0.9191176470588235
7.52571826815,0.9264705882352942
7.90062598831,0.9338235294117647
7.90062598831,0.9411764705882353
9.63072040095,0.9485294117647058
9.63072040095,0.9558823529411765
9.82576649675,0.9632352941176471
9.82576649675,0.9705882352941176
13.0055599978,0.9779411764705882
13.0055599978,0.9852941176470589
15.0771849095,0.9926470588235294
15.0771849095,1.0
