Congestion,CDF
0.0,0.007352941176470588
0.0,0.014705882352941176
0.0315309595382,0.022058823529411766
0.0315309595382,0.029411764705882353
0.0316452364149,0.03676470588235294
0.0316452364149,0.04411764705882353
0.0318913889896,0.051470588235294115
0.0318913889896,0.058823529411764705
0.0319308888783,0.0661764705882353
0.0319308888783,0.07352941176470588
0.0320060133587,0.08088235294117647
0.0320060133587,0.08823529411764706
0.0330192724485,0.09558823529411764
0.0330192724485,0.10294117647058823
0.0332970482779,0.11029411764705882
0.0332970482779,0.11764705882352941
0.0351561744309,0.125
0.0351561744309,0.1323529411764706
0.035815171395,0.13970588235294118
0.035815171395,0.14705882352941177
0.0363014471285,0.15441176470588236
0.0363014471285,0.16176470588235295
0.0363341547969,0.16911764705882354
0.0363341547969,0.17647058823529413
0.0369329514113,0.18382352941176472
0.0369329514113,0.19117647058823528
0.0373427069768,0.19852941176470587
0.0373427069768,0.20588235294117646
0.0380029967883,0.21323529411764705
0.0380029967883,0.22058823529411764
0.038196819499,0.22794117647058823
0.038196819499,0.23529411764705882
0.0386507832607,0.2426470588235294
0.0386507832607,0.25
0.03894800076,0.25735294117647056
0.03894800076,0.2647058823529412
0.0396115296979,0.27205882352941174
0.0396115296979,0.27941176470588236
0.039778542083,0.2867647058823529
0.039778542083,0.29411764705882354
0.0398451957493,0.3014705882352941
0.0398451957493,0.3088235294117647
0.0403867534443,0.3161764705882353
0.0403867534443,0.3235294117647059
0.0414696290221,0.33088235294117646
0.0414696290221,0.3382352941176471
0.0417294823541,0.34558823529411764
0.0417294823541,0.35294117647058826
0.0419034951377,0.3602941176470588
0.0419034951377,0.36764705882352944
0.0422545490983,0.375
0.0422545490983,0.38235294117647056
0.0434758997175,0.3897058823529412
0.0434758997175,0.39705882352941174
0.0440530325199,0.40441176470588236
0.0440530325199,0.4117647058823529
0.044387851473,0.41911764705882354
0.044387851473,0.4264705882352941
0.0480217496805,0.4338235294117647
0.0480217496805,0.4411764705882353
1.00944369434,0.4485294117647059
1.00944369434,0.45588235294117646
1.15510887553,0.4632352941176471
1.15510887553,0.47058823529411764
1.50172731843,0.47794117647058826
1.50172731843,0.4852941176470588
1.53790115444,0.49264705882352944
1.53790115444,0.5
1.5758871127,0.5073529411764706
1.5758871127,0.5147058823529411
1.93156318316,0.5220588235294118
1.93156318316,0.5294117647058824
1.95885458598,0.5367647058823529
1.95885458598,0.5441176470588235
2.32144500014,0.5514705882352942
2.32144500014,0.5588235294117647
2.40196709561,0.5661764705882353
2.40196709561,0.5735294117647058
2.99838575633,0.5808823529411765
2.99838575633,0.5882352941176471
3.02384537121,0.5955882352941176
3.02384537121,0.6029411764705882
3.3644942501,0.6102941176470589
3.3644942501,0.6176470588235294
3.37102717928,0.625
3.37102717928,0.6323529411764706
3.7326403325,0.6397058823529411
3.7326403325,0.6470588235294118
4.11503201333,0.6544117647058824
4.11503201333,0.6617647058823529
4.17294823541,0.6691176470588235
4.17294823541,0.6764705882352942
4.47071603618,0.6838235294117647
4.47071603618,0.6911764705882353
4.52348476719,0.6985294117647058
4.52348476719,0.7058823529411765
4.71020476246,0.7132352941176471
4.71020476246,0.7205882352941176
4.76149264574,0.7279411764705882
4.76149264574,0.7352941176470589
4.80217496805,0.7426470588235294
4.80217496805,0.75
4.85799767892,0.7573529411764706
4.85799767892,0.7647058823529411
5.3955690626,0.7720588235294118
5.3955690626,0.7794117647058824
5.80822651531,0.7867647058823529
5.80822651531,0.7941176470588235
5.8316052858,0.8014705882352942
5.8316052858,0.8088235294117647
6.36168652915,0.8161764705882353
6.36168652915,0.8235294117647058
6.74955706736,0.8308823529411765
6.74955706736,0.8382352941176471
7.18537804763,0.8455882352941176
7.18537804763,0.8529411764705882
7.37741697287,0.8602941176470589
7.37741697287,0.8676470588235294
7.44920372534,0.875
7.44920372534,0.8823529411764706
7.89079315782,0.8897058823529411
7.89079315782,0.8970588235294118
9.44443212231,0.9044117647058824
9.44443212231,0.9117647058823529
10.9927346426,0.9191176470588235
10.9927346426,0.9264705882352942
11.2035847421,0.9338235294117647
11.2035847421,0.9411764705882353
13.5504707007,0.9485294117647058
13.5504707007,0.9558823529411765
13.8236690775,0.9632352941176471
13.8236690775,0.9705882352941176
17.8943736411,0.9779411764705882
17.8943736411,0.9852941176470589
20.6218671921,0.9926470588235294
20.6218671921,1.0
