Congestion,CDF
0.0541129588455,0.007352941176470588
0.0541129588455,0.014705882352941176
0.0546542214678,0.022058823529411766
0.0546542214678,0.029411764705882353
0.0554359471573,0.03676470588235294
0.0554359471573,0.04411764705882353
0.055552180842,0.051470588235294115
0.055552180842,0.058823529411764705
0.0555888086864,0.0661764705882353
0.0555888086864,0.07352941176470588
0.0562162825167,0.08088235294117647
0.0562162825167,0.08823529411764706
0.056298665496,0.09558823529411764
0.056298665496,0.10294117647058823
0.056910661404,0.11029411764705882
0.056910661404,0.11764705882352941
0.0570682407052,0.125
0.0570682407052,0.1323529411764706
0.0575269492126,0.13970588235294118
0.0575269492126,0.14705882352941177
0.0575454910739,0.15441176470588236
0.0575454910739,0.16176470588235295
0.0578273579832,0.16911764705882354
0.0578273579832,0.17647058823529413
0.0582497586061,0.18382352941176472
0.0582497586061,0.19117647058823528
0.0585972322071,0.19852941176470587
0.0585972322071,0.20588235294117646
0.0587573273183,0.21323529411764705
0.0587573273183,0.22058823529411764
0.0593176307647,0.22794117647058823
0.0593176307647,0.23529411764705882
0.0593808331102,0.2426470588235294
0.0593808331102,0.25
0.0594247624439,0.25735294117647056
0.0594247624439,0.2647058823529412
0.0598372916149,0.27205882352941174
0.0598372916149,0.27941176470588236
0.0602969807788,0.2867647058823529
0.0602969807788,0.29411764705882354
0.0604155582438,0.3014705882352941
0.0604155582438,0.3088235294117647
0.0605232093935,0.3161764705882353
0.0605232093935,0.3235294117647059
0.0609135008747,0.33088235294117646
0.0609135008747,0.3382352941176471
0.0609891137443,0.34558823529411764
0.0609891137443,0.35294117647058826
0.0612719331562,0.3602941176470588
0.0612719331562,0.36764705882352944
0.0622195398081,0.375
0.0622195398081,0.38235294117647056
0.0633086606381,0.3897058823529412
0.0633086606381,0.39705882352941174
0.0659540480554,0.40441176470588236
0.0659540480554,0.4117647058823529
0.0752713957514,0.41911764705882354
0.0752713957514,0.4264705882352941
0.471425295382,0.4338235294117647
0.471425295382,0.4411764705882353
1.74391177154,0.4485294117647059
1.74391177154,0.45588235294117646
1.83471365051,0.4632352941176471
1.83471365051,0.47058823529411764
2.30135383403,0.47794117647058826
2.30135383403,0.4852941176470588
2.65479557607,0.49264705882352944
2.65479557607,0.5
2.80580750087,0.5073529411764706
2.80580750087,0.5147058823529411
2.82980529373,0.5220588235294118
2.82980529373,0.5294117647058824
2.88789354893,0.5367647058823529
2.88789354893,0.5441176470588235
3.39507148002,0.5514705882352942
3.39507148002,0.5588235294117647
3.73937794275,0.5661764705882353
3.73937794275,0.5735294117647058
4.25167279596,0.5808823529411765
4.25167279596,0.5882352941176471
4.42597364988,0.5955882352941176
4.42597364988,0.6029411764705882
5.06105052226,0.6102941176470589
5.06105052226,0.6176470588235294
5.45090709269,0.625
5.45090709269,0.6323529411764706
5.72402134422,0.6397058823529411
5.72402134422,0.6470588235294118
5.80046133608,0.6544117647058824
5.80046133608,0.6617647058823529
5.8521006347,0.6691176470588235
5.8521006347,0.6764705882352942
6.30047248268,0.6838235294117647
6.30047248268,0.6911764705882353
6.59540480554,0.6985294117647058
6.59540480554,0.7058823529411765
6.71990841439,0.7132352941176471
6.71990841439,0.7205882352941176
6.80449923214,0.7279411764705882
6.80449923214,0.7352941176470589
6.84693743557,0.7426470588235294
6.84693743557,0.75
7.22693898169,0.7573529411764706
7.22693898169,0.7647058823529411
7.7951275804,0.7720588235294118
7.7951275804,0.7794117647058824
8.18279857052,0.7867647058823529
8.18279857052,0.7941176470588235
8.42065586507,0.8014705882352942
8.42065586507,0.8088235294117647
9.00803723285,0.8161764705882353
9.00803723285,0.8235294117647058
9.19953504753,0.8308823529411765
9.19953504753,0.8382352941176471
9.6616073831,0.8455882352941176
9.6616073831,0.8529411764705882
10.4516401086,0.8602941176470589
10.4516401086,0.8676470588235294
10.8165995157,0.875
10.8165995157,0.8823529411764706
11.2448396245,0.8897058823529411
11.2448396245,0.8970588235294118
12.8538898416,0.9044117647058824
12.8538898416,0.9117647058823529
14.8269476935,0.9191176470588235
14.8269476935,0.9264705882352942
14.9038346221,0.9338235294117647
14.9038346221,0.9411764705882353
17.9183717126,0.9485294117647058
17.9183717126,0.9558823529411765
18.525684698,0.9632352941176471
18.525684698,0.9705882352941176
23.3519677775,0.9779411764705882
23.3519677775,0.9852941176470589
26.7132024948,0.9926470588235294
26.7132024948,1.0
