Congestion,CDF
0.0,0.007352941176470588
0.0,0.014705882352941176
0.000790012532747,0.022058823529411766
0.000790012532747,0.029411764705882353
0.0248674258801,0.03676470588235294
0.0248674258801,0.04411764705882353
0.0252313161707,0.051470588235294115
0.0252313161707,0.058823529411764705
0.0254373930897,0.0661764705882353
0.0254373930897,0.07352941176470588
0.0258944616035,0.08088235294117647
0.0258944616035,0.08823529411764706
0.0259901408564,0.09558823529411764
0.0259901408564,0.10294117647058823
0.0260722689837,0.11029411764705882
0.0260722689837,0.11764705882352941
0.0280076582829,0.125
0.0280076582829,0.1323529411764706
0.0284365977646,0.13970588235294118
0.0284365977646,0.14705882352941177
0.0292814479145,0.15441176470588236
0.0292814479145,0.16176470588235295
0.0297356443354,0.16911764705882354
0.0297356443354,0.17647058823529413
0.0301996363431,0.18382352941176472
0.0301996363431,0.19117647058823528
0.0306858487495,0.19852941176470587
0.0306858487495,0.20588235294117646
0.031241321891,0.21323529411764705
0.031241321891,0.22058823529411764
0.0317798034634,0.22794117647058823
0.0317798034634,0.23529411764705882
0.03197284198,0.2426470588235294
0.03197284198,0.25
0.0324226739565,0.25735294117647056
0.0324226739565,0.2647058823529412
0.0329014690006,0.27205882352941174
0.0329014690006,0.27941176470588236
0.0332107389086,0.2867647058823529
0.0332107389086,0.29411764705882354
0.0332829352337,0.3014705882352941
0.0332829352337,0.3088235294117647
0.0334109505767,0.3161764705882353
0.0334109505767,0.3235294117647059
0.0350930750232,0.33088235294117646
0.0350930750232,0.3382352941176471
0.0351786561942,0.34558823529411764
0.0351786561942,0.35294117647058826
0.0354985371897,0.3602941176470588
0.0354985371897,0.36764705882352944
0.0364796116782,0.375
0.0364796116782,0.38235294117647056
0.0369941669445,0.3897058823529412
0.0369941669445,0.39705882352941174
0.0380567847039,0.40441176470588236
0.0380567847039,0.4117647058823529
0.0385704046667,0.41911764705882354
0.0385704046667,0.4264705882352941
0.0412819734009,0.4338235294117647
0.0412819734009,0.4411764705882353
0.755656935394,0.4485294117647059
0.755656935394,0.45588235294117646
0.986585410824,0.4632352941176471
0.986585410824,0.47058823529411764
1.09179473803,0.47794117647058826
1.09179473803,0.4852941176470588
1.20462381458,0.49264705882352944
1.20462381458,0.5
1.30046700072,0.5073529411764706
1.30046700072,0.5147058823529411
1.60607468272,0.5220588235294118
1.60607468272,0.5294117647058824
1.65877111934,0.5367647058823529
1.65877111934,0.5441176470588235
1.85748118336,0.5514705882352942
1.85748118336,0.5588235294117647
2.08552308548,0.5661764705882353
2.08552308548,0.5735294117647058
2.4735249643,0.5808823529411765
2.4735249643,0.5882352941176471
2.55849107445,0.5955882352941176
2.55849107445,0.6029411764705882
2.64157261407,0.6102941176470589
2.64157261407,0.6176470588235294
2.74803977414,0.625
2.74803977414,0.6323529411764706
3.00285299068,0.6397058823529411
3.00285299068,0.6470588235294118
3.51786561942,0.6544117647058824
3.51786561942,0.6617647058823529
3.54906370643,0.6691176470588235
3.54906370643,0.6764705882352942
3.72194661003,0.6838235294117647
3.72194661003,0.6911764705882353
3.77973006726,0.6985294117647058
3.77973006726,0.7058823529411765
3.8578304792,0.7132352941176471
3.8578304792,0.7205882352941176
3.96602662936,0.7279411764705882
3.96602662936,0.7352941176470589
4.10236278585,0.7426470588235294
4.10236278585,0.75
4.12819734009,0.7573529411764706
4.12819734009,0.7647058823529411
4.32875600368,0.7720588235294118
4.32875600368,0.7794117647058824
4.80504000575,0.7867647058823529
4.80504000575,0.7941176470588235
5.02390960217,0.8014705882352942
5.02390960217,0.8088235294117647
5.33907976718,0.8161764705882353
5.33907976718,0.8235294117647058
5.78493977993,0.8308823529411765
5.78493977993,0.8382352941176471
5.99984925514,0.8455882352941176
5.99984925514,0.8529411764705882
6.21043946343,0.8602941176470589
6.21043946343,0.8676470588235294
6.23150475062,0.875
6.23150475062,0.8823529411764706
6.51417532118,0.8897058823529411
6.51417532118,0.8970588235294118
8.08489160899,0.9044117647058824
8.08489160899,0.9117647058823529
9.38461444636,0.9191176470588235
9.38461444636,0.9264705882352942
9.66277820106,0.9338235294117647
9.66277820106,0.9411764705882353
11.7885462396,0.9485294117647058
11.7885462396,0.9558823529411765
11.8752076341,0.9632352941176471
11.8752076341,0.9705882352941176
15.6028330982,0.9779411764705882
15.6028330982,0.9852941176470589
18.012867937,0.9926470588235294
18.012867937,1.0
