Congestion,CDF
0.0,0.007352941176470588
0.0,0.014705882352941176
0.0473106685203,0.022058823529411766
0.0473106685203,0.029411764705882353
0.0489657386462,0.03676470588235294
0.0489657386462,0.04411764705882353
0.0498512294164,0.051470588235294115
0.0498512294164,0.058823529411764705
0.0502909615927,0.0661764705882353
0.0502909615927,0.07352941176470588
0.0503793778489,0.08088235294117647
0.0503793778489,0.08823529411764706
0.0504194913608,0.09558823529411764
0.0504194913608,0.10294117647058823
0.0524262975642,0.11029411764705882
0.0524262975642,0.11764705882352941
0.0525510246231,0.125
0.0525510246231,0.1323529411764706
0.052817411666,0.13970588235294118
0.052817411666,0.14705882352941177
0.0531879038071,0.15441176470588236
0.0531879038071,0.16176470588235295
0.0540108556726,0.16911764705882354
0.0540108556726,0.17647058823529413
0.0540115829392,0.18382352941176472
0.0540115829392,0.19117647058823528
0.0542275469022,0.19852941176470587
0.0542275469022,0.20588235294117646
0.0544053117624,0.21323529411764705
0.0544053117624,0.22058823529411764
0.054508828885,0.22794117647058823
0.054508828885,0.23529411764705882
0.0557447665763,0.2426470588235294
0.0557447665763,0.25
0.0559516242269,0.25735294117647056
0.0559516242269,0.2647058823529412
0.0559883725317,0.27205882352941174
0.0559883725317,0.27941176470588236
0.0560208468711,0.2867647058823529
0.0560208468711,0.29411764705882354
0.0560238352642,0.3014705882352941
0.0560238352642,0.3088235294117647
0.056226954092,0.3161764705882353
0.056226954092,0.3235294117647059
0.056272714672,0.33088235294117646
0.056272714672,0.3382352941176471
0.0564267180031,0.34558823529411764
0.0564267180031,0.35294117647058826
0.0576368630797,0.3602941176470588
0.0576368630797,0.36764705882352944
0.0582797166824,0.375
0.0582797166824,0.38235294117647056
0.0587999464771,0.3897058823529412
0.0587999464771,0.39705882352941174
0.0589664894372,0.40441176470588236
0.0589664894372,0.4117647058823529
0.0638443143872,0.41911764705882354
0.0638443143872,0.4264705882352941
0.193999945095,0.4338235294117647
0.193999945095,0.4411764705882353
1.59698419225,0.4485294117647059
1.59698419225,0.45588235294117646
1.63645762976,0.4632352941176471
1.63645762976,0.47058823529411764
2.12855706539,0.47794117647058826
2.12855706539,0.4852941176470588
2.42200582563,0.49264705882352944
2.42200582563,0.5
2.52195376149,0.5073529411764706
2.52195376149,0.5147058823529411
2.6808837093,0.5220588235294118
2.6808837093,0.5294117647058824
2.71933602016,0.5367647058823529
2.71933602016,0.5441176470588235
3.19791987267,0.5514705882352942
3.19791987267,0.5588235294117647
3.45670032854,0.5661764705882353
3.45670032854,0.5735294117647058
4.08068250517,0.5808823529411765
4.08068250517,0.5882352941176471
4.21645345087,0.5955882352941176
4.21645345087,0.6029411764705882
4.81830164187,0.6102941176470589
4.81830164188,0.6176470588235294
5.1004977277,0.625
5.1004977277,0.6323529411764706
5.42387319533,0.6397058823529411
5.42387319533,0.6470588235294118
5.49962571755,0.6544117647058824
5.49962571755,0.6617647058823529
5.6272714672,0.6691176470588235
5.6272714672,0.6764705882352942
5.97553135285,0.6838235294117647
5.97553135285,0.6911764705882353
6.38443143872,0.6985294117647058
6.38443143872,0.7058823529411765
6.42822445928,0.7132352941176471
6.42822445928,0.7205882352941176
6.58579041032,0.7279411764705882
6.58579041032,0.7352941176470589
6.58805646641,0.7426470588235294
6.58805646641,0.75
6.87501598776,0.7573529411764706
6.87501598776,0.7647058823529411
7.60367457797,0.7720588235294118
7.60367457797,0.7794117647058824
7.82743967346,0.7867647058823529
7.82743967346,0.7941176470588235
8.13947232795,0.8014705882352942
8.13947232795,0.8088235294117647
8.72384320708,0.8161764705882353
8.72384320708,0.8235294117647058
8.98044250024,0.8308823529411765
8.98044250024,0.8382352941176471
9.44006504295,0.8455882352941176
9.44006504295,0.8529411764705882
10.1758080805,0.8602941176470589
10.1758080805,0.8676470588235294
10.4498450658,0.875
10.4498450658,0.8823529411764706
10.943170976,0.8897058823529411
10.943170976,0.8970588235294118
12.5815843679,0.9044117647058824
12.5815843679,0.9117647058823529
14.5831637943,0.9191176470588235
14.5831637943,0.9264705882352942
14.6872165688,0.9338235294117647
14.6872165688,0.9411764705882353
17.6526455296,0.9485294117647058
17.6526455296,0.9558823529411765
18.2446669487,0.9632352941176471
18.2446669487,0.9705882352941176
23.1231975006,0.9779411764705882
23.1231975006,0.9852941176470589
26.5038588502,0.9926470588235294
26.5038588502,1.0
