Congestion,CDF
0.0,0.007352941176470588
0.0,0.014705882352941176
0.0511911300672,0.022058823529411766
0.0511911300672,0.029411764705882353
0.0527645117502,0.03676470588235294
0.0527645117502,0.04411764705882353
0.0529919836191,0.051470588235294115
0.0529919836191,0.058823529411764705
0.053712551326,0.0661764705882353
0.053712551326,0.07352941176470588
0.0537706782771,0.08088235294117647
0.0537706782771,0.08823529411764706
0.0543715459018,0.09558823529411764
0.0543715459018,0.10294117647058823
0.0555606557632,0.11029411764705882
0.0555606557632,0.11764705882352941
0.0558697427105,0.125
0.0558697427105,0.1323529411764706
0.0559558025691,0.13970588235294118
0.0559558025691,0.14705882352941177
0.056091255063,0.15441176470588236
0.056091255063,0.16176470588235295
0.0566449027207,0.16911764705882354
0.0566449027207,0.17647058823529413
0.0568292694505,0.18382352941176472
0.0568292694505,0.19117647058823528
0.0575800195939,0.19852941176470587
0.0575800195939,0.20588235294117646
0.0577691917829,0.21323529411764705
0.0577691917829,0.22058823529411764
0.0579780462405,0.22794117647058823
0.0579780462405,0.23529411764705882
0.0584618518861,0.2426470588235294
0.0584618518861,0.25
0.0588423787781,0.25735294117647056
0.0588423787781,0.2647058823529412
0.0589372506078,0.27205882352941174
0.0589372506078,0.27941176470588236
0.0589958735313,0.2867647058823529
0.0589958735313,0.29411764705882354
0.05925835046,0.3014705882352941
0.05925835046,0.3088235294117647
0.0593288850313,0.3161764705882353
0.0593288850313,0.3235294117647059
0.0594654732935,0.33088235294117646
0.0594654732935,0.3382352941176471
0.0595894883205,0.34558823529411764
0.0595894883205,0.35294117647058826
0.0604511847955,0.3602941176470588
0.0604511847955,0.36764705882352944
0.0611070329039,0.375
0.0611070329039,0.38235294117647056
0.0616905669636,0.3897058823529412
0.0616905669636,0.39705882352941174
0.0621279885194,0.40441176470588236
0.0621279885194,0.4117647058823529
0.0667085663834,0.41911764705882354
0.0667085663834,0.4264705882352941
0.264940763282,0.4338235294117647
0.264940763282,0.4411764705882353
1.70175676869,0.4485294117647059
1.70175676869,0.45588235294117646
1.74806699475,0.4632352941176471
1.74806699475,0.47058823529411764
2.23440403749,0.47794117647058826
2.23440403749,0.4852941176470588
2.58208495078,0.49264705882352944
2.58208495078,0.5
2.7163210729,0.5073529411764706
2.7163210729,0.5147058823529411
2.80402506353,0.5220588235294118
2.80402506353,0.5294117647058824
2.85635037428,0.5367647058823529
2.85635037428,0.5441176470588235
3.35414775985,0.5514705882352942
3.35414775985,0.5588235294117647
3.67025991804,0.5661764705882353
3.67025991804,0.5735294117647058
4.27111625364,0.5808823529411765
4.27111625364,0.5882352941176471
4.43530237112,0.5955882352941176
4.43530237112,0.6029411764705882
5.07599170366,0.6102941176470589
5.07599170366,0.6176470588235294
5.41414145865,0.625
5.41414145865,0.6323529411764706
5.72889838872,0.6397058823529411
5.72889838872,0.6470588235294118
5.78940733098,0.6544117647058824
5.78940733098,0.6617647058823529
5.88423787781,0.6691176470588235
5.88423787781,0.6764705882352942
6.27337442617,0.6838235294117647
6.27337442617,0.6911764705882353
6.67085663834,0.6985294117647058
6.67085663834,0.7058823529411765
6.76663112786,0.7132352941176471
6.76663112786,0.7205882352941176
6.89496182189,0.7279411764705882
6.89496182189,0.7352941176470589
6.91211484601,0.7426470588235294
6.91211484601,0.75
7.25670298645,0.7573529411764706
7.25670298645,0.7647058823529411
7.92778569726,0.7720588235294118
7.92778569726,0.7794117647058824
8.25003938816,0.7867647058823529
8.25003938816,0.7941176470588235
8.53824017204,0.8014705882352942
8.53824017204,0.8088235294117647
9.13666402716,0.8161764705882353
9.13666402716,0.8235294117647058
9.37254724173,0.8308823529411765
9.37254724173,0.8382352941176471
9.8416867443,0.8455882352941176
9.8416867443,0.8529411764705882
10.6422562228,0.8602941176470589
10.6422562228,0.8676470588235294
10.9788286355,0.875
10.9788286355,0.8823529411764706
11.4607883481,0.8897058823529411
11.4607883481,0.8970588235294118
13.1249226047,0.9044117647058824
13.1249226047,0.9117647058823529
15.187105292,0.9191176470588235
15.187105292,0.9264705882352942
15.2771155678,0.9338235294117647
15.2771155678,0.9411764705882353
18.3523571555,0.9485294117647058
18.3523571555,0.9558823529411765
18.9879166484,0.9632352941176471
18.9879166484,0.9705882352941176
24.0011242807,0.9779411764705882
24.0011242807,0.9852941176470589
27.4867117568,0.9926470588235294
27.4867117568,1.0
