Congestion,CDF
0.0,0.007352941176470588
0.0,0.014705882352941176
0.0,0.022058823529411766
0.0,0.029411764705882353
0.0149359844714,0.03676470588235294
0.0149359844714,0.04411764705882353
0.0158754803083,0.051470588235294115
0.0158754803083,0.058823529411764705
0.0162258511063,0.0661764705882353
0.0162258511063,0.07352941176470588
0.016613535724,0.08088235294117647
0.016613535724,0.08823529411764706
0.0168950858343,0.09558823529411764
0.0168950858343,0.10294117647058823
0.0178803630162,0.11029411764705882
0.0178803630162,0.11764705882352941
0.0184635664554,0.125
0.0184635664554,0.1323529411764706
0.0191147272117,0.13970588235294118
0.0191147272117,0.14705882352941177
0.0198859337839,0.15441176470588236
0.0198859337839,0.16176470588235295
0.0200618961219,0.16911764705882354
0.0200618961219,0.17647058823529413
0.0201095689778,0.18382352941176472
0.0201095689778,0.19117647058823528
0.0213653473221,0.19852941176470587
0.0213653473221,0.20588235294117646
0.021562288147,0.21323529411764705
0.021562288147,0.22058823529411764
0.0221124419715,0.22794117647058823
0.0221124419715,0.23529411764705882
0.0221385809877,0.2426470588235294
0.0221385809877,0.25
0.0226205866656,0.25735294117647056
0.0226205866656,0.2647058823529412
0.0228291966722,0.27205882352941174
0.0228291966722,0.27941176470588236
0.0233304173721,0.2867647058823529
0.0233304173721,0.29411764705882354
0.0233616103726,0.3014705882352941
0.0233616103726,0.3088235294117647
0.0242685831983,0.3161764705882353
0.0242685831983,0.3235294117647059
0.0243953845564,0.33088235294117646
0.0243953845564,0.3382352941176471
0.0252182334443,0.34558823529411764
0.0252182334443,0.35294117647058826
0.0270232638791,0.3602941176470588
0.0270232638791,0.36764705882352944
0.0275946180105,0.375
0.0275946180105,0.38235294117647056
0.0276013747534,0.3897058823529412
0.0276013747534,0.39705882352941174
0.0294276350697,0.40441176470588236
0.0294276350697,0.4117647058823529
0.030307145469,0.41911764705882354
0.030307145469,0.4264705882352941
0.0320282323478,0.4338235294117647
0.0320282323478,0.4411764705882353
0.405117924992,0.4485294117647059
0.405117924992,0.45588235294117646
0.544021097328,0.4632352941176471
0.544021097328,0.47058823529411764
0.664299860569,0.47794117647058826
0.664299860569,0.4852941176470588
0.744510819863,0.49264705882352944
0.744510819863,0.5
0.911814227997,0.5073529411764706
0.911814227997,0.5147058823529411
1.15192273634,0.5220588235294118
1.15192273634,0.5294117647058824
1.15936630257,0.5367647058823529
1.15936630257,0.5441176470588235
1.18721512814,0.5514705882352942
1.18721512814,0.5588235294117647
1.61861980665,0.5661764705882353
1.61861980665,0.5735294117647058
1.64776001678,0.5808823529411765
1.64776001678,0.5882352941176471
1.76743927523,0.5955882352941176
1.76743927523,0.6029411764705882
1.84420292019,0.6102941176470589
1.84420292019,0.6176470588235294
1.85464675008,0.625
1.85464675008,0.6323529411764706
1.99039009148,0.6397058823529411
1.99039009148,0.6470588235294118
2.52182334443,0.6544117647058824
2.52182334443,0.6617647058823529
2.54648325823,0.6691176470588235
2.54648325823,0.6764705882352942
2.55955115779,0.6838235294117647
2.55955115779,0.6911764705882353
2.72232689669,0.6985294117647058
2.72232689669,0.7058823529411765
2.76013747534,0.7132352941176471
2.76013747534,0.7205882352941176
2.87554405772,0.7279411764705882
2.87554405772,0.7352941176470589
2.9188164369,0.7426470588235294
2.9188164369,0.75
3.0307145469,0.7573529411764706
3.0307145469,0.7647058823529411
3.20282323478,0.7720588235294118
3.20282323478,0.7794117647058824
3.3184605045,0.7867647058823529
3.3184605045,0.7941176470588235
3.82687356257,0.8014705882352942
3.82687356257,0.8088235294117647
3.84447375148,0.8161764705882353
3.84447375148,0.8235294117647058
3.8952421866,0.8308823529411765
3.8952421866,0.8382352941176471
4.32094619455,0.8455882352941176
4.32094619455,0.8529411764705882
4.37074661494,0.8602941176470589
4.37074661494,0.8676470588235294
4.40497923527,0.875
4.40497923527,0.8823529411764706
4.77508845652,0.8897058823529411
4.77508845652,0.8970588235294118
5.98096562656,0.9044117647058824
5.98096562656,0.9117647058823529
6.89348487798,0.9191176470588235
6.89348487798,0.9264705882352942
7.31390671214,0.9338235294117647
7.31390671214,0.9411764705882353
8.86453341618,0.9485294117647058
8.86453341618,0.9558823529411765
9.17630128865,0.9632352941176471
9.17630128865,0.9705882352941176
12.128367459,0.9779411764705882
12.128367459,0.9852941176470589
14.0899753477,0.9926470588235294
14.0899753477,1.0
