Congestion,CDF
0.0,0.005555555555555556
0.0,0.011111111111111112
0.0,0.016666666666666666
0.0,0.022222222222222223
0.0,0.027777777777777776
0.0,0.03333333333333333
0.0,0.03888888888888889
0.0,0.044444444444444446
0.0,0.05
0.0,0.05555555555555555
1.0489685175e-06,0.06111111111111111
1.20521437848e-06,0.06666666666666667
2.71283771e-06,0.07222222222222222
3.96497011875e-06,0.07777777777777778
4.05714015373e-06,0.08333333333333333
5.35682165231e-06,0.08888888888888889
5.89321280646e-06,0.09444444444444444
8.12219109115e-06,0.1
8.16409388139e-06,0.10555555555555556
8.35263438806e-06,0.1111111111111111
8.52454118744e-06,0.11666666666666667
9.38377830709e-06,0.12222222222222222
9.60143279393e-06,0.12777777777777777
1.0721861217e-05,0.13333333333333333
1.09813399085e-05,0.1388888888888889
1.15634907993e-05,0.14444444444444443
1.33710220753e-05,0.15
1.46333439337e-05,0.15555555555555556
1.52801586113e-05,0.16111111111111112
1.58919932869e-05,0.16666666666666666
1.6143437248e-05,0.17222222222222222
1.62730904277e-05,0.17777777777777778
1.68122411263e-05,0.18333333333333332
1.73964344607e-05,0.18888888888888888
1.76900937111e-05,0.19444444444444445
1.78898713711e-05,0.2
1.79891244631e-05,0.20555555555555555
1.81957005245e-05,0.2111111111111111
1.83735054371e-05,0.21666666666666667
1.8413824162e-05,0.2222222222222222
1.90290773281e-05,0.22777777777777777
1.91878345185e-05,0.23333333333333334
1.94080989136e-05,0.2388888888888889
2.10179301502e-05,0.24444444444444444
2.21163585437e-05,0.25
2.40119324016e-05,0.25555555555555554
2.43923345196e-05,0.2611111111111111
2.47433578954e-05,0.26666666666666666
2.55812901282e-05,0.2722222222222222
9.04279236665e-05,0.2777777777777778
0.000180855847333,0.2833333333333333
0.000198248505938,0.28888888888888886
0.000198248505938,0.29444444444444445
0.000204102347035,0.3
0.000204102347035,0.3055555555555556
0.000308999198785,0.3111111111111111
0.000405714015373,0.31666666666666665
0.000408204694069,0.32222222222222224
0.000543496584149,0.3277777777777778
0.000812219109115,0.3333333333333333
0.000844681364016,0.3388888888888889
0.000894493568555,0.34444444444444444
0.000894493568555,0.35
0.00114248017774,0.35555555555555557
0.00173964344607,0.3611111111111111
0.00176900937111,0.36666666666666664
0.00182555754871,0.37222222222222223
0.00196667969026,0.37777777777777777
0.0020807651609,0.38333333333333336
0.0020807651609,0.3888888888888889
0.00237269722515,0.39444444444444443
0.00250750703039,0.4
0.00269624249478,0.40555555555555556
0.00288254048361,0.4111111111111111
0.00358102586227,0.4166666666666667
0.00378624974271,0.4222222222222222
0.00398367289371,0.42777777777777776
0.00489752909352,0.43333333333333335
0.00574998321226,0.4388888888888889
0.00602021979418,0.4444444444444444
0.00743390637745,0.45
0.00842141303434,0.45555555555555555
0.014982802036,0.46111111111111114
0.0162327381366,0.4666666666666667
0.0167543708009,0.4722222222222222
0.0182279220913,0.4777777777777778
0.0190795083951,0.48333333333333334
0.0207860511041,0.4888888888888889
0.0212911442495,0.49444444444444446
0.0224003948289,0.5
0.0226457418353,0.5055555555555555
0.0239828440429,0.5111111111111111
0.0259016274947,0.5166666666666667
0.0260633029213,0.5222222222222223
0.026186950127,0.5277777777777778
0.0261901553315,0.5333333333333333
0.0261963368522,0.5388888888888889
0.0262559615834,0.5444444444444444
0.026299681908,0.55
0.0263091119836,0.5555555555555556
0.0263605264501,0.5611111111111111
0.0264698923934,0.5666666666666667
0.0264715526201,0.5722222222222222
0.0264858080442,0.5777777777777777
0.0264909487754,0.5833333333333334
0.0265197906415,0.5888888888888889
0.0265726807588,0.5944444444444444
0.0265829721261,0.6
0.02660501638,0.6055555555555555
0.0266564870703,0.6111111111111112
0.0266661009401,0.6166666666666667
0.0267274055152,0.6222222222222222
0.0267529839934,0.6277777777777778
0.0267771677882,0.6333333333333333
0.0267813781367,0.6388888888888888
0.0267856160001,0.6444444444444445
0.0268135776316,0.65
0.0268366478663,0.6555555555555556
0.0268482957905,0.6611111111111111
0.0268561810354,0.6666666666666666
0.0268601205756,0.6722222222222223
0.026860798822,0.6777777777777778
0.0268682631262,0.6833333333333333
0.0268768845405,0.6888888888888889
0.0268985663601,0.6944444444444444
0.02690125144,0.7
0.0269162383261,0.7055555555555556
0.0269798935495,0.7111111111111111
0.0270232331651,0.7166666666666667
0.0270983080775,0.7222222222222222
0.0271133277073,0.7277777777777777
0.0271272456579,0.7333333333333333
0.0271601692017,0.7388888888888889
0.0278587096395,0.7444444444444445
0.661788815503,0.75
0.661788815503,0.7555555555555555
0.875198719448,0.7611111111111111
1.02078112209,0.7666666666666667
1.3149840954,0.7722222222222223
1.3149840954,0.7777777777777778
1.32357763101,0.7833333333333333
1.34280905177,0.7888888888888889
1.34280905177,0.7944444444444444
1.7503974389,0.8
2.63091119836,0.8055555555555556
2.64698923934,0.8111111111111111
2.68366478663,0.8166666666666667
2.68482957905,0.8222222222222222
3.28080434865,0.8277777777777777
3.31376787965,0.8333333333333334
3.99312190907,0.8388888888888889
4.00007712765,0.8444444444444444
4.03630219679,0.85
4.22249842415,0.8555555555555555
4.22249842415,0.8611111111111112
5.32890055331,0.8666666666666667
5.37135324068,0.8722222222222222
5.91685699366,0.8777777777777778
6.68690344027,0.8833333333333333
6.86170715062,0.8888888888888888
6.91262356815,0.8944444444444445
8.592155393,0.9
12.2788109104,0.9055555555555556
13.70383926,0.9111111111111111
15.2735775167,0.9166666666666666
16.3524200644,0.9222222222222223
17.9834083245,0.9277777777777778
31.3172430323,0.9333333333333333
32.7529977761,0.9388888888888889
35.4690146963,0.9444444444444444
38.1475762963,0.95
39.3238603645,0.9555555555555556
42.026183681,0.9611111111111111
44.8267780876,0.9666666666666667
46.0016694144,0.9722222222222222
47.4454731003,0.9777777777777777
48.6682795084,0.9833333333333333
49.0687469139,0.9888888888888889
51.3339282154,0.9944444444444445
53.0093652955,1.0
