Congestion,CDF
0.0,0.005555555555555556
0.0,0.011111111111111112
0.0,0.016666666666666666
0.0,0.022222222222222223
0.0,0.027777777777777776
0.0,0.03333333333333333
0.0,0.03888888888888889
0.0,0.044444444444444446
0.0,0.05
0.0,0.05555555555555555
1.04714422045e-06,0.06111111111111111
1.20311834892e-06,0.06666666666666667
2.7081197211e-06,0.07222222222222222
3.95807450354e-06,0.07777777777777778
4.05008424245e-06,0.08333333333333333
5.34750542047e-06,0.08888888888888889
5.8829637184e-06,0.09444444444444444
8.10806551068e-06,0.1
8.14989542635e-06,0.10555555555555556
8.33810803577e-06,0.1111111111111111
8.50971586616e-06,0.11666666666666667
9.36745865712e-06,0.12222222222222222
9.5847346136e-06,0.12777777777777777
1.07032144613e-05,0.13333333333333333
1.09622418845e-05,0.1388888888888889
1.15433803368e-05,0.14444444444444443
1.33477680733e-05,0.15
1.46078945845e-05,0.15555555555555556
1.52535843646e-05,0.16111111111111112
1.58643549775e-05,0.16666666666666666
1.61153616439e-05,0.17222222222222222
1.62447893393e-05,0.17777777777777778
1.67830023824e-05,0.18333333333333332
1.73661797262e-05,0.18888888888888888
1.76593282638e-05,0.19444444444444445
1.78587584836e-05,0.2
1.79578389612e-05,0.20555555555555555
1.81640557591e-05,0.2111111111111111
1.8341551445e-05,0.21666666666666667
1.83818000503e-05,0.2222222222222222
1.89959832086e-05,0.22777777777777777
1.91544642988e-05,0.23333333333333334
1.93743456247e-05,0.2388888888888889
2.09813771487e-05,0.24444444444444444
2.20778952278e-05,0.25
2.39701724283e-05,0.25555555555555554
2.4349912976e-05,0.2611111111111111
2.4700325875e-05,0.26666666666666666
2.55368008311e-05,0.2722222222222222
9.02706573701e-05,0.2777777777777778
0.00018054131474,0.2833333333333333
0.000197903725177,0.28888888888888886
0.000197903725177,0.29444444444444445
0.000203747385659,0.3
0.000203747385659,0.3055555555555556
0.000308461807704,0.3111111111111111
0.000405008424245,0.31666666666666665
0.000407494771317,0.32222222222222224
0.000542551370641,0.3277777777777778
0.000810806551068,0.3333333333333333
0.000843212349751,0.3388888888888889
0.00089293792418,0.34444444444444444
0.00089293792418,0.35
0.00114049325137,0.35555555555555557
0.00173661797262,0.3611111111111111
0.00176593282638,0.36666666666666664
0.0018223826591,0.37222222222222223
0.00196325937031,0.37777777777777777
0.002077146431,0.38333333333333336
0.002077146431,0.3888888888888889
0.00236857078621,0.39444444444444443
0.00250314613911,0.4
0.00269155336719,0.40555555555555556
0.00287752735881,0.4111111111111111
0.00357479797765,0.4166666666666667
0.00377966494622,0.4222222222222222
0.00397674475186,0.42777777777777776
0.00488901163308,0.43333333333333335
0.0057399832197,0.4388888888888889
0.00600974982393,0.4444444444444444
0.00742097781648,0.45
0.00840676706676,0.45555555555555555
0.0149567449323,0.46111111111111114
0.0181962212882,0.4666666666666667
0.0190463265692,0.4722222222222222
0.0207499013713,0.4777777777777778
0.0212541160919,0.48333333333333334
0.022246077455,0.4888888888888889
0.0223614375357,0.49444444444444446
0.0226063578508,0.5
0.022720175733,0.5055555555555555
0.0239411346581,0.5111111111111111
0.025856581088,0.5166666666666667
0.0260179753393,0.5222222222222223
0.0264448774598,0.5277777777777778
0.0268517861429,0.5333333333333333
0.0278102596043,0.5388888888888889
0.0309575329718,0.5444444444444444
0.0309609828326,0.55
0.0309663919331,0.5555555555555556
0.031018563547,0.5611111111111111
0.0310561547923,0.5666666666666667
0.0310650682266,0.5722222222222222
0.0311100575609,0.5777777777777777
0.0312057525677,0.5833333333333334
0.0312072056429,0.5888888888888889
0.0312196791524,0.5944444444444444
0.0312494140075,0.6
0.0312956891514,0.6055555555555555
0.0313046977542,0.6111111111111112
0.0313238754933,0.6166666666666667
0.0313687739566,0.6222222222222222
0.0313765925941,0.6277777777777778
0.031431077022,0.6333333333333333
0.031453457894,0.6388888888888888
0.0314746170163,0.6444444444444445
0.0314771113253,0.65
0.0314818397784,0.6555555555555556
0.0315064774979,0.6611111111111111
0.0315266597033,0.6666666666666666
0.031536855887,0.6722222222222223
0.0315437535071,0.6777777777777778
0.0315467212394,0.6833333333333333
0.0315472023777,0.6888888888888889
0.0315543236962,0.6944444444444444
0.0315618667906,0.7
0.0315831921099,0.7055555555555556
0.0315963052571,0.7111111111111111
0.0316520020871,0.7166666666666667
0.0316899117392,0.7222222222222222
0.0317556154044,0.7277777777777777
0.0317687544826,0.7333333333333333
0.0317809370942,0.7388888888888889
0.0318097186761,0.7444444444444445
0.780180141072,0.75
0.780180141072,0.7555555555555555
1.03395211823,0.7611111111111111
1.20693108596,0.7666666666666667
1.55280773962,0.7722222222222223
1.55280773962,0.7777777777777778
1.56036028214,0.7833333333333333
1.57718767536,0.7888888888888889
1.57718767536,0.7944444444444444
2.06790423646,0.8
3.10650682266,0.8055555555555556
3.12057525677,0.8111111111111111
3.15266597033,0.8166666666666667
3.1536855887,0.8222222222222222
3.87627842433,0.8277777777777777
3.90512154183,0.8333333333333334
4.70051887215,0.8388888888888889
4.70675659049,0.8444444444444444
4.73845399156,0.85
4.96841400172,0.8555555555555555
4.96841400172,0.8611111111111112
6.27170703137,0.8666666666666667
6.30885264938,0.8722222222222222
6.98728418042,0.8777777777777778
7.86218896012,0.8833333333333333
8.08218136226,0.8888888888888888
8.12673321271,0.8944444444444445
10.1326299698,0.9
14.4310665512,0.9055555555555556
16.1472345573,0.9111111111111111
17.9900234277,0.9166666666666666
19.2692024725,0.9222222222222223
21.1655849681,0.9277777777777778
36.8549892615,0.9333333333333333
38.5135020259,0.9388888888888889
41.6944738935,0.9444444444444444
44.8426578713,0.95
46.2741579945,0.9555555555555556
49.4431491684,0.9611111111111111
52.6978488674,0.9666666666666667
54.1283444574,0.9722222222222222
55.7936021646,0.9777777777777777
57.2660037168,0.9833333333333333
58.0182099101,0.9888888888888889
60.4028811124,0.9944444444444445
62.6748986857,1.0
