Congestion,CDF
0.0,0.005555555555555556
0.0,0.011111111111111112
0.0,0.016666666666666666
0.0,0.022222222222222223
0.0,0.027777777777777776
0.0,0.03333333333333333
0.0,0.03888888888888889
0.0,0.044444444444444446
0.0,0.05
0.0,0.05555555555555555
1.04677294816e-06,0.06111111111111111
1.20269177491e-06,0.06666666666666667
2.70715953836e-06,0.07222222222222222
3.9566711406e-06,0.07777777777777778
4.04864825682e-06,0.08333333333333333
5.3456094251e-06,0.08888888888888889
5.88087787256e-06,0.09444444444444444
8.10519073947e-06,0.1
8.14700582405e-06,0.10555555555555556
8.33515170138e-06,0.1111111111111111
8.50669868701e-06,0.11666666666666667
9.36413735928e-06,0.12222222222222222
9.58133627905e-06,0.12777777777777777
1.06994195619e-05,0.13333333333333333
1.09583551451e-05,0.1388888888888889
1.15392875507e-05,0.14444444444444443
1.3343035529e-05,0.15
1.46027152535e-05,0.15555555555555556
1.52481760998e-05,0.16111111111111112
1.58587301598e-05,0.16666666666666666
1.610964783e-05,0.17222222222222222
1.62390296358e-05,0.17777777777777778
1.67770518518e-05,0.18333333333333332
1.7360022426e-05,0.18888888888888888
1.76530670257e-05,0.19444444444444445
1.78524265362e-05,0.2
1.79514718841e-05,0.20555555555555555
1.81576155663e-05,0.2111111111111111
1.83350483199e-05,0.21666666666666667
1.83752826548e-05,0.2222222222222222
1.89892480501e-05,0.22777777777777777
1.91476729499e-05,0.23333333333333334
1.93674763152e-05,0.2388888888888889
2.0973938055e-05,0.24444444444444444
2.20700673559e-05,0.25
2.39616736364e-05,0.25555555555555554
2.43412795444e-05,0.2611111111111111
2.46915682021e-05,0.26666666666666666
2.55277465802e-05,0.2722222222222222
9.02386512785e-05,0.2777777777777778
0.000180477302557,0.2833333333333333
0.00019783355703,0.28888888888888886
0.00019783355703,0.29444444444444445
0.000203675145601,0.3
0.000203675145601,0.3055555555555556
0.000308352440417,0.3111111111111111
0.000404864825682,0.31666666666666665
0.000407350291202,0.32222222222222224
0.000542359005266,0.3277777777777778
0.000810519073947,0.3333333333333333
0.000842913382928,0.3388888888888889
0.000892621326808,0.34444444444444444
0.000892621326808,0.35
0.00114008888153,0.35555555555555557
0.0017360022426,0.3611111111111111
0.00176530670257,0.36666666666666664
0.00182173652061,0.37222222222222223
0.001962563283,0.37777777777777777
0.00207640996424,0.38333333333333336
0.00207640996424,0.3888888888888889
0.00236773099291,0.39444444444444443
0.00250225863118,0.4
0.00269059905816,0.40555555555555556
0.00287650711141,0.4111111111111111
0.00357353050808,0.4166666666666667
0.00377832483963,0.4222222222222222
0.00397533476925,0.42777777777777776
0.00488727819989,0.43333333333333335
0.00573794806859,0.4388888888888889
0.00600761902519,0.4444444444444444
0.00741834665701,0.45
0.00840378638883,0.45555555555555555
0.014951441914,0.46111111111111114
0.018189769691,0.4666666666666667
0.0190395735612,0.4722222222222222
0.020742544349,0.4777777777777778
0.0212465802967,0.48333333333333334
0.022353509132,0.4888888888888889
0.0225983426088,0.49444444444444446
0.0237425759281,0.5
0.0239326461617,0.5055555555555555
0.0242035531719,0.5111111111111111
0.0258474134567,0.5166666666666667
0.0260087504846,0.5222222222222223
0.026435501244,0.5277777777777778
0.0268422656547,0.5333333333333333
0.0278003992826,0.5388888888888889
0.0321485673393,0.5444444444444444
0.0321536897079,0.55
0.0321589057033,0.5555555555555556
0.0322092140378,0.5611111111111111
0.0322452669322,0.5666666666666667
0.0322540572873,0.5722222222222222
0.0322974403386,0.5777777777777777
0.0323897176112,0.5833333333333334
0.0323911188986,0.5888888888888889
0.0324031469294,0.5944444444444444
0.032431819849,0.6
0.0324764412495,0.6055555555555555
0.0324851291612,0.6111111111111112
0.0325035893222,0.6166666666666667
0.0325454280384,0.6222222222222222
0.0325541777387,0.6277777777777778
0.0326069948987,0.6333333333333333
0.0326285763691,0.6388888888888888
0.0326489793226,0.6444444444444445
0.0326510306445,0.65
0.0326558942608,0.6555555555555556
0.0326797024645,0.6611111111111111
0.0326991626624,0.6666666666666666
0.0327089959111,0.6722222222222223
0.032715646625,0.6777777777777778
0.0327181535444,0.6833333333333333
0.0327189728282,0.6888888888888889
0.0327258388385,0.6944444444444444
0.0327331123528,0.7
0.0327536772773,0.7055555555555556
0.0327663219899,0.7111111111111111
0.0328200292214,0.7166666666666667
0.0328565813577,0.7222222222222222
0.032919942236,0.7277777777777777
0.032932611175,0.7333333333333333
0.0329443599533,0.7388888888888889
0.0329721059991,0.7444444444444445
0.809777972465,0.75
0.809777972465,0.7555555555555555
1.07364046793,0.7611111111111111
1.25345052918,0.7666666666666667
1.61226334661,0.7722222222222223
1.61226334661,0.7777777777777778
1.61955594493,0.7833333333333333
1.63578233125,0.7888888888888889
1.63578233125,0.7944444444444444
2.14728093586,0.8
3.22540572873,0.8055555555555556
3.23897176112,0.8111111111111111
3.26991626624,0.8166666666666667
3.27089959111,0.8222222222222222
4.02514694325,0.8277777777777777
4.05295995737,0.8333333333333334
4.87736641106,0.8388888888888889
4.8834264562,0.8444444444444444
4.91399194026,0.85
5.15489289612,0.8555555555555555
5.15489289612,0.8611111111111112
6.50740865087,0.8666666666666667
6.54322750152,0.8722222222222222
7.25489097711,0.8777777777777778
8.15601034005,0.8833333333333333
8.38729991517,0.8888888888888888
8.43026062385,0.8944444444444445
10.517748614,0.9
14.9691304614,0.9055555555555556
16.7580833816,0.9111111111111111
18.6691349054,0.9166666666666666
19.9983980746,0.9222222222222223
21.961129129,0.9277777777777778
38.2394258188,0.9333333333333333
39.9536280881,0.9388888888888889
43.250838688,0.9444444444444444
46.516428114,0.95
48.0117324019,0.9555555555555556
51.2973905377,0.9611111111111111
54.6656098795,0.9666666666666667
56.1600128165,0.9722222222222222
57.8804666135,0.9777777777777777
59.4154305904,0.9833333333333333
60.2547242063,0.9888888888888889
62.6699733942,0.9944444444444445
65.0903287114,1.0
