Congestion,CDF
0.0,0.005555555555555556
0.0,0.011111111111111112
0.0,0.016666666666666666
0.0,0.022222222222222223
0.0,0.027777777777777776
0.0,0.03333333333333333
0.0,0.03888888888888889
0.0,0.044444444444444446
0.0,0.05
0.0,0.05555555555555555
1.0537732455e-06,0.06111111111111111
1.21073477988e-06,0.06666666666666667
2.72526367616e-06,0.07222222222222222
3.98313139111e-06,0.07777777777777778
4.07572360458e-06,0.08333333333333333
5.38135820469e-06,0.08888888888888889
5.92020626155e-06,0.09444444444444444
8.15939422765e-06,0.1
8.20148895073e-06,0.10555555555555556
8.3908930542e-06,0.1111111111111111
8.56358726083e-06,0.11666666666666667
9.42676005688e-06,0.12222222222222222
9.6454114951e-06,0.12777777777777777
1.07709719634e-05,0.13333333333333333
1.10316391791e-05,0.1388888888888889
1.16164565719e-05,0.14444444444444443
1.34322671204e-05,0.15
1.4700370957e-05,0.15555555555555556
1.53501483247e-05,0.16111111111111112
1.59647854668e-05,0.16666666666666666
1.62173811497e-05,0.17222222222222222
1.63476281968e-05,0.17777777777777778
1.68892484381e-05,0.18333333333333332
1.74761176298e-05,0.18888888888888888
1.77711219661e-05,0.19444444444444445
1.79718146939e-05,0.2
1.80715224079e-05,0.20555555555555555
1.82790446767e-05,0.2111111111111111
1.84576640124e-05,0.21666666666666667
1.84981674144e-05,0.2222222222222222
1.91162387053e-05,0.22777777777777777
1.9275723072e-05,0.23333333333333334
1.94969963731e-05,0.2388888888888889
2.11142013307e-05,0.24444444444444444
2.22176609997e-05,0.25
2.41219174031e-05,0.25555555555555554
2.45040619267e-05,0.2611111111111111
2.48566931409e-05,0.26666666666666666
2.56984634645e-05,0.2722222222222222
9.08421225385e-05,0.2777777777777778
0.000181684245077,0.2833333333333333
0.000199156569556,0.28888888888888886
0.000199156569556,0.29444444444444445
0.000205037223768,0.3
0.000205037223768,0.3055555555555556
0.000310414548318,0.3111111111111111
0.000407572360458,0.31666666666666665
0.000410074447537,0.32222222222222224
0.000545986032794,0.3277777777777778
0.000815939422765,0.3333333333333333
0.000848550368787,0.3388888888888889
0.000898590734696,0.34444444444444444
0.000898590734696,0.35
0.00114771322946,0.35555555555555557
0.00174761176298,0.3611111111111111
0.00177711219661,0.36666666666666664
0.00183391938924,0.37222222222222223
0.00197568793103,0.37777777777777777
0.00209029596231,0.38333333333333336
0.00209029596231,0.3888888888888889
0.00238356520126,0.39444444444444443
0.00251899249353,0.4
0.0027085924477,0.40555555555555556
0.00289574376163,0.4111111111111111
0.00359742850442,0.4166666666666667
0.0038035923987,0.4222222222222222
0.00400191983284,0.42777777777777776
0.00491996188799,0.43333333333333335
0.00577632061407,0.4388888888888889
0.00604779499603,0.4444444444444444
0.00746795687326,0.45
0.00845998673634,0.45555555555555555
0.0150514297281,0.46111111111111114
0.0171419854573,0.4666666666666667
0.0172337303597,0.4722222222222222
0.0183114138321,0.4777777777777778
0.0185502581587,0.48333333333333334
0.0186206111622,0.4888888888888889
0.018631634622,0.49444444444444446
0.0186324092013,0.5
0.0186398621111,0.5055555555555555
0.018640548385,0.5111111111111111
0.0186464924685,0.5166666666666667
0.0186529310086,0.5222222222222223
0.0186666003963,0.5277777777777778
0.0186668105624,0.5333333333333333
0.0186685925842,0.5388888888888889
0.0186728409868,0.5444444444444444
0.018679426291,0.55
0.0186807383055,0.5555555555555556
0.0186826889589,0.5611111111111111
0.0186837838065,0.5666666666666667
0.0186967845882,0.5722222222222222
0.0186987928455,0.5777777777777777
0.0187019880805,0.5833333333333334
0.0187048261838,0.5888888888888889
0.0187049991607,0.5944444444444444
0.0187060933052,0.6
0.018709563479,0.6055555555555555
0.0187124175106,0.6111111111111112
0.0187139032487,0.6166666666666667
0.0187148751212,0.6222222222222222
0.0187153799735,0.6277777777777778
0.0187163739004,0.6333333333333333
0.0187174470748,0.6388888888888888
0.0187205229119,0.6444444444444445
0.0187223936266,0.65
0.0187303400961,0.6555555555555556
0.0187356694505,0.6611111111111111
0.018745146149,0.6666666666666666
0.0187470019031,0.6722222222222223
0.0187487724951,0.6777777777777778
0.018752701372,0.6833333333333333
0.0191669007683,0.6888888888888889
0.0208812601786,0.6944444444444444
0.0213886668683,0.7
0.0225029982936,0.7055555555555556
0.0227494690951,0.7111111111111111
0.0240926958071,0.7166666666666667
0.0260202681143,0.7222222222222222
0.026182684084,0.7277777777777777
0.0266122887405,0.7333333333333333
0.0270217733895,0.7388888888888889
0.027986314539,0.7444444444444445
0.466670264061,0.75
0.466670264061,0.7555555555555555
0.621328737037,0.7611111111111111
0.725907937302,0.7666666666666667
0.932027419249,0.7722222222222223
0.932027419249,0.7777777777777778
0.933340528121,0.7833333333333333
0.935743756062,0.7888888888888889
0.935743756062,0.7944444444444444
1.24265747407,0.8
1.86464924685,0.8055555555555556
1.86666003963,0.8111111111111111
1.87124175106,0.8166666666666667
1.87139032487,0.8222222222222222
2.32983372626,0.8277777777777777
2.33395436274,0.8333333333333334
2.80170587807,0.8388888888888889
2.80368638516,0.8444444444444444
2.80821777763,0.85
2.95947454113,0.8555555555555555
2.95947454113,0.8611111111111112
3.73768325646,0.8666666666666667
3.74298645854,0.8722222222222222
4.19512682712,0.8777777777777778
4.6753237752,0.8833333333333333
4.82516238433,0.8888888888888888
4.83152683232,0.8944444444444445
6.06532563517,0.9
8.57387350509,0.9055555555555556
9.64787784559,0.9111111111111111
10.7399687935,0.9166666666666666
11.514737104,0.9222222222222223
12.6144834084,0.9277777777777778
21.9601486064,0.9333333333333333
22.9074938325,0.9388888888888889
24.7827639697,0.9444444444444444
26.653246588,0.95
27.568331779,0.9555555555555556
29.441898724,0.9611111111111111
31.3255617966,0.9666666666666667
32.2421950392,0.9722222222222222
33.1805876125,0.9777777777777777
34.1105734198,0.9833333333333333
34.8947861582,0.9888888888888889
35.972634536,0.9944444444444445
37.696007572,1.0
