Congestion,CDF
0.0,0.009433962264150943
0.0,0.018867924528301886
0.0,0.02830188679245283
0.0,0.03773584905660377
0.0,0.04716981132075472
0.0,0.05660377358490566
0.0,0.0660377358490566
0.0,0.07547169811320754
0.0,0.08490566037735849
0.0,0.09433962264150944
0.0,0.10377358490566038
0.0,0.11320754716981132
0.0,0.12264150943396226
0.0,0.1320754716981132
0.0,0.14150943396226415
0.0,0.1509433962264151
0.0,0.16037735849056603
0.0,0.16981132075471697
0.0,0.1792452830188679
0.0,0.18867924528301888
0.0,0.19811320754716982
0.0,0.20754716981132076
0.0,0.2169811320754717
0.0,0.22641509433962265
0.0,0.2358490566037736
0.0,0.24528301886792453
0.0,0.25471698113207547
0.0,0.2641509433962264
0.0,0.27358490566037735
0.0,0.2830188679245283
1.62613294007e-07,0.29245283018867924
4.18931079484e-06,0.3018867924528302
4.71095281601e-06,0.3113207547169811
6.38646973629e-06,0.32075471698113206
7.20917205654e-06,0.330188679245283
7.60590712598e-06,0.33962264150943394
9.59269806686e-06,0.3490566037735849
1.46290119898e-05,0.3584905660377358
1.87259081414e-05,0.36792452830188677
1.98179001171e-05,0.37735849056603776
2.31142280472e-05,0.3867924528301887
2.75276763337e-05,0.39622641509433965
2.84591501495e-05,0.4056603773584906
2.91112557823e-05,0.41509433962264153
3.07152396992e-05,0.42452830188679247
5.1112716889e-05,0.4339622641509434
0.00012212609025,0.44339622641509435
0.000196823910691,0.4528301886792453
0.00026979463313,0.46226415094339623
0.00026979463313,0.4716981132075472
0.000370688104012,0.4811320754716981
0.000702221555302,0.49056603773584906
0.000702221555302,0.5
0.000702221555302,0.5094339622641509
0.000719452355014,0.5188679245283019
0.000719452355014,0.5283018867924528
0.000719452355014,0.5377358490566038
0.000944571422303,0.5471698113207547
0.00111073172101,0.5566037735849056
0.00132644299141,0.5660377358490566
0.00132644299141,0.5754716981132075
0.0014044431106,0.5849056603773585
0.0014044431106,0.5943396226415094
0.00191594092089,0.6037735849056604
0.00220869651287,0.6132075471698113
0.0022817721378,0.6226415094339622
0.00244222464846,0.6320754716981132
0.00244222464846,0.6415094339622641
0.00302597456278,0.6509433962264151
0.00302597456278,0.660377358490566
0.00382146297953,0.6698113207547169
0.00464803827551,0.6792452830188679
0.00628168342494,0.6886792452830188
0.0097953244675,0.6981132075471698
0.0099110751786,0.7075471698113207
0.00993690349511,0.7169811320754716
0.0102458706505,0.7264150943396226
0.0126367137652,0.7358490566037735
0.0212123918886,0.7452830188679245
0.021338321005,0.7547169811320755
0.0274451448242,0.7641509433962265
0.0285775522171,0.7735849056603774
0.11388700607,0.7830188679245284
0.345734412784,0.7924528301886793
0.355407574646,0.8018867924528302
0.355407574646,0.8113207547169812
0.384220149394,0.8207547169811321
0.384220149394,0.8301886792452831
0.384220149394,0.839622641509434
0.685275098393,0.8490566037735849
0.685275098393,0.8584905660377359
0.768440298788,0.8679245283018868
0.768440298788,0.8773584905660378
0.892051044389,0.8867924528301887
0.892051044389,0.8962264150943396
0.903551405689,0.9056603773584906
0.919529414695,0.9150943396226415
0.947753532389,0.9245283018867925
0.947753532389,0.9339622641509434
0.947753532389,0.9433962264150944
3.04413379976,0.9528301886792453
3.04413379976,0.9622641509433962
5.25591662423,0.9716981132075472
9.09164036283,0.9811320754716981
9.43136258071,0.9905660377358491
25.5551705635,1.0
