Congestion,CDF
0.0,0.009433962264150943
0.0,0.018867924528301886
0.0,0.02830188679245283
0.0,0.03773584905660377
0.0,0.04716981132075472
0.0,0.05660377358490566
0.0,0.0660377358490566
0.0,0.07547169811320754
0.0,0.08490566037735849
0.0,0.09433962264150944
0.0,0.10377358490566038
0.0,0.11320754716981132
0.0,0.12264150943396226
0.0,0.1320754716981132
0.0,0.14150943396226415
0.0,0.1509433962264151
0.0,0.16037735849056603
0.0,0.16981132075471697
0.0,0.1792452830188679
0.0,0.18867924528301888
0.0,0.19811320754716982
0.0,0.20754716981132076
0.0,0.2169811320754717
0.0,0.22641509433962265
0.0,0.2358490566037736
0.0,0.24528301886792453
0.0,0.25471698113207547
0.0,0.2641509433962264
0.0,0.27358490566037735
0.0,0.2830188679245283
1.56537110818e-07,0.29245283018867924
4.03277365571e-06,0.3018867924528302
4.53492408181e-06,0.3113207547169811
6.14783389603e-06,0.32075471698113206
6.93979524865e-06,0.330188679245283
9.23425879476e-06,0.33962264150943394
1.40823865907e-05,0.3490566037735849
1.80261987544e-05,0.3584905660377358
1.90773875269e-05,0.36792452830188677
2.22505453774e-05,0.37735849056603776
2.73957499473e-05,0.3867924528301887
2.80234891019e-05,0.39622641509433965
2.95675388039e-05,0.4056603773584906
0.00018946941889,0.41509433962264153
0.000259713528603,0.42452830188679247
0.000259713528603,0.4339622641509434
0.000675982453291,0.44339622641509435
0.000675982453291,0.4528301886792453
0.000675982453291,0.46226415094339623
0.000692569409607,0.4716981132075472
0.000692569409607,0.4811320754716981
0.000692569409607,0.49056603773584906
0.00106922829134,0.5
0.00127687932777,0.5094339622641509
0.00127687932777,0.5188679245283019
0.00135196490658,0.5283018867924528
0.00135196490658,0.5377358490566038
0.00184435016881,0.5471698113207547
0.00235096886003,0.5566037735849056
0.00235096886003,0.5660377358490566
0.00291290646535,0.5754716981132075
0.00291290646535,0.5849056603773585
0.00367867078497,0.5943396226415094
0.0044743603963,0.6037735849056604
0.00521054487041,0.6132075471698113
0.00604696301378,0.6226415094339622
0.00695625163158,0.6320754716981132
0.00942931388867,0.6415094339622641
0.00956560269623,0.6509433962264151
0.0204197729346,0.660377358490566
0.0234892607777,0.6698113207547169
0.0238266448889,0.6792452830188679
0.0377722346624,0.6886792452830188
0.0419258747192,0.6981132075471698
0.0461821458163,0.7075471698113207
0.0465447815856,0.7169811320754716
0.051070959589,0.7264150943396226
0.0513827134703,0.7358490566037735
0.0528562089719,0.7452830188679245
0.0555485250205,0.7547169811320755
0.0560986636209,0.7641509433962265
0.498864809625,0.7735849056603774
1.44513881635,0.7830188679245284
1.44513881635,0.7924528301886793
1.91516098459,0.8018867924528302
1.91516098459,0.8113207547169812
1.91516098459,0.8207547169811321
2.08687548947,0.8301886792452831
3.83032196917,0.839622641509434
3.83032196917,0.8490566037735849
3.85370351027,0.8584905660377359
3.85370351027,0.8679245283018868
3.85370351027,0.8773584905660378
4.38527152827,0.8867924528301887
7.5981704607,0.8962264150943396
7.5981704607,0.9056603773584906
8.11779748317,0.9150943396226415
8.11779748317,0.9245283018867925
8.82783306412,0.9339622641509434
8.82783306412,0.9433962264150944
13.4028811582,0.9528301886792453
13.4787925832,0.9622641509433962
20.5065702459,0.9716981132075472
20.671611826,0.9811320754716981
33.2330084318,0.9905660377358491
66.8032699022,1.0
