Congestion,CDF
0.0,0.009433962264150943
0.0,0.018867924528301886
0.0,0.02830188679245283
0.0,0.03773584905660377
0.0,0.04716981132075472
0.0,0.05660377358490566
0.0,0.0660377358490566
0.0,0.07547169811320754
0.0,0.08490566037735849
0.0,0.09433962264150944
0.0,0.10377358490566038
0.0,0.11320754716981132
0.0,0.12264150943396226
0.0,0.1320754716981132
0.0,0.14150943396226415
0.0,0.1509433962264151
0.0,0.16037735849056603
0.0,0.16981132075471697
0.0,0.1792452830188679
0.0,0.18867924528301888
0.0,0.19811320754716982
0.0,0.20754716981132076
0.0,0.2169811320754717
0.0,0.22641509433962265
0.0,0.2358490566037736
0.0,0.24528301886792453
0.0,0.25471698113207547
0.0,0.2641509433962264
0.0,0.27358490566037735
0.0,0.2830188679245283
1.74742723733e-07,0.29245283018867924
4.50179416955e-06,0.3018867924528302
5.0623458031e-06,0.3113207547169811
6.86284060335e-06,0.32075471698113206
7.60590712598e-06,0.330188679245283
7.74690881647e-06,0.33962264150943394
8.5856968531e-06,0.3490566037735849
1.03082235581e-05,0.3584905660377358
1.57201993614e-05,0.36792452830188677
2.01226856203e-05,0.37735849056603776
2.12961299768e-05,0.3867924528301887
2.36019450412e-05,0.39622641509433965
2.48383331178e-05,0.4056603773584906
2.75276763337e-05,0.41509433962264153
2.9035267678e-05,0.42452830188679247
3.05819363823e-05,0.4339622641509434
3.12826829918e-05,0.44339622641509435
3.30063090962e-05,0.4528301886792453
3.65800309327e-05,0.46226415094339623
0.0002081311155,0.4716981132075472
0.000211505132221,0.4811320754716981
0.000289918787572,0.49056603773584906
0.000289918787572,0.5
0.000325307317284,0.5094339622641509
0.000538090055941,0.5188679245283019
0.000754600710763,0.5283018867924528
0.000754600710763,0.5377358490566038
0.000754600710763,0.5471698113207547
0.000773116766859,0.5566037735849056
0.000773116766859,0.5660377358490566
0.000773116766859,0.5754716981132075
0.00119358191131,0.5849056603773585
0.00142538322349,0.5943396226415094
0.00142538322349,0.6037735849056604
0.00150920142153,0.6132075471698113
0.00150920142153,0.6226415094339622
0.002058852181,0.6320754716981132
0.0022817721378,0.6415094339622641
0.00237413920056,0.6509433962264151
0.00262439174881,0.660377358490566
0.00262439174881,0.6698113207547169
0.00325168394303,0.6792452830188679
0.00325168394303,0.6886792452830188
0.00410650835016,0.6981132075471698
0.00499473842674,0.7075471698113207
0.00675023821393,0.7169811320754716
0.00903355366962,0.7264150943396226
0.0105259639917,0.7358490566037735
0.0106781034897,0.7452830188679245
0.0121990243981,0.7547169811320755
0.0121990243981,0.7641509433962265
0.0121990243981,0.7735849056603774
0.0151337828233,0.7830188679245284
0.0151337828233,0.7924528301886793
0.0168716229554,0.8018867924528302
0.0204532136663,0.8113207547169812
0.0217225766222,0.8207547169811321
0.0227946377824,0.8301886792452831
0.0243980487963,0.839622641509434
0.0243980487963,0.8490566037735849
0.0269382699391,0.8584905660377359
0.0269382699391,0.8679245283018868
0.0275495187357,0.8773584905660378
0.0275495187357,0.8867924528301887
0.028870051731,0.8962264150943396
0.0351687768989,0.9056603773584906
0.0403567541956,0.9150943396226415
0.0403567541956,0.9245283018867925
0.0403567541956,0.9339622641509434
0.0547879481714,0.9433962264150944
1.04055783895,0.9528301886792453
1.04055783895,0.9622641509433962
1.48658247824,0.9716981132075472
6.16834150138,0.9811320754716981
6.54915038816,0.9905660377358491
14.8171441016,1.0
