Congestion,CDF
0.0,0.009433962264150943
0.0,0.018867924528301886
0.0,0.02830188679245283
0.0,0.03773584905660377
0.0,0.04716981132075472
0.0,0.05660377358490566
0.0,0.0660377358490566
0.0,0.07547169811320754
0.0,0.08490566037735849
0.0,0.09433962264150944
0.0,0.10377358490566038
0.0,0.11320754716981132
0.0,0.12264150943396226
0.0,0.1320754716981132
0.0,0.14150943396226415
0.0,0.1509433962264151
0.0,0.16037735849056603
0.0,0.16981132075471697
0.0,0.1792452830188679
0.0,0.18867924528301888
0.0,0.19811320754716982
0.0,0.20754716981132076
0.0,0.2169811320754717
0.0,0.22641509433962265
0.0,0.2358490566037736
0.0,0.24528301886792453
0.0,0.25471698113207547
0.0,0.2641509433962264
0.0,0.27358490566037735
0.0,0.2830188679245283
1.58100827108e-07,0.29245283018867924
4.07305876017e-06,0.3018867924528302
4.58022538209e-06,0.3113207547169811
6.20924724372e-06,0.32075471698113206
7.00911983772e-06,0.330188679245283
7.60590712598e-06,0.33962264150943394
9.32650376357e-06,0.3490566037735849
1.42230615859e-05,0.3584905660377358
1.82062701796e-05,0.36792452830188677
1.92679597273e-05,0.37735849056603776
2.24728156116e-05,0.3867924528301887
2.7669417835e-05,0.39622641509433965
2.83034277451e-05,0.4056603773584906
2.98629016213e-05,0.41509433962264153
6.81839082705e-05,0.42452830188679247
0.00019136211012,0.4339622641509434
0.000262307918351,0.44339622641509435
0.000262307918351,0.4528301886792453
0.000682735131737,0.46226415094339623
0.000682735131737,0.4716981132075472
0.000682735131737,0.4811320754716981
0.000699487782268,0.49056603773584906
0.000699487782268,0.5
0.000699487782268,0.5094339622641509
0.000787443429559,0.5188679245283019
0.00106393782609,0.5283018867924528
0.001079909271,0.5377358490566038
0.00128963462264,0.5471698113207547
0.00128963462264,0.5566037735849056
0.00136547026347,0.5660377358490566
0.00136547026347,0.5754716981132075
0.00186277417312,0.5849056603773585
0.0022817721378,0.5943396226415094
0.00237445369557,0.6037735849056604
0.00237445369557,0.6132075471698113
0.00294200473648,0.6226415094339622
0.00294200473648,0.6320754716981132
0.00371541860409,0.6415094339622641
0.00451905669996,0.6509433962264151
0.00610736871899,0.660377358490566
0.00952350734641,0.6698113207547169
0.00966115760128,0.6792452830188679
0.0120145515783,0.6886792452830188
0.0163551717848,0.6981132075471698
0.0206237547981,0.7075471698113207
0.024065281963,0.7169811320754716
0.0242370723299,0.7264150943396226
0.0326682952407,0.7358490566037735
0.0335132171115,0.7452830188679245
0.0352381422,0.7547169811320755
0.0391414839254,0.7641509433962265
0.0400350293066,0.7735849056603774
0.259195416511,0.7830188679245284
0.94255923126,0.7924528301886793
0.94255923126,0.8018867924528302
1.22506107153,0.8113207547169812
1.22506107153,0.8207547169811321
1.22506107153,0.8301886792452831
1.85832662003,0.839622641509434
2.45012214305,0.8490566037735849
2.45012214305,0.8584905660377359
2.51349128336,0.8679245283018868
2.51349128336,0.8773584905660378
2.51349128336,0.8867924528301887
3.70131186069,0.8962264150943396
3.70131186069,0.9056603773584906
4.56869925574,0.9150943396226415
4.56869925574,0.9245283018867925
4.7458740274,0.9339622641509434
4.80808526661,0.9433962264150944
5.82564603241,0.9528301886792453
5.82564603241,0.9622641509433962
14.2242518908,0.9716981132075472
14.4923155052,0.9811320754716981
16.3069759976,0.9905660377358491
43.7552171382,1.0
