Congestion,CDF
0.0,0.009433962264150943
0.0,0.018867924528301886
0.0,0.02830188679245283
0.0,0.03773584905660377
0.0,0.04716981132075472
0.0,0.05660377358490566
0.0,0.0660377358490566
0.0,0.07547169811320754
0.0,0.08490566037735849
0.0,0.09433962264150944
0.0,0.10377358490566038
0.0,0.11320754716981132
0.0,0.12264150943396226
0.0,0.1320754716981132
0.0,0.14150943396226415
0.0,0.1509433962264151
0.0,0.16037735849056603
0.0,0.16981132075471697
0.0,0.1792452830188679
0.0,0.18867924528301888
0.0,0.19811320754716982
0.0,0.20754716981132076
0.0,0.2169811320754717
0.0,0.22641509433962265
0.0,0.2358490566037736
0.0,0.24528301886792453
0.0,0.25471698113207547
0.0,0.2641509433962264
0.0,0.27358490566037735
0.0,0.2830188679245283
1.65366552834e-07,0.29245283018867924
4.26024138507e-06,0.3018867924528302
4.79071549778e-06,0.3113207547169811
6.49460114264e-06,0.32075471698113206
7.33123290476e-06,0.330188679245283
9.75511517294e-06,0.33962264150943394
1.48767005729e-05,0.3490566037735849
1.90429626122e-05,0.3584905660377358
2.0153443461e-05,0.36792452830188677
2.35055825965e-05,0.37735849056603776
2.89410013218e-05,0.3867924528301887
2.96041479682e-05,0.39622641509433965
3.1235289461e-05,0.4056603773584906
0.00020015640065,0.41509433962264153
0.000274362614239,0.42452830188679247
0.000274362614239,0.4339622641509434
0.000714111097957,0.44339622641509435
0.000714111097957,0.4528301886792453
0.000714111097957,0.46226415094339623
0.000731633637971,0.4716981132075472
0.000731633637971,0.4811320754716981
0.000731633637971,0.49056603773584906
0.00112953788279,0.5
0.00134890143121,0.5094339622641509
0.00134890143121,0.5188679245283019
0.00142822219591,0.5283018867924528
0.00142822219591,0.5377358490566038
0.00194838034279,0.5471698113207547
0.00248357475216,0.5566037735849056
0.00248357475216,0.5660377358490566
0.00307720832707,0.5754716981132075
0.00307720832707,0.5849056603773585
0.00388616541818,0.5943396226415094
0.00472673573064,0.6037735849056604
0.00589060994669,0.6132075471698113
0.00589540550488,0.6226415094339622
0.00589602674962,0.6320754716981132
0.00589802219102,0.6415094339622641
0.00589900198075,0.6509433962264151
0.00590184061903,0.660377358490566
0.00590783857056,0.6698113207547169
0.00591271773118,0.6792452830188679
0.00591401822893,0.6886792452830188
0.00591794396023,0.6981132075471698
0.00592430944582,0.7075471698113207
0.005925086065,0.7169811320754716
0.00592699631483,0.7264150943396226
0.00638804066,0.7358490566037735
0.0099611723074,0.7452830188679245
0.0101051484558,0.7547169811320755
0.0215715458283,0.7641509433962265
0.0768098173085,0.7735849056603774
0.16598926741,0.7830188679245284
0.16598926741,0.7924528301886793
0.221726914919,0.8018867924528302
0.221726914919,0.8113207547169812
0.221726914919,0.8207547169811321
0.442638046427,0.8301886792452831
0.442638046427,0.839622641509434
0.442638046427,0.8490566037735849
0.443453829838,0.8584905660377359
0.443453829838,0.8679245283018868
0.995587462932,0.8773584905660378
0.995587462932,0.8867924528301887
0.996916292788,0.8962264150943396
0.996916292788,0.9056603773584906
0.997611504355,0.9150943396226415
0.997611504355,0.9245283018867925
1.16422684192,0.9339622641509434
1.76940665731,0.9433962264150944
2.21022892214,0.9528301886792453
2.22057175763,0.9622641509433962
2.32488695002,0.9716981132075472
2.33118567519,0.9811320754716981
4.42529332576,0.9905660377358491
7.5355434641,1.0
