Congestion,CDF
0.0,0.007352941176470588
0.0,0.014705882352941176
0.0,0.022058823529411766
0.0,0.029411764705882353
0.0,0.03676470588235294
0.0,0.04411764705882353
0.0,0.051470588235294115
0.0,0.058823529411764705
0.0,0.0661764705882353
0.0,0.07352941176470588
0.0,0.08088235294117647
0.0,0.08823529411764706
0.0,0.09558823529411764
0.0,0.10294117647058823
8.68629235454e-07,0.11029411764705882
8.68629235454e-07,0.11764705882352941
8.68629235454e-07,0.125
8.68629235454e-07,0.1323529411764706
8.68629235454e-07,0.13970588235294118
8.68629235454e-07,0.14705882352941177
8.68629235454e-07,0.15441176470588236
8.68629235454e-07,0.16176470588235295
8.68629235454e-07,0.16911764705882354
8.68629235454e-07,0.17647058823529413
8.68629235454e-07,0.18382352941176472
8.68629235454e-07,0.19117647058823528
8.68629235454e-07,0.19852941176470587
8.68629235454e-07,0.20588235294117646
8.68629235454e-07,0.21323529411764705
8.68629235454e-07,0.22058823529411764
8.68629235454e-07,0.22794117647058823
8.68629235454e-07,0.23529411764705882
8.68629235454e-07,0.2426470588235294
8.68629235454e-07,0.25
8.68629235454e-07,0.25735294117647056
8.68629235454e-07,0.2647058823529412
8.68629235454e-07,0.27205882352941174
8.68629235454e-07,0.27941176470588236
8.68629235454e-07,0.2867647058823529
8.68629235454e-07,0.29411764705882354
8.68629235454e-07,0.3014705882352941
2.17157308863e-05,0.3088235294117647
2.17157308863e-05,0.3161764705882353
2.34529893572e-05,0.3235294117647059
4.34314617727e-05,0.33088235294117646
4.34314617727e-05,0.3382352941176471
4.34314617727e-05,0.34558823529411764
4.34314617727e-05,0.35294117647058826
6.5147192659e-05,0.3602941176470588
7.23857696211e-05,0.36764705882352944
7.23857696211e-05,0.375
7.23857696211e-05,0.38235294117647056
8.68629235454e-05,0.3897058823529412
8.68629235454e-05,0.39705882352941174
8.68629235454e-05,0.40441176470588236
8.68629235454e-05,0.4117647058823529
8.68629235454e-05,0.41911764705882354
8.68629235454e-05,0.4264705882352941
8.68629235454e-05,0.4338235294117647
0.000108578654432,0.4411764705882353
0.000130294385318,0.4485294117647059
0.000130294385318,0.45588235294117646
0.000159248693166,0.4632352941176471
0.000173725847091,0.47058823529411764
0.000173725847091,0.47794117647058826
0.000260588770636,0.4852941176470588
0.000354690271144,0.49264705882352944
0.000629756195704,0.5
0.000644233349628,0.5073529411764706
0.000832436350643,0.5147058823529411
0.00103511650558,0.5220588235294118
0.00104959365951,0.5294117647058824
0.00112197942913,0.5367647058823529
0.00113645658305,0.5441176470588235
0.0012233195066,0.5514705882352942
0.0324580557876,0.5588235294117647
0.0328472838687,0.5661764705882353
0.0370402896382,0.5735294117647058
0.0371012420911,0.5808823529411765
0.0371596412805,0.5882352941176471
0.0371853497681,0.5955882352941176
0.0372026579802,0.6029411764705882
0.0372526752103,0.6102941176470589
0.0373409304991,0.6176470588235294
0.0373525996348,0.625
0.0373707630707,0.6323529411764706
0.0373756503829,0.6397058823529411
0.0373757374724,0.6470588235294118
0.0373764266642,0.6544117647058824
0.0373767704807,0.6617647058823529
0.0373773586429,0.6691176470588235
0.037377916784,0.6764705882352942
0.0373822488649,0.6838235294117647
0.0373861019541,0.6911764705882353
0.037396433494,0.6985294117647058
0.0374004500773,0.7058823529411765
0.0374004597361,0.7132352941176471
0.0374005076597,0.7205882352941176
0.0374005105015,0.7279411764705882
0.037400913979,0.7352941176470589
0.0374009158736,0.7426470588235294
0.0374009158736,0.75
0.934410666606,0.7573529411764706
0.934556221622,0.7647058823529411
0.99854080727,0.7720588235294118
1.86263376052,0.7794117647058824
1.86263376052,0.7867647058823529
1.86930509771,0.7941176470588235
1.86930509771,0.8014705882352942
2.80323199982,0.8088235294117647
3.11482480397,0.8161764705882353
3.11482480397,0.8235294117647058
3.11482480397,0.8308823529411765
3.72026579802,0.8382352941176471
3.73773586429,0.8455882352941176
3.73822488649,0.8529411764705882
3.74004597361,0.8602941176470589
3.74005105015,0.8676470588235294
3.74009158736,0.875
3.74009158736,0.8823529411764706
4.67220234501,0.8897058823529411
5.57859788857,0.8970588235294118
5.60687013599,0.9044117647058824
6.85008476745,0.9117647058823529
7.43880077483,0.9191176470588235
7.48010181612,0.9264705882352942
11.2202745726,0.9338235294117647
15.2624400613,0.9411764705882353
27.1150235917,0.9485294117647058
27.7092516392,0.9558823529411765
35.8387968428,0.9632352941176471
44.4306792664,0.9705882352941176
45.1827432858,0.9779411764705882
47.6764848452,0.9852941176470589
48.892867495,0.9926470588235294
52.1775958818,1.0
