Congestion,CDF
0.0,0.007352941176470588
0.0,0.014705882352941176
0.0,0.022058823529411766
0.0,0.029411764705882353
0.0,0.03676470588235294
0.0,0.04411764705882353
0.0,0.051470588235294115
0.0,0.058823529411764705
0.0,0.0661764705882353
0.0,0.07352941176470588
0.0,0.08088235294117647
0.0,0.08823529411764706
0.0,0.09558823529411764
0.0,0.10294117647058823
7.62032160946e-07,0.11029411764705882
7.62032160946e-07,0.11764705882352941
7.62032160946e-07,0.125
7.62032160946e-07,0.1323529411764706
7.62032160946e-07,0.13970588235294118
7.62032160946e-07,0.14705882352941177
7.62032160946e-07,0.15441176470588236
7.62032160946e-07,0.16176470588235295
7.62032160946e-07,0.16911764705882354
7.62032160946e-07,0.17647058823529413
7.62032160946e-07,0.18382352941176472
7.62032160946e-07,0.19117647058823528
7.62032160946e-07,0.19852941176470587
7.62032160946e-07,0.20588235294117646
7.62032160946e-07,0.21323529411764705
7.62032160946e-07,0.22058823529411764
7.62032160946e-07,0.22794117647058823
7.62032160946e-07,0.23529411764705882
7.62032160946e-07,0.2426470588235294
7.62032160946e-07,0.25
7.62032160946e-07,0.25735294117647056
7.62032160946e-07,0.2647058823529412
7.62032160946e-07,0.27205882352941174
7.62032160946e-07,0.27941176470588236
7.62032160946e-07,0.2867647058823529
7.62032160946e-07,0.29411764705882354
7.62032160946e-07,0.3014705882352941
1.90508040236e-05,0.3088235294117647
1.90508040236e-05,0.3161764705882353
2.05748683455e-05,0.3235294117647059
3.81016080473e-05,0.33088235294117646
3.81016080473e-05,0.3382352941176471
3.81016080473e-05,0.34558823529411764
3.81016080473e-05,0.35294117647058826
5.71524120709e-05,0.3602941176470588
6.35026800788e-05,0.36764705882352944
6.35026800788e-05,0.375
6.35026800788e-05,0.38235294117647056
7.62032160946e-05,0.3897058823529412
7.62032160946e-05,0.39705882352941174
7.62032160946e-05,0.40441176470588236
7.62032160946e-05,0.4117647058823529
7.62032160946e-05,0.41911764705882354
7.62032160946e-05,0.4264705882352941
7.62032160946e-05,0.4338235294117647
9.52540201182e-05,0.4411764705882353
0.000114304824142,0.4485294117647059
0.000114304824142,0.45588235294117646
0.000139705896173,0.4632352941176471
0.000152406432189,0.47058823529411764
0.000152406432189,0.47794117647058826
0.000228609648284,0.4852941176470588
0.000311163132386,0.49264705882352944
0.000552473316686,0.5
0.000565173852701,0.5073529411764706
0.000730280820906,0.5147058823529411
0.000908088325127,0.5220588235294118
0.000920788861143,0.5294117647058824
0.000984291541222,0.5367647058823529
0.000996992077237,0.5441176470588235
0.00107319529333,0.5514705882352942
0.0335500674303,0.5588235294117647
0.0342629357836,0.5661764705882353
0.0424394765689,0.5735294117647058
0.0425166137309,0.5808823529411765
0.0426405811669,0.5882352941176471
0.042669922441,0.5955882352941176
0.0426956567267,0.6029411764705882
0.042744172128,0.6102941176470589
0.0428334794286,0.6176470588235294
0.0428477273323,0.625
0.0428647551372,0.6323529411764706
0.0428709159016,0.6397058823529411
0.0428711785357,0.6470588235294118
0.0428719007572,0.6544117647058824
0.0428720994587,0.6617647058823529
0.0428728139665,0.6691176470588235
0.0428733796544,0.6764705882352942
0.042877732593,0.6838235294117647
0.0428815344967,0.6911764705882353
0.0428918909354,0.6985294117647058
0.0428959420068,0.7058823529411765
0.0428959525323,0.7132352941176471
0.0428960005872,0.7205882352941176
0.0428960035294,0.7279411764705882
0.0428964069503,0.7352941176470589
0.0428964089119,0.7426470588235294
0.0428964089119,0.75
1.07179751893,0.7573529411764706
1.07194331482,0.7647058823529411
1.1382219576,0.7720588235294118
2.1372086064,0.7794117647058824
2.1372086064,0.7867647058823529
2.14407672484,0.7941176470588235
2.14407672484,0.8014705882352942
3.21539255679,0.8088235294117647
3.57278011828,0.8161764705882353
3.57278011828,0.8235294117647058
3.57278011828,0.8308823529411765
4.26956567267,0.8382352941176471
4.28728139665,0.8455882352941176
4.2877732593,0.8529411764705882
4.28959525323,0.8602941176470589
4.28960035294,0.8676470588235294
4.28964089119,0.875
4.28964089119,0.8823529411764706
5.35913548437,0.8897058823529411
6.40126672309,0.8970588235294118
6.43116831499,0.9044117647058824
7.85755285151,0.9117647058823529
8.53655791677,0.9191176470588235
8.57920041166,0.9264705882352942
12.8689224774,0.9338235294117647
17.5064069452,0.9411764705882353
31.0992556578,0.9485294117647058
31.7845163459,0.9558823529411765
41.1053015944,0.9632352941176471
50.9662886427,0.9705882352941176
51.8229454232,0.9779411764705882
54.3212953857,0.9852941176470589
56.0746067963,0.9926470588235294
59.5009003746,1.0
