Congestion,CDF
0.0,0.007352941176470588
0.0,0.014705882352941176
0.0,0.022058823529411766
0.0,0.029411764705882353
0.0,0.03676470588235294
0.0,0.04411764705882353
0.0,0.051470588235294115
0.0,0.058823529411764705
0.0,0.0661764705882353
0.0,0.07352941176470588
0.0,0.08088235294117647
0.0,0.08823529411764706
0.0,0.09558823529411764
0.0,0.10294117647058823
9.61191497479e-07,0.11029411764705882
9.61191497479e-07,0.11764705882352941
9.61191497479e-07,0.125
9.61191497479e-07,0.1323529411764706
9.61191497479e-07,0.13970588235294118
9.61191497479e-07,0.14705882352941177
9.61191497479e-07,0.15441176470588236
9.61191497479e-07,0.16176470588235295
9.61191497479e-07,0.16911764705882354
9.61191497479e-07,0.17647058823529413
9.61191497479e-07,0.18382352941176472
9.61191497479e-07,0.19117647058823528
9.61191497479e-07,0.19852941176470587
9.61191497479e-07,0.20588235294117646
9.61191497479e-07,0.21323529411764705
9.61191497479e-07,0.22058823529411764
9.61191497479e-07,0.22794117647058823
9.61191497479e-07,0.23529411764705882
9.61191497479e-07,0.2426470588235294
9.61191497479e-07,0.25
9.61191497479e-07,0.25735294117647056
9.61191497479e-07,0.2647058823529412
9.61191497479e-07,0.27205882352941174
9.61191497479e-07,0.27941176470588236
9.61191497479e-07,0.2867647058823529
9.61191497479e-07,0.29411764705882354
9.61191497479e-07,0.3014705882352941
2.4029787437e-05,0.3088235294117647
2.4029787437e-05,0.3161764705882353
2.59521704319e-05,0.3235294117647059
4.8059574874e-05,0.33088235294117646
4.8059574874e-05,0.3382352941176471
4.8059574874e-05,0.34558823529411764
4.8059574874e-05,0.35294117647058826
7.20893623109e-05,0.3602941176470588
8.00992914566e-05,0.36764705882352944
8.00992914566e-05,0.375
8.00992914566e-05,0.38235294117647056
9.61191497479e-05,0.3897058823529412
9.61191497479e-05,0.39705882352941174
9.61191497479e-05,0.40441176470588236
9.61191497479e-05,0.4117647058823529
9.61191497479e-05,0.41911764705882354
9.61191497479e-05,0.4264705882352941
9.61191497479e-05,0.4338235294117647
0.000120148937185,0.4411764705882353
0.000144178724622,0.4485294117647059
0.000144178724622,0.45588235294117646
0.000176218441205,0.4632352941176471
0.000192238299496,0.47058823529411764
0.000192238299496,0.47794117647058826
0.000288357449244,0.4852941176470588
0.000392486528137,0.49264705882352944
0.000696863835672,0.5
0.000712883693964,0.5073529411764706
0.000921141851751,0.5147058823529411
0.00114541986783,0.5220588235294118
0.00116143972612,0.5294117647058824
0.00124153901758,0.5367647058823529
0.00125755887587,0.5441176470588235
0.00135367802562,0.5514705882352942
0.022262832511,0.5588235294117647
0.0231484208303,0.5661764705882353
0.0338293219496,0.5735294117647058
0.0339199971544,0.5808823529411765
0.0340965562496,0.5882352941176471
0.0341293417974,0.5955882352941176
0.0341627553961,0.6029411764705882
0.0342096593187,0.6102941176470589
0.0343004625576,0.6176470588235294
0.0343171106452,0.625
0.0343331099371,0.6323529411764706
0.0343404475619,0.6397058823529411
0.0343408910778,0.6470588235294118
0.0343416506845,0.6544117647058824
0.0343416985964,0.6617647058823529
0.0343425436555,0.6691176470588235
0.0343431184223,0.6764705882352942
0.0343474951976,0.6838235294117647
0.0343512369513,0.6911764705882353
0.0343616279163,0.6985294117647058
0.0343657157366,0.7058823529411765
0.0343657272667,0.7132352941176471
0.034365775497,0.7205882352941176
0.0343657785689,0.7279411764705882
0.0343661819185,0.7352941176470589
0.0343661839666,0.7426470588235294
0.0343661839666,0.75
0.858541267113,0.7573529411764706
0.85868737994,0.7647058823529411
0.902381825331,0.7720588235294118
1.71048296593,0.7794117647058824
1.71048296593,0.7867647058823529
1.71756184757,0.7941176470588235
1.71756184757,0.8014705882352942
2.57562380134,0.8088235294117647
2.86192501631,0.8161764705882353
2.86192501631,0.8235294117647058
2.86192501631,0.8308823529411765
3.41627553961,0.8382352941176471
3.43425436555,0.8455882352941176
3.43474951976,0.8529411764705882
3.43657272667,0.8602941176470589
3.43657785689,0.8676470588235294
3.43661839666,0.875
3.43661839666,0.8823529411764706
4.29285310935,0.8897058823529411
5.12013859089,0.8970588235294118
5.15160660375,0.9044117647058824
6.29363608084,0.9117647058823529
6.82920971935,0.9191176470588235
6.87315540659,0.9264705882352942
10.3098549852,0.9338235294117647
14.0232023508,0.9411764705882353
24.914842072,0.9485294117647058
25.4573676534,0.9558823529411765
32.9304917275,0.9632352941176471
40.7896481586,0.9705882352941176
41.515409325,0.9779411764705882
43.0159314097,0.9852941176470589
44.9074090405,0.9926470588235294
47.2222511235,1.0
