Congestion,CDF
0.0,0.007352941176470588
0.0,0.014705882352941176
0.0,0.022058823529411766
0.0,0.029411764705882353
0.0,0.03676470588235294
0.0,0.04411764705882353
0.0,0.051470588235294115
0.0,0.058823529411764705
0.0,0.0661764705882353
0.0,0.07352941176470588
0.0,0.08088235294117647
0.0,0.08823529411764706
0.0,0.09558823529411764
0.0,0.10294117647058823
6.80859755422e-06,0.11029411764705882
6.80859755422e-06,0.11764705882352941
6.80859755422e-06,0.125
6.80859755422e-06,0.1323529411764706
6.80859755422e-06,0.13970588235294118
6.80859755422e-06,0.14705882352941177
6.80859755422e-06,0.15441176470588236
6.80859755422e-06,0.16176470588235295
6.80859755422e-06,0.16911764705882354
6.80859755422e-06,0.17647058823529413
6.80859755422e-06,0.18382352941176472
6.80859755422e-06,0.19117647058823528
6.80859755422e-06,0.19852941176470587
6.80859755422e-06,0.20588235294117646
6.80859755422e-06,0.21323529411764705
6.80859755422e-06,0.22058823529411764
6.80859755422e-06,0.22794117647058823
6.80859755422e-06,0.23529411764705882
6.80859755422e-06,0.2426470588235294
6.80859755422e-06,0.25
6.80859755422e-06,0.25735294117647056
6.80859755422e-06,0.2647058823529412
6.80859755422e-06,0.27205882352941174
6.80859755422e-06,0.27941176470588236
6.80859755422e-06,0.2867647058823529
6.80859755422e-06,0.29411764705882354
6.80859755422e-06,0.3014705882352941
0.000170214938855,0.3088235294117647
0.000170214938855,0.3161764705882353
0.000183832133964,0.3235294117647059
0.000340429877711,0.33088235294117646
0.000340429877711,0.3382352941176471
0.000340429877711,0.34558823529411764
0.000340429877711,0.35294117647058826
0.000510644816566,0.3602941176470588
0.000541482812103,0.36764705882352944
0.000567383129518,0.375
0.000567383129518,0.38235294117647056
0.000567383129518,0.3897058823529412
0.000680859755422,0.39705882352941174
0.000680859755422,0.40441176470588236
0.000680859755422,0.4117647058823529
0.000680859755422,0.41911764705882354
0.000680859755422,0.4264705882352941
0.000680859755422,0.4338235294117647
0.000680859755422,0.4411764705882353
0.000851074694277,0.4485294117647059
0.00100947863393,0.45588235294117646
0.00102128963313,0.4632352941176471
0.00102128963313,0.47058823529411764
0.00124824288494,0.47794117647058826
0.00136171951084,0.4852941176470588
0.00136171951084,0.49264705882352944
0.00204257926627,0.5
0.00278017733464,0.5073529411764706
0.0041548592581,0.5147058823529411
0.00436291259172,0.5220588235294118
0.00472496550278,0.5294117647058824
0.00484852778073,0.5367647058823529
0.00493068159837,0.5441176470588235
0.00493623322681,0.5514705882352942
0.00498928979561,0.5588235294117647
0.00504970985271,0.5661764705882353
0.00522274934612,0.5735294117647058
0.00527530977182,0.5808823529411765
0.00529310680132,0.5882352941176471
0.00531421060339,0.5955882352941176
0.00531929932389,0.6029411764705882
0.00532137949964,0.6102941176470589
0.00532157954469,0.6176470588235294
0.0053240552801,0.625
0.00532594417932,0.6323529411764706
0.00533155415409,0.6397058823529411
0.0053350571166,0.6470588235294118
0.00535518764519,0.6544117647058824
0.00536240024535,0.6617647058823529
0.00536244351166,0.6691176470588235
0.00536268401241,0.6764705882352942
0.00536269720252,0.6838235294117647
0.00536319935857,0.6911764705882353
0.0053632081533,0.6985294117647058
0.0053632081533,0.7058823529411765
0.00652490598946,0.7132352941176471
0.00811357875211,0.7205882352941176
0.00822705537801,0.7279411764705882
0.00879443850753,0.7352941176470589
0.00890791513343,0.7426470588235294
0.00958877488886,0.75
0.130841471877,0.7573529411764706
0.133039488617,0.7647058823529411
0.133288853852,0.7720588235294118
0.249464489781,0.7794117647058824
0.249464489781,0.7867647058823529
0.26675285583,0.7941176470588235
0.26675285583,0.8014705882352942
0.399118465852,0.8088235294117647
0.443638319933,0.8161764705882353
0.443638319933,0.8235294117647058
0.443638319933,0.8308823529411765
0.493068159837,0.8382352941176471
0.53240552801,0.8455882352941176
0.533155415409,0.8529411764705882
0.536244351166,0.8602941176470589
0.536269720252,0.8676470588235294
0.53632081533,0.875
0.53632081533,0.8823529411764706
0.665633906549,0.8897058823529411
0.721961040059,0.8970588235294118
0.798173916169,0.9044117647058824
0.971169297115,0.9117647058823529
0.97792093791,0.9191176470588235
1.07253812149,0.9264705882352942
1.60896156652,0.9338235294117647
2.17381570446,0.9411764705882353
3.88727291756,0.9485294117647058
3.91672442596,0.9558823529411765
5.13318285785,0.9632352941176471
6.03209232974,0.9705882352941176
6.13304019314,0.9779411764705882
6.46066745415,0.9852941176470589
6.89695871332,0.9926470588235294
6.95110699453,1.0
