Congestion,CDF
0.0,0.007352941176470588
0.0,0.014705882352941176
0.0,0.022058823529411766
0.0,0.029411764705882353
0.0,0.03676470588235294
0.0,0.04411764705882353
0.0,0.051470588235294115
0.0,0.058823529411764705
0.0,0.0661764705882353
0.0,0.07352941176470588
0.0,0.08088235294117647
0.0,0.08823529411764706
0.0,0.09558823529411764
0.0,0.10294117647058823
6.87120093416e-06,0.11029411764705882
6.87120093416e-06,0.11764705882352941
6.87120093416e-06,0.125
6.87120093416e-06,0.1323529411764706
6.87120093416e-06,0.13970588235294118
6.87120093416e-06,0.14705882352941177
6.87120093416e-06,0.15441176470588236
6.87120093416e-06,0.16176470588235295
6.87120093416e-06,0.16911764705882354
6.87120093416e-06,0.17647058823529413
6.87120093416e-06,0.18382352941176472
6.87120093416e-06,0.19117647058823528
6.87120093416e-06,0.19852941176470587
6.87120093416e-06,0.20588235294117646
6.87120093416e-06,0.21323529411764705
6.87120093416e-06,0.22058823529411764
6.87120093416e-06,0.22794117647058823
6.87120093416e-06,0.23529411764705882
6.87120093416e-06,0.2426470588235294
6.87120093416e-06,0.25
6.87120093416e-06,0.25735294117647056
6.87120093416e-06,0.2647058823529412
6.87120093416e-06,0.27205882352941174
6.87120093416e-06,0.27941176470588236
6.87120093416e-06,0.2867647058823529
6.87120093416e-06,0.29411764705882354
6.87120093416e-06,0.3014705882352941
0.000171780023354,0.3088235294117647
0.000171780023354,0.3161764705882353
0.000185522425222,0.3235294117647059
0.000343560046708,0.33088235294117646
0.000343560046708,0.3382352941176471
0.000343560046708,0.34558823529411764
0.000343560046708,0.35294117647058826
0.000515340070062,0.3602941176470588
0.000572600077846,0.36764705882352944
0.000572600077846,0.375
0.000572600077846,0.38235294117647056
0.000687120093416,0.3897058823529412
0.000687120093416,0.39705882352941174
0.000687120093416,0.40441176470588236
0.000687120093416,0.4117647058823529
0.000687120093416,0.41911764705882354
0.000687120093416,0.4264705882352941
0.000687120093416,0.4338235294117647
0.000858900116769,0.4411764705882353
0.00103068014012,0.4485294117647059
0.00103068014012,0.45588235294117646
0.00125972017126,0.4632352941176471
0.00137424018683,0.47058823529411764
0.00137424018683,0.47794117647058826
0.00206136028025,0.4852941176470588
0.00280574038145,0.49264705882352944
0.00467523932457,0.5
0.00467523932457,0.5073529411764706
0.00467523932457,0.5147058823529411
0.00467523932457,0.5220588235294118
0.00467523932457,0.5294117647058824
0.00467523932457,0.5367647058823529
0.00467523932457,0.5441176470588235
0.00467523932457,0.5514705882352942
0.00467523932457,0.5588235294117647
0.00467523932457,0.5661764705882353
0.00467523932457,0.5735294117647058
0.00467523932457,0.5808823529411765
0.00467523932457,0.5882352941176471
0.00467523932457,0.5955882352941176
0.00467523932457,0.6029411764705882
0.00467523932457,0.6102941176470589
0.00467523932457,0.6176470588235294
0.00467523932457,0.625
0.00467523932457,0.6323529411764706
0.00467523932457,0.6397058823529411
0.00467523932457,0.6470588235294118
0.00467523932457,0.6544117647058824
0.00467523932457,0.6617647058823529
0.00467523932457,0.6691176470588235
0.00467523932457,0.6764705882352942
0.00467523932457,0.6838235294117647
0.00467523932457,0.6911764705882353
0.00498162067726,0.6985294117647058
0.00509614069283,0.7058823529411765
0.00658490089523,0.7132352941176471
0.0081881811132,0.7205882352941176
0.00830270112877,0.7279411764705882
0.00887530120662,0.7352941176470589
0.00898982122219,0.7426470588235294
0.0096769413156,0.75
0.116880983114,0.7573529411764706
0.116880983114,0.7647058823529411
0.126231461763,0.7720588235294118
0.233761966228,0.7794117647058824
0.233761966228,0.7867647058823529
0.233761966228,0.7941176470588235
0.233761966228,0.8014705882352942
0.350642949343,0.8088235294117647
0.389603277047,0.8161764705882353
0.389603277047,0.8235294117647058
0.389603277047,0.8308823529411765
0.467523932457,0.8382352941176471
0.467523932457,0.8455882352941176
0.467523932457,0.8529411764705882
0.467523932457,0.8602941176470589
0.467523932457,0.8676470588235294
0.467523932457,0.875
0.467523932457,0.8823529411764706
0.584404915571,0.8897058823529411
0.701285898685,0.8970588235294118
0.701285898685,0.9044117647058824
0.857127209504,0.9117647058823529
0.935047864914,0.9191176470588235
0.935047864914,0.9264705882352942
1.40257179737,0.9338235294117647
1.90905605753,0.9411764705882353
3.38954851031,0.9485294117647058
3.46746916572,0.9558823529411765
4.48043768605,0.9632352941176471
5.57132686178,0.9705882352941176
5.64924751719,0.9779411764705882
6.03885079424,0.9852941176470589
6.11677144965,0.9926470588235294
6.5842953821,1.0
