Congestion,CDF
0.0,0.009433962264150943
0.0,0.018867924528301886
0.0,0.02830188679245283
0.0,0.03773584905660377
0.0,0.04716981132075472
0.0,0.05660377358490566
0.0,0.0660377358490566
0.0,0.07547169811320754
0.0,0.08490566037735849
0.0,0.09433962264150944
0.0,0.10377358490566038
0.0,0.11320754716981132
0.0,0.12264150943396226
0.0,0.1320754716981132
0.0,0.14150943396226415
0.0,0.1509433962264151
0.0,0.16037735849056603
0.0,0.16981132075471697
0.0,0.1792452830188679
0.0,0.18867924528301888
0.0,0.19811320754716982
0.0,0.20754716981132076
0.0,0.2169811320754717
0.0,0.22641509433962265
0.0,0.2358490566037736
0.0,0.24528301886792453
0.0,0.25471698113207547
0.0,0.2641509433962264
0.0,0.27358490566037735
0.0,0.2830188679245283
5.01544666294e-08,0.29245283018867924
1.29210006932e-06,0.3018867924528302
1.45298898989e-06,0.3113207547169811
1.96976505041e-06,0.32075471698113206
2.22350934801e-06,0.330188679245283
2.95865512114e-06,0.33962264150943394
4.51199453366e-06,0.3490566037735849
5.77559135441e-06,0.3584905660377358
6.11239207813e-06,0.36792452830188677
7.12907137348e-06,0.37735849056603776
8.77759413943e-06,0.3867924528301887
8.97872166963e-06,0.39622641509433965
9.4734349606e-06,0.4056603773584906
3.69831890142e-05,0.41509433962264153
3.69831890142e-05,0.42452830188679247
6.07059731547e-05,0.4339622641509434
7.21948919302e-05,0.44339622641509435
7.21948919302e-05,0.4528301886792453
7.39663780284e-05,0.46226415094339623
7.39663780284e-05,0.4716981132075472
7.39663780284e-05,0.4811320754716981
0.000114193527607,0.49056603773584906
0.00014438978386,0.5
0.00014438978386,0.5094339622641509
0.00014438978386,0.5188679245283019
0.000181827530439,0.5283018867924528
0.000181827530439,0.5377358490566038
0.000196976505041,0.5471698113207547
0.000334777807628,0.5566037735849056
0.000334777807628,0.5660377358490566
0.000414797684851,0.5754716981132075
0.000414797684851,0.5849056603773585
0.000637148619652,0.5943396226415094
0.000645815344999,0.6037735849056604
0.00100705024791,0.6132075471698113
0.00104768494498,0.6226415094339622
0.00136214118091,0.6320754716981132
0.0021808307199,0.6415094339622641
0.00682293210553,0.6509433962264151
0.0186888790946,0.660377358490566
0.0189740149273,0.6698113207547169
0.0203884689147,0.6792452830188679
0.0229398801262,0.6886792452830188
0.029807921287,0.6981132075471698
0.0299493973909,0.7075471698113207
0.0334441019171,0.7169811320754716
0.0335639133031,0.7264150943396226
0.0417803309458,0.7358490566037735
0.0430564484371,0.7452830188679245
0.0522452563757,0.7547169811320755
0.0529043261675,0.7641509433962265
0.404565870993,0.7735849056603774
0.418051273964,0.7830188679245284
0.418051273964,0.7924528301886793
0.419548916288,0.8018867924528302
0.419548916288,0.8113207547169812
0.682293210553,0.8207547169811321
0.836102547928,0.8301886792452831
0.836102547928,0.839622641509434
0.836102547928,0.8490566037735849
0.839097832576,0.8584905660377359
0.839097832576,0.8679245283018868
0.839097832576,0.8773584905660378
1.98459419656,0.8867924528301887
1.98459419656,0.8962264150943396
2.3279962546,0.9056603773584906
2.3279962546,0.9150943396226415
2.92661673754,0.9245283018867925
2.92661673754,0.9339622641509434
3.85348210602,0.9433962264150944
3.88199568929,0.9528301886792453
4.36684314607,0.9622641509433962
6.06212582783,0.9716981132075472
6.128032807,0.9811320754716981
8.24955273123,0.9905660377358491
19.4224202161,1.0
