Congestion,CDF
0.0,0.009433962264150943
0.0,0.018867924528301886
0.0,0.02830188679245283
0.0,0.03773584905660377
0.0,0.04716981132075472
0.0,0.05660377358490566
0.0,0.0660377358490566
0.0,0.07547169811320754
0.0,0.08490566037735849
0.0,0.09433962264150944
0.0,0.10377358490566038
0.0,0.11320754716981132
0.0,0.12264150943396226
0.0,0.1320754716981132
0.0,0.14150943396226415
0.0,0.1509433962264151
0.0,0.16037735849056603
0.0,0.16981132075471697
0.0,0.1792452830188679
0.0,0.18867924528301888
0.0,0.19811320754716982
0.0,0.20754716981132076
0.0,0.2169811320754717
0.0,0.22641509433962265
0.0,0.2358490566037736
0.0,0.24528301886792453
0.0,0.25471698113207547
0.0,0.2641509433962264
0.0,0.27358490566037735
0.0,0.2830188679245283
1.06721510496e-07,0.29245283018867924
2.74940360007e-06,0.3018867924528302
3.09175214406e-06,0.3113207547169811
4.19137747105e-06,0.32075471698113206
4.73130893755e-06,0.330188679245283
6.29559368856e-06,0.33962264150943394
9.60087713706e-06,0.3490566037735849
1.22896299129e-05,0.3584905660377358
1.300629354e-05,0.36792452830188677
1.51696412412e-05,0.37735849056603776
1.86774612121e-05,0.3867924528301887
1.91054317453e-05,0.39622641509433965
2.01581106635e-05,0.4056603773584906
7.86949211071e-05,0.41509433962264153
7.86949211071e-05,0.42452830188679247
0.000129173602804,0.4339622641509434
0.000153620373911,0.44339622641509435
0.000153620373911,0.4528301886792453
0.000157389842214,0.46226415094339623
0.000157389842214,0.4716981132075472
0.000157389842214,0.4811320754716981
0.000242987446067,0.49056603773584906
0.000307240747822,0.5
0.000307240747822,0.5094339622641509
0.000307240747822,0.5188679245283019
0.000386902902221,0.5283018867924528
0.000386902902221,0.5377358490566038
0.000419137747105,0.5471698113207547
0.000712359151871,0.5566037735849056
0.000712359151871,0.5660377358490566
0.000882629972018,0.5754716981132075
0.000882629972018,0.5849056603773585
0.00135576086577,0.5943396226415094
0.0013742024141,0.6037735849056604
0.00214285846955,0.6132075471698113
0.00222932327599,0.6226415094339622
0.00289844103837,0.6320754716981132
0.00464049493904,0.6415094339622641
0.00682293210553,0.6509433962264151
0.0106256885972,0.660377358490566
0.0107098826759,0.6698113207547169
0.0107873511877,0.6792452830188679
0.011086802514,0.6886792452830188
0.0129509657156,0.6981132075471698
0.0150516940802,0.7075471698113207
0.015105615825,0.7169811320754716
0.0152695755231,0.7264150943396226
0.0175137356327,0.7358490566037735
0.0202778992421,0.7452830188679245
0.0218243168414,0.7547169811320755
0.0221018973301,0.7641509433962265
0.188146176003,0.7735849056603774
0.188146176003,0.7830188679245284
0.188820197813,0.7924528301886793
0.188820197813,0.8018867924528302
0.190128357271,0.8113207547169812
0.376292352005,0.8207547169811321
0.376292352005,0.8301886792452831
0.376292352005,0.839622641509434
0.377640395625,0.8490566037735849
0.377640395625,0.8584905660377359
0.377640395625,0.8679245283018868
0.682293210553,0.8773584905660378
0.912460507612,0.8867924528301887
0.912460507612,0.8962264150943396
1.02451465959,0.9056603773584906
1.02451465959,0.9150943396226415
1.25265315545,0.9245283018867925
1.25265315545,0.9339622641509434
1.97502936733,0.9433962264150944
1.99119562639,0.9528301886792453
2.13319491099,0.9622641509433962
2.55939805796,0.9716981132075472
2.58715610682,0.9811320754716981
3.80412536735,0.9905660377358491
8.42699724444,1.0
