Congestion,CDF
0.0,0.005555555555555556
0.0,0.011111111111111112
0.0,0.016666666666666666
0.0,0.022222222222222223
0.0,0.027777777777777776
0.0,0.03333333333333333
0.0,0.03888888888888889
0.0,0.044444444444444446
0.0,0.05
0.0,0.05555555555555555
3.11263411065e-07,0.06111111111111111
3.57626689699e-07,0.06666666666666667
8.04988047966e-07,0.07222222222222222
1.17653685821e-06,0.07777777777777778
1.20388673478e-06,0.08333333333333333
1.58954492166e-06,0.08888888888888889
1.74870979412e-06,0.09444444444444444
2.4101208589e-06,0.1
2.422554793e-06,0.10555555555555556
2.47850095369e-06,0.1111111111111111
2.5295113471e-06,0.11666666666666667
2.78447522096e-06,0.12222222222222222
2.84906045577e-06,0.12777777777777777
3.18152836783e-06,0.13333333333333333
3.2585242178e-06,0.1388888888888889
3.43126750705e-06,0.14444444444444443
3.96762140252e-06,0.15
4.3421937571e-06,0.15555555555555556
4.5341249157e-06,0.16111111111111112
4.7156763588e-06,0.16666666666666666
4.79028804041e-06,0.17222222222222222
4.82876039709e-06,0.17777777777777778
4.98874411703e-06,0.18333333333333332
5.16209346637e-06,0.18888888888888888
5.2492318108e-06,0.19444444444444445
5.30851240394e-06,0.2
5.33796405618e-06,0.20555555555555555
5.39926195829e-06,0.2111111111111111
5.4520225156e-06,0.21666666666666667
5.4639864055e-06,0.2222222222222222
5.64655222703e-06,0.22777777777777777
5.69366069957e-06,0.23333333333333334
5.7590203799e-06,0.2388888888888889
6.23671018047e-06,0.24444444444444444
6.56264996119e-06,0.25
7.12512898234e-06,0.25555555555555554
7.23800678453e-06,0.2611111111111111
7.342166949e-06,0.26666666666666666
7.5908089632e-06,0.2722222222222222
2.68329349322e-05,0.2777777777777778
5.36658698644e-05,0.2833333333333333
5.88268429103e-05,0.28888888888888886
5.88268429103e-05,0.29444444444444445
6.05638698251e-05,0.3
6.05638698251e-05,0.3055555555555556
9.16902109316e-05,0.3111111111111111
0.000120388673478,0.31666666666666665
0.00012112773965,0.32222222222222224
0.000161273286912,0.3277777777777778
0.00024101208589,0.3333333333333333
0.000250644703097,0.3388888888888889
0.000265425620197,0.34444444444444444
0.000265425620197,0.35
0.000339011391921,0.35555555555555557
0.000516209346637,0.3611111111111111
0.00052492318108,0.36666666666666664
0.000541702882619,0.37222222222222223
0.00058357845698,0.37777777777777777
0.000617431363097,0.38333333333333336
0.000617431363097,0.3888888888888889
0.000704057194667,0.39444444444444443
0.000744059691526,0.4
0.000800063702564,0.40555555555555556
0.000855344434551,0.4111111111111111
0.00106260798719,0.4166666666666667
0.00112350465281,0.4222222222222222
0.0011820865858,0.42777777777777776
0.00145325773463,0.43333333333333335
0.00170620886934,0.4388888888888889
0.00178639693874,0.4444444444444444
0.00220588417858,0.45
0.00249890983698,0.45555555555555555
0.00444588945354,0.46111111111111114
0.00540882315543,0.4666666666666667
0.00566151678095,0.4722222222222222
0.00616790405175,0.4777777777777778
0.00631778177707,0.48333333333333334
0.00664693285579,0.4888888888888889
0.00671973537068,0.49444444444444446
0.00711649751093,0.5
0.00768586358089,0.5055555555555555
0.00773383798997,0.5111111111111111
0.0078607345603,0.5166666666666667
0.00798168808534,0.5222222222222223
0.00826659413091,0.5277777777777778
0.0198354985657,0.5333333333333333
0.0200661781367,0.5388888888888889
0.0236338444477,0.5444444444444444
0.0238164673409,0.55
0.0238926026814,0.5555555555555556
0.0238948772471,0.5611111111111111
0.023903206234,0.5666666666666667
0.0239134913108,0.5722222222222222
0.0239297586621,0.5777777777777777
0.0239458427034,0.5833333333333334
0.0239800178952,0.5888888888888889
0.0239807818567,0.5944444444444444
0.0239853161693,0.6
0.0239959562498,0.6055555555555555
0.0240078070367,0.6111111111111112
0.024011592646,0.6166666666666667
0.0240156723024,0.6222222222222222
0.0240159609023,0.6277777777777778
0.0240361875143,0.6333333333333333
0.0240592644987,0.6388888888888888
0.0240608356699,0.6444444444444445
0.0240684833411,0.65
0.0240687577511,0.6555555555555556
0.024076022525,0.6611111111111111
0.0240877078708,0.6666666666666666
0.0240940745068,0.6722222222222223
0.0240985572323,0.6777777777777778
0.0241004568965,0.6833333333333333
0.0241022368605,0.6888888888888889
0.0241039580467,0.6944444444444444
0.0241066479106,0.7
0.0241151059551,0.7055555555555556
0.0241194984964,0.7111111111111111
0.0241393739661,0.7166666666666667
0.0241517195541,0.7222222222222222
0.0241762258335,0.7277777777777777
0.0241805315322,0.7333333333333333
0.0241857569862,0.7388888888888889
0.0241931454772,0.7444444444444445
0.599519546418,0.75
0.599519546418,0.7555555555555555
0.797116377026,0.7611111111111111
0.929149420813,0.7666666666666667
1.1951603117,0.7722222222222223
1.1951603117,0.7777777777777778
1.19903909284,0.7833333333333333
1.20502284482,0.7888888888888889
1.20502284482,0.7944444444444444
1.59423275405,0.8
2.39297586621,0.8055555555555556
2.39800178952,0.8111111111111111
2.40940745068,0.8166666666666667
2.40985572323,0.8222222222222222
2.98877981456,0.8277777777777777
2.9991151714,0.8333333333333334
3.59877906313,0.8388888888888889
3.60618210942,0.8444444444444444
3.61761479146,0.85
3.80670738787,0.8555555555555555
3.80670738787,0.8611111111111112
4.80691326283,0.8666666666666667
4.82007224174,0.8722222222222222
5.3833640849,0.8777777777777778
6.01657791409,0.8833333333333333
6.20231511541,0.8888888888888888
6.21821798339,0.8944444444444445
7.79021241901,0.9
11.0368444937,0.9055555555555556
12.398510228,0.9111111111111111
13.805186903,0.9166666666666666
14.7970418449,0.9222222222222223
16.2228094863,0.9277777777777778
28.2441100247,0.9333333333333333
29.4775127954,0.9388888888888889
31.8968273431,0.9444444444444444
34.3037031182,0.95
35.45862554,0.9555555555555556
37.8737974954,0.9611111111111111
40.3084086312,0.9666666666666667
41.4705538974,0.9722222222222222
42.671793076,0.9777777777777777
43.871334601,0.9833333333333333
44.6553429325,0.9888888888888889
46.2529813351,0.9944444444444445
48.2595991488,1.0
