Congestion,CDF
0.0,0.005555555555555556
0.0,0.011111111111111112
0.0,0.016666666666666666
0.0,0.022222222222222223
0.0,0.027777777777777776
0.0,0.03333333333333333
0.0,0.03888888888888889
0.0,0.044444444444444446
0.0,0.05
0.0,0.05555555555555555
3.39486715262e-07,0.06111111111111111
3.90053908875e-07,0.06666666666666667
8.77979031631e-07,0.07222222222222222
1.28321742671e-06,0.07777777777777778
1.31304720892e-06,0.08333333333333333
1.73367432544e-06,0.08888888888888889
1.90727121418e-06,0.09444444444444444
2.62865465289e-06,0.1
2.64221601377e-06,0.10555555555555556
2.7032350017e-06,0.1111111111111111
2.75887067968e-06,0.11666666666666667
3.03695298865e-06,0.12222222222222222
3.10739438471e-06,0.12777777777777777
3.47000828466e-06,0.13333333333333333
3.55398560825e-06,0.1388888888888889
3.74239211466e-06,0.14444444444444443
4.32737902837e-06,0.15
4.73591512277e-06,0.15555555555555556
4.94524932741e-06,0.16111111111111112
5.14326265271e-06,0.16666666666666666
5.22463962735e-06,0.17222222222222222
5.26660040249e-06,0.17777777777777778
5.44109038636e-06,0.18333333333333332
5.63015790637e-06,0.18888888888888888
5.72519737864e-06,0.19444444444444445
5.78985314327e-06,0.2
5.82197527623e-06,0.20555555555555555
5.88883126605e-06,0.2111111111111111
5.94637580119e-06,0.21666666666666667
5.95942449737e-06,0.2222222222222222
6.15854417822e-06,0.22777777777777777
6.20992413499e-06,0.23333333333333334
6.28121019816e-06,0.2388888888888889
6.80221374547e-06,0.24444444444444444
7.15770758636e-06,0.25
7.77118847909e-06,0.25555555555555554
7.89430129264e-06,0.2611111111111111
8.00790601083e-06,0.26666666666666666
8.27909323579e-06,0.2722222222222222
2.9265967721e-05,0.2777777777777778
5.85319354421e-05,0.2833333333333333
6.41608713356e-05,0.28888888888888886
6.41608713356e-05,0.29444444444444445
6.60554003444e-05,0.3
6.60554003444e-05,0.3055555555555556
0.000100004071871,0.3111111111111111
0.000131304720892,0.31666666666666665
0.000132110800689,0.32222222222222224
0.000175896480238,0.3277777777777778
0.000262865465289,0.3333333333333333
0.000273371504415,0.3388888888888889
0.000289492657163,0.34444444444444444
0.000289492657163,0.35
0.000369750699209,0.35555555555555557
0.000563015790637,0.3611111111111111
0.000572519737864,0.36666666666666664
0.000590820911584,0.37222222222222223
0.000636493485629,0.37777777777777777
0.00067341594902,0.38333333333333336
0.00067341594902,0.3888888888888889
0.000767896437156,0.39444444444444443
0.000811526095439,0.4
0.000872608179208,0.40555555555555556
0.000932901401772,0.4111111111111111
0.00115895824037,0.4166666666666667
0.00122537661223,0.4222222222222222
0.00128927036684,0.42777777777777776
0.00158502951912,0.43333333333333335
0.00186091658708,0.4388888888888889
0.00194837557943,0.4444444444444444
0.00240589914334,0.45
0.00272549442733,0.45555555555555555
0.00484901325805,0.46111111111111114
0.00589925940921,0.4666666666666667
0.00617486561876,0.4722222222222222
0.00672716873279,0.4777777777777778
0.00689063637739,0.48333333333333334
0.00724963269552,0.4888888888888889
0.0073290364602,0.49444444444444446
0.0077609417398,0.5
0.00776177436303,0.5055555555555555
0.00815677440132,0.5111111111111111
0.00838276677653,0.5166666666666667
0.00843509118722,0.5222222222222223
0.00857349389795,0.5277777777777778
0.00870541468739,0.5333333333333333
0.00901615412587,0.5388888888888889
0.0152410678707,0.5444444444444444
0.015547543831,0.55
0.0155517494473,0.5555555555555556
0.0155762593695,0.5611111111111111
0.0155889963043,0.5666666666666667
0.0155935478599,0.5722222222222222
0.0156218779454,0.5777777777777777
0.0156540248288,0.5833333333333334
0.0157223773612,0.5888888888888889
0.0157236592022,0.5944444444444444
0.015732648301,0.6
0.0157539077371,0.6055555555555555
0.0157860815534,0.6111111111111112
0.0157933681346,0.6166666666666667
0.0158007638554,0.6222222222222222
0.0158119070658,0.6277777777777778
0.0158779930527,0.6333333333333333
0.0158836668053,0.6388888888888888
0.0158993084918,0.6444444444444445
0.0159101167874,0.65
0.0159144092778,0.6555555555555556
0.0159243183629,0.6611111111111111
0.0159374681069,0.6666666666666666
0.0159510547913,0.6722222222222223
0.0159591668933,0.6777777777777778
0.0159635356122,0.6833333333333333
0.0159665422539,0.6888888888888889
0.0159708164861,0.6944444444444444
0.0159762021407,0.7
0.0159922641828,0.7055555555555556
0.0160013410697,0.7111111111111111
0.0160411125027,0.7166666666666667
0.0160670308721,0.7222222222222222
0.0161149674045,0.7277777777777777
0.0161239743203,0.7333333333333333
0.0161335382977,0.7388888888888889
0.0161512777594,0.7444444444444445
0.393091480054,0.75
0.393091480054,0.7555555555555555
0.519633210144,0.7611111111111111
0.60217760228,0.7666666666666667
0.779677392993,0.7722222222222223
0.779677392993,0.7777777777777778
0.786182960108,0.7833333333333333
0.79817678061,0.7888888888888889
0.79817678061,0.7944444444444444
1.03926642029,0.8
1.56218779454,0.8055555555555556
1.57223773612,0.8111111111111111
1.59510547913,0.8166666666666667
1.59591668933,0.8222222222222222
1.94784586316,0.8277777777777777
1.96848225376,0.8333333333333334
2.36747669826,0.8388888888888889
2.37678493595,0.8444444444444444
2.39953678988,0.85
2.50907001181,0.8555555555555555
2.50907001181,0.8611111111111112
3.16629904481,0.8666666666666667
3.1927256932,0.8722222222222222
3.51324834603,0.8777777777777778
3.97386658455,0.8833333333333333
4.07648214443,0.8888888888888888
4.10829643009,0.8944444444444445
5.10317919521,0.9
7.29795993011,0.9055555555555556
8.14072710098,0.9111111111111111
9.07372781891,0.9166666666666666
9.71399193108,0.9222222222222223
10.6852245594,0.9277777777777778
18.6086060866,0.9333333333333333
19.4642142692,0.9388888888888889
21.0793420451,0.9444444444444444
22.6703537238,0.95
23.3663460592,0.9555555555555556
24.9730491464,0.9611111111111111
26.6302622584,0.9666666666666667
27.3328029249,0.9722222222222222
28.1543690455,0.9777777777777777
28.9139936315,0.9833333333333333
28.9304632194,0.9888888888888889
30.4716195684,0.9944444444444445
31.2872970086,1.0
