Congestion,CDF
0.0,0.005555555555555556
0.0,0.011111111111111112
0.0,0.016666666666666666
0.0,0.022222222222222223
0.0,0.027777777777777776
0.0,0.03333333333333333
0.0,0.03888888888888889
0.0,0.044444444444444446
0.0,0.05
0.0,0.05555555555555555
4.08130213347e-07,0.06111111111111111
4.68921986899e-07,0.06666666666666667
1.05550454078e-06,0.07222222222222222
1.54268128498e-06,0.07777777777777778
1.57854258626e-06,0.08333333333333333
2.08421961894e-06,0.08888888888888889
2.29291743258e-06,0.09444444444444444
3.16016308171e-06,0.1
3.17646652117e-06,0.10555555555555556
3.24982341981e-06,0.1111111111111111
3.31670851459e-06,0.11666666666666667
3.65101848014e-06,0.12222222222222222
3.73570297798e-06,0.12777777777777777
4.17163664399e-06,0.13333333333333333
4.27259400537e-06,0.1388888888888889
4.49909591016e-06,0.14444444444444443
5.20236594449e-06,0.15
5.69350717586e-06,0.15555555555555556
5.94516831534e-06,0.16111111111111112
6.18321951754e-06,0.16666666666666666
6.28105074489e-06,0.17222222222222222
6.33149590029e-06,0.17777777777777778
6.54126739102e-06,0.18333333333333332
6.76856396498e-06,0.18888888888888888
6.88282021816e-06,0.19444444444444445
6.96054924208e-06,0.2
6.99916640261e-06,0.20555555555555555
7.07954053262e-06,0.2111111111111111
7.14872045144e-06,0.21666666666666667
7.16440756648e-06,0.2222222222222222
7.40378882699e-06,0.22777777777777777
7.46555770269e-06,0.23333333333333334
7.55125765755e-06,0.2388888888888889
8.17760702369e-06,0.24444444444444444
8.60498096972e-06,0.25
9.34250640556e-06,0.25555555555555554
9.49051237045e-06,0.2611111111111111
9.62708772315e-06,0.26666666666666666
9.95310843324e-06,0.2722222222222222
3.51834846927e-05,0.2777777777777778
7.03669693855e-05,0.2833333333333333
7.71340642492e-05,0.28888888888888886
7.71340642492e-05,0.29444444444444445
7.94116630293e-05,0.3
7.94116630293e-05,0.3055555555555556
0.000120224684364,0.3111111111111111
0.000157854258626,0.31666666666666665
0.000158823326059,0.32222222222222224
0.0002114623777,0.3277777777777778
0.000316016308171,0.3333333333333333
0.000328646646258,0.3388888888888889
0.000348027462104,0.34444444444444444
0.000348027462104,0.35
0.000444513511044,0.35555555555555557
0.000676856396498,0.3611111111111111
0.000688282021816,0.36666666666666664
0.000710283654278,0.37222222222222223
0.000765191126504,0.37777777777777777
0.000809579234148,0.38333333333333336
0.000809579234148,0.3888888888888889
0.000841916279022,0.39444444444444443
0.000923163477792,0.4
0.000975614960995,0.40555555555555556
0.00104904771332,0.4111111111111111
0.00112153209837,0.4166666666666667
0.00119232331132,0.4222222222222222
0.00139329715315,0.42777777777777776
0.00147314517977,0.43333333333333335
0.00154995811685,0.4388888888888889
0.00190551914616,0.4444444444444444
0.00223718999762,0.45
0.00234233301382,0.45555555555555555
0.00289236687777,0.46111111111111114
0.00327658365438,0.4666666666666667
0.00582947351565,0.4722222222222222
0.00709207722433,0.4777777777777778
0.0074234104284,0.48333333333333334
0.00799882469241,0.4888888888888889
0.00808738806766,0.49444444444444446
0.00828390852537,0.5
0.0083913025757,0.5055555555555555
0.00839666682424,0.5111111111111111
0.00843069325277,0.5166666666666667
0.00844509335755,0.5222222222222223
0.00845682800448,0.5277777777777778
0.00848794322693,0.5333333333333333
0.00852972815772,0.5388888888888889
0.00861858706312,0.5444444444444444
0.00862017966636,0.55
0.00863184162885,0.5555555555555556
0.00865947268747,0.5611111111111111
0.00870156855668,0.5666666666666667
0.00871077969059,0.5722222222222222
0.00871549314215,0.5777777777777777
0.00872221803436,0.5833333333333334
0.0087413760906,0.5888888888888889
0.00881095218063,0.5944444444444444
0.0088281595445,0.6
0.00883059310505,0.6055555555555555
0.0088485976292,0.6111111111111112
0.00886538497497,0.6166666666666667
0.00886823454925,0.6222222222222222
0.00888929069407,0.6277777777777778
0.00889811829395,0.6333333333333333
0.00891603627184,0.6388888888888888
0.0089263267364,0.6444444444444445
0.00893217667618,0.65
0.0089359194825,0.6555555555555556
0.00894172494458,0.6611111111111111
0.00894872791347,0.6666666666666666
0.00896935317322,0.6722222222222223
0.00898124063216,0.6777777777777778
0.00903294929215,0.6833333333333333
0.00906699807416,0.6888888888888889
0.00912900615411,0.6944444444444444
0.00914083220408,0.7
0.00915300114201,0.7055555555555556
0.00917692643017,0.7111111111111111
0.00933118877508,0.7166666666666667
0.0100777445454,0.7222222222222222
0.0101406488416,0.7277777777777777
0.0103070362886,0.7333333333333333
0.0104656311836,0.7388888888888889
0.0108392014813,0.7444444444444445
0.215504491659,0.75
0.215504491659,0.7555555555555555
0.281503111918,0.7611111111111111
0.326856941018,0.7666666666666667
0.422841400224,0.7722222222222223
0.422841400224,0.7777777777777778
0.431008983318,0.7833333333333333
0.446608833809,0.7888888888888889
0.446608833809,0.7944444444444444
0.563006223837,0.8
0.848794322693,0.8055555555555556
0.861858706312,0.8111111111111111
0.891603627184,0.8166666666666667
0.89263267364,0.8222222222222222
1.05463474923,0.8277777777777777
1.08145176041,0.8333333333333334
1.30590071073,0.8388888888888889
1.31676568948,0.8444444444444444
1.34630909752,0.85
1.39019664521,0.8555555555555555
1.39019664521,0.8611111111111112
1.75208925191,0.8666666666666667
1.78647641853,0.8722222222222222
1.907607565,0.8777777777777778
2.21093818393,0.8833333333333333
2.24577082677,0.8888888888888888
2.28713196253,0.8944444444444445
2.79246732792,0.9
4.06957646556,0.9055555555555556
4.47563415441,0.9111111111111111
4.99905893126,0.9166666666666666
5.33881831729,0.9222222222222223
5.91195954667,0.9277777777777778
10.3019867311,0.9333333333333333
10.8234573695,0.9388888888888889
11.7411500126,0.9444444444444444
12.6276885101,0.95
12.9408994379,0.9555555555555556
13.8475992454,0.9611111111111111
14.8225182902,0.9666666666666667
15.142662449,0.9722222222222222
15.6224007594,0.9777777777777777
15.7065923873,0.9833333333333333
16.0168000581,0.9888888888888889
16.8598693833,0.9944444444444445
16.9791017145,1.0
