Congestion,CDF
0.0,0.005555555555555556
0.0,0.011111111111111112
0.0,0.016666666666666666
0.0,0.022222222222222223
0.0,0.027777777777777776
0.0,0.03333333333333333
0.0,0.03888888888888889
0.0,0.044444444444444446
0.0,0.05
0.0,0.05555555555555555
2.91317987077e-07,0.06111111111111111
3.34710356774e-07,0.06666666666666667
7.53405281246e-07,0.07222222222222222
1.10114564408e-06,0.07777777777777778
1.12674297003e-06,0.08333333333333333
1.48768859585e-06,0.08888888888888889
1.63665435479e-06,0.09444444444444444
2.25568291122e-06,0.1
2.26732009223e-06,0.10555555555555556
2.31968128322e-06,0.1111111111111111
2.36742298559e-06,0.11666666666666667
2.60604904914e-06,0.12222222222222222
2.66649573169e-06,0.12777777777777777
2.97765945819e-06,0.13333333333333333
3.04972149706e-06,0.1388888888888889
3.21139558247e-06,0.14444444444444443
3.71338049825e-06,0.15
4.06395065996e-06,0.15555555555555556
4.24358307673e-06,0.16111111111111112
4.41350089898e-06,0.16666666666666666
4.48333154442e-06,0.17222222222222222
4.51933863395e-06,0.17777777777777778
4.6690707695e-06,0.18333333333333332
4.83131207932e-06,0.18888888888888888
4.91286669254e-06,0.19444444444444445
4.96834864914e-06,0.2
4.99591307124e-06,0.20555555555555555
5.05328306983e-06,0.2111111111111111
5.10266278748e-06,0.21666666666666667
5.1138600442e-06,0.2222222222222222
5.28472724461e-06,0.22777777777777777
5.32881705699e-06,0.23333333333333334
5.38998855943e-06,0.2388888888888889
5.83706851231e-06,0.24444444444444444
6.14212242308e-06,0.25
6.66855839464e-06,0.25555555555555554
6.7742031089e-06,0.2611111111111111
6.87168880226e-06,0.26666666666666666
7.10439810411e-06,0.2722222222222222
2.51135093749e-05,0.2777777777777778
5.02270187497e-05,0.2833333333333333
5.50572822038e-05,0.28888888888888886
5.50572822038e-05,0.29444444444444445
5.66830023057e-05,0.3
5.66830023057e-05,0.3055555555555556
8.58148010134e-05,0.3111111111111111
0.000112674297003,0.31666666666666665
0.000113366004611,0.32222222222222224
0.000150939068463,0.3277777777777778
0.000225568291122,0.3333333333333333
0.000234583660598,0.3388888888888889
0.000248417432457,0.34444444444444444
0.000248417432457,0.35
0.000317287907219,0.35555555555555557
0.000483131207932,0.3611111111111111
0.000491286669254,0.36666666666666664
0.000506991145598,0.37222222222222223
0.000546183378276,0.37777777777777777
0.000577867026647,0.38333333333333336
0.000577867026647,0.3888888888888889
0.000658941968271,0.39444444444444443
0.000696381148234,0.4
0.000748796482591,0.40555555555555556
0.000800534884838,0.4111111111111111
0.000994517212353,0.4166666666666667
0.00105151168526,0.4222222222222222
0.00110633975111,0.42777777777777776
0.00136013454491,0.43333333333333335
0.00159687684347,0.4388888888888889
0.00167192654779,0.4444444444444444
0.00206453349731,0.45
0.00233878238726,0.45555555555555555
0.00416100164791,0.46111111111111114
0.00506223159576,0.4666666666666667
0.00529873288604,0.4722222222222222
0.00577267140617,0.4777777777777778
0.00591294512835,0.48333333333333334
0.00622100456061,0.4888888888888889
0.0062891419688,0.49444444444444446
0.00666048001862,0.5
0.00719336172432,0.5055555555555555
0.00723826198496,0.5111111111111111
0.0073570271598,0.5166666666666667
0.00747023011328,0.5222222222222223
0.00773687968645,0.5277777777777778
0.0330140169157,0.5333333333333333
0.0333442143952,0.5388888888888889
0.0386223256032,0.5444444444444444
0.0387064417028,0.55
0.0387095382012,0.5555555555555556
0.0387393500013,0.5611111111111111
0.0387563030621,0.5666666666666667
0.0387659030445,0.5722222222222222
0.038791627253,0.5777777777777777
0.0388463083272,0.5833333333333334
0.0388471442213,0.5888888888888889
0.038854272714,0.5944444444444444
0.0388691204977,0.6
0.038871265121,0.6055555555555555
0.0388976579566,0.6111111111111112
0.0389028549714,0.6166666666666667
0.0389129260261,0.6222222222222222
0.0389368481369,0.6277777777777778
0.0389750725563,0.6333333333333333
0.0389878560543,0.6388888888888888
0.0389931831568,0.6444444444444445
0.0389999305067,0.65
0.0390027082194,0.6555555555555556
0.0390181567775,0.6611111111111111
0.0390296422127,0.6666666666666666
0.0390321062932,0.6722222222222223
0.0390355158565,0.6777777777777778
0.0390394302979,0.6833333333333333
0.0390414259159,0.6888888888888889
0.0390454488473,0.6944444444444444
0.0390497605107,0.7
0.0390619937544,0.7055555555555556
0.039069481262,0.7111111111111111
0.0391012936897,0.7166666666666667
0.0391228430142,0.7222222222222222
0.0391605049665,0.7277777777777777
0.0391679812391,0.7333333333333333
0.0391749917302,0.7388888888888889
0.0391911908805,0.7444444444444445
0.971178605532,0.75
0.971178605532,0.7555555555555555
1.29131166671,0.7611111111111111
1.50768863589,0.7666666666666667
1.9378151531,0.7722222222222223
1.9378151531,0.7777777777777778
1.94235721106,0.7833333333333333
1.95197151489,0.7888888888888889
1.95197151489,0.7944444444444444
2.58262333342,0.8
3.87659030445,0.8055555555555556
3.88463083272,0.8111111111111111
3.90296422127,0.8166666666666667
3.90355158565,0.8222222222222222
4.84182277582,0.8277777777777777
4.85830511764,0.8333333333333334
5.83713346879,0.8388888888888889
5.84173731055,0.8444444444444444
5.85985638408,0.85
6.16638260732,0.8555555555555555
6.16638260732,0.8611111111111112
7.78671967342,0.8666666666666667
7.80794027234,0.8722222222222222
8.72098550112,0.8777777777777778
9.74628219528,0.8833333333333333
10.04712404,0.8888888888888888
10.0725819828,0.8944444444444445
12.6197711065,0.9
17.8779492462,0.9055555555555556
20.0844604674,0.9111111111111111
22.3633215804,0.9166666666666666
23.9698877388,0.9222222222222223
26.279372077,0.9277777777777778
45.7519795766,0.9333333333333333
47.7503926685,0.9388888888888889
51.6695117566,0.9444444444444444
55.5697825785,0.95
57.4386923006,0.9555555555555556
61.3509766021,0.9611111111111111
65.3101266766,0.9666666666666667
67.1800843578,0.9722222222222222
69.172359237,0.9777777777777777
71.0737691715,0.9833333333333333
72.4737609285,0.9888888888888889
74.9606812212,0.9944444444444445
78.2951026608,1.0
