Congestion,CDF
0.0,0.005555555555555556
0.0,0.011111111111111112
0.0,0.016666666666666666
0.0,0.022222222222222223
0.0,0.027777777777777776
0.0,0.03333333333333333
0.0,0.03888888888888889
0.0,0.044444444444444446
0.0,0.05
0.0,0.05555555555555555
3.00142828707e-07,0.06111111111111111
3.44849675393e-07,0.06666666666666667
7.76228047382e-07,0.07222222222222222
1.13450244438e-06,0.07777777777777778
1.16087518537e-06,0.08333333333333333
1.53275486994e-06,0.08888888888888889
1.68623322092e-06,0.09444444444444444
2.32401389435e-06,0.1
2.33600359831e-06,0.10555555555555556
2.38995095713e-06,0.1111111111111111
2.43913889002e-06,0.11666666666666667
2.68499360855e-06,0.12222222222222222
2.74727139122e-06,0.12777777777777777
3.06786114265e-06,0.13333333333333333
3.14210614346e-06,0.1388888888888889
3.30867779189e-06,0.14444444444444443
3.82586924341e-06,0.15
4.18705916187e-06,0.15555555555555556
4.37213315004e-06,0.16111111111111112
4.54719826129e-06,0.16666666666666666
4.6191442735e-06,0.17222222222222222
4.65624211909e-06,0.17777777777777778
4.81051006239e-06,0.18333333333333332
4.97766611806e-06,0.18888888888888888
5.06169125001e-06,0.19444444444444445
5.11885391121e-06,0.2
5.14725333722e-06,0.20555555555555555
5.20636123452e-06,0.2111111111111111
5.25723680278e-06,0.21666666666666667
5.26877325592e-06,0.2222222222222222
5.44481650467e-06,0.22777777777777777
5.49024192154e-06,0.23333333333333334
5.55326648093e-06,0.2388888888888889
6.01388974371e-06,0.24444444444444444
6.3281845959e-06,0.25
6.87056779449e-06,0.25555555555555554
6.97941278443e-06,0.2611111111111111
7.07985159379e-06,0.26666666666666666
7.31961031526e-06,0.2722222222222222
2.58742682461e-05,0.2777777777777778
5.17485364921e-05,0.2833333333333333
5.67251222192e-05,0.28888888888888886
5.67251222192e-05,0.29444444444444445
5.84000899578e-05,0.3
5.84000899578e-05,0.3055555555555556
8.84143728286e-05,0.3111111111111111
0.000116087518537,0.31666666666666665
0.000116800179916,0.32222222222222224
0.000155511437606,0.3277777777777778
0.000232401389435,0.3333333333333333
0.000241689859822,0.3388888888888889
0.000255942695561,0.34444444444444444
0.000255942695561,0.35
0.000326899450813,0.35555555555555557
0.000497766611806,0.3611111111111111
0.000506169125001,0.36666666666666664
0.000522349334129,0.37222222222222223
0.000562728809825,0.37777777777777777
0.000595372245066,0.38333333333333336
0.000595372245066,0.3888888888888889
0.000678903174826,0.39444444444444443
0.000717476492909,0.4
0.000771479635245,0.40555555555555556
0.000824785339295,0.4111111111111111
0.0010246439374,0.4166666666666667
0.00108336493328,0.4222222222222222
0.00113985389553,0.42777777777777776
0.00140133684785,0.43333333333333335
0.00164525073685,0.4388888888888889
0.00172257390791,0.4444444444444444
0.00212707402677,0.45
0.00240963068736,0.45555555555555555
0.00428705009735,0.46111111111111114
0.00521558083648,0.4666666666666667
0.00545924641639,0.4722222222222222
0.00594754186801,0.4777777777777778
0.00609206487598,0.48333333333333334
0.00640945629536,0.4888888888888889
0.00647965777738,0.49444444444444446
0.00686224470173,0.5
0.00741126889388,0.5055555555555555
0.00745752930976,0.5111111111111111
0.00757989221597,0.5166666666666667
0.00769652440548,0.5222222222222223
0.0079712515446,0.5277777777777778
0.0225200463839,0.5333333333333333
0.0229555058727,0.5388888888888889
0.0302926209533,0.5444444444444444
0.030357493576,0.55
0.0303619418097,0.5555555555555556
0.0304047965651,0.5611111111111111
0.030432537409,0.5666666666666667
0.0304429796197,0.5722222222222222
0.0304799478091,0.5777777777777777
0.0305585530222,0.5833333333333334
0.0305597514314,0.5888888888888889
0.0305699982747,0.5944444444444444
0.0305944242304,0.6
0.0306323932701,0.6055555555555555
0.0306392333289,0.6111111111111112
0.0306398351223,0.6166666666666667
0.0306549326531,0.6222222222222222
0.0306939073105,0.6277777777777778
0.0307436474194,0.6333333333333333
0.0307620267282,0.6388888888888888
0.0307757984042,0.6444444444444445
0.0307793943642,0.65
0.0307843321183,0.6555555555555556
0.0308055820114,0.6611111111111111
0.0308221214989,0.6666666666666666
0.0308305356877,0.6722222222222223
0.0308322785772,0.6777777777777778
0.0308361784726,0.6833333333333333
0.0308390327624,0.6888888888888889
0.0308448428518,0.6944444444444444
0.0308510415757,0.7
0.0308685975822,0.7055555555555556
0.0308793641327,0.7111111111111111
0.0309251037501,0.7166666666666667
0.0309561557648,0.7222222222222222
0.0310102171452,0.7277777777777777
0.0310209843966,0.7333333333333333
0.0310310317166,0.7388888888888889
0.031054479765,0.7444444444444445
0.763993785786,0.75
0.763993785786,0.7555555555555555
1.01349321884,0.7611111111111111
1.18204364537,0.7666666666666667
1.52162687045,0.7722222222222223
1.52162687045,0.7777777777777778
1.52798757157,0.7833333333333333
1.54180892363,0.7888888888888889
1.54180892363,0.7944444444444444
2.02698643767,0.8
3.04429796197,0.8055555555555556
3.05585530222,0.8111111111111111
3.08221214989,0.8166666666666667
3.08305356877,0.8222222222222222
3.79974314338,0.8277777777777777
3.82343620883,0.8333333333333334
4.59920671087,0.8388888888888889
4.60504825064,0.8444444444444444
4.63109074323,0.85
4.86103034657,0.8555555555555555
4.86103034657,0.8611111111111112
6.13680833698,0.8666666666666667
6.16731630746,0.8722222222222222
6.84773792429,0.8777777777777778
7.68953253582,0.8833333333333333
7.91129416961,0.8888888888888888
7.94789010478,0.8944444444444445
9.92394059712,0.9
14.1115018747,0.9055555555555556
15.8085186971,0.9111111111111111
17.6095412362,0.9166666666666666
18.8655185246,0.9222222222222223
20.7105629508,0.9277777777777778
36.0609236755,0.9333333333333333
37.6695102337,0.9388888888888889
40.7749582102,0.9444444444444444
43.853391422,0.95
45.2756714489,0.9555555555555556
48.3712870254,0.9611111111111111
51.5358259906,0.9666666666666667
52.9584071612,0.9722222222222222
54.5650880859,0.9777777777777777
56.0277978922,0.9833333333333333
56.8170927243,0.9888888888888889
59.0917212251,0.9944444444444445
61.3872718124,1.0
