Congestion,CDF
0.0,0.005555555555555556
0.0,0.011111111111111112
0.0,0.016666666666666666
0.0,0.022222222222222223
0.0,0.027777777777777776
0.0,0.03333333333333333
0.0,0.03888888888888889
0.0,0.044444444444444446
0.0,0.05
0.0,0.05555555555555555
3.96854826328e-07,0.06111111111111111
4.55967109481e-07,0.06666666666666667
1.02634418507e-06,0.07222222222222222
1.50006172885e-06,0.07777777777777778
1.53493229228e-06,0.08333333333333333
2.02663901827e-06,0.08888888888888889
2.2295711509e-06,0.09444444444444444
3.07285746055e-06,0.1
3.08871048594e-06,0.10555555555555556
3.16004075828e-06,0.1111111111111111
3.22507802287e-06,0.11666666666666667
3.55015202862e-06,0.12222222222222222
3.63249695331e-06,0.12777777777777777
4.05638710812e-06,0.13333333333333333
4.154555327e-06,0.1388888888888889
4.3747996783e-06,0.14444444444444443
5.05864051686e-06,0.15
5.53621302119e-06,0.15555555555555556
5.78092153463e-06,0.16111111111111112
6.01239611166e-06,0.16666666666666666
6.10752456201e-06,0.17222222222222222
6.15657607237e-06,0.17777777777777778
6.36055221969e-06,0.18333333333333332
6.58156928588e-06,0.18888888888888888
6.69266898895e-06,0.19444444444444445
6.76825059815e-06,0.2
6.80580088488e-06,0.20555555555555555
6.88395452399e-06,0.2111111111111111
6.95122321368e-06,0.21666666666666667
6.9664769418e-06,0.2222222222222222
7.1992448317e-06,0.22777777777777777
7.25930722267e-06,0.23333333333333334
7.34263955041e-06,0.2388888888888889
7.95168480311e-06,0.24444444444444444
8.36725171676e-06,0.25
9.08440158506e-06,0.25555555555555554
9.22831859873e-06,0.2611111111111111
9.36112079298e-06,0.26666666666666666
9.67813455e-06,0.2722222222222222
3.42114728357e-05,0.2777777777777778
6.84229456713e-05,0.2833333333333333
7.50030864427e-05,0.28888888888888886
7.50030864427e-05,0.29444444444444445
7.72177621486e-05,0.3
7.72177621486e-05,0.3055555555555556
0.00011507625082,0.3111111111111111
0.000116903244781,0.31666666666666665
0.000153493229228,0.32222222222222224
0.000154435524297,0.3277777777777778
0.000205620320261,0.3333333333333333
0.000307285746055,0.3388888888888889
0.000319567146608,0.34444444444444444
0.000338412529908,0.35
0.000338412529908,0.35555555555555557
0.000432232965011,0.3611111111111111
0.000658156928588,0.36666666666666664
0.000669266898895,0.37222222222222223
0.000690660693679,0.37777777777777777
0.000744051240719,0.38333333333333336
0.000785361484802,0.3888888888888889
0.000787213040983,0.39444444444444443
0.000787213040983,0.4
0.000897659300071,0.40555555555555556
0.000948661709539,0.4111111111111111
0.00102006573996,0.4166666666666667
0.0010905476036,0.4222222222222222
0.00135480462277,0.42777777777777776
0.00143244669312,0.43333333333333335
0.00150713752415,0.4388888888888889
0.0018528754919,0.4444444444444444
0.00217538329418,0.45
0.00227762153107,0.45555555555555555
0.00281245964502,0.46111111111111114
0.00318606168958,0.4666666666666667
0.00566842302769,0.4722222222222222
0.00689614486534,0.4777777777777778
0.00721832434839,0.48333333333333334
0.00786395832034,0.4888888888888889
0.00805504952007,0.49444444444444446
0.00847471077654,0.5
0.00856753257434,0.5055555555555555
0.00870476316001,0.5111111111111111
0.00888876981915,0.5166666666666667
0.00889669394469,0.5222222222222223
0.00897308772839,0.5277777777777778
0.00902637664273,0.5333333333333333
0.00904117628643,0.5388888888888889
0.00907339662603,0.5444444444444444
0.0091070578078,0.55
0.00924718221574,0.5555555555555556
0.0092493128281,0.5611111111111111
0.00926757828144,0.5666666666666667
0.00931111908291,0.5722222222222222
0.00932456341282,0.5777777777777777
0.00937885523927,0.5833333333333334
0.00939206979489,0.5888888888888889
0.00941980498133,0.5944444444444444
0.00949106876295,0.6
0.00957712563861,0.6055555555555555
0.00960989416851,0.6111111111111112
0.00964087212188,0.6166666666666667
0.00964114482952,0.6222222222222222
0.00965092483213,0.6277777777777778
0.00968753260392,0.6333333333333333
0.00971706773766,0.6388888888888888
0.00973201524613,0.6444444444444445
0.0097384390666,0.65
0.0097421022005,0.6555555555555556
0.00974716460283,0.6611111111111111
0.00975756979441,0.6666666666666666
0.00976862084148,0.6722222222222223
0.0097993273483,0.6777777777777778
0.00979986456496,0.6833333333333333
0.00981906291585,0.6888888888888889
0.00986049379159,0.6944444444444444
0.00990061503313,0.7
0.00995608860601,0.7055555555555556
0.0100222844634,0.7111111111111111
0.0100523339857,0.7166666666666667
0.0100715623438,0.7222222222222222
0.0100894202525,0.7277777777777777
0.0101314827726,0.7333333333333333
0.0101764978674,0.7388888888888889
0.0105397475627,0.7444444444444445
0.231232820703,0.75
0.231232820703,0.7555555555555555
0.29910292428,0.7611111111111111
0.353450821883,0.7666666666666667
0.451318832136,0.7722222222222223
0.451318832136,0.7777777777777778
0.462465641405,0.7833333333333333
0.487105110025,0.7888888888888889
0.487105110025,0.7944444444444444
0.59820584856,0.8
0.904117628643,0.8055555555555556
0.924718221574,0.8111111111111111
0.971706773766,0.8166666666666667
0.973201524613,0.8222222222222222
1.12010980262,0.8277777777777777
1.16234472899,0.8333333333333334
1.41543331509,0.8388888888888889
1.42499063395,0.8444444444444444
1.47140766665,0.85
1.50441024735,0.8555555555555555
1.50441024735,0.8611111111111112
1.89417913196,0.8666666666666667
1.94856885791,0.8722222222222222
2.0308155834,0.8777777777777778
2.40074761339,0.8833333333333333
2.41916021714,0.8888888888888888
2.48439670385,0.8944444444444445
2.99180500025,0.9
4.42635148885,0.9055555555555556
4.81323985895,0.9111111111111111
5.38553462343,0.9166666666666666
5.7399976871,0.9222222222222223
6.39076802201,0.9277777777777778
11.1410656362,0.9333333333333333
11.7472407277,0.9388888888888889
12.7603890049,0.9444444444444444
13.7254814882,0.95
13.9993319804,0.9555555555555556
14.994940841,0.9611111111111111
16.1147587099,0.9666666666666667
16.3882401712,0.9722222222222222
16.9852350259,0.9777777777777777
17.0637711744,0.9833333333333333
17.3373470475,0.9888888888888889
18.2698033888,0.9944444444444445
18.2813110139,1.0
