Congestion,CDF
0.0,0.005555555555555556
0.0,0.011111111111111112
0.0,0.016666666666666666
0.0,0.022222222222222223
0.0,0.027777777777777776
0.0,0.03333333333333333
0.0,0.03888888888888889
0.0,0.044444444444444446
0.0,0.05
0.0,0.05555555555555555
3.03637317588e-07,0.06111111111111111
3.48864675057e-07,0.06666666666666667
7.85265478968e-07,0.07222222222222222
1.14771117635e-06,0.07777777777777778
1.17439096866e-06,0.08333333333333333
1.55060035661e-06,0.08888888888888889
1.70586561816e-06,0.09444444444444444
2.35107181457e-06,0.1
2.36320111169e-06,0.10555555555555556
2.41777656629e-06,0.1111111111111111
2.46753718215e-06,0.11666666666666667
2.71625432649e-06,0.12222222222222222
2.77925719402e-06,0.12777777777777777
3.1035794928e-06,0.13333333333333333
3.17868890983e-06,0.1388888888888889
3.34719991085e-06,0.14444444444444443
3.87041289481e-06,0.15
4.23580805834e-06,0.15555555555555556
4.42303681729e-06,0.16111111111111112
4.60014016843e-06,0.16666666666666666
4.6729238303e-06,0.17222222222222222
4.71045359695e-06,0.17777777777777778
4.86651764384e-06,0.18333333333333332
5.03561985621e-06,0.18888888888888888
5.12062327203e-06,0.19444444444444445
5.17845146399e-06,0.2
5.20718153751e-06,0.20555555555555555
5.26697761347e-06,0.2111111111111111
5.31844551341e-06,0.21666666666666667
5.33011628263e-06,0.2222222222222222
5.50820915948e-06,0.22777777777777777
5.55416345327e-06,0.23333333333333334
5.61792179205e-06,0.2388888888888889
6.0839079778e-06,0.24444444444444444
6.40186208739e-06,0.25
6.9505601197e-06,0.25555555555555554
7.060672365e-06,0.2611111111111111
7.16228055862e-06,0.26666666666666666
7.40483073172e-06,0.2722222222222222
2.61755159656e-05,0.2777777777777778
5.23510319312e-05,0.2833333333333333
5.73855588177e-05,0.28888888888888886
5.73855588177e-05,0.29444444444444445
5.90800277924e-05,0.3
5.90800277924e-05,0.3055555555555556
8.94437595512e-05,0.3111111111111111
0.000117439096866,0.31666666666666665
0.000118160055585,0.32222222222222224
0.000157322018894,0.3277777777777778
0.000235107181457,0.3333333333333333
0.000244503795212,0.3388888888888889
0.0002589225732,0.34444444444444444
0.0002589225732,0.35
0.000330705460442,0.35555555555555557
0.000503561985621,0.3611111111111111
0.000512062327203,0.36666666666666664
0.000528430918513,0.37222222222222223
0.000569280522479,0.37777777777777777
0.000602304017181,0.38333333333333336
0.000602304017181,0.3888888888888889
0.000686807476941,0.39444444444444443
0.000725829894646,0.4
0.000780461782241,0.40555555555555556
0.000834388111447,0.4111111111111111
0.00103657361388,0.4166666666666667
0.00109597828383,0.4222222222222222
0.00115312493313,0.42777777777777776
0.00141765226693,0.43333333333333335
0.00166440598514,0.4388888888888889
0.0017426294108,0.4444444444444444
0.00215183902472,0.45
0.00243768542277,0.45555555555555555
0.00433696316361,0.46111111111111114
0.00527630455698,0.4666666666666667
0.0055228070751,0.4722222222222222
0.00601678763015,0.4777777777777778
0.00616299328384,0.48333333333333334
0.00648408001318,0.4888888888888889
0.00655509883374,0.49444444444444446
0.00694214012322,0.5
0.00749755646855,0.5055555555555555
0.00754435548304,0.5111111111111111
0.00766814303036,0.5166666666666667
0.00778613313967,0.5222222222222223
0.00806405885907,0.5277777777777778
0.0194815544414,0.5333333333333333
0.0199453299513,0.5388888888888889
0.0279080462546,0.5444444444444444
0.0279720798254,0.55
0.0279769142692,0.5555555555555556
0.0280234955833,0.5611111111111111
0.0280543041772,0.5666666666666667
0.0280650014982,0.5722222222222222
0.0281051822537,0.5777777777777777
0.0281906229351,0.5833333333333334
0.02819192492,0.5888888888888889
0.0282030627206,0.5944444444444444
0.0282296125474,0.6
0.0282708890738,0.6055555555555555
0.0282789723082,0.6111111111111112
0.0282837667245,0.6166666666666667
0.0282955035729,0.6222222222222222
0.0283386795928,0.6277777777777778
0.0283918116661,0.6333333333333333
0.028411789778,0.6388888888888888
0.0284279388388,0.6444444444444445
0.0284306697505,0.65
0.0284362209572,0.6555555555555556
0.0284591320782,0.6611111111111111
0.0284771155804,0.6666666666666666
0.0284862556394,0.6722222222222223
0.0284893405438,0.6777777777777778
0.0284923922368,0.6833333333333333
0.0284954918614,0.6888888888888889
0.0285018125669,0.6944444444444444
0.0285085504508,0.7
0.0285276272473,0.7055555555555556
0.0285393306672,0.7111111111111111
0.0285890494813,0.7166666666666667
0.0286228164913,0.7222222222222222
0.0286815634818,0.7277777777777777
0.0286932710097,0.7333333333333333
0.0287041859984,0.7388888888888889
0.0287297050522,0.7444444444444445
0.704798123001,0.75
0.704798123001,0.7555555555555555
0.934116519445,0.7611111111111111
1.08891101403,0.7666666666666667
1.40271520886,0.7722222222222223
1.40271520886,0.7777777777777778
1.409596246,0.7833333333333333
1.42461961184,0.7888888888888889
1.42461961184,0.7944444444444444
1.86823303889,0.8
2.80650014982,0.8055555555555556
2.81906229351,0.8111111111111111
2.84771155804,0.8166666666666667
2.84862556394,0.8222222222222222
3.50200610554,0.8277777777777777
3.52775937774,0.8333333333333334
4.24550909274,0.8388888888888889
4.25170851922,0.8444444444444444
4.28001484585,0.85
4.48807255778,0.8555555555555555
4.48807255778,0.8611111111111112
5.66540509796,0.8666666666666667
5.69856660313,0.8722222222222222
6.31252433091,0.8777777777777778
7.10188977591,0.8833333333333333
7.30105706379,0.8888888888888888
7.34083528251,0.8944444444444445
9.15370330871,0.9
13.0353740543,0.9055555555555556
14.5868210485,0.9111111111111111
16.2513182808,0.9166666666666666
17.4071273206,0.9222222222222223
19.1194746289,0.9277777777777778
33.292050561,0.9333333333333333
34.789258109,0.9388888888888889
37.6622286142,0.9444444444444444
40.5058507099,0.95
41.800522634,0.9555555555555556
44.6628042831,0.9611111111111111
47.600293857,0.9666666666666667
48.8950698493,0.9722222222222222
50.3910984825,0.9777777777777777
51.7289378085,0.9833333333333333
52.3392539266,0.9888888888888889
54.557314481,0.9944444444444445
56.5518474761,1.0
