Congestion,CDF
0.0,0.009433962264150943
0.0,0.018867924528301886
0.0,0.02830188679245283
0.0,0.03773584905660377
0.0,0.04716981132075472
0.0,0.05660377358490566
0.0,0.0660377358490566
0.0,0.07547169811320754
0.0,0.08490566037735849
0.0,0.09433962264150944
0.0,0.10377358490566038
0.0,0.11320754716981132
0.0,0.12264150943396226
0.0,0.1320754716981132
0.0,0.14150943396226415
0.0,0.1509433962264151
0.0,0.16037735849056603
0.0,0.16981132075471697
0.0,0.1792452830188679
0.0,0.18867924528301888
0.0,0.19811320754716982
0.0,0.20754716981132076
0.0,0.2169811320754717
0.0,0.22641509433962265
0.0,0.2358490566037736
0.0,0.24528301886792453
0.0,0.25471698113207547
0.0,0.2641509433962264
0.0,0.27358490566037735
0.0,0.2830188679245283
1.61501349943e-07,0.29245283018867924
4.16066443293e-06,0.3018867924528302
4.67873948406e-06,0.3113207547169811
6.34279927776e-06,0.32075471698113206
7.15987598808e-06,0.330188679245283
9.52710353021e-06,0.33962264150943394
1.45289793132e-05,0.3490566037735849
1.8597861031e-05,0.3584905660377358
1.96823860036e-05,0.36792452830188677
2.29561737575e-05,0.37735849056603776
2.82645474679e-05,0.3867924528301887
2.8912194025e-05,0.39622641509433965
3.05052099556e-05,0.4056603773584906
0.000195478035617,0.41509433962264153
0.000267949786787,0.42452830188679247
0.000267949786787,0.4339622641509434
0.000697419788664,0.44339622641509435
0.000697419788664,0.4528301886792453
0.000697419788664,0.46226415094339623
0.000714532764766,0.4716981132075472
0.000714532764766,0.4811320754716981
0.000714532764766,0.49056603773584906
0.00110313657603,0.5
0.00128120942797,0.5094339622641509
0.00128218921769,0.5188679245283019
0.00129720546588,0.5283018867924528
0.00130113119718,0.5377358490566038
0.00131018355177,0.5471698113207547
0.00131737282024,0.5566037735849056
0.00131737282024,0.5660377358490566
0.00139483957733,0.5754716981132075
0.00139483957733,0.5849056603773585
0.00141576052931,0.5943396226415094
0.00154311272155,0.6037735849056604
0.00185023695003,0.6132075471698113
0.00186589827186,0.6226415094339622
0.00190283978333,0.6320754716981132
0.00219763280483,0.6415094339622641
0.00242552480102,0.6509433962264151
0.00242552480102,0.660377358490566
0.00300528305369,0.6698113207547169
0.00300528305369,0.6792452830188679
0.00353833701323,0.6886792452830188
0.00358119825564,0.6981132075471698
0.00365365906546,0.7075471698113207
0.00379533194823,0.7169811320754716
0.004616255151,0.7264150943396226
0.00623872949157,0.7358490566037735
0.00972834437856,0.7452830188679245
0.00986895529368,0.7547169811320755
0.0210673422886,0.7641509433962265
0.0261177544724,0.7735849056603774
0.0520379142196,0.7830188679245284
0.0520379142196,0.7924528301886793
0.0699711851948,0.8018867924528302
0.0699711851948,0.8113207547169812
0.0699711851948,0.8207547169811321
0.138767771252,0.8301886792452831
0.138767771252,0.839622641509434
0.138767771252,0.8490566037735849
0.13994237039,0.8584905660377359
0.13994237039,0.8679245283018868
0.250451918027,0.8773584905660378
0.250451918027,0.8867924528301887
0.263789362663,0.8962264150943396
0.263789362663,0.9056603773584906
0.278271941014,0.9150943396226415
0.351749993659,0.9245283018867925
0.351749993659,0.9339622641509434
0.38436282839,0.9433962264150944
0.538944492009,0.9528301886792453
0.545243217177,0.9622641509433962
1.20085617479,0.9716981132075472
1.23545279046,0.9811320754716981
1.28365295823,0.9905660377358491
3.97966843349,1.0
