Congestion,CDF
0.0,0.009433962264150943
0.0,0.018867924528301886
0.0,0.02830188679245283
0.0,0.03773584905660377
0.0,0.04716981132075472
0.0,0.05660377358490566
0.0,0.0660377358490566
0.0,0.07547169811320754
0.0,0.08490566037735849
0.0,0.09433962264150944
0.0,0.10377358490566038
0.0,0.11320754716981132
0.0,0.12264150943396226
0.0,0.1320754716981132
0.0,0.14150943396226415
0.0,0.1509433962264151
0.0,0.16037735849056603
0.0,0.16981132075471697
0.0,0.1792452830188679
0.0,0.18867924528301888
0.0,0.19811320754716982
0.0,0.20754716981132076
0.0,0.2169811320754717
0.0,0.22641509433962265
0.0,0.2358490566037736
0.0,0.24528301886792453
0.0,0.25471698113207547
0.0,0.2641509433962264
0.0,0.27358490566037735
0.0,0.2830188679245283
1.70393011773e-07,0.29245283018867924
4.38973509479e-06,0.3018867924528302
4.93633342549e-06,0.3113207547169811
6.69201014347e-06,0.32075471698113206
7.55407204927e-06,0.330188679245283
1.00516303087e-05,0.33962264150943394
1.53288907122e-05,0.3490566037735849
1.9621789878e-05,0.3584905660377358
2.07660247496e-05,0.36792452830188677
2.4220055044e-05,0.37735849056603776
2.98206880074e-05,0.3867924528301887
3.05039915679e-05,0.39622641509433965
3.21847130126e-05,0.4056603773584906
0.000206240327005,0.41509433962264153
0.000282702102431,0.42452830188679247
0.000282702102431,0.4339622641509434
0.000735817120426,0.44339622641509435
0.000735817120426,0.4528301886792453
0.000735817120426,0.46226415094339623
0.00075387227315,0.4716981132075472
0.00075387227315,0.4811320754716981
0.00075387227315,0.49056603773584906
0.00116387116053,0.5
0.00128120942797,0.5094339622641509
0.00128218921769,0.5188679245283019
0.00129720546588,0.5283018867924528
0.00130113119718,0.5377358490566038
0.00131018355177,0.5471698113207547
0.00138124415953,0.5566037735849056
0.00138990245312,0.5660377358490566
0.00138990245312,0.5754716981132075
0.00146457486649,0.5849056603773585
0.00147163424085,0.5943396226415094
0.00147163424085,0.6037735849056604
0.00177243379973,0.6132075471698113
0.00178743655717,0.6226415094339622
0.00200760304304,0.6320754716981132
0.00204582582574,0.6415094339622641
0.00255906514788,0.6509433962264151
0.00255906514788,0.660377358490566
0.00308838924826,0.6698113207547169
0.00317009548227,0.6792452830188679
0.00317074272708,0.6886792452830188
0.00317074272708,0.6981132075471698
0.00317197843692,0.7075471698113207
0.00400428876639,0.7169811320754716
0.00487040893816,0.7264150943396226
0.0065822106631,0.7358490566037735
0.0102639507274,0.7452830188679245
0.0104123031549,0.7547169811320755
0.022227231561,0.7641509433962265
0.0243538972366,0.7735849056603774
0.0498497006175,0.7830188679245284
0.0498497006175,0.7924528301886793
0.0670288708939,0.8018867924528302
0.0670288708939,0.8113207547169812
0.0670288708939,0.8207547169811321
0.13293253498,0.8301886792452831
0.13293253498,0.839622641509434
0.13293253498,0.8490566037735849
0.134057741788,0.8584905660377359
0.134057741788,0.8679245283018868
0.2460569687,0.8773584905660378
0.2460569687,0.8867924528301887
0.255511321735,0.8962264150943396
0.255511321735,0.9056603773584906
0.27413292055,0.9150943396226415
0.330276759184,0.9245283018867925
0.330276759184,0.9339622641509434
0.38436282839,0.9433962264150944
0.534549542681,0.9528301886792453
0.540848267849,0.9622641509433962
1.06001191286,0.9716981132075472
1.08508866946,0.9811320754716981
1.2204232345,0.9905660377358491
3.53649823925,1.0
