Congestion,CDF
0.0,0.005555555555555556
0.0,0.011111111111111112
0.0,0.016666666666666666
0.0,0.022222222222222223
0.0,0.027777777777777776
0.0,0.03333333333333333
0.0,0.03888888888888889
0.0,0.044444444444444446
0.0,0.05
0.0,0.05555555555555555
1.08455098029e-06,0.06111111111111111
1.24609691697e-06,0.06666666666666667
2.80486091687e-06,0.07222222222222222
4.09946738858e-06,0.07777777777777778
4.19476395861e-06,0.08333333333333333
5.53853245103e-06,0.08888888888888889
6.09311873494e-06,0.09444444444444444
8.39770704563e-06,0.1
8.44103123646e-06,0.10555555555555556
8.63596729787e-06,0.1111111111111111
8.81370541362e-06,0.11666666666666667
9.70208904466e-06,0.12222222222222222
9.9271266727e-06,0.12777777777777777
1.10855615774e-05,0.13333333333333333
1.13538421449e-05,0.1388888888888889
1.19557403991e-05,0.14444444444444443
1.38245856357e-05,0.15
1.51297271972e-05,0.15555555555555556
1.57984827233e-05,0.16111111111111112
1.64310716772e-05,0.16666666666666666
1.66910449652e-05,0.17222222222222222
1.682509616e-05,0.17777777777777778
1.7382535596e-05,0.18333333333333332
1.79865455762e-05,0.18888888888888888
1.82901661545e-05,0.19444444444444445
1.8496720549e-05,0.2
1.85993404432e-05,0.20555555555555555
1.88129238502e-05,0.2111111111111111
1.89967601513e-05,0.21666666666666667
1.90384465431e-05,0.2222222222222222
1.96745699475e-05,0.22777777777777777
1.98387124013e-05,0.23333333333333334
2.00664484694e-05,0.2388888888888889
2.17308874079e-05,0.24444444444444444
2.28665760116e-05,0.25
2.48264503562e-05,0.25555555555555554
2.52197562402e-05,0.2611111111111111
2.55826868143e-05,0.26666666666666666
2.64490428673e-05,0.2722222222222222
9.34953638955e-05,0.2777777777777778
0.000186990727791,0.2833333333333333
0.000204973369429,0.28888888888888886
0.000204973369429,0.29444444444444445
0.000211025780912,0.3
0.000211025780912,0.3055555555555556
0.000319480878941,0.3111111111111111
0.000419476395861,0.31666666666666665
0.000422051561823,0.32222222222222224
0.000561932739917,0.3277777777777778
0.000615876659244,0.3333333333333333
0.000839770704563,0.3388888888888889
0.000873334124044,0.34444444444444444
0.000894940918732,0.35
0.000924836027449,0.35555555555555557
0.000924836027449,0.3611111111111111
0.00118123468538,0.36666666666666664
0.00179865455762,0.37222222222222223
0.00182901661545,0.37777777777777777
0.00188748298543,0.38333333333333336
0.00203339218519,0.3888888888888889
0.00215134759277,0.39444444444444443
0.00215134759277,0.4
0.00245318239637,0.40555555555555556
0.00259256513665,0.4111111111111111
0.002787702769,0.4166666666666667
0.00298032024325,0.4222222222222222
0.00370249921193,0.42777777777777776
0.00391468457022,0.43333333333333335
0.00411880458752,0.4388888888888889
0.00506366005346,0.4444444444444444
0.00594503059482,0.45
0.00606900739068,0.45555555555555555
0.00622443397533,0.46111111111111114
0.00645920327742,0.4666666666666667
0.00659239084721,0.4722222222222222
0.00659901991287,0.4777777777777778
0.00662164444052,0.48333333333333334
0.0066399811148,0.4888888888888889
0.00667545655505,0.49444444444444446
0.00670951163748,0.5
0.00678469104631,0.5055555555555555
0.00678760672443,0.5111111111111111
0.00679802475588,0.5166666666666667
0.00682139006298,0.5222222222222223
0.00685342574713,0.5277777777777778
0.00685441990806,0.5333333333333333
0.00686433791845,0.5388888888888889
0.00686478122611,0.5444444444444444
0.00691934216733,0.55
0.00696412250935,0.5555555555555556
0.00696801876321,0.5611111111111111
0.0069793045317,0.5666666666666667
0.00697960009424,0.5722222222222222
0.00699722702228,0.5777777777777777
0.00702327373717,0.5833333333333334
0.0070358768373,0.5888888888888889
0.00704714195399,0.5944444444444444
0.00704977467184,0.6
0.00705526586766,0.6055555555555555
0.00705761075024,0.6111111111111112
0.00706353651675,0.6166666666666667
0.00708354821459,0.6222222222222222
0.00709152933321,0.6277777777777778
0.00713659694082,0.6333333333333333
0.00716304163376,0.6388888888888888
0.00721654673748,0.6444444444444445
0.00722606848893,0.65
0.00723896157038,0.6555555555555556
0.00725284788948,0.6611111111111111
0.00768607476257,0.6666666666666666
0.00870707901095,0.6722222222222223
0.0154910394017,0.6777777777777778
0.0188462384171,0.6833333333333333
0.0197267117061,0.6888888888888889
0.0214911427038,0.6944444444444444
0.0220133693072,0.7
0.0231602472004,0.7055555555555556
0.0234139167166,0.7111111111111111
0.0247963752801,0.7166666666666667
0.0267802465203,0.7222222222222222
0.0269474062009,0.7277777777777777
0.0273895583938,0.7333333333333333
0.0278110029307,0.7388888888888889
0.028803715598,0.7444444444444445
0.169690168111,0.75
0.169690168111,0.7555555555555555
0.221332703827,0.7611111111111111
0.257054946375,0.7666666666666667
0.331082222026,0.7722222222222223
0.331082222026,0.7777777777777778
0.339380336222,0.7833333333333333
0.352488733592,0.7888888888888889
0.352488733592,0.7944444444444444
0.442665407653,0.8
0.667545655505,0.8055555555555556
0.678469104631,0.8111111111111111
0.70358768373,0.8166666666666667
0.704714195399,0.8222222222222222
0.828929252832,0.8277777777777777
0.851829174409,0.8333333333333334
1.02301643876,0.8388888888888889
1.0379307244,0.8444444444444444
1.06327649326,0.85
1.09621001176,0.8555555555555555
1.09621001176,0.8611111111111112
1.38120534959,0.8666666666666667
1.40994133541,0.8722222222222222
1.49988041658,0.8777777777777778
1.74369179942,0.8833333333333333
1.76957412917,0.8888888888888888
1.80456483322,0.8944444444444445
2.19781086975,0.9
3.21160640234,0.9055555555555556
3.52568613222,0.9111111111111111
3.93792164129,0.9166666666666666
4.20548860781,0.9222222222222223
4.65957631504,0.9277777777777778
8.12262159691,0.9333333333333333
8.53581629876,0.9388888888888889
9.26110108771,0.9444444444444444
9.95906109713,0.95
10.2035496487,0.9555555555555556
10.9198538121,0.9611111111111111
11.6788794122,0.9666666666666667
11.937369826,0.9722222222222222
12.2857801513,0.9777777777777777
12.3473678172,0.9833333333333333
12.6227124007,0.9888888888888889
13.2686327284,0.9944444444444445
13.3581268203,1.0
