Congestion,CDF
0.0,0.005555555555555556
0.0,0.011111111111111112
0.0,0.016666666666666666
0.0,0.022222222222222223
0.0,0.027777777777777776
0.0,0.03333333333333333
0.0,0.03888888888888889
0.0,0.044444444444444446
0.0,0.05
0.0,0.05555555555555555
1.05509465793e-06,0.06111111111111111
1.21225301921e-06,0.06666666666666667
2.7286811071e-06,0.07222222222222222
3.98812616523e-06,0.07777777777777778
4.08083448764e-06,0.08333333333333333
5.38810632973e-06,0.08888888888888889
5.92763009223e-06,0.09444444444444444
8.16962595919e-06,0.1
8.21177346829e-06,0.10555555555555556
8.40141508105e-06,0.1111111111111111
8.57432584306e-06,0.11666666666666667
9.43858104206e-06,0.12222222222222222
9.65750666519e-06,0.12777777777777777
1.07844785658e-05,0.13333333333333333
1.10454726534e-05,0.1388888888888889
1.16310233966e-05,0.14444444444444443
1.34491109384e-05,0.15
1.47188049541e-05,0.15555555555555556
1.53693971307e-05,0.16111111111111112
1.59848050166e-05,0.16666666666666666
1.62377174499e-05,0.17222222222222222
1.63681278244e-05,0.17777777777777778
1.69104272476e-05,0.18333333333333332
1.74980323625e-05,0.18888888888888888
1.7793406629e-05,0.19444444444444445
1.79943510218e-05,0.2
1.80941837674e-05,0.20555555555555555
1.83019662653e-05,0.2111111111111111
1.84808095864e-05,0.21666666666666667
1.8521363779e-05,0.2222222222222222
1.914021012e-05,0.22777777777777777
1.92998944772e-05,0.23333333333333334
1.95214452509e-05,0.2388888888888889
2.1140678154e-05,0.24444444444444444
2.22455215414e-05,0.25
2.41521658475e-05,0.25555555555555554
2.45347895735e-05,0.2611111111111111
2.48878629807e-05,0.26666666666666666
2.5730688869e-05,0.2722222222222222
9.09560369033e-05,0.2777777777777778
0.000181912073807,0.2833333333333333
0.000199406308261,0.28888888888888886
0.000199406308261,0.29444444444444445
0.000205294336707,0.3
0.000205294336707,0.3055555555555556
0.0003108038025,0.3111111111111111
0.000408083448764,0.31666666666666665
0.000410588673414,0.32222222222222224
0.000546670689321,0.3277777777777778
0.000816962595919,0.3333333333333333
0.000849614435473,0.3388888888888889
0.000899717551088,0.34444444444444444
0.000899717551088,0.35
0.00114915244091,0.35555555555555557
0.00174980323625,0.3611111111111111
0.0017793406629,0.36666666666666664
0.0018362190907,0.37222222222222223
0.00197816540767,0.37777777777777777
0.00209291715532,0.38333333333333336
0.00209291715532,0.3888888888888889
0.00238655414855,0.39444444444444443
0.00252215126417,0.4
0.00271198897322,0.40555555555555556
0.00289937497149,0.4111111111111111
0.00360193961415,0.4166666666666667
0.0038083620342,0.4222222222222222
0.00400693816731,0.42777777777777776
0.00492613143046,0.43333333333333335
0.00578356401477,0.4388888888888889
0.00605537882065,0.4444444444444444
0.00747732155497,0.45
0.0084705954054,0.45555555555555555
0.0122464427883,0.46111111111111114
0.0125181177882,0.4666666666666667
0.0150703039465,0.4722222222222222
0.0169391927819,0.4777777777777778
0.0171829057899,0.48333333333333334
0.0173267527509,0.4888888888888889
0.0173275897116,0.49444444444444446
0.0173316438531,0.5
0.0173558355412,0.5055555555555555
0.0173763592825,0.5111111111111111
0.0173959566649,0.5166666666666667
0.0174403765877,0.5222222222222223
0.0174428260374,0.5277777777777778
0.0174492347873,0.5333333333333333
0.0174602882489,0.5388888888888889
0.0174630426402,0.5444444444444444
0.0174811903602,0.55
0.0174822671366,0.5555555555555556
0.0174886639003,0.5611111111111111
0.0174920888962,0.5666666666666667
0.0175219330202,0.5722222222222222
0.0175468693697,0.5777777777777777
0.0175473834034,0.5833333333333334
0.0175553708632,0.5888888888888889
0.0175664901122,0.5944444444444444
0.0175822984878,0.6
0.0175884060621,0.6055555555555555
0.0175964022213,0.6111111111111112
0.0175968136124,0.6166666666666667
0.0176012001377,0.6222222222222222
0.017601249204,0.6277777777777778
0.0176047492745,0.6333333333333333
0.0176179147442,0.6388888888888888
0.0176216800858,0.6444444444444445
0.0176488424264,0.65
0.0176631016128,0.6555555555555556
0.0176954890459,0.6611111111111111
0.0177007838733,0.6666666666666666
0.0177097673109,0.6722222222222223
0.0177143946002,0.6777777777777778
0.0183343760111,0.6833333333333333
0.0191909357123,0.6888888888888889
0.020907444898,0.6944444444444444
0.0214154878664,0.7
0.022531216643,0.7055555555555556
0.0227779965144,0.7111111111111111
0.0241229076082,0.7166666666666667
0.0260528970559,0.7222222222222222
0.0262155166923,0.7277777777777777
0.0266456600651,0.7333333333333333
0.0270556582004,0.7388888888888889
0.028021408867,0.7444444444444445
0.436070650936,0.75
0.436070650936,0.7555555555555555
0.578527851372,0.7611111111111111
0.672481915015,0.7666666666666667
0.866379485578,0.7722222222222223
0.866379485578,0.7777777777777778
0.872141301872,0.7833333333333333
0.879840680619,0.7888888888888889
0.879840680619,0.7944444444444444
1.15705570274,0.8
1.73763592825,0.8055555555555556
1.74403765877,0.8111111111111111
1.75884060621,0.8166666666666667
1.75964022213,0.8222222222222222
2.16874592603,0.8277777777777777
2.18237491495,0.8333333333333334
2.6155883752,0.8388888888888889
2.62795971664,0.8444444444444444
2.64311803296,0.85
2.77452006287,0.8555555555555555
2.77452006287,0.8611111111111112
3.50252017089,0.8666666666666667
3.51931553366,0.8722222222222222
3.90834159252,0.8777777777777778
4.38808463704,0.8833333333333333
4.51564110667,0.8888888888888888
4.53631153729,0.8944444444444445
5.66387867884,0.9
8.0541816082,0.9055555555555556
9.02332555484,0.9111111111111111
10.0499250268,0.9166666666666666
10.7682490336,0.9222222222222223
11.8194739314,0.9277777777777778
20.5825506555,0.9333333333333333
21.4969524894,0.9388888888888889
23.2683919494,0.9444444444444444
25.0230788864,0.95
25.8417198377,0.9555555555555556
27.6080299989,0.9611111111111111
29.3908605636,0.9666666666666667
30.2226361982,0.9722222222222222
31.0847798418,0.9777777777777777
31.9686650231,0.9833333333333333
32.3094241206,0.9888888888888889
33.6869556021,0.9944444444444445
34.9387673809,1.0
