Congestion,CDF
0.0,0.005555555555555556
0.0,0.011111111111111112
0.0,0.016666666666666666
0.0,0.022222222222222223
0.0,0.027777777777777776
0.0,0.03333333333333333
0.0,0.03888888888888889
0.0,0.044444444444444446
0.0,0.05
0.0,0.05555555555555555
1.09495231437e-06,0.06111111111111111
1.25804754958e-06,0.06666666666666667
2.83176080074e-06,0.07222222222222222
4.13878313362e-06,0.07777777777777778
4.23499364083e-06,0.08333333333333333
5.59164948042e-06,0.08888888888888889
6.15155449744e-06,0.09444444444444444
8.47824485161e-06,0.1
8.52198454101e-06,0.10555555555555556
8.71879012735e-06,0.1111111111111111
8.89823283196e-06,0.11666666666666667
9.79513646353e-06,0.12222222222222222
1.00223323041e-05,0.12777777777777777
1.11918771232e-05,0.13333333333333333
1.14627306226e-05,0.1388888888888889
1.2070401353e-05,0.14444444444444443
1.39571696601e-05,0.15
1.52748281191e-05,0.15555555555555556
1.59499973128e-05,0.16111111111111112
1.65886530807e-05,0.16666666666666666
1.68511196301e-05,0.17222222222222222
1.69864564364e-05,0.17777777777777778
1.75492419685e-05,0.18333333333333332
1.81590446774e-05,0.18888888888888888
1.84655771143e-05,0.19444444444444445
1.86741124588e-05,0.2
1.87777165241e-05,0.20555555555555555
1.89933482926e-05,0.2111111111111111
1.91789476669e-05,0.21666666666666667
1.92210338501e-05,0.2222222222222222
1.98632579654e-05,0.22777777777777777
2.00289746195e-05,0.23333333333333334
2.02588947794e-05,0.2388888888888889
2.19392964396e-05,0.24444444444444444
2.30858768102e-05,0.25
2.50645472357e-05,0.25555555555555554
2.54616251008e-05,0.2611111111111111
2.58280363431e-05,0.26666666666666666
2.67027011422e-05,0.2722222222222222
9.43920266913e-05,0.2777777777777778
0.000188784053383,0.2833333333333333
0.000206939156681,0.28888888888888886
0.000206939156681,0.29444444444444445
0.000213049613525,0.3
0.000213049613525,0.3055555555555556
0.000322544844962,0.3111111111111111
0.000423499364083,0.31666666666666665
0.000426099227051,0.32222222222222224
0.000567321928863,0.3277777777777778
0.000847824485161,0.3333333333333333
0.000881709793004,0.3388888888888889
0.000933705622939,0.34444444444444444
0.000933705622939,0.35
0.00119256325988,0.35555555555555557
0.00181590446774,0.3611111111111111
0.00184655771143,0.36666666666666664
0.00190558480033,0.37222222222222223
0.00205289333526,0.37777777777777777
0.0021719799885,0.38333333333333336
0.0021719799885,0.3888888888888889
0.00247670952429,0.39444444444444443
0.00261742900804,0.4
0.00281443809848,0.40555555555555556
0.00300890286136,0.4111111111111111
0.00373800785275,0.4166666666666667
0.00395222816452,0.4222222222222222
0.00415830578504,0.42777777777777776
0.00441803149547,0.43333333333333335
0.00447494353704,0.4388888888888889
0.00511222284194,0.4444444444444444
0.00515832547633,0.45
0.00523226791809,0.45555555555555555
0.00534593962729,0.46111111111111114
0.00536474206287,0.4666666666666667
0.00536876411735,0.4722222222222222
0.00537243146515,0.4777777777777778
0.00537375623694,0.48333333333333334
0.00537671568228,0.4888888888888889
0.0053822746389,0.49444444444444446
0.00538619257943,0.5
0.00538971917872,0.5055555555555555
0.00539996273357,0.5111111111111111
0.00540035703893,0.5166666666666667
0.0054018929195,0.5222222222222223
0.00540384696124,0.5277777777777778
0.00540703513895,0.5333333333333333
0.00540866033521,0.5388888888888889
0.00540892375728,0.5444444444444444
0.00541291221362,0.55
0.00542649054608,0.5555555555555556
0.00542649625449,0.5611111111111111
0.00543005765624,0.5666666666666667
0.0054333889696,0.5722222222222222
0.00543448270271,0.5777777777777777
0.00543568718823,0.5833333333333334
0.0054363501714,0.5888888888888889
0.00543715829792,0.5944444444444444
0.00543773701084,0.6
0.00543884012815,0.6055555555555555
0.00544178313976,0.6111111111111112
0.00544270078876,0.6166666666666667
0.00544905659199,0.6222222222222222
0.00544982894052,0.6277777777777778
0.00545838044542,0.6333333333333333
0.00545869714295,0.6388888888888888
0.00545930808809,0.6444444444444445
0.00546393014456,0.65
0.00600204612513,0.6555555555555556
0.00628412911033,0.6611111111111111
0.00775978769332,0.6666666666666666
0.0087905838339,0.6722222222222223
0.0156396054709,0.6777777777777778
0.0190269823612,0.6833333333333333
0.019915899787,0.6888888888888889
0.0216972524755,0.6944444444444444
0.022224487468,0.7
0.0233823644385,0.7055555555555556
0.02363846676,0.7111111111111111
0.025034183726,0.7166666666666667
0.0270370811879,0.7222222222222222
0.0272058440055,0.7277777777777777
0.0276522366377,0.7333333333333333
0.0280777230182,0.7388888888888889
0.0290799562486,0.7444444444444445
0.135047322988,0.75
0.135047322988,0.7555555555555555
0.17940915463,0.7611111111111111
0.208848069322,0.7666666666666667
0.267296981364,0.7722222222222223
0.267296981364,0.7777777777777778
0.270094645975,0.7833333333333333
0.271784359411,0.7888888888888889
0.271784359411,0.7944444444444444
0.35881830926,0.8
0.538619257943,0.8055555555555556
0.539996273357,0.8111111111111111
0.54333889696,0.8166666666666667
0.543773701084,0.8222222222222222
0.672422946682,0.8277777777777777
0.675750836883,0.8333333333333334
0.803771187651,0.8388888888888889
0.812650392933,0.8444444444444444
0.816487660431,0.85
0.858298595527,0.8555555555555555
0.858298595527,0.8611111111111112
1.08352491714,0.8666666666666667
1.08705472675,0.8722222222222222
1.21139486455,0.8777777777777778
1.35628541007,0.8833333333333333
1.39780961696,0.8888888888888888
1.4025686744,0.8944444444444445
1.75404391916,0.9
2.48979064576,0.9055555555555556
2.79377978072,0.9111111111111111
3.11000286591,0.9166666666666666
3.33416447684,0.9222222222222223
3.6558725802,0.9277777777777778
6.36783913541,0.9333333333333333
6.64514352583,0.9388888888888889
7.19098157038,0.9444444444444444
7.7318739461,0.95
7.99436981818,0.9555555555555556
8.53935271223,0.9611111111111111
9.07288828027,0.9666666666666667
9.34668539749,0.9722222222222222
9.5887208279,0.9777777777777777
9.88356180922,0.9833333333333333
10.0305239775,0.9888888888888889
10.406788601,0.9944444444444445
10.8542829547,1.0
