Congestion,CDF
0.0,0.005555555555555556
0.0,0.011111111111111112
0.0,0.016666666666666666
0.0,0.022222222222222223
0.0,0.027777777777777776
0.0,0.03333333333333333
0.0,0.03888888888888889
0.0,0.044444444444444446
0.0,0.05
0.0,0.05555555555555555
1.08051021787e-06,0.06111111111111111
1.24145427527e-06,0.06666666666666667
2.79441071507e-06,0.07222222222222222
4.08419381076e-06,0.07777777777777778
4.17913532989e-06,0.08333333333333333
5.51789728105e-06,0.08888888888888889
6.07041731684e-06,0.09444444444444444
8.36641931484e-06,0.1
8.4095820907e-06,0.10555555555555556
8.60379186968e-06,0.1111111111111111
8.78086777821e-06,0.11666666666666667
9.66594151671e-06,0.12222222222222222
9.89014071151e-06,0.12777777777777777
1.1044259581e-05,0.13333333333333333
1.1311540603e-05,0.1388888888888889
1.19111963366e-05,0.14444444444444443
1.3773078729e-05,0.15
1.50733576634e-05,0.15555555555555556
1.57396215756e-05,0.16111111111111112
1.63698536632e-05,0.16666666666666666
1.66288583566e-05,0.17222222222222222
1.67624101106e-05,0.17777777777777778
1.73177726683e-05,0.18333333333333332
1.79195322602e-05,0.18888888888888888
1.82220216251e-05,0.19444444444444445
1.84278064502e-05,0.2
1.85300440086e-05,0.20555555555555555
1.8742831658e-05,0.2111111111111111
1.89259830315e-05,0.21666666666666667
1.89675141104e-05,0.2222222222222222
1.960126748e-05,0.22777777777777777
1.97647983806e-05,0.23333333333333334
1.99916859617e-05,0.2388888888888889
2.1649923622e-05,0.24444444444444444
2.27813809374e-05,0.25
2.47339532864e-05,0.25555555555555554
2.51257938121e-05,0.2611111111111111
2.54873721988e-05,0.26666666666666666
2.63505004284e-05,0.2722222222222222
9.31470238356e-05,0.2777777777777778
0.000186294047671,0.2833333333333333
0.000204209690538,0.28888888888888886
0.000204209690538,0.29444444444444445
0.000210239552268,0.3
0.000210239552268,0.3055555555555556
0.000318290574054,0.3111111111111111
0.000417913532989,0.31666666666666665
0.000420479104535,0.32222222222222224
0.000559839120767,0.3277777777777778
0.000836641931484,0.3333333333333333
0.00087008030216,0.3388888888888889
0.000921390322509,0.34444444444444444
0.000921390322509,0.35
0.00117683370394,0.35555555555555557
0.00179195322602,0.3611111111111111
0.00182220216251,0.36666666666666664
0.0018804507016,0.37222222222222223
0.00202581628061,0.37777777777777777
0.0021433322162,0.38333333333333336
0.0021433322162,0.3888888888888889
0.00244404245972,0.39444444444444443
0.00258290589519,0.4
0.00277731649411,0.40555555555555556
0.00296921632442,0.4111111111111111
0.00368870463706,0.4166666666666667
0.00390009944641,0.4222222222222222
0.0041034589642,0.42777777777777776
0.00504479413784,0.43333333333333335
0.0057804442118,0.4388888888888889
0.0058609574897,0.4444444444444444
0.00592288091566,0.45
0.00620124330989,0.45555555555555555
0.00690602143473,0.46111111111111114
0.0070006668326,0.4666666666666667
0.00713852562755,0.4722222222222222
0.00716605692373,0.4777777777777778
0.00716921003679,0.48333333333333334
0.00716971121969,0.4888888888888889
0.00717148551338,0.49444444444444446
0.0071766322139,0.5
0.00717998772378,0.5055555555555555
0.00718220479251,0.5111111111111111
0.00718734396104,0.5166666666666667
0.00720100446888,0.5222222222222223
0.00720298760233,0.5277777777777778
0.00720513583956,0.5333333333333333
0.00720538707888,0.5388888888888889
0.00720963745786,0.5444444444444444
0.00721290412022,0.55
0.00721748882367,0.5555555555555556
0.00721907879344,0.5611111111111111
0.00723558653789,0.5666666666666667
0.00723637947895,0.5722222222222222
0.00724069598,0.5777777777777777
0.00724587875963,0.5833333333333334
0.00724626550692,0.5888888888888889
0.00724879536553,0.5944444444444444
0.00724983084905,0.6
0.00725060475724,0.6055555555555555
0.00725090547429,0.6111111111111112
0.00725207673064,0.6166666666666667
0.00725677317447,0.6222222222222222
0.00725722352968,0.6277777777777778
0.00726603065014,0.6333333333333333
0.00726810645136,0.6388888888888888
0.00727937393218,0.6444444444444445
0.00728044271655,0.65
0.00728088894081,0.6555555555555556
0.00728551530033,0.6611111111111111
0.00765743839353,0.6666666666666666
0.00867463863852,0.6722222222222223
0.01543332371,0.6777777777777778
0.0187760221032,0.6833333333333333
0.0196532149716,0.6888888888888889
0.021411072146,0.6944444444444444
0.0219313530653,0.7
0.0230739579817,0.7055555555555556
0.0233266823895,0.7111111111111111
0.0247039902624,0.7166666666666667
0.0266804701005,0.7222222222222222
0.0268470069864,0.7277777777777777
0.0272875118321,0.7333333333333333
0.0277073861734,0.7388888888888889
0.0286964002446,0.7444444444444445
0.180074690058,0.75
0.180074690058,0.7555555555555555
0.239221073797,0.7611111111111111
0.278394246302,0.7666666666666667
0.356926281378,0.7722222222222223
0.356926281378,0.7777777777777778
0.360149380116,0.7833333333333333
0.362439768277,0.7888888888888889
0.362439768277,0.7944444444444444
0.478442147593,0.8
0.718220479251,0.8055555555555556
0.720100446888,0.8111111111111111
0.724587875963,0.8166666666666667
0.725060475724,0.8222222222222222
0.896680382432,0.8277777777777777
0.901038435844,0.8333333333333334
1.07389740335,0.8388888888888889
1.0837301803,0.8444444444444444
1.08870091015,0.85
1.14444597006,0.8555555555555555
1.14444597006,0.8611111111111112
1.44482354427,0.8666666666666667
1.44967842339,0.8722222222222222
1.61541477854,0.8777777777777778
1.8087132652,0.8833333333333333
1.86381816343,0.8888888888888888
1.87016832302,0.8944444444444445
2.33905272643,0.9
3.31985534944,0.9055555555555556
3.72518513716,0.9111111111111111
4.14727025904,0.9166666666666666
4.44572384505,0.9222222222222223
4.87520765226,0.9277777777777778
8.49078686756,0.9333333333333333
8.86164361251,0.9388888888888889
9.58973250659,0.9444444444444444
10.3116403859,0.95
10.6596800098,0.9555555555555556
11.386490655,0.9611111111111111
12.1035365617,0.9666666666666667
12.4639305203,0.9722222222222222
12.7941387051,0.9777777777777777
13.1810790716,0.9833333333333333
13.3721831263,0.9888888888888889
13.8811457549,0.9944444444444445
14.4672415039,1.0
