Congestion,CDF
0.0,0.007352941176470588
0.0,0.014705882352941176
0.0,0.022058823529411766
0.0,0.029411764705882353
0.0115871477197,0.03676470588235294
0.0115871477197,0.04411764705882353
0.0122681825205,0.051470588235294115
0.0122681825205,0.058823529411764705
0.0131638083431,0.0661764705882353
0.0131638083431,0.07352941176470588
0.0137957273771,0.08088235294117647
0.0137957273771,0.08823529411764706
0.0140247195921,0.09558823529411764
0.0140247195921,0.10294117647058823
0.0148231566784,0.11029411764705882
0.0148231566784,0.11764705882352941
0.014965826188,0.125
0.014965826188,0.1323529411764706
0.0155784082879,0.13970588235294118
0.0155784082879,0.14705882352941177
0.0160011258254,0.15441176470588236
0.0160011258254,0.16176470588235295
0.0167112999854,0.16911764705882354
0.0167112999854,0.17647058823529413
0.0171164398874,0.18382352941176472
0.0171164398874,0.19117647058823528
0.0171398418519,0.19852941176470587
0.0171398418519,0.20588235294117646
0.0171745808988,0.21323529411764705
0.0171745808988,0.22058823529411764
0.0182261654296,0.22794117647058823
0.0182261654296,0.23529411764705882
0.0185714953714,0.2426470588235294
0.0185714953714,0.25
0.019168575816,0.25735294117647056
0.019168575816,0.2647058823529412
0.0191906044584,0.27205882352941174
0.0191906044584,0.27941176470588236
0.0192180879705,0.2867647058823529
0.0192180879705,0.29411764705882354
0.0196204034662,0.3014705882352941
0.0196204034662,0.3088235294117647
0.0197182221255,0.3161764705882353
0.0197182221255,0.3235294117647059
0.0206712676445,0.33088235294117646
0.0206712676445,0.3382352941176471
0.0213317252339,0.34558823529411764
0.0213317252339,0.35294117647058826
0.0230663723688,0.3602941176470588
0.0230663723688,0.36764705882352944
0.0241758860864,0.375
0.0241758860864,0.38235294117647056
0.0245609417944,0.3897058823529412
0.0245609417944,0.39705882352941174
0.0264722858877,0.40441176470588236
0.0264722858877,0.4117647058823529
0.0273392181112,0.41911764705882354
0.0273392181112,0.4264705882352941
0.028713148977,0.4338235294117647
0.028713148977,0.4411764705882353
0.285390398395,0.4485294117647059
0.285390398395,0.45588235294117646
0.413121735821,0.4632352941176471
0.413121735821,0.47058823529411764
0.486770409454,0.47794117647058826
0.486770409454,0.4852941176470588
0.642923401074,0.49264705882352944
0.642923401074,0.5
0.729686852561,0.5073529411764706
0.729686852561,0.5147058823529411
0.884841254837,0.5220588235294118
0.884841254837,0.5294117647058824
0.981311816707,0.5367647058823529
0.981311816707,0.5441176470588235
1.00411754645,0.5514705882352942
1.00411754645,0.5588235294117647
1.22715999699,0.5661764705882353
1.22715999699,0.5735294117647058
1.4350383876,0.5808823529411765
1.4350383876,0.5882352941176471
1.45417400843,0.5955882352941176
1.45417400843,0.6029411764705882
1.46592276441,0.6102941176470589
1.46592276441,0.6176470588235294
1.55786630046,0.625
1.55786630046,0.6323529411764706
1.60024943916,0.6397058823529411
1.60024943916,0.6470588235294118
2.06382437337,0.6544117647058824
2.06382437337,0.6617647058823529
2.06712676445,0.6691176470588235
2.06712676445,0.6764705882352942
2.13511802037,0.6838235294117647
2.13511802037,0.6911764705882353
2.19846817694,0.6985294117647058
2.19846817694,0.7058823529411765
2.3439199466,0.7132352941176471
2.3439199466,0.7205882352941176
2.42275702974,0.7279411764705882
2.42275702974,0.7352941176470589
2.45609417944,0.7426470588235294
2.45609417944,0.75
2.73352281464,0.7573529411764706
2.73352281464,0.7647058823529411
2.73392181112,0.7720588235294118
2.73392181112,0.7794117647058824
2.8713148977,0.7867647058823529
2.8713148977,0.7941176470588235
2.91759102777,0.8014705882352942
2.91759102777,0.8088235294117647
3.27941877346,0.8161764705882353
3.27941877346,0.8235294117647058
3.38124286247,0.8308823529411765
3.38124286247,0.8382352941176471
3.38861627953,0.8455882352941176
3.38861627953,0.8529411764705882
3.60157204914,0.8602941176470589
3.60157204914,0.8676470588235294
3.74167562448,0.875
3.74167562448,0.8823529411764706
4.23075938701,0.8897058823529411
4.23075938701,0.8970588235294118
5.09107222821,0.9044117647058824
5.09107222821,0.9117647058823529
5.90039436512,0.9191176470588235
5.90039436512,0.9264705882352942
6.43962338613,0.9338235294117647
6.43962338613,0.9411764705882353
7.63326501728,0.9485294117647058
7.63326501728,0.9558823529411765
8.25246529759,0.9632352941176471
8.25246529759,0.9705882352941176
10.8333784223,0.9779411764705882
10.8333784223,0.9852941176470589
12.6436516567,0.9926470588235294
12.6436516567,1.0
