Congestion,CDF
0.0351159648404,0.007352941176470588
0.0351159648404,0.014705882352941176
0.036513907405,0.022058823529411766
0.036513907405,0.029411764705882353
0.0365653867422,0.03676470588235294
0.0365653867422,0.04411764705882353
0.0366981949023,0.051470588235294115
0.0366981949023,0.058823529411764705
0.0369828602962,0.0661764705882353
0.0369828602962,0.07352941176470588
0.0370077878199,0.08088235294117647
0.0370077878199,0.08823529411764706
0.0371976306171,0.09558823529411764
0.0371976306171,0.10294117647058823
0.0379548275106,0.11029411764705882
0.0379548275106,0.11764705882352941
0.0384014085078,0.125
0.0384014085078,0.1323529411764706
0.0386130025825,0.13970588235294118
0.0386130025825,0.14705882352941177
0.0388494264414,0.15441176470588236
0.0388494264414,0.16176470588235295
0.0389773847565,0.16911764705882354
0.0389773847565,0.17647058823529413
0.0393186872817,0.18382352941176472
0.0393186872817,0.19117647058823528
0.0394434466797,0.19852941176470587
0.0394434466797,0.20588235294117646
0.0397275133716,0.21323529411764705
0.0397275133716,0.22058823529411764
0.0401186686045,0.22794117647058823
0.0401186686045,0.23529411764705882
0.0402656024353,0.2426470588235294
0.0402656024353,0.25
0.040773521841,0.25735294117647056
0.040773521841,0.2647058823529412
0.0409773522308,0.27205882352941174
0.0409773522308,0.27941176470588236
0.0415586806421,0.2867647058823529
0.0415586806421,0.29411764705882354
0.0416475775375,0.3014705882352941
0.0416475775375,0.3088235294117647
0.0418931356883,0.3161764705882353
0.0418931356883,0.3235294117647059
0.042098895074,0.33088235294117646
0.042098895074,0.3382352941176471
0.0421124601919,0.34558823529411764
0.0421124601919,0.35294117647058826
0.0426182662158,0.3602941176470588
0.0426182662158,0.36764705882352944
0.0440355501824,0.375
0.0440355501824,0.38235294117647056
0.0448529846284,0.3897058823529412
0.0448529846284,0.39705882352941174
0.0465199794905,0.40441176470588236
0.0465199794905,0.4117647058823529
0.0545680708947,0.41911764705882354
0.0545680708947,0.4264705882352941
0.310105207218,0.4338235294117647
0.310105207218,0.4411764705882353
1.10860687492,0.4485294117647059
1.10860687492,0.45588235294117646
1.24261425309,0.4632352941176471
1.24261425309,0.47058823529411764
1.54376274687,0.47794117647058826
1.54376274687,0.4852941176470588
1.66832135077,0.49264705882352944
1.66832135077,0.5
1.79232611111,0.5073529411764706
1.79232611111,0.5147058823529411
1.91375326279,0.5220588235294118
1.91375326279,0.5294117647058824
2.00960232581,0.5367647058823529
2.00960232581,0.5441176470588235
2.36321968593,0.5514705882352942
2.36321968593,0.5588235294117647
2.44736645945,0.5661764705882353
2.44736645945,0.5735294117647058
2.90493173993,0.5808823529411765
2.90493173993,0.5882352941176471
2.9089190391,0.5955882352941176
2.9089190391,0.6029411764705882
3.38031277253,0.6102941176470589
3.38031277253,0.6176470588235294
3.59648833251,0.625
3.59648833251,0.6323529411764706
3.77587111895,0.6397058823529411
3.77587111895,0.6470588235294118
3.91818326627,0.6544117647058824
3.91818326627,0.6617647058823529
4.07363071953,0.6691176470588235
4.07363071953,0.6764705882352942
4.44649966022,0.6838235294117647
4.44649966022,0.6911764705882353
4.46440518781,0.6985294117647058
4.46440518781,0.7058823529411765
4.63234214977,0.7132352941176471
4.63234214977,0.7205882352941176
4.65199794905,0.7279411764705882
4.65199794905,0.7352941176470589
4.65664311289,0.7426470588235294
4.65664311289,0.75
4.82252612259,0.7573529411764706
4.82252612259,0.7647058823529411
5.40295380434,0.7720588235294118
5.40295380434,0.7794117647058824
5.46598722196,0.7867647058823529
5.46598722196,0.7941176470588235
5.67640689892,0.8014705882352942
5.67640689892,0.8088235294117647
6.20637880449,0.8161764705882353
6.20637880449,0.8235294117647058
6.38701254431,0.8308823529411765
6.38701254431,0.8382352941176471
6.7876848669,0.8455882352941176
6.7876848669,0.8529411764705882
7.07235231576,0.8602941176470589
7.07235231576,0.8676470588235294
7.1149315364,0.875
7.1149315364,0.8823529411764706
7.44810084616,0.8897058823529411
7.44810084616,0.8970588235294118
8.86324432029,0.9044117647058824
8.86324432029,0.9117647058823529
10.2905881133,0.9191176470588235
10.2905881133,0.9264705882352942
10.4805273816,0.9338235294117647
10.4805273816,0.9411764705882353
12.7383270917,0.9485294117647058
12.7383270917,0.9558823529411765
12.8985316347,0.9632352941176471
12.8985316347,0.9705882352941176
16.5779903556,0.9779411764705882
16.5779903556,0.9852941176470589
19.0203876812,0.9926470588235294
19.0203876812,1.0
