Congestion,CDF
0.0149859979603,0.007352941176470588
0.0149859979603,0.014705882352941176
0.0156317809441,0.022058823529411766
0.0156317809441,0.029411764705882353
0.0156681310944,0.03676470588235294
0.0156681310944,0.04411764705882353
0.0159972792531,0.051470588235294115
0.0159972792531,0.058823529411764705
0.016033025379,0.0661764705882353
0.016033025379,0.07352941176470588
0.0163767488488,0.08088235294117647
0.0163767488488,0.08823529411764706
0.0164086189602,0.09558823529411764
0.0164086189602,0.10294117647058823
0.0166093409745,0.11029411764705882
0.0166093409745,0.11764705882352941
0.0170609817828,0.125
0.0170609817828,0.1323529411764706
0.0171359594196,0.13970588235294118
0.0171359594196,0.14705882352941177
0.0173568252193,0.15441176470588236
0.0173568252193,0.16176470588235295
0.0173976639639,0.16911764705882354
0.0173976639639,0.17647058823529413
0.0174807714095,0.18382352941176472
0.0174807714095,0.19117647058823528
0.017481190313,0.19852941176470587
0.017481190313,0.20588235294117646
0.0177193437452,0.21323529411764705
0.0177193437452,0.22058823529411764
0.0181873085353,0.22794117647058823
0.0181873085353,0.23529411764705882
0.0182434579941,0.2426470588235294
0.0182434579941,0.25
0.0184705934412,0.25735294117647056
0.0184705934412,0.2647058823529412
0.0188935736437,0.27205882352941174
0.0188935736437,0.27941176470588236
0.019017008822,0.2867647058823529
0.019017008822,0.29411764705882354
0.0191418051757,0.3014705882352941
0.0191418051757,0.3088235294117647
0.0194420372224,0.3161764705882353
0.0194420372224,0.3235294117647059
0.0194656243541,0.33088235294117646
0.0194656243541,0.3382352941176471
0.0199710690476,0.34558823529411764
0.0199710690476,0.35294117647058826
0.0202236158198,0.3602941176470588
0.0202236158198,0.36764705882352944
0.0212495556065,0.375
0.0212495556065,0.38235294117647056
0.0217174678013,0.3897058823529412
0.0217174678013,0.39705882352941174
0.022076522777,0.40441176470588236
0.022076522777,0.4117647058823529
0.0481823922465,0.41911764705882354
0.0481823922465,0.4264705882352941
0.150743685148,0.4338235294117647
0.150743685148,0.4411764705882353
0.452849764097,0.4485294117647059
0.452849764097,0.45588235294117646
0.580441923646,0.4632352941176471
0.580441923646,0.47058823529411764
0.680362504078,0.47794117647058826
0.680362504078,0.4852941176470588
0.703806915103,0.49264705882352944
0.703806915103,0.5
0.764017493878,0.5073529411764706
0.764017493878,0.5147058823529411
0.872139809685,0.5220588235294118
0.872139809685,0.5294117647058824
0.963570207275,0.5367647058823529
0.963570207275,0.5441176470588235
1.05845289988,0.5514705882352942
1.05845289988,0.5588235294117647
1.11593891947,0.5661764705882353
1.11593891947,0.5735294117647058
1.22507828207,0.5808823529411765
1.22507828207,0.5882352941176471
1.31046506979,0.5955882352941176
1.31046506979,0.6029411764705882
1.45150387854,0.6102941176470589
1.45150387854,0.6176470588235294
1.52406429675,0.625
1.52406429675,0.6323529411764706
1.59065933072,0.6397058823529411
1.59065933072,0.6470588235294118
1.6998947487,0.6544117647058824
1.6998947487,0.6617647058823529
1.89923077616,0.6691176470588235
1.89923077616,0.6764705882352942
1.90110234871,0.6838235294117647
1.90110234871,0.6911764705882353
2.05308697285,0.6985294117647058
2.05308697285,0.7058823529411765
2.08483004277,0.7132352941176471
2.08483004277,0.7205882352941176
2.09659390314,0.7279411764705882
2.09659390314,0.7352941176470589
2.1222332551,0.7426470588235294
2.1222332551,0.75
2.2076522777,0.7573529411764706
2.2076522777,0.7647058823529411
2.29009589787,0.7720588235294118
2.29009589787,0.7794117647058824
2.44595256717,0.7867647058823529
2.44595256717,0.7941176470588235
2.5664183088,0.8014705882352942
2.5664183088,0.8088235294117647
2.8440527947,0.8161764705882353
2.8440527947,0.8235294117647058
2.89383747588,0.8308823529411765
2.89383747588,0.8382352941176471
2.92127501718,0.8455882352941176
2.92127501718,0.8529411764705882
3.13231972549,0.8602941176470589
3.13231972549,0.8676470588235294
3.18385731032,0.875
3.18385731032,0.8823529411764706
3.1942514674,0.8897058823529411
3.1942514674,0.8970588235294118
4.03920646145,0.9044117647058824
4.03920646145,0.9117647058823529
4.74694710026,0.9191176470588235
4.74694710026,0.9264705882352942
4.93305268318,0.9338235294117647
4.93305268318,0.9411764705882353
5.98175874392,0.9485294117647058
5.98175874392,0.9558823529411765
6.1373704079,0.9632352941176471
6.1373704079,0.9705882352941176
7.97295963468,0.9779411764705882
7.97295963468,0.9852941176470589
9.17402082793,0.9926470588235294
9.17402082793,1.0
