Congestion,CDF
0.0,0.007352941176470588
0.0,0.014705882352941176
0.0,0.022058823529411766
0.0,0.029411764705882353
0.0150987869753,0.03676470588235294
0.0150987869753,0.04411764705882353
0.0160939674562,0.051470588235294115
0.0160939674562,0.058823529411764705
0.0166888461525,0.0661764705882353
0.0166888461525,0.07352941176470588
0.0167131511633,0.08088235294117647
0.0167131511633,0.08823529411764706
0.0171598998791,0.09558823529411764
0.0171598998791,0.10294117647058823
0.0180459461737,0.11029411764705882
0.0180459461737,0.11764705882352941
0.0184079401433,0.125
0.0184079401433,0.1323529411764706
0.0192001997194,0.13970588235294118
0.0192001997194,0.14705882352941177
0.0200930821088,0.15441176470588236
0.0200930821088,0.16176470588235295
0.020398130597,0.16911764705882354
0.020398130597,0.17647058823529413
0.0209632470534,0.18382352941176472
0.0209632470534,0.19117647058823528
0.0216569310676,0.19852941176470587
0.0216569310676,0.20588235294117646
0.0219204349416,0.21323529411764705
0.0219204349416,0.22058823529411764
0.021969993733,0.22794117647058823
0.021969993733,0.23529411764705882
0.0220172567779,0.2426470588235294
0.0220172567779,0.25
0.0228267067709,0.25735294117647056
0.0228267067709,0.2647058823529412
0.0230114481949,0.27205882352941174
0.0230114481949,0.27941176470588236
0.023545495847,0.2867647058823529
0.023545495847,0.29411764705882354
0.0238574779434,0.3014705882352941
0.0238574779434,0.3088235294117647
0.0246033731366,0.3161764705882353
0.0246033731366,0.3235294117647059
0.0250032977774,0.33088235294117646
0.0250032977774,0.3382352941176471
0.0250429416754,0.34558823529411764
0.0250429416754,0.35294117647058826
0.0273356302572,0.3602941176470588
0.0273356302572,0.36764705882352944
0.0277751789456,0.375
0.0277751789456,0.38235294117647056
0.0280198539547,0.3897058823529412
0.0280198539547,0.39705882352941174
0.0300237682922,0.40441176470588236
0.0300237682922,0.4117647058823529
0.0307901095212,0.41911764705882354
0.0307901095212,0.4264705882352941
0.0325927542409,0.4338235294117647
0.0325927542409,0.4411764705882353
0.400015384179,0.4485294117647059
0.400015384179,0.45588235294117646
0.559384407639,0.4632352941176471
0.559384407639,0.47058823529411764
0.644630781598,0.47794117647058826
0.644630781598,0.4852941176470588
0.745216994802,0.49264705882352944
0.745216994802,0.5
0.908875535229,0.5073529411764706
0.908875535229,0.5147058823529411
1.1694678587,0.5220588235294118
1.1694678587,0.5294117647058824
1.1854605588,0.5367647058823529
1.1854605588,0.5441176470588235
1.19890406415,0.5514705882352942
1.19890406415,0.5588235294117647
1.61694332122,0.5661764705882353
1.61694332122,0.5735294117647058
1.63803989549,0.5808823529411765
1.63803989549,0.5882352941176471
1.78157466336,0.5955882352941176
1.78157466336,0.6029411764705882
1.86001628517,0.6102941176470589
1.86001628517,0.6176470588235294
1.86090125549,0.625
1.86090125549,0.6323529411764706
1.97923932291,0.6397058823529411
1.97923932291,0.6470588235294118
2.50032977774,0.6544117647058824
2.50032977774,0.6617647058823529
2.53869634096,0.6691176470588235
2.53869634096,0.6764705882352942
2.56573052762,0.6838235294117647
2.56573052762,0.6911764705882353
2.7407932797,0.6985294117647058
2.7407932797,0.7058823529411765
2.77751789456,0.7132352941176471
2.77751789456,0.7205882352941176
2.84635645939,0.7279411764705882
2.84635645939,0.7352941176470589
2.95487061319,0.7426470588235294
2.95487061319,0.75
3.07901095212,0.7573529411764706
3.07901095212,0.7647058823529411
3.25927542409,0.7720588235294118
3.25927542409,0.7794117647058824
3.33418243991,0.7867647058823529
3.33418243991,0.7941176470588235
3.80081784146,0.8014705882352942
3.80081784146,0.8088235294117647
3.89083130179,0.8161764705882353
3.89083130179,0.8235294117647058
3.89434241805,0.8308823529411765
3.89434241805,0.8382352941176471
4.32628089746,0.8455882352941176
4.32628089746,0.8529411764705882
4.37160292121,0.8602941176470589
4.37160292121,0.8676470588235294
4.39238139196,0.875
4.39238139196,0.8823529411764706
4.83428629523,0.8897058823529411
4.83428629523,0.8970588235294118
6.00183860604,0.9044117647058824
6.00183860604,0.9117647058823529
6.97290942944,0.9191176470588235
6.97290942944,0.9264705882352942
7.43158059489,0.9338235294117647
7.43158059489,0.9411764705882353
8.94312947023,0.9485294117647058
8.94312947023,0.9558823529411765
9.34066320543,0.9632352941176471
9.34066320543,0.9705882352941176
12.3090190157,0.9779411764705882
12.3090190157,0.9852941176470589
14.3045885489,0.9926470588235294
14.3045885489,1.0
