Congestion,CDF
0.0,0.007352941176470588
0.0,0.014705882352941176
0.0420813152301,0.022058823529411766
0.0420813152301,0.029411764705882353
0.0432049401526,0.03676470588235294
0.0432049401526,0.04411764705882353
0.0435648055578,0.051470588235294115
0.0435648055578,0.058823529411764705
0.0442773003912,0.0661764705882353
0.0442773003912,0.07352941176470588
0.0445414536977,0.08088235294117647
0.0445414536977,0.08823529411764706
0.044927274169,0.09558823529411764
0.044927274169,0.10294117647058823
0.0462172746444,0.11029411764705882
0.0462172746444,0.11764705882352941
0.046357934661,0.125
0.046357934661,0.1323529411764706
0.0466558294519,0.13970588235294118
0.0466558294519,0.14705882352941177
0.0476530162995,0.15441176470588236
0.0476530162995,0.16176470588235295
0.0477100357828,0.16911764705882354
0.0477100357828,0.17647058823529413
0.0479077148245,0.18382352941176472
0.0479077148245,0.19117647058823528
0.04832982133,0.19852941176470587
0.04832982133,0.20588235294117646
0.0486569326532,0.21323529411764705
0.0486569326532,0.22058823529411764
0.0488308890584,0.22794117647058823
0.0488308890584,0.23529411764705882
0.0494265077417,0.2426470588235294
0.0494265077417,0.25
0.0500344498246,0.25735294117647056
0.0500344498246,0.2647058823529412
0.0503182643053,0.27205882352941174
0.0503182643053,0.27941176470588236
0.0503923391818,0.2867647058823529
0.0503923391818,0.29411764705882354
0.0504863992756,0.3014705882352941
0.0504863992756,0.3088235294117647
0.0506331845124,0.3161764705882353
0.0506331845124,0.3235294117647059
0.0508256091139,0.33088235294117646
0.0508256091139,0.3382352941176471
0.0508863753581,0.34558823529411764
0.0508863753581,0.35294117647058826
0.0514454925862,0.3602941176470588
0.0514454925862,0.36764705882352944
0.0524278414352,0.375
0.0524278414352,0.38235294117647056
0.0536051535537,0.3897058823529412
0.0536051535537,0.39705882352941174
0.05389586855,0.40441176470588236
0.05389586855,0.4117647058823529
0.0580862953846,0.41911764705882354
0.0580862953846,0.4264705882352941
0.175840458511,0.4338235294117647
0.175840458511,0.4411764705882353
1.37455918328,0.4485294117647059
1.37455918328,0.45588235294117646
1.46277901886,0.4632352941176471
1.46277901886,0.47058823529411764
1.88813078338,0.47794117647058826
1.88813078338,0.4852941176470588
2.0793168786,0.49264705882352944
2.0793168786,0.5
2.18072586424,0.5073529411764706
2.18072586424,0.5147058823529411
2.39944901917,0.5220588235294118
2.39944901917,0.5294117647058824
2.45595896243,0.5367647058823529
2.45595896243,0.5441176470588235
2.89703716941,0.5514705882352942
2.89703716941,0.5588235294117647
3.03370077282,0.5661764705882353
3.03370077282,0.5735294117647058
3.6473617641,0.5808823529411765
3.6473617641,0.5882352941176471
3.69491192331,0.5955882352941176
3.69491192331,0.6029411764705882
4.27548422573,0.6102941176470589
4.27548422573,0.6176470588235294
4.49126284187,0.625
4.49126284187,0.6323529411764706
4.76625808866,0.6397058823529411
4.76625808866,0.6470588235294118
4.97843951804,0.6544117647058824
4.97843951804,0.6617647058823529
5.00344498246,0.6691176470588235
5.00344498246,0.6764705882352942
5.44539428857,0.6838235294117647
5.44539428857,0.6911764705882353
5.66643864961,0.6985294117647058
5.66643864961,0.7058823529411765
5.80862953846,0.7132352941176471
5.80862953846,0.7205882352941176
5.86116118909,0.7279411764705882
5.86116118909,0.7352941176470589
5.90089146342,0.7426470588235294
5.90089146342,0.75
6.08633931591,0.7573529411764706
6.08633931591,0.7647058823529411
6.87859573776,0.7720588235294118
6.87859573776,0.7794117647058824
6.88776366379,0.7867647058823529
6.88776366379,0.7941176470588235
7.2401554517,0.8014705882352942
7.2401554517,0.8088235294117647
7.84424451889,0.8161764705882353
7.84424451889,0.8235294117647058
8.1061180391,0.8308823529411765
8.1061180391,0.8382352941176471
8.56208831077,0.8455882352941176
8.56208831077,0.8529411764705882
9.0733198271,0.8602941176470589
9.0733198271,0.8676470588235294
9.12055300651,0.875
9.12055300651,0.8823529411764706
9.61557596982,0.8897058823529411
9.61557596982,0.8970588235294118
11.2903949948,0.9044117647058824
11.2903949948,0.9117647058823529
13.1278761951,0.9191176470588235
13.1278761951,0.9264705882352942
13.3248337594,0.9338235294117647
13.3248337594,0.9411764705882353
16.0916264184,0.9485294117647058
16.0916264184,0.9558823529411765
16.4447595352,0.9632352941176471
16.4447595352,0.9705882352941176
21.0570684781,0.9779411764705882
21.0570684781,0.9852941176470589
24.1645874073,0.9926470588235294
24.1645874073,1.0
