Congestion,CDF
0.0,0.007352941176470588
0.0,0.014705882352941176
0.0356055640221,0.022058823529411766
0.0356055640221,0.029411764705882353
0.0364947538333,0.03676470588235294
0.0364947538333,0.04411764705882353
0.0372136366034,0.051470588235294115
0.0372136366034,0.058823529411764705
0.0377152354096,0.0661764705882353
0.0377152354096,0.07352941176470588
0.0380312058822,0.08088235294117647
0.0380312058822,0.08823529411764706
0.0381662459298,0.09558823529411764
0.0381662459298,0.10294117647058823
0.0400974542119,0.11029411764705882
0.0400974542119,0.11764705882352941
0.0403678938294,0.125
0.0403678938294,0.1323529411764706
0.0405684530682,0.13970588235294118
0.0405684530682,0.14705882352941177
0.041878691744,0.15441176470588236
0.041878691744,0.16176470588235295
0.0422602138715,0.16911764705882354
0.0422602138715,0.17647058823529413
0.0423464905188,0.18382352941176472
0.0423464905188,0.19117647058823528
0.0424866136108,0.19852941176470587
0.0424866136108,0.20588235294117646
0.0424981584029,0.21323529411764705
0.0424981584029,0.22058823529411764
0.0425277589303,0.22794117647058823
0.0425277589303,0.23529411764705882
0.0435922831144,0.2426470588235294
0.0435922831144,0.25
0.0438976423606,0.25735294117647056
0.0438976423606,0.2647058823529412
0.0444977284952,0.27205882352941174
0.0444977284952,0.27941176470588236
0.0447545131217,0.2867647058823529
0.0447545131217,0.29411764705882354
0.0448203426684,0.3014705882352941
0.0448203426684,0.3088235294117647
0.0450781038903,0.3161764705882353
0.0450781038903,0.3235294117647059
0.0453746831178,0.33088235294117646
0.0453746831178,0.3382352941176471
0.045688116906,0.34558823529411764
0.045688116906,0.35294117647058826
0.0459897813223,0.3602941176470588
0.0459897813223,0.36764705882352944
0.0471647850036,0.375
0.0471647850036,0.38235294117647056
0.0484375671846,0.3897058823529412
0.0484375671846,0.39705882352941174
0.0484414369213,0.40441176470588236
0.0484414369213,0.4117647058823529
0.05260298506,0.41911764705882354
0.05260298506,0.4264705882352941
0.0935830562142,0.4338235294117647
0.0935830562142,0.4411764705882353
1.1604777765,0.4485294117647059
1.1604777765,0.45588235294117646
1.26750992865,0.4632352941176471
1.26750992865,0.47058823529411764
1.67893439113,0.47794117647058826
1.67893439113,0.4852941176470588
1.77412313522,0.49264705882352944
1.77412313522,0.5
1.80352700636,0.5073529411764706
1.80352700636,0.5147058823529411
2.15145314497,0.5220588235294118
2.15145314497,0.5294117647058824
2.18100749468,0.5367647058823529
2.18100749468,0.5441176470588235
2.61564110084,0.5514705882352942
2.61564110084,0.5588235294117647
2.62816923153,0.5661764705882353
2.62816923153,0.5735294117647058
3.27269516736,0.5808823529411765
3.27269516736,0.5882352941176471
3.28280141722,0.5955882352941176
3.28280141722,0.6029411764705882
3.77693186066,0.6102941176470589
3.77693186066,0.6176470588235294
3.8758283254,0.625
3.8758283254,0.6323529411764706
4.17070647872,0.6397058823529411
4.17070647872,0.6470588235294118
4.47360765947,0.6544117647058824
4.47360765947,0.6617647058823529
4.50781038903,0.6691176470588235
4.50781038903,0.6764705882352942
4.90761737077,0.6838235294117647
4.90761737077,0.6911764705882353
5.00243857882,0.6985294117647058
5.00243857882,0.7058823529411765
5.22578203402,0.7132352941176471
5.22578203402,0.7205882352941176
5.260298506,0.7279411764705882
5.260298506,0.7352941176470589
5.3040805384,0.7426470588235294
5.3040805384,0.75
5.32583467363,0.7573529411764706
5.32583467363,0.7647058823529411
6.02689902824,0.7720588235294118
6.02689902824,0.7794117647058824
6.26108975323,0.7867647058823529
6.26108975323,0.7941176470588235
6.44181136274,0.8014705882352942
6.44181136274,0.8088235294117647
7.01982362743,0.8161764705882353
7.01982362743,0.8235294117647058
7.3321196012,0.8308823529411765
7.3321196012,0.8382352941176471
7.77490942142,0.8455882352941176
7.77490942142,0.8529411764705882
8.05012791056,0.8602941176470589
8.05012791056,0.8676470588235294
8.13381261346,0.875
8.13381261346,0.8823529411764706
8.56607740798,0.8897058823529411
8.56607740798,0.8970588235294118
10.2083366526,0.9044117647058824
10.2083366526,0.9117647058823529
11.9093716694,0.9191176470588235
11.9093716694,0.9264705882352942
12.1419690104,0.9338235294117647
12.1419690104,0.9411764705882353
14.6971721519,0.9485294117647058
14.6971721519,0.9558823529411765
14.9486974411,0.9632352941176471
14.9486974411,0.9705882352941176
19.2963692057,0.9779411764705882
19.2963692057,0.9852941176470589
22.1924823973,0.9926470588235294
22.1924823973,1.0
