Congestion,CDF
0.0243421445644,0.007352941176470588
0.0243421445644,0.014705882352941176
0.025603392945,0.022058823529411766
0.025603392945,0.029411764705882353
0.025906074623,0.03676470588235294
0.025906074623,0.04411764705882353
0.0259825089061,0.051470588235294115
0.0259825089061,0.058823529411764705
0.0261406447636,0.0661764705882353
0.0261406447636,0.07352941176470588
0.0261813159627,0.08088235294117647
0.0261813159627,0.08823529411764706
0.0261843259288,0.09558823529411764
0.0261843259288,0.10294117647058823
0.0268692677674,0.11029411764705882
0.0268692677674,0.11764705882352941
0.027481632463,0.125
0.027481632463,0.1323529411764706
0.0275479906844,0.13970588235294118
0.0275479906844,0.14705882352941177
0.027642712844,0.15441176470588236
0.027642712844,0.16176470588235295
0.0277701386722,0.16911764705882354
0.0277701386722,0.17647058823529413
0.027963516804,0.18382352941176472
0.027963516804,0.19117647058823528
0.0283225546069,0.19852941176470587
0.0283225546069,0.20588235294117646
0.028523866679,0.21323529411764705
0.028523866679,0.22058823529411764
0.0286617287759,0.22794117647058823
0.0286617287759,0.23529411764705882
0.0289106733774,0.2426470588235294
0.0289106733774,0.25
0.0292514828916,0.25735294117647056
0.0292514828916,0.2647058823529412
0.0295338018282,0.27205882352941174
0.0295338018282,0.27941176470588236
0.0301285840105,0.2867647058823529
0.0301285840105,0.29411764705882354
0.0303215869552,0.3014705882352941
0.0303215869552,0.3088235294117647
0.0304182250045,0.3161764705882353
0.0304182250045,0.3235294117647059
0.0304286176393,0.33088235294117646
0.0304286176393,0.3382352941176471
0.0309133357213,0.34558823529411764
0.0309133357213,0.35294117647058826
0.0312573167183,0.3602941176470588
0.0312573167183,0.36764705882352944
0.0325698386349,0.375
0.0325698386349,0.38235294117647056
0.0332025360984,0.3897058823529412
0.0332025360984,0.39705882352941174
0.0341956701633,0.40441176470588236
0.0341956701633,0.4117647058823529
0.0481823922465,0.41911764705882354
0.0481823922465,0.4264705882352941
0.227280189637,0.4338235294117647
0.227280189637,0.4411764705882353
0.764242757787,0.4485294117647059
0.764242757787,0.45588235294117646
0.904164136765,0.4632352941176471
0.904164136765,0.47058823529411764
1.10396736706,0.47794117647058826
1.10396736706,0.4852941176470588
1.13576472162,0.49264705882352944
1.13576472162,0.5
1.22617431222,0.5073529411764706
1.22617431222,0.5147058823529411
1.37299478421,0.5220588235294118
1.37299478421,0.5294117647058824
1.47175485411,0.5367647058823529
1.47175485411,0.5441176470588235
1.70654020897,0.5514705882352942
1.70654020897,0.5588235294117647
1.72433306293,0.5661764705882353
1.72433306293,0.5735294117647058
2.03199870158,0.5808823529411765
2.03199870158,0.5882352941176471
2.09026902754,0.5955882352941176
2.09026902754,0.6029411764705882
2.37833477275,0.6102941176470589
2.37833477275,0.6176470588235294
2.51762766967,0.625
2.51762766967,0.6323529411764706
2.64292899665,0.6397058823529411
2.64292899665,0.6470588235294118
2.78407306844,0.6544117647058824
2.78407306844,0.6617647058823529
2.97571231476,0.6691176470588235
2.97571231476,0.6764705882352942
3.14015742415,0.6838235294117647
3.14015742415,0.6911764705882353
3.27595092041,0.6985294117647058
3.27595092041,0.7058823529411765
3.30672653697,0.7132352941176471
3.30672653697,0.7205882352941176
3.34603616435,0.7279411764705882
3.34603616435,0.7352941176470589
3.40296961481,0.7426470588235294
3.40296961481,0.75
3.41956701633,0.7573529411764706
3.41956701633,0.7647058823529411
3.78810750962,0.7720588235294118
3.78810750962,0.7794117647058824
4.00326848416,0.7867647058823529
4.00326848416,0.7941176470588235
4.02142467927,0.8014705882352942
4.02142467927,0.8088235294117647
4.48396532584,0.8161764705882353
4.48396532584,0.8235294117647058
4.62899955014,0.8308823529411765
4.62899955014,0.8382352941176471
4.91354795758,0.8455882352941176
4.91354795758,0.8529411764705882
4.97525869533,0.8602941176470589
4.97525869533,0.8676470588235294
5.1003795365,0.875
5.1003795365,0.8823529411764706
5.22366753571,0.8897058823529411
5.22366753571,0.8970588235294118
6.41202189586,0.9044117647058824
6.41202189586,0.9117647058823529
7.47747513898,0.9191176470588235
7.47747513898,0.9264705882352942
7.6764593813,0.9338235294117647
7.6764593813,0.9411764705882353
9.39646023789,0.9485294117647058
9.39646023789,0.9558823529411765
9.42002519013,0.9632352941176471
9.42002519013,0.9705882352941176
12.2416008753,0.9779411764705882
12.2416008753,0.9852941176470589
14.0732247889,0.9926470588235294
14.0732247889,1.0
