Congestion,CDF
0.0,0.007352941176470588
0.0,0.014705882352941176
0.0,0.022058823529411766
0.0,0.029411764705882353
0.0182465303922,0.03676470588235294
0.0182465303922,0.04411764705882353
0.0194788205362,0.051470588235294115
0.0194788205362,0.058823529411764705
0.0195440006643,0.0661764705882353
0.0195440006643,0.07352941176470588
0.0198327241887,0.08088235294117647
0.0198327241887,0.08823529411764706
0.0200458678508,0.09558823529411764
0.0200458678508,0.10294117647058823
0.0208178809946,0.11029411764705882
0.0208178809946,0.11764705882352941
0.0215806738623,0.125
0.0215806738623,0.1323529411764706
0.0220363316939,0.13970588235294118
0.0220363316939,0.14705882352941177
0.0234046702095,0.15441176470588236
0.0234046702095,0.16176470588235295
0.0234936063711,0.16911764705882354
0.0234936063711,0.17647058823529413
0.0244061671712,0.18382352941176472
0.0244061671712,0.19117647058823528
0.024991660022,0.19852941176470587
0.024991660022,0.20588235294117646
0.0251326318701,0.21323529411764705
0.0251326318701,0.22058823529411764
0.0252621403297,0.22794117647058823
0.0252621403297,0.23529411764705882
0.0255006740994,0.2426470588235294
0.0255006740994,0.25
0.0260480893819,0.25735294117647056
0.0260480893819,0.2647058823529412
0.0261086691565,0.27205882352941174
0.0261086691565,0.27941176470588236
0.0269683260107,0.2867647058823529
0.0269683260107,0.29411764705882354
0.0271661378314,0.3014705882352941
0.0271661378314,0.3088235294117647
0.0280165771843,0.3161764705882353
0.0280165771843,0.3235294117647059
0.028332484774,0.33088235294117646
0.028332484774,0.3382352941176471
0.0284225610339,0.34558823529411764
0.0284225610339,0.35294117647058826
0.0303274795933,0.3602941176470588
0.0303274795933,0.36764705882352944
0.0307548361388,0.375
0.0307548361388,0.38235294117647056
0.0310261111183,0.3897058823529412
0.0310261111183,0.39705882352941174
0.032874773695,0.40441176470588236
0.032874773695,0.4117647058823529
0.0335516193315,0.41911764705882354
0.0335516193315,0.4264705882352941
0.0356896538358,0.4338235294117647
0.0356896538358,0.4411764705882353
0.511045274313,0.4485294117647059
0.511045274313,0.45588235294117646
0.721386395206,0.4632352941176471
0.721386395206,0.47058823529411764
0.809007724056,0.47794117647058826
0.809007724056,0.4852941176470588
0.824053888168,0.49264705882352944
0.824053888168,0.5
1.04474085899,0.5073529411764706
1.04474085899,0.5147058823529411
1.33567268923,0.5220588235294118
1.33567268923,0.5294117647058824
1.36200356156,0.5367647058823529
1.36200356156,0.5441176470588235
1.40575499512,0.5514705882352942
1.40575499512,0.5588235294117647
1.79580121413,0.5661764705882353
1.79580121413,0.5735294117647058
1.90567174013,0.5808823529411765
1.90567174013,0.5882352941176471
2.05556564878,0.5955882352941176
2.05556564878,0.6029411764705882
2.09924811459,0.6102941176470589
2.09924811459,0.6176470588235294
2.1686180453,0.625
2.1686180453,0.6323529411764706
2.30613490685,0.6397058823529411
2.30613490685,0.6470588235294118
2.84225610339,0.6544117647058824
2.84225610339,0.6617647058823529
2.92514877979,0.6691176470588235
2.92514877979,0.6764705882352942
2.95578253276,0.6838235294117647
2.95578253276,0.6911764705882353
3.03274795933,0.6985294117647058
3.03274795933,0.7058823529411765
3.17060970278,0.7132352941176471
3.17060970278,0.7205882352941176
3.30817372625,0.7279411764705882
3.30817372625,0.7352941176470589
3.35516193315,0.7426470588235294
3.35516193315,0.75
3.36146303317,0.7573529411764706
3.36146303317,0.7647058823529411
3.56896538358,0.7720588235294118
3.56896538358,0.7794117647058824
3.8425336239,0.7867647058823529
3.8425336239,0.7941176470588235
4.2853788141,0.8014705882352942
4.2853788141,0.8088235294117647
4.40112425909,0.8161764705882353
4.40112425909,0.8235294117647058
4.51999345057,0.8308823529411765
4.51999345057,0.8382352941176471
4.87128482801,0.8455882352941176
4.87128482801,0.8529411764705882
5.03008652462,0.8602941176470589
5.03008652462,0.8676470588235294
5.04936614115,0.875
5.04936614115,0.8823529411764706
5.31130518299,0.8897058823529411
5.31130518299,0.8970588235294118
6.72253967624,0.9044117647058824
6.72253967624,0.9117647058823529
7.81924730784,0.9191176470588235
7.81924730784,0.9264705882352942
8.22962110663,0.9338235294117647
8.22962110663,0.9411764705882353
9.9687548699,0.9485294117647058
9.9687548699,0.9558823529411765
10.2116046862,0.9632352941176471
10.2116046862,0.9705882352941176
13.4782301748,0.9779411764705882
13.4782301748,0.9852941176470589
15.6228779079,0.9926470588235294
15.6228779079,1.0
