Congestion,CDF
0.0,0.007352941176470588
0.0,0.014705882352941176
0.0164382123186,0.022058823529411766
0.0164382123186,0.029411764705882353
0.0254390938507,0.03676470588235294
0.0254390938507,0.04411764705882353
0.0258840113491,0.051470588235294115
0.0258840113491,0.058823529411764705
0.0262775306402,0.0661764705882353
0.0262775306402,0.07352941176470588
0.0264858013628,0.08088235294117647
0.0264858013628,0.08823529411764706
0.0267457586196,0.09558823529411764
0.0267457586196,0.10294117647058823
0.026873392223,0.11029411764705882
0.026873392223,0.11764705882352941
0.0285981636548,0.125
0.0285981636548,0.1323529411764706
0.0288496307228,0.13970588235294118
0.0288496307228,0.14705882352941177
0.0301675883995,0.15441176470588236
0.0301675883995,0.16176470588235295
0.0302743139452,0.16911764705882354
0.0302743139452,0.17647058823529413
0.0314738040398,0.18382352941176472
0.0314738040398,0.19117647058823528
0.0314944924644,0.19852941176470587
0.0314944924644,0.20588235294117646
0.03173291556,0.21323529411764705
0.03173291556,0.22058823529411764
0.0322617302991,0.22794117647058823
0.0322617302991,0.23529411764705882
0.0323212818945,0.2426470588235294
0.0323212818945,0.25
0.0324609090048,0.25735294117647056
0.0324609090048,0.2647058823529412
0.0330682808742,0.27205882352941174
0.0330682808742,0.27941176470588236
0.0339238934507,0.2867647058823529
0.0339238934507,0.29411764705882354
0.0339263835963,0.3014705882352941
0.0339263835963,0.3088235294117647
0.0343301953913,0.3161764705882353
0.0343301953913,0.3235294117647059
0.0351887439203,0.33088235294117646
0.0351887439203,0.3382352941176471
0.0354538997279,0.34558823529411764
0.0354538997279,0.35294117647058826
0.0360927764924,0.3602941176470588
0.0360927764924,0.36764705882352944
0.0369227743,0.375
0.0369227743,0.38235294117647056
0.0374281037287,0.3897058823529412
0.0374281037287,0.39705882352941174
0.0388631433594,0.40441176470588236
0.0388631433594,0.4117647058823529
0.0392405524617,0.41911764705882354
0.0392405524617,0.4264705882352941
0.0421849799002,0.4338235294117647
0.0421849799002,0.4411764705882353
0.766521925302,0.4485294117647059
0.766521925302,0.45588235294117646
0.992692016701,0.4632352941176471
0.992692016701,0.47058823529411764
1.13873771571,0.47794117647058826
1.13873771571,0.4852941176470588
1.20119075158,0.49264705882352944
1.20119075158,0.5
1.29758143283,0.5073529411764706
1.29758143283,0.5147058823529411
1.66315012652,0.5220588235294118
1.66315012652,0.5294117647058824
1.67054794975,0.5367647058823529
1.67054794975,0.5441176470588235
1.88299265397,0.5514705882352942
1.88299265397,0.5588235294117647
2.10563733584,0.5661764705882353
2.10563733584,0.5735294117647058
2.45475018119,0.5808823529411765
2.45475018119,0.5882352941176471
2.57563279065,0.5955882352941176
2.57563279065,0.6029411764705882
2.71398720961,0.6102941176470589
2.71398720961,0.6176470588235294
2.79636382039,0.625
2.79636382039,0.6323529411764706
3.03079222815,0.6397058823529411
3.03079222815,0.6470588235294118
3.51887439203,0.6544117647058824
3.51887439203,0.6617647058823529
3.59283943693,0.6691176470588235
3.59283943693,0.6764705882352942
3.73256772268,0.6838235294117647
3.73256772268,0.6911764705882353
3.86694035708,0.6985294117647058
3.86694035708,0.7058823529411765
3.94049345849,0.7132352941176471
3.94049345849,0.7205882352941176
4.00355103817,0.7279411764705882
4.00355103817,0.7352941176470589
4.14166451203,0.7426470588235294
4.14166451203,0.75
4.21849799002,0.7573529411764706
4.21849799002,0.7647058823529411
4.37448230758,0.7720588235294118
4.37448230758,0.7794117647058824
4.87811327696,0.7867647058823529
4.87811327696,0.7941176470588235
5.07794349311,0.8014705882352942
5.07794349311,0.8088235294117647
5.44198990613,0.8161764705882353
5.44198990613,0.8235294117647058
5.84844770871,0.8308823529411765
5.84844770871,0.8382352941176471
5.9594662358,0.8455882352941176
5.9594662358,0.8529411764705882
6.28221701402,0.8602941176470589
6.28221701402,0.8676470588235294
6.29242485022,0.875
6.29242485022,0.8823529411764706
6.47962530544,0.8897058823529411
6.47962530544,0.8970588235294118
8.12212129785,0.9044117647058824
8.12212129785,0.9117647058823529
9.47640652838,0.9191176470588235
9.47640652838,0.9264705882352942
9.80160961561,0.9338235294117647
9.80160961561,0.9411764705882353
11.9680076116,0.9485294117647058
11.9680076116,0.9558823529411765
11.9795529352,0.9632352941176471
11.9795529352,0.9705882352941176
15.7936791079,0.9779411764705882
15.7936791079,0.9852941176470589
18.2501811352,0.9926470588235294
18.2501811352,1.0
