Congestion,CDF
0.00827813188851,0.007352941176470588
0.00827813188851,0.014705882352941176
0.0492961712066,0.022058823529411766
0.0492961712066,0.029411764705882353
0.0493651177824,0.03676470588235294
0.0493651177824,0.04411764705882353
0.0501402705298,0.051470588235294115
0.0501402705298,0.058823529411764705
0.0505392908224,0.0661764705882353
0.0505392908224,0.07352941176470588
0.0508113335073,0.08088235294117647
0.0508113335073,0.08823529411764706
0.0517730934446,0.09558823529411764
0.0517730934446,0.10294117647058823
0.0517789241615,0.11029411764705882
0.0517789241615,0.11764705882352941
0.0520322486757,0.125
0.0520322486757,0.1323529411764706
0.0524096375243,0.13970588235294118
0.0524096375243,0.14705882352941177
0.0529291868236,0.15441176470588236
0.0529291868236,0.16176470588235295
0.0530054729422,0.16911764705882354
0.0530054729422,0.17647058823529413
0.0531197163024,0.18382352941176472
0.0531197163024,0.19117647058823528
0.0538468708605,0.19852941176470587
0.0538468708605,0.20588235294117646
0.0544258628305,0.21323529411764705
0.0544258628305,0.22058823529411764
0.0545968452078,0.22794117647058823
0.0545968452078,0.23529411764705882
0.0550013252377,0.2426470588235294
0.0550013252377,0.25
0.0551915711167,0.25735294117647056
0.0551915711167,0.2647058823529412
0.0554395499073,0.27205882352941174
0.0554395499073,0.27941176470588236
0.0560253691235,0.2867647058823529
0.0560253691235,0.29411764705882354
0.0562841723972,0.3014705882352941
0.0562841723972,0.3088235294117647
0.0563713266452,0.3161764705882353
0.0563713266452,0.3235294117647059
0.0565049787882,0.33088235294117646
0.0565049787882,0.3382352941176471
0.0567302165159,0.34558823529411764
0.0567302165159,0.35294117647058826
0.056907106043,0.3602941176470588
0.056907106043,0.36764705882352944
0.057579388926,0.375
0.057579388926,0.38235294117647056
0.0587832607791,0.3897058823529412
0.0587832607791,0.39705882352941174
0.0596765588809,0.40441176470588236
0.0596765588809,0.4117647058823529
0.0630451061297,0.41911764705882354
0.0630451061297,0.4264705882352941
0.327397573758,0.4338235294117647
0.327397573758,0.4411764705882353
1.55998238012,0.4485294117647059
1.55998238012,0.45588235294117646
1.66386002828,0.4632352941176471
1.66386002828,0.47058823529411764
2.08631319811,0.47794117647058826
2.08631319811,0.4852941176470588
2.37525905848,0.49264705882352944
2.37525905848,0.5
2.53911628696,0.5073529411764706
2.53911628696,0.5147058823529411
2.62457832306,0.5220588235294118
2.62457832306,0.5294117647058824
2.70697131488,0.5367647058823529
2.70697131488,0.5441176470588235
3.19004858056,0.5514705882352942
3.19004858056,0.5588235294117647
3.42638955754,0.5661764705882353
3.42638955754,0.5735294117647058
3.99176214619,0.5808823529411765
3.99176214619,0.5882352941176471
4.08791858357,0.5955882352941176
4.08791858357,0.6029411764705882
4.7299203984,0.6102941176470589
4.7299203984,0.6176470588235294
5.04793461887,0.625
5.04793461887,0.6323529411764706
5.30534037433,0.6397058823529411
5.30534037433,0.6470588235294118
5.45140638889,0.6544117647058824
5.45140638889,0.6617647058823529
5.50396526906,0.6691176470588235
5.50396526906,0.6764705882352942
5.97689772121,0.6838235294117647
5.97689772121,0.6911764705882353
6.25624252369,0.6985294117647058
6.25624252369,0.7058823529411765
6.30451061297,0.7132352941176471
6.30451061297,0.7205882352941176
6.42875806742,0.7279411764705882
6.42875806742,0.7352941176470589
6.43304319988,0.7426470588235294
6.43304319988,0.75
6.75218715681,0.7573529411764706
6.75218715681,0.7647058823529411
7.4458782989,0.7720588235294118
7.4458782989,0.7794117647058824
7.6129205118,0.7867647058823529
7.6129205118,0.7941176470588235
7.92683688652,0.8014705882352942
7.92683688652,0.8088235294117647
8.5546047311,0.8161764705882353
8.5546047311,0.8235294117647058
8.77640943072,0.8308823529411765
8.77640943072,0.8382352941176471
9.24815865252,0.8455882352941176
9.24815865252,0.8529411764705882
9.87089176431,0.8602941176470589
9.87089176431,0.8676470588235294
10.0310528942,0.875
10.0310528942,0.8823529411764706
10.5006829204,0.8897058823529411
10.5006829204,0.8970588235294118
12.2138035946,0.9044117647058824
12.2138035946,0.9117647058823529
14.1493378536,0.9191176470588235
14.1493378536,0.9264705882352942
14.3203827474,0.9338235294117647
14.3203827474,0.9411764705882353
17.2694613928,0.9485294117647058
17.2694613928,0.9558823529411765
17.6987575358,0.9632352941176471
17.6987575358,0.9705882352941176
22.5311414251,0.9779411764705882
22.5311414251,0.9852941176470589
25.810546522,0.9926470588235294
25.810546522,1.0
