Congestion,CDF
0.0,0.005555555555555556
0.0,0.011111111111111112
0.0,0.016666666666666666
0.0,0.022222222222222223
0.0,0.027777777777777776
0.0,0.03333333333333333
0.0,0.03888888888888889
0.0,0.044444444444444446
0.0,0.05
0.0,0.05555555555555555
1.29642551902e-06,0.06111111111111111
1.48953057226e-06,0.06666666666666667
3.35280990566e-06,0.07222222222222222
4.90032670986e-06,0.07777777777777778
5.01424012426e-06,0.08333333333333333
6.6205230901e-06,0.08888888888888889
7.28345164211e-06,0.09444444444444444
1.00382572263e-05,0.1
1.00900450976e-05,0.10555555555555556
1.03230632675e-05,0.1111111111111111
1.0535523754e-05,0.11666666666666667
1.15974592747e-05,0.12222222222222222
1.18664595606e-05,0.12777777777777777
1.32512027399e-05,0.13333333333333333
1.35718937727e-05,0.1388888888888889
1.42913770157e-05,0.14444444444444443
1.65253141011e-05,0.15
1.80854240978e-05,0.15555555555555556
1.88848256434e-05,0.16111111111111112
1.96409952267e-05,0.16666666666666666
1.99517560955e-05,0.17222222222222222
2.01119951188e-05,0.17777777777777778
2.07783342059e-05,0.18333333333333332
2.15003417153e-05,0.18888888888888888
2.18632766745e-05,0.19444444444444445
2.21101828992e-05,0.2
2.22328502999e-05,0.20555555555555555
2.24881587034e-05,0.2111111111111111
2.2707908698e-05,0.21666666666666667
2.27577388149e-05,0.2222222222222222
2.35181333281e-05,0.22777777777777777
2.37143421461e-05,0.23333333333333334
2.39865680309e-05,0.2388888888888889
2.59761666333e-05,0.24444444444444444
2.73337198643e-05,0.25
2.96764692239e-05,0.25555555555555554
3.01466101338e-05,0.2611111111111111
3.0580441707e-05,0.26666666666666666
3.16160464098e-05,0.2722222222222222
0.000111760330189,0.2777777777777778
0.000118568918138,0.2833333333333333
0.000123683631097,0.28888888888888886
0.000168217023977,0.29444444444444445
0.000170500113126,0.3
0.000179483291247,0.3055555555555556
0.00018671552276,0.3111111111111111
0.000193514403208,0.31666666666666665
0.000205435653801,0.32222222222222224
0.000210970320046,0.3277777777777778
0.000212260798607,0.3333333333333333
0.000213060629259,0.3388888888888889
0.000213631084917,0.34444444444444444
0.000216231397588,0.35
0.000222568836117,0.35555555555555557
0.000223520660377,0.3611111111111111
0.000228271738082,0.36666666666666664
0.000229266598352,0.37222222222222223
0.000245016335493,0.37777777777777777
0.000245016335493,0.38333333333333336
0.000252251127439,0.3888888888888889
0.000252251127439,0.39444444444444443
0.000381893679341,0.4
0.000501424012426,0.40555555555555556
0.000504502254879,0.4111111111111111
0.000671710189044,0.4166666666666667
0.000717891511046,0.4222222222222222
0.000719754856426,0.42777777777777776
0.000721416220598,0.43333333333333335
0.000723685432116,0.4388888888888889
0.000726937504227,0.4444444444444444
0.000727999439748,0.45
0.000729973874246,0.45555555555555555
0.000730693357489,0.46111111111111114
0.000732927294575,0.4666666666666667
0.000734487404571,0.4722222222222222
0.0007360429757,0.4777777777777778
0.000737180314679,0.48333333333333334
0.000738265257148,0.4888888888888889
0.000738634830773,0.49444444444444446
0.000739920113802,0.5
0.00074011632262,0.5055555555555555
0.000742378147107,0.5111111111111111
0.000743735700338,0.5166666666666667
0.00074698242218,0.5222222222222223
0.000957463289125,0.5277777777777778
0.000979033453969,0.5333333333333333
0.000991468146699,0.5388888888888889
0.00100382572263,0.5444444444444444
0.00104394598835,0.55
0.00110550914496,0.5555555555555556
0.00110550914496,0.5611111111111111
0.00116732043502,0.5666666666666667
0.00141199705491,0.5722222222222222
0.00215003417153,0.5777777777777777
0.00218632766745,0.5833333333333334
0.00225621584738,0.5888888888888889
0.00243062941895,0.5944444444444444
0.00257162823161,0.6
0.00257162823161,0.6055555555555555
0.00293242855269,0.6111111111111112
0.00309904067576,0.6166666666666667
0.00333229979487,0.6222222222222222
0.00356254642557,0.6277777777777778
0.00442580805302,0.6333333333333333
0.00467944528929,0.6388888888888888
0.00492344156442,0.6444444444444445
0.00605288108371,0.65
0.00710643345911,0.6555555555555556
0.00744042022337,0.6611111111111111
0.00918760265246,0.6666666666666666
0.0104080671458,0.6722222222222223
0.0106130399303,0.6777777777777778
0.0106130399303,0.6833333333333333
0.0185173211416,0.6888888888888889
0.018671552276,0.6944444444444444
0.0210970320046,0.7
0.0211166882645,0.7055555555555556
0.0225279815015,0.7111111111111111
0.02358046134,0.7166666666666667
0.0239365822281,0.7222222222222222
0.0239365822281,0.7277777777777777
0.0239918285475,0.7333333333333333
0.0256895861424,0.7388888888888889
0.0263138333264,0.7444444444444445
0.027684761752,0.75
0.0279879873635,0.7555555555555555
0.0296405187736,0.7611111111111111
0.0299644802511,0.7666666666666667
0.0320119529882,0.7722222222222223
0.0322117684692,0.7777777777777778
0.0327402981524,0.7833333333333333
0.0332440747959,0.7888888888888889
0.034430720752,0.7944444444444444
0.0407582846259,0.8
0.0424601404963,0.8055555555555556
0.0478731644563,0.8111111111111111
0.0479836570951,0.8166666666666667
0.0489516726984,0.8222222222222222
0.0489516726984,0.8277777777777777
0.051270543177,0.8333333333333334
0.0587066137505,0.8388888888888889
0.0608085645122,0.8444444444444444
0.0721416220598,0.85
0.0738265257148,0.8555555555555555
0.0792501791306,0.8611111111111112
0.0967365262029,0.8666666666666667
0.121776225597,0.8722222222222222
0.121776225597,0.8777777777777778
0.122571406674,0.8833333333333333
0.130157911096,0.8888888888888888
0.14637943677,0.8944444444444445
0.152985084904,0.9
0.194177095208,0.9055555555555556
0.195768236977,0.9111111111111111
0.269642428412,0.9166666666666666
0.291899312024,0.9222222222222223
0.308949323337,0.9277777777777778
0.34331279416,0.9333333333333333
0.382126250959,0.9388888888888889
0.387742471909,0.9444444444444444
0.460436222332,0.95
0.498858294461,0.9555555555555556
0.598005109131,0.9611111111111111
0.877612499569,0.9666666666666667
1.09759623391,0.9722222222222222
1.17196980394,0.9777777777777777
1.29399081239,0.9833333333333333
1.36728354185,0.9888888888888889
1.44129517411,0.9944444444444445
1.51366371732,1.0
