Congestion,CDF
0.00207301504697,0.005555555555555556
0.00207301504697,0.011111111111111112
0.00208307665185,0.016666666666666666
0.00208307665185,0.022222222222222223
0.00208750055391,0.027777777777777776
0.00208750055391,0.03333333333333333
0.00210941623741,0.03888888888888889
0.00210941623741,0.044444444444444446
0.00214018248463,0.05
0.00214018248463,0.05555555555555555
0.00232908147279,0.06111111111111111
0.00232908147279,0.06666666666666667
0.0023510453507,0.07222222222222222
0.0023510453507,0.07777777777777778
0.00247952304378,0.08333333333333333
0.00247952304378,0.08888888888888889
0.00248186411566,0.09444444444444444
0.00248186411566,0.1
0.00263947402746,0.10555555555555556
0.00263947402746,0.1111111111111111
0.00271251827101,0.11666666666666667
0.00271251827101,0.12222222222222222
0.00272392692013,0.12777777777777777
0.00272392692013,0.13333333333333333
0.00272608098463,0.1388888888888889
0.00272608098463,0.14444444444444443
0.00273701690038,0.15
0.00273701690038,0.15555555555555556
0.00274052203716,0.16111111111111112
0.00274052203716,0.16666666666666666
0.0027480739568,0.17222222222222222
0.0027480739568,0.17777777777777778
0.00275023383959,0.18333333333333332
0.00275023383959,0.18888888888888888
0.00286086391086,0.19444444444444445
0.00286086391086,0.2
0.00295200052937,0.20555555555555555
0.00295200052937,0.2111111111111111
0.0029746459762,0.21666666666666667
0.0029746459762,0.2222222222222222
0.00299963322238,0.22777777777777777
0.00299963322238,0.23333333333333334
0.00301534996509,0.2388888888888889
0.00301534996509,0.24444444444444444
0.00302379903701,0.25
0.00302379903701,0.25555555555555554
0.0030341289076,0.2611111111111111
0.0030341289076,0.26666666666666666
0.00305565688781,0.2722222222222222
0.00305565688781,0.2777777777777778
0.00330621849915,0.2833333333333333
0.00330621849915,0.28888888888888886
0.00333003893164,0.29444444444444445
0.00333003893164,0.3
0.00339825900918,0.3055555555555556
0.00339825900918,0.3111111111111111
0.00351372383006,0.31666666666666665
0.00351372383006,0.32222222222222224
0.00351578749203,0.3277777777777778
0.00351578749203,0.3333333333333333
0.00354750654082,0.3388888888888889
0.00354750654082,0.34444444444444444
0.00355123216456,0.35
0.00355123216456,0.35555555555555557
0.00363064358972,0.3611111111111111
0.00363064358972,0.36666666666666664
0.00370039685539,0.37222222222222223
0.00370039685539,0.37777777777777777
0.00404274957369,0.38333333333333336
0.00404274957369,0.3888888888888889
0.00407491699959,0.39444444444444443
0.00407491699959,0.4
0.00435307127043,0.40555555555555556
0.00435307127043,0.4111111111111111
0.00438332366743,0.4166666666666667
0.00438332366743,0.4222222222222222
0.00444070931153,0.42777777777777776
0.00444070931153,0.43333333333333335
0.00445625646884,0.4388888888888889
0.00445625646884,0.4444444444444444
0.076080111179,0.45
0.076080111179,0.45555555555555555
0.101052418528,0.46111111111111114
0.101052418528,0.4666666666666667
0.143255578439,0.4722222222222222
0.143255578439,0.4777777777777778
0.151519222004,0.48333333333333334
0.151519222004,0.4888888888888889
0.176362729199,0.49444444444444446
0.176362729199,0.5
0.18340255283,0.5055555555555555
0.18340255283,0.5111111111111111
0.184071822914,0.5166666666666667
0.184071822914,0.5222222222222223
0.23019755193,0.5277777777777778
0.23019755193,0.5333333333333333
0.235940475864,0.5388888888888889
0.235940475864,0.5444444444444444
0.257478094749,0.55
0.257478094749,0.5555555555555556
0.260105971535,0.5611111111111111
0.260105971535,0.5666666666666667
0.275959322972,0.5722222222222222
0.275959322972,0.5777777777777777
0.311164009488,0.5833333333333334
0.311164009488,0.5888888888888889
0.327571346955,0.5944444444444444
0.327571346955,0.6
0.359465017199,0.6055555555555555
0.359465017199,0.6111111111111112
0.362212472515,0.6166666666666667
0.362212472515,0.6222222222222222
0.37157807999,0.6277777777777778
0.37157807999,0.6333333333333333
0.374093093819,0.6388888888888888
0.374093093819,0.6444444444444445
0.403607170711,0.65
0.403607170711,0.6555555555555556
0.407178972556,0.6611111111111111
0.407178972556,0.6666666666666666
0.412901567425,0.6722222222222223
0.412901567425,0.6777777777777778
0.418297968156,0.6833333333333333
0.418297968156,0.6888888888888889
0.424249506704,0.6944444444444444
0.424249506704,0.7
0.50529162343,0.7055555555555556
0.50529162343,0.7111111111111111
0.541446647165,0.7166666666666667
0.541446647165,0.7222222222222222
0.56068978006,0.7277777777777777
0.56068978006,0.7333333333333333
0.590521587694,0.7388888888888889
0.590521587694,0.7444444444444445
0.598015341247,0.75
0.598015341247,0.7555555555555555
0.613535288844,0.7611111111111111
0.613535288844,0.7666666666666667
0.640340927725,0.7722222222222223
0.640340927725,0.7777777777777778
0.687871622099,0.7833333333333333
0.687871622099,0.7888888888888889
0.732706343352,0.7944444444444444
0.732706343352,0.8
0.756139484062,0.8055555555555556
0.756139484062,0.8111111111111111
0.769241112385,0.8166666666666667
0.769241112385,0.8222222222222222
0.771180027533,0.8277777777777777
0.771180027533,0.8333333333333334
0.779304149995,0.8388888888888889
0.779304149995,0.8444444444444444
0.832015988641,0.85
0.832015988641,0.8555555555555555
0.855220430834,0.8611111111111112
0.855220430834,0.8666666666666667
0.933191156605,0.8722222222222222
0.933191156605,0.8777777777777778
1.00066254703,0.8833333333333333
1.00066254703,0.8888888888888888
1.02798639835,0.8944444444444445
1.02798639835,0.9
1.03497776777,0.9055555555555556
1.03497776777,0.9111111111111111
1.03581431917,0.9166666666666666
1.03581431917,0.9222222222222223
1.05372163386,0.9277777777777778
1.05372163386,0.9333333333333333
1.26025255347,0.9388888888888889
1.26025255347,0.9444444444444444
1.45304774795,0.95
1.45304774795,0.9555555555555556
1.5410697586,0.9611111111111111
1.5410697586,0.9666666666666667
2.58579534711,0.9722222222222222
2.58579534711,0.9777777777777777
2.79453695731,0.9833333333333333
2.79453695731,0.9888888888888889
2.80971359121,0.9944444444444445
2.80971359121,1.0
