Congestion,CDF
0.00731797872717,0.009433962264150943
0.00731797872717,0.018867924528301886
0.00732754208558,0.02830188679245283
0.00732754208558,0.03773584905660377
0.00732873489821,0.04716981132075472
0.00732873489821,0.05660377358490566
0.00733009601351,0.0660377358490566
0.00733009601351,0.07547169811320754
0.00733441893383,0.08490566037735849
0.00733441893383,0.09433962264150944
0.0073365107535,0.10377358490566038
0.0073365107535,0.11320754716981132
0.00734247535832,0.12264150943396226
0.00734247535832,0.1320754716981132
0.0073545660374,0.14150943396226415
0.0073545660374,0.1509433962264151
0.00736389205027,0.16037735849056603
0.00736389205027,0.16981132075471697
0.00736630011013,0.1792452830188679
0.00736630011013,0.18867924528301888
0.00737337336619,0.19811320754716982
0.00737337336619,0.20754716981132076
0.00738421689402,0.2169811320754717
0.00738421689402,0.22641509433962265
0.00738548349961,0.2358490566037736
0.00738548349961,0.24528301886792453
0.00738855781553,0.25471698113207547
0.00738855781553,0.2641509433962264
0.0565332831287,0.27358490566037735
0.0565332831287,0.2830188679245283
0.0751050209449,0.29245283018867924
0.0751050209449,0.3018867924528302
0.103538933904,0.3113207547169811
0.103538933904,0.32075471698113206
0.109037033532,0.330188679245283
0.109037033532,0.33962264150943394
0.10917416048,0.3490566037735849
0.10917416048,0.3584905660377358
0.112783125928,0.36792452830188677
0.112783125928,0.37735849056603776
0.124820093039,0.3867924528301887
0.124820093039,0.39622641509433965
0.125077699659,0.4056603773584906
0.125077699659,0.41509433962264153
0.126698283401,0.42452830188679247
0.126698283401,0.4339622641509434
0.133704305274,0.44339622641509435
0.133704305274,0.4528301886792453
0.140412002708,0.46226415094339623
0.140412002708,0.4716981132075472
0.140909083214,0.4811320754716981
0.140909083214,0.49056603773584906
0.161802969927,0.5
0.161802969927,0.5094339622641509
0.166512565023,0.5188679245283019
0.166512565023,0.5283018867924528
0.166749441538,0.5377358490566038
0.166749441538,0.5471698113207547
0.174266205634,0.5566037735849056
0.174266205634,0.5660377358490566
0.177855497505,0.5754716981132075
0.177855497505,0.5849056603773585
0.183272131321,0.5943396226415094
0.183272131321,0.6037735849056604
0.190816200435,0.6132075471698113
0.190816200435,0.6226415094339622
0.197722822556,0.6320754716981132
0.197722822556,0.6415094339622641
0.201915376734,0.6509433962264151
0.201915376734,0.660377358490566
0.20733003404,0.6698113207547169
0.20733003404,0.6792452830188679
0.212923026989,0.6886792452830188
0.212923026989,0.6981132075471698
0.233049306124,0.7075471698113207
0.233049306124,0.7169811320754716
0.237332730365,0.7264150943396226
0.237332730365,0.7358490566037735
0.237862381522,0.7452830188679245
0.237862381522,0.7547169811320755
0.255741596356,0.7641509433962265
0.255741596356,0.7735849056603774
0.256482530424,0.7830188679245284
0.256482530424,0.7924528301886793
0.291006230747,0.8018867924528302
0.291006230747,0.8113207547169812
0.291050956921,0.8207547169811321
0.291050956921,0.8301886792452831
0.298793044642,0.839622641509434
0.298793044642,0.8490566037735849
0.321796309149,0.8584905660377359
0.321796309149,0.8679245283018868
0.322464592969,0.8773584905660378
0.322464592969,0.8867924528301887
0.324331619147,0.8962264150943396
0.324331619147,0.9056603773584906
0.349558758049,0.9150943396226415
0.349558758049,0.9245283018867925
0.350066600037,0.9339622641509434
0.350066600037,0.9433962264150944
0.380992192052,0.9528301886792453
0.380992192052,0.9622641509433962
0.429450213935,0.9716981132075472
0.429450213935,0.9811320754716981
0.448502956524,0.9905660377358491
0.448502956524,1.0
