Congestion,CDF
0.0,0.009433962264150943
0.0,0.018867924528301886
0.0,0.02830188679245283
0.0,0.03773584905660377
0.0,0.04716981132075472
0.0,0.05660377358490566
0.0,0.0660377358490566
0.0,0.07547169811320754
0.0,0.08490566037735849
0.0,0.09433962264150944
0.0,0.10377358490566038
0.0,0.11320754716981132
0.0,0.12264150943396226
0.0,0.1320754716981132
0.0,0.14150943396226415
0.0,0.1509433962264151
0.0,0.16037735849056603
0.0,0.16981132075471697
0.0,0.1792452830188679
0.0,0.18867924528301888
0.0,0.19811320754716982
0.0,0.20754716981132076
0.0,0.2169811320754717
0.0,0.22641509433962265
0.0,0.2358490566037736
0.0,0.24528301886792453
0.0,0.25471698113207547
0.0,0.2641509433962264
0.0,0.27358490566037735
0.0,0.2830188679245283
1.56979184673e-07,0.29245283018867924
4.04416254483e-06,0.3018867924528302
4.5477310856e-06,0.3113207547169811
6.16519589165e-06,0.32075471698113206
6.95939380917e-06,0.330188679245283
7.60590712598e-06,0.33962264150943394
9.26033711169e-06,0.3490566037735849
1.41221564248e-05,0.3584905660377358
1.8077106243e-05,0.36792452830188677
1.91312636603e-05,0.37735849056603776
2.23133827732e-05,0.3867924528301887
2.74731178298e-05,0.39622641509433965
2.81026297721e-05,0.4056603773584906
2.96510399992e-05,0.41509433962264153
0.00019000449633,0.42452830188679247
0.000260446981266,0.4339622641509434
0.000260446981266,0.44339622641509435
0.000677891484113,0.4528301886792453
0.000677891484113,0.46226415094339623
0.000677891484113,0.4716981132075472
0.000694525283377,0.4811320754716981
0.000694525283377,0.49056603773584906
0.000694525283377,0.5
0.000855530054602,0.5094339622641509
0.0010722478812,0.5188679245283019
0.00128048534148,0.5283018867924528
0.00128048534148,0.5377358490566038
0.00135578296823,0.5471698113207547
0.00135578296823,0.5566037735849056
0.0018495587675,0.5660377358490566
0.0022817721378,0.5754716981132075
0.00235760819214,0.5849056603773585
0.00235760819214,0.5943396226415094
0.00292113275613,0.6037735849056604
0.00292113275613,0.6132075471698113
0.00368905965805,0.6226415094339622
0.0044869963632,0.6320754716981132
0.00606404014162,0.6415094339622641
0.00945594305744,0.6509433962264151
0.00959261675596,0.660377358490566
0.0123225220326,0.6698113207547169
0.0126824029127,0.6792452830188679
0.0204774400762,0.6886792452830188
0.0279262162823,0.6981132075471698
0.0324182005212,0.7075471698113207
0.0377257726886,0.7169811320754716
0.038291758095,0.7264150943396226
0.043818440588,0.7358490566037735
0.0442210623047,0.7452830188679245
0.0457917790388,0.7547169811320755
0.0488504060048,0.7641509433962265
0.0495036176429,0.7735849056603774
0.394415314073,0.7830188679245284
1.24371737732,0.7924528301886793
1.24371737732,0.8018867924528302
1.64319152205,0.8113207547169812
1.64319152205,0.8207547169811321
1.64319152205,0.8301886792452831
3.15782641989,0.839622641509434
3.2863830441,0.8490566037735849
3.2863830441,0.8584905660377359
3.31657967286,0.8679245283018868
3.31657967286,0.8773584905660378
3.31657967286,0.8867924528301887
6.12315857749,0.8962264150943396
6.12315857749,0.9056603773584906
6.78393380454,0.9150943396226415
6.78393380454,0.9245283018867925
7.62768616072,0.9339622641509434
7.62768616072,0.9433962264150944
9.55650126187,0.9528301886792453
9.6374744599,0.9622641509433962
17.9566031599,0.9716981132075472
18.1525666513,0.9811320754716981
26.7123245356,0.9905660377358491
57.5971498321,1.0
