Congestion,CDF
0.0,0.009433962264150943
0.0,0.018867924528301886
0.0,0.02830188679245283
0.0,0.03773584905660377
0.0,0.04716981132075472
0.0,0.05660377358490566
0.0,0.0660377358490566
0.0,0.07547169811320754
0.0,0.08490566037735849
0.0,0.09433962264150944
0.0,0.10377358490566038
0.0,0.11320754716981132
0.0,0.12264150943396226
0.0,0.1320754716981132
0.0,0.14150943396226415
0.0,0.1509433962264151
0.0,0.16037735849056603
0.0,0.16981132075471697
0.0,0.1792452830188679
0.0,0.18867924528301888
0.0,0.19811320754716982
0.0,0.20754716981132076
0.0,0.2169811320754717
0.0,0.22641509433962265
0.0,0.2358490566037736
0.0,0.24528301886792453
0.0,0.25471698113207547
0.0,0.2641509433962264
0.0,0.27358490566037735
0.0,0.2830188679245283
1.58708395209e-07,0.29245283018867924
4.08871118035e-06,0.3018867924528302
4.59782680068e-06,0.3113207547169811
6.2331088555e-06,0.32075471698113206
7.03605529219e-06,0.330188679245283
7.60590712598e-06,0.33962264150943394
9.3623447284e-06,0.3490566037735849
1.42777196081e-05,0.3584905660377358
1.82762353355e-05,0.36792452830188677
1.93420048662e-05,0.37735849056603776
2.25591767405e-05,0.3867924528301887
2.77757490666e-05,0.39622641509433965
2.84121954231e-05,0.4056603773584906
2.99776622255e-05,0.41509433962264153
5.66255322223e-05,0.42452830188679247
8.11891647021e-05,0.4339622641509434
0.000192097498518,0.44339622641509435
0.000263315945486,0.4528301886792453
0.000263315945486,0.46226415094339623
0.000296181432152,0.4716981132075472
0.00068535882508,0.4811320754716981
0.00068535882508,0.49056603773584906
0.00068535882508,0.5
0.00070217585463,0.5094339622641509
0.00070217585463,0.5188679245283019
0.00070217585463,0.5283018867924528
0.00108405927096,0.5377358490566038
0.00129459057937,0.5471698113207547
0.00129459057937,0.5566037735849056
0.00137071765016,0.5660377358490566
0.00137071765016,0.5754716981132075
0.00186993265665,0.5849056603773585
0.0022817721378,0.5943396226415094
0.00238357852021,0.6037735849056604
0.00238357852021,0.6132075471698113
0.00295331061175,0.6226415094339622
0.00295331061175,0.6320754716981132
0.00372969664341,0.6415094339622641
0.00453642305249,0.6509433962264151
0.00613083882022,0.660377358490566
0.00807531838848,0.6698113207547169
0.00956010537933,0.6792452830188679
0.00969828461248,0.6886792452830188
0.0105566552713,0.6981132075471698
0.0185684409282,0.7075471698113207
0.0204304417664,0.7169811320754716
0.0207030101428,0.7264150943396226
0.0278237524283,0.7358490566037735
0.0289800572374,0.7452830188679245
0.0313986246152,0.7547169811320755
0.0356677934017,0.7641509433962265
0.0365953576332,0.7735849056603774
0.218538043706,0.7830188679245284
0.815064109803,0.7924528301886793
0.815064109803,0.8018867924528302
1.04339071606,0.8113207547169812
1.04339071606,0.8207547169811321
1.04339071606,0.8301886792452831
1.39898580481,0.839622641509434
2.08678143212,0.8490566037735849
2.08678143212,0.8584905660377359
2.17350429281,0.8679245283018868
2.17350429281,0.8773584905660378
2.17350429281,0.8867924528301887
2.78523086487,0.8962264150943396
2.78523086487,0.9056603773584906
3.68655675127,0.9150943396226415
3.68655675127,0.9245283018867925
3.70482431333,0.9339622641509434
3.7531975735,0.9433962264150944
5.12995241606,0.9528301886792453
5.12995241606,0.9622641509433962
12.830480883,0.9716981132075472
12.9761732244,0.9811320754716981
13.1087501524,0.9905660377358491
38.9083001201,1.0
