Congestion,CDF
0.0,0.009433962264150943
0.0,0.018867924528301886
0.0,0.02830188679245283
0.0,0.03773584905660377
0.0,0.04716981132075472
0.0,0.05660377358490566
0.0,0.0660377358490566
0.0,0.07547169811320754
0.0,0.08490566037735849
0.0,0.09433962264150944
0.0,0.10377358490566038
0.0,0.11320754716981132
0.0,0.12264150943396226
0.0,0.1320754716981132
0.0,0.14150943396226415
0.0,0.1509433962264151
0.0,0.16037735849056603
0.0,0.16981132075471697
0.0,0.1792452830188679
0.0,0.18867924528301888
0.0,0.19811320754716982
0.0,0.20754716981132076
0.0,0.2169811320754717
0.0,0.22641509433962265
0.0,0.2358490566037736
0.0,0.24528301886792453
0.0,0.25471698113207547
0.0,0.2641509433962264
0.0,0.27358490566037735
0.0,0.2830188679245283
1.56915310362e-07,0.29245283018867924
4.04251698846e-06,0.3018867924528302
4.54588062886e-06,0.3113207547169811
6.16268729383e-06,0.32075471698113206
6.95656205485e-06,0.330188679245283
9.25656911114e-06,0.33962264150943394
1.41164101661e-05,0.3490566037735849
1.80697507283e-05,0.3584905660377358
1.91234792124e-05,0.36792452830188677
2.23043035315e-05,0.37735849056603776
2.7461939109e-05,0.3867924528301887
2.8091194905e-05,0.39622641509433965
2.96389750891e-05,0.4056603773584906
0.000189927184129,0.41509433962264153
0.000260341006251,0.42452830188679247
0.000260341006251,0.4339622641509434
0.00067761565231,0.44339622641509435
0.00067761565231,0.4528301886792453
0.00067761565231,0.46226415094339623
0.000694242683335,0.4716981132075472
0.000694242683335,0.4811320754716981
0.000694242683335,0.49056603773584906
0.00107181158709,0.5
0.00127996431623,0.5094339622641509
0.00127996431623,0.5188679245283019
0.00135523130462,0.5283018867924528
0.00135523130462,0.5377358490566038
0.00184880618815,0.5471698113207547
0.00235664888917,0.5566037735849056
0.00235664888917,0.5660377358490566
0.00291994415687,0.5754716981132075
0.00291994415687,0.5849056603773585
0.00368755859188,0.5943396226415094
0.00448517061921,0.6037735849056604
0.00606157270373,0.6132075471698113
0.00945209546548,0.6226415094339622
0.00958871355192,0.6320754716981132
0.0156913410654,0.6415094339622641
0.0201717522564,0.6509433962264151
0.0204691078736,0.660377358490566
0.0257458143698,0.6698113207547169
0.0259035334596,0.6792452830188679
0.0298017931882,0.6886792452830188
0.0320877892204,0.6981132075471698
0.0327952578411,0.7075471698113207
0.0349651889836,0.7169811320754716
0.0351387225864,0.7264150943396226
0.035725568378,0.7358490566037735
0.0372120047306,0.7452830188679245
0.0391705352816,0.7547169811320755
0.0394107923312,0.7641509433962265
0.403820093692,0.7735849056603774
0.988276572743,0.7830188679245284
0.988276572743,0.7924528301886793
1.31119458689,0.8018867924528302
1.31119458689,0.8113207547169812
1.31119458689,0.8207547169811321
2.62238917377,0.8301886792452831
2.62238917377,0.839622641509434
2.63540419398,0.8490566037735849
2.63540419398,0.8584905660377359
2.63540419398,0.8679245283018868
4.42746299315,0.8773584905660378
5.32437424658,0.8867924528301887
5.32437424658,0.8962264150943396
5.66113902003,0.9056603773584906
5.66113902003,0.9150943396226415
6.05152567692,0.9245283018867925
6.1580230451,0.9339622641509434
6.1580230451,0.9433962264150944
11.4539472532,0.9528301886792453
11.4894340484,0.9622641509433962
14.3800572684,0.9716981132075472
14.4521343832,0.9811320754716981
24.9361998217,0.9905660377358491
47.7605595585,1.0
