Congestion,CDF
0.0,0.007352941176470588
0.0,0.014705882352941176
0.0,0.022058823529411766
0.0,0.029411764705882353
0.0,0.03676470588235294
0.0,0.04411764705882353
0.0,0.051470588235294115
0.0,0.058823529411764705
0.0,0.0661764705882353
0.0,0.07352941176470588
0.0,0.08088235294117647
0.0,0.08823529411764706
0.0,0.09558823529411764
0.0,0.10294117647058823
0.000856875361847,0.11029411764705882
0.000856875361847,0.11764705882352941
0.000888895078865,0.125
0.000888895078865,0.1323529411764706
0.000888895078865,0.13970588235294118
0.000888895078865,0.14705882352941177
0.000997688832255,0.15441176470588236
0.000997688832255,0.16176470588235295
0.00107462001621,0.16911764705882354
0.00107462001621,0.17647058823529413
0.00107462001621,0.18382352941176472
0.00107462001621,0.19117647058823528
0.00118671197425,0.19852941176470587
0.00118671197425,0.20588235294117646
0.00169752516045,0.21323529411764705
0.00169752516045,0.22058823529411764
0.00182158050404,0.22794117647058823
0.00182158050404,0.23529411764705882
0.00183734515293,0.2426470588235294
0.00183734515293,0.25
0.00189500519327,0.25735294117647056
0.00189500519327,0.2647058823529412
0.0027472603674,0.27205882352941174
0.0027472603674,0.27941176470588236
0.00337030777885,0.2867647058823529
0.00337030777885,0.29411764705882354
0.00339016495664,0.3014705882352941
0.00339016495664,0.3088235294117647
0.00458361650276,0.3161764705882353
0.00458361650276,0.3235294117647059
0.00458546691627,0.33088235294117646
0.00458546691627,0.3382352941176471
0.00459176803129,0.34558823529411764
0.00459176803129,0.35294117647058826
0.00485878484447,0.3602941176470588
0.00485878484447,0.36764705882352944
0.00533893661168,0.375
0.00533893661168,0.38235294117647056
0.00544785118495,0.3897058823529412
0.00544785118495,0.39705882352941174
0.00589699265097,0.40441176470588236
0.00589699265097,0.4117647058823529
0.00635788966656,0.41911764705882354
0.00635788966656,0.4264705882352941
0.00638133803978,0.4338235294117647
0.00638133803978,0.4411764705882353
0.00698825496998,0.4485294117647059
0.00698825496998,0.45588235294117646
0.0075281921014,0.4632352941176471
0.0075281921014,0.47058823529411764
0.00989751216381,0.47794117647058826
0.00989751216381,0.4852941176470588
0.0107944731203,0.49264705882352944
0.0107944731203,0.5
0.0109950998931,0.5073529411764706
0.0109950998931,0.5147058823529411
0.0395570658082,0.5220588235294118
0.0395570658082,0.5294117647058824
0.0498844416127,0.5367647058823529
0.0498844416127,0.5441176470588235
0.0498844416127,0.5514705882352942
0.0498844416127,0.5588235294117647
0.0791141316165,0.5661764705882353
0.0791141316165,0.5735294117647058
0.0888895078865,0.5808823529411765
0.0888895078865,0.5882352941176471
0.0888895078865,0.5955882352941176
0.0888895078865,0.6029411764705882
0.0888895078865,0.6102941176470589
0.0888895078865,0.6176470588235294
0.107462001621,0.625
0.107462001621,0.6323529411764706
0.145702963035,0.6397058823529411
0.145702963035,0.6470588235294118
0.145702963035,0.6544117647058824
0.145702963035,0.6617647058823529
0.233618956905,0.6691176470588235
0.233618956905,0.6764705882352942
0.253691175688,0.6838235294117647
0.253691175688,0.6911764705882353
0.318523593032,0.6985294117647058
0.318523593032,0.7058823529411765
0.339016495664,0.7132352941176471
0.339016495664,0.7205882352941176
0.353697952741,0.7279411764705882
0.353697952741,0.7352941176470589
0.458546691627,0.7426470588235294
0.458546691627,0.75
0.459176803129,0.7573529411764706
0.459176803129,0.7647058823529411
0.476640758874,0.7720588235294118
0.476640758874,0.7794117647058824
0.589699265097,0.7867647058823529
0.589699265097,0.7941176470588235
0.6280892568,0.8014705882352942
0.6280892568,0.8088235294117647
0.635788966656,0.8161764705882353
0.635788966656,0.8235294117647058
0.688042572516,0.8308823529411765
0.688042572516,0.8382352941176471
0.688042572516,0.8455882352941176
0.688042572516,0.8529411764705882
0.716277892909,0.8602941176470589
0.716277892909,0.8676470588235294
1.07944731203,0.875
1.07944731203,0.8823529411764706
1.09950998931,0.8897058823529411
1.09950998931,0.8970588235294118
1.21347812277,0.9044117647058824
1.21347812277,0.9117647058823529
1.27392277063,0.9191176470588235
1.27392277063,0.9264705882352942
1.34251847524,0.9338235294117647
1.34251847524,0.9411764705882353
2.72938654475,0.9485294117647058
2.72938654475,0.9558823529411765
3.16870851772,0.9632352941176471
3.16870851772,0.9705882352941176
4.61667285972,0.9779411764705882
4.61667285972,0.9852941176470589
4.97410267916,0.9926470588235294
4.97410267916,1.0
