Congestion,CDF
0.00365741119089,0.007352941176470588
0.00365741119089,0.014705882352941176
0.00365741119089,0.022058823529411766
0.00365741119089,0.029411764705882353
0.00369965019027,0.03676470588235294
0.00369965019027,0.04411764705882353
0.00375106578887,0.051470588235294115
0.00375106578887,0.058823529411764705
0.00375106637248,0.0661764705882353
0.00375106637248,0.07352941176470588
0.00375106637248,0.08088235294117647
0.00375106637248,0.08823529411764706
0.00387019392474,0.09558823529411764
0.00387019392474,0.10294117647058823
0.00395289636559,0.11029411764705882
0.00395289636559,0.11764705882352941
0.00395864812078,0.125
0.00395864812078,0.1323529411764706
0.00411716693746,0.13970588235294118
0.00411716693746,0.14705882352941177
0.00437922562475,0.15441176470588236
0.00437922562475,0.16176470588235295
0.0044848590565,0.16911764705882354
0.0044848590565,0.17647058823529413
0.00450723547362,0.18382352941176472
0.00450723547362,0.19117647058823528
0.00450723547362,0.19852941176470587
0.00450723547362,0.20588235294117646
0.00455997620786,0.21323529411764705
0.00455997620786,0.22058823529411764
0.00470142291526,0.22794117647058823
0.00470142291526,0.23529411764705882
0.00471007413703,0.2426470588235294
0.00471007413703,0.25
0.00471739825964,0.25735294117647056
0.00471739825964,0.2647058823529412
0.00473663755651,0.27205882352941174
0.00473663755651,0.27941176470588236
0.00490097600888,0.2867647058823529
0.00490097600888,0.29411764705882354
0.00490097600888,0.3014705882352941
0.00490097600888,0.3088235294117647
0.00510785521699,0.3161764705882353
0.00510785521699,0.3235294117647059
0.00517201825675,0.33088235294117646
0.00517201825675,0.3382352941176471
0.00522219891282,0.34558823529411764
0.00522219891282,0.35294117647058826
0.00537090013738,0.3602941176470588
0.00537090013738,0.36764705882352944
0.00572358553089,0.375
0.00572358553089,0.38235294117647056
0.00576141825414,0.3897058823529412
0.00576141825414,0.39705882352941174
0.00576141825414,0.40441176470588236
0.00576141825414,0.4117647058823529
0.0247761370644,0.41911764705882354
0.0247761370644,0.4264705882352941
0.0563637050364,0.4338235294117647
0.0563637050364,0.4411764705882353
0.117764603458,0.4485294117647059
0.117764603458,0.45588235294117646
0.133991860419,0.4632352941176471
0.133991860419,0.47058823529411764
0.164203369169,0.47794117647058826
0.164203369169,0.4852941176470588
0.177586625344,0.49264705882352944
0.177586625344,0.5
0.213394887172,0.5073529411764706
0.213394887172,0.5147058823529411
0.229799540107,0.5220588235294118
0.229799540107,0.5294117647058824
0.262082169432,0.5367647058823529
0.262082169432,0.5441176470588235
0.267201336497,0.5514705882352942
0.267201336497,0.5588235294117647
0.27156663804,0.5661764705882353
0.27156663804,0.5735294117647058
0.280474381006,0.5808823529411765
0.280474381006,0.5882352941176471
0.318196925424,0.5955882352941176
0.318196925424,0.6029411764705882
0.350330500184,0.6102941176470589
0.350330500184,0.6176470588235294
0.358772205006,0.625
0.358772205006,0.6323529411764706
0.363158173473,0.6397058823529411
0.363158173473,0.6470588235294118
0.410024534239,0.6544117647058824
0.410024534239,0.6617647058823529
0.430678682668,0.6691176470588235
0.430678682668,0.6764705882352942
0.449277303278,0.6838235294117647
0.449277303278,0.6911764705882353
0.499237119518,0.6985294117647058
0.499237119518,0.7058823529411765
0.505985872724,0.7132352941176471
0.505985872724,0.7205882352941176
0.552255821675,0.7279411764705882
0.552255821675,0.7352941176470589
0.565547122182,0.7426470588235294
0.565547122182,0.75
0.574056322473,0.7573529411764706
0.574056322473,0.7647058823529411
0.576141825414,0.7720588235294118
0.576141825414,0.7794117647058824
0.578757898577,0.7867647058823529
0.578757898577,0.7941176470588235
0.613625289525,0.8014705882352942
0.613625289525,0.8088235294117647
0.623608596602,0.8161764705882353
0.623608596602,0.8235294117647058
0.644759379181,0.8308823529411765
0.644759379181,0.8382352941176471
0.658742114393,0.8455882352941176
0.658742114393,0.8529411764705882
0.758742252183,0.8602941176470589
0.758742252183,0.8676470588235294
0.790958227751,0.875
0.790958227751,0.8823529411764706
0.796522036108,0.8897058823529411
0.796522036108,0.8970588235294118
0.837912876253,0.9044117647058824
0.837912876253,0.9117647058823529
0.990212189627,0.9191176470588235
0.990212189627,0.9264705882352942
1.1891863423,0.9338235294117647
1.1891863423,0.9411764705882353
1.35044390688,0.9485294117647058
1.35044390688,0.9558823529411765
1.59395008769,0.9632352941176471
1.59395008769,0.9705882352941176
2.26300119605,0.9779411764705882
2.26300119605,0.9852941176470589
2.54633861715,0.9926470588235294
2.54633861715,1.0
