Congestion,CDF
0.00485505118399,0.007352941176470588
0.00485505118399,0.014705882352941176
0.00485505118399,0.022058823529411766
0.00485505118399,0.029411764705882353
0.00488740826168,0.03676470588235294
0.00488740826168,0.04411764705882353
0.00508915605049,0.051470588235294115
0.00508915605049,0.058823529411764705
0.00511724983142,0.0661764705882353
0.00511724983142,0.07352941176470588
0.00512032377739,0.08088235294117647
0.00512032377739,0.08823529411764706
0.00525312838084,0.09558823529411764
0.00525312838084,0.10294117647058823
0.00578769667371,0.11029411764705882
0.00578769667371,0.11764705882352941
0.00582169994797,0.125
0.00582169994797,0.1323529411764706
0.00660571363808,0.13970588235294118
0.00660571363808,0.14705882352941177
0.00682069539698,0.15441176470588236
0.00682069539698,0.16176470588235295
0.00684941807408,0.16911764705882354
0.00684941807408,0.17647058823529413
0.00686628442645,0.18382352941176472
0.00686628442645,0.19117647058823528
0.00691166488981,0.19852941176470587
0.00691166488981,0.20588235294117646
0.00723740251047,0.21323529411764705
0.00723740251047,0.22058823529411764
0.00731832516299,0.22794117647058823
0.00731832516299,0.23529411764705882
0.00767631596376,0.2426470588235294
0.00767631596376,0.25
0.00770647362619,0.25735294117647056
0.00770647362619,0.2647058823529412
0.00799292450894,0.27205882352941174
0.00799292450894,0.27941176470588236
0.00848273116494,0.2867647058823529
0.00848273116494,0.29411764705882354
0.00868957757753,0.3014705882352941
0.00868957757753,0.3088235294117647
0.00884637799631,0.3161764705882353
0.00884637799631,0.3235294117647059
0.00890177123553,0.33088235294117646
0.00890177123553,0.3382352941176471
0.00915019961968,0.34558823529411764
0.00915019961968,0.35294117647058826
0.00933566414487,0.3602941176470588
0.00933566414487,0.36764705882352944
0.0110805288526,0.375
0.0110805288526,0.38235294117647056
0.0113158836558,0.3897058823529412
0.0113158836558,0.39705882352941174
0.0113158836558,0.40441176470588236
0.0113158836558,0.4117647058823529
0.0247761370644,0.41911764705882354
0.0247761370644,0.4264705882352941
0.0582528657859,0.4338235294117647
0.0582528657859,0.4411764705882353
0.129747747891,0.4485294117647059
0.129747747891,0.45588235294117646
0.18734679964,0.4632352941176471
0.18734679964,0.47058823529411764
0.191555182727,0.47794117647058826
0.191555182727,0.4852941176470588
0.231234213397,0.49264705882352944
0.231234213397,0.5
0.278541347353,0.5073529411764706
0.278541347353,0.5147058823529411
0.340420737326,0.5220588235294118
0.340420737326,0.5294117647058824
0.367125498187,0.5367647058823529
0.367125498187,0.5441176470588235
0.377615130192,0.5514705882352942
0.377615130192,0.5588235294117647
0.389943053023,0.5661764705882353
0.389943053023,0.5735294117647058
0.479107824755,0.5808823529411765
0.479107824755,0.5882352941176471
0.486948846078,0.5955882352941176
0.486948846078,0.6029411764705882
0.50530603488,0.6102941176470589
0.50530603488,0.6176470588235294
0.543783199288,0.625
0.543783199288,0.6323529411764706
0.571325908735,0.6397058823529411
0.571325908735,0.6470588235294118
0.605060933801,0.6544117647058824
0.605060933801,0.6617647058823529
0.663690696278,0.6691176470588235
0.663690696278,0.6764705882352942
0.678032286371,0.6838235294117647
0.678032286371,0.6911764705882353
0.697712260965,0.6985294117647058
0.697712260965,0.7058823529411765
0.782775576082,0.7132352941176471
0.782775576082,0.7205882352941176
0.822736332919,0.7279411764705882
0.822736332919,0.7352941176470589
0.82689695948,0.7426470588235294
0.82689695948,0.75
0.868562254223,0.7573529411764706
0.868562254223,0.7647058823529411
0.925367300597,0.7720588235294118
0.925367300597,0.7794117647058824
0.988412656624,0.7867647058823529
0.988412656624,0.7941176470588235
0.99756189342,0.8014705882352942
0.99756189342,0.8088235294117647
1.00608386126,0.8161764705882353
1.00608386126,0.8235294117647058
1.09935229361,0.8308823529411765
1.09935229361,0.8382352941176471
1.13158836558,0.8455882352941176
1.13158836558,0.8529411764705882
1.26323787187,0.8602941176470589
1.26323787187,0.8676470588235294
1.42310017779,0.875
1.42310017779,0.8823529411764706
1.42446641743,0.8897058823529411
1.42446641743,0.8970588235294118
1.54247475934,0.9044117647058824
1.54247475934,0.9117647058823529
1.70397516129,0.9191176470588235
1.70397516129,0.9264705882352942
2.03039603974,0.9338235294117647
2.03039603974,0.9411764705882353
2.68551590514,0.9485294117647058
2.68551590514,0.9558823529411765
3.23864833945,0.9632352941176471
3.23864833945,0.9705882352941176
4.47396780453,0.9779411764705882
4.47396780453,0.9852941176470589
5.01921708454,0.9926470588235294
5.01921708454,1.0
