Congestion,CDF
0.0,0.009433962264150943
0.0,0.018867924528301886
0.0,0.02830188679245283
0.0,0.03773584905660377
0.0,0.04716981132075472
0.0,0.05660377358490566
0.0,0.0660377358490566
0.0,0.07547169811320754
0.0,0.08490566037735849
0.0,0.09433962264150944
0.0,0.10377358490566038
0.0,0.11320754716981132
0.0,0.12264150943396226
0.0,0.1320754716981132
0.0,0.14150943396226415
0.0,0.1509433962264151
0.0,0.16037735849056603
0.0,0.16981132075471697
0.0,0.1792452830188679
0.0,0.18867924528301888
0.0,0.19811320754716982
0.0,0.20754716981132076
0.0,0.2169811320754717
0.0,0.22641509433962265
0.0,0.2358490566037736
0.0,0.24528301886792453
0.0,0.25471698113207547
0.0,0.2641509433962264
0.0,0.27358490566037735
0.0,0.2830188679245283
1.17244898519e-07,0.29245283018867924
3.02051146558e-06,0.3018867924528302
3.39661765178e-06,0.3113207547169811
4.6046727034e-06,0.32075471698113206
5.19784468628e-06,0.330188679245283
6.91637739852e-06,0.33962264150943394
1.05475818361e-05,0.3490566037735849
1.35014619383e-05,0.3584905660377358
1.42887929445e-05,0.36792452830188677
1.66654598462e-05,0.37735849056603776
2.05191721352e-05,0.3867924528301887
2.09893431579e-05,0.39622641509433965
2.21458226002e-05,0.4056603773584906
0.000141910903262,0.41509433962264153
0.000194523114333,0.42452830188679247
0.000194523114333,0.4339622641509434
0.000506304822688,0.44339622641509435
0.000506304822688,0.4528301886792453
0.000506304822688,0.46226415094339623
0.000518728304889,0.4716981132075472
0.000518728304889,0.4811320754716981
0.000518728304889,0.49056603773584906
0.000800842444688,0.5
0.000956371217175,0.5094339622641509
0.000956371217175,0.5188679245283019
0.00101260964538,0.5283018867924528
0.00101260964538,0.5377358490566038
0.00138140181102,0.5471698113207547
0.00176085468791,0.5566037735849056
0.00176085468791,0.5660377358490566
0.0021817409376,0.5754716981132075
0.0021817409376,0.5849056603773585
0.0023956125087,0.5943396226415094
0.00239659229843,0.6037735849056604
0.00241160854662,0.6132075471698113
0.00241553427791,0.6226415094339622
0.00242458663251,0.6320754716981132
0.00275529157665,0.6415094339622641
0.00293940618273,0.6509433962264151
0.00327244759202,0.660377358490566
0.00328728226758,0.6698113207547169
0.00335125599202,0.6792452830188679
0.00345543041897,0.6886792452830188
0.00373193722762,0.6981132075471698
0.00399847781493,0.7075471698113207
0.00405489967437,0.7169811320754716
0.00405619993993,0.7264150943396226
0.00452912131311,0.7358490566037735
0.0070624719225,0.7452830188679245
0.00716455102264,0.7547169811320755
0.0152942276306,0.7641509433962265
0.0408400153823,0.7735849056603774
0.0920375885255,0.7830188679245284
0.0920375885255,0.7924528301886793
0.123273085034,0.8018867924528302
0.123273085034,0.8113207547169812
0.123273085034,0.8207547169811321
0.245433569401,0.8301886792452831
0.245433569401,0.839622641509434
0.245433569401,0.8490566037735849
0.246546170068,0.8584905660377359
0.246546170068,0.8679245283018868
0.455798363796,0.8773584905660378
0.455798363796,0.8867924528301887
0.515175597858,0.8962264150943396
0.515175597858,0.9056603773584906
0.529335405194,0.9150943396226415
0.604335340408,0.9245283018867925
0.604335340408,0.9339622641509434
0.718683752611,0.9433962264150944
0.995031630943,0.9528301886792453
1.00133035611,0.9622641509433962
1.44553321421,0.9716981132075472
1.46284985171,0.9811320754716981
2.52931037671,0.9905660377358491
4.93063342212,1.0
