Congestion,CDF
0.0,0.009433962264150943
0.0,0.018867924528301886
0.0,0.02830188679245283
0.0,0.03773584905660377
0.0,0.04716981132075472
0.0,0.05660377358490566
0.0,0.0660377358490566
0.0,0.07547169811320754
0.0,0.08490566037735849
0.0,0.09433962264150944
0.0,0.10377358490566038
0.0,0.11320754716981132
0.0,0.12264150943396226
0.0,0.1320754716981132
0.0,0.14150943396226415
0.0,0.1509433962264151
0.0,0.16037735849056603
0.0,0.16981132075471697
0.0,0.1792452830188679
0.0,0.18867924528301888
0.0,0.19811320754716982
0.0,0.20754716981132076
0.0,0.2169811320754717
0.0,0.22641509433962265
0.0,0.2358490566037736
0.0,0.24528301886792453
0.0,0.25471698113207547
0.0,0.2641509433962264
0.0,0.27358490566037735
0.0,0.2830188679245283
9.27068150601e-08,0.29245283018867924
2.38835123202e-06,0.3018867924528302
2.68574247964e-06,0.3113207547169811
3.64096473381e-06,0.32075471698113206
4.10999226516e-06,0.330188679245283
5.46885475163e-06,0.33962264150943394
8.34008755143e-06,0.3490566037735849
1.06757526406e-05,0.3584905660377358
1.12983038211e-05,0.36792452830188677
1.31775601614e-05,0.37735849056603776
1.62247323368e-05,0.3867924528301887
1.65965016726e-05,0.39622641509433965
1.75109425321e-05,0.4056603773584906
0.000112210492993,0.41509433962264153
0.00015381153989,0.42452830188679247
0.00015381153989,0.4339622641509434
0.000400340724022,0.44339622641509435
0.000400340724022,0.4528301886792453
0.000400340724022,0.46226415094339623
0.000410164106373,0.4716981132075472
0.000410164106373,0.4811320754716981
0.000410164106373,0.49056603773584906
0.000633234821727,0.5
0.000756213111866,0.5094339622641509
0.000756213111866,0.5188679245283019
0.000800681448044,0.5283018867924528
0.000800681448044,0.5377358490566038
0.00109228942014,0.5471698113207547
0.00139232693244,0.5566037735849056
0.00139232693244,0.5660377358490566
0.00172512626278,0.5754716981132075
0.00172512626278,0.5849056603773585
0.00217863898438,0.5943396226415094
0.0023956125087,0.6037735849056604
0.00241553427791,0.6132075471698113
0.00247087411851,0.6226415094339622
0.00249430906732,0.6320754716981132
0.00251573883283,0.6415094339622641
0.00264987452244,0.6509433962264151
0.00353456533574,0.660377358490566
0.00358122542869,0.6698113207547169
0.0044363236966,0.6792452830188679
0.00445643446106,0.6886792452830188
0.00546585460938,0.6981132075471698
0.00558437327898,0.7075471698113207
0.0056650883325,0.7169811320754716
0.00625005510098,0.7264150943396226
0.00725150521254,0.7358490566037735
0.0077978703518,0.7452830188679245
0.00792225837212,0.7547169811320755
0.0120933119509,0.7641509433962265
0.0594069359455,0.7735849056603774
0.124771603967,0.7830188679245284
0.124771603967,0.7924528301886793
0.16711629229,0.8018867924528302
0.16711629229,0.8113207547169812
0.16711629229,0.8207547169811321
0.332724277245,0.8301886792452831
0.332724277245,0.839622641509434
0.332724277245,0.8490566037735849
0.33423258458,0.8584905660377359
0.33423258458,0.8679245283018868
0.530718593258,0.8773584905660378
0.530718593258,0.8867924528301887
0.595621317992,0.8962264150943396
0.647747423455,0.9056603773584906
0.647747423455,0.9150943396226415
0.718683752611,0.9245283018867925
0.953240022045,0.9339622641509434
0.953240022045,0.9433962264150944
1.08666526992,0.9528301886792453
1.09675983064,0.9622641509433962
2.67283953645,0.9716981132075472
2.71015594255,0.9811320754716981
3.77440631015,0.9905660377358491
8.82943373882,1.0
