Congestion,CDF
0.0,0.009433962264150943
0.0,0.018867924528301886
0.0,0.02830188679245283
0.0,0.03773584905660377
0.0,0.04716981132075472
0.0,0.05660377358490566
0.0,0.0660377358490566
0.0,0.07547169811320754
0.0,0.08490566037735849
0.0,0.09433962264150944
0.0,0.10377358490566038
0.0,0.11320754716981132
0.0,0.12264150943396226
0.0,0.1320754716981132
0.0,0.14150943396226415
0.0,0.1509433962264151
0.0,0.16037735849056603
0.0,0.16981132075471697
0.0,0.1792452830188679
0.0,0.18867924528301888
0.0,0.19811320754716982
0.0,0.20754716981132076
0.0,0.2169811320754717
0.0,0.22641509433962265
0.0,0.2358490566037736
0.0,0.24528301886792453
0.0,0.25471698113207547
0.0,0.2641509433962264
0.0,0.27358490566037735
0.0,0.2830188679245283
1.73421040038e-07,0.29245283018867924
4.4677444087e-06,0.3018867924528302
5.0240562551e-06,0.3113207547169811
6.81093283668e-06,0.32075471698113206
7.68831431334e-06,0.330188679245283
1.02302563002e-05,0.33962264150943394
1.56012980948e-05,0.3490566037735849
1.9970485718e-05,0.3584905660377358
2.11350546132e-05,0.36792452830188677
2.4650465954e-05,0.37735849056603776
3.0350626913e-05,0.3867924528301887
3.1046073357e-05,0.39622641509433965
3.27566626465e-05,0.4056603773584906
0.000209905392451,0.41509433962264153
0.000287725958444,0.42452830188679247
0.000287725958444,0.4339622641509434
0.000748893214424,0.44339622641509435
0.000748893214424,0.4528301886792453
0.000748893214424,0.46226415094339623
0.000767269222517,0.4716981132075472
0.000767269222517,0.4811320754716981
0.000767269222517,0.49056603773584906
0.00118455413769,0.5
0.00141460219796,0.5094339622641509
0.00141460219796,0.5188679245283019
0.00149778642885,0.5283018867924528
0.00149778642885,0.5377358490566038
0.00191801118839,0.5471698113207547
0.00191899097812,0.5566037735849056
0.0019340072263,0.5660377358490566
0.0019379329576,0.5754716981132075
0.0019469853122,0.5849056603773585
0.00204327985101,0.5943396226415094
0.00260454190493,0.6037735849056604
0.00260454190493,0.6132075471698113
0.00261179751893,0.6226415094339622
0.00322708951324,0.6320754716981132
0.00322708951324,0.6415094339622641
0.00325347044261,0.6509433962264151
0.00327188433455,0.660377358490566
0.00363915252259,0.6698113207547169
0.00407544837229,0.6792452830188679
0.00435227232845,0.6886792452830188
0.00495696023375,0.6981132075471698
0.00532111176162,0.7075471698113207
0.00556315886355,0.7169811320754716
0.00568312273852,0.7264150943396226
0.00669918212646,0.7358490566037735
0.0104463498328,0.7452830188679245
0.0105973386087,0.7547169811320755
0.0226222283083,0.7641509433962265
0.0433518981734,0.7735849056603774
0.0915038561984,0.7830188679245284
0.0915038561984,0.7924528301886793
0.122695662546,0.8018867924528302
0.122695662546,0.8113207547169812
0.122695662546,0.8207547169811321
0.244010283196,0.8301886792452831
0.244010283196,0.839622641509434
0.244010283196,0.8490566037735849
0.245391325092,0.8584905660377359
0.245391325092,0.8679245283018868
0.401101416067,0.8773584905660378
0.401101416067,0.8867924528301887
0.456693869723,0.8962264150943396
0.477352823987,0.9056603773584906
0.477352823987,0.9150943396226415
0.575403356517,0.9245283018867925
0.673156240058,0.9339622641509434
0.673156240058,0.9433962264150944
0.832874386143,0.9528301886792453
0.839173111311,0.9622641509433962
1.91364846321,0.9716981132075472
1.9496376257,0.9811320754716981
2.62575784217,0.9905660377358491
6.35716127081,1.0
