Congestion,CDF
0.0,0.009433962264150943
0.0,0.018867924528301886
0.0,0.02830188679245283
0.0,0.03773584905660377
0.0,0.04716981132075472
0.0,0.05660377358490566
0.0,0.0660377358490566
0.0,0.07547169811320754
0.0,0.08490566037735849
0.0,0.09433962264150944
0.0,0.10377358490566038
0.0,0.11320754716981132
0.0,0.12264150943396226
0.0,0.1320754716981132
0.0,0.14150943396226415
0.0,0.1509433962264151
0.0,0.16037735849056603
0.0,0.16981132075471697
0.0,0.1792452830188679
0.0,0.18867924528301888
0.0,0.19811320754716982
0.0,0.20754716981132076
0.0,0.2169811320754717
0.0,0.22641509433962265
0.0,0.2358490566037736
0.0,0.24528301886792453
0.0,0.25471698113207547
0.0,0.2641509433962264
0.0,0.27358490566037735
0.0,0.2830188679245283
1.68466256512e-07,0.29245283018867924
4.34009723056e-06,0.3018867924528302
4.88051478425e-06,0.3113207547169811
6.61633881394e-06,0.32075471698113206
7.46865277119e-06,0.330188679245283
9.93796935879e-06,0.33962264150943394
1.51555560167e-05,0.3490566037735849
1.93999123112e-05,0.3584905660377358
2.05312085033e-05,0.36792452830188677
2.39461816148e-05,0.37735849056603776
2.94834842285e-05,0.3867924528301887
3.01590611884e-05,0.39622641509433965
3.18207775176e-05,0.4056603773584906
0.000203908220596,0.41509433962264153
0.000279505388216,0.42452830188679247
0.000279505388216,0.4339622641509434
0.000727496711669,0.44339622641509435
0.000727496711669,0.4528301886792453
0.000727496711669,0.46226415094339623
0.000745347701909,0.4716981132075472
0.000745347701909,0.4811320754716981
0.000745347701909,0.49056603773584906
0.00115071043958,0.5
0.0013741858352,0.5094339622641509
0.0013741858352,0.5188679245283019
0.00145499342334,0.5283018867924528
0.00145499342334,0.5377358490566038
0.00198490164418,0.5471698113207547
0.00253012797385,0.5566037735849056
0.00253012797385,0.5660377358490566
0.00313488887859,0.5754716981132075
0.00313488887859,0.5849056603773585
0.00319161470923,0.5943396226415094
0.00321153647844,0.6037735849056604
0.0038498525855,0.6132075471698113
0.00387429922687,0.6226415094339622
0.00389633940592,0.6320754716981132
0.00395900941859,0.6415094339622641
0.00413392548773,0.6509433962264151
0.0047644448054,0.660377358490566
0.00478066276343,0.6698113207547169
0.0048153357521,0.6792452830188679
0.00504674395755,0.6886792452830188
0.00532306449698,0.6981132075471698
0.00564804351654,0.7075471698113207
0.0057162727838,0.7169811320754716
0.00578381911938,0.7264150943396226
0.00650778091456,0.7358490566037735
0.0101478889192,0.7452830188679245
0.01029456382,0.7547169811320755
0.0219758924075,0.7641509433962265
0.0592206193368,0.7735849056603774
0.134000010152,0.7830188679245284
0.134000010152,0.7924528301886793
0.179274853629,0.8018867924528302
0.179274853629,0.8113207547169812
0.179274853629,0.8207547169811321
0.357333360405,0.8301886792452831
0.357333360405,0.839622641509434
0.357333360405,0.8490566037735849
0.358549707257,0.8584905660377359
0.358549707257,0.8679245283018868
0.704314813396,0.8773584905660378
0.704314813396,0.8867924528301887
0.728059237696,0.8962264150943396
0.733522767743,0.9056603773584906
0.733522767743,0.9150943396226415
0.867300906283,0.9245283018867925
0.867300906283,0.9339622641509434
0.957484412769,0.9433962264150944
1.57053164513,0.9528301886792453
1.58099117973,0.9622641509433962
2.07282336897,0.9716981132075472
2.09308726965,0.9811320754716981
3.64845475263,0.9905660377358491
7.01672490196,1.0
