Congestion,CDF
0.00632013303476,0.009433962264150943
0.00632013303476,0.018867924528301886
0.00632969646992,0.02830188679245283
0.00632969646992,0.03773584905660377
0.00633088920579,0.04716981132075472
0.00633088920579,0.05660377358490566
0.00633225032109,0.0660377358490566
0.00633225032109,0.07547169811320754
0.0063365730879,0.08490566037735849
0.0063365730879,0.09433962264150944
0.0063386652146,0.10377358490566038
0.0063386652146,0.11320754716981132
0.00634462958915,0.12264150943396226
0.00634462958915,0.1320754716981132
0.00635672026823,0.14150943396226415
0.00635672026823,0.1509433962264151
0.00636604628109,0.16037735849056603
0.00636604628109,0.16981132075471697
0.00636845441772,0.1792452830188679
0.00636845441772,0.18867924528301888
0.00637552775053,0.19811320754716982
0.00637552775053,0.20754716981132076
0.00638637097133,0.2169811320754717
0.00638637097133,0.22641509433962265
0.00638763796071,0.2358490566037736
0.00638763796071,0.24528301886792453
0.00639071212312,0.25471698113207547
0.00639071212312,0.2641509433962264
0.0488575476236,0.27358490566037735
0.0488575476236,0.2830188679245283
0.0648707043795,0.29245283018867924
0.0648707043795,0.3018867924528302
0.0894667495859,0.3113207547169811
0.0894667495859,0.32075471698113206
0.0941881342279,0.330188679245283
0.0941881342279,0.33962264150943394
0.094325261176,0.3490566037735849
0.094325261176,0.3584905660377358
0.097431654918,0.36792452830188677
0.097431654918,0.37735849056603776
0.107869507907,0.3867924528301887
0.107869507907,0.39622641509433965
0.108127114527,0.4056603773584906
0.108127114527,0.41509433962264153
0.109427878515,0.42452830188679247
0.109427878515,0.4339622641509434
0.1155201176,0.44339622641509435
0.1155201176,0.4528301886792453
0.121405415898,0.46226415094339623
0.121405415898,0.4716981132075472
0.121902496404,0.4811320754716981
0.121902496404,0.49056603773584906
0.140055050104,0.5
0.140055050104,0.5094339622641509
0.143850862412,0.5188679245283019
0.143850862412,0.5283018867924528
0.144087738927,0.5377358490566038
0.144087738927,0.5471698113207547
0.150645036085,0.5566037735849056
0.150645036085,0.5660377358490566
0.153640372598,0.5754716981132075
0.153640372598,0.5849056603773585
0.15832599093,0.5943396226415094
0.15832599093,0.6037735849056604
0.164910593106,0.6132075471698113
0.164910593106,0.6226415094339622
0.170857748288,0.6320754716981132
0.170857748288,0.6415094339622641
0.174410655283,0.6509433962264151
0.174410655283,0.660377358490566
0.17918567308,0.6698113207547169
0.17918567308,0.6792452830188679
0.184139018845,0.6886792452830188
0.184139018845,0.6981132075471698
0.201386897165,0.7075471698113207
0.201386897165,0.7169811320754716
0.205076358372,0.7264150943396226
0.205076358372,0.7358490566037735
0.20560600953,0.7452830188679245
0.20560600953,0.7547169811320755
0.221063718781,0.7641509433962265
0.221063718781,0.7735849056603774
0.221804652849,0.7830188679245284
0.221804652849,0.7924528301886793
0.251530045154,0.8018867924528302
0.251530045154,0.8113207547169812
0.251668086284,0.8207547169811321
0.251668086284,0.8301886792452831
0.25822128996,0.839622641509434
0.25822128996,0.8490566037735849
0.278026333899,0.8584905660377359
0.278026333899,0.8679245283018868
0.278648933569,0.8773584905660378
0.278648933569,0.8867924528301887
0.280241824143,0.8962264150943396
0.280241824143,0.9056603773584906
0.301950915046,0.9150943396226415
0.301950915046,0.9245283018867925
0.302778584464,0.9339622641509434
0.302778584464,0.9433962264150944
0.329180985069,0.9528301886792453
0.329180985069,0.9622641509433962
0.371288242289,0.9716981132075472
0.371288242289,0.9811320754716981
0.387782403818,0.9905660377358491
0.387782403818,1.0
