Congestion,CDF
0.0,0.009433962264150943
0.0,0.018867924528301886
0.0,0.02830188679245283
0.0,0.03773584905660377
0.0,0.04716981132075472
0.0,0.05660377358490566
0.0,0.0660377358490566
0.0,0.07547169811320754
0.0,0.08490566037735849
0.0,0.09433962264150944
0.0,0.10377358490566038
0.0,0.11320754716981132
0.0,0.12264150943396226
0.0,0.1320754716981132
0.0,0.14150943396226415
0.0,0.1509433962264151
0.0,0.16037735849056603
0.0,0.16981132075471697
0.0,0.1792452830188679
0.0,0.18867924528301888
0.0,0.19811320754716982
0.0,0.20754716981132076
0.0,0.2169811320754717
0.0,0.22641509433962265
0.0,0.2358490566037736
0.0,0.24528301886792453
0.0,0.25471698113207547
0.0,0.2641509433962264
0.0,0.27358490566037735
0.0,0.2830188679245283
5.77302645792e-08,0.29245283018867924
1.48727090283e-06,0.3018867924528302
1.67246198503e-06,0.3113207547169811
2.26729671675e-06,0.32075471698113206
2.5593689173e-06,0.330188679245283
3.40555795766e-06,0.33962264150943394
5.19352822817e-06,0.3490566037735849
6.64799048618e-06,0.3584905660377358
7.03566472933e-06,0.36792452830188677
8.20591273827e-06,0.37735849056603776
1.01034437428e-05,0.3867924528301887
1.03349514491e-05,0.39622641509433965
1.0904390845e-05,0.4056603773584906
6.9875568963e-05,0.41509433962264153
9.57813175592e-05,0.42452830188679247
9.57813175592e-05,0.4339622641509434
0.000249299643232,0.44339622641509435
0.000249299643232,0.4528301886792453
0.000249299643232,0.46226415094339623
0.000255416846825,0.4716981132075472
0.000255416846825,0.4811320754716981
0.000255416846825,0.49056603773584906
0.000394327146018,0.5
0.000470908023299,0.5094339622641509
0.000470908023299,0.5188679245283019
0.000498599286464,0.5283018867924528
0.000498599286464,0.5377358490566038
0.000680189015026,0.5471698113207547
0.000867027975652,0.5566037735849056
0.000867027975652,0.5660377358490566
0.00107426833203,0.5754716981132075
0.00107426833203,0.5849056603773585
0.00135667917088,0.5943396226415094
0.00165012633842,0.6037735849056604
0.00223009593612,0.6132075471698113
0.00319161470923,0.6226415094339622
0.00327496682174,0.6320754716981132
0.00347749350138,0.6415094339622641
0.00352775627216,0.6509433962264151
0.00683588002775,0.660377358490566
0.00753073113463,0.6698113207547169
0.00865233923067,0.6792452830188679
0.00877651032167,0.6886792452830188
0.0103736592728,0.6981132075471698
0.0124772183313,0.7075471698113207
0.0125196902271,0.7169811320754716
0.0154544230646,0.7264150943396226
0.0198252319061,0.7358490566037735
0.0201869252892,0.7452830188679245
0.0234700560301,0.7547169811320755
0.0237421446176,0.7641509433962265
0.16878065985,0.7735849056603774
0.350921765568,0.7830188679245284
0.350921765568,0.7924528301886793
0.469488383515,0.8018867924528302
0.469488383515,0.8113207547169812
0.469488383515,0.8207547169811321
0.935791374847,0.8301886792452831
0.935791374847,0.839622641509434
0.935791374847,0.8490566037735849
0.93897676703,0.8584905660377359
0.93897676703,0.8679245283018868
0.957484412769,0.8773584905660378
1.10447104561,0.8867924528301887
1.47207455633,0.8962264150943396
1.47207455633,0.9056603773584906
1.87007472139,0.9150943396226415
1.87007472139,0.9245283018867925
2.93337664264,0.9339622641509434
2.93337664264,0.9433962264150944
3.8168510483,0.9528301886792453
3.84478954377,0.9622641509433962
7.97840087997,0.9716981132075472
8.06002745622,0.9811320754716981
10.5102618513,0.9905660377358491
26.0056747798,1.0
