Congestion,CDF
0.0,0.009433962264150943
0.0,0.018867924528301886
0.0,0.02830188679245283
0.0,0.03773584905660377
0.0,0.04716981132075472
0.0,0.05660377358490566
0.0,0.0660377358490566
0.0,0.07547169811320754
0.0,0.08490566037735849
0.0,0.09433962264150944
0.0,0.10377358490566038
0.0,0.11320754716981132
0.0,0.12264150943396226
0.0,0.1320754716981132
0.0,0.14150943396226415
0.0,0.1509433962264151
0.0,0.16037735849056603
0.0,0.16981132075471697
0.0,0.1792452830188679
0.0,0.18867924528301888
0.0,0.19811320754716982
0.0,0.20754716981132076
0.0,0.2169811320754717
0.0,0.22641509433962265
0.0,0.2358490566037736
0.0,0.24528301886792453
0.0,0.25471698113207547
0.0,0.2641509433962264
0.0,0.27358490566037735
0.0,0.2830188679245283
5.56231040752e-08,0.29245283018867924
1.43298536425e-06,0.3018867924528302
1.61141695319e-06,0.3113207547169811
2.18454015696e-06,0.32075471698113206
2.4659516926e-06,0.330188679245283
3.28125474729e-06,0.33962264150943394
5.00396392184e-06,0.3490566037735849
6.40533816013e-06,0.3584905660377358
6.77886225414e-06,0.36792452830188677
7.90639609223e-06,0.37735849056603776
9.73466702289e-06,0.3867924528301887
9.9577246745e-06,0.39622641509433965
1.05063794748e-05,0.4056603773584906
6.73251036189e-05,0.41509433962264153
9.22852897676e-05,0.42452830188679247
9.22852897676e-05,0.4339622641509434
0.000240200181005,0.44339622641509435
0.000240200181005,0.4528301886792453
0.000240200181005,0.46226415094339623
0.000246094106047,0.4716981132075472
0.000246094106047,0.4811320754716981
0.000246094106047,0.49056603773584906
0.000379934165251,0.5
0.000453719832756,0.5094339622641509
0.000453719832756,0.5188679245283019
0.00048040036201,0.5283018867924528
0.00048040036201,0.5377358490566038
0.000655362047088,0.5471698113207547
0.000835381366729,0.5566037735849056
0.000835381366729,0.5660377358490566
0.00103505742911,0.5754716981132075
0.00103505742911,0.5849056603773585
0.00130716024374,0.5943396226415094
0.00158989655995,0.6037735849056604
0.00214869720859,0.6132075471698113
0.00319161470923,0.6226415094339622
0.00335056463638,0.6320754716981132
0.00339899281093,0.6415094339622641
0.00352131300863,0.6509433962264151
0.0072558586855,0.660377358490566
0.00771416789016,0.6698113207547169
0.00957805479692,0.6792452830188679
0.00971439675403,0.6886792452830188
0.0121332084936,0.6981132075471698
0.0140911543703,0.7075471698113207
0.0141391200325,0.7169811320754716
0.0171730083345,0.7264150943396226
0.0225633891414,0.7358490566037735
0.0226285764749,0.7452830188679245
0.0265411409046,0.7547169811320755
0.0268475530972,0.7641509433962265
0.189836698008,0.7735849056603774
0.396313716664,0.7830188679245284
0.396313716664,0.7924528301886793
0.530217001219,0.8018867924528302
0.530217001219,0.8113207547169812
0.530217001219,0.8207547169811321
0.957484412769,0.8301886792452831
1.05683657777,0.839622641509434
1.05683657777,0.8490566037735849
1.05683657777,0.8584905660377359
1.06043400244,0.8679245283018868
1.06043400244,0.8773584905660378
1.22705789108,0.8867924528301887
1.66182035522,0.8962264150943396
1.66182035522,0.9056603773584906
2.15896242311,0.9150943396226415
2.15896242311,0.9245283018867925
3.33235774598,0.9339622641509434
3.33235774598,0.9433962264150944
4.31402475242,0.9528301886792453
4.34470169277,0.9622641509433962
9.02097756148,0.9716981132075472
9.11290121927,0.9811320754716981
11.8108066353,0.9905660377358491
29.3655953845,1.0
