Congestion,CDF
0.0,0.009433962264150943
0.0,0.018867924528301886
0.0,0.02830188679245283
0.0,0.03773584905660377
0.0,0.04716981132075472
0.0,0.05660377358490566
0.0,0.0660377358490566
0.0,0.07547169811320754
0.0,0.08490566037735849
0.0,0.09433962264150944
0.0,0.10377358490566038
0.0,0.11320754716981132
0.0,0.12264150943396226
0.0,0.1320754716981132
0.0,0.14150943396226415
0.0,0.1509433962264151
0.0,0.16037735849056603
0.0,0.16981132075471697
0.0,0.1792452830188679
0.0,0.18867924528301888
0.0,0.19811320754716982
0.0,0.20754716981132076
0.0,0.2169811320754717
0.0,0.22641509433962265
0.0,0.2358490566037736
0.0,0.24528301886792453
0.0,0.25471698113207547
0.0,0.2641509433962264
0.0,0.27358490566037735
0.0,0.2830188679245283
6.92183660962e-08,0.29245283018867924
1.78323211554e-06,0.3018867924528302
2.00527551373e-06,0.3113207547169811
2.71848007856e-06,0.32075471698113206
3.06867352824e-06,0.330188679245283
4.08325094633e-06,0.33962264150943394
6.2270204519e-06,0.3490566037735849
7.60590712598e-06,0.3584905660377358
7.97091512797e-06,0.36792452830188677
8.43573506053e-06,0.37735849056603776
9.83885794064e-06,0.3867924528301887
1.21139903466e-05,0.39622641509433965
1.23915671997e-05,0.4056603773584906
1.30743228542e-05,0.41509433962264153
2.75276763337e-05,0.42452830188679247
8.378053953e-05,0.4339622641509434
0.000114841432866,0.44339622641509435
0.000114841432866,0.4528301886792453
0.000298909317299,0.46226415094339623
0.000298909317299,0.4716981132075472
0.000298909317299,0.4811320754716981
0.000306243820975,0.49056603773584906
0.000306243820975,0.5
0.000306243820975,0.5094339622641509
0.000472796737615,0.5188679245283019
0.000478011067238,0.5283018867924528
0.000564616916135,0.5377358490566038
0.000564616916135,0.5471698113207547
0.000587968308102,0.5566037735849056
0.000597818634598,0.5660377358490566
0.000597818634598,0.5754716981132075
0.00068672951232,0.5849056603773585
0.000815544023569,0.5943396226415094
0.00103956322168,0.6037735849056604
0.00103956322168,0.6132075471698113
0.00128804361515,0.6226415094339622
0.00128804361515,0.6320754716981132
0.00162665312916,0.6415094339622641
0.001978495159,0.6509433962264151
0.00207018211235,0.660377358490566
0.0022817721378,0.6698113207547169
0.00267387648508,0.6792452830188679
0.0041695013877,0.6886792452830188
0.00422976625734,0.6981132075471698
0.00480597530402,0.7075471698113207
0.00485915932219,0.7169811320754716
0.00870516894104,0.7264150943396226
0.00902931778414,0.7358490566037735
0.0183261060987,0.7452830188679245
0.0201150155308,0.7547169811320755
0.0259781847762,0.7641509433962265
0.026490682671,0.7735849056603774
0.113138317227,0.7830188679245284
0.136663855937,0.7924528301886793
0.136663855937,0.8018867924528302
0.177641354337,0.8113207547169812
0.180224073901,0.8207547169811321
0.180224073901,0.8301886792452831
0.180224073901,0.839622641509434
0.349088981498,0.8490566037735849
0.349088981498,0.8584905660377359
0.360448147801,0.8679245283018868
0.360448147801,0.8773584905660378
0.364436949164,0.8867924528301887
0.364436949164,0.8962264150943396
0.364436949164,0.9056603773584906
0.504727399002,0.9150943396226415
0.504727399002,0.9245283018867925
0.61227988913,0.9339622641509434
0.637020268325,0.9433962264150944
2.53477115857,0.9528301886792453
2.53477115857,0.9622641509433962
6.45669753574,0.9716981132075472
8.15589798135,0.9811320754716981
8.30964734979,0.9905660377358491
25.3430720388,1.0
