Congestion,CDF
0.0,0.009433962264150943
0.0,0.018867924528301886
0.0,0.02830188679245283
0.0,0.03773584905660377
0.0,0.04716981132075472
0.0,0.05660377358490566
0.0,0.0660377358490566
0.0,0.07547169811320754
0.0,0.08490566037735849
0.0,0.09433962264150944
0.0,0.10377358490566038
0.0,0.11320754716981132
0.0,0.12264150943396226
0.0,0.1320754716981132
0.0,0.14150943396226415
0.0,0.1509433962264151
0.0,0.16037735849056603
0.0,0.16981132075471697
0.0,0.1792452830188679
0.0,0.18867924528301888
0.0,0.19811320754716982
0.0,0.20754716981132076
0.0,0.2169811320754717
0.0,0.22641509433962265
0.0,0.2358490566037736
0.0,0.24528301886792453
0.0,0.25471698113207547
0.0,0.2641509433962264
0.0,0.27358490566037735
0.0,0.2830188679245283
5.12134543178e-08,0.29245283018867924
1.31938214722e-06,0.3018867924528302
1.48366816076e-06,0.3113207547169811
2.01135570181e-06,0.32075471698113206
2.27045768946e-06,0.330188679245283
3.02112571564e-06,0.33962264150943394
4.60726315045e-06,0.3490566037735849
5.89754021657e-06,0.3584905660377358
6.24145232724e-06,0.36792452830188677
7.27959832195e-06,0.37735849056603776
8.96292886138e-06,0.3867924528301887
9.16830310364e-06,0.39622641509433965
9.67346203025e-06,0.4056603773584906
6.19877508807e-05,0.41509433962264153
8.49691607524e-05,0.42452830188679247
8.49691607524e-05,0.4339622641509434
0.000221157758121,0.44339622641509435
0.000221157758121,0.4528301886792453
0.000221157758121,0.46226415094339623
0.000226584428673,0.4716981132075472
0.000226584428673,0.4811320754716981
0.000226584428673,0.49056603773584906
0.000349814008753,0.5
0.000417750147429,0.5094339622641509
0.000417750147429,0.5188679245283019
0.000442315516243,0.5283018867924528
0.000442315516243,0.5377358490566038
0.000603406710542,0.5471698113207547
0.000769154583769,0.5566037735849056
0.000769154583769,0.5660377358490566
0.000953000866158,0.5754716981132075
0.000953000866158,0.5849056603773585
0.0012035321031,0.5943396226415094
0.00146385384629,0.6037735849056604
0.00197835428576,0.6132075471698113
0.00308494090355,0.6226415094339622
0.00312952982297,0.6320754716981132
0.00668063376729,0.6415094339622641
0.0113216563889,0.6509433962264151
0.0148656922849,0.660377358490566
0.017411682637,0.6698113207547169
0.0175072102034,0.6792452830188679
0.0183111754652,0.6886792452830188
0.0200242890707,0.6981132075471698
0.0207909223528,0.7075471698113207
0.0213210868197,0.7169811320754716
0.0213260640899,0.7264150943396226
0.0226259811632,0.7358490566037735
0.0228770593495,0.7452830188679245
0.0241941212777,0.7547169811320755
0.0243313407919,0.7641509433962265
0.256908281895,0.7735849056603774
0.599795552529,0.7830188679245284
0.599795552529,0.7924528301886793
0.799540755737,0.8018867924528302
0.799540755737,0.8113207547169812
0.799540755737,0.8207547169811321
1.59908151147,0.8301886792452831
1.59908151147,0.839622641509434
1.59945480674,0.8490566037735849
1.59945480674,0.8584905660377359
1.59945480674,0.8679245283018868
2.90341552333,0.8773584905660378
3.25945835916,0.8867924528301887
3.25945835916,0.8962264150943396
3.45218363979,0.9056603773584906
3.45218363979,0.9150943396226415
3.77312029615,0.9245283018867925
3.77312029615,0.9339622641509434
4.45970768548,0.9433962264150944
7.36981223312,0.9528301886792453
7.39130593555,0.9622641509433962
8.85750454242,0.9716981132075472
8.89867039668,0.9811320754716981
15.6140482463,0.9905660377358491
29.5747963496,1.0
