Congestion,CDF
0.0,0.009433962264150943
0.0,0.018867924528301886
0.0,0.02830188679245283
0.0,0.03773584905660377
0.0,0.04716981132075472
0.0,0.05660377358490566
0.0,0.0660377358490566
0.0,0.07547169811320754
0.0,0.08490566037735849
0.0,0.09433962264150944
0.0,0.10377358490566038
0.0,0.11320754716981132
0.0,0.12264150943396226
0.0,0.1320754716981132
0.0,0.14150943396226415
0.0,0.1509433962264151
0.0,0.16037735849056603
0.0,0.16981132075471697
0.0,0.1792452830188679
0.0,0.18867924528301888
0.0,0.19811320754716982
0.0,0.20754716981132076
0.0,0.2169811320754717
0.0,0.22641509433962265
0.0,0.2358490566037736
0.0,0.24528301886792453
0.0,0.25471698113207547
0.0,0.2641509433962264
0.0,0.27358490566037735
0.0,0.2830188679245283
5.24333288309e-08,0.29245283018867924
1.3508090579e-06,0.3018867924528302
1.51900826815e-06,0.3113207547169811
2.05926501763e-06,0.32075471698113206
2.32453866301e-06,0.330188679245283
3.09308716231e-06,0.33962264150943394
4.71700546264e-06,0.3490566037735849
6.03801617345e-06,0.3584905660377358
6.39012006935e-06,0.36792452830188677
7.45299409416e-06,0.37735849056603776
7.60590712598e-06,0.3867924528301887
9.176420582e-06,0.39622641509433965
9.38668671852e-06,0.4056603773584906
9.90387823517e-06,0.41509433962264153
6.34642628331e-05,0.42452830188679247
7.09829244452e-05,0.4339622641509434
8.69930764399e-05,0.44339622641509435
8.69930764399e-05,0.4528301886792453
0.000226425606504,0.46226415094339623
0.000226425606504,0.4716981132075472
0.000226425606504,0.4811320754716981
0.000231981537173,0.49056603773584906
0.000231981537173,0.5
0.000231981537173,0.5094339622641509
0.00035814637374,0.5188679245283019
0.000427700711485,0.5283018867924528
0.000427700711485,0.5377358490566038
0.000452851213008,0.5471698113207547
0.000452851213008,0.5566037735849056
0.00061777950529,0.5660377358490566
0.000641544108521,0.5754716981132075
0.000787475395865,0.5849056603773585
0.000787475395865,0.5943396226415094
0.000888440443813,0.6037735849056604
0.00097570078912,0.6132075471698113
0.00097570078912,0.6226415094339622
0.00123219953353,0.6320754716981132
0.0014987219883,0.6415094339622641
0.00202547752717,0.6509433962264151
0.0022817721378,0.660377358490566
0.00315842239065,0.6698113207547169
0.00320407339203,0.6792452830188679
0.0068397625543,0.6886792452830188
0.0084307122049,0.6981132075471698
0.0137698107805,0.7075471698113207
0.0213289218634,0.7169811320754716
0.0214685293802,0.7264150943396226
0.0312343270694,0.7358490566037735
0.0322344907093,0.7452830188679245
0.0337173169322,0.7547169811320755
0.0378063479265,0.7641509433962265
0.0388029423064,0.7735849056603774
0.240401972557,0.7830188679245284
0.906595051199,0.7924528301886793
0.906595051199,0.8018867924528302
1.1712872651,0.8113207547169812
1.1712872651,0.8207547169811321
1.1712872651,0.8301886792452831
1.67506768542,0.839622641509434
2.3425745302,0.8490566037735849
2.3425745302,0.8584905660377359
2.4175868032,0.8679245283018868
2.4175868032,0.8773584905660378
2.4175868032,0.8867924528301887
3.33416421283,0.8962264150943396
3.33416421283,0.9056603773584906
4.2002700553,0.9150943396226415
4.2002700553,0.9245283018867925
4.34461747972,0.9339622641509434
4.40016915516,0.9433962264150944
5.5782586549,0.9528301886792453
5.5782586549,0.9622641509433962
13.7219850446,0.9716981132075472
14.0209633586,0.9811320754716981
14.4124441518,0.9905660377358491
41.5793031688,1.0
