Congestion,CDF
0.0,0.009433962264150943
0.0,0.018867924528301886
0.0,0.02830188679245283
0.0,0.03773584905660377
0.0,0.04716981132075472
0.0,0.05660377358490566
0.0,0.0660377358490566
0.0,0.07547169811320754
0.0,0.08490566037735849
0.0,0.09433962264150944
0.0,0.10377358490566038
0.0,0.11320754716981132
0.0,0.12264150943396226
0.0,0.1320754716981132
0.0,0.14150943396226415
0.0,0.1509433962264151
0.0,0.16037735849056603
0.0,0.16981132075471697
0.0,0.1792452830188679
0.0,0.18867924528301888
0.0,0.19811320754716982
0.0,0.20754716981132076
0.0,0.2169811320754717
0.0,0.22641509433962265
0.0,0.2358490566037736
0.0,0.24528301886792453
0.0,0.25471698113207547
0.0,0.2641509433962264
0.0,0.27358490566037735
0.0,0.2830188679245283
4.49451941061e-08,0.29245283018867924
1.15789664058e-06,0.3018867924528302
1.30207490127e-06,0.3113207547169811
1.76517623422e-06,0.32075471698113206
1.99256548736e-06,0.330188679245283
2.65135565482e-06,0.33962264150943394
4.04335812441e-06,0.3490566037735849
5.1757119943e-06,0.3584905660377358
5.4775310529e-06,0.36792452830188677
6.38861338203e-06,0.37735849056603776
7.86591302618e-06,0.3867924528301887
8.04615053028e-06,0.39622641509433965
8.48948063393e-06,0.4056603773584906
5.44007728564e-05,0.41509433962264153
7.45693777919e-05,0.42452830188679247
7.45693777919e-05,0.4339622641509434
0.000194089199786,0.44339622641509435
0.000194089199786,0.4528301886792453
0.000194089199786,0.46226415094339623
0.000198851674112,0.4716981132075472
0.000198851674112,0.4811320754716981
0.000198851674112,0.49056603773584906
0.000306998595074,0.5
0.000366619704025,0.5094339622641509
0.000366619704025,0.5188679245283019
0.000388178399573,0.5283018867924528
0.000388178399573,0.5377358490566038
0.000529552870266,0.5471698113207547
0.000675014066627,0.5566037735849056
0.000675014066627,0.5660377358490566
0.000836358521083,0.5754716981132075
0.000836358521083,0.5849056603773585
0.00105622603879,0.5943396226415094
0.00128468575574,0.6037735849056604
0.00173621401971,0.6132075471698113
0.00270736019593,0.6226415094339622
0.00274649166372,0.6320754716981132
0.00586295897089,0.6415094339622641
0.0212447567682,0.6509433962264151
0.0263980512365,0.660377358490566
0.033057458262,0.6698113207547169
0.0332405334494,0.6792452830188679
0.0397254942651,0.6886792452830188
0.0404322492469,0.6981132075471698
0.0425604391714,0.7075471698113207
0.0445740258305,0.7169811320754716
0.0450250402869,0.7264150943396226
0.0452390752747,0.7358490566037735
0.0468416792724,0.7452830188679245
0.0487516030881,0.7547169811320755
0.0490264396786,0.7641509433962265
0.516116845831,0.7735849056603774
1.2723489921,0.7830188679245284
1.2723489921,0.7924528301886793
1.68843901076,0.8018867924528302
1.68843901076,0.8113207547169812
1.68843901076,0.8207547169811321
3.37687802151,0.8301886792452831
3.37687802151,0.839622641509434
3.3929306456,0.8490566037735849
3.3929306456,0.8584905660377359
3.3929306456,0.8679245283018868
5.89393331392,0.8773584905660378
7.007796355,0.8867924528301887
7.007796355,0.8962264150943396
7.32672765695,0.9056603773584906
7.32672765695,0.9150943396226415
7.80836716832,0.9245283018867925
7.80836716832,0.9339622641509434
7.91941537095,0.9433962264150944
14.7646557659,0.9528301886792453
14.8058476831,0.9622641509433962
18.01038526,0.9716981132075472
18.0928362371,0.9811320754716981
31.8845594718,0.9905660377358491
59.8865854707,1.0
