Congestion,CDF
0.000274686399923,0.005555555555555556
0.000274686399923,0.011111111111111112
0.000314648905203,0.016666666666666666
0.000314648905203,0.022222222222222223
0.000731009806907,0.027777777777777776
0.000731009806907,0.03333333333333333
0.000780788769003,0.03888888888888889
0.000780788769003,0.044444444444444446
0.000829584775444,0.05
0.000829584775444,0.05555555555555555
0.00126869147351,0.06111111111111111
0.00126869147351,0.06666666666666667
0.00128271924751,0.07222222222222222
0.00128271924751,0.07777777777777778
0.00143288080326,0.08333333333333333
0.00143288080326,0.08888888888888889
0.00164240466484,0.09444444444444444
0.00164240466484,0.1
0.00180587431032,0.10555555555555556
0.00180587431032,0.1111111111111111
0.00200367638211,0.11666666666666667
0.00200367638211,0.12222222222222222
0.00215485555882,0.12777777777777777
0.00215485555882,0.13333333333333333
0.00228499332143,0.1388888888888889
0.00228499332143,0.14444444444444443
0.00233856721024,0.15
0.00233856721024,0.15555555555555556
0.00235004731839,0.16111111111111112
0.00235004731839,0.16666666666666666
0.00244450109945,0.17222222222222222
0.00244450109945,0.17777777777777778
0.00245227484231,0.18333333333333332
0.00245227484231,0.18888888888888888
0.00281045958278,0.19444444444444445
0.00281045958278,0.2
0.00281804059795,0.20555555555555555
0.00281804059795,0.2111111111111111
0.00286337170886,0.21666666666666667
0.00286337170886,0.2222222222222222
0.00290824650152,0.22777777777777777
0.00290824650152,0.23333333333333334
0.00297554386807,0.2388888888888889
0.00297554386807,0.24444444444444444
0.00298272782108,0.25
0.00298272782108,0.25555555555555554
0.00298588960672,0.2611111111111111
0.00298588960672,0.26666666666666666
0.00299223305993,0.2722222222222222
0.00299223305993,0.2777777777777778
0.00300186548922,0.2833333333333333
0.00300186548922,0.28888888888888886
0.00301585351567,0.29444444444444445
0.00301585351567,0.3
0.00309836240414,0.3055555555555556
0.00309836240414,0.3111111111111111
0.00326553255271,0.31666666666666665
0.00326553255271,0.32222222222222224
0.00327379678105,0.3277777777777778
0.00327379678105,0.3333333333333333
0.00327461497138,0.3388888888888889
0.00327461497138,0.34444444444444444
0.00342136905764,0.35
0.00342136905764,0.35555555555555557
0.00395165308555,0.3611111111111111
0.00395165308555,0.36666666666666664
0.00421554839787,0.37222222222222223
0.00421554839787,0.37777777777777777
0.00435111051689,0.38333333333333336
0.00435111051689,0.3888888888888889
0.00449036926411,0.39444444444444443
0.00449036926411,0.4
0.00484110296446,0.40555555555555556
0.00484110296446,0.4111111111111111
0.00501475618197,0.4166666666666667
0.00501475618197,0.4222222222222222
0.0058803299619,0.42777777777777776
0.0058803299619,0.43333333333333335
0.00599050443201,0.4388888888888889
0.00599050443201,0.4444444444444444
0.016328220557,0.45
0.016328220557,0.45555555555555555
0.0186464850381,0.46111111111111114
0.0186464850381,0.4666666666666667
0.0245538761207,0.4722222222222222
0.0245538761207,0.4777777777777778
0.035870253669,0.48333333333333334
0.035870253669,0.4888888888888889
0.0414536673138,0.49444444444444446
0.0414536673138,0.5
0.0589287175881,0.5055555555555555
0.0589287175881,0.5111111111111111
0.0793409015666,0.5166666666666667
0.0793409015666,0.5222222222222223
0.0880340290491,0.5277777777777778
0.0880340290491,0.5333333333333333
0.0894587218831,0.5388888888888889
0.0894587218831,0.5444444444444444
0.0972139835155,0.55
0.0972139835155,0.5555555555555556
0.126960305857,0.5611111111111111
0.126960305857,0.5666666666666667
0.128276737675,0.5722222222222222
0.128276737675,0.5777777777777777
0.176162158192,0.5833333333333334
0.176162158192,0.5888888888888889
0.193437836824,0.5944444444444444
0.193437836824,0.6
0.201096126132,0.6055555555555555
0.201096126132,0.6111111111111112
0.255351437235,0.6166666666666667
0.255351437235,0.6222222222222222
0.295418358965,0.6277777777777778
0.295418358965,0.6333333333333333
0.301936586846,0.6388888888888888
0.301936586846,0.6444444444444445
0.303436667253,0.65
0.303436667253,0.6555555555555556
0.307840233709,0.6611111111111111
0.307840233709,0.6666666666666666
0.399486314771,0.6722222222222223
0.399486314771,0.6777777777777778
0.424566849483,0.6833333333333333
0.424566849483,0.6888888888888889
0.454421802995,0.6944444444444444
0.454421802995,0.7
0.485223275846,0.7055555555555556
0.485223275846,0.7111111111111111
0.48526135339,0.7166666666666667
0.48526135339,0.7222222222222222
0.542844965548,0.7277777777777777
0.542844965548,0.7333333333333333
0.594261317406,0.7388888888888889
0.594261317406,0.7444444444444445
0.66404300181,0.75
0.66404300181,0.7555555555555555
0.68856176341,0.7611111111111111
0.68856176341,0.7666666666666667
0.705212282199,0.7722222222222223
0.705212282199,0.7777777777777778
0.71284880662,0.7833333333333333
0.71284880662,0.7888888888888889
0.726865992876,0.7944444444444444
0.726865992876,0.8
0.768198370447,0.8055555555555556
0.768198370447,0.8111111111111111
0.810541833035,0.8166666666666667
0.810541833035,0.8222222222222222
0.833375042376,0.8277777777777777
0.833375042376,0.8333333333333334
0.838935127755,0.8388888888888889
0.838935127755,0.8444444444444444
0.865315145802,0.85
0.865315145802,0.8555555555555555
0.942950942606,0.8611111111111112
0.942950942606,0.8666666666666667
0.949759744624,0.8722222222222222
0.949759744624,0.8777777777777778
1.06222387539,0.8833333333333333
1.06222387539,0.8888888888888888
1.24422030363,0.8944444444444445
1.24422030363,0.9
1.32184809993,0.9055555555555556
1.32184809993,0.9111111111111111
1.36378720279,0.9166666666666666
1.36378720279,0.9222222222222223
1.51642047565,0.9277777777777778
1.51642047565,0.9333333333333333
1.62873552312,0.9388888888888889
1.62873552312,0.9444444444444444
2.00137024037,0.95
2.00137024037,0.9555555555555556
2.10445347184,0.9611111111111111
2.10445347184,0.9666666666666667
3.80904168926,0.9722222222222222
3.80904168926,0.9777777777777777
3.85492528885,0.9833333333333333
3.85492528885,0.9888888888888889
4.09672308714,0.9944444444444445
4.09672308714,1.0
