Congestion,CDF
0.0050299616065,0.005555555555555556
0.0050299616065,0.011111111111111112
0.00555988787749,0.016666666666666666
0.00555988787749,0.022222222222222223
0.00617704315146,0.027777777777777776
0.00617704315146,0.03333333333333333
0.00625341558232,0.03888888888888889
0.00625341558232,0.044444444444444446
0.00637101882331,0.05
0.00637101882331,0.05555555555555555
0.00650857758092,0.06111111111111111
0.00650857758092,0.06666666666666667
0.00666721199151,0.07222222222222222
0.00666721199151,0.07777777777777778
0.00673718574527,0.08333333333333333
0.00673718574527,0.08888888888888889
0.00694999651844,0.09444444444444444
0.00694999651844,0.1
0.0070437098533,0.10555555555555556
0.0070437098533,0.1111111111111111
0.00705371449013,0.11666666666666667
0.00705371449014,0.12222222222222222
0.00731299572924,0.12777777777777777
0.00731299572924,0.13333333333333333
0.00736075129676,0.1388888888888889
0.00736075129676,0.14444444444444443
0.00743373719572,0.15
0.00743373719572,0.15555555555555556
0.00753256515217,0.16111111111111112
0.00753256515217,0.16666666666666666
0.00753542373297,0.17222222222222222
0.00753542373297,0.17777777777777778
0.00764871380655,0.18333333333333332
0.00764871380655,0.18888888888888888
0.00775124678744,0.19444444444444445
0.00775124678744,0.2
0.00783653743284,0.20555555555555555
0.00783653743284,0.2111111111111111
0.00817532516538,0.21666666666666667
0.00817532516538,0.2222222222222222
0.00822074539353,0.22777777777777777
0.00822074539353,0.23333333333333334
0.00824793365321,0.2388888888888889
0.00824793365321,0.24444444444444444
0.00841922578632,0.25
0.00841922578632,0.25555555555555554
0.00863471498211,0.2611111111111111
0.00863471498211,0.26666666666666666
0.00883270585755,0.2722222222222222
0.00883270585755,0.2777777777777778
0.00885167811099,0.2833333333333333
0.00885167811099,0.28888888888888886
0.00885710407664,0.29444444444444445
0.00885710407664,0.3
0.00887147376415,0.3055555555555556
0.00887147376415,0.3111111111111111
0.00892447896505,0.31666666666666665
0.00892447896505,0.32222222222222224
0.00902279473382,0.3277777777777778
0.00902279473382,0.3333333333333333
0.00907729842409,0.3388888888888889
0.00907729842409,0.34444444444444444
0.00922516758516,0.35
0.00922516758516,0.35555555555555557
0.0100102034761,0.3611111111111111
0.0100102034761,0.36666666666666664
0.0103129422546,0.37222222222222223
0.0103129422546,0.37777777777777777
0.0105148632588,0.38333333333333336
0.0105148632588,0.3888888888888889
0.0106670664305,0.39444444444444443
0.0106670664305,0.4
0.0109731570232,0.40555555555555556
0.0109731570232,0.4111111111111111
0.0111873763996,0.4166666666666667
0.0111873763996,0.4222222222222222
0.0115417230834,0.42777777777777776
0.0115417230834,0.43333333333333335
0.0117214063942,0.4388888888888889
0.0117214063942,0.4444444444444444
0.166110205483,0.45
0.166110205483,0.45555555555555555
0.274750822474,0.46111111111111114
0.274750822474,0.4666666666666667
0.279650123627,0.4722222222222222
0.279650123627,0.4777777777777778
0.291334627018,0.48333333333333334
0.291334627018,0.4888888888888889
0.470767838186,0.49444444444444446
0.470767838186,0.5
0.475374216448,0.5055555555555555
0.475374216448,0.5111111111111111
0.500306119831,0.5166666666666667
0.500306119831,0.5222222222222223
0.518948608738,0.5277777777777778
0.518948608738,0.5333333333333333
0.598718071803,0.5388888888888889
0.598718071803,0.5444444444444444
0.650979738986,0.55
0.650979738986,0.5555555555555556
0.787675121799,0.5611111111111111
0.787675121799,0.5666666666666667
0.813886957625,0.5722222222222222
0.813886957625,0.5777777777777777
0.841219933079,0.5833333333333334
0.841219933079,0.5888888888888889
0.889014141745,0.5944444444444444
0.889014141745,0.6
0.893118933937,0.6055555555555555
0.893118933937,0.6111111111111112
0.893259481222,0.6166666666666667
0.893259481222,0.6222222222222222
0.903729181409,0.6277777777777778
0.903729181409,0.6333333333333333
1.00202031016,0.6388888888888888
1.00202031016,0.6444444444444445
1.11473148426,0.65
1.11473148426,0.6555555555555556
1.15991863357,0.6611111111111111
1.15991863357,0.6666666666666666
1.21874793602,0.6722222222222223
1.21874793602,0.6777777777777778
1.24169185139,0.6833333333333333
1.24169185139,0.6888888888888889
1.24688498992,0.6944444444444444
1.24688498992,0.7
1.34288653228,0.7055555555555556
1.34288653228,0.7111111111111111
1.42577937828,0.7166666666666667
1.42577937828,0.7222222222222222
1.48004922895,0.7277777777777777
1.48004922895,0.7333333333333333
1.76521924701,0.7388888888888889
1.76521924701,0.7444444444444445
1.96613494802,0.75
1.96613494802,0.7555555555555555
1.98361931668,0.7611111111111111
1.98361931668,0.7666666666666667
2.15731993678,0.7722222222222223
2.15731993678,0.7777777777777778
2.26444917527,0.7833333333333333
2.26444917527,0.7888888888888889
2.32244708705,0.7944444444444444
2.32244708705,0.8
2.69230019161,0.8055555555555556
2.69230019161,0.8111111111111111
2.72286793494,0.8166666666666667
2.72286793494,0.8222222222222222
2.7779410218,0.8277777777777777
2.7779410218,0.8333333333333334
2.82974416488,0.8388888888888889
2.82974416488,0.8444444444444444
2.87634039452,0.85
2.87634039452,0.8555555555555555
3.32496122584,0.8611111111111112
3.32496122584,0.8666666666666667
3.40478546106,0.8722222222222222
3.40478546106,0.8777777777777778
3.4320134931,0.8833333333333333
3.4320134931,0.8888888888888888
3.77017467034,0.8944444444444445
3.77017467034,0.9
3.7771041007,0.9055555555555556
3.7771041007,0.9111111111111111
3.9210511965,0.9166666666666666
3.9210511965,0.9222222222222223
3.98737700498,0.9277777777777778
3.98737700498,0.9333333333333333
4.08637121262,0.9388888888888889
4.08637121262,0.9444444444444444
4.12435835158,0.95
4.12435835158,0.9555555555555556
4.14087527006,0.9611111111111111
4.14087527006,0.9666666666666667
6.80073028301,0.9722222222222222
6.80073028301,0.9777777777777777
7.35382519849,0.9833333333333333
7.35382519849,0.9888888888888889
7.43201738631,0.9944444444444445
7.43201738631,1.0
