Congestion,CDF
0.00270842435173,0.007352941176470588
0.00270842435173,0.014705882352941176
0.00270842435173,0.022058823529411766
0.00270842435173,0.029411764705882353
0.00270842445097,0.03676470588235294
0.00270842445097,0.04411764705882353
0.00270842486633,0.051470588235294115
0.00270842486633,0.058823529411764705
0.00270842486633,0.0661764705882353
0.00270842486633,0.07352941176470588
0.00270842496557,0.08088235294117647
0.00270842496557,0.08823529411764706
0.00270842506481,0.09558823529411764
0.00270842506481,0.10294117647058823
0.00270842506481,0.11029411764705882
0.00270842506481,0.11764705882352941
0.00271838288426,0.125
0.00271838288426,0.1323529411764706
0.0027198656084,0.13970588235294118
0.0027198656084,0.14705882352941177
0.00275150995982,0.15441176470588236
0.00275150995982,0.16176470588235295
0.00275337806902,0.16911764705882354
0.00275337806902,0.17647058823529413
0.00275337806902,0.18382352941176472
0.00275337806902,0.19117647058823528
0.00276199708493,0.19852941176470587
0.00276199708493,0.20588235294117646
0.00276290956181,0.21323529411764705
0.00276290956181,0.22058823529411764
0.00276477706636,0.22794117647058823
0.00276477706636,0.23529411764705882
0.00276477706636,0.2426470588235294
0.00276477706636,0.25
0.00276477706636,0.25735294117647056
0.00276477706636,0.2647058823529412
0.00276477706636,0.27205882352941174
0.00276477706636,0.27941176470588236
0.0027647771656,0.2867647058823529
0.0027647771656,0.29411764705882354
0.0027647771656,0.3014705882352941
0.0027647771656,0.3088235294117647
0.00278517894553,0.3161764705882353
0.00278517894553,0.3235294117647059
0.00283891487178,0.33088235294117646
0.00283891487178,0.3382352941176471
0.00283891487178,0.34558823529411764
0.00283891487178,0.35294117647058826
0.00285578221253,0.3602941176470588
0.00285578221253,0.36764705882352944
0.00285578221253,0.375
0.00285578221253,0.38235294117647056
0.00285578221253,0.3897058823529412
0.00285578221253,0.39705882352941174
0.00285578221253,0.40441176470588236
0.00285578221253,0.4117647058823529
0.0198485043945,0.41911764705882354
0.0198485043945,0.4264705882352941
0.0446591348875,0.4338235294117647
0.0446591348875,0.4411764705882353
0.0927452601019,0.4485294117647059
0.0927452601019,0.45588235294117646
0.0948008799649,0.4632352941176471
0.0948008799649,0.47058823529411764
0.116399742478,0.47794117647058826
0.116399742478,0.4852941176470588
0.12996864977,0.49264705882352944
0.12996864977,0.5
0.137142959685,0.5073529411764706
0.137142959685,0.5147058823529411
0.138245277179,0.5220588235294118
0.138245277179,0.5294117647058824
0.151890083603,0.5367647058823529
0.151890083603,0.5441176470588235
0.157802935709,0.5514705882352942
0.157802935709,0.5588235294117647
0.183187933934,0.5661764705882353
0.183187933934,0.5735294117647058
0.186554553846,0.5808823529411765
0.186554553846,0.5882352941176471
0.202409934804,0.5955882352941176
0.202409934804,0.6029411764705882
0.232519259116,0.6102941176470589
0.232519259116,0.6176470588235294
0.250993982238,0.625
0.250993982238,0.6323529411764706
0.261799753458,0.6397058823529411
0.261799753458,0.6470588235294118
0.264345173302,0.6544117647058824
0.264345173302,0.6617647058823529
0.269005108882,0.6691176470588235
0.269005108882,0.6764705882352942
0.280616095155,0.6838235294117647
0.280616095155,0.6911764705882353
0.285578221253,0.6985294117647058
0.285578221253,0.7058823529411765
0.299578007985,0.7132352941176471
0.299578007985,0.7205882352941176
0.300587669609,0.7279411764705882
0.300587669609,0.7352941176470589
0.301072259826,0.7426470588235294
0.301072259826,0.75
0.328763461985,0.7573529411764706
0.328763461985,0.7647058823529411
0.334782648311,0.7720588235294118
0.334782648311,0.7794117647058824
0.373886075292,0.7867647058823529
0.373886075292,0.7941176470588235
0.3744796571,0.8014705882352942
0.3744796571,0.8088235294117647
0.394583633555,0.8161764705882353
0.394583633555,0.8235294117647058
0.398836588031,0.8308823529411765
0.398836588031,0.8382352941176471
0.418398707306,0.8455882352941176
0.418398707306,0.8529411764705882
0.447450862279,0.8602941176470589
0.447450862279,0.8676470588235294
0.479640391763,0.875
0.479640391763,0.8823529411764706
0.488806037173,0.8897058823529411
0.488806037173,0.8970588235294118
0.536549222939,0.9044117647058824
0.536549222939,0.9117647058823529
0.612431683855,0.9191176470588235
0.612431683855,0.9264705882352942
0.628722405007,0.9338235294117647
0.628722405007,0.9411764705882353
0.752530015689,0.9485294117647058
0.752530015689,0.9558823529411765
0.764614898954,0.9632352941176471
0.764614898954,0.9705882352941176
0.977489738447,0.9779411764705882
0.977489738447,0.9852941176470589
1.13123274509,0.9926470588235294
1.13123274509,1.0
