Congestion,CDF
0.0,0.007352941176470588
0.0,0.014705882352941176
0.0,0.022058823529411766
0.0,0.029411764705882353
0.0,0.03676470588235294
0.0,0.04411764705882353
0.0,0.051470588235294115
0.0,0.058823529411764705
0.0,0.0661764705882353
0.0,0.07352941176470588
0.0,0.08088235294117647
0.0,0.08823529411764706
0.0,0.09558823529411764
0.0,0.10294117647058823
4.28830985656e-06,0.11029411764705882
4.28830985656e-06,0.11764705882352941
4.28830985656e-06,0.125
4.28830985656e-06,0.1323529411764706
4.28830985656e-06,0.13970588235294118
4.28830985656e-06,0.14705882352941177
4.28830985656e-06,0.15441176470588236
4.28830985656e-06,0.16176470588235295
4.28830985656e-06,0.16911764705882354
4.28830985656e-06,0.17647058823529413
4.28830985656e-06,0.18382352941176472
4.28830985656e-06,0.19117647058823528
4.28830985656e-06,0.19852941176470587
4.28830985656e-06,0.20588235294117646
4.28830985656e-06,0.21323529411764705
4.28830985656e-06,0.22058823529411764
4.28830985656e-06,0.22794117647058823
4.28830985656e-06,0.23529411764705882
4.28830985656e-06,0.2426470588235294
4.28830985656e-06,0.25
4.28830985656e-06,0.25735294117647056
4.28830985656e-06,0.2647058823529412
4.28830985656e-06,0.27205882352941174
4.28830985656e-06,0.27941176470588236
4.28830985656e-06,0.2867647058823529
4.28830985656e-06,0.29411764705882354
4.28830985656e-06,0.3014705882352941
0.000107207746414,0.3088235294117647
0.000107207746414,0.3161764705882353
0.000115784366127,0.3235294117647059
0.000214415492828,0.33088235294117646
0.000214415492828,0.3382352941176471
0.000214415492828,0.34558823529411764
0.000214415492828,0.35294117647058826
0.000321623239242,0.3602941176470588
0.000357359154713,0.36764705882352944
0.000357359154713,0.375
0.000357359154713,0.38235294117647056
0.000428830985656,0.3897058823529412
0.000428830985656,0.39705882352941174
0.000428830985656,0.40441176470588236
0.000428830985656,0.4117647058823529
0.000428830985656,0.41911764705882354
0.000428830985656,0.4264705882352941
0.000428830985656,0.4338235294117647
0.00053603873207,0.4411764705882353
0.000643246478484,0.4485294117647059
0.000643246478484,0.45588235294117646
0.000786190140369,0.4632352941176471
0.000857661971312,0.47058823529411764
0.000857661971312,0.47794117647058826
0.00128649295697,0.4852941176470588
0.0017510598581,0.49264705882352944
0.00310902464601,0.5
0.00318049647695,0.5073529411764706
0.0041096302792,0.5147058823529411
0.0051102359124,0.5220588235294118
0.00518170774334,0.5294117647058824
0.00553906689806,0.5367647058823529
0.005610538729,0.5441176470588235
0.00603936971465,0.5514705882352942
0.0380201156754,0.5588235294117647
0.0386586026376,0.5661764705882353
0.0458754844392,0.5735294117647058
0.045948595314,0.5808823529411765
0.0460562144615,0.5882352941176471
0.0460846711863,0.5955882352941176
0.0461083353657,0.6029411764705882
0.0461572052534,0.6102941176470589
0.0462462862184,0.6176470588235294
0.0462599035356,0.625
0.0462772104052,0.6323529411764706
0.0462830595539,0.6397058823529411
0.0462832802684,0.6470588235294118
0.0462839948257,0.6544117647058824
0.0462842281527,0.6617647058823529
0.0462849124723,0.6691176470588235
0.0462854764522,0.6764705882352942
0.046289824562,0.6838235294117647
0.0462936381534,0.6911764705882353
0.046303989305,0.6985294117647058
0.0463080322282,0.7058823529411765
0.0463080425546,0.7132352941176471
0.0463080905813,0.7205882352941176
0.0463080935015,0.7279411764705882
0.0463084969351,0.7352941176470589
0.046308498882,0.7426470588235294
0.046308498882,0.75
1.15709987064,0.7573529411764706
1.15724561405,0.7647058823529411
1.2324427818,0.7720588235294118
2.30786026267,0.7794117647058824
2.30786026267,0.7867647058823529
2.31468190767,0.7941176470588235
2.31468190767,0.8014705882352942
3.47129961193,0.8088235294117647
3.85712149364,0.8161764705882353
3.85712149364,0.8235294117647058
3.85712149364,0.8308823529411765
4.61083353657,0.8382352941176471
4.62849124723,0.8455882352941176
4.6289824562,0.8529411764705882
4.63080425546,0.8602941176470589
4.63080935015,0.8676470588235294
4.6308498882,0.875
4.6308498882,0.8823529411764706
5.78564751587,0.8897058823529411
6.91348170882,0.8970588235294118
6.94298786305,0.9044117647058824
8.48311184719,0.9117647058823529
9.2193006552,0.9191176470588235
9.26161840829,0.9264705882352942
13.8925494699,0.9338235294117647
18.899683072,0.9411764705882353
33.5730209705,0.9485294117647058
34.3152838037,0.9558823529411765
44.3752233023,0.9632352941176471
55.0356146117,0.9705882352941176
55.9459322059,0.9779411764705882
58.8376261792,0.9852941176470589
60.5407917373,0.9926470588235294
64.4066520011,1.0
