Congestion,CDF
0.0,0.007352941176470588
0.0,0.014705882352941176
0.0,0.022058823529411766
0.0,0.029411764705882353
0.0,0.03676470588235294
0.0,0.04411764705882353
0.0,0.051470588235294115
0.0,0.058823529411764705
0.0,0.0661764705882353
0.0,0.07352941176470588
0.0,0.08088235294117647
0.0,0.08823529411764706
0.0,0.09558823529411764
0.0,0.10294117647058823
5.04202005483e-06,0.11029411764705882
5.04202005483e-06,0.11764705882352941
5.04202005483e-06,0.125
5.04202005483e-06,0.1323529411764706
5.04202005483e-06,0.13970588235294118
5.04202005483e-06,0.14705882352941177
5.04202005483e-06,0.15441176470588236
5.04202005483e-06,0.16176470588235295
5.04202005483e-06,0.16911764705882354
5.04202005483e-06,0.17647058823529413
5.04202005483e-06,0.18382352941176472
5.04202005483e-06,0.19117647058823528
5.04202005483e-06,0.19852941176470587
5.04202005483e-06,0.20588235294117646
5.04202005483e-06,0.21323529411764705
5.04202005483e-06,0.22058823529411764
5.04202005483e-06,0.22794117647058823
5.04202005483e-06,0.23529411764705882
5.04202005483e-06,0.2426470588235294
5.04202005483e-06,0.25
5.04202005483e-06,0.25735294117647056
5.04202005483e-06,0.2647058823529412
5.04202005483e-06,0.27205882352941174
5.04202005483e-06,0.27941176470588236
5.04202005483e-06,0.2867647058823529
5.04202005483e-06,0.29411764705882354
5.04202005483e-06,0.3014705882352941
0.000126050501371,0.3088235294117647
0.000126050501371,0.3161764705882353
0.00013613454148,0.3235294117647059
0.000252101002741,0.33088235294117646
0.000252101002741,0.3382352941176471
0.000252101002741,0.34558823529411764
0.000252101002741,0.35294117647058826
0.000378151504112,0.3602941176470588
0.000420168337902,0.36764705882352944
0.000420168337902,0.375
0.000420168337902,0.38235294117647056
0.000504202005483,0.3897058823529412
0.000504202005483,0.39705882352941174
0.000504202005483,0.40441176470588236
0.000504202005483,0.4117647058823529
0.000504202005483,0.41911764705882354
0.000504202005483,0.4264705882352941
0.000504202005483,0.4338235294117647
0.000630252506853,0.4411764705882353
0.000756303008224,0.4485294117647059
0.000756303008224,0.45588235294117646
0.000924370343385,0.4632352941176471
0.00100840401097,0.47058823529411764
0.00100840401097,0.47794117647058826
0.00151260601645,0.4852941176470588
0.00205882485572,0.49264705882352944
0.00365546453975,0.5
0.00373949820733,0.5073529411764706
0.00483193588588,0.5147058823529411
0.00536489346781,0.5220588235294118
0.006008407232,0.5294117647058824
0.00609244089958,0.5367647058823529
0.00634387519345,0.5441176470588235
0.00651260923748,0.5514705882352942
0.00659664290507,0.5588235294117647
0.00710084491055,0.5661764705882353
0.0199890381468,0.5735294117647058
0.0201128007121,0.5808823529411765
0.0204002422695,0.5882352941176471
0.0204449893239,0.5955882352941176
0.0205008066955,0.6029411764705882
0.0205395297628,0.6102941176470589
0.020642398548,0.6176470588235294
0.0206667673605,0.625
0.0206798418613,0.6323529411764706
0.0206908632485,0.6397058823529411
0.0206920634012,0.6470588235294118
0.0206924478391,0.6544117647058824
0.0206930413751,0.6617647058823529
0.0206938441153,0.6691176470588235
0.0206944868144,0.6764705882352942
0.0206989966833,0.6838235294117647
0.0207023373791,0.6911764705882353
0.0207130763774,0.6985294117647058
0.020717345804,0.7058823529411765
0.0207173635013,0.7132352941176471
0.0207174136823,0.7205882352941176
0.0207174179369,0.7279411764705882
0.0207178207541,0.7352941176470589
0.0207178235906,0.7426470588235294
0.0207178235906,0.75
0.517326034378,0.7573529411764706
0.517474917083,0.7647058823529411
0.526979349435,0.7720588235294118
1.02697648814,0.7794117647058824
1.02697648814,0.7867647058823529
1.03511686896,0.7941176470588235
1.03511686896,0.8014705882352942
1.55197810313,0.8088235294117647
1.72453639817,0.8161764705882353
1.72453639817,0.8235294117647058
1.72453639817,0.8308823529411765
2.05008066955,0.8382352941176471
2.06938441153,0.8455882352941176
2.06989966833,0.8529411764705882
2.07173635013,0.8602941176470589
2.07174179369,0.8676470588235294
2.07178235906,0.875
2.07178235906,0.8823529411764706
2.58677471581,0.8897058823529411
3.06700071508,0.8970588235294118
3.1042031938,0.9044117647058824
3.79121313421,0.9117647058823529
4.09457960195,0.9191176470588235
4.14348316192,0.9264705882352942
6.21534679354,0.9338235294117647
8.44994030942,0.9411764705882353
15.0197758031,0.9485294117647058
15.3323697866,0.9558823529411765
19.8507367079,0.9632352941176471
24.4928539183,0.9705882352941176
25.0229240879,0.9779411764705882
25.0293432651,0.9852941176470589
27.0342041591,0.9926470588235294
27.6685916784,1.0
