Congestion,CDF
0.0,0.007352941176470588
0.0,0.014705882352941176
0.0,0.022058823529411766
0.0,0.029411764705882353
0.0,0.03676470588235294
0.0,0.04411764705882353
0.0,0.051470588235294115
0.0,0.058823529411764705
0.0,0.0661764705882353
0.0,0.07352941176470588
0.0,0.08088235294117647
0.0,0.08823529411764706
0.0,0.09558823529411764
0.0,0.10294117647058823
1.20226454318e-05,0.11029411764705882
1.20226454318e-05,0.11764705882352941
1.20226454318e-05,0.125
1.20226454318e-05,0.1323529411764706
1.20226454318e-05,0.13970588235294118
1.20226454318e-05,0.14705882352941177
1.20226454318e-05,0.15441176470588236
1.20226454318e-05,0.16176470588235295
1.20226454318e-05,0.16911764705882354
1.20226454318e-05,0.17647058823529413
1.20226454318e-05,0.18382352941176472
1.20226454318e-05,0.19117647058823528
1.20226454318e-05,0.19852941176470587
1.20226454318e-05,0.20588235294117646
1.20226454318e-05,0.21323529411764705
1.20226454318e-05,0.22058823529411764
1.20226454318e-05,0.22794117647058823
1.20226454318e-05,0.23529411764705882
1.20226454318e-05,0.2426470588235294
1.20226454318e-05,0.25
1.20226454318e-05,0.25735294117647056
1.20226454318e-05,0.2647058823529412
1.20226454318e-05,0.27205882352941174
1.20226454318e-05,0.27941176470588236
1.20226454318e-05,0.2867647058823529
1.20226454318e-05,0.29411764705882354
1.20226454318e-05,0.3014705882352941
0.000300566135795,0.3088235294117647
0.000300566135795,0.3161764705882353
0.000324611426659,0.3235294117647059
0.000482210475312,0.33088235294117646
0.00060113227159,0.3382352941176471
0.00060113227159,0.34558823529411764
0.00060113227159,0.35294117647058826
0.00060113227159,0.3602941176470588
0.000863508310884,0.36764705882352944
0.000901698407385,0.375
0.00100188711932,0.38235294117647056
0.00100188711932,0.3897058823529412
0.00100188711932,0.39705882352941174
0.00120226454318,0.40441176470588236
0.00120226454318,0.4117647058823529
0.00120226454318,0.41911764705882354
0.00120226454318,0.4264705882352941
0.00120226454318,0.4338235294117647
0.00120226454318,0.4411764705882353
0.00120226454318,0.4485294117647059
0.00150283067898,0.45588235294117646
0.00180339681477,0.4632352941176471
0.00180339681477,0.47058823529411764
0.0022041516625,0.47794117647058826
0.00233650580124,0.4852941176470588
0.00240452908636,0.49264705882352944
0.00240452908636,0.5
0.00256586268027,0.5073529411764706
0.00289120171352,0.5147058823529411
0.00301142402493,0.5220588235294118
0.00309135717292,0.5294117647058824
0.00319859659963,0.5367647058823529
0.00348066041338,0.5441176470588235
0.00353285810191,0.5514705882352942
0.0035699726208,0.5588235294117647
0.00359100828764,0.5661764705882353
0.0035942732293,0.5735294117647058
0.003597068931,0.5808823529411765
0.00359844043059,0.5882352941176471
0.00360110771609,0.5955882352941176
0.00360299061852,0.6029411764705882
0.00360679362954,0.6102941176470589
0.00361102486428,0.6176470588235294
0.00361872204136,0.625
0.00364577445369,0.6323529411764706
0.00365548762456,0.6397058823529411
0.00365553088387,0.6470588235294118
0.00365583002907,0.6544117647058824
0.00365584321719,0.6617647058823529
0.00365661504194,0.6691176470588235
0.00365662383579,0.6764705882352942
0.00365662383579,0.6838235294117647
0.00490924688465,0.6911764705882353
0.00871641793806,0.6985294117647058
0.00891679536192,0.7058823529411765
0.0115217018721,0.7132352941176471
0.0143269858062,0.7205882352941176
0.0145273632301,0.7279411764705882
0.0155292503494,0.7352941176470589
0.0157296277733,0.7426470588235294
0.0169318923165,0.75
0.0870771229555,0.7573529411764706
0.0899267232749,0.7647058823529411
0.090275621607,0.7720588235294118
0.159929829982,0.7794117647058824
0.159929829982,0.7867647058823529
0.180936102068,0.7941176470588235
0.180936102068,0.8014705882352942
0.269780169825,0.8088235294117647
0.300011452525,0.8161764705882353
0.300011452525,0.8235294117647058
0.300011452525,0.8308823529411765
0.309135717292,0.8382352941176471
0.360110771609,0.8455882352941176
0.361102486428,0.8529411764705882
0.365553088387,0.8602941176470589
0.365584321719,0.8676470588235294
0.365662383579,0.875
0.365662383579,0.8823529411764706
0.449050001333,0.8897058823529411
0.450225785127,0.8970588235294118
0.540036930832,0.9044117647058824
0.610278119785,0.9117647058823529
0.653297262716,0.9191176470588235
0.731167324625,0.9264705882352942
1.09698627135,0.9338235294117647
1.47019205232,0.9411764705882353
2.63148518635,0.9485294117647058
2.64953106843,0.9558823529411765
3.49505606839,0.9632352941176471
3.9244638876,0.9705882352941176
4.01081471869,0.9779411764705882
4.3920902613,0.9852941176470589
4.64867652933,0.9926470588235294
4.69689757686,1.0
