Congestion,CDF
0.0,0.007352941176470588
0.0,0.014705882352941176
0.0,0.022058823529411766
0.0,0.029411764705882353
0.0,0.03676470588235294
0.0,0.04411764705882353
0.0,0.051470588235294115
0.0,0.058823529411764705
0.0,0.0661764705882353
0.0,0.07352941176470588
0.0,0.08088235294117647
0.0,0.08823529411764706
0.0,0.09558823529411764
0.0,0.10294117647058823
5.74885886899e-06,0.11029411764705882
5.74885886899e-06,0.11764705882352941
5.74885886899e-06,0.125
5.74885886899e-06,0.1323529411764706
5.74885886899e-06,0.13970588235294118
5.74885886899e-06,0.14705882352941177
5.74885886899e-06,0.15441176470588236
5.74885886899e-06,0.16176470588235295
5.74885886899e-06,0.16911764705882354
5.74885886899e-06,0.17647058823529413
5.74885886899e-06,0.18382352941176472
5.74885886899e-06,0.19117647058823528
5.74885886899e-06,0.19852941176470587
5.74885886899e-06,0.20588235294117646
5.74885886899e-06,0.21323529411764705
5.74885886899e-06,0.22058823529411764
5.74885886899e-06,0.22794117647058823
5.74885886899e-06,0.23529411764705882
5.74885886899e-06,0.2426470588235294
5.74885886899e-06,0.25
5.74885886899e-06,0.25735294117647056
5.74885886899e-06,0.2647058823529412
5.74885886899e-06,0.27205882352941174
5.74885886899e-06,0.27941176470588236
5.74885886899e-06,0.2867647058823529
5.74885886899e-06,0.29411764705882354
5.74885886899e-06,0.3014705882352941
0.000143721471725,0.3088235294117647
0.000143721471725,0.3161764705882353
0.000155219189463,0.3235294117647059
0.000287442943449,0.33088235294117646
0.000287442943449,0.3382352941176471
0.000287442943449,0.34558823529411764
0.000287442943449,0.35294117647058826
0.000431164415174,0.3602941176470588
0.000479071572416,0.36764705882352944
0.000479071572416,0.375
0.000479071572416,0.38235294117647056
0.000574885886899,0.3897058823529412
0.000574885886899,0.39705882352941174
0.000574885886899,0.40441176470588236
0.000574885886899,0.4117647058823529
0.000574885886899,0.41911764705882354
0.000574885886899,0.4264705882352941
0.000574885886899,0.4338235294117647
0.000694778867837,0.4411764705882353
0.000718607358623,0.4485294117647059
0.000862328830348,0.45588235294117646
0.000862328830348,0.4632352941176471
0.00105395745931,0.47058823529411764
0.0011497717738,0.47794117647058826
0.0011497717738,0.4852941176470588
0.00146492403292,0.49264705882352944
0.0017246576607,0.5
0.00234745070484,0.5073529411764706
0.00416792268002,0.5147058823529411
0.0042637369945,0.5220588235294118
0.00550932308278,0.5294117647058824
0.00685072348554,0.5367647058823529
0.00694653780003,0.5441176470588235
0.00742560937244,0.5514705882352942
0.00752142368693,0.5588235294117647
0.00809630957382,0.5661764705882353
0.0130138997183,0.5735294117647058
0.0131640934964,0.5808823529411765
0.0135168670781,0.5882352941176471
0.0135763675542,0.5955882352941176
0.013650868059,0.6029411764705882
0.0136797150914,0.6102941176470589
0.0138062348156,0.6176470588235294
0.0138388478726,0.625
0.013849640827,0.6323529411764706
0.0138643908131,0.6397058823529411
0.0138665489017,0.6470588235294118
0.0138665878027,0.6544117647058824
0.0138678896438,0.6617647058823529
0.0138686948779,0.6691176470588235
0.0138695314246,0.6764705882352942
0.0138742261636,0.6838235294117647
0.0138768380695,0.6911764705882353
0.0138885375535,0.6985294117647058
0.0138931373454,0.7058823529411765
0.0138931669649,0.7132352941176471
0.0138932254482,0.7205882352941176
0.0138932331253,0.7279411764705882
0.0138936352874,0.7352941176470589
0.0138936404056,0.7426470588235294
0.0138936404056,0.75
0.346353161646,0.7573529411764706
0.346697241095,0.7647058823529411
0.34685565409,0.7720588235294118
0.683985754568,0.7794117647058824
0.683985754568,0.7867647058823529
0.693841903476,0.7941176470588235
0.693841903476,0.8014705882352942
1.04009172329,0.8088235294117647
1.15577119191,0.8161764705882353
1.15577119191,0.8235294117647058
1.15577119191,0.8308823529411765
1.3650868059,0.8382352941176471
1.38686948779,0.8455882352941176
1.38742261636,0.8529411764705882
1.38931669649,0.8602941176470589
1.38932331253,0.8676470588235294
1.38936404056,0.875
1.38936404056,0.8823529411764706
1.73365038355,0.8897058823529411
2.03567246237,0.8970588235294118
2.08028098478,0.9044117647058824
2.53965597917,0.9117647058823529
2.72272356133,0.9191176470588235
2.77864585734,0.9264705882352942
4.16809160987,0.9338235294117647
5.66294984353,0.9411764705882353
10.0722235523,0.9485294117647058
10.2672150588,0.9558823529411765
13.3106904031,0.9632352941176471
16.3270010544,0.9705882352941176
16.4734934577,0.9779411764705882
16.7759354705,0.9852941176470589
18.0923448202,0.9926470588235294
18.161822707,1.0
