Congestion,CDF
0.0,0.005555555555555556
0.0,0.011111111111111112
0.0,0.016666666666666666
0.0,0.022222222222222223
0.0,0.027777777777777776
0.0,0.03333333333333333
0.0,0.03888888888888889
0.0,0.044444444444444446
0.0,0.05
0.0,0.05555555555555555
4.25771176039e-07,0.06111111111111111
4.89190604624e-07,0.06666666666666667
1.10112751996e-06,0.07222222222222222
1.60936192294e-06,0.07777777777777778
1.64677328804e-06,0.08333333333333333
2.17430763335e-06,0.08888888888888889
2.39202617181e-06,0.09444444444444444
3.29675752437e-06,0.1
3.3137656614e-06,0.10555555555555556
3.39029332826e-06,0.1111111111111111
3.46006945492e-06,0.11666666666666667
3.80882958721e-06,0.12222222222222222
3.89717447582e-06,0.12777777777777777
4.35195087704e-06,0.13333333333333333
4.45727200514e-06,0.1388888888888889
4.69356419626e-06,0.14444444444444443
5.42723227523e-06,0.15
5.93960252581e-06,0.15555555555555556
6.20214143083e-06,0.16111111111111112
6.45048212457e-06,0.16666666666666666
6.55254199506e-06,0.17222222222222222
6.60516758474e-06,0.17777777777777778
6.82400620876e-06,0.18333333333333332
7.06112741771e-06,0.18888888888888888
7.18032226705e-06,0.19444444444444445
7.26141103932e-06,0.2
7.30169738254e-06,0.20555555555555555
7.38554559259e-06,0.2111111111111111
7.45771573445e-06,0.21666666666666667
7.47408090714e-06,0.2222222222222222
7.72380914944e-06,0.22777777777777777
7.7882479143e-06,0.23333333333333334
7.8776521519e-06,0.2388888888888889
8.53107475457e-06,0.24444444444444444
8.97692145167e-06,0.25
9.74632558277e-06,0.25555555555555554
9.90072893658e-06,0.2611111111111111
1.0043207603e-05,0.26666666666666666
1.03833201863e-05,0.2722222222222222
3.67042506653e-05,0.2777777777777778
7.34085013306e-05,0.2833333333333333
8.04680961468e-05,0.28888888888888886
8.04680961468e-05,0.29444444444444445
8.28441415349e-05,0.3
8.28441415349e-05,0.3055555555555556
0.000125421259139,0.3111111111111111
0.000164677328804,0.31666666666666665
0.00016568828307,0.32222222222222224
0.000220602597643,0.3277777777777778
0.000329675752437,0.3333333333333333
0.000342852022474,0.3388888888888889
0.000363070551966,0.34444444444444444
0.000363070551966,0.35
0.000463727100256,0.35555555555555557
0.000706112741771,0.3611111111111111
0.000718032226705,0.36666666666666664
0.000740984854621,0.37222222222222223
0.00079826563967,0.37777777777777777
0.000844572372609,0.38333333333333336
0.000844572372609,0.3888888888888889
0.000963066165556,0.39444444444444443
0.00101778480426,0.4
0.0010943916035,0.40555555555555556
0.00117000904337,0.4111111111111111
0.00145352083248,0.4166666666666667
0.00153682019893,0.4222222222222222
0.00161695328755,0.42777777777777776
0.00198788303657,0.43333333333333335
0.00233388998207,0.4388888888888889
0.00244357768515,0.4444444444444444
0.00301738613513,0.45
0.00341821024343,0.45555555555555555
0.00513489370224,0.46111111111111114
0.00526454514354,0.4666666666666667
0.00608144585545,0.4722222222222222
0.00694675506786,0.4777777777777778
0.00712897168605,0.48333333333333334
0.0073986241685,0.4888888888888889
0.00740680144307,0.49444444444444446
0.00743604255138,0.5
0.00745367574763,0.5055555555555555
0.00746127132683,0.5111111111111111
0.0074814144402,0.5166666666666667
0.00751495872607,0.5222222222222223
0.00751843628499,0.5277777777777778
0.00752793506492,0.5333333333333333
0.0075339622033,0.5388888888888889
0.00754219654991,0.5444444444444444
0.00754552517946,0.55
0.00754717552595,0.5555555555555556
0.00756352408599,0.5611111111111111
0.00756687674971,0.5666666666666667
0.00757810239637,0.5722222222222222
0.00758554820328,0.5777777777777777
0.00759928207314,0.5833333333333334
0.00760371758856,0.5888888888888889
0.00762086965501,0.5944444444444444
0.00762562908912,0.6
0.00762774587289,0.6055555555555555
0.00762961195082,0.6111111111111112
0.00763085730881,0.6166666666666667
0.00763603171285,0.6222222222222222
0.00763918797797,0.6277777777777778
0.00764955293342,0.6333333333333333
0.00765712958714,0.6388888888888888
0.00765969845136,0.6444444444444445
0.00766868666704,0.65
0.00767017718306,0.6555555555555556
0.00767348397696,0.6611111111111111
0.00767845498346,0.6666666666666666
0.00768024216294,0.6722222222222223
0.00768098147724,0.6777777777777778
0.00771806146938,0.6833333333333333
0.00774427887217,0.6888888888888889
0.00843695618712,0.6944444444444444
0.00864197101734,0.7
0.00909221038663,0.7055555555555556
0.00919179553311,0.7111111111111111
0.00973451876063,0.7166666666666667
0.0105133435521,0.7222222222222222
0.0105789668147,0.7277777777777777
0.0107525461692,0.7333333333333333
0.0109179961475,0.7388888888888889
0.0113077135951,0.7444444444444445
0.189171918743,0.75
0.189171918743,0.7555555555555555
0.250931168831,0.7611111111111111
0.2900880142,0.7666666666666667
0.370340072154,0.7722222222222223
0.370340072154,0.7777777777777778
0.378343837485,0.7833333333333333
0.381281454456,0.7888888888888889
0.381281454456,0.7944444444444444
0.501862337661,0.8
0.75339622033,0.8055555555555556
0.754219654991,0.8111111111111111
0.762086965501,0.8166666666666667
0.765712958714,0.8222222222222222
0.937313362763,0.8277777777777777
0.947726739071,0.8333333333333334
1.11394432729,0.8388888888888889
1.13763386306,0.8444444444444444
1.15014998442,0.85
1.2059702647,0.8555555555555555
1.2059702647,0.8611111111111112
1.52142043662,0.8666666666666667
1.52504816058,0.8722222222222222
1.68915699126,0.8777777777777778
1.90040845034,0.8833333333333333
1.96174363878,0.8888888888888888
1.9728389314,0.8944444444444445
2.44952875012,0.9
3.50350718346,0.9055555555555556
3.91920977609,0.9111111111111111
4.34894865736,0.9166666666666666
4.67702001573,0.9222222222222223
5.11679415571,0.9277777777777778
8.94649704432,0.9333333333333333
9.31034891436,0.9388888888888889
10.0773666327,0.9444444444444444
10.8319191506,0.95
11.2315206522,0.9555555555555556
11.9988690499,0.9611111111111111
12.6912310527,0.9666666666666667
13.1239266747,0.9722222222222222
13.3859065595,0.9777777777777777
13.8700538074,0.9833333333333333
13.8993959297,0.9888888888888889
14.582950976,0.9944444444444445
15.1094054903,1.0
