Congestion,CDF
0.0,0.005555555555555556
0.0,0.011111111111111112
0.0,0.016666666666666666
0.0,0.022222222222222223
0.0,0.027777777777777776
0.0,0.03333333333333333
0.0,0.03888888888888889
0.0,0.044444444444444446
0.0,0.05
0.0,0.05555555555555555
3.75526536281e-07,0.06111111111111111
4.3146192996e-07,0.06666666666666667
9.71185056303e-07,0.07222222222222222
1.41944345356e-06,0.07777777777777778
1.45243995765e-06,0.08333333333333333
1.917720739e-06,0.08888888888888889
2.1097466281e-06,0.09444444444444444
2.90771194425e-06,0.1
2.92271297566e-06,0.10555555555555556
2.9902097234e-06,0.1111111111111111
3.05175167043e-06,0.11666666666666667
3.35935512468e-06,0.12222222222222222
3.43727456095e-06,0.12777777777777777
3.8383834578e-06,0.13333333333333333
3.93127579214e-06,0.1388888888888889
4.13968348405e-06,0.14444444444444443
4.78677245573e-06,0.15
5.2386786352e-06,0.15555555555555556
5.47023570433e-06,0.16111111111111112
5.68927007252e-06,0.16666666666666666
5.77928600553e-06,0.17222222222222222
5.82570132559e-06,0.17777777777777778
6.01871512058e-06,0.18333333333333332
6.22785399913e-06,0.18888888888888888
6.33298283695e-06,0.19444444444444445
6.40450244066e-06,0.2
6.44003465087e-06,0.20555555555555555
6.51398805511e-06,0.2111111111111111
6.57764150307e-06,0.21666666666666667
6.59207544543e-06,0.2222222222222222
6.81233361959e-06,0.22777777777777777
6.86916805914e-06,0.23333333333333334
6.94802183216e-06,0.2388888888888889
7.52433497997e-06,0.24444444444444444
7.91756795416e-06,0.25
8.59617581822e-06,0.25555555555555554
8.7323582559e-06,0.2611111111111111
8.8580232213e-06,0.26666666666666666
9.15799961122e-06,0.2722222222222222
3.23728352101e-05,0.2777777777777778
6.47456704202e-05,0.2833333333333333
7.09721726779e-05,0.28888888888888886
7.09721726779e-05,0.29444444444444445
7.30678243914e-05,0.3
7.30678243914e-05,0.3055555555555556
0.00011062047802,0.3111111111111111
0.000145243995765,0.31666666666666665
0.000146135648783,0.32222222222222224
0.000194569604637,0.3277777777777778
0.000290771194425,0.3333333333333333
0.00030239255192,0.3388888888888889
0.000320225122033,0.34444444444444444
0.000320225122033,0.35
0.00040900333686,0.35555555555555557
0.000622785399913,0.3611111111111111
0.000633298283695,0.36666666666666664
0.000653542305237,0.37222222222222223
0.000704063467813,0.37777777777777777
0.000744905610273,0.38333333333333336
0.000744905610273,0.3888888888888889
0.000849416122352,0.39444444444444443
0.000897677493762,0.4
0.00096524403559,0.40555555555555556
0.00103193797091,0.4111111111111111
0.00128199294446,0.4166666666666667
0.00135546227332,0.4222222222222222
0.00142613897223,0.42777777777777776
0.00175329583886,0.43333333333333335
0.0020584710059,0.4388888888888889
0.00215521462203,0.4444444444444444
0.00266130876798,0.45
0.00301483220385,0.45555555555555555
0.00536378323897,0.46111111111111114
0.00652552324722,0.4666666666666667
0.00683038773999,0.4722222222222222
0.00729025343317,0.4777777777777778
0.00744132320834,0.48333333333333334
0.00746852137658,0.4888888888888889
0.0076221445354,0.49444444444444446
0.00801925180889,0.5
0.00810708505649,0.5055555555555555
0.00858576230206,0.5111111111111111
0.00927267910797,0.5166666666666667
0.00933055826444,0.5222222222222223
0.00948365377078,0.5277777777777778
0.00962957923678,0.5333333333333333
0.00997330669287,0.5388888888888889
0.0101021404338,0.5444444444444444
0.0103377704201,0.55
0.0106421107176,0.5555555555555556
0.0107091125827,0.5611111111111111
0.0107141528876,0.5666666666666667
0.0107288660256,0.5722222222222222
0.0107381300875,0.5777777777777777
0.0107432362174,0.5833333333333334
0.0107618023927,0.5888888888888889
0.0107621067187,0.5944444444444444
0.0107728123082,0.6
0.0107961200135,0.6055555555555555
0.0108134561816,0.6111111111111112
0.0108209557764,0.6166666666666667
0.0108270843328,0.6222222222222222
0.0108285593768,0.6277777777777778
0.0108335178274,0.6333333333333333
0.0108441494873,0.6388888888888888
0.0108638066484,0.6444444444444445
0.010884180892,0.65
0.0109089224871,0.6555555555555556
0.0109091761264,0.6611111111111111
0.0109157672925,0.6666666666666666
0.0109187610753,0.6722222222222223
0.0109190164773,0.6777777777777778
0.0109216906096,0.6833333333333333
0.0109349563711,0.6888888888888889
0.0109356967776,0.6944444444444444
0.0109465282587,0.7
0.0109502056503,0.7055555555555556
0.0109630499453,0.7111111111111111
0.0109792629666,0.7166666666666667
0.0109819780177,0.7222222222222222
0.0109887763211,0.7277777777777777
0.0109912922625,0.7333333333333333
0.0109952244859,0.7388888888888889
0.0110336116912,0.7444444444444445
0.270523894411,0.75
0.270523894411,0.7555555555555555
0.358726746424,0.7611111111111111
0.415476762954,0.7666666666666667
0.53210553588,0.7722222222222223
0.53210553588,0.7777777777777778
0.541047788822,0.7833333333333333
0.545788364626,0.7888888888888889
0.545788364626,0.7944444444444444
0.717453492848,0.8
1.07728123082,0.8055555555555556
1.07961200135,0.8111111111111111
1.09091761264,0.8166666666666667
1.09465282587,0.8222222222222222
1.34143515269,0.8277777777777777
1.35493884314,0.8333333333333334
1.60352082464,0.8388888888888889
1.62849679791,0.8444444444444444
1.64440895795,0.85
1.72412155782,0.8555555555555555
1.72412155782,0.8611111111111112
2.17547903258,0.8666666666666667
2.1830866736,0.8722222222222222
2.41764582456,0.8777777777777778
2.72039844564,0.8833333333333333
2.80455783827,0.8888888888888888
2.82042655235,0.8944444444444445
3.50606391376,0.9
5.00864905598,0.9055555555555556
5.60300301783,0.9111111111111111
6.22495991684,0.9166666666666666
6.68635480057,0.9222222222222223
7.32408914309,0.9277777777777778
12.7900244216,0.9333333333333333
13.3270967109,0.9388888888888889
14.425974343,0.9444444444444444
15.5088302807,0.95
16.0573795617,0.9555555555555556
17.1553058583,0.9611111111111111
18.1861641141,0.9666666666666667
18.7687570124,0.9722222222222222
19.1963781575,0.9777777777777777
19.841643615,0.9833333333333333
19.9254035008,0.9888888888888889
20.875420657,0.9944444444444445
21.6222727946,1.0
