Congestion,CDF
0.0339518142646,0.005555555555555556
0.0339518142646,0.011111111111111112
0.0339594211598,0.016666666666666666
0.0339594211598,0.022222222222222223
0.0342530085501,0.027777777777777776
0.0342530085501,0.03333333333333333
0.0344892450846,0.03888888888888889
0.0344892450846,0.044444444444444446
0.0346008027509,0.05
0.0346008027509,0.05555555555555555
0.0346813881151,0.06111111111111111
0.0346813881151,0.06666666666666667
0.0350910252003,0.07222222222222222
0.0350910252003,0.07777777777777778
0.0355036688464,0.08333333333333333
0.0355036688464,0.08888888888888889
0.0365255596576,0.09444444444444444
0.0365255596576,0.1
0.0366425415964,0.10555555555555556
0.0366425415964,0.1111111111111111
0.0367288125804,0.11666666666666667
0.0367288125804,0.12222222222222222
0.0369246145561,0.12777777777777777
0.0369246145561,0.13333333333333333
0.0370412679817,0.1388888888888889
0.0370412679817,0.14444444444444443
0.0371337214446,0.15
0.0371337214446,0.15555555555555556
0.0372495891111,0.16111111111111112
0.0372495891111,0.16666666666666666
0.0375512582566,0.17222222222222222
0.0375512582566,0.17777777777777778
0.0378058857119,0.18333333333333332
0.0378058857119,0.18888888888888888
0.0378597487605,0.19444444444444445
0.0378597487605,0.2
0.0379350528549,0.20555555555555555
0.0379350528549,0.2111111111111111
0.0380514611019,0.21666666666666667
0.0380514611019,0.2222222222222222
0.0380763086236,0.22777777777777777
0.0380763086236,0.23333333333333334
0.0383147294464,0.2388888888888889
0.0383147294464,0.24444444444444444
0.038324617914,0.25
0.038324617914,0.25555555555555554
0.03836890688,0.2611111111111111
0.03836890688,0.26666666666666666
0.0388492765215,0.2722222222222222
0.0388492765215,0.2777777777777778
0.0392291551653,0.2833333333333333
0.0392291551653,0.28888888888888886
0.0393234583138,0.29444444444444445
0.0393234583138,0.3
0.0394460765857,0.3055555555555556
0.0394460765857,0.3111111111111111
0.0394896862805,0.31666666666666665
0.0394896862805,0.32222222222222224
0.0395619477012,0.3277777777777778
0.0395619477012,0.3333333333333333
0.0396200235814,0.3388888888888889
0.0396200235814,0.34444444444444444
0.0397831612972,0.35
0.0397831612972,0.35555555555555557
0.0399196882228,0.3611111111111111
0.0399196882228,0.36666666666666664
0.0401660748893,0.37222222222222223
0.0401660748893,0.37777777777777777
0.0402282784744,0.38333333333333336
0.0402282784744,0.3888888888888889
0.040365713663,0.39444444444444443
0.040365713663,0.4
0.0404577616814,0.40555555555555556
0.0404577616814,0.4111111111111111
0.0407896190827,0.4166666666666667
0.0407896190827,0.4222222222222222
0.0410884263066,0.42777777777777776
0.0410884263066,0.43333333333333335
0.0415914246258,0.4388888888888889
0.0415914246258,0.4444444444444444
1.06728202126,0.45
1.06728202126,0.45555555555555555
1.21386975832,0.46111111111111114
1.21386975832,0.4666666666666667
1.31062165959,0.4722222222222222
1.31062165959,0.4777777777777778
1.4062572106,0.48333333333333334
1.4062572106,0.4888888888888889
2.21064065626,0.49444444444444446
2.21064065626,0.5
2.79331430563,0.5055555555555555
2.79331430563,0.5111111111111111
3.22816331028,0.5166666666666667
3.22816331028,0.5222222222222223
3.31457617849,0.5277777777777778
3.31457617849,0.5333333333333333
4.08872898662,0.5388888888888889
4.08872898662,0.5444444444444444
4.3699411078,0.55
4.3699411078,0.5555555555555556
4.54607600109,0.5611111111111111
4.54607600109,0.5666666666666667
4.56009005556,0.5722222222222222
4.56009005556,0.5777777777777777
4.64618304998,0.5833333333333334
4.64618304998,0.5888888888888889
4.70564315587,0.5944444444444444
4.70564315587,0.6
4.78877155393,0.6055555555555555
4.78877155393,0.6111111111111112
5.14197031923,0.6166666666666667
5.14197031923,0.6222222222222222
5.16621819015,0.6277777777777778
5.16621819015,0.6333333333333333
5.31388899366,0.6388888888888888
5.31388899366,0.6444444444444445
5.37118247279,0.65
5.37118247279,0.6555555555555556
5.5866169128,0.6611111111111111
5.5866169128,0.6666666666666666
5.76633063427,0.6722222222222223
5.76633063427,0.6777777777777778
5.89245141825,0.6833333333333333
5.89245141825,0.6888888888888889
5.99067504558,0.6944444444444444
5.99067504558,0.7
5.99448784131,0.7055555555555556
5.99448784131,0.7111111111111111
6.41537059425,0.7166666666666667
6.41537059425,0.7222222222222222
6.76858091156,0.7277777777777777
6.76858091156,0.7333333333333333
6.88394362021,0.7388888888888889
6.88394362021,0.7444444444444445
8.19295064779,0.75
8.19295064779,0.7555555555555555
8.40854883994,0.7611111111111111
8.40854883994,0.7666666666666667
8.48254594149,0.7722222222222223
8.48254594149,0.7777777777777778
8.87253287227,0.7833333333333333
8.87253287227,0.7888888888888889
9.263693977,0.7944444444444444
9.263693977,0.8
9.32867652778,0.8055555555555556
9.32867652778,0.8111111111111111
9.79663336771,0.8166666666666667
9.79663336771,0.8222222222222222
10.3402980956,0.8277777777777777
10.3402980956,0.8333333333333334
10.6023547463,0.8388888888888889
10.6023547463,0.8444444444444444
11.3263121205,0.85
11.3263121205,0.8555555555555555
12.3423614521,0.8611111111111112
12.3423614521,0.8666666666666667
12.8023822647,0.8722222222222222
12.8023822647,0.8777777777777778
13.6399999123,0.8833333333333333
13.6399999123,0.8888888888888888
13.805953072,0.8944444444444445
13.805953072,0.9
14.9141039846,0.9055555555555556
14.9141039846,0.9111111111111111
15.6210366303,0.9166666666666666
15.6210366303,0.9222222222222223
16.2454991541,0.9277777777777778
16.2454991541,0.9333333333333333
17.8513871061,0.9388888888888889
17.8513871061,0.9444444444444444
18.1956143587,0.95
18.1956143587,0.9555555555555556
18.8308697742,0.9611111111111111
18.8308697742,0.9666666666666667
20.0499509085,0.9722222222222222
20.0499509085,0.9777777777777777
21.770827884,0.9833333333333333
21.770827884,0.9888888888888889
22.75951553,0.9944444444444445
22.75951553,1.0
