Congestion,CDF
0.0209323954668,0.005555555555555556
0.0209323954668,0.011111111111111112
0.0210818329911,0.016666666666666666
0.0210818329911,0.022222222222222223
0.0211108365448,0.027777777777777776
0.0211108365448,0.03333333333333333
0.0211963966571,0.03888888888888889
0.0211963966571,0.044444444444444446
0.0212009640964,0.05
0.0212009640964,0.05555555555555555
0.0213233235025,0.06111111111111111
0.0213233235025,0.06666666666666667
0.0214862664462,0.07222222222222222
0.0214862664462,0.07777777777777778
0.0217976659158,0.08333333333333333
0.0217976659158,0.08888888888888889
0.0219678444812,0.09444444444444444
0.0219678444812,0.1
0.0220353810771,0.10555555555555556
0.0220353810771,0.1111111111111111
0.0222619725722,0.11666666666666667
0.0222619725722,0.12222222222222222
0.0223457910902,0.12777777777777777
0.0223457910902,0.13333333333333333
0.0223993175808,0.1388888888888889
0.0223993175808,0.14444444444444443
0.0225691511267,0.15
0.0225691511267,0.15555555555555556
0.0226196977957,0.16111111111111112
0.0226196977957,0.16666666666666666
0.0226248380679,0.17222222222222222
0.0226248380679,0.17777777777777778
0.0227367756118,0.18333333333333332
0.0227367756118,0.18888888888888888
0.0230756844511,0.19444444444444445
0.0230756844511,0.2
0.0230760452833,0.20555555555555555
0.0230760452833,0.2111111111111111
0.0231110598321,0.21666666666666667
0.0231110598321,0.2222222222222222
0.0231958662086,0.22777777777777777
0.0231958662086,0.23333333333333334
0.0232655345805,0.2388888888888889
0.0232655345805,0.24444444444444444
0.0233275409102,0.25
0.0233275409102,0.25555555555555554
0.0233875619352,0.2611111111111111
0.0233875619352,0.26666666666666666
0.0237005380771,0.2722222222222222
0.0237005380771,0.2777777777777778
0.0243319003145,0.2833333333333333
0.0243319003145,0.28888888888888886
0.0248261475509,0.29444444444444445
0.0248261475509,0.3
0.0249423620515,0.3055555555555556
0.0249423620515,0.3111111111111111
0.0250024356494,0.31666666666666665
0.0250024356494,0.32222222222222224
0.0250785568608,0.3277777777777778
0.0250785568608,0.3333333333333333
0.0251215943317,0.3388888888888889
0.0251215943317,0.34444444444444444
0.0251408795288,0.35
0.0251408795288,0.35555555555555557
0.0252582862579,0.3611111111111111
0.0252582862579,0.36666666666666664
0.025712659206,0.37222222222222223
0.025712659206,0.37777777777777777
0.0257489339817,0.38333333333333336
0.0257489339817,0.3888888888888889
0.0257815428442,0.39444444444444443
0.0257815428442,0.4
0.0259352664711,0.40555555555555556
0.0259352664711,0.4111111111111111
0.0259850909454,0.4166666666666667
0.0259850909454,0.4222222222222222
0.0262137326471,0.42777777777777776
0.0262137326471,0.43333333333333335
0.0267130324907,0.4388888888888889
0.0267130324907,0.4444444444444444
0.623512806968,0.45
0.623512806968,0.45555555555555555
0.721254446222,0.46111111111111114
0.721254446222,0.4666666666666667
0.76312524327,0.4722222222222222
0.76312524327,0.4777777777777778
0.782641907842,0.48333333333333334
0.782641907842,0.4888888888888889
1.32358593417,0.49444444444444446
1.32358593417,0.5
1.61082493751,0.5055555555555555
1.61082493751,0.5111111111111111
1.97765972877,0.5166666666666667
1.97765972877,0.5222222222222223
2.03238729127,0.5277777777777778
2.03238729127,0.5333333333333333
2.45291645454,0.5388888888888889
2.45291645454,0.5444444444444444
2.75528255544,0.55
2.75528255544,0.5555555555555556
2.85824790695,0.5611111111111111
2.85824790695,0.5666666666666667
2.873090478,0.5722222222222222
2.873090478,0.5777777777777777
2.89885821875,0.5833333333333334
2.89885821875,0.5888888888888889
2.92112265209,0.5944444444444444
2.92112265209,0.6
2.98322422579,0.6055555555555555
2.98322422579,0.6111111111111112
3.11942659533,0.6166666666666667
3.11942659533,0.6222222222222222
3.18734085272,0.6277777777777778
3.18734085272,0.6333333333333333
3.26947965161,0.6388888888888888
3.26947965161,0.6444444444444445
3.33909076844,0.65
3.33909076844,0.6555555555555556
3.52924713316,0.6611111111111111
3.52924713316,0.6666666666666666
3.57125669024,0.6722222222222223
3.57125669024,0.6777777777777778
3.65316606807,0.6833333333333333
3.65316606807,0.6888888888888889
3.66639511764,0.6944444444444444
3.66639511764,0.7
3.83424095076,0.7055555555555556
3.83424095076,0.7111111111111111
4.07027450396,0.7166666666666667
4.07027450396,0.7222222222222222
4.16114446048,0.7277777777777777
4.16114446048,0.7333333333333333
4.42861043502,0.7388888888888889
4.42861043502,0.7444444444444445
5.30752365571,0.75
5.30752365571,0.7555555555555555
5.48474998464,0.7611111111111111
5.48474998464,0.7666666666666667
5.4943316332,0.7722222222222223
5.4943316332,0.7777777777777778
5.80559746848,0.7833333333333333
5.80559746848,0.7888888888888889
5.88774517709,0.7944444444444444
5.88774517709,0.8
5.89992493183,0.8055555555555556
5.89992493183,0.8111111111111111
6.40029275565,0.8166666666666667
6.40029275565,0.8222222222222222
6.71816735703,0.8277777777777777
6.71816735703,0.8333333333333334
6.81687629115,0.8388888888888889
6.81687629115,0.8444444444444444
7.37632325558,0.85
7.37632325558,0.8555555555555555
8.1068212016,0.8611111111111112
8.1068212016,0.8666666666666667
8.13864790907,0.8722222222222222
8.13864790907,0.8777777777777778
9.01554007595,0.8833333333333333
9.01554007595,0.8888888888888888
9.05635562531,0.8944444444444445
9.05635562531,0.9
9.87843441677,0.9055555555555556
9.87843441677,0.9111111111111111
10.2076827148,0.9166666666666666
10.2076827148,0.9222222222222223
10.815801684,0.9277777777777778
10.815801684,0.9333333333333333
11.8001336884,0.9388888888888889
11.8001336884,0.9444444444444444
11.8846720977,0.95
11.8846720977,0.9555555555555556
12.3056834728,0.9611111111111111
12.3056834728,0.9666666666666667
13.3321822621,0.9722222222222222
13.3321822621,0.9777777777777777
14.4956949762,0.9833333333333333
14.4956949762,0.9888888888888889
15.084391471,0.9944444444444445
15.084391471,1.0
