Congestion,CDF
0.0175594952378,0.005555555555555556
0.0175594952378,0.011111111111111112
0.0175690737149,0.016666666666666666
0.0175690737149,0.022222222222222223
0.0177676758696,0.027777777777777776
0.0177676758696,0.03333333333333333
0.0178346274849,0.03888888888888889
0.0178346274849,0.044444444444444446
0.0178934159916,0.05
0.0178934159916,0.05555555555555555
0.0179354823127,0.06111111111111111
0.0179354823127,0.06666666666666667
0.0181640283195,0.07222222222222222
0.0181640283195,0.07777777777777778
0.0182863193634,0.08333333333333333
0.0182863193634,0.08888888888888889
0.0183951006101,0.09444444444444444
0.0183951006101,0.1
0.0184803028766,0.10555555555555556
0.0184803028766,0.1111111111111111
0.0186409394934,0.11666666666666667
0.0186409394934,0.12222222222222222
0.0186585277345,0.12777777777777777
0.0186585277345,0.13333333333333333
0.0186867151724,0.1388888888888889
0.0186867151724,0.14444444444444443
0.0187207812251,0.15
0.0187207812251,0.15555555555555556
0.0188164475582,0.16111111111111112
0.0188164475582,0.16666666666666666
0.0188736136133,0.17222222222222222
0.0188736136133,0.17777777777777778
0.0191796030747,0.18333333333333332
0.0191796030747,0.18888888888888888
0.0192553825971,0.19444444444444445
0.0192553825971,0.2
0.0192722096009,0.20555555555555555
0.0192722096009,0.2111111111111111
0.019450619965,0.21666666666666667
0.019450619965,0.2222222222222222
0.0194605549065,0.22777777777777777
0.0194605549065,0.23333333333333334
0.019486908251,0.2388888888888889
0.019486908251,0.24444444444444444
0.0195838208027,0.25
0.0195838208027,0.25555555555555554
0.0197239957903,0.2611111111111111
0.0197239957903,0.26666666666666666
0.0197315388053,0.2722222222222222
0.0197315388053,0.2777777777777778
0.0205745265788,0.2833333333333333
0.0205745265788,0.28888888888888886
0.0209758316695,0.29444444444444445
0.0209758316695,0.3
0.0211211347622,0.3055555555555556
0.0211211347622,0.3111111111111111
0.0212862783894,0.31666666666666665
0.0212862783894,0.32222222222222224
0.0212993119689,0.3277777777777778
0.0212993119689,0.3333333333333333
0.0213210216726,0.3388888888888889
0.0213210216726,0.34444444444444444
0.0213244411881,0.35
0.0213244411881,0.35555555555555557
0.0213309243202,0.3611111111111111
0.0213309243202,0.36666666666666664
0.0218075517879,0.37222222222222223
0.0218075517879,0.37777777777777777
0.0218838450003,0.38333333333333336
0.0218838450003,0.3888888888888889
0.0218861072513,0.39444444444444443
0.0218861072513,0.4
0.0222558551943,0.40555555555555556
0.0222558551943,0.4111111111111111
0.0222770565671,0.4166666666666667
0.0222770565671,0.4222222222222222
0.0223388039091,0.42777777777777776
0.0223388039091,0.43333333333333335
0.0228428456754,0.4388888888888889
0.0228428456754,0.4444444444444444
0.516902867572,0.45
0.516902867572,0.45555555555555555
0.591923543293,0.46111111111111114
0.591923543293,0.4666666666666667
0.645214983885,0.4722222222222222
0.645214983885,0.4777777777777778
0.657901937241,0.48333333333333334
0.657901937241,0.4888888888888889
1.11472012027,0.49444444444444446
1.11472012027,0.5
1.35670063253,0.5055555555555555
1.35670063253,0.5111111111111111
1.6526270569,0.5166666666666667
1.6526270569,0.5222222222222223
1.68942985166,0.5277777777777778
1.68942985166,0.5333333333333333
2.03490015605,0.5388888888888889
2.03490015605,0.5444444444444444
2.33390964014,0.55
2.33390964014,0.5555555555555556
2.40239313956,0.5611111111111111
2.40239313956,0.5666666666666667
2.43613848039,0.5722222222222222
2.43613848039,0.5777777777777777
2.44377035272,0.5833333333333334
2.44377035272,0.5888888888888889
2.46190617303,0.5944444444444444
2.46190617303,0.6
2.53797903394,0.6055555555555555
2.53797903394,0.6111111111111112
2.5950538863,0.6166666666666667
2.5950538863,0.6222222222222222
2.69603277003,0.6277777777777778
2.69603277003,0.6333333333333333
2.71259528471,0.6388888888888888
2.71259528471,0.6444444444444445
2.83716815706,0.65
2.83716815706,0.6555555555555556
2.98433011768,0.6611111111111111
2.98433011768,0.6666666666666666
2.99084865018,0.6722222222222223
2.99084865018,0.6777777777777778
3.04805569796,0.6833333333333333
3.04805569796,0.6888888888888889
3.10367665859,0.6944444444444444
3.10367665859,0.7
3.27298275188,0.7055555555555556
3.27298275188,0.7111111111111111
3.45303043255,0.7166666666666667
3.45303043255,0.7222222222222222
3.47336266108,0.7277777777777777
3.47336266108,0.7333333333333333
3.77619436267,0.7388888888888889
3.77619436267,0.7444444444444445
4.53476085147,0.75
4.53476085147,0.7555555555555555
4.69575657732,0.7611111111111111
4.69575657732,0.7666666666666667
4.70141351718,0.7722222222222223
4.70141351718,0.7777777777777778
4.98955397138,0.7833333333333333
4.98955397138,0.7888888888888889
4.99103801991,0.7944444444444444
4.99103801991,0.8
5.00357660294,0.8055555555555556
5.00357660294,0.8111111111111111
5.48622911879,0.8166666666666667
5.48622911879,0.8222222222222222
5.74431923318,0.8277777777777777
5.74431923318,0.8333333333333334
5.79209521782,0.8388888888888889
5.79209521782,0.8444444444444444
6.30774304585,0.85
6.30774304585,0.8555555555555555
6.87417505519,0.8611111111111112
6.87417505519,0.8666666666666667
7.00741383149,0.8722222222222222
7.00741383149,0.8777777777777778
7.77258138647,0.8833333333333333
7.77258138647,0.8888888888888888
7.77596401403,0.8944444444444445
7.77596401403,0.9
8.52453518264,0.9055555555555556
8.52453518264,0.9111111111111111
8.74911031203,0.9166666666666666
8.74911031203,0.9222222222222223
9.35440566008,0.9277777777777778
9.35440566008,0.9333333333333333
10.1735664991,0.9388888888888889
10.1735664991,0.9444444444444444
10.1807385088,0.95
10.1807385088,0.9555555555555556
10.5398607333,0.9611111111111111
10.5398607333,0.9666666666666667
11.5285980914,0.9722222222222222
11.5285980914,0.9777777777777777
12.5424569652,0.9833333333333333
12.5424569652,0.9888888888888889
13.0209082689,0.9944444444444445
13.0209082689,1.0
