Congestion,CDF
0.0252828652779,0.005555555555555556
0.0252828652779,0.011111111111111112
0.0254002247041,0.016666666666666666
0.0254002247041,0.022222222222222223
0.0255749998835,0.027777777777777776
0.0255749998835,0.03333333333333333
0.0256416199815,0.03888888888888889
0.0256416199815,0.044444444444444446
0.0256541513313,0.05
0.0256541513313,0.05555555555555555
0.0257416291641,0.06111111111111111
0.0257416291641,0.06666666666666667
0.0260798594115,0.07222222222222222
0.0260798594115,0.07777777777777778
0.0266051683532,0.08333333333333333
0.0266051683532,0.08888888888888889
0.0266991609692,0.09444444444444444
0.0266991609692,0.1
0.0267114498724,0.10555555555555556
0.0267114498724,0.1111111111111111
0.0269366582206,0.11666666666666667
0.0269366582206,0.12222222222222222
0.0270283644754,0.12777777777777777
0.0270283644754,0.13333333333333333
0.0270813066696,0.1388888888888889
0.0270813066696,0.14444444444444443
0.0274486549822,0.15
0.0274486549822,0.15555555555555556
0.0275212952703,0.16111111111111112
0.0275212952703,0.16666666666666666
0.0275660081009,0.17222222222222222
0.0275660081009,0.17777777777777778
0.0279584078743,0.18333333333333332
0.0279584078743,0.18888888888888888
0.0280092255657,0.19444444444444445
0.0280092255657,0.2
0.0280314218385,0.20555555555555555
0.0280314218385,0.2111111111111111
0.0280887077224,0.21666666666666667
0.0280887077224,0.2222222222222222
0.0281509460046,0.22777777777777777
0.0281509460046,0.23333333333333334
0.0281945451525,0.2388888888888889
0.0281945451525,0.24444444444444444
0.0282531683676,0.25
0.0282531683676,0.25555555555555554
0.0284410910133,0.2611111111111111
0.0284410910133,0.26666666666666666
0.0287762895815,0.2722222222222222
0.0287762895815,0.2777777777777778
0.0292534102265,0.2833333333333333
0.0292534102265,0.28888888888888886
0.0298131391252,0.29444444444444445
0.0298131391252,0.3
0.0298725012407,0.3055555555555556
0.0298725012407,0.3111111111111111
0.0299160112317,0.31666666666666665
0.0299160112317,0.32222222222222224
0.0299634411272,0.3277777777777778
0.0299634411272,0.3333333333333333
0.0300345957395,0.3388888888888889
0.0300345957395,0.34444444444444444
0.030062665611,0.35
0.030062665611,0.35555555555555557
0.0304004826447,0.3611111111111111
0.0304004826447,0.36666666666666664
0.0305510299975,0.37222222222222223
0.0305510299975,0.37777777777777777
0.0307642519265,0.38333333333333336
0.0307642519265,0.3888888888888889
0.0307930973006,0.39444444444444443
0.0307930973006,0.4
0.0308098636763,0.40555555555555556
0.0308098636763,0.4111111111111111
0.0308195094384,0.4166666666666667
0.0308195094384,0.4222222222222222
0.0312506363528,0.42777777777777776
0.0312506363528,0.43333333333333335
0.0316651791411,0.4388888888888889
0.0316651791411,0.4444444444444444
0.773332200614,0.45
0.773332200614,0.45555555555555555
0.896999687156,0.46111111111111114
0.896999687156,0.4666666666666667
0.916102459768,0.4722222222222222
0.916102459768,0.4777777777777778
0.96596719156,0.48333333333333334
0.96596719156,0.4888888888888889
1.60975032489,0.49444444444444446
1.60975032489,0.5
1.96612518937,0.5055555555555555
1.96612518937,0.5111111111111111
2.40460949041,0.5166666666666667
2.40460949041,0.5222222222222223
2.46998904262,0.5277777777777778
2.46998904262,0.5333333333333333
3.00027758245,0.5388888888888889
3.00027758245,0.5444444444444444
3.29695685473,0.55
3.29695685473,0.5555555555555556
3.43417702525,0.5611111111111111
3.43417702525,0.5666666666666667
3.44077456127,0.5722222222222222
3.44077456127,0.5777777777777777
3.50168009907,0.5833333333333334
3.50168009907,0.5888888888888889
3.50602537738,0.5944444444444444
3.50602537738,0.6
3.5681446744,0.6055555555555555
3.5681446744,0.6111111111111112
3.80594483842,0.6166666666666667
3.80594483842,0.6222222222222222
3.84743702435,0.6277777777777778
3.84743702435,0.6333333333333333
3.98131962973,0.6388888888888888
3.98131962973,0.6444444444444445
4.00783379725,0.65
4.00783379725,0.6555555555555556
4.23157548938,0.6611111111111111
4.23157548938,0.6666666666666666
4.32164863541,0.6722222222222223
4.32164863541,0.6777777777777778
4.38709806407,0.6833333333333333
4.38709806407,0.6888888888888889
4.45930502592,0.6944444444444444
4.45930502592,0.7
4.5679678721,0.7055555555555556
4.5679678721,0.7111111111111111
4.87605427217,0.7166666666666667
4.87605427217,0.7222222222222222
5.04208964644,0.7277777777777777
5.04208964644,0.7333333333333333
5.26846252209,0.7388888888888889
5.26846252209,0.7444444444444445
6.3058058793,0.75
6.3058058793,0.7555555555555555
6.4962361498,0.7611111111111111
6.4962361498,0.7666666666666667
6.52934616494,0.7722222222222223
6.52934616494,0.7777777777777778
6.8661526152,0.7833333333333333
6.8661526152,0.7888888888888889
7.05522523122,0.7944444444444444
7.05522523122,0.8
7.08424097047,0.8055555555555556
7.08424097047,0.8111111111111111
7.57552128875,0.8166666666666667
7.57552128875,0.8222222222222222
7.97105679871,0.8277777777777777
7.97105679871,0.8333333333333334
8.13107153981,0.8388888888888889
8.13107153981,0.8444444444444444
8.74489785072,0.85
8.74489785072,0.8555555555555555
9.59175831667,0.8611111111111112
9.59175831667,0.8666666666666667
9.72349768636,0.8722222222222222
9.72349768636,0.8777777777777778
10.6131908195,0.8833333333333333
10.6131908195,0.8888888888888888
10.6986135105,0.8944444444444445
10.6986135105,0.9
11.6172560095,0.9055555555555556
11.6172560095,0.9111111111111111
12.0792872139,0.9166666666666666
12.0792872139,0.9222222222222223
12.69059728,0.9277777777777778
12.69059728,0.9333333333333333
13.888575535,0.9388888888888889
13.888575535,0.9444444444444444
14.0672584196,0.95
14.0672584196,0.9555555555555556
14.5631051787,0.9611111111111111
14.5631051787,0.9666666666666667
15.6489792149,0.9722222222222222
15.6489792149,0.9777777777777777
17.0042983155,0.9833333333333333
17.0042983155,0.9888888888888889
17.7322923268,0.9944444444444445
17.7322923268,1.0
