Congestion,CDF
0.0,0.005555555555555556
0.0,0.011111111111111112
0.0,0.016666666666666666
0.0,0.022222222222222223
0.0,0.027777777777777776
0.0,0.03333333333333333
0.0,0.03888888888888889
0.0,0.044444444444444446
0.0,0.05
0.0,0.05555555555555555
1.06020279811e-06,0.06111111111111111
1.21812202662e-06,0.06666666666666667
2.7418917565e-06,0.07222222222222222
4.00743429779e-06,0.07777777777777778
4.10059145871e-06,0.08333333333333333
5.41419233278e-06,0.08888888888888889
5.95632814813e-06,0.09444444444444444
8.20917842431e-06,0.1
8.25152998656e-06,0.10555555555555556
8.4420897311e-06,0.1111111111111111
8.61583762408e-06,0.11666666666666667
9.48427703222e-06,0.12222222222222222
9.70426256288e-06,0.12777777777777777
1.08366905905e-05,0.13333333333333333
1.10989482561e-05,0.1388888888888889
1.16873338874e-05,0.14444444444444443
1.35142235266e-05,0.15
1.47900646448e-05,0.15555555555555556
1.54438066015e-05,0.16111111111111112
1.6062193926e-05,0.16666666666666666
1.63163308107e-05,0.17222222222222222
1.64473725546e-05,0.17777777777777778
1.69922974687e-05,0.18333333333333332
1.75827474178e-05,0.18888888888888888
1.78795517106e-05,0.19444444444444445
1.80814689565e-05,0.2
1.81817850329e-05,0.20555555555555555
1.83905734899e-05,0.2111111111111111
1.85702826639e-05,0.21666666666666667
1.86110331957e-05,0.2222222222222222
1.92328756223e-05,0.22777777777777777
1.93933330761e-05,0.23333333333333334
1.96159564668e-05,0.2388888888888889
2.12430287316e-05,0.24444444444444444
2.23532211129e-05,0.25
2.42690962556e-05,0.25555555555555554
2.46535724178e-05,0.2611111111111111
2.50083551963e-05,0.26666666666666666
2.58552615458e-05,0.2722222222222222
9.13963918834e-05,0.2777777777777778
0.000182792783767,0.2833333333333333
0.00020037171489,0.28888888888888886
0.00020037171489,0.29444444444444445
0.000206288249664,0.3
0.000206288249664,0.3055555555555556
0.000312308529475,0.3111111111111111
0.000410059145871,0.31666666666666665
0.000412576499328,0.32222222222222224
0.000549317343339,0.3277777777777778
0.000820917842431,0.3333333333333333
0.000853727762753,0.3388888888888889
0.000904073447825,0.34444444444444444
0.000904073447825,0.35
0.00115471595289,0.35555555555555557
0.00175827474178,0.3611111111111111
0.00178795517106,0.36666666666666664
0.00184510897035,0.37222222222222223
0.00198774250687,0.37777777777777777
0.00210304981417,0.38333333333333336
0.00210304981417,0.3888888888888889
0.0023981084229,0.39444444444444443
0.00253436201903,0.4
0.00272511880925,0.40555555555555556
0.00291341201896,0.4111111111111111
0.00361937806136,0.4166666666666667
0.00382679985586,0.4222222222222222
0.0040263373764,0.42777777777777776
0.00433004481488,0.43333333333333335
0.00476417573631,0.4388888888888889
0.00494998082608,0.4444444444444444
0.00581156458849,0.45
0.00608469535984,0.45555555555555555
0.00751352229432,0.46111111111111114
0.0085116049854,0.4666666666666667
0.013246604359,0.4722222222222222
0.0135244861523,0.4777777777777778
0.0135294478764,0.48333333333333334
0.0135760214097,0.4888888888888889
0.0135948371114,0.49444444444444446
0.0136173693108,0.5
0.013650543934,0.5055555555555555
0.0136575882772,0.5111111111111111
0.013743030658,0.5166666666666667
0.0137444206824,0.5222222222222223
0.013755585641,0.5277777777777778
0.0137821460274,0.5333333333333333
0.0138230267071,0.5388888888888889
0.0138314941231,0.5444444444444444
0.01384476142,0.55
0.0138723789379,0.5555555555555556
0.0139443450826,0.5611111111111111
0.0139596016585,0.5666666666666667
0.0139641949661,0.5722222222222222
0.0139830356264,0.5777777777777777
0.0139836878498,0.5833333333333334
0.0140116421365,0.5888888888888889
0.0140178161627,0.5944444444444444
0.01402925042,0.6
0.0140387656783,0.6055555555555555
0.0140446638593,0.6111111111111112
0.0140479900511,0.6166666666666667
0.0140539486179,0.6222222222222222
0.014060685029,0.6277777777777778
0.0140801372037,0.6333333333333333
0.0140917375997,0.6388888888888888
0.0141414157248,0.6444444444444445
0.0141746103949,0.65
0.014233886095,0.6555555555555556
0.0142454025117,0.6611111111111111
0.0142567075731,0.6666666666666666
0.0142808628876,0.6722222222222223
0.0151432653861,0.6777777777777778
0.0184231401444,0.6833333333333333
0.0192838467977,0.6888888888888889
0.021008666299,0.6944444444444444
0.021519168909,0.7
0.02264029938,0.7055555555555556
0.0228882740126,0.7111111111111111
0.0242396963653,0.7166666666666667
0.0261790296729,0.7222222222222222
0.0263424366168,0.7277777777777777
0.0267746624877,0.7333333333333333
0.0271866455899,0.7388888888888889
0.0281570718462,0.7444444444444445
0.34361051706,0.75
0.34361051706,0.7555555555555555
0.452534046989,0.7611111111111111
0.523532350308,0.7666666666666667
0.67974185557,0.7722222222222223
0.67974185557,0.7777777777777778
0.68722103412,0.7833333333333333
0.702233192963,0.7888888888888889
0.702233192963,0.7944444444444444
0.905068093978,0.8
1.36173693108,0.8055555555555556
1.3743030658,0.8111111111111111
1.402925042,0.8166666666666667
1.40387656783,0.8222222222222222
1.69605913229,0.8277777777777777
1.7218251198,0.8333333333333334
2.07570202142,0.8388888888888889
2.08453586367,0.8444444444444444
2.11289179143,0.85
2.20055464886,0.8555555555555555
2.20055464886,0.8611111111111112
2.77587850356,0.8666666666666667
2.8089935449,0.8722222222222222
3.06181796,0.8777777777777778
3.48993072546,0.8833333333333333
3.56879367505,0.8888888888888888
3.60856836923,0.8944444444444445
4.45823745662,0.9
6.4136091507,0.9055555555555556
7.12229311155,0.9111111111111111
7.94394747535,0.9166666666666666
8.49785167565,0.9222222222222223
9.36733608485,0.9277777777777778
16.3162598315,0.9333333333333333
17.0908006064,0.9388888888888889
18.5188868951,0.9444444444444444
19.9172556801,0.95
20.4904418977,0.9555555555555556
21.9079029372,0.9611111111111111
23.3947393178,0.9666666666666667
23.9721209347,0.9722222222222222
24.7193997537,0.9777777777777777
25.1524042352,0.9833333333333333
25.3593588285,0.9888888888888889
26.7244132219,0.9944444444444445
27.2008307956,1.0
