Congestion,CDF
0.0,0.005555555555555556
0.0,0.011111111111111112
0.0,0.016666666666666666
0.0,0.022222222222222223
0.0,0.027777777777777776
0.0,0.03333333333333333
0.0,0.03888888888888889
0.0,0.044444444444444446
0.0,0.05
0.0,0.05555555555555555
1.04783364585e-06,0.06111111111111111
1.20391046554e-06,0.06666666666666667
2.70990271e-06,0.07222222222222222
3.96068044553e-06,0.07777777777777778
4.05275076239e-06,0.08333333333333333
5.35102614472e-06,0.08888888888888889
5.88683698106e-06,0.09444444444444444
8.11340374985e-06,0.1
8.15526120576e-06,0.10555555555555556
8.34359773179e-06,0.1111111111111111
8.51531854641e-06,0.11666666666666667
9.37362606347e-06,0.12222222222222222
9.59104507146e-06,0.12777777777777777
1.0710261311e-05,0.13333333333333333
1.09694592742e-05,0.1388888888888889
1.15509803401e-05,0.14444444444444443
1.33565560608e-05,0.15
1.4617512222e-05,0.15555555555555556
1.52636271154e-05,0.16111111111111112
1.58747998513e-05,0.16666666666666666
1.61259717771e-05,0.17222222222222222
1.62554846858e-05,0.17777777777777778
1.67940520811e-05,0.18333333333333332
1.73776133809e-05,0.18888888888888888
1.76709549234e-05,0.19444444444444445
1.78705164453e-05,0.2
1.79696621562e-05,0.20555555555555555
1.81760147243e-05,0.2111111111111111
1.8353627271e-05,0.21666666666666667
1.83939023754e-05,0.2222222222222222
1.90084899035e-05,0.22777777777777777
1.91670753355e-05,0.23333333333333334
1.93871014282e-05,0.2388888888888889
2.09951909997e-05,0.24444444444444444
2.20924310113e-05,0.25
2.39859540612e-05,0.25555555555555554
2.43659446248e-05,0.2611111111111111
2.47165882309e-05,0.26666666666666666
2.55536139107e-05,0.2722222222222222
9.03300903333e-05,0.2777777777777778
0.000180660180667,0.2833333333333333
0.000198034022276,0.28888888888888886
0.000198034022276,0.29444444444444445
0.000203881530144,0.3
0.000203881530144,0.3055555555555556
0.000308664894729,0.3111111111111111
0.000405275076239,0.31666666666666665
0.000407763060288,0.32222222222222224
0.000542908579025,0.3277777777777778
0.000811340374985,0.3333333333333333
0.000843767509202,0.3388888888888889
0.000893525822267,0.34444444444444444
0.000893525822267,0.35
0.00114124413649,0.35555555555555557
0.00173776133809,0.3611111111111111
0.00176709549234,0.36666666666666664
0.00182358249086,0.37222222222222223
0.00196455195336,0.37777777777777777
0.00207851399573,0.38333333333333336
0.00207851399573,0.3888888888888889
0.00237013022074,0.39444444444444443
0.00250479417621,0.4
0.00269332544902,0.40555555555555556
0.00287942188338,0.4111111111111111
0.00357715157563,0.4166666666666667
0.0037821534258,0.4222222222222222
0.00397936298608,0.42777777777777776
0.00489223049131,0.43333333333333335
0.00574376234595,0.4388888888888889
0.00601370656082,0.4444444444444444
0.00742586368653,0.45
0.00841230196694,0.45555555555555555
0.0149665922481,0.46111111111111114
0.0182082014308,0.4666666666666667
0.0190588664094,0.4722222222222222
0.0207635628219,0.4777777777777778
0.0212681095106,0.48333333333333334
0.0223761599996,0.4888888888888889
0.0226212415669,0.49444444444444446
0.0239568971729,0.5
0.0241067431819,0.5055555555555555
0.0243897848262,0.5111111111111111
0.0258736047065,0.5166666666666667
0.0260351052176,0.5222222222222223
0.0264622884046,0.5277777777777778
0.0268694649908,0.5333333333333333
0.0278285694979,0.5388888888888889
0.0288146611873,0.5444444444444444
0.0290207680525,0.55
0.0290296755309,0.5555555555555556
0.0290321268893,0.5611111111111111
0.0290541089438,0.5666666666666667
0.0290544777912,0.5722222222222222
0.0290742271264,0.5777777777777777
0.0290935643874,0.5833333333333334
0.0291345762261,0.5888888888888889
0.0291352930064,0.5944444444444444
0.0291406667432,0.6
0.0291534219671,0.6055555555555555
0.0291728040127,0.6111111111111112
0.0291771024143,0.6166666666666667
0.0291811438328,0.6222222222222222
0.0291838681948,0.6277777777777778
0.0292220654295,0.6333333333333333
0.0292312774796,0.6388888888888888
0.0292407351436,0.6444444444444445
0.0292465544732,0.65
0.0292497457617,0.6555555555555556
0.0292501249704,0.6611111111111111
0.0292635667031,0.6666666666666666
0.029271788946,0.6722222222222223
0.0292765859923,0.6777777777777778
0.0292792744087,0.6833333333333333
0.0292810059154,0.6888888888888889
0.0292836455458,0.6944444444444444
0.0292868774352,0.7
0.0292964443809,0.7055555555555556
0.0293019551286,0.7111111111111111
0.0293257685155,0.7166666666666667
0.0293413193342,0.7222222222222222
0.0293701349356,0.7277777777777777
0.0293755398499,0.7333333333333333
0.0293812047412,0.7388888888888889
0.0293919052006,0.7444444444444445
0.728382325161,0.75
0.728382325161,0.7555555555555555
0.96848259304,0.7611111111111111
1.12911653461,0.7666666666666667
1.45270544719,0.7722222222222223
1.45270544719,0.7777777777777778
1.45676465032,0.7833333333333333
1.46396372044,0.7888888888888889
1.46396372044,0.7944444444444444
1.93696518608,0.8
2.90742271264,0.8055555555555556
2.91345762261,0.8111111111111111
2.9271788946,0.8166666666666667
2.92765859923,0.8222222222222222
3.63134987825,0.8277777777777777
3.64372452187,0.8333333333333334
4.37491199014,0.8388888888888889
4.38124412171,0.8444444444444444
4.39488512444,0.85
4.62478027598,0.8555555555555555
4.62478027598,0.8611111111111112
5.83999956419,0.8666666666666667
5.85586663811,0.8722222222222222
6.54070631699,0.8777777777777778
7.30960867629,0.8833333333333333
7.53533486287,0.8888888888888888
7.55442471407,0.8944444444444445
9.46477983135,0.9
13.4084399836,0.9055555555555556
15.0633278278,0.9111111111111111
16.7723966873,0.9166666666666666
17.9773945021,0.9222222222222223
19.7094101808,0.9277777777777778
34.3139350773,0.9333333333333333
35.8124394802,0.9388888888888889
38.7516300003,0.9444444444444444
41.6762854476,0.95
43.0789092176,0.9555555555555556
46.013041151,0.9611111111111111
48.9762099348,0.9666666666666667
50.3838609815,0.9722222222222222
51.8576760535,0.9777777777777777
53.302247801,0.9833333333333333
54.2683503717,0.9888888888888889
56.2043246062,0.9944444444444445
58.6433030888,1.0
