Congestion,CDF
0.0,0.005555555555555556
0.0,0.011111111111111112
0.0,0.016666666666666666
0.0,0.022222222222222223
0.0,0.027777777777777776
0.0,0.03333333333333333
0.0,0.03888888888888889
0.0,0.044444444444444446
0.0,0.05
0.0,0.05555555555555555
1.05673164249e-06,0.06111111111111111
1.21413383574e-06,0.06666666666666667
2.73291466929e-06,0.07222222222222222
3.99431376263e-06,0.07777777777777778
4.08716592247e-06,0.08333333333333333
5.39646600326e-06,0.08888888888888889
5.93682683953e-06,0.09444444444444444
8.18230117414e-06,0.1
8.2245140753e-06,0.10555555555555556
8.41444991796e-06,0.1111111111111111
8.58762895187e-06,0.11666666666666667
9.45322504707e-06,0.12222222222222222
9.67249033438e-06,0.12777777777777777
1.08012107374e-05,0.13333333333333333
1.10626097587e-05,0.1388888888888889
1.16490689867e-05,0.14444444444444443
1.34699773003e-05,0.15
1.47416412525e-05,0.15555555555555556
1.53932428262e-05,0.16111111111111112
1.60096055204e-05,0.16666666666666666
1.62629103485e-05,0.17222222222222222
1.63935230554e-05,0.17777777777777778
1.69366638588e-05,0.18333333333333332
1.7525180646e-05,0.18888888888888888
1.78210131871e-05,0.19444444444444445
1.80222693461e-05,0.2
1.81222569827e-05,0.20555555555555555
1.83303618562e-05,0.2111111111111111
1.85094826536e-05,0.21666666666666667
1.85500997662e-05,0.2222222222222222
1.91699062503e-05,0.22777777777777777
1.93298383586e-05,0.23333333333333334
1.95517328694e-05,0.2388888888888889
2.11734780204e-05,0.24444444444444444
2.22800355777e-05,0.25
2.41896380519e-05,0.25555555555555554
2.45728554204e-05,0.2611111111111111
2.49264766228e-05,0.26666666666666666
2.57706101596e-05,0.2722222222222222
9.10971556429e-05,0.2777777777777778
0.000182194311286,0.2833333333333333
0.000199715688131,0.28888888888888886
0.000199715688131,0.29444444444444445
0.000205612851882,0.3
0.000205612851882,0.3055555555555556
0.000311286016131,0.3111111111111111
0.000408716592247,0.31666666666666665
0.000411225703765,0.32222222222222224
0.00054751885159,0.3277777777777778
0.000818230117414,0.3333333333333333
0.000850932616457,0.3388888888888889
0.000901113467303,0.34444444444444444
0.000901113467303,0.35
0.00115093535659,0.35555555555555557
0.0017525180646,0.3611111111111111
0.00178210131871,0.36666666666666664
0.00183906799367,0.37222222222222223
0.00198123454105,0.37777777777777777
0.0020961643266,0.38333333333333336
0.0020961643266,0.3888888888888889
0.00239025689907,0.39444444444444443
0.00252606439429,0.4
0.00271619663748,0.40555555555555556
0.00290387336605,0.4111111111111111
0.00360752804122,0.4166666666666667
0.00381427072666,0.4222222222222222
0.00401315495163,0.42777777777777776
0.00493377434766,0.43333333333333335
0.00579253724284,0.4388888888888889
0.00606477377073,0.4444444444444444
0.00714456157888,0.45
0.00748892265621,0.45555555555555555
0.00758243693993,0.46111111111111114
0.00848373757592,0.4666666666666667
0.0150936855973,0.4722222222222222
0.0156519452921,0.4777777777777778
0.0159098999029,0.48333333333333334
0.0159144754169,0.4888888888888889
0.0159573223915,0.49444444444444446
0.0159733815571,0.5
0.0159953474484,0.5055555555555555
0.0160244163992,0.5111111111111111
0.0160323538327,0.5166666666666667
0.0161109607463,0.5222222222222223
0.0161122471938,0.5277777777777778
0.0161225211955,0.5333333333333333
0.0161469577105,0.5388888888888889
0.0161845309218,0.5444444444444444
0.0161923569371,0.55
0.0162042292048,0.5555555555555556
0.0162285189232,0.5611111111111111
0.016296180836,0.5666666666666667
0.016308032227,0.5722222222222222
0.0163144319168,0.5777777777777777
0.0163317603162,0.5833333333333334
0.0163318586717,0.5888888888888889
0.0163580920703,0.5944444444444444
0.0163619226217,0.6
0.0163742563731,0.6055555555555555
0.0163830457269,0.6111111111111112
0.0163884501054,0.6166666666666667
0.0163915309564,0.6222222222222222
0.0163969789461,0.6277777777777778
0.0164031762077,0.6333333333333333
0.0164211075387,0.6388888888888888
0.0164317710671,0.6444444444444445
0.0164774700187,0.65
0.0165079513824,0.6555555555555556
0.0165625397747,0.6611111111111111
0.0165731160666,0.6666666666666666
0.0165835532913,0.6722222222222223
0.0166056407213,0.6777777777777778
0.0183628218858,0.6833333333333333
0.0192207105437,0.6888888888888889
0.0209398829018,0.6944444444444444
0.0214487141014,0.7
0.0225661739367,0.7055555555555556
0.0228133366882,0.7111111111111111
0.0241603344183,0.7166666666666667
0.0260933182541,0.7222222222222222
0.0262561901957,0.7277777777777777
0.0266870009381,0.7333333333333333
0.0270976351875,0.7388888888888889
0.0280648842209,0.7444444444444445
0.402806179845,0.75
0.402806179845,0.7555555555555555
0.531910746382,0.7611111111111111
0.616291330429,0.7666666666666667
0.798669077855,0.7722222222222223
0.798669077855,0.7777777777777778
0.80561235969,0.7833333333333333
0.81942250527,0.7888888888888889
0.81942250527,0.7944444444444444
1.06382149276,0.8
1.59953474484,0.8055555555555556
1.61109607463,0.8111111111111111
1.63742563731,0.8166666666666667
1.63830457269,0.8222222222222222
1.99379617013,0.8277777777777777
2.01750195089,0.8333333333333334
2.42947230056,0.8388888888888889
2.43787559746,0.8444444444444444
2.46396768882,0.85
2.57351243765,0.8555555555555555
2.57351243765,0.8611111111111112
3.24728174671,0.8666666666666667
3.27774325808,0.8722222222222222
3.5970315534,0.8777777777777778
4.07757349207,0.8833333333333333
4.17903078087,0.8888888888888888
4.21562319152,0.8944444444444445
5.22847474508,0.9
7.48973697124,0.9055555555555556
8.34399076022,0.9111111111111111
9.30217043169,0.9166666666666666
9.95624287976,0.9222222222222223
10.9584244092,0.9277777777777778
19.0851329466,0.9333333333333333
19.971052766,0.9388888888888889
21.6316168381,0.9444444444444444
23.2648027053,0.95
23.965590725,0.9555555555555556
25.6163858632,0.9611111111111111
27.330467268,0.9666666666666667
28.0354778616,0.9722222222222222
28.8956617972,0.9777777777777777
29.6101179551,0.9833333333333333
29.6583297539,0.9888888888888889
31.2607713938,0.9944444444444445
32.0190150878,1.0
