Congestion,CDF
0.0,0.005555555555555556
0.0,0.011111111111111112
0.0,0.016666666666666666
0.0,0.022222222222222223
0.0,0.027777777777777776
0.0,0.03333333333333333
0.0,0.03888888888888889
0.0,0.044444444444444446
0.0,0.05
0.0,0.05555555555555555
1.0559648593e-06,0.06111111111111111
1.21325283873e-06,0.06666666666666667
2.73093161801e-06,0.07222222222222222
3.99141541783e-06,0.07777777777777778
4.08420020249e-06,0.08333333333333333
5.39255023196e-06,0.08888888888888889
5.93251897284e-06,0.09444444444444444
8.17636395151e-06,0.1
8.21854622224e-06,0.10555555555555556
8.40834424409e-06,0.1111111111111111
8.58139761623e-06,0.11666666666666667
9.44636561957e-06,0.12222222222222222
9.66547180411e-06,0.12777777777777777
1.07933731876e-05,0.13333333333333333
1.10545825331e-05,0.1388888888888889
1.1640616216e-05,0.14444444444444443
1.34602032462e-05,0.15
1.47309444566e-05,0.15555555555555556
1.53820732166e-05,0.16111111111111112
1.59979886671e-05,0.16666666666666666
1.62511096928e-05,0.17222222222222222
1.63816276248e-05,0.17777777777777778
1.69243743156e-05,0.18333333333333332
1.75124640646e-05,0.18888888888888888
1.78080819443e-05,0.19444444444444445
1.80091920683e-05,0.2
1.81091071521e-05,0.20555555555555555
1.8317061021e-05,0.2111111111111111
1.84960518452e-05,0.21666666666666667
1.85366394853e-05,0.2222222222222222
1.91559962269e-05,0.22777777777777777
1.93158122856e-05,0.23333333333333334
1.95375457858e-05,0.2388888888888889
2.11581141698e-05,0.24444444444444444
2.22638687894e-05,0.25
2.41720856221e-05,0.25555555555555554
2.45550249214e-05,0.2611111111111111
2.490838953e-05,0.26666666666666666
2.57519105485e-05,0.2722222222222222
9.10310539335e-05,0.2777777777777778
0.000182062107867,0.2833333333333333
0.000199570770891,0.28888888888888886
0.000199570770891,0.29444444444444445
0.000205463655556,0.3
0.000205463655556,0.3055555555555556
0.000311060141486,0.3111111111111111
0.000408420020249,0.31666666666666665
0.000410927311112,0.32222222222222224
0.000547121562215,0.3277777777777778
0.000817636395151,0.3333333333333333
0.000850315164682,0.3388888888888889
0.000900459603414,0.34444444444444444
0.000900459603414,0.35
0.00115010021751,0.35555555555555557
0.00175124640646,0.3611111111111111
0.00178080819443,0.36666666666666664
0.00183773353337,0.37222222222222223
0.00197979692218,0.37777777777777777
0.00209464331264,0.38333333333333336
0.00209464331264,0.3888888888888889
0.00238852248634,0.39444444444444443
0.00252423143723,0.4
0.0027142257171,0.40555555555555556
0.00290176626411,0.4111111111111111
0.00360491035499,0.4166666666666667
0.00381150302428,0.4222222222222222
0.00401024293533,0.42777777777777776
0.00493019431362,0.43333333333333335
0.00578833407524,0.4388888888888889
0.00606037306349,0.4444444444444444
0.00748348856132,0.45
0.0084775816257,0.45555555555555555
0.0141366024418,0.46111111111111114
0.0142749586199,0.4666666666666667
0.0150827333518,0.4722222222222222
0.01629309448,0.4777777777777778
0.0164079744624,0.48333333333333334
0.0164848623195,0.4888888888888889
0.0164861550476,0.49444444444444446
0.0164880232394,0.5
0.0164973262735,0.5055555555555555
0.0165071070354,0.5111111111111111
0.0165168065906,0.5166666666666667
0.016537312025,0.5222222222222223
0.0165377180776,0.5277777777777778
0.0165404189426,0.5333333333333333
0.0165468025532,0.5388888888888889
0.0165493982829,0.5444444444444444
0.0165562621474,0.55
0.0165584093736,0.5555555555555556
0.0165586363934,0.5611111111111111
0.0165650711946,0.5666666666666667
0.0165790358214,0.5722222222222222
0.0165857302767,0.5777777777777777
0.0165898841384,0.5833333333333334
0.0165903915316,0.5888888888888889
0.0165948651871,0.5944444444444444
0.0166018620398,0.6
0.0166057522552,0.6055555555555555
0.0166083716742,0.6111111111111112
0.0166095786582,0.6166666666666667
0.0166105741578,0.6222222222222222
0.0166116819613,0.6277777777777778
0.0166132963765,0.6333333333333333
0.0166183009227,0.6388888888888888
0.0166210010631,0.6444444444444445
0.0166328768723,0.65
0.0166402839182,0.6555555555555556
0.0166550414717,0.6611111111111111
0.0166576256526,0.6666666666666666
0.0166606874327,0.6722222222222223
0.0166651771271,0.6777777777777778
0.0183494974971,0.6833333333333333
0.0192067636557,0.6888888888888889
0.020924688552,0.6944444444444444
0.0214331505346,0.7
0.0225497995212,0.7055555555555556
0.0227967829271,0.7111111111111111
0.0241428032518,0.7166666666666667
0.0260743844803,0.7222222222222222
0.0262371382391,0.7277777777777777
0.0266676363776,0.7333333333333333
0.0270779726635,0.7388888888888889
0.0280445198439,0.7444444444444445
0.413442951939,0.75
0.413442951939,0.7555555555555555
0.549910875783,0.7611111111111111
0.641394958039,0.7666666666666667
0.824401161969,0.7722222222222223
0.824401161969,0.7777777777777778
0.826885903878,0.7833333333333333
0.830478932908,0.7888888888888889
0.830478932908,0.7944444444444444
1.09982175157,0.8
1.65071070354,0.8055555555555556
1.6537312025,0.8111111111111111
1.66057522552,0.8166666666666667
1.66083716742,0.8222222222222222
2.06192918389,0.8277777777777777
2.06812320726,0.8333333333333334
2.48090828143,0.8388888888888889
2.48610514765,0.8444444444444444
2.49295464715,0.85
2.62432001903,0.8555555555555555
2.62432001903,0.8611111111111112
3.31399839077,0.8666666666666667
3.32190486316,0.8722222222222222
3.71360984295,0.8777777777777778
4.14727334378,0.8833333333333333
4.27660711072,0.8888888888888888
4.2861501113,0.8944444444444445
5.37264899611,0.9
7.6071734827,0.9055555555555556
8.54954263451,0.9111111111111111
9.51895923782,0.9166666666666666
10.2035845288,0.9222222222222223
11.184463385,0.9277777777777778
19.4718154273,0.9333333333333333
20.3194041572,0.9388888888888889
21.9859218699,0.9444444444444444
23.6449102837,0.95
24.4453003367,0.9555555555555556
26.1093287286,0.9611111111111111
27.7837221473,0.9666666666666667
28.5895708279,0.9722222222222222
29.4130315953,0.9777777777777777
30.2445106562,0.9833333333333333
30.8266918395,0.9888888888888889
31.8853081024,0.9944444444444445
33.3128039644,1.0
