Congestion,CDF
0.0,0.005555555555555556
0.0,0.011111111111111112
0.0,0.016666666666666666
0.0,0.022222222222222223
0.0,0.027777777777777776
0.0,0.03333333333333333
0.0,0.03888888888888889
0.0,0.044444444444444446
0.0,0.05
0.0,0.05555555555555555
1.09520807434e-06,0.06111111111111111
1.25834140549e-06,0.06666666666666667
2.83242224603e-06,0.07222222222222222
4.13974987439e-06,0.07777777777777778
4.23598285454e-06,0.08333333333333333
5.59295558305e-06,0.08888888888888889
6.1529913832e-06,0.09444444444444444
8.48022520784e-06,0.1
8.523975114e-06,0.10555555555555556
8.72082667036e-06,0.1111111111111111
8.90031128937e-06,0.11666666666666667
9.79742442052e-06,0.12222222222222222
1.00246733297e-05,0.12777777777777777
1.11944913321e-05,0.13333333333333333
1.14654080977e-05,0.1388888888888889
1.20732207684e-05,0.14444444444444443
1.39604297886e-05,0.15
1.52783960275e-05,0.15555555555555556
1.59537229279e-05,0.16111111111111112
1.65925278735e-05,0.16666666666666666
1.68550557301e-05,0.17222222222222222
1.69904241486e-05,0.17777777777777778
1.75533411366e-05,0.18333333333333332
1.81632862838e-05,0.18888888888888888
1.84698903208e-05,0.19444444444444445
1.86784743752e-05,0.2
1.87821026404e-05,0.20555555555555555
1.89977847764e-05,0.2111111111111111
1.91834275031e-05,0.21666666666666667
1.92255235168e-05,0.2222222222222222
1.98678976435e-05,0.22777777777777777
2.00336530059e-05,0.23333333333333334
2.02636268707e-05,0.2388888888888889
2.19444210406e-05,0.24444444444444444
2.30912692306e-05,0.25
2.50704018357e-05,0.25555555555555554
2.54675724506e-05,0.2611111111111111
2.58340692796e-05,0.26666666666666666
2.67089383837e-05,0.2722222222222222
9.44140748677e-05,0.2777777777777778
0.000188828149735,0.2833333333333333
0.00020698749372,0.28888888888888886
0.00020698749372,0.29444444444444445
0.00021309937785,0.3
0.00021309937785,0.3055555555555556
0.000322620185284,0.3111111111111111
0.000346876201746,0.31666666666666665
0.000423598285454,0.32222222222222224
0.0004261987557,0.3277777777777778
0.000567454444441,0.3333333333333333
0.000645182995666,0.3388888888888889
0.000848022520784,0.34444444444444444
0.000881915743589,0.35
0.000933923718758,0.35555555555555557
0.000933923718758,0.3611111111111111
0.0011928418199,0.36666666666666664
0.00181632862838,0.37222222222222223
0.00184698903208,0.37777777777777777
0.00190602990858,0.38333333333333336
0.00205337285197,0.3888888888888889
0.00217248732159,0.39444444444444443
0.00217248732159,0.4
0.00247728803638,0.40555555555555556
0.00261804038951,0.4111111111111111
0.00281509549752,0.4166666666666667
0.00300960568366,0.4222222222222222
0.00373888098006,0.42777777777777776
0.00395315132961,0.43333333333333335
0.00415927708593,0.4388888888888889
0.00475591778668,0.4444444444444444
0.00511341695965,0.45
0.0051755379099,0.45555555555555555
0.00518185145576,0.46111111111111114
0.00524146793835,0.4666666666666667
0.00526552007983,0.4722222222222222
0.00527298242806,0.4777777777777778
0.00529444292572,0.48333333333333334
0.00534590871356,0.4888888888888889
0.0054552749138,0.49444444444444446
0.00545702783777,0.5
0.00547131108805,0.5055555555555555
0.00550530512061,0.5111111111111111
0.00555775751005,0.5166666666666667
0.00556847422709,0.5222222222222223
0.00558603176301,0.5277777777777778
0.00561870370936,0.5333333333333333
0.00571291992885,0.5388888888888889
0.00573132127607,0.5444444444444444
0.00573836544359,0.55
0.00576249459229,0.5555555555555556
0.00576418357183,0.5611111111111111
0.00579906721636,0.5666666666666667
0.00580423150006,0.5722222222222222
0.00582172325921,0.5777777777777777
0.00583378535585,0.5833333333333334
0.00584140946312,0.5888888888888889
0.00584559635344,0.5944444444444444
0.00585333731364,0.6
0.00586195953994,0.6055555555555555
0.00588674095086,0.6111111111111112
0.00590162000256,0.6166666666666667
0.00596522253758,0.6222222222222222
0.00600344808859,0.6277777777777778
0.00600786390395,0.6333333333333333
0.00608359622517,0.6388888888888888
0.00609839497212,0.6444444444444445
0.00611274751436,0.65
0.00614404560812,0.6555555555555556
0.00628559696299,0.6611111111111111
0.00776160023167,0.6666666666666666
0.00879263714656,0.6722222222222223
0.0156432585843,0.6777777777777778
0.0190314267013,0.6833333333333333
0.0199205517612,0.6888888888888889
0.0217023205397,0.6944444444444444
0.0222296786842,0.7
0.0233878261127,0.7055555555555556
0.0236439882548,0.7111111111111111
0.0250400312337,0.7166666666666667
0.0270433965342,0.7222222222222222
0.0272121987716,0.7277777777777777
0.0276586956726,0.7333333333333333
0.0280842814386,0.7388888888888889
0.0290867487716,0.7444444444444445
0.136425695944,0.75
0.136425695944,0.7555555555555555
0.174715597945,0.7611111111111111
0.210316201134,0.7666666666666667
0.263276003991,0.7722222222222223
0.263276003991,0.7777777777777778
0.272851391889,0.7833333333333333
0.292070473156,0.7888888888888889
0.292070473156,0.7944444444444444
0.34943119589,0.8
0.529444292572,0.8055555555555556
0.54552749138,0.8111111111111111
0.582172325921,0.8166666666666667
0.583378535585,0.8222222222222222
0.653979486935,0.8277777777777777
0.686956208006,0.8333333333333334
0.836408131599,0.8388888888888889
0.847846224161,0.8444444444444444
0.884126143325,0.85
0.895202380962,0.8555555555555555
0.895202380962,0.8611111111111112
1.12596654633,0.8666666666666667
1.16836827992,0.8722222222222222
1.18857035829,0.8777777777777778
1.43296379884,0.8833333333333333
1.43317995553,0.8888888888888888
1.48387647605,0.8944444444444445
1.76240690265,0.9
2.64716173327,0.9055555555555556
2.84635132537,0.9111111111111111
3.19016686744,0.9166666666666666
3.39348243418,0.9222222222222223
3.79852648996,0.9277777777777778
6.62520380279,0.9333333333333333
7.00991422261,0.9388888888888889
7.62431878342,0.9444444444444444
8.20073714061,0.95
8.32741980835,0.9555555555555556
8.92820619875,0.9611111111111111
9.61756842221,0.9666666666666667
9.75008537904,0.9722222222222222
10.0931602009,0.9777777777777777
10.1278478211,0.9833333333333333
10.31195575,0.9888888888888889
10.8392539928,0.9944444444444445
10.9037722923,1.0
