Congestion,CDF
0.0209699192937,0.005555555555555556
0.0209699192937,0.011111111111111112
0.0211415491914,0.016666666666666666
0.0211415491914,0.022222222222222223
0.0214800276192,0.027777777777777776
0.0214800276192,0.03333333333333333
0.0215116034543,0.03888888888888889
0.0215116034543,0.044444444444444446
0.0215900388698,0.05
0.0215900388698,0.05555555555555555
0.0216033684273,0.06111111111111111
0.0216033684273,0.06666666666666667
0.0216939153504,0.07222222222222222
0.0216939153504,0.07777777777777778
0.0217541020191,0.08333333333333333
0.0217541020191,0.08888888888888889
0.0221512347671,0.09444444444444444
0.0221512347671,0.1
0.0222294148188,0.10555555555555556
0.0222294148188,0.1111111111111111
0.022250991422,0.11666666666666667
0.022250991422,0.12222222222222222
0.0222577276719,0.12777777777777777
0.0222577276719,0.13333333333333333
0.022323827557,0.1388888888888889
0.022323827557,0.14444444444444443
0.0225067085436,0.15
0.0225067085436,0.15555555555555556
0.0225968548316,0.16111111111111112
0.0225968548316,0.16666666666666666
0.0227461819824,0.17222222222222222
0.0227461819824,0.17777777777777778
0.0229448976666,0.18333333333333332
0.0229448976666,0.18888888888888888
0.0230130172382,0.19444444444444445
0.0230130172382,0.2
0.0230556320869,0.20555555555555555
0.0230556320869,0.2111111111111111
0.0230569816014,0.21666666666666667
0.0230569816014,0.2222222222222222
0.0231457143461,0.22777777777777777
0.0231457143461,0.23333333333333334
0.02319509395,0.2388888888888889
0.02319509395,0.24444444444444444
0.0232914601803,0.25
0.0232914601803,0.25555555555555554
0.0233027382094,0.2611111111111111
0.0233027382094,0.26666666666666666
0.023816818345,0.2722222222222222
0.023816818345,0.2777777777777778
0.0243022457726,0.2833333333333333
0.0243022457726,0.28888888888888886
0.0243861906968,0.29444444444444445
0.0243861906968,0.3
0.0251741292086,0.3055555555555556
0.0251741292086,0.3111111111111111
0.0251850505867,0.31666666666666665
0.0251850505867,0.32222222222222224
0.0252745771836,0.3277777777777778
0.0252745771836,0.3333333333333333
0.0252844057499,0.3388888888888889
0.0252844057499,0.34444444444444444
0.0254959565428,0.35
0.0254959565428,0.35555555555555557
0.0255384336957,0.3611111111111111
0.0255384336957,0.36666666666666664
0.0256319510836,0.37222222222222223
0.0256319510836,0.37777777777777777
0.0257667600501,0.38333333333333336
0.0257667600501,0.3888888888888889
0.0259351955413,0.39444444444444443
0.0259351955413,0.4
0.0259357071933,0.40555555555555556
0.0259357071933,0.4111111111111111
0.0259900252298,0.4166666666666667
0.0259900252298,0.4222222222222222
0.0261461432426,0.42777777777777776
0.0261461432426,0.43333333333333335
0.0265909760774,0.4388888888888889
0.0265909760774,0.4444444444444444
0.630756519419,0.45
0.630756519419,0.45555555555555555
0.732618175799,0.46111111111111114
0.732618175799,0.4666666666666667
0.763535926118,0.4722222222222222
0.763535926118,0.4777777777777778
0.789038929387,0.48333333333333334
0.789038929387,0.4888888888888889
1.33961033073,0.49444444444444446
1.33961033073,0.5
1.61154311668,0.5055555555555555
1.61154311668,0.5111111111111111
1.94476567951,0.5166666666666667
1.94476567951,0.5222222222222223
1.99004122621,0.5277777777777778
1.99004122621,0.5333333333333333
2.38576788077,0.5388888888888889
2.38576788077,0.5444444444444444
2.71887386643,0.55
2.71887386643,0.5555555555555556
2.7968684736,0.5611111111111111
2.7968684736,0.5666666666666667
2.85763175226,0.5722222222222222
2.85763175226,0.5777777777777777
2.86051451153,0.5833333333333334
2.86051451153,0.5888888888888889
2.92305870174,0.5944444444444444
2.92305870174,0.6
2.957717318,0.6055555555555555
2.957717318,0.6111111111111112
3.08032016055,0.6166666666666667
3.08032016055,0.6222222222222222
3.20977571364,0.6277777777777778
3.20977571364,0.6333333333333333
3.231474294,0.6388888888888888
3.231474294,0.6444444444444445
3.36071631126,0.65
3.36071631126,0.6555555555555556
3.44697351404,0.6611111111111111
3.44697351404,0.6666666666666666
3.48746114142,0.6722222222222223
3.48746114142,0.6777777777777778
3.6100197023,0.6833333333333333
3.6100197023,0.6888888888888889
3.66932696896,0.6944444444444444
3.66932696896,0.7
3.85698157324,0.7055555555555556
3.85698157324,0.7111111111111111
3.96335321896,0.7166666666666667
3.96335321896,0.7222222222222222
4.0175324635,0.7277777777777777
4.0175324635,0.7333333333333333
4.3939730606,0.7388888888888889
4.3939730606,0.7444444444444445
5.27917422583,0.75
5.27917422583,0.7555555555555555
5.40303253865,0.7611111111111111
5.40303253865,0.7666666666666667
5.45861712622,0.7722222222222223
5.45861712622,0.7777777777777778
5.82073207061,0.7833333333333333
5.82073207061,0.7888888888888889
5.91585006764,0.7944444444444444
5.91585006764,0.8
5.96249291547,0.8055555555555556
5.96249291547,0.8111111111111111
6.4035738833,0.8166666666666667
6.4035738833,0.8222222222222222
6.69726994524,0.8277777777777777
6.69726994524,0.8333333333333334
6.77744555309,0.8388888888888889
6.77744555309,0.8444444444444444
7.38383916911,0.85
7.38383916911,0.8555555555555555
8.0988560321,0.8611111111111112
8.0988560321,0.8666666666666667
8.14157908471,0.8722222222222222
8.14157908471,0.8777777777777778
8.9901169256,0.8833333333333333
8.9901169256,0.8888888888888888
9.03247182527,0.8944444444444445
9.03247182527,0.9
9.78544302733,0.9055555555555556
9.78544302733,0.9111111111111111
10.131216934,0.9166666666666666
10.131216934,0.9222222222222223
10.713305748,0.9277777777777778
10.713305748,0.9333333333333333
11.7203127458,0.9388888888888889
11.7203127458,0.9444444444444444
11.8184478502,0.95
11.8184478502,0.9555555555555556
12.2151227953,0.9611111111111111
12.2151227953,0.9666666666666667
13.3885874221,0.9722222222222222
13.3885874221,0.9777777777777777
14.5367387807,0.9833333333333333
14.5367387807,0.9888888888888889
15.1019709042,0.9944444444444445
15.1019709042,1.0
