Congestion,CDF
0.0262505245502,0.005555555555555556
0.0262505245502,0.011111111111111112
0.0263272586308,0.016666666666666666
0.0263272586308,0.022222222222222223
0.0267959430603,0.027777777777777776
0.0267959430603,0.03333333333333333
0.0269525735106,0.03888888888888889
0.0269525735106,0.044444444444444446
0.0269977529937,0.05
0.0269977529937,0.05555555555555555
0.0270414317869,0.06111111111111111
0.0270414317869,0.06666666666666667
0.0275517393345,0.07222222222222222
0.0275517393345,0.07777777777777778
0.0275704712354,0.08333333333333333
0.0275704712354,0.08888888888888889
0.0276198867942,0.09444444444444444
0.0276198867942,0.1
0.0281079093754,0.10555555555555556
0.0281079093754,0.1111111111111111
0.0281710468426,0.11666666666666667
0.0281710468426,0.12222222222222222
0.0284619207592,0.12777777777777777
0.0284619207592,0.13333333333333333
0.0287001664272,0.1388888888888889
0.0287001664272,0.14444444444444443
0.0287157412532,0.15
0.0287157412532,0.15555555555555556
0.028834023632,0.16111111111111112
0.028834023632,0.16666666666666666
0.0289459940276,0.17222222222222222
0.0289459940276,0.17777777777777778
0.0289472130649,0.18333333333333332
0.0289472130649,0.18888888888888888
0.0290297249156,0.19444444444444445
0.0290297249156,0.2
0.0292274712998,0.20555555555555555
0.0292274712998,0.2111111111111111
0.0292901550189,0.21666666666666667
0.0292901550189,0.2222222222222222
0.0293078057264,0.22777777777777777
0.0293078057264,0.23333333333333334
0.0295188709335,0.2388888888888889
0.0295188709335,0.24444444444444444
0.0297455874925,0.25
0.0297455874925,0.25555555555555554
0.0299853877078,0.2611111111111111
0.0299853877078,0.26666666666666666
0.0301919782676,0.2722222222222222
0.0301919782676,0.2777777777777778
0.0302513334665,0.2833333333333333
0.0302513334665,0.28888888888888886
0.0305416210938,0.29444444444444445
0.0305416210938,0.3
0.0310711526799,0.3055555555555556
0.0310711526799,0.3111111111111111
0.0310776057962,0.31666666666666665
0.0310776057962,0.32222222222222224
0.0312212041679,0.3277777777777778
0.0312212041679,0.3333333333333333
0.0312321034631,0.3388888888888889
0.0312321034631,0.34444444444444444
0.0312625863861,0.35
0.0312625863861,0.35555555555555557
0.0316558455293,0.3611111111111111
0.0316558455293,0.36666666666666664
0.0317236014053,0.37222222222222223
0.0317236014053,0.37777777777777777
0.0317944353907,0.38333333333333336
0.0317944353907,0.3888888888888889
0.031796566841,0.39444444444444443
0.031796566841,0.4
0.0318206926134,0.40555555555555556
0.0318206926134,0.4111111111111111
0.0320271767864,0.4166666666666667
0.0320271767864,0.4222222222222222
0.0323011385381,0.42777777777777776
0.0323011385381,0.43333333333333335
0.0326947296142,0.4388888888888889
0.0326947296142,0.4444444444444444
0.809251087065,0.45
0.809251087065,0.45555555555555555
0.946789947883,0.46111111111111114
0.946789947883,0.4666666666666667
0.985187863991,0.4722222222222222
0.985187863991,0.4777777777777778
1.05533197471,0.48333333333333334
1.05533197471,0.4888888888888889
1.70657513824,0.49444444444444446
1.70657513824,0.5
2.1149436757,0.5055555555555555
2.1149436757,0.5111111111111111
2.45127971939,0.5166666666666667
2.45127971939,0.5222222222222223
2.50916742475,0.5277777777777778
2.50916742475,0.5333333333333333
3.05313091557,0.5388888888888889
3.05313091557,0.5444444444444444
3.36980771129,0.55
3.36980771129,0.5555555555555556
3.47147588665,0.5611111111111111
3.47147588665,0.5666666666666667
3.53158151019,0.5722222222222222
3.53158151019,0.5777777777777777
3.55662809307,0.5833333333333334
3.55662809307,0.5888888888888889
3.65424517668,0.5944444444444444
3.65424517668,0.6
3.7044894256,0.6055555555555555
3.7044894256,0.6111111111111112
3.89964347933,0.6166666666666667
3.89964347933,0.6222222222222222
4.01410653741,0.6277777777777778
4.01410653741,0.6333333333333333
4.08107904123,0.6388888888888888
4.08107904123,0.6444444444444445
4.15569862557,0.65
4.15569862557,0.6555555555555556
4.30558261387,0.6611111111111111
4.30558261387,0.6666666666666666
4.32083638848,0.6722222222222223
4.32083638848,0.6777777777777778
4.54808909971,0.6833333333333333
4.54808909971,0.6888888888888889
4.57590003387,0.6944444444444444
4.57590003387,0.7
4.71116577259,0.7055555555555556
4.71116577259,0.7111111111111111
4.8879666136,0.7166666666666667
4.8879666136,0.7222222222222222
5.06968359386,0.7277777777777777
5.06968359386,0.7333333333333333
5.36356605893,0.7388888888888889
5.36356605893,0.7444444444444445
6.40893997959,0.75
6.40893997959,0.7555555555555555
6.57252823982,0.7611111111111111
6.57252823982,0.7666666666666667
6.60151411825,0.7722222222222223
6.60151411825,0.7777777777777778
7.02099408485,0.7833333333333333
7.02099408485,0.7888888888888889
7.24249243158,0.7944444444444444
7.24249243158,0.8
7.31739541733,0.8055555555555556
7.31739541733,0.8111111111111111
7.72975858123,0.8166666666666667
7.72975858123,0.8222222222222222
8.11456030066,0.8277777777777777
8.11456030066,0.8333333333333334
8.26257254335,0.8388888888888889
8.26257254335,0.8444444444444444
8.92560394394,0.85
8.92560394394,0.8555555555555555
9.78113960555,0.8611111111111112
9.78113960555,0.8666666666666667
9.95431983757,0.8722222222222222
9.95431983757,0.8777777777777778
10.7973903742,0.8833333333333333
10.7973903742,0.8888888888888888
10.8878013337,0.8944444444444445
10.8878013337,0.9
11.746769785,0.9055555555555556
11.746769785,0.9111111111111111
12.246416189,0.9166666666666666
12.246416189,0.9222222222222223
12.823725047,0.9277777777777778
12.823725047,0.9333333333333333
14.0772811388,0.9388888888888889
14.0772811388,0.9444444444444444
14.2835824037,0.95
14.2835824037,0.9555555555555556
14.7580115513,0.9611111111111111
14.7580115513,0.9666666666666667
15.9929187967,0.9722222222222222
15.9929187967,0.9777777777777777
17.3543339217,0.9833333333333333
17.3543339217,0.9888888888888889
18.0749818341,0.9944444444444445
18.0749818341,1.0
