Congestion,CDF
0.0194988107796,0.005555555555555556
0.0194988107796,0.011111111111111112
0.019677702413,0.016666666666666666
0.019677702413,0.022222222222222223
0.0198929679165,0.027777777777777776
0.0198929679165,0.03333333333333333
0.0199705252647,0.03888888888888889
0.0199705252647,0.044444444444444446
0.0199891641314,0.05
0.0199891641314,0.05555555555555555
0.0200766065663,0.06111111111111111
0.0200766065663,0.06666666666666667
0.0202482569916,0.07222222222222222
0.0202482569916,0.07777777777777778
0.0203141476545,0.08333333333333333
0.0203141476545,0.08888888888888889
0.0204472895343,0.09444444444444444
0.0204472895343,0.1
0.0204747882394,0.10555555555555556
0.0204747882394,0.1111111111111111
0.0205521439347,0.11666666666666667
0.0205521439347,0.12222222222222222
0.0205819324774,0.12777777777777777
0.0205819324774,0.13333333333333333
0.0207234913871,0.1388888888888889
0.0207234913871,0.14444444444444443
0.02085509843,0.15
0.02085509843,0.15555555555555556
0.0210167235069,0.16111111111111112
0.0210167235069,0.16666666666666666
0.0211576722785,0.17222222222222222
0.0211576722785,0.17777777777777778
0.0211985673188,0.18333333333333332
0.0211985673188,0.18888888888888888
0.0213112232568,0.19444444444444445
0.0213112232568,0.2
0.0213352883643,0.20555555555555555
0.0213352883643,0.2111111111111111
0.0213377944138,0.21666666666666667
0.0213377944138,0.2222222222222222
0.0213460122255,0.22777777777777777
0.0213460122255,0.23333333333333334
0.0213636221049,0.2388888888888889
0.0213636221049,0.24444444444444444
0.0214248781664,0.25
0.0214248781664,0.25555555555555554
0.0215200626985,0.2611111111111111
0.0215200626985,0.26666666666666666
0.0220263102408,0.2722222222222222
0.0220263102408,0.2777777777777778
0.0225142423875,0.2833333333333333
0.0225142423875,0.28888888888888886
0.0226891087835,0.29444444444444445
0.0226891087835,0.3
0.0234448313074,0.3055555555555556
0.0234448313074,0.3111111111111111
0.0235238275099,0.31666666666666665
0.0235238275099,0.32222222222222224
0.0236148458512,0.3277777777777778
0.0236148458512,0.3333333333333333
0.0236266721425,0.3388888888888889
0.0236266721425,0.34444444444444444
0.0237434315868,0.35
0.0237434315868,0.35555555555555557
0.0237798272525,0.3611111111111111
0.0237798272525,0.36666666666666664
0.0239978623579,0.37222222222222223
0.0239978623579,0.37777777777777777
0.0240299067211,0.38333333333333336
0.0240299067211,0.3888888888888889
0.02423036653,0.39444444444444443
0.02423036653,0.4
0.0242763996733,0.40555555555555556
0.0242763996733,0.4111111111111111
0.0242792660594,0.4166666666666667
0.0242792660594,0.4222222222222222
0.0244187510391,0.42777777777777776
0.0244187510391,0.43333333333333335
0.0248117540346,0.4388888888888889
0.0248117540346,0.4444444444444444
0.578881087889,0.45
0.578881087889,0.45555555555555555
0.672388865495,0.46111111111111114
0.672388865495,0.4666666666666667
0.711907521959,0.4722222222222222
0.711907521959,0.4777777777777778
0.727232296269,0.48333333333333334
0.727232296269,0.4888888888888889
1.243519134,0.49444444444444446
1.243519134,0.5
1.49122380909,0.5055555555555555
1.49122380909,0.5111111111111111
1.79921768635,0.5166666666666667
1.79921768635,0.5222222222222223
1.84090759659,0.5277777777777778
1.84090759659,0.5333333333333333
2.19622318508,0.5388888888888889
2.19622318508,0.5444444444444444
2.5315161656,0.55
2.5315161656,0.5555555555555556
2.59536754711,0.5611111111111111
2.59536754711,0.5666666666666667
2.66081862804,0.5722222222222222
2.66081862804,0.5777777777777777
2.66431724224,0.5833333333333334
2.66431724224,0.5888888888888889
2.71649231999,0.5944444444444444
2.71649231999,0.6
2.7578987085,0.6055555555555555
2.7578987085,0.6111111111111112
2.84551252927,0.6166666666666667
2.84551252927,0.6222222222222222
2.98281879072,0.6277777777777778
2.98281879072,0.6333333333333333
2.98373726442,0.6388888888888888
2.98373726442,0.6444444444444445
3.13396844622,0.65
3.13396844622,0.6555555555555556
3.18614142504,0.6611111111111111
3.18614142504,0.6666666666666666
3.24744798742,0.6722222222222223
3.24744798742,0.6777777777777778
3.33550634655,0.6833333333333333
3.33550634655,0.6888888888888889
3.42218539262,0.6944444444444444
3.42218539262,0.7
3.6053785016,0.7055555555555556
3.6053785016,0.7111111111111111
3.68782156209,0.7166666666666667
3.68782156209,0.7222222222222222
3.70894277745,0.7277777777777777
3.70894277745,0.7333333333333333
4.10669511762,0.7388888888888889
4.10669511762,0.7444444444444445
4.94312153127,0.75
4.94312153127,0.7555555555555555
5.05464709749,0.7611111111111111
5.05464709749,0.7666666666666667
5.11877088175,0.7722222222222223
5.11877088175,0.7777777777777778
5.46428570582,0.7833333333333333
5.46428570582,0.7888888888888889
5.52158710904,0.7944444444444444
5.52158710904,0.8
5.56105300448,0.8055555555555556
5.56105300448,0.8111111111111111
6.00946659541,0.8166666666666667
6.00946659541,0.8222222222222222
6.27620170571,0.8277777777777777
6.27620170571,0.8333333333333334
6.33416557048,0.8388888888888889
6.33416557048,0.8444444444444444
6.9250010012,0.85
6.9250010012,0.8555555555555555
7.55080391021,0.8611111111111112
7.55080391021,0.8666666666666667
7.65517983016,0.8722222222222222
7.65517983016,0.8777777777777778
8.45446345404,0.8833333333333333
8.45446345404,0.8888888888888888
8.4816333976,0.8944444444444445
8.4816333976,0.9
9.20357619049,0.9055555555555556
9.20357619049,0.9111111111111111
9.50145738296,0.9166666666666666
9.50145738296,0.9222222222222223
10.0846069734,0.9277777777777778
10.0846069734,0.9333333333333333
11.0153113415,0.9388888888888889
11.0153113415,0.9444444444444444
11.0791554171,0.95
11.0791554171,0.9555555555555556
11.4517493687,0.9611111111111111
11.4517493687,0.9666666666666667
12.6097445685,0.9722222222222222
12.6097445685,0.9777777777777777
13.6935645902,0.9833333333333333
13.6935645902,0.9888888888888889
14.211432742,0.9944444444444445
14.211432742,1.0
