Congestion,CDF
0.0121819727911,0.005555555555555556
0.0121819727911,0.011111111111111112
0.0126621771773,0.016666666666666666
0.0126621771773,0.022222222222222223
0.0127576579997,0.027777777777777776
0.0127576579997,0.03333333333333333
0.0128950703422,0.03888888888888889
0.0128950703422,0.044444444444444446
0.0130209144374,0.05
0.0130209144374,0.05555555555555555
0.0130818222242,0.06111111111111111
0.0130818222242,0.06666666666666667
0.0130846767113,0.07222222222222222
0.0130846767113,0.07777777777777778
0.0131347465589,0.08333333333333333
0.0131347465589,0.08888888888888889
0.013203839408,0.09444444444444444
0.013203839408,0.1
0.0132077879921,0.10555555555555556
0.0132077879921,0.1111111111111111
0.0132387637053,0.11666666666666667
0.0132387637053,0.12222222222222222
0.0133198469029,0.12777777777777777
0.0133198469029,0.13333333333333333
0.0133202766608,0.1388888888888889
0.0133202766608,0.14444444444444443
0.013439225592,0.15
0.013439225592,0.15555555555555556
0.0135146020603,0.16111111111111112
0.0135146020603,0.16666666666666666
0.0135835634241,0.17222222222222222
0.0135835634241,0.17777777777777778
0.013599242694,0.18333333333333332
0.013599242694,0.18888888888888888
0.013613422195,0.19444444444444445
0.013613422195,0.2
0.0136140506808,0.20555555555555555
0.0136140506808,0.2111111111111111
0.0136269863445,0.21666666666666667
0.0136269863445,0.2222222222222222
0.0138262352771,0.22777777777777777
0.0138262352771,0.23333333333333334
0.0138793446748,0.2388888888888889
0.0138793446748,0.24444444444444444
0.0139166582671,0.25
0.0139166582671,0.25555555555555554
0.0140619049207,0.2611111111111111
0.0140619049207,0.26666666666666666
0.01407024474,0.2722222222222222
0.01407024474,0.2777777777777778
0.0140853761109,0.2833333333333333
0.0140853761109,0.28888888888888886
0.0142911795381,0.29444444444444445
0.0142911795381,0.3
0.0147618466665,0.3055555555555556
0.0147618466665,0.3111111111111111
0.0148116904683,0.31666666666666665
0.0148116904683,0.32222222222222224
0.0148158947161,0.3277777777777778
0.0148158947161,0.3333333333333333
0.0148637298259,0.3388888888888889
0.0148637298259,0.34444444444444444
0.0149151044443,0.35
0.0149151044443,0.35555555555555557
0.0149404424858,0.3611111111111111
0.0149404424858,0.36666666666666664
0.0151052005892,0.37222222222222223
0.0151052005892,0.37777777777777777
0.0151147261151,0.38333333333333336
0.0151147261151,0.3888888888888889
0.0151645215191,0.39444444444444443
0.0151645215191,0.4
0.0152039171721,0.40555555555555556
0.0152039171721,0.4111111111111111
0.0152636576687,0.4166666666666667
0.0152636576687,0.4222222222222222
0.0152922509392,0.42777777777777776
0.0152922509392,0.43333333333333335
0.0153826792269,0.4388888888888889
0.0153826792269,0.4444444444444444
0.406652014891,0.45
0.406652014891,0.45555555555555555
0.461423492007,0.46111111111111114
0.461423492007,0.4666666666666667
0.502886063512,0.4722222222222222
0.502886063512,0.4777777777777778
0.561498760696,0.48333333333333334
0.561498760696,0.4888888888888889
0.837335351985,0.49444444444444446
0.837335351985,0.5
1.03281358397,0.5055555555555555
1.03281358397,0.5111111111111111
1.10340750905,0.5166666666666667
1.10340750905,0.5222222222222223
1.12147013977,0.5277777777777778
1.12147013977,0.5333333333333333
1.30238470552,0.5388888888888889
1.30238470552,0.5444444444444444
1.53034097767,0.55
1.53034097767,0.5555555555555556
1.54519153927,0.5611111111111111
1.54519153927,0.5666666666666667
1.60224858023,0.5722222222222222
1.60224858023,0.5777777777777777
1.62467496986,0.5833333333333334
1.62467496986,0.5888888888888889
1.73433607017,0.5944444444444444
1.73433607017,0.6
1.73565962902,0.6055555555555555
1.73565962902,0.6111111111111112
1.75496223798,0.6166666666666667
1.75496223798,0.6222222222222222
1.82037087966,0.6277777777777778
1.82037087966,0.6333333333333333
1.82180522653,0.6388888888888888
1.82180522653,0.6444444444444445
1.88944051052,0.65
1.88944051052,0.6555555555555556
1.9622786686,0.6611111111111111
1.9622786686,0.6666666666666666
1.97886741131,0.6722222222222223
1.97886741131,0.6777777777777778
2.02489489615,0.6833333333333333
2.02489489615,0.6888888888888889
2.1387312005,0.6944444444444444
2.1387312005,0.7
2.14900414754,0.7055555555555556
2.14900414754,0.7111111111111111
2.155690437,0.7166666666666667
2.155690437,0.7222222222222222
2.21548386075,0.7277777777777777
2.21548386075,0.7333333333333333
2.48365257814,0.7388888888888889
2.48365257814,0.7444444444444445
2.97783630595,0.75
2.97783630595,0.7555555555555555
2.99199278321,0.7611111111111111
2.99199278321,0.7666666666666667
3.08544160232,0.7722222222222223
3.08544160232,0.7777777777777778
3.33674058285,0.7833333333333333
3.33674058285,0.7888888888888889
3.38962888589,0.7944444444444444
3.38962888589,0.8
3.44391071383,0.8055555555555556
3.44391071383,0.8111111111111111
3.65080463623,0.8166666666666667
3.65080463623,0.8222222222222222
3.80579417111,0.8277777777777777
3.80579417111,0.8333333333333334
3.83885077331,0.8388888888888889
3.83885077331,0.8444444444444444
4.22310347456,0.85
4.22310347456,0.8555555555555555
4.63588558088,0.8611111111111112
4.63588558088,0.8666666666666667
4.66736608791,0.8722222222222222
4.66736608791,0.8777777777777778
5.1656608722,0.8833333333333333
5.1656608722,0.8888888888888888
5.17986122223,0.8944444444444445
5.17986122223,0.9
5.56815270251,0.9055555555555556
5.56815270251,0.9111111111111111
5.76706720706,0.9166666666666666
5.76706720706,0.9222222222222223
6.10864532591,0.9277777777777778
6.10864532591,0.9333333333333333
6.70408233432,0.9388888888888889
6.70408233432,0.9444444444444444
6.74352647728,0.95
6.74352647728,0.9555555555555556
6.93189316421,0.9611111111111111
6.93189316421,0.9666666666666667
7.73430328139,0.9722222222222222
7.73430328139,0.9777777777777777
8.38283115693,0.9833333333333333
8.38283115693,0.9888888888888889
8.67497990022,0.9944444444444445
8.67497990022,1.0
