Congestion,CDF
0.0,0.007352941176470588
0.0,0.014705882352941176
0.0,0.022058823529411766
0.0,0.029411764705882353
0.0,0.03676470588235294
0.0,0.04411764705882353
0.0,0.051470588235294115
0.0,0.058823529411764705
0.0,0.0661764705882353
0.0,0.07352941176470588
0.0,0.08088235294117647
0.0,0.08823529411764706
0.0,0.09558823529411764
0.0,0.10294117647058823
1.11550299466e-06,0.11029411764705882
1.11550299466e-06,0.11764705882352941
1.11550299466e-06,0.125
1.11550299466e-06,0.1323529411764706
1.11550299466e-06,0.13970588235294118
1.11550299466e-06,0.14705882352941177
1.11550299466e-06,0.15441176470588236
1.11550299466e-06,0.16176470588235295
1.11550299466e-06,0.16911764705882354
1.11550299466e-06,0.17647058823529413
1.11550299466e-06,0.18382352941176472
1.11550299466e-06,0.19117647058823528
1.11550299466e-06,0.19852941176470587
1.11550299466e-06,0.20588235294117646
1.11550299466e-06,0.21323529411764705
1.11550299466e-06,0.22058823529411764
1.11550299466e-06,0.22794117647058823
1.11550299466e-06,0.23529411764705882
1.11550299466e-06,0.2426470588235294
1.11550299466e-06,0.25
1.11550299466e-06,0.25735294117647056
1.11550299466e-06,0.2647058823529412
1.11550299466e-06,0.27205882352941174
1.11550299466e-06,0.27941176470588236
1.11550299466e-06,0.2867647058823529
1.11550299466e-06,0.29411764705882354
1.11550299466e-06,0.3014705882352941
2.78875748665e-05,0.3088235294117647
2.78875748665e-05,0.3161764705882353
3.01185808559e-05,0.3235294117647059
5.57751497331e-05,0.33088235294117646
5.57751497331e-05,0.3382352941176471
5.57751497331e-05,0.34558823529411764
5.57751497331e-05,0.35294117647058826
8.36627245996e-05,0.3602941176470588
9.29585828884e-05,0.36764705882352944
9.29585828884e-05,0.375
9.29585828884e-05,0.38235294117647056
0.000111550299466,0.3897058823529412
0.000111550299466,0.39705882352941174
0.000111550299466,0.40441176470588236
0.000111550299466,0.4117647058823529
0.000111550299466,0.41911764705882354
0.000111550299466,0.4264705882352941
0.000111550299466,0.4338235294117647
0.000139437874333,0.4411764705882353
0.000167325449199,0.4485294117647059
0.000167325449199,0.45588235294117646
0.000204508882355,0.4632352941176471
0.000223100598932,0.47058823529411764
0.000223100598932,0.47794117647058826
0.000334650898398,0.4852941176470588
0.000455497056153,0.49264705882352944
0.000808739671129,0.5
0.000827331387707,0.5073529411764706
0.00106902370322,0.5147058823529411
0.0013293077353,0.5220588235294118
0.00134789945188,0.5294117647058824
0.00144085803477,0.5367647058823529
0.00145944975135,0.5441176470588235
0.00157100005081,0.5514705882352942
0.0198308410847,0.5588235294117647
0.0205601614511,0.5661764705882353
0.0289702377386,0.5735294117647058
0.0290817477133,0.5808823529411765
0.0292067561208,0.5882352941176471
0.0292621772969,0.5955882352941176
0.029296021928,0.6029411764705882
0.0293608089844,0.6102941176470589
0.029499388041,0.6176470588235294
0.0295203742895,0.625
0.0295551094523,0.6323529411764706
0.0295561498615,0.6397058823529411
0.0295567734193,0.6470588235294118
0.0295573852681,0.6544117647058824
0.0295598960246,0.6617647058823529
0.0295606070969,0.6691176470588235
0.02956530319,0.6764705882352942
0.0295741463368,0.6838235294117647
0.029584763202,0.6911764705882353
0.0296038849029,0.6985294117647058
0.0296125925461,0.7058823529411765
0.0296126088496,0.7132352941176471
0.0296127256303,0.7205882352941176
0.0296127305066,0.7279411764705882
0.0296129800512,0.7352941176470589
0.0296129833025,0.7426470588235294
0.0296129833025,0.75
0.738997400616,0.7573529411764706
0.73935365842,0.7647058823529411
0.777552137591,0.7720588235294118
1.46804044922,0.7794117647058824
1.46804044922,0.7867647058823529
1.4792381601,0.7941176470588235
1.4792381601,0.8014705882352942
2.21699220185,0.8088235294117647
2.46370462893,0.8161764705882353
2.46370462893,0.8235294117647058
2.46370462893,0.8308823529411765
2.9296021928,0.8382352941176471
2.95561498615,0.8455882352941176
2.95741463368,0.8529411764705882
2.96126088496,0.8602941176470589
2.96127305066,0.8676470588235294
2.96129833025,0.875
2.96129833025,0.8823529411764706
3.69467474254,0.8897058823529411
4.3887160613,0.8970588235294118
4.4357684791,0.9044117647058824
5.41574205788,0.9117647058823529
5.85581992249,0.9191176470588235
5.92254561369,0.9264705882352942
8.88389466563,0.9338235294117647
12.0695053029,0.9411764705882353
21.4683140773,0.9485294117647058
21.9032266141,0.9558823529411765
28.3716453566,0.9632352941176471
35.0447863717,0.9705882352941176
35.7631523625,0.9779411764705882
37.0278704802,0.9852941176470589
38.6713271339,0.9926470588235294
40.727343279,1.0
