Congestion,CDF
0.0,0.009433962264150943
0.0,0.018867924528301886
0.0,0.02830188679245283
0.0,0.03773584905660377
0.0,0.04716981132075472
0.0,0.05660377358490566
0.0,0.0660377358490566
0.0,0.07547169811320754
0.0,0.08490566037735849
0.0,0.09433962264150944
0.0,0.10377358490566038
0.0,0.11320754716981132
0.0,0.12264150943396226
0.0,0.1320754716981132
0.0,0.14150943396226415
0.0,0.1509433962264151
0.0,0.16037735849056603
0.0,0.16981132075471697
0.0,0.1792452830188679
0.0,0.18867924528301888
0.0,0.19811320754716982
0.0,0.20754716981132076
0.0,0.2169811320754717
0.0,0.22641509433962265
0.0,0.2358490566037736
0.0,0.24528301886792453
0.0,0.25471698113207547
0.0,0.2641509433962264
0.0,0.27358490566037735
0.0,0.2830188679245283
5.54868616993e-08,0.29245283018867924
1.42947543193e-06,0.3018867924528302
1.60746997328e-06,0.3113207547169811
2.17918937789e-06,0.32075471698113206
2.45991162844e-06,0.330188679245283
3.27321769236e-06,0.33962264150943394
4.99170728955e-06,0.3490566037735849
6.38964902332e-06,0.3584905660377358
6.76225821315e-06,0.36792452830188677
7.60590712598e-06,0.37735849056603776
7.8870302872e-06,0.3867924528301887
9.71082307915e-06,0.39622641509433965
9.93333437678e-06,0.4056603773584906
1.04806453104e-05,0.41509433962264153
4.29918755428e-05,0.42452830188679247
6.71601985452e-05,0.4339622641509434
9.20592475977e-05,0.44339622641509435
9.20592475977e-05,0.4528301886792453
0.000239611838375,0.46226415094339623
0.000239611838375,0.4716981132075472
0.000239611838375,0.4811320754716981
0.000245491326927,0.49056603773584906
0.000245491326927,0.5
0.000245491326927,0.5094339622641509
0.000336752629458,0.5188679245283019
0.000379003560348,0.5283018867924528
0.000452608498373,0.5377358490566038
0.000452608498373,0.5471698113207547
0.000479223676749,0.5566037735849056
0.000479223676749,0.5660377358490566
0.000535407213595,0.5754716981132075
0.000653756813366,0.5849056603773585
0.000833335196453,0.5943396226415094
0.000833335196453,0.6037735849056604
0.00103252217536,0.6132075471698113
0.00103252217536,0.6226415094339622
0.00130395850554,0.6320754716981132
0.00158600229176,0.6415094339622641
0.00214343422268,0.6509433962264151
0.0022817721378,0.660377358490566
0.00334235781487,0.6698113207547169
0.0033906673702,0.6792452830188679
0.00720957214316,0.6886792452830188
0.0072380862968,0.6981132075471698
0.00769692430554,0.7075471698113207
0.0158170038703,0.7169811320754716
0.0195288130009,0.7264150943396226
0.0241421889569,0.7358490566037735
0.0254691972172,0.7452830188679245
0.0290757887434,0.7547169811320755
0.0335138413656,0.7641509433962265
0.0343723395606,0.7735849056603774
0.197748426789,0.7830188679245284
0.716321171734,0.7924528301886793
0.716321171734,0.8018867924528302
0.905332085885,0.8113207547169812
0.905332085885,0.8207547169811321
0.905332085885,0.8301886792452831
1.10803513713,0.839622641509434
1.81066417177,0.8490566037735849
1.81066417177,0.8584905660377359
1.91018979129,0.8679245283018868
1.91018979129,0.8773584905660378
1.91018979129,0.8867924528301887
2.20639710225,0.8962264150943396
2.20639710225,0.9056603773584906
3.17473317155,0.9150943396226415
3.17473317155,0.9245283018867925
3.25050251318,0.9339622641509434
3.29519979461,0.9433962264150944
4.66634646978,0.9528301886792453
4.66634646978,0.9622641509433962
11.4727353877,0.9716981132075472
11.9145793912,0.9811320754716981
12.1721288497,0.9905660377358491
36.1671474342,1.0
