Congestion,CDF
0.0,0.009433962264150943
0.0,0.018867924528301886
0.0,0.02830188679245283
0.0,0.03773584905660377
0.0,0.04716981132075472
0.0,0.05660377358490566
0.0,0.0660377358490566
0.0,0.07547169811320754
0.0,0.08490566037735849
0.0,0.09433962264150944
0.0,0.10377358490566038
0.0,0.11320754716981132
0.0,0.12264150943396226
0.0,0.1320754716981132
0.0,0.14150943396226415
0.0,0.1509433962264151
0.0,0.16037735849056603
0.0,0.16981132075471697
0.0,0.1792452830188679
0.0,0.18867924528301888
0.0,0.19811320754716982
0.0,0.20754716981132076
0.0,0.2169811320754717
0.0,0.22641509433962265
0.0,0.2358490566037736
0.0,0.24528301886792453
0.0,0.25471698113207547
0.0,0.2641509433962264
0.0,0.27358490566037735
0.0,0.2830188679245283
5.38329485926e-08,0.29245283018867924
1.38686663986e-06,0.3018867924528302
1.55955564589e-06,0.3113207547169811
2.11423364308e-06,0.32075471698113206
2.38658832345e-06,0.330188679245283
3.17565193578e-06,0.33962264150943394
4.84291801119e-06,0.3490566037735849
6.19919088706e-06,0.3584905660377358
6.56069360585e-06,0.36792452830188677
7.60590712598e-06,0.37735849056603776
7.65193926989e-06,0.3867924528301887
9.42136973695e-06,0.39622641509433965
9.63724857529e-06,0.4056603773584906
1.01682456519e-05,0.41509433962264153
5.89077447929e-05,0.42452830188679247
6.51583348748e-05,0.4339622641509434
8.93152106938e-05,0.44339622641509435
8.93152106938e-05,0.4528301886792453
0.000232469658265,0.46226415094339623
0.000232469658265,0.4716981132075472
0.000232469658265,0.4811320754716981
0.000238173895183,0.49056603773584906
0.000238173895183,0.5
0.000238173895183,0.5094339622641509
0.000367706490434,0.5188679245283019
0.000439117464555,0.5283018867924528
0.000439117464555,0.5377358490566038
0.000447702475768,0.5471698113207547
0.000464939316529,0.5566037735849056
0.000464939316529,0.5660377358490566
0.000634270092924,0.5754716981132075
0.000677172048381,0.5849056603773585
0.000808495730651,0.5943396226415094
0.000808495730651,0.6037735849056604
0.00100174548505,0.6132075471698113
0.00100174548505,0.6226415094339622
0.00126509103319,0.6320754716981132
0.00153872785783,0.6415094339622641
0.00207954425223,0.6509433962264151
0.0022817721378,0.660377358490566
0.00324273117844,0.6698113207547169
0.00328960075674,0.6792452830188679
0.0070223385427,0.6886792452830188
0.0100385517828,0.6981132075471698
0.0103411868965,0.7075471698113207
0.0187496298396,0.7169811320754716
0.0216472187582,0.7264150943396226
0.026745959918,0.7358490566037735
0.0278419095968,0.7452830188679245
0.0309739501864,0.7547169811320755
0.0351779123355,0.7641509433962265
0.0360022041937,0.7735849056603774
0.218709911683,0.7830188679245284
0.783053707411,0.7924528301886793
0.783053707411,0.8018867924528302
1.00297349692,0.8113207547169812
1.00297349692,0.8207547169811321
1.00297349692,0.8301886792452831
1.35596079927,0.839622641509434
2.00594699385,0.8490566037735849
2.00594699385,0.8584905660377359
2.08814321976,0.8679245283018868
2.08814321976,0.8773584905660378
2.08814321976,0.8867924528301887
2.69866735596,0.8962264150943396
2.69866735596,0.9056603773584906
3.64461718706,0.9150943396226415
3.64461718706,0.9245283018867925
3.74535024411,0.9339622641509434
3.79698089795,0.9433962264150944
5.01985322607,0.9528301886792453
5.01985322607,0.9622641509433962
12.6004188074,0.9716981132075472
12.8477063649,0.9811320754716981
13.3029263109,0.9905660377358491
38.6354284346,1.0
