Congestion,CDF
0.000234176340408,0.005555555555555556
0.000234176340408,0.011111111111111112
0.000234376362284,0.016666666666666666
0.000234376362284,0.022222222222222223
0.00023630068697,0.027777777777777776
0.00023630068697,0.03333333333333333
0.000237890929986,0.03888888888888889
0.000237890929986,0.044444444444444446
0.000238007705162,0.05
0.000238007705162,0.05555555555555555
0.000239650307227,0.06111111111111111
0.000239650307227,0.06666666666666667
0.000240326000039,0.07222222222222222
0.000240326000039,0.07777777777777778
0.000243119780699,0.08333333333333333
0.000243119780699,0.08888888888888889
0.000243172128908,0.09444444444444444
0.000243172128908,0.1
0.000243407321393,0.10555555555555556
0.000243407321393,0.1111111111111111
0.000243621694517,0.11666666666666667
0.000243621694517,0.12222222222222222
0.000244691041361,0.12777777777777777
0.000244691041361,0.13333333333333333
0.000244961362696,0.1388888888888889
0.000244961362696,0.14444444444444443
0.00024634964478,0.15
0.00024634964478,0.15555555555555556
0.000246670317712,0.16111111111111112
0.000246670317712,0.16666666666666666
0.000247388701145,0.17222222222222222
0.000247388701145,0.17777777777777778
0.000249609363171,0.18333333333333332
0.000249609363171,0.18888888888888888
0.000251151397841,0.19444444444444445
0.000251151397841,0.2
0.000251938705742,0.20555555555555555
0.000251938705742,0.2111111111111111
0.000252681722041,0.21666666666666667
0.000252681722041,0.2222222222222222
0.000252986557365,0.22777777777777777
0.000252986557365,0.23333333333333334
0.000253143644321,0.2388888888888889
0.000253143644321,0.24444444444444444
0.00025379603108,0.25
0.00025379603108,0.25555555555555554
0.00025450142764,0.2611111111111111
0.00025450142764,0.26666666666666666
0.000254855426796,0.2722222222222222
0.000254855426796,0.2777777777777778
0.000255096029401,0.2833333333333333
0.000255096029401,0.28888888888888886
0.000255215517732,0.29444444444444445
0.000255215517732,0.3
0.000255464004075,0.3055555555555556
0.000255464004075,0.3111111111111111
0.000255677744038,0.31666666666666665
0.000255677744038,0.32222222222222224
0.000255726184961,0.3277777777777778
0.000255726184961,0.3333333333333333
0.000256464560632,0.3388888888888889
0.000256464560632,0.34444444444444444
0.000256654827811,0.35
0.000256654827811,0.35555555555555557
0.000256918580201,0.3611111111111111
0.000256918580201,0.36666666666666664
0.000258839651404,0.37222222222222223
0.000258839651404,0.37777777777777777
0.000259655723154,0.38333333333333336
0.000259655723154,0.3888888888888889
0.000260143684302,0.39444444444444443
0.000260143684302,0.4
0.000262381150334,0.40555555555555556
0.000262381150334,0.4111111111111111
0.000262828188917,0.4166666666666667
0.000262828188917,0.4222222222222222
0.000263240124342,0.42777777777777776
0.000263240124342,0.43333333333333335
0.000264221195625,0.4388888888888889
0.000264221195625,0.4444444444444444
0.00849007876255,0.45
0.00849007876255,0.45555555555555555
0.00900837876335,0.46111111111111114
0.00900837876335,0.4666666666666667
0.0117394871595,0.4722222222222222
0.0117394871595,0.4777777777777778
0.0137564999773,0.48333333333333334
0.0137564999773,0.4888888888888889
0.0159228290278,0.49444444444444446
0.0159228290278,0.5
0.0215094219781,0.5055555555555555
0.0215094219781,0.5111111111111111
0.0216178941706,0.5166666666666667
0.0216178941706,0.5222222222222223
0.0218054136509,0.5277777777777778
0.0218054136509,0.5333333333333333
0.0277786274225,0.5388888888888889
0.0277786274225,0.5444444444444444
0.0277897034508,0.55
0.0277897034508,0.5555555555555556
0.0286176986874,0.5611111111111111
0.0286176986874,0.5666666666666667
0.028728084913,0.5722222222222222
0.028728084913,0.5777777777777777
0.0295351783857,0.5833333333333334
0.0295351783857,0.5888888888888889
0.0296640225809,0.5944444444444444
0.0296640225809,0.6
0.032265341796,0.6055555555555555
0.032265341796,0.6111111111111112
0.0325650381681,0.6166666666666667
0.0325650381681,0.6222222222222222
0.0332067528722,0.6277777777777778
0.0332067528722,0.6333333333333333
0.0336745995749,0.6388888888888888
0.0336745995749,0.6444444444444445
0.0344247765926,0.65
0.0344247765926,0.6555555555555556
0.0345228519968,0.6611111111111111
0.0345228519968,0.6666666666666666
0.0354451700627,0.6722222222222223
0.0354451700627,0.6777777777777778
0.0358855160841,0.6833333333333333
0.0358855160841,0.6888888888888889
0.0372226036738,0.6944444444444444
0.0372226036738,0.7
0.0381103498737,0.7055555555555556
0.0381103498737,0.7111111111111111
0.0399464592156,0.7166666666666667
0.0399464592156,0.7222222222222222
0.0412820796221,0.7277777777777777
0.0412820796221,0.7333333333333333
0.0441396566013,0.7388888888888889
0.0441396566013,0.7444444444444445
0.0486060154538,0.75
0.0486060154538,0.7555555555555555
0.0494236694114,0.7611111111111111
0.0494236694114,0.7666666666666667
0.0508208164944,0.7722222222222223
0.0508208164944,0.7777777777777778
0.051832780003,0.7833333333333333
0.051832780003,0.7888888888888889
0.0526986388048,0.7944444444444444
0.0526986388048,0.8
0.0543435080086,0.8055555555555556
0.0543435080086,0.8111111111111111
0.0566641608703,0.8166666666666667
0.0566641608703,0.8222222222222222
0.0600101985591,0.8277777777777777
0.0600101985591,0.8333333333333334
0.0623873190199,0.8388888888888889
0.0623873190199,0.8444444444444444
0.0643113993538,0.85
0.0643113993538,0.8555555555555555
0.071052407531,0.8611111111111112
0.071052407531,0.8666666666666667
0.075761973729,0.8722222222222222
0.075761973729,0.8777777777777778
0.0788941347704,0.8833333333333333
0.0788941347704,0.8888888888888888
0.0797399832448,0.8944444444444445
0.0797399832448,0.9
0.0857881472123,0.9055555555555556
0.0857881472123,0.9111111111111111
0.0902072026695,0.9166666666666666
0.0902072026695,0.9222222222222223
0.0929551605661,0.9277777777777778
0.0929551605661,0.9333333333333333
0.1031115947,0.9388888888888889
0.1031115947,0.9444444444444444
0.105923045475,0.95
0.105923045475,0.9555555555555556
0.108398197041,0.9611111111111111
0.108398197041,0.9666666666666667
0.112759137907,0.9722222222222222
0.112759137907,0.9777777777777777
0.122735419023,0.9833333333333333
0.122735419023,0.9888888888888889
0.128295555015,0.9944444444444445
0.128295555015,1.0
