Congestion,CDF
0.0,0.007352941176470588
0.0,0.014705882352941176
0.0,0.022058823529411766
0.0,0.029411764705882353
0.0,0.03676470588235294
0.0,0.04411764705882353
0.0,0.051470588235294115
0.0,0.058823529411764705
0.0,0.0661764705882353
0.0,0.07352941176470588
0.0,0.08088235294117647
0.0,0.08823529411764706
0.0,0.09558823529411764
0.0,0.10294117647058823
4.13119403277e-06,0.11029411764705882
4.13119403277e-06,0.11764705882352941
4.13119403277e-06,0.125
4.13119403277e-06,0.1323529411764706
4.13119403277e-06,0.13970588235294118
4.13119403277e-06,0.14705882352941177
4.13119403277e-06,0.15441176470588236
4.13119403277e-06,0.16176470588235295
4.13119403277e-06,0.16911764705882354
4.13119403277e-06,0.17647058823529413
4.13119403277e-06,0.18382352941176472
4.13119403277e-06,0.19117647058823528
4.13119403277e-06,0.19852941176470587
4.13119403277e-06,0.20588235294117646
4.13119403277e-06,0.21323529411764705
4.13119403277e-06,0.22058823529411764
4.13119403277e-06,0.22794117647058823
4.13119403277e-06,0.23529411764705882
4.13119403277e-06,0.2426470588235294
4.13119403277e-06,0.25
4.13119403277e-06,0.25735294117647056
4.13119403277e-06,0.2647058823529412
4.13119403277e-06,0.27205882352941174
4.13119403277e-06,0.27941176470588236
4.13119403277e-06,0.2867647058823529
4.13119403277e-06,0.29411764705882354
4.13119403277e-06,0.3014705882352941
0.000103279850819,0.3088235294117647
0.000103279850819,0.3161764705882353
0.000111542238885,0.3235294117647059
0.000206559701639,0.33088235294117646
0.000206559701639,0.3382352941176471
0.000206559701639,0.34558823529411764
0.000206559701639,0.35294117647058826
0.000309839552458,0.3602941176470588
0.000344266169398,0.36764705882352944
0.000344266169398,0.375
0.000344266169398,0.38235294117647056
0.000413119403277,0.3897058823529412
0.000413119403277,0.39705882352941174
0.000413119403277,0.40441176470588236
0.000413119403277,0.4117647058823529
0.000413119403277,0.41911764705882354
0.000413119403277,0.4264705882352941
0.000413119403277,0.4338235294117647
0.000516399254097,0.4411764705882353
0.000619679104916,0.4485294117647059
0.000619679104916,0.45588235294117646
0.000757385572675,0.4632352941176471
0.000826238806555,0.47058823529411764
0.000826238806555,0.47794117647058826
0.00123935820983,0.4852941176470588
0.00168690423005,0.49264705882352944
0.00299511567376,0.5
0.00306396890764,0.5073529411764706
0.00395906094807,0.5147058823529411
0.00492300622239,0.5220588235294118
0.00499185945627,0.5294117647058824
0.00533612562567,0.5367647058823529
0.00540497885955,0.5441176470588235
0.00581809826282,0.5514705882352942
0.0555113533598,0.5588235294117647
0.0561715914845,0.5661764705882353
0.0636604737993,0.5735294117647058
0.0637097551979,0.5808823529411765
0.0638080656568,0.5882352941176471
0.0638452783486,0.5955882352941176
0.0638643589421,0.6029411764705882
0.0638727835712,0.6102941176470589
0.0639268948075,0.6176470588235294
0.063938339275,0.625
0.0639416000527,0.6323529411764706
0.0639453250072,0.6397058823529411
0.0639478108772,0.6470588235294118
0.0639482931565,0.6544117647058824
0.0639486354856,0.6617647058823529
0.0639491746319,0.6691176470588235
0.0639493465681,0.6764705882352942
0.0639503255131,0.6838235294117647
0.0639503450781,0.6911764705882353
0.063955194185,0.6985294117647058
0.0639566874978,0.7058823529411765
0.0639566960739,0.7132352941176471
0.0639567854675,0.7205882352941176
0.0639567880723,0.7279411764705882
0.0639568655142,0.7352941176470589
0.0639568672507,0.7426470588235294
0.0639568672507,0.75
1.59870732891,0.7573529411764706
1.59875813783,0.7647058823529411
1.70949250213,0.7720588235294118
3.19363917856,0.7794117647058824
3.19363917856,0.7867647058823529
3.19751725391,0.7941176470588235
3.19751725391,0.8014705882352942
4.79612198674,0.8088235294117647
5.32905916265,0.8161764705882353
5.32905916265,0.8235294117647058
5.32905916265,0.8308823529411765
6.38643589421,0.8382352941176471
6.39491746319,0.8455882352941176
6.39503255131,0.8529411764705882
6.39566960739,0.8602941176470589
6.39567880723,0.8676470588235294
6.39568672507,0.875
6.39568672507,0.8823529411764706
7.99364198573,0.8897058823529411
9.57444574424,0.8970588235294118
9.59204975463,0.9044117647058824
11.7228930902,0.9117647058823529
12.7709637291,0.9191176470588235
12.791357354,0.9264705882352942
19.1870600016,0.9338235294117647
26.1124821601,0.9411764705882353
46.3685138505,0.9485294117647058
47.4217039096,0.9558823529411765
61.2906096856,0.9632352941176471
76.1331607628,0.9705882352941176
77.2768194455,0.9779411764705882
81.6842960988,0.9852941176470589
83.6477949653,0.9926470588235294
89.2649541137,1.0
