Congestion,CDF
0.0,0.007352941176470588
0.0,0.014705882352941176
0.0,0.022058823529411766
0.0,0.029411764705882353
0.0,0.03676470588235294
0.0,0.04411764705882353
0.0,0.051470588235294115
0.0,0.058823529411764705
0.0,0.0661764705882353
0.0,0.07352941176470588
0.0,0.08088235294117647
0.0,0.08823529411764706
0.0,0.09558823529411764
0.0,0.10294117647058823
4.33055639535e-06,0.11029411764705882
4.33055639535e-06,0.11764705882352941
4.33055639535e-06,0.125
4.33055639535e-06,0.1323529411764706
4.33055639535e-06,0.13970588235294118
4.33055639535e-06,0.14705882352941177
4.33055639535e-06,0.15441176470588236
4.33055639535e-06,0.16176470588235295
4.33055639535e-06,0.16911764705882354
4.33055639535e-06,0.17647058823529413
4.33055639535e-06,0.18382352941176472
4.33055639535e-06,0.19117647058823528
4.33055639535e-06,0.19852941176470587
4.33055639535e-06,0.20588235294117646
4.33055639535e-06,0.21323529411764705
4.33055639535e-06,0.22058823529411764
4.33055639535e-06,0.22794117647058823
4.33055639535e-06,0.23529411764705882
4.33055639535e-06,0.2426470588235294
4.33055639535e-06,0.25
4.33055639535e-06,0.25735294117647056
4.33055639535e-06,0.2647058823529412
4.33055639535e-06,0.27205882352941174
4.33055639535e-06,0.27941176470588236
4.33055639535e-06,0.2867647058823529
4.33055639535e-06,0.29411764705882354
4.33055639535e-06,0.3014705882352941
0.000108263909884,0.3088235294117647
0.000108263909884,0.3161764705882353
0.000116925022674,0.3235294117647059
0.000216527819768,0.33088235294117646
0.000216527819768,0.3382352941176471
0.000216527819768,0.34558823529411764
0.000216527819768,0.35294117647058826
0.000324791729651,0.3602941176470588
0.000360879699613,0.36764705882352944
0.000360879699613,0.375
0.000360879699613,0.38235294117647056
0.000433055639535,0.3897058823529412
0.000433055639535,0.39705882352941174
0.000433055639535,0.40441176470588236
0.000433055639535,0.4117647058823529
0.000433055639535,0.41911764705882354
0.000433055639535,0.4264705882352941
0.000433055639535,0.4338235294117647
0.000541319549419,0.4411764705882353
0.000649583459303,0.4485294117647059
0.000649583459303,0.45588235294117646
0.000793935339148,0.4632352941176471
0.00086611127907,0.47058823529411764
0.00086611127907,0.47794117647058826
0.00129916691861,0.4852941176470588
0.0017683105281,0.49264705882352944
0.00313965338663,0.5
0.00321182932655,0.5073529411764706
0.00415011654554,0.5147058823529411
0.00516057970446,0.5220588235294118
0.00523275564438,0.5294117647058824
0.00559363534399,0.5367647058823529
0.00566581128392,0.5441176470588235
0.00609886692345,0.5514705882352942
0.0298169079501,0.5588235294117647
0.0308297435965,0.5661764705882353
0.0430845158969,0.5735294117647058
0.0431511039726,0.5808823529411765
0.0433223427849,0.5882352941176471
0.0433628490068,0.5955882352941176
0.0433899136657,0.6029411764705882
0.043397188823,0.6102941176470589
0.0434516882682,0.6176470588235294
0.0434655197056,0.625
0.0434676989403,0.6323529411764706
0.0434726107125,0.6397058823529411
0.0434752374267,0.6470588235294118
0.0434757429086,0.6544117647058824
0.0434759700664,0.6617647058823529
0.0434766104121,0.6691176470588235
0.0434767872331,0.6764705882352942
0.0434777660475,0.6838235294117647
0.0434777806138,0.6911764705882353
0.0434826270756,0.6985294117647058
0.0434841469698,0.7058823529411765
0.0434841561343,0.7132352941176471
0.0434842455998,0.7205882352941176
0.0434842482623,0.7279411764705882
0.0434843256704,0.7352941176470589
0.0434843274454,0.7426470588235294
0.0434843274454,0.75
1.08689357272,0.7573529411764706
1.08694451535,0.7647058823529411
1.14642038263,0.7720588235294118
2.16985944115,0.7794117647058824
2.16985944115,0.7867647058823529
2.17388830237,0.7941176470588235
2.17388830237,0.8014705882352942
3.26068071815,0.8088235294117647
3.62301266895,0.8161764705882353
3.62301266895,0.8235294117647058
3.62301266895,0.8308823529411765
4.33899136657,0.8382352941176471
4.34766104121,0.8455882352941176
4.34777806138,0.8529411764705882
4.34841561343,0.8602941176470589
4.34842482623,0.8676470588235294
4.34843274454,0.875
4.34843274454,0.8823529411764706
5.43457229603,0.8897058823529411
6.50209371964,0.8970588235294118
6.52114937362,0.9044117647058824
7.96956463951,0.9117647058823529
8.67527626725,0.9191176470588235
8.69684938621,0.9264705882352942
13.0452980561,0.9338235294117647
17.7528430128,0.9411764705882353
31.5259222681,0.9485294117647058
32.2374359203,0.9558823529411765
41.671085947,0.9632352941176471
51.7232574969,0.9705882352941176
52.5390052146,0.9779411764705882
54.7049482919,0.9852941176470589
56.8541156119,0.9926470588235294
59.9370899715,1.0
