Congestion,CDF
0.0,0.007352941176470588
0.0,0.014705882352941176
0.0,0.022058823529411766
0.0,0.029411764705882353
0.0,0.03676470588235294
0.0,0.04411764705882353
0.0,0.051470588235294115
0.0,0.058823529411764705
0.0,0.0661764705882353
0.0,0.07352941176470588
0.0,0.08088235294117647
0.0,0.08823529411764706
0.0,0.09558823529411764
0.0,0.10294117647058823
8.60128016399e-06,0.11029411764705882
8.60128016399e-06,0.11764705882352941
8.60128016399e-06,0.125
8.60128016399e-06,0.1323529411764706
8.60128016399e-06,0.13970588235294118
8.60128016399e-06,0.14705882352941177
8.60128016399e-06,0.15441176470588236
8.60128016399e-06,0.16176470588235295
8.60128016399e-06,0.16911764705882354
8.60128016399e-06,0.17647058823529413
8.60128016399e-06,0.18382352941176472
8.60128016399e-06,0.19117647058823528
8.60128016399e-06,0.19852941176470587
8.60128016399e-06,0.20588235294117646
8.60128016399e-06,0.21323529411764705
8.60128016399e-06,0.22058823529411764
8.60128016399e-06,0.22794117647058823
8.60128016399e-06,0.23529411764705882
8.60128016399e-06,0.2426470588235294
8.60128016399e-06,0.25
8.60128016399e-06,0.25735294117647056
8.60128016399e-06,0.2647058823529412
8.60128016399e-06,0.27205882352941174
8.60128016399e-06,0.27941176470588236
8.60128016399e-06,0.2867647058823529
8.60128016399e-06,0.29411764705882354
8.60128016399e-06,0.3014705882352941
0.0002150320041,0.3088235294117647
0.0002150320041,0.3161764705882353
0.000232234564428,0.3235294117647059
0.000249146733733,0.33088235294117646
0.0004300640082,0.3382352941176471
0.0004300640082,0.34558823529411764
0.0004300640082,0.35294117647058826
0.0004300640082,0.3602941176470588
0.000639084273033,0.36764705882352944
0.0006450960123,0.375
0.000716773347,0.38235294117647056
0.000716773347,0.3897058823529412
0.000716773347,0.39705882352941174
0.000860128016399,0.40441176470588236
0.000860128016399,0.4117647058823529
0.000860128016399,0.41911764705882354
0.000860128016399,0.4264705882352941
0.000860128016399,0.4338235294117647
0.000860128016399,0.4411764705882353
0.000860128016399,0.4485294117647059
0.0010751600205,0.45588235294117646
0.0012901920246,0.4632352941176471
0.0012901920246,0.47058823529411764
0.0015769013634,0.47794117647058826
0.0017202560328,0.4852941176470588
0.0017202560328,0.49264705882352944
0.0025803840492,0.5
0.0035121894003,0.5073529411764706
0.00482456020772,0.5147058823529411
0.00501534371999,0.5220588235294118
0.00544521418167,0.5294117647058824
0.0055714410415,0.5367647058823529
0.00565704918729,0.5441176470588235
0.00566693757542,0.5514705882352942
0.00584898251427,0.5588235294117647
0.00589973056036,0.5661764705882353
0.00590004805695,0.5735294117647058
0.00591983648089,0.5808823529411765
0.00592698122951,0.5882352941176471
0.00592838595297,0.5955882352941176
0.00592891647704,0.6029411764705882
0.00593100393802,0.6102941176470589
0.00593244859049,0.6176470588235294
0.00593357648895,0.625
0.00593436201766,0.6323529411764706
0.00594653998418,0.6397058823529411
0.00595073469839,0.6470588235294118
0.00595077674175,0.6544117647058824
0.00595102643029,0.6617647058823529
0.00595103932867,0.6691176470588235
0.00595118301554,0.6764705882352942
0.00595119161472,0.6838235294117647
0.00595119161472,0.6911764705882353
0.0062359281189,0.6985294117647058
0.0063792827883,0.7058823529411765
0.00824289349049,0.7132352941176471
0.0102498588621,0.7205882352941176
0.0103932135315,0.7279411764705882
0.0111099868785,0.7352941176470589
0.0112533415479,0.7426470588235294
0.0121134695643,0.75
0.145756732656,0.7573529411764706
0.148222911926,0.7647058823529411
0.148359050441,0.7720588235294118
0.283346878771,0.7794117647058824
0.283346878771,0.7867647058823529
0.296678824448,0.7941176470588235
0.296678824448,0.8014705882352942
0.444668735778,0.8088235294117647
0.494148003351,0.8161764705882353
0.494148003351,0.8235294117647058
0.494148003351,0.8308823529411765
0.565704918729,0.8382352941176471
0.593100393802,0.8455882352941176
0.593436201766,0.8529411764705882
0.595077674175,0.8602941176470589
0.595103932867,0.8676470588235294
0.595119161472,0.875
0.595119161472,0.8823529411764706
0.741467770975,0.8897058823529411
0.827868296938,0.8970588235294118
0.888662472537,0.9044117647058824
1.08415280905,0.9117647058823529
1.12284902288,0.9191176470588235
1.1902065759,0.9264705882352942
1.7853566245,0.9338235294117647
2.42155476343,0.9411764705882353
4.31407339485,0.9485294117647058
4.37395270267,0.9558823529411765
5.69955422107,0.9632352941176471
6.80712604326,0.9705882352941176
6.87103447056,0.9779411764705882
7.17818974964,0.9852941176470589
7.67972412164,0.9926470588235294
7.70463879501,1.0
