Congestion,CDF
0.0,0.007352941176470588
0.0,0.014705882352941176
0.0,0.022058823529411766
0.0,0.029411764705882353
0.0,0.03676470588235294
0.0,0.04411764705882353
0.0,0.051470588235294115
0.0,0.058823529411764705
0.0,0.0661764705882353
0.0,0.07352941176470588
0.0,0.08088235294117647
0.0,0.08823529411764706
0.0,0.09558823529411764
0.0,0.10294117647058823
4.28469156953e-06,0.11029411764705882
4.28469156953e-06,0.11764705882352941
4.28469156953e-06,0.125
4.28469156953e-06,0.1323529411764706
4.28469156953e-06,0.13970588235294118
4.28469156953e-06,0.14705882352941177
4.28469156953e-06,0.15441176470588236
4.28469156953e-06,0.16176470588235295
4.28469156953e-06,0.16911764705882354
4.28469156953e-06,0.17647058823529413
4.28469156953e-06,0.18382352941176472
4.28469156953e-06,0.19117647058823528
4.28469156953e-06,0.19852941176470587
4.28469156953e-06,0.20588235294117646
4.28469156953e-06,0.21323529411764705
4.28469156953e-06,0.22058823529411764
4.28469156953e-06,0.22794117647058823
4.28469156953e-06,0.23529411764705882
4.28469156953e-06,0.2426470588235294
4.28469156953e-06,0.25
4.28469156953e-06,0.25735294117647056
4.28469156953e-06,0.2647058823529412
4.28469156953e-06,0.27205882352941174
4.28469156953e-06,0.27941176470588236
4.28469156953e-06,0.2867647058823529
4.28469156953e-06,0.29411764705882354
4.28469156953e-06,0.3014705882352941
0.000107117289238,0.3088235294117647
0.000107117289238,0.3161764705882353
0.000115686672377,0.3235294117647059
0.000214234578476,0.33088235294117646
0.000214234578476,0.3382352941176471
0.000214234578476,0.34558823529411764
0.000214234578476,0.35294117647058826
0.000321351867714,0.3602941176470588
0.000357057630794,0.36764705882352944
0.000357057630794,0.375
0.000357057630794,0.38235294117647056
0.000428469156953,0.3897058823529412
0.000428469156953,0.39705882352941174
0.000428469156953,0.40441176470588236
0.000428469156953,0.4117647058823529
0.000428469156953,0.41911764705882354
0.000428469156953,0.4264705882352941
0.000428469156953,0.4338235294117647
0.000535586446191,0.4411764705882353
0.000642703735429,0.4485294117647059
0.000642703735429,0.45588235294117646
0.000785526787746,0.4632352941176471
0.000856938313905,0.47058823529411764
0.000856938313905,0.47794117647058826
0.00128540747086,0.4852941176470588
0.00174958239089,0.49264705882352944
0.00310640138791,0.5
0.00317781291407,0.5073529411764706
0.00410616275413,0.5147058823529411
0.00510592412035,0.5220588235294118
0.00517733564651,0.5294117647058824
0.0055343932773,0.5367647058823529
0.00560580480346,0.5441176470588235
0.00603427396042,0.5514705882352942
0.0341648547804,0.5588235294117647
0.0351215183791,0.5661764705882353
0.0465202196541,0.5735294117647058
0.0465828393395,0.5808823529411765
0.0467378822904,0.5882352941176471
0.0467775267794,0.5955882352941176
0.0468025679247,0.6029411764705882
0.0468101835196,0.6102941176470589
0.0468644760496,0.6176470588235294
0.0468776925038,0.625
0.0468801447549,0.6323529411764706
0.0468847522907,0.6397058823529411
0.0468873385444,0.6470588235294118
0.0468878367115,0.6544117647058824
0.0468880972259,0.6617647058823529
0.0468887084716,0.6691176470588235
0.0468888836739,0.6764705882352942
0.046889869003,0.6838235294117647
0.0468898724532,0.6911764705882353
0.0468947251202,0.6985294117647058
0.0468962371782,0.7058823529411765
0.046896246153,0.7132352941176471
0.0468963355922,0.7205882352941176
0.046896338234,0.7279411764705882
0.046896415654,0.7352941176470589
0.0468964174152,0.7426470588235294
0.0468964174152,0.75
1.17219591779,0.7573529411764706
1.17224681133,0.7647058823529411
1.24041439711,0.7720588235294118
2.34050917598,0.7794117647058824
2.34050917598,0.7867647058823529
2.34449345015,0.7941176470588235
2.34449345015,0.8014705882352942
3.51658775336,0.8088235294117647
3.90735401393,0.8161764705882353
3.90735401393,0.8235294117647058
3.90735401393,0.8308823529411765
4.68025679247,0.8382352941176471
4.68887084716,0.8455882352941176
4.68898724532,0.8529411764705882
4.6896246153,0.8602941176470589
4.6896338234,0.8676470588235294
4.68964174152,0.875
4.68964174152,0.8823529411764706
5.86108428518,0.8897058823529411
7.01429740503,0.8970588235294118
7.03296867922,0.9044117647058824
8.59512326431,0.9117647058823529
9.35800947041,0.9191176470588235
9.37926738261,0.9264705882352942
14.0689250484,0.9338235294117647
19.1461188689,0.9411764705882353
33.9996875755,0.9485294117647058
34.7681989141,0.9558823529411765
44.9410075516,0.9632352941176471
55.792527755,0.9705882352941176
56.6619907063,0.9779411764705882
59.209013233,0.9852941176470589
61.3202746403,0.9926470588235294
64.8324264782,1.0
