Congestion,CDF
0.0,0.007352941176470588
0.0,0.014705882352941176
0.0,0.022058823529411766
0.0,0.029411764705882353
0.0,0.03676470588235294
0.0,0.04411764705882353
0.0,0.051470588235294115
0.0,0.058823529411764705
0.0,0.0661764705882353
0.0,0.07352941176470588
0.0,0.08088235294117647
0.0,0.08823529411764706
0.0,0.09558823529411764
0.0,0.10294117647058823
4.75023155849e-06,0.11029411764705882
4.75023155849e-06,0.11764705882352941
4.75023155849e-06,0.125
4.75023155849e-06,0.1323529411764706
4.75023155849e-06,0.13970588235294118
4.75023155849e-06,0.14705882352941177
4.75023155849e-06,0.15441176470588236
4.75023155849e-06,0.16176470588235295
4.75023155849e-06,0.16911764705882354
4.75023155849e-06,0.17647058823529413
4.75023155849e-06,0.18382352941176472
4.75023155849e-06,0.19117647058823528
4.75023155849e-06,0.19852941176470587
4.75023155849e-06,0.20588235294117646
4.75023155849e-06,0.21323529411764705
4.75023155849e-06,0.22058823529411764
4.75023155849e-06,0.22794117647058823
4.75023155849e-06,0.23529411764705882
4.75023155849e-06,0.2426470588235294
4.75023155849e-06,0.25
4.75023155849e-06,0.25735294117647056
4.75023155849e-06,0.2647058823529412
4.75023155849e-06,0.27205882352941174
4.75023155849e-06,0.27941176470588236
4.75023155849e-06,0.2867647058823529
4.75023155849e-06,0.29411764705882354
4.75023155849e-06,0.3014705882352941
0.000118755788962,0.3088235294117647
0.000118755788962,0.3161764705882353
0.000128256252079,0.3235294117647059
0.000237511577924,0.33088235294117646
0.000237511577924,0.3382352941176471
0.000237511577924,0.34558823529411764
0.000237511577924,0.35294117647058826
0.000356267366887,0.3602941176470588
0.000395852629874,0.36764705882352944
0.000395852629874,0.375
0.000395852629874,0.38235294117647056
0.000475023155849,0.3897058823529412
0.000475023155849,0.39705882352941174
0.000475023155849,0.40441176470588236
0.000475023155849,0.4117647058823529
0.000475023155849,0.41911764705882354
0.000475023155849,0.4264705882352941
0.000475023155849,0.4338235294117647
0.000593778944811,0.4411764705882353
0.000712534733773,0.4485294117647059
0.000712534733773,0.45588235294117646
0.000870875785723,0.4632352941176471
0.000950046311698,0.47058823529411764
0.000950046311698,0.47794117647058826
0.00142506946755,0.4852941176470588
0.00193967788638,0.49264705882352944
0.0034439178799,0.5
0.00352308840588,0.5073529411764706
0.00455230524355,0.5147058823529411
0.0056606926072,0.5220588235294118
0.00573986313317,0.5294117647058824
0.00613571576305,0.5367647058823529
0.00621488628902,0.5441176470588235
0.00668990944487,0.5514705882352942
0.00850969629551,0.5588235294117647
0.00967229946651,0.5661764705882353
0.0258382012913,0.5735294117647058
0.0259363693157,0.5808823529411765
0.026225235975,0.5882352941176471
0.0262748977506,0.5955882352941176
0.026321253114,0.6029411764705882
0.0263235722258,0.6102941176470589
0.0263838220321,0.6176470588235294
0.0264034801963,0.625
0.0264038659321,0.6323529411764706
0.0264114135988,0.6397058823529411
0.0264145621048,0.6470588235294118
0.0264149796161,0.6544117647058824
0.0264151910511,0.6617647058823529
0.0264159968911,0.6691176470588235
0.0264162064495,0.6764705882352942
0.0264170545801,0.6838235294117647
0.0264172774927,0.6911764705882353
0.0264220602742,0.6985294117647058
0.026423692257,0.7058823529411765
0.0264237048016,0.7132352941176471
0.0264237950186,0.7205882352941176
0.0264237981976,0.7279411764705882
0.0264238753397,0.7352941176470589
0.026423877459,0.7426470588235294
0.026423877459,0.75
0.660379776278,0.7573529411764706
0.660431937318,0.7647058823529411
0.677004056186,0.7720588235294118
1.31617861129,0.7794117647058824
1.31617861129,0.7867647058823529
1.32085272901,0.7941176470588235
1.32085272901,0.8014705882352942
1.98113932883,0.8088235294117647
2.20129711709,0.8161764705882353
2.20129711709,0.8235294117647058
2.20129711709,0.8308823529411765
2.6321253114,0.8382352941176471
2.64159968911,0.8455882352941176
2.64172774927,0.8529411764705882
2.64237048016,0.8602941176470589
2.64237981976,0.8676470588235294
2.6423877459,0.875
2.6423877459,0.8823529411764706
3.30200042123,0.8897058823529411
3.93870220879,0.8970588235294118
3.96199408888,0.9044117647058824
4.8416837103,0.9117647058823529
5.25961508646,0.9191176470588235
5.28475932162,0.9264705882352942
7.92716302577,0.9338235294117647
10.7863951891,0.9411764705882353
19.1570939906,0.9485294117647058
19.5826397139,0.9558823529411765
25.3214498641,0.9632352941176471
31.3647771382,0.9705882352941176
31.9237919726,0.9779411764705882
32.2157467678,0.9852941176470589
34.5174289042,0.9926470588235294
35.4846588508,1.0
