Congestion,CDF
0.0,0.007352941176470588
0.0,0.014705882352941176
0.0,0.022058823529411766
0.0,0.029411764705882353
0.0,0.03676470588235294
0.0,0.04411764705882353
0.0,0.051470588235294115
0.0,0.058823529411764705
0.0,0.0661764705882353
0.0,0.07352941176470588
0.0,0.08088235294117647
0.0,0.08823529411764706
0.0,0.09558823529411764
0.0,0.10294117647058823
5.13892712333e-06,0.11029411764705882
5.13892712333e-06,0.11764705882352941
5.13892712333e-06,0.125
5.13892712333e-06,0.1323529411764706
5.13892712333e-06,0.13970588235294118
5.13892712333e-06,0.14705882352941177
5.13892712333e-06,0.15441176470588236
5.13892712333e-06,0.16176470588235295
5.13892712333e-06,0.16911764705882354
5.13892712333e-06,0.17647058823529413
5.13892712333e-06,0.18382352941176472
5.13892712333e-06,0.19117647058823528
5.13892712333e-06,0.19852941176470587
5.13892712333e-06,0.20588235294117646
5.13892712333e-06,0.21323529411764705
5.13892712333e-06,0.22058823529411764
5.13892712333e-06,0.22794117647058823
5.13892712333e-06,0.23529411764705882
5.13892712333e-06,0.2426470588235294
5.13892712333e-06,0.25
5.13892712333e-06,0.25735294117647056
5.13892712333e-06,0.2647058823529412
5.13892712333e-06,0.27205882352941174
5.13892712333e-06,0.27941176470588236
5.13892712333e-06,0.2867647058823529
5.13892712333e-06,0.29411764705882354
5.13892712333e-06,0.3014705882352941
0.000128473178083,0.3088235294117647
0.000128473178083,0.3161764705882353
0.00013875103233,0.3235294117647059
0.000256946356166,0.33088235294117646
0.000256946356166,0.3382352941176471
0.000256946356166,0.34558823529411764
0.000256946356166,0.35294117647058826
0.000385419534249,0.3602941176470588
0.000428243926944,0.36764705882352944
0.000428243926944,0.375
0.000428243926944,0.38235294117647056
0.000513892712333,0.3897058823529412
0.000513892712333,0.39705882352941174
0.000513892712333,0.40441176470588236
0.000513892712333,0.4117647058823529
0.000513892712333,0.41911764705882354
0.000513892712333,0.4264705882352941
0.000513892712333,0.4338235294117647
0.000642365890416,0.4411764705882353
0.000770839068499,0.4485294117647059
0.000770839068499,0.45588235294117646
0.000929475142676,0.4632352941176471
0.000942136639277,0.47058823529411764
0.00102778542467,0.47794117647058826
0.00102778542467,0.4852941176470588
0.001541678137,0.49264705882352944
0.00201794149544,0.5
0.00209839524203,0.5073529411764706
0.00372572216441,0.5147058823529411
0.0038113709498,0.5220588235294118
0.00492480515985,0.5294117647058824
0.0061238881553,0.5367647058823529
0.00620953694069,0.5441176470588235
0.00663778086763,0.5514705882352942
0.00672342965302,0.5588235294117647
0.00723732236535,0.5661764705882353
0.0188994712299,0.5735294117647058
0.0190174417024,0.5808823529411765
0.0193677799646,0.5882352941176471
0.0194257511044,0.5955882352941176
0.0194821547254,0.6029411764705882
0.0194863282715,0.6102941176470589
0.0195529081208,0.6176470588235294
0.0195758970811,0.625
0.0195781135207,0.6323529411764706
0.019586263217,0.6397058823529411
0.0195899637266,0.6470588235294118
0.0195900935291,0.6544117647058824
0.0195907691826,0.6617647058823529
0.0195915131018,0.6691176470588235
0.0195917834296,0.6764705882352942
0.0195923917123,0.6838235294117647
0.019592959433,0.6911764705882353
0.0195977284354,0.6985294117647058
0.0195995033131,0.7058823529411765
0.0195995209699,0.7132352941176471
0.0195996131368,0.7205882352941176
0.0195996174168,0.7279411764705882
0.0195996941078,0.7352941176470589
0.0195996969612,0.7426470588235294
0.0195996969612,0.75
0.489769229565,0.7573529411764706
0.489823985824,0.7647058823529411
0.490854070993,0.7720588235294118
0.974107736268,0.7794117647058824
0.974107736268,0.7867647058823529
0.979619585615,0.7941176470588235
0.979619585615,0.8014705882352942
1.4693076887,0.8088235294117647
1.63259200628,0.8161764705882353
1.63259200628,0.8235294117647058
1.63259200628,0.8308823529411765
1.94863282715,0.8382352941176471
1.95915131018,0.8455882352941176
1.9592959433,0.8529411764705882
1.95995209699,0.8602941176470589
1.95996174168,0.8676470588235294
1.95996969612,0.875
1.95996969612,0.8823529411764706
2.44894757252,0.8897058823529411
2.91088573272,0.8970588235294118
2.93824590731,0.9044117647058824
3.59040335835,0.9117647058823529
3.89120793758,0.9191176470588235
3.91992305536,0.9264705882352942
5.87990880303,0.9338235294117647
7.99970024189,0.9411764705882353
14.2095582725,0.9485294117647058
14.5195021486,0.9558823529411765
18.781542708,0.9632352941176471
23.2115429419,0.9705882352941176
23.3044904562,0.9779411764705882
23.6773783234,0.9852941176470589
25.5791224936,0.9926470588235294
25.7809166432,1.0
