Congestion,CDF
0.0,0.007352941176470588
0.0,0.014705882352941176
0.0,0.022058823529411766
0.0,0.029411764705882353
0.0,0.03676470588235294
0.0,0.04411764705882353
0.0,0.051470588235294115
0.0,0.058823529411764705
0.0,0.0661764705882353
0.0,0.07352941176470588
0.0,0.08088235294117647
0.0,0.08823529411764706
0.0,0.09558823529411764
0.0,0.10294117647058823
5.64126869429e-06,0.11029411764705882
5.64126869429e-06,0.11764705882352941
5.64126869429e-06,0.125
5.64126869429e-06,0.1323529411764706
5.64126869429e-06,0.13970588235294118
5.64126869429e-06,0.14705882352941177
5.64126869429e-06,0.15441176470588236
5.64126869429e-06,0.16176470588235295
5.64126869429e-06,0.16911764705882354
5.64126869429e-06,0.17647058823529413
5.64126869429e-06,0.18382352941176472
5.64126869429e-06,0.19117647058823528
5.64126869429e-06,0.19852941176470587
5.64126869429e-06,0.20588235294117646
5.64126869429e-06,0.21323529411764705
5.64126869429e-06,0.22058823529411764
5.64126869429e-06,0.22794117647058823
5.64126869429e-06,0.23529411764705882
5.64126869429e-06,0.2426470588235294
5.64126869429e-06,0.25
5.64126869429e-06,0.25735294117647056
5.64126869429e-06,0.2647058823529412
5.64126869429e-06,0.27205882352941174
5.64126869429e-06,0.27941176470588236
5.64126869429e-06,0.2867647058823529
5.64126869429e-06,0.29411764705882354
5.64126869429e-06,0.3014705882352941
0.000141031717357,0.3088235294117647
0.000141031717357,0.3161764705882353
0.000152314254746,0.3235294117647059
0.000282063434714,0.33088235294117646
0.000282063434714,0.3382352941176471
0.000282063434714,0.34558823529411764
0.000282063434714,0.35294117647058826
0.000423095152072,0.3602941176470588
0.000470105724524,0.36764705882352944
0.000470105724524,0.375
0.000470105724524,0.38235294117647056
0.000564126869429,0.3897058823529412
0.000564126869429,0.39705882352941174
0.000564126869429,0.40441176470588236
0.000564126869429,0.4117647058823529
0.000564126869429,0.41911764705882354
0.000564126869429,0.4264705882352941
0.000564126869429,0.4338235294117647
0.000705158586786,0.4411764705882353
0.000846190304143,0.4485294117647059
0.000846190304143,0.45588235294117646
0.00103423259395,0.4632352941176471
0.00112825373886,0.47058823529411764
0.00112825373886,0.47794117647058826
0.00169238060829,0.4852941176470588
0.00230351805017,0.49264705882352944
0.00408991980336,0.5
0.00418394094826,0.5073529411764706
0.00540621583203,0.5147058823529411
0.00672251186069,0.5220588235294118
0.0068165330056,0.5294117647058824
0.00728663873012,0.5367647058823529
0.00738065987503,0.5441176470588235
0.00794478674445,0.5514705882352942
0.0127154965435,0.5588235294117647
0.0127796309203,0.5661764705882353
0.0133933686933,0.5735294117647058
0.0133944851387,0.5808823529411765
0.0134092256213,0.5882352941176471
0.013418286377,0.5955882352941176
0.013418286377,0.6029411764705882
0.0134324601481,0.6102941176470589
0.0134704351575,0.6176470588235294
0.0134741186571,0.625
0.0134798171763,0.6323529411764706
0.0134799316116,0.6397058823529411
0.0134816600647,0.6470588235294118
0.0134819197514,0.6544117647058824
0.0134826988354,0.6617647058823529
0.0134826988354,0.6691176470588235
0.0134826988354,0.6764705882352942
0.013483589477,0.6838235294117647
0.0134840471446,0.6911764705882353
0.0134881626776,0.6985294117647058
0.013489377738,0.7058823529411765
0.013489377738,0.7132352941176471
0.0134894585418,0.7205882352941176
0.0134894585418,0.7279411764705882
0.0134895357252,0.7352941176470589
0.0134895357252,0.7426470588235294
0.0134895357252,0.75
0.337047993785,0.7573529411764706
0.337089736926,0.7647058823529411
0.362159297778,0.7720588235294118
0.671623007405,0.7794117647058824
0.671623007405,0.7867647058823529
0.674202357229,0.7941176470588235
0.674202357229,0.8014705882352942
1.01114398135,0.8088235294117647
1.12352639954,0.8161764705882353
1.12352639954,0.8235294117647058
1.12352639954,0.8308823529411765
1.3418286377,0.8382352941176471
1.34826988354,0.8455882352941176
1.3483589477,0.8529411764705882
1.3489377738,0.8602941176470589
1.34894585418,0.8676470588235294
1.34895357252,0.875
1.34895357252,0.8823529411764706
1.68531787733,0.8897058823529411
2.01107152127,0.8970588235294118
2.02219551839,0.9044117647058824
2.47093826525,0.9117647058823529
2.6836572754,0.9191176470588235
2.69789170836,0.9264705882352942
4.04686071755,0.9338235294117647
5.50538404395,0.9411764705882353
9.77971771044,0.9485294117647058
9.99498883236,0.9558823529411765
12.926262735,0.9632352941176471
16.0290544984,0.9705882352941176
16.296439971,0.9779411764705882
17.3006041527,0.9852941176470589
17.6373625331,0.9926470588235294
18.9153256251,1.0
