Congestion,CDF
0.00624198697513,0.007352941176470588
0.00624198697513,0.014705882352941176
0.00624198697513,0.022058823529411766
0.00624198697513,0.029411764705882353
0.00626323463816,0.03676470588235294
0.00626323463816,0.04411764705882353
0.00648648777633,0.051470588235294115
0.00648648777633,0.058823529411764705
0.00652733716073,0.0661764705882353
0.00652733716073,0.07352941176470588
0.00666247084296,0.08088235294117647
0.00666247084296,0.08823529411764706
0.00667891677543,0.09558823529411764
0.00667891677543,0.10294117647058823
0.00715392616238,0.11029411764705882
0.00715392616238,0.11764705882352941
0.00727206606594,0.125
0.00727206606594,0.1323529411764706
0.00736735577969,0.13970588235294118
0.00736735577969,0.14705882352941177
0.00739356999219,0.15441176470588236
0.00739356999219,0.16176470588235295
0.0074026556595,0.16911764705882354
0.0074026556595,0.17647058823529413
0.00769376903122,0.18382352941176472
0.00769376903122,0.19117647058823528
0.00797788510517,0.19852941176470587
0.00797788510517,0.20588235294117646
0.00802841704415,0.21323529411764705
0.00802841704415,0.22058823529411764
0.00817559612611,0.22794117647058823
0.00817559612611,0.23529411764705882
0.00832576581745,0.2426470588235294
0.00832576581745,0.25
0.00861421389842,0.25735294117647056
0.00861421389842,0.2647058823529412
0.00872229855026,0.27205882352941174
0.00872229855026,0.27941176470588236
0.00885590699345,0.2867647058823529
0.00885590699345,0.29411764705882354
0.00894709845959,0.3014705882352941
0.00894709845959,0.3088235294117647
0.00930096315482,0.3161764705882353
0.00930096315482,0.3235294117647059
0.00954217364019,0.33088235294117646
0.00954217364019,0.3382352941176471
0.00984085068842,0.34558823529411764
0.00984085068842,0.35294117647058826
0.0100218262166,0.3602941176470588
0.0100218262166,0.36764705882352944
0.0112164075381,0.375
0.0112164075381,0.38235294117647056
0.0114431932747,0.3897058823529412
0.0114431932747,0.39705882352941174
0.0114431932747,0.40441176470588236
0.0114431932747,0.4117647058823529
0.0321675860693,0.41911764705882354
0.0321675860693,0.4264705882352941
0.0751826594365,0.4338235294117647
0.0751826594365,0.4411764705882353
0.169454800183,0.4485294117647059
0.169454800183,0.45588235294117646
0.243788756792,0.4632352941176471
0.243788756792,0.47058823529411764
0.25469213496,0.47794117647058826
0.25469213496,0.4852941176470588
0.298814737773,0.49264705882352944
0.298814737773,0.5
0.340704295123,0.5073529411764706
0.340704295123,0.5147058823529411
0.418040278357,0.5220588235294118
0.418040278357,0.5294117647058824
0.43996028316,0.5367647058823529
0.43996028316,0.5441176470588235
0.459150863686,0.5514705882352942
0.459150863686,0.5588235294117647
0.511642618851,0.5661764705882353
0.511642618851,0.5735294117647058
0.54261006872,0.5808823529411765
0.54261006872,0.5882352941176471
0.586167339794,0.5955882352941176
0.586167339794,0.6029411764705882
0.621731370312,0.6102941176470589
0.621731370312,0.6176470588235294
0.634079498226,0.625
0.634079498226,0.6323529411764706
0.645237193155,0.6397058823529411
0.645237193155,0.6470588235294118
0.707035319102,0.6544117647058824
0.707035319102,0.6617647058823529
0.715062919217,0.6691176470588235
0.715062919217,0.6764705882352942
0.863830877012,0.6838235294117647
0.863830877012,0.6911764705882353
0.88268986994,0.6985294117647058
0.88268986994,0.7058823529411765
0.918810583872,0.7132352941176471
0.918810583872,0.7205882352941176
0.932897265248,0.7279411764705882
0.932897265248,0.7352941176470589
0.942996537802,0.7426470588235294
0.942996537802,0.75
0.961526099461,0.7573529411764706
0.961526099461,0.7647058823529411
1.02446099356,0.7720588235294118
1.02446099356,0.7794117647058824
1.03312980545,0.7867647058823529
1.03312980545,0.7941176470588235
1.11079326651,0.8014705882352942
1.11079326651,0.8088235294117647
1.14431932747,0.8161764705882353
1.14431932747,0.8235294117647058
1.18711622807,0.8308823529411765
1.18711622807,0.8382352941176471
1.27596335857,0.8455882352941176
1.27596335857,0.8529411764705882
1.39406202268,0.8602941176470589
1.39406202268,0.8676470588235294
1.42759551419,0.875
1.42759551419,0.8823529411764706
1.59795502699,0.8897058823529411
1.59795502699,0.8970588235294118
1.64753698014,0.9044117647058824
1.64753698014,0.9117647058823529
2.06506651566,0.9191176470588235
2.06506651566,0.9264705882352942
2.5745555999,0.9338235294117647
2.5745555999,0.9411764705882353
2.5950137458,0.9485294117647058
2.5950137458,0.9558823529411765
3.23859399111,0.9632352941176471
3.23859399111,0.9705882352941176
4.29682416561,0.9779411764705882
4.29682416561,0.9852941176470589
4.92168498833,0.9926470588235294
4.92168498833,1.0
