Congestion,CDF
0.0,0.007352941176470588
0.0,0.014705882352941176
0.015604157126,0.022058823529411766
0.015604157126,0.029411764705882353
0.0161202981141,0.03676470588235294
0.0161202981141,0.04411764705882353
0.0163639609984,0.051470588235294115
0.0163639609984,0.058823529411764705
0.0171883331864,0.0661764705882353
0.0171883331864,0.07352941176470588
0.0176711965427,0.08088235294117647
0.0176711965427,0.08823529411764706
0.0183040196328,0.09558823529411764
0.0183040196328,0.10294117647058823
0.0184678307808,0.11029411764705882
0.0184678307808,0.11764705882352941
0.0186671622232,0.125
0.0186671622232,0.1323529411764706
0.0186927063706,0.13970588235294118
0.0186927063706,0.14705882352941177
0.0187421029386,0.15441176470588236
0.0187421029386,0.16176470588235295
0.0202020257519,0.16911764705882354
0.0202020257519,0.17647058823529413
0.0202451853867,0.18382352941176472
0.0202451853867,0.19117647058823528
0.0207804743244,0.19852941176470587
0.0207804743244,0.20588235294117646
0.0213013979192,0.21323529411764705
0.0213013979192,0.22058823529411764
0.0221663892192,0.22794117647058823
0.0221663892192,0.23529411764705882
0.023203312695,0.2426470588235294
0.023203312695,0.25
0.0232813312815,0.25735294117647056
0.0232813312815,0.2647058823529412
0.0238758898545,0.27205882352941174
0.0238758898545,0.27941176470588236
0.0239794868338,0.2867647058823529
0.0239794868338,0.29411764705882354
0.0241405558257,0.3014705882352941
0.0241405558257,0.3088235294117647
0.0243492134947,0.3161764705882353
0.0243492134947,0.3235294117647059
0.0264342394898,0.33088235294117646
0.0264342394898,0.3382352941176471
0.027131163124,0.34558823529411764
0.027131163124,0.35294117647058826
0.0272419554924,0.3602941176470588
0.0272419554924,0.36764705882352944
0.0275511861044,0.375
0.0275511861044,0.38235294117647056
0.0310453170061,0.3897058823529412
0.0310453170061,0.39705882352941174
0.0311013328529,0.40441176470588236
0.0311013328529,0.4117647058823529
0.0333029751365,0.41911764705882354
0.0333029751365,0.4264705882352941
0.0414501877944,0.4338235294117647
0.0414501877944,0.4411764705882353
0.3828374324,0.4485294117647059
0.3828374324,0.45588235294117646
0.515786633825,0.4632352941176471
0.515786633825,0.47058823529411764
0.684524556863,0.47794117647058826
0.684524556863,0.4852941176470588
0.689673461916,0.49264705882352944
0.689673461916,0.5
0.801426648643,0.5073529411764706
0.801426648643,0.5147058823529411
1.14529292095,0.5220588235294118
1.14529292095,0.5294117647058824
1.1614945289,0.5367647058823529
1.1614945289,0.5441176470588235
1.27748657383,0.5514705882352942
1.27748657383,0.5588235294117647
1.31223189089,0.5661764705882353
1.31223189089,0.5735294117647058
1.6143531581,0.5808823529411765
1.6143531581,0.5882352941176471
1.68120747979,0.5955882352941176
1.68120747979,0.6029411764705882
1.77735659362,0.6102941176470589
1.77735659362,0.6176470588235294
1.81074736209,0.625
1.81074736209,0.6323529411764706
1.86101727524,0.6397058823529411
1.86101727524,0.6470588235294118
2.07804743244,0.6544117647058824
2.07804743244,0.6617647058823529
2.17025083711,0.6691176470588235
2.17025083711,0.6764705882352942
2.54030517249,0.6838235294117647
2.54030517249,0.6911764705882353
2.58949907944,0.6985294117647058
2.58949907944,0.7058823529411765
2.60084078598,0.7132352941176471
2.60084078598,0.7205882352941176
2.69416181712,0.7279411764705882
2.69416181712,0.7352941176470589
2.86506453629,0.7426470588235294
2.86506453629,0.75
2.87460572631,0.7573529411764706
2.87460572631,0.7647058823529411
3.13456543272,0.7720588235294118
3.13456543272,0.7794117647058824
3.17844174649,0.7867647058823529
3.17844174649,0.7941176470588235
3.33029751365,0.8014705882352942
3.33029751365,0.8088235294117647
3.36022769031,0.8161764705882353
3.36022769031,0.8235294117647058
3.7109606189,0.8308823529411765
3.7109606189,0.8382352941176471
4.00238757178,0.8455882352941176
4.00238757178,0.8529411764705882
4.05518023162,0.8602941176470589
4.05518023162,0.8676470588235294
4.25777710708,0.875
4.25777710708,0.8823529411764706
4.7647558707,0.8897058823529411
4.7647558707,0.8970588235294118
5.4000893595,0.9044117647058824
5.4000893595,0.9117647058823529
6.6265820173,0.9191176470588235
6.6265820173,0.9264705882352942
7.47749073371,0.9338235294117647
7.47749073371,0.9411764705882353
8.30066517985,0.9485294117647058
8.30066517985,0.9558823529411765
9.43160095795,0.9632352941176471
9.43160095795,0.9705882352941176
12.2664835104,0.9779411764705882
12.2664835104,0.9852941176470589
14.2293323686,0.9926470588235294
14.2293323686,1.0
