Congestion,CDF
0.0,0.007352941176470588
0.0,0.014705882352941176
0.0,0.022058823529411766
0.0,0.029411764705882353
0.00634841826412,0.03676470588235294
0.00634841826412,0.04411764705882353
0.0066861892162,0.051470588235294115
0.0066861892162,0.058823529411764705
0.00734247147041,0.0661764705882353
0.00734247147041,0.07352941176470588
0.00755495761578,0.08088235294117647
0.00755495761578,0.08823529411764706
0.00763378428244,0.09558823529411764
0.00763378428244,0.10294117647058823
0.00784420547583,0.11029411764705882
0.00784420547583,0.11764705882352941
0.00862407311578,0.125
0.00862407311578,0.1323529411764706
0.0087172591235,0.13970588235294118
0.0087172591235,0.14705882352941177
0.00930546085125,0.15441176470588236
0.00930546085125,0.16176470588235295
0.00932473031319,0.16911764705882354
0.00932473031319,0.17647058823529413
0.00940170751005,0.18382352941176472
0.00940170751005,0.19117647058823528
0.00948868739153,0.19852941176470587
0.00948868739153,0.20588235294117646
0.0100583855116,0.21323529411764705
0.0100583855116,0.22058823529411764
0.0112359514816,0.22794117647058823
0.0112359514816,0.23529411764705882
0.0115734321685,0.2426470588235294
0.0115734321685,0.25
0.0116966377111,0.25735294117647056
0.0116966377111,0.2647058823529412
0.0118191842006,0.27205882352941174
0.0118191842006,0.27941176470588236
0.0121254879489,0.2867647058823529
0.0121254879489,0.29411764705882354
0.0121329920728,0.3014705882352941
0.0121329920728,0.3088235294117647
0.0122794132571,0.3161764705882353
0.0122794132571,0.3235294117647059
0.0134948390255,0.33088235294117646
0.0134948390255,0.3382352941176471
0.0149547285565,0.34558823529411764
0.0149547285565,0.35294117647058826
0.0165519844425,0.3602941176470588
0.0165519844425,0.36764705882352944
0.0181550997758,0.375
0.0181550997758,0.38235294117647056
0.0186534164782,0.3897058823529412
0.0186534164782,0.39705882352941174
0.0220867303796,0.40441176470588236
0.0220867303796,0.4117647058823529
0.0227504597572,0.41911764705882354
0.0227504597572,0.4264705882352941
0.0237671654111,0.4338235294117647
0.0237671654111,0.4411764705882353
0.0631146267677,0.4485294117647059
0.0631146267677,0.45588235294117646
0.0636560001885,0.4632352941176471
0.0636560001885,0.47058823529411764
0.240487972959,0.47794117647058826
0.240487972959,0.4852941176470588
0.370753838391,0.49264705882352944
0.370753838391,0.5
0.391725589679,0.5073529411764706
0.391725589679,0.5147058823529411
0.40695139973,0.5220588235294118
0.40695139973,0.5294117647058824
0.442975991692,0.5367647058823529
0.442975991692,0.5441176470588235
0.480519284626,0.5514705882352942
0.480519284626,0.5588235294117647
0.614770603811,0.5661764705882353
0.614770603811,0.5735294117647058
0.752302140895,0.5808823529411765
0.752302140895,0.5882352941176471
0.787462809601,0.5955882352941176
0.787462809601,0.6029411764705882
0.820675499053,0.6102941176470589
0.820675499053,0.6176470588235294
0.832787797406,0.625
0.832787797406,0.6323529411764706
0.912613787682,0.6397058823529411
0.912613787682,0.6470588235294118
0.940170751005,0.6544117647058824
0.940170751005,0.6617647058823529
0.942830806239,0.6691176470588235
0.942830806239,0.6764705882352942
0.999844068016,0.6838235294117647
0.999844068016,0.6911764705882353
1.06895317792,0.6985294117647058
1.06895317792,0.7058823529411765
1.10654914434,0.7132352941176471
1.10654914434,0.7205882352941176
1.22617748348,0.7279411764705882
1.22617748348,0.7352941176470589
1.33854140363,0.7426470588235294
1.33854140363,0.75
1.43015773987,0.7573529411764706
1.43015773987,0.7647058823529411
1.52863622411,0.7720588235294118
1.52863622411,0.7794117647058824
1.86534164782,0.7867647058823529
1.86534164782,0.7941176470588235
2.02809801504,0.8014705882352942
2.02809801504,0.8088235294117647
2.27504597572,0.8161764705882353
2.27504597572,0.8235294117647058
2.37671654111,0.8308823529411765
2.37671654111,0.8382352941176471
2.40798720702,0.8455882352941176
2.40798720702,0.8529411764705882
2.50213525559,0.8602941176470589
2.50213525559,0.8676470588235294
2.60202199999,0.875
2.60202199999,0.8823529411764706
3.06249638199,0.8897058823529411
3.06249638199,0.8970588235294118
3.27390022567,0.9044117647058824
3.27390022567,0.9117647058823529
3.9317461209,0.9191176470588235
3.9317461209,0.9264705882352942
4.88623713085,0.9338235294117647
4.88623713085,0.9411764705882353
5.00914545682,0.9485294117647058
5.00914545682,0.9558823529411765
6.86043555479,0.9632352941176471
6.86043555479,0.9705882352941176
8.7765042678,0.9779411764705882
8.7765042678,0.9852941176470589
10.326803854,0.9926470588235294
10.326803854,1.0
