Congestion,CDF
0.00531401035258,0.007352941176470588
0.00531401035258,0.014705882352941176
0.00531401035258,0.022058823529411766
0.00531401035258,0.029411764705882353
0.00537310288483,0.03676470588235294
0.00537310288483,0.04411764705882353
0.00547733534963,0.051470588235294115
0.00547733534963,0.058823529411764705
0.00548333300634,0.0661764705882353
0.00548333300634,0.07352941176470588
0.00548397394121,0.08088235294117647
0.00548397394121,0.08823529411764706
0.00552682438204,0.09558823529411764
0.00552682438204,0.10294117647058823
0.00586517406508,0.11029411764705882
0.00586517406508,0.11764705882352941
0.00588027013994,0.125
0.00588027013994,0.1323529411764706
0.00611652951217,0.13970588235294118
0.00611652951217,0.14705882352941177
0.00614069620305,0.15441176470588236
0.00614069620305,0.16176470588235295
0.00614069620305,0.16911764705882354
0.00614069620305,0.17647058823529413
0.00633947162805,0.18382352941176472
0.00633947162805,0.19117647058823528
0.0063526701141,0.19852941176470587
0.0063526701141,0.20588235294117646
0.00646449511918,0.21323529411764705
0.00646449511918,0.22058823529411764
0.00647576732897,0.22794117647058823
0.00647576732897,0.23529411764705882
0.006568863323,0.2426470588235294
0.006568863323,0.25
0.00681012568608,0.25735294117647056
0.00681012568608,0.2647058823529412
0.00681012568608,0.27205882352941174
0.00681012568608,0.27941176470588236
0.0068887428315,0.2867647058823529
0.0068887428315,0.29411764705882354
0.00700197958339,0.3014705882352941
0.00700197958339,0.3088235294117647
0.00718078137804,0.3161764705882353
0.00718078137804,0.3235294117647059
0.00736128141071,0.33088235294117646
0.00736128141071,0.3382352941176471
0.00750142792922,0.34558823529411764
0.00750142792922,0.35294117647058826
0.0077017561008,0.3602941176470588
0.0077017561008,0.36764705882352944
0.0084035450649,0.375
0.0084035450649,0.38235294117647056
0.00851050524936,0.3897058823529412
0.00851050524936,0.39705882352941174
0.00851050524936,0.40441176470588236
0.00851050524936,0.4117647058823529
0.0321675860693,0.41911764705882354
0.0321675860693,0.4264705882352941
0.0740363853586,0.4338235294117647
0.0740363853586,0.4411764705882353
0.159054512684,0.4485294117647059
0.159054512684,0.45588235294117646
0.2060284136,0.4632352941176471
0.2060284136,0.47058823529411764
0.235422785597,0.47794117647058826
0.235422785597,0.4852941176470588
0.243910826944,0.49264705882352944
0.243910826944,0.5
0.297198400381,0.5073529411764706
0.297198400381,0.5147058823529411
0.32788555727,0.5220588235294118
0.32788555727,0.5294117647058824
0.383332196628,0.5367647058823529
0.383332196628,0.5441176470588235
0.387186624379,0.5514705882352942
0.387186624379,0.5588235294117647
0.391706448351,0.5661764705882353
0.391706448351,0.5735294117647058
0.43078232501,0.5808823529411765
0.43078232501,0.5882352941176471
0.44319431239,0.5955882352941176
0.44319431239,0.6029411764705882
0.516165714565,0.6102941176470589
0.516165714565,0.6176470588235294
0.517935093492,0.625
0.517935093492,0.6323529411764706
0.525558502972,0.6397058823529411
0.525558502972,0.6470588235294118
0.585327897433,0.6544117647058824
0.585327897433,0.6617647058823529
0.60125712978,0.6691176470588235
0.60125712978,0.6764705882352942
0.686583572705,0.6838235294117647
0.686583572705,0.6911764705882353
0.713661768222,0.6985294117647058
0.713661768222,0.7058823529411765
0.73142121614,0.7132352941176471
0.73142121614,0.7205882352941176
0.781885700773,0.7279411764705882
0.781885700773,0.7352941176470589
0.785157233763,0.7426470588235294
0.785157233763,0.75
0.827089955908,0.7573529411764706
0.827089955908,0.7647058823529411
0.83065329327,0.7720588235294118
0.83065329327,0.7794117647058824
0.846220872911,0.7867647058823529
0.846220872911,0.7941176470588235
0.851050524936,0.8014705882352942
0.851050524936,0.8088235294117647
0.891032851584,0.8161764705882353
0.891032851584,0.8235294117647058
0.906362412413,0.8308823529411765
0.906362412413,0.8382352941176471
1.01804953147,0.8455882352941176
1.01804953147,0.8529411764705882
1.05987170886,0.8602941176470589
1.05987170886,0.8676470588235294
1.09544880109,0.875
1.09544880109,0.8823529411764706
1.19344097541,0.8897058823529411
1.19344097541,0.8970588235294118
1.25579463621,0.9044117647058824
1.25579463621,0.9117647058823529
1.55135666762,0.9191176470588235
1.55135666762,0.9264705882352942
1.90346761368,0.9338235294117647
1.90346761368,0.9411764705882353
1.97857033726,0.9485294117647058
1.97857033726,0.9558823529411765
2.3719164128,0.9632352941176471
2.3719164128,0.9705882352941176
3.16381261619,0.9779411764705882
3.16381261619,0.9852941176470589
3.62458244286,0.9926470588235294
3.62458244286,1.0
