Congestion,CDF
0.0,0.007352941176470588
0.0,0.014705882352941176
0.0,0.022058823529411766
0.0,0.029411764705882353
0.0,0.03676470588235294
0.0,0.04411764705882353
0.0,0.051470588235294115
0.0,0.058823529411764705
0.0,0.0661764705882353
0.0,0.07352941176470588
0.0,0.08088235294117647
0.0,0.08823529411764706
0.0,0.09558823529411764
0.0,0.10294117647058823
1.50573742991e-05,0.11029411764705882
1.50573742991e-05,0.11764705882352941
1.50573742991e-05,0.125
1.50573742991e-05,0.1323529411764706
1.50573742991e-05,0.13970588235294118
1.50573742991e-05,0.14705882352941177
1.50573742991e-05,0.15441176470588236
1.50573742991e-05,0.16176470588235295
1.50573742991e-05,0.16911764705882354
1.50573742991e-05,0.17647058823529413
1.50573742991e-05,0.18382352941176472
1.50573742991e-05,0.19117647058823528
1.50573742991e-05,0.19852941176470587
1.50573742991e-05,0.20588235294117646
1.50573742991e-05,0.21323529411764705
1.50573742991e-05,0.22058823529411764
1.50573742991e-05,0.22794117647058823
1.50573742991e-05,0.23529411764705882
1.50573742991e-05,0.2426470588235294
1.50573742991e-05,0.25
1.50573742991e-05,0.25735294117647056
1.50573742991e-05,0.2647058823529412
1.50573742991e-05,0.27205882352941174
1.50573742991e-05,0.27941176470588236
1.50573742991e-05,0.2867647058823529
1.50573742991e-05,0.29411764705882354
1.50573742991e-05,0.3014705882352941
0.000376434357479,0.3088235294117647
0.000376434357479,0.3161764705882353
0.000406549106077,0.3235294117647059
0.000752868714957,0.33088235294117646
0.000752868714957,0.3382352941176471
0.000752868714957,0.34558823529411764
0.000752868714957,0.35294117647058826
0.00112930307244,0.3602941176470588
0.0012547811916,0.36764705882352944
0.0012547811916,0.375
0.0012547811916,0.38235294117647056
0.00150573742991,0.3897058823529412
0.00150573742991,0.39705882352941174
0.00150573742991,0.40441176470588236
0.00150573742991,0.4117647058823529
0.00150573742991,0.41911764705882354
0.00150573742991,0.4264705882352941
0.00150573742991,0.4338235294117647
0.00188217178739,0.4411764705882353
0.00225860614487,0.4485294117647059
0.00225860614487,0.45588235294117646
0.00276051862151,0.4632352941176471
0.00301147485983,0.47058823529411764
0.00301147485983,0.47794117647058826
0.00451721228974,0.4852941176470588
0.00614842783882,0.49264705882352944
0.0109165963669,0.5
0.0111675526052,0.5073529411764706
0.0144299837033,0.5147058823529411
0.0179433710398,0.5220588235294118
0.0181943272781,0.5294117647058824
0.0194491084697,0.5367647058823529
0.019700064708,0.5441176470588235
0.021205802138,0.5514705882352942
0.0365545260698,0.5588235294117647
0.0369474542508,0.5661764705882353
0.0412156984024,0.5735294117647058
0.0412702672975,0.5808823529411765
0.0413325408548,0.5882352941176471
0.0413579712996,0.5955882352941176
0.0413745896198,0.6029411764705882
0.0414149599547,0.6102941176470589
0.0414917472242,0.6176470588235294
0.0415019248259,0.625
0.0415158816992,0.6323529411764706
0.0415203027792,0.6397058823529411
0.0415210431514,0.6470588235294118
0.0415218865854,0.6544117647058824
0.0415227878374,0.6617647058823529
0.0415233488117,0.6691176470588235
0.0415238398742,0.6764705882352942
0.0415261391963,0.6838235294117647
0.0415287807268,0.6911764705882353
0.0415371265127,0.6985294117647058
0.041540163758,0.7058823529411765
0.0415401732409,0.7132352941176471
0.0415402380452,0.7205882352941176
0.0415402410376,0.7279411764705882
0.0415405340432,0.7352941176470589
0.0415405360387,0.7426470588235294
0.0415405360387,0.75
1.03804716463,0.7573529411764706
1.03815347991,0.7647058823529411
1.11048523918,0.7720588235294118
2.07074799774,0.7794117647058824
2.07074799774,0.7867647058823529
2.07643903634,0.7941176470588235
2.07643903634,0.8014705882352942
3.1141414939,0.8088235294117647
3.46023541626,0.8161764705882353
3.46023541626,0.8235294117647058
3.46023541626,0.8308823529411765
4.13745896198,0.8382352941176471
4.15233488117,0.8455882352941176
4.15261391963,0.8529411764705882
4.15401732409,0.8602941176470589
4.15402410376,0.8676470588235294
4.15405360387,0.875
4.15405360387,0.8823529411764706
5.19043115205,0.8897058823529411
6.20400208322,0.8970588235294118
6.22846931426,0.9044117647058824
7.61042789884,0.9117647058823529
8.27325609194,0.9191176470588235
8.30804790828,0.9264705882352942
12.4621606121,0.9338235294117647
16.9552802332,0.9411764705882353
30.1163957001,0.9485294117647058
30.7856308522,0.9558823529411765
39.806782804,0.9632352941176471
49.3844588676,0.9705882352941176
50.1868402882,0.9779411764705882
53.0399114746,0.9852941176470589
54.3138670179,0.9926470588235294
58.008612443,1.0
