Congestion,CDF
0.0,0.007352941176470588
0.0,0.014705882352941176
0.0,0.022058823529411766
0.0,0.029411764705882353
0.0,0.03676470588235294
0.0,0.04411764705882353
0.0,0.051470588235294115
0.0,0.058823529411764705
0.0,0.0661764705882353
0.0,0.07352941176470588
0.0,0.08088235294117647
0.0,0.08823529411764706
0.0,0.09558823529411764
0.0,0.10294117647058823
1.53175895737e-05,0.11029411764705882
1.53175895737e-05,0.11764705882352941
1.53175895737e-05,0.125
1.53175895737e-05,0.1323529411764706
1.53175895737e-05,0.13970588235294118
1.53175895737e-05,0.14705882352941177
1.53175895737e-05,0.15441176470588236
1.53175895737e-05,0.16176470588235295
1.53175895737e-05,0.16911764705882354
1.53175895737e-05,0.17647058823529413
1.53175895737e-05,0.18382352941176472
1.53175895737e-05,0.19117647058823528
1.53175895737e-05,0.19852941176470587
1.53175895737e-05,0.20588235294117646
1.53175895737e-05,0.21323529411764705
1.53175895737e-05,0.22058823529411764
1.53175895737e-05,0.22794117647058823
1.53175895737e-05,0.23529411764705882
1.53175895737e-05,0.2426470588235294
1.53175895737e-05,0.25
1.53175895737e-05,0.25735294117647056
1.53175895737e-05,0.2647058823529412
1.53175895737e-05,0.27205882352941174
1.53175895737e-05,0.27941176470588236
1.53175895737e-05,0.2867647058823529
1.53175895737e-05,0.29411764705882354
1.53175895737e-05,0.3014705882352941
0.000382939739341,0.3088235294117647
0.000382939739341,0.3161764705882353
0.000413574918489,0.3235294117647059
0.000765879478683,0.33088235294117646
0.000765879478683,0.3382352941176471
0.000765879478683,0.34558823529411764
0.000765879478683,0.35294117647058826
0.00114881921802,0.3602941176470588
0.0012764657978,0.36764705882352944
0.0012764657978,0.375
0.0012764657978,0.38235294117647056
0.00153175895737,0.3897058823529412
0.00153175895737,0.39705882352941174
0.00153175895737,0.40441176470588236
0.00153175895737,0.4117647058823529
0.00153175895737,0.41911764705882354
0.00153175895737,0.4264705882352941
0.00153175895737,0.4338235294117647
0.00191469869671,0.4411764705882353
0.00229763843605,0.4485294117647059
0.00229763843605,0.45588235294117646
0.00280822475517,0.4632352941176471
0.00306351791473,0.47058823529411764
0.00306351791473,0.47794117647058826
0.0045952768721,0.4852941176470588
0.00625468240924,0.49264705882352944
0.0111052524409,0.5
0.0113605456005,0.5073529411764706
0.0140792262899,0.5147058823529411
0.0142023348817,0.5220588235294118
0.0146793566748,0.5294117647058824
0.0153899513664,0.5367647058823529
0.0154120275445,0.5441176470588235
0.0154212919695,0.5514705882352942
0.0154268182492,0.5588235294117647
0.0154276084712,0.5661764705882353
0.0154745309901,0.5735294117647058
0.0155371815928,0.5808823529411765
0.0155410898844,0.5882352941176471
0.0155570740756,0.5955882352941176
0.0155585708318,0.6029411764705882
0.0155586285378,0.6102941176470589
0.0155592449424,0.6176470588235294
0.0155606481271,0.625
0.0155607177833,0.6323529411764706
0.0155610943063,0.6397058823529411
0.0155632753844,0.6470588235294118
0.0155663612566,0.6544117647058824
0.0155741531401,0.6617647058823529
0.015576977071,0.6691176470588235
0.0155769791451,0.6764705882352942
0.01557703911,0.6838235294117647
0.0155770401087,0.6911764705882353
0.0155773334949,0.6985294117647058
0.0155773341612,0.7058823529411765
0.0155773341612,0.7132352941176471
0.0182534609086,0.7205882352941176
0.0185087540682,0.7279411764705882
0.019785219866,0.7352941176470589
0.0200405130255,0.7426470588235294
0.0215722719829,0.75
0.388981123561,0.7573529411764706
0.38908188461,0.7647058823529411
0.416571866877,0.7720588235294118
0.773726549507,0.7794117647058824
0.773726549507,0.7867647058823529
0.778318062829,0.7941176470588235
0.778318062829,0.8014705882352942
1.16694337068,0.8088235294117647
1.29668395943,0.8161764705882353
1.29668395943,0.8235294117647058
1.29668395943,0.8308823529411765
1.54276084712,0.8382352941176471
1.55607177833,0.8455882352941176
1.55632753844,0.8529411764705882
1.55769791451,0.8602941176470589
1.55770401087,0.8676470588235294
1.55773341612,0.875
1.55773341612,0.8823529411764706
1.94509055419,0.8897058823529411
2.31492930396,0.8970588235294118
2.33417514601,0.9044117647058824
2.85079294787,0.9117647058823529
3.08544267204,0.9191176470588235
3.11540792187,0.9264705882352942
4.67320018173,0.9338235294117647
6.35391110466,0.9411764705882353
11.2930856098,0.9485294117647058
11.5321487613,0.9558823529411765
14.9255029461,0.9632352941176471
18.471515874,0.9705882352941176
18.8153854997,0.9779411764705882
19.879438503,0.9852941176470589
20.3575146966,0.9926470588235294
21.7777481848,1.0
