Congestion,CDF
0.0,0.007352941176470588
0.0,0.014705882352941176
0.0,0.022058823529411766
0.0,0.029411764705882353
0.0,0.03676470588235294
0.0,0.04411764705882353
0.0,0.051470588235294115
0.0,0.058823529411764705
0.0,0.0661764705882353
0.0,0.07352941176470588
0.0,0.08088235294117647
0.0,0.08823529411764706
0.0,0.09558823529411764
0.0,0.10294117647058823
1.52884373385e-05,0.11029411764705882
1.52884373385e-05,0.11764705882352941
1.52884373385e-05,0.125
1.52884373385e-05,0.1323529411764706
1.52884373385e-05,0.13970588235294118
1.52884373385e-05,0.14705882352941177
1.52884373385e-05,0.15441176470588236
1.52884373385e-05,0.16176470588235295
1.52884373385e-05,0.16911764705882354
1.52884373385e-05,0.17647058823529413
1.52884373385e-05,0.18382352941176472
1.52884373385e-05,0.19117647058823528
1.52884373385e-05,0.19852941176470587
1.52884373385e-05,0.20588235294117646
1.52884373385e-05,0.21323529411764705
1.52884373385e-05,0.22058823529411764
1.52884373385e-05,0.22794117647058823
1.52884373385e-05,0.23529411764705882
1.52884373385e-05,0.2426470588235294
1.52884373385e-05,0.25
1.52884373385e-05,0.25735294117647056
1.52884373385e-05,0.2647058823529412
1.52884373385e-05,0.27205882352941174
1.52884373385e-05,0.27941176470588236
1.52884373385e-05,0.2867647058823529
1.52884373385e-05,0.29411764705882354
1.52884373385e-05,0.3014705882352941
0.000382210933462,0.3088235294117647
0.000382210933462,0.3161764705882353
0.000412787808139,0.3235294117647059
0.000764421866924,0.33088235294117646
0.000764421866924,0.3382352941176471
0.000764421866924,0.34558823529411764
0.000764421866924,0.35294117647058826
0.00114663280039,0.3602941176470588
0.00127403644487,0.36764705882352944
0.00127403644487,0.375
0.00127403644487,0.38235294117647056
0.00129216887312,0.3897058823529412
0.00152884373385,0.39705882352941174
0.00152884373385,0.40441176470588236
0.00152884373385,0.4117647058823529
0.00152884373385,0.41911764705882354
0.00152884373385,0.4264705882352941
0.00152884373385,0.4338235294117647
0.00152884373385,0.4411764705882353
0.00191105466731,0.4485294117647059
0.00227346103126,0.45588235294117646
0.00229326560077,0.4632352941176471
0.00229326560077,0.47058823529411764
0.00280288017872,0.47794117647058826
0.0030576874677,0.4852941176470588
0.0030576874677,0.49264705882352944
0.00458653120154,0.5
0.00624277857988,0.5073529411764706
0.0110841170704,0.5147058823529411
0.0113389243594,0.5220588235294118
0.014651419116,0.5294117647058824
0.017110498291,0.5367647058823529
0.0172409214281,0.5441176470588235
0.0175743084284,0.5514705882352942
0.0176239756889,0.5588235294117647
0.0176874118386,0.5661764705882353
0.017712296347,0.5735294117647058
0.0178109824133,0.5808823529411765
0.0178370048554,0.5882352941176471
0.0178448142839,0.5955882352941176
0.0178568384796,0.6029411764705882
0.0178590246084,0.6102941176470589
0.0178599653242,0.6176470588235294
0.0178602722899,0.625
0.0178615784693,0.6323529411764706
0.0178622011232,0.6397058823529411
0.0178647433754,0.6470588235294118
0.0178666285016,0.6544117647058824
0.0178756460002,0.6617647058823529
0.0178790319126,0.6691176470588235
0.0178790529164,0.6764705882352942
0.017879121711,0.6838235294117647
0.0178791269811,0.6911764705882353
0.0178794190392,0.6985294117647058
0.0178794225531,0.7058823529411765
0.0178794225531,0.7132352941176471
0.0182187211617,0.7205882352941176
0.0184735284507,0.7279411764705882
0.0197475648955,0.7352941176470589
0.0200023721845,0.7426470588235294
0.0215312159184,0.75
0.446506807247,0.7573529411764706
0.446618584384,0.7647058823529411
0.447929339317,0.7720588235294118
0.885614817352,0.7794117647058824
0.885614817352,0.7867647058823529
0.893331425082,0.7941176470588235
0.893331425082,0.8014705882352942
1.33952042174,0.8088235294117647
1.48842621191,0.8161764705882353
1.48842621191,0.8235294117647058
1.48842621191,0.8308823529411765
1.76874118386,0.8382352941176471
1.78615784693,0.8455882352941176
1.78647433754,0.8529411764705882
1.78790529164,0.8602941176470589
1.78791269811,0.8676470588235294
1.78794225531,0.875
1.78794225531,0.8823529411764706
2.23272691957,0.8897058823529411
2.64304566019,0.8970588235294118
2.67901527304,0.9044117647058824
3.27212669745,0.9117647058823529
3.53113875275,0.9191176470588235
3.57582486921,0.9264705882352942
5.36382641453,0.9338235294117647
7.29330751084,0.9411764705882353
12.962078351,0.9485294117647058
13.232147267,0.9558823529411765
17.131400588,0.9632352941176471
21.117381509,0.9705882352941176
21.2465983963,0.9779411764705882
21.5948972895,0.9852941176470589
23.3189894323,0.9926470588235294
23.5463355354,1.0
