Congestion,CDF
0.0,0.007352941176470588
0.0,0.014705882352941176
0.0,0.022058823529411766
0.0,0.029411764705882353
0.0,0.03676470588235294
0.0,0.04411764705882353
0.0,0.051470588235294115
0.0,0.058823529411764705
0.0,0.0661764705882353
0.0,0.07352941176470588
0.0,0.08088235294117647
0.0,0.08823529411764706
0.0,0.09558823529411764
0.0,0.10294117647058823
1.53331249175e-05,0.11029411764705882
1.53331249175e-05,0.11764705882352941
1.53331249175e-05,0.125
1.53331249175e-05,0.1323529411764706
1.53331249175e-05,0.13970588235294118
1.53331249175e-05,0.14705882352941177
1.53331249175e-05,0.15441176470588236
1.53331249175e-05,0.16176470588235295
1.53331249175e-05,0.16911764705882354
1.53331249175e-05,0.17647058823529413
1.53331249175e-05,0.18382352941176472
1.53331249175e-05,0.19117647058823528
1.53331249175e-05,0.19852941176470587
1.53331249175e-05,0.20588235294117646
1.53331249175e-05,0.21323529411764705
1.53331249175e-05,0.22058823529411764
1.53331249175e-05,0.22794117647058823
1.53331249175e-05,0.23529411764705882
1.53331249175e-05,0.2426470588235294
1.53331249175e-05,0.25
1.53331249175e-05,0.25735294117647056
1.53331249175e-05,0.2647058823529412
1.53331249175e-05,0.27205882352941174
1.53331249175e-05,0.27941176470588236
1.53331249175e-05,0.2867647058823529
1.53331249175e-05,0.29411764705882354
1.53331249175e-05,0.3014705882352941
0.000383328122936,0.3088235294117647
0.000383328122936,0.3161764705882353
0.000413994372771,0.3235294117647059
0.000470863400928,0.33088235294117646
0.000766656245873,0.3382352941176471
0.000766656245873,0.34558823529411764
0.000766656245873,0.35294117647058826
0.000766656245873,0.3602941176470588
0.00114998436881,0.36764705882352944
0.00124997764223,0.375
0.00127776040979,0.38235294117647056
0.00127776040979,0.3897058823529412
0.00127776040979,0.39705882352941174
0.00153331249175,0.40441176470588236
0.00153331249175,0.4117647058823529
0.00153331249175,0.41911764705882354
0.00153331249175,0.4264705882352941
0.00153331249175,0.4338235294117647
0.00153331249175,0.4411764705882353
0.00153331249175,0.4485294117647059
0.00191664061468,0.45588235294117646
0.00229996873762,0.4632352941176471
0.00229996873762,0.47058823529411764
0.00281107290153,0.47794117647058826
0.00306662498349,0.4852941176470588
0.00306662498349,0.49264705882352944
0.00459993747524,0.5
0.00626102600796,0.5073529411764706
0.0111165155652,0.5147058823529411
0.0113720676471,0.5220588235294118
0.0146942447126,0.5294117647058824
0.0153663174799,0.5367647058823529
0.0155034766063,0.5441176470588235
0.0158534435853,0.5514705882352942
0.0159068067406,0.5588235294117647
0.0159750550191,0.5661764705882353
0.0159972915413,0.5735294117647058
0.0161019373832,0.5808823529411765
0.0161300416836,0.5882352941176471
0.016137264331,0.5955882352941176
0.0161502313557,0.6029411764705882
0.0161526616852,0.6102941176470589
0.0161535078675,0.6176470588235294
0.0161540030932,0.625
0.0161553025376,0.6323529411764706
0.0161559713772,0.6397058823529411
0.0161585631752,0.6470588235294118
0.0161602583161,0.6544117647058824
0.0161695130169,0.6617647058823529
0.0161729801393,0.6691176470588235
0.0161730041355,0.6764705882352942
0.0161730748291,0.6838235294117647
0.016173080936,0.6911764705882353
0.0161733727902,0.6985294117647058
0.016173376862,0.7058823529411765
0.016173376862,0.7132352941176471
0.01827197386,0.7205882352941176
0.0185275259419,0.7279411764705882
0.0198052863517,0.7352941176470589
0.0200608384337,0.7426470588235294
0.0215941509254,0.75
0.403314754392,0.7573529411764706
0.40385007733,0.7647058823529411
0.40396407938,0.7720588235294118
0.799864577064,0.7794117647058824
0.799864577064,0.7867647058823529
0.808012915805,0.7941176470588235
0.808012915805,0.8014705882352942
1.21155023199,0.8088235294117647
1.34623621289,0.8161764705882353
1.34623621289,0.8235294117647058
1.34623621289,0.8308823529411765
1.59750550191,0.8382352941176471
1.61553025376,0.8455882352941176
1.61585631752,0.8529411764705882
1.61730041355,0.8602941176470589
1.6173080936,0.8676470588235294
1.6173376862,0.875
1.6173376862,0.8823529411764706
2.01944721505,0.8897058823529411
2.38520893559,0.8970588235294118
2.42303605138,0.9044117647058824
2.95924038124,0.9117647058823529
3.18818617597,0.9191176470588235
3.23461557651,0.9264705882352942
4.85201265142,0.9338235294117647
6.59656446845,0.9411764705882353
11.7251907348,0.9485294117647058
11.9658631651,0.9558823529411765
15.4963911652,0.9632352941176471
19.0758900246,0.9705882352941176
19.2008877888,0.9779411764705882
19.5331536496,0.9852941176470589
21.0835013103,0.9926470588235294
21.1305876504,1.0
