Congestion,CDF
0.0,0.007352941176470588
0.0,0.014705882352941176
0.0,0.022058823529411766
0.0,0.029411764705882353
0.0,0.03676470588235294
0.0,0.04411764705882353
0.0,0.051470588235294115
0.0,0.058823529411764705
0.0,0.0661764705882353
0.0,0.07352941176470588
0.0,0.08088235294117647
0.0,0.08823529411764706
0.0,0.09558823529411764
0.0,0.10294117647058823
1.54533536074e-05,0.11029411764705882
1.54533536074e-05,0.11764705882352941
1.54533536074e-05,0.125
1.54533536074e-05,0.1323529411764706
1.54533536074e-05,0.13970588235294118
1.54533536074e-05,0.14705882352941177
1.54533536074e-05,0.15441176470588236
1.54533536074e-05,0.16176470588235295
1.54533536074e-05,0.16911764705882354
1.54533536074e-05,0.17647058823529413
1.54533536074e-05,0.18382352941176472
1.54533536074e-05,0.19117647058823528
1.54533536074e-05,0.19852941176470587
1.54533536074e-05,0.20588235294117646
1.54533536074e-05,0.21323529411764705
1.54533536074e-05,0.22058823529411764
1.54533536074e-05,0.22794117647058823
1.54533536074e-05,0.23529411764705882
1.54533536074e-05,0.2426470588235294
1.54533536074e-05,0.25
1.54533536074e-05,0.25735294117647056
1.54533536074e-05,0.2647058823529412
1.54533536074e-05,0.27205882352941174
1.54533536074e-05,0.27941176470588236
1.54533536074e-05,0.2867647058823529
1.54533536074e-05,0.29411764705882354
1.54533536074e-05,0.3014705882352941
0.000386333840184,0.3088235294117647
0.000386333840184,0.3161764705882353
0.000417240547399,0.3235294117647059
0.000461105448017,0.33088235294117646
0.000772667680368,0.3382352941176471
0.000772667680368,0.34558823529411764
0.000772667680368,0.35294117647058826
0.000772667680368,0.3602941176470588
0.00115196846538,0.36764705882352944
0.00115900152055,0.375
0.00128777946728,0.38235294117647056
0.00128777946728,0.3897058823529412
0.00128777946728,0.39705882352941174
0.00154533536074,0.40441176470588236
0.00154533536074,0.4117647058823529
0.00154533536074,0.41911764705882354
0.00154533536074,0.4264705882352941
0.00154533536074,0.4338235294117647
0.00154533536074,0.4411764705882353
0.00154533536074,0.4485294117647059
0.00193166920092,0.45588235294117646
0.00231800304111,0.4632352941176471
0.00231800304111,0.47058823529411764
0.00283311482802,0.47794117647058826
0.00309067072147,0.4852941176470588
0.00309067072147,0.49264705882352944
0.00463600608221,0.5
0.00631011938968,0.5073529411764706
0.0112036813653,0.5147058823529411
0.0114612372588,0.5220588235294118
0.0118656631502,0.5294117647058824
0.0120179400959,0.5367647058823529
0.012400470259,0.5441176470588235
0.0124640256594,0.5514705882352942
0.0125423700056,0.5588235294117647
0.0125604469326,0.5661764705882353
0.0126815694687,0.5735294117647058
0.0127149645597,0.5808823529411765
0.0127210007853,0.5882352941176471
0.0127363042005,0.5955882352941176
0.0127393486676,0.6029411764705882
0.0127400758339,0.6102941176470589
0.0127409237336,0.6176470588235294
0.0127423244652,0.625
0.0127431709071,0.6323529411764706
0.0127458578164,0.6397058823529411
0.0127471054176,0.6470588235294118
0.0127571354385,0.6544117647058824
0.012760863951,0.6617647058823529
0.0127608967896,0.6691176470588235
0.0127609761732,0.6764705882352942
0.0127609851939,0.6838235294117647
0.012761277031,0.6911764705882353
0.0127612830454,0.6985294117647058
0.0127612830454,0.7058823529411765
0.0148094638737,0.7132352941176471
0.0184152463821,0.7205882352941176
0.0186728022756,0.7279411764705882
0.0199605817429,0.7352941176470589
0.0202181376363,0.7426470588235294
0.021763472997,0.75
0.31760133654,0.7573529411764706
0.318523093341,0.7647058823529411
0.31864644541,0.7720588235294118
0.628022346628,0.7794117647058824
0.628022346628,0.7867647058823529
0.637355270881,0.7941176470588235
0.637355270881,0.8014705882352942
0.955569280022,0.8088235294117647
1.06181449434,0.8161764705882353
1.06181449434,0.8235294117647058
1.06181449434,0.8308823529411765
1.25423700056,0.8382352941176471
1.27423244652,0.8455882352941176
1.27458578164,0.8529411764705882
1.27608967896,0.8602941176470589
1.27609851939,0.8676470588235294
1.27612830454,0.875
1.27612830454,0.8823529411764706
1.59284018405,0.8897058823529411
1.86806937252,0.8970588235294118
1.91098569093,0.9044117647058824
2.33331095031,0.9117647058823529
2.50063956651,0.9191176470588235
2.5521961367,0.9264705882352942
3.82838431217,0.9338235294117647
5.2028947083,0.9411764705882353
9.25140296834,0.9485294117647058
9.4323849521,0.9558823529411765
12.2262862774,0.9632352941176471
14.9876602061,0.9705882352941176
15.1028570527,0.9779411764705882
15.4093720469,0.9852941176470589
16.6111660565,0.9926470588235294
16.6572766013,1.0
