Congestion,CDF
0.000351241604676,0.007352941176470588
0.000351241604676,0.014705882352941176
0.000351241617685,0.022058823529411766
0.000351241617685,0.029411764705882353
0.000351241617685,0.03676470588235294
0.000351241617685,0.04411764705882353
0.000351241630694,0.051470588235294115
0.000351241630694,0.058823529411764705
0.000351241630694,0.0661764705882353
0.000351241630694,0.07352941176470588
0.000351241643703,0.08088235294117647
0.000351241643703,0.08823529411764706
0.000351241643703,0.09558823529411764
0.000351241643703,0.10294117647058823
0.000351241656712,0.11029411764705882
0.000351241656712,0.11764705882352941
0.000351241656712,0.125
0.000351241656712,0.1323529411764706
0.000351241656712,0.13970588235294118
0.000351241656712,0.14705882352941177
0.000351241656712,0.15441176470588236
0.000351241656712,0.16176470588235295
0.000351241669721,0.16911764705882354
0.000351241669721,0.17647058823529413
0.000351241669721,0.18382352941176472
0.000351241669721,0.19117647058823528
0.000351241669721,0.19852941176470587
0.000351241669721,0.20588235294117646
0.000351241669721,0.21323529411764705
0.000351241669721,0.22058823529411764
0.000351241669721,0.22794117647058823
0.000351241669721,0.23529411764705882
0.000351241669721,0.2426470588235294
0.000351241669721,0.25
0.000351241669721,0.25735294117647056
0.000351241669721,0.2647058823529412
0.000351241669721,0.27205882352941174
0.000351241669721,0.27941176470588236
0.000351241669721,0.2867647058823529
0.000351241669721,0.29411764705882354
0.000351241669721,0.3014705882352941
0.000351241669721,0.3088235294117647
0.000351241669721,0.3161764705882353
0.000351241669721,0.3235294117647059
0.00035124168273,0.33088235294117646
0.00035124168273,0.3382352941176471
0.00035124168273,0.34558823529411764
0.00035124168273,0.35294117647058826
0.000351241695739,0.3602941176470588
0.000351241695739,0.36764705882352944
0.000351241708748,0.375
0.000351241708748,0.38235294117647056
0.000351241708748,0.3897058823529412
0.000351241708748,0.39705882352941174
0.000351241734766,0.40441176470588236
0.000351241734766,0.4117647058823529
0.00260179004972,0.41911764705882354
0.00260179004972,0.4264705882352941
0.00585402761187,0.4338235294117647
0.00585402761187,0.4411764705882353
0.0121416847305,0.4485294117647059
0.0121416847305,0.45588235294117646
0.0121416860314,0.4632352941176471
0.0121416860314,0.47058823529411764
0.0150686998374,0.47794117647058826
0.0150686998374,0.4852941176470588
0.0164780045155,0.49264705882352944
0.0164780045155,0.5
0.0166948186184,0.5073529411764706
0.0166948186184,0.5147058823529411
0.0181041232966,0.5220588235294118
0.0181041232966,0.5294117647058824
0.0196218337253,0.5367647058823529
0.0196218337253,0.5441176470588235
0.0197302446794,0.5514705882352942
0.0197302446794,0.5588235294117647
0.0236329323558,0.5661764705882353
0.0236329323558,0.5735294117647058
0.0240665553581,0.5808823529411765
0.0240665553581,0.5882352941176471
0.0263431242534,0.5955882352941176
0.0263431242534,0.6029411764705882
0.0299205868727,0.6102941176470589
0.0299205868727,0.6176470588235294
0.0325223782233,0.625
0.0325223782233,0.6323529411764706
0.033172821833,0.6397058823529411
0.033172821833,0.6470588235294118
0.033389635936,0.6544117647058824
0.033389635936,0.6617647058823529
0.0342568962505,0.6691176470588235
0.0342568962505,0.6764705882352942
0.0344737194597,0.6838235294117647
0.0344737194597,0.6911764705882353
0.0351241669721,0.6985294117647058
0.0351241669721,0.7058823529411765
0.0377259570218,0.7132352941176471
0.0377259570218,0.7205882352941176
0.0387016295914,0.7279411764705882
0.0387016295914,0.7352941176470589
0.0390268468431,0.7426470588235294
0.0390268468431,0.75
0.0413034183402,0.7573529411764706
0.0413034183402,0.7647058823529411
0.0424959037118,0.7720588235294118
0.0424959037118,0.7794117647058824
0.0476994838112,0.7867647058823529
0.0476994838112,0.7941176470588235
0.0480247101692,0.8014705882352942
0.0480247101692,0.8088235294117647
0.049542419297,0.8161764705882353
0.049542419297,0.8235294117647058
0.0496508302512,0.8308823529411765
0.0496508302512,0.8382352941176471
0.0509517200725,0.8455882352941176
0.0509517200725,0.8529411764705882
0.0574562017013,0.8602941176470589
0.0574562017013,0.8676470588235294
0.0627681862504,0.875
0.0627681862504,0.8823529411764706
0.063635445264,0.8897058823529411
0.063635445264,0.8970588235294118
0.0689474350167,0.9044117647058824
0.0689474350167,0.9117647058823529
0.0777284777354,0.9191176470588235
0.0777284777354,0.9264705882352942
0.078487336202,0.9338235294117647
0.078487336202,0.9411764705882353
0.0917131031553,0.9485294117647058
0.0917131031553,0.9558823529411765
0.0972780379248,0.9632352941176471
0.0972780379248,0.9705882352941176
0.119140305729,0.9779411764705882
0.119140305729,0.9852941176470589
0.135184676835,0.9926470588235294
0.135184676835,1.0
