Congestion,CDF
0.0,0.005555555555555556
0.0,0.011111111111111112
0.0,0.016666666666666666
0.0,0.022222222222222223
0.0,0.027777777777777776
0.0,0.03333333333333333
0.0,0.03888888888888889
0.0,0.044444444444444446
0.0,0.05
0.0,0.05555555555555555
2.9665073727e-07,0.06111111111111111
3.40837430277e-07,0.06666666666666667
7.67196816053e-07,0.07222222222222222
1.12130277445e-06,0.07777777777777778
1.14736867478e-06,0.08333333333333333
1.51492162641e-06,0.08888888888888889
1.66661429277e-06,0.09444444444444444
2.2969745376e-06,0.1
2.30882474417e-06,0.10555555555555556
2.36214443812e-06,0.1111111111111111
2.41076008094e-06,0.11666666666666667
2.65375433747e-06,0.12222222222222222
2.71530753274e-06,0.12777777777777777
3.03216729758e-06,0.13333333333333333
3.10554847522e-06,0.1388888888888889
3.27018210157e-06,0.14444444444444443
3.78135615182e-06,0.15
4.13834371026e-06,0.15555555555555556
4.32126440598e-06,0.16111111111111112
4.49429267571e-06,0.16666666666666666
4.56540161293e-06,0.17222222222222222
4.60206783379e-06,0.17777777777777778
4.75454090574e-06,0.18333333333333332
4.91975213989e-06,0.18888888888888888
5.00279965914e-06,0.19444444444444445
5.05929724618e-06,0.2
5.08736625153e-06,0.20555555555555555
5.1457864423e-06,0.2111111111111111
5.19607008525e-06,0.21666666666666667
5.20747231446e-06,0.2222222222222222
5.38146734129e-06,0.22777777777777777
5.42636424408e-06,0.23333333333333334
5.4886555275e-06,0.2388888888888889
5.94391954663e-06,0.24444444444444444
6.2545576519e-06,0.25
6.79063034915e-06,0.25555555555555554
6.89820895316e-06,0.2611111111111111
6.99747918051e-06,0.26666666666666666
7.23444836548e-06,0.2722222222222222
2.55732272018e-05,0.2777777777777778
5.11464544036e-05,0.2833333333333333
5.60651387225e-05,0.28888888888888886
5.60651387225e-05,0.29444444444444445
5.77206186043e-05,0.3
5.77206186043e-05,0.3055555555555556
8.73856923313e-05,0.3111111111111111
0.000114736867478,0.31666666666666665
0.000115441237209,0.32222222222222224
0.000153702098492,0.3277777777777778
0.00022969745376,0.3333333333333333
0.000238877854973,0.3388888888888889
0.000252964862309,0.34444444444444444
0.000252964862309,0.35
0.000323096052351,0.35555555555555557
0.000491975213989,0.3611111111111111
0.000500279965914,0.36666666666666664
0.000516271922102,0.37222222222222223
0.000556181592066,0.37777777777777777
0.000588445228593,0.38333333333333336
0.000588445228593,0.3888888888888889
0.00067100429557,0.39444444444444443
0.000709128822141,0.4
0.000762503650579,0.40555555555555556
0.00081518915526,0.4111111111111111
0.00101272244544,0.4166666666666667
0.0010707602363,0.4222222222222222
0.00112659196272,0.42777777777777776
0.0013850326222,0.43333333333333335
0.00162610863029,0.4388888888888889
0.00170253216439,0.4444444444444444
0.00210232601921,0.45
0.0023815951993,0.45555555555555555
0.00423717127465,0.46111111111111114
0.00515489877635,0.4666666666666667
0.00539572936437,0.4722222222222222
0.0058783436129,0.4777777777777778
0.00602118512956,0.48333333333333334
0.00633488377419,0.4888888888888889
0.00640426847844,0.49444444444444446
0.00678240409362,0.5
0.00732504051803,0.5055555555555555
0.00737076270482,0.5111111111111111
0.0074917019473,0.5166666666666667
0.00760697714863,0.5222222222222223
0.0078785079019,0.5277777777777778
0.0277545955224,0.5333333333333333
0.028070892609,0.5388888888888889
0.0330631499213,0.5444444444444444
0.0332114039422,0.55
0.0332141394006,0.5555555555555556
0.0332402227499,0.5611111111111111
0.0332496061452,0.5666666666666667
0.0332634073292,0.5722222222222222
0.0332859412474,0.5777777777777777
0.0332894910836,0.5833333333333334
0.0333337858633,0.5888888888888889
0.033334536649,0.5944444444444444
0.0333407789891,0.6
0.0333556503952,0.6055555555555555
0.0333786247988,0.6111111111111112
0.0333832886105,0.6166666666666667
0.0333907938419,0.6222222222222222
0.0334051326789,0.6277777777777778
0.0334464818915,0.6333333333333333
0.0334526728213,0.6388888888888888
0.0334576412908,0.6444444444444445
0.0334681806047,0.65
0.0334686398624,0.6555555555555556
0.0334841748375,0.6611111111111111
0.0334862987548,0.6666666666666666
0.0334941112246,0.6722222222222223
0.0334993640281,0.6777777777777778
0.0335027213541,0.6833333333333333
0.0335045304996,0.6888888888888889
0.0335079415089,0.6944444444444444
0.0335117146816,0.7
0.0335225320638,0.7055555555555556
0.0335290620408,0.7111111111111111
0.0335568737616,0.7166666666666667
0.0335755227349,0.7222222222222222
0.0336086810507,0.7277777777777777
0.0336151564389,0.7333333333333333
0.0336214082334,0.7388888888888889
0.0336351084637,0.7444444444444445
0.833363416225,0.75
0.833363416225,0.7555555555555555
1.108007425,0.7611111111111111
1.29251425993,0.7666666666666667
1.66248030726,0.7722222222222223
1.66248030726,0.7777777777777778
1.66672683245,0.7833333333333333
1.67513606771,0.7888888888888889
1.67513606771,0.7944444444444444
2.21601485,0.8
3.32634073292,0.8055555555555556
3.33337858633,0.8111111111111111
3.34941112246,0.8166666666666667
3.34993640281,0.8222222222222222
4.15450381044,0.8277777777777777
4.16892845575,0.8333333333333334
5.00774758939,0.8388888888888889
5.01299854758,0.8444444444444444
5.02886765579,0.85
5.29160568342,0.8555555555555555
5.29160568342,0.8611111111111112
6.68202810908,0.8666666666666667
6.70058259062,0.8722222222222222
7.48309793518,0.8777777777777778
8.36379269848,0.8833333333333333
8.62158406989,0.8888888888888888
8.64385888979,0.8944444444444445
10.8288620643,0.9
15.3422127764,0.9055555555555556
17.2346036934,0.9111111111111111
19.1902829224,0.9166666666666666
20.5686815923,0.9222222222222223
22.5511510274,0.9277777777777778
39.2613474186,0.9333333333333333
40.9770419604,0.9388888888888889
44.3405528068,0.9444444444444444
47.687416793,0.95
49.2901935881,0.9555555555555556
52.6477458616,0.9611111111111111
56.0437942579,0.9666666666666667
57.6493055531,0.9722222222222222
59.35010925,0.9777777777777777
60.989818821,0.9833333333333333
62.1255688023,0.9888888888888889
64.3187679293,0.9944444444444445
67.1258571902,1.0
