Congestion,CDF
0.0,0.005555555555555556
0.0,0.011111111111111112
0.0,0.016666666666666666
0.0,0.022222222222222223
0.0,0.027777777777777776
0.0,0.03333333333333333
0.0,0.03888888888888889
0.0,0.044444444444444446
0.0,0.05
0.0,0.05555555555555555
2.99553329475e-07,0.06111111111111111
3.44172369126e-07,0.06666666666666667
7.74703487092e-07,0.07222222222222222
1.13227421084e-06,0.07777777777777778
1.15859515412e-06,0.08333333333333333
1.52974444379e-06,0.08888888888888889
1.68292135372e-06,0.09444444444444444
2.31944938614e-06,0.1
2.33141554158e-06,0.10555555555555556
2.38525694441e-06,0.1111111111111111
2.43434826913e-06,0.11666666666666667
2.67972011367e-06,0.12222222222222222
2.74187557889e-06,0.12777777777777777
3.06183567206e-06,0.13333333333333333
3.13593485106e-06,0.1388888888888889
3.30217934238e-06,0.14444444444444443
3.81835499764e-06,0.15
4.17883551657e-06,0.15555555555555556
4.36354600789e-06,0.16111111111111112
4.53826728035e-06,0.16666666666666666
4.61007198611e-06,0.17222222222222222
4.64709696922e-06,0.17777777777777778
4.80106192065e-06,0.18333333333333332
4.9678896714e-06,0.18888888888888888
5.05174977276e-06,0.19444444444444445
5.10880016292e-06,0.2
5.1371438107e-06,0.20555555555555555
5.1961356164e-06,0.2111111111111111
5.24691126186e-06,0.21666666666666667
5.25842505669e-06,0.2222222222222222
5.43412254552e-06,0.22777777777777777
5.47945874404e-06,0.23333333333333334
5.54235951927e-06,0.2388888888888889
6.00207808924e-06,0.24444444444444444
6.31575564674e-06,0.25
6.8570735709e-06,0.25555555555555554
6.9657047825e-06,0.2611111111111111
7.06594632377e-06,0.26666666666666666
7.30523414416e-06,0.2722222222222222
2.58234495697e-05,0.2777777777777778
5.16468991395e-05,0.2833333333333333
5.66137105418e-05,0.28888888888888886
5.66137105418e-05,0.29444444444444445
5.82853885394e-05,0.3
5.82853885394e-05,0.3055555555555556
8.82407214869e-05,0.3111111111111111
0.000115859515412,0.31666666666666665
0.000116570777079,0.32222222222222224
0.000155206003445,0.3277777777777778
0.000231944938614,0.3333333333333333
0.000241215165866,0.3388888888888889
0.000255440008146,0.34444444444444444
0.000255440008146,0.35
0.000326257399906,0.35555555555555557
0.00049678896714,0.3611111111111111
0.000505174977276,0.36666666666666664
0.000521323407463,0.37222222222222223
0.000561623575352,0.37777777777777777
0.000594202896851,0.38333333333333336
0.000594202896851,0.3888888888888889
0.000677569766656,0.39444444444444443
0.000716067324336,0.4
0.000769964401134,0.40555555555555556
0.000823165409456,0.4111111111111111
0.00102263147281,0.4166666666666667
0.00108123713699,0.4222222222222222
0.0011376151514,0.42777777777777776
0.0013985845349,0.43333333333333335
0.00164201936181,0.4388888888888889
0.00171919066534,0.4444444444444444
0.00212289632074,0.45
0.00240489802243,0.45555555555555555
0.00427863006362,0.46111111111111114
0.00520533711048,0.4666666666666667
0.00544852411599,0.4722222222222222
0.0059358605249,0.4777777777777778
0.00608009968067,0.48333333333333334
0.00639686772351,0.4888888888888889
0.00646693132545,0.49444444444444446
0.00684876682521,0.5
0.00739671269962,0.5055555555555555
0.00744288225716,0.5111111111111111
0.00756500483499,0.5166666666666667
0.0076814079516,0.5222222222222223
0.00795559550949,0.5277777777777778
0.0246931786219,0.5333333333333333
0.0250444635821,0.5388888888888889
0.0306813920643,0.5444444444444444
0.0308259901916,0.55
0.0308291118601,0.5555555555555556
0.0308589217682,0.5611111111111111
0.0308713826408,0.5666666666666667
0.0308854292078,0.5722222222222222
0.030911175692,0.5777777777777777
0.030936528552,0.5833333333333334
0.0309658557762,0.5888888888888889
0.0309667101376,0.5944444444444444
0.030973843435,0.6
0.0309908387122,0.6055555555555555
0.0310171206026,0.6111111111111112
0.0310224257965,0.6166666666666667
0.0310313663251,0.6222222222222222
0.0310499690723,0.6277777777777778
0.0310946461381,0.6333333333333333
0.0311048362796,0.6388888888888888
0.0311074043405,0.6444444444444445
0.0311194559921,0.65
0.0311205311076,0.6555555555555556
0.0311377249044,0.6611111111111111
0.0311434427331,0.6666666666666666
0.0311491053063,0.6722222222222223
0.0311550839799,0.6777777777777778
0.0311589351183,0.6833333333333333
0.0311609895986,0.6888888888888889
0.0311649112243,0.6944444444444444
0.0311692235572,0.7
0.0311815617289,0.7055555555555556
0.0311890285753,0.7111111111111111
0.0312208194931,0.7166666666666667
0.0312421835016,0.7222222222222222
0.0312800273874,0.7277777777777777
0.0312874430544,0.7333333333333333
0.0312945625152,0.7388888888888889
0.031310333824,0.7444444444444445
0.77416775344,0.75
0.77416775344,0.7555555555555555
1.02863072561,0.7611111111111111
1.1993479544,0.7666666666666667
1.54356913204,0.7722222222222223
1.54356913204,0.7777777777777778
1.54833550688,0.7833333333333333
1.55794675592,0.7888888888888889
1.55794675592,0.7944444444444444
2.05726145121,0.8
3.08854292078,0.8055555555555556
3.09658557762,0.8111111111111111
3.11491053063,0.8166666666666667
3.11550839799,0.8222222222222222
3.8567667726,0.8277777777777777
3.87325162466,0.8333333333333334
4.65405276,0.8388888888888889
4.65965881618,0.8444444444444444
4.6777917584,0.85
4.91864789463,0.8555555555555555
4.91864789463,0.8611111111111112
6.21062487009,0.8666666666666667
6.23183288635,0.8722222222222222
6.9478843418,0.8777777777777778
7.77614993861,0.8833333333333333
8.01134696407,0.8888888888888888
8.03680406752,0.8944444444444445
10.0586247759,0.9
14.2660849559,0.9055555555555556
16.0129060447,0.9111111111111111
17.8320599669,0.9166666666666666
19.1102903882,0.9222222222222223
20.9600627057,0.9277777777777778
36.492474304,0.9333333333333333
38.0967898361,0.9388888888888889
41.2278232184,0.9444444444444444
44.3398763292,0.95
45.8150447733,0.9555555555555556
48.9392631235,0.9611111111111111
52.1082733625,0.9666666666666667
53.585968888,0.9722222222222222
55.176412569,0.9777777777777777
56.6909657953,0.9833333333333333
57.6457304311,0.9888888888888889
59.7846186505,0.9944444444444445
62.2890650087,1.0
