Congestion,CDF
0.0,0.005555555555555556
0.0,0.011111111111111112
0.0,0.016666666666666666
0.0,0.022222222222222223
0.0,0.027777777777777776
0.0,0.03333333333333333
0.0,0.03888888888888889
0.0,0.044444444444444446
0.0,0.05
0.0,0.05555555555555555
3.11803531615e-07,0.06111111111111111
3.58247262234e-07,0.06666666666666667
8.06384905327e-07,0.07222222222222222
1.17857844649e-06,0.07777777777777778
1.205975782e-06,0.08333333333333333
1.59230318314e-06,0.08888888888888889
1.75174424681e-06,0.09444444444444444
2.41430302666e-06,0.1
2.42675853678e-06,0.10555555555555556
2.48280177816e-06,0.1111111111111111
2.53390068749e-06,0.11666666666666667
2.78930698799e-06,0.12222222222222222
2.85400429447e-06,0.12777777777777777
3.18704912225e-06,0.13333333333333333
3.26417857944e-06,0.1388888888888889
3.43722162188e-06,0.14444444444444443
3.97450622668e-06,0.15
4.34972855881e-06,0.15555555555555556
4.54199276639e-06,0.16111111111111112
4.72385924704e-06,0.16666666666666666
4.79860039874e-06,0.17222222222222222
4.83713951467e-06,0.17777777777777778
4.99740084673e-06,0.18333333333333332
5.17105100093e-06,0.18888888888888888
5.25834055237e-06,0.19444444444444445
5.31772401229e-06,0.2
5.34722677058e-06,0.20555555555555555
5.40863104002e-06,0.2111111111111111
5.46148315021e-06,0.21666666666666667
5.47346780047e-06,0.2222222222222222
5.65635041976e-06,0.22777777777777777
5.70354063739e-06,0.23333333333333334
5.76901373325e-06,0.2388888888888889
6.24753244615e-06,0.24444444444444444
6.57403781463e-06,0.25
7.13749287879e-06,0.25555555555555554
7.25056655245e-06,0.2611111111111111
7.35490746108e-06,0.26666666666666666
7.60398093191e-06,0.2722222222222222
2.68794968442e-05,0.2777777777777778
5.37589936885e-05,0.2833333333333333
5.89289223247e-05,0.28888888888888886
5.89289223247e-05,0.29444444444444445
6.06689634194e-05,0.3
6.06689634194e-05,0.3055555555555556
9.18493165809e-05,0.3111111111111111
0.0001205975782,0.31666666666666665
0.000121337926839,0.32222222222222224
0.000161553136754,0.3277777777777778
0.000241430302666,0.3333333333333333
0.000251079634894,0.3388888888888889
0.000265886200615,0.34444444444444444
0.000265886200615,0.35
0.000339599662218,0.35555555555555557
0.000517105100093,0.3611111111111111
0.000525834055237,0.36666666666666664
0.000542642873792,0.37222222222222223
0.000584591112839,0.37777777777777777
0.00061850276229,0.38333333333333336
0.00061850276229,0.3888888888888889
0.000705278911533,0.39444444444444443
0.000745350822816,0.4
0.000801452014943,0.40555555555555556
0.000856828672947,0.4111111111111111
0.00106445188014,0.4166666666666667
0.00112545421684,0.4222222222222222
0.00118413780427,0.42777777777777776
0.00145577950346,0.43333333333333335
0.00170916957221,0.4388888888888889
0.00178949678814,0.4444444444444444
0.00220971194418,0.45
0.00250324607602,0.45555555555555555
0.00445360419344,0.46111111111111114
0.00541820882824,0.4666666666666667
0.00567134094096,0.4722222222222222
0.00617860692143,0.4777777777777778
0.00632874472242,0.48333333333333334
0.00665846696131,0.4888888888888889
0.00673139580693,0.49444444444444446
0.0071288464296,0.5
0.00769920049334,0.5055555555555555
0.00774725815012,0.5111111111111111
0.00787437491802,0.5166666666666667
0.00799553832794,0.5222222222222223
0.00828093875739,0.5277777777777778
0.0154010806588,0.5333333333333333
0.0158494791745,0.5388888888888889
0.0235197471422,0.5444444444444444
0.02366974894,0.55
0.0236740292388,0.5555555555555556
0.0237150188229,0.5611111111111111
0.0237366420116,0.5666666666666667
0.023751494843,0.5722222222222222
0.0237868790258,0.5777777777777777
0.0238620655147,0.5833333333333334
0.0238632306035,0.5888888888888889
0.0238633557043,0.5944444444444444
0.0238730367728,0.6
0.0238964036631,0.6055555555555555
0.0239326080133,0.6111111111111112
0.0239398373544,0.6166666666666667
0.0239530733094,0.6222222222222222
0.0239840793505,0.6277777777777778
0.0240391388779,0.6333333333333333
0.0240566934896,0.6388888888888888
0.02406117262,0.6444444444444445
0.0240732821463,0.65
0.0240761887,0.6555555555555556
0.0240983751048,0.6611111111111111
0.02411408755,0.6666666666666666
0.0241143645215,0.6722222222222223
0.0241222438352,0.6777777777777778
0.0241275764106,0.6833333333333333
0.0241303668953,0.6888888888888889
0.0241358203678,0.6944444444444444
0.0241417501804,0.7
0.0241586507241,0.7055555555555556
0.0241689281786,0.7111111111111111
0.0242126566859,0.7166666666666667
0.0242421655145,0.7222222222222222
0.0242940663966,0.7277777777777777
0.0243043028831,0.7333333333333333
0.0243140253607,0.7388888888888889
0.0243360093802,0.7444444444444445
0.596580765087,0.75
0.596580765087,0.7555555555555555
0.790500627429,0.7611111111111111
0.919593675967,0.7666666666666667
1.18683210058,0.7722222222222223
1.18683210058,0.7777777777777778
1.19316153017,0.7833333333333333
1.20637882053,0.7888888888888889
1.20637882053,0.7944444444444444
1.58100125486,0.8
2.3751494843,0.8055555555555556
2.38620655147,0.8111111111111111
2.411408755,0.8166666666666667
2.41222438352,0.8222222222222222
2.96355565909,0.8277777777777777
2.9862211314,0.8333333333333334
3.59294936258,0.8388888888888889
3.59963962186,0.8444444444444444
3.62456406625,0.85
3.79977452827,0.8555555555555555
3.79977452827,0.8611111111111112
4.79641515288,0.8666666666666667
4.82558377304,0.8722222222222222
5.34224356167,0.8777777777777778
6.01322165864,0.8833333333333333
6.18063564662,0.8888888888888888
6.21563960068,0.8944444444444445
7.74791291063,0.9
11.0377014947,0.9055555555555556
12.3478130988,0.9111111111111111
13.7573911005,0.9166666666666666
14.7351167761,0.9222222222222223
16.1867977402,0.9277777777777778
28.1858549603,0.9333333333333333
29.4560334601,0.9388888888888889
31.8896343982,0.9444444444444444
34.2972532682,0.95
35.3895983278,0.9555555555555556
37.8138148792,0.9611111111111111
40.3016390829,0.9666666666666667
41.3959543107,0.9722222222222222
42.6536137971,0.9777777777777777
43.7943622458,0.9833333333333333
44.193721863,0.9888888888888889
46.1806978162,0.9944444444444445
47.7656457337,1.0
