Congestion,CDF
0.0,0.005555555555555556
0.0,0.011111111111111112
0.0,0.016666666666666666
0.0,0.022222222222222223
0.0,0.027777777777777776
0.0,0.03333333333333333
0.0,0.03888888888888889
0.0,0.044444444444444446
0.0,0.05
0.0,0.05555555555555555
3.82843941738e-07,0.06111111111111111
4.39869276915e-07,0.06666666666666667
9.90109297721e-07,0.07222222222222222
1.44710233321e-06,0.07777777777777778
1.48074179799e-06,0.08333333333333333
1.95508891101e-06,0.08888888888888889
2.15085656308e-06,0.09444444444444444
2.96437080905e-06,0.1
2.97966414638e-06,0.10555555555555556
3.04847611695e-06,0.1111111111111111
3.11121725321e-06,0.11666666666666667
3.42481458266e-06,0.12222222222222222
3.50425233536e-06,0.12777777777777777
3.91317712842e-06,0.13333333333333333
4.0078795369e-06,0.1388888888888889
4.22034820303e-06,0.14444444444444443
4.88004617012e-06,0.15
5.3407580675e-06,0.15555555555555556
5.57682719316e-06,0.16111111111111112
5.80012960402e-06,0.16666666666666666
5.89189956242e-06,0.17222222222222222
5.93921931848e-06,0.17777777777777778
6.13599412649e-06,0.18333333333333332
6.34920822697e-06,0.18888888888888888
6.45638557603e-06,0.19444444444444445
6.52929879081e-06,0.2
6.56552337177e-06,0.20555555555555555
6.64091781144e-06,0.2111111111111111
6.70581159275e-06,0.21666666666666667
6.72052679089e-06,0.2222222222222222
6.94507685446e-06,0.22777777777777777
7.00301875407e-06,0.23333333333333334
7.08340904974e-06,0.2388888888888889
7.67095207498e-06,0.24444444444444444
8.07184747734e-06,0.25
8.76367850517e-06,0.25555555555555554
8.90251455588e-06,0.2611111111111111
9.03062819379e-06,0.26666666666666666
9.33644984007e-06,0.2722222222222222
3.30036432574e-05,0.2777777777777778
6.60072865147e-05,0.2833333333333333
7.23551166606e-05,0.28888888888888886
7.23551166606e-05,0.29444444444444445
7.44916036595e-05,0.3
7.44916036595e-05,0.3055555555555556
0.000112775997833,0.3111111111111111
0.000148074179799,0.31666666666666665
0.000148983207319,0.32222222222222224
0.000198360933742,0.3277777777777778
0.000296437080905,0.3333333333333333
0.000308284888935,0.3388888888888889
0.000326464939541,0.34444444444444444
0.000326464939541,0.35
0.000416973061926,0.35555555555555557
0.000634920822697,0.3611111111111111
0.000645638557603,0.36666666666666664
0.000666277048508,0.37222222222222223
0.000717782652382,0.37777777777777777
0.000759420633451,0.38333333333333336
0.000759420633451,0.3888888888888889
0.00086596760825,0.39444444444444443
0.000915169387297,0.4
0.000984052511933,0.40555555555555556
0.0010520460267,0.4111111111111111
0.00130697350179,0.4166666666666667
0.00138187443353,0.4222222222222222
0.0014539283189,0.42777777777777776
0.00178746007308,0.43333333333333335
0.0020985817984,0.4388888888888889
0.00219721053367,0.4444444444444444
0.00271316628915,0.45
0.00307357838419,0.45555555555555555
0.00546830042472,0.46111111111111114
0.00665267777509,0.4666666666666667
0.00696348277242,0.4722222222222222
0.00758632275909,0.4777777777777778
0.00777066752016,0.48333333333333334
0.00817551271534,0.4888888888888889
0.00826505745712,0.49444444444444446
0.00875306207413,0.5
0.00904025693584,0.5055555555555555
0.00910065224945,0.5111111111111111
0.00945336394954,0.5166666666666667
0.00951237092312,0.5222222222222223
0.00966844960585,0.5277777777777778
0.00981721853481,0.5333333333333333
0.00992716825115,0.5388888888888889
0.00998622609978,0.5444444444444444
0.0100332452433,0.55
0.0100334792283,0.5555555555555556
0.01003409053,0.5611111111111111
0.0100396778065,0.5666666666666667
0.0100445868487,0.5722222222222222
0.0100494514609,0.5777777777777777
0.0100597010196,0.5833333333333334
0.0100598821186,0.5888888888888889
0.0100612241979,0.5944444444444444
0.0100636244483,0.6
0.0100644143082,0.6055555555555555
0.0100691977635,0.6111111111111112
0.0100700842236,0.6166666666666667
0.0100701216771,0.6222222222222222
0.0100703337448,0.6277777777777778
0.0100778725211,0.6333333333333333
0.0100838781914,0.6388888888888888
0.0100857529926,0.6444444444444445
0.0100862441799,0.65
0.0100884660898,0.6555555555555556
0.0100919491332,0.6611111111111111
0.010093943862,0.6666666666666666
0.0100952039563,0.6722222222222223
0.0100958454334,0.6777777777777778
0.0100963051469,0.6833333333333333
0.0100969081,0.6888888888888889
0.0100977159842,0.6944444444444444
0.0101001685645,0.7
0.0101015457795,0.7055555555555556
0.0101074721048,0.7111111111111111
0.0101111958392,0.7166666666666667
0.0101185759922,0.7222222222222222
0.0101198807268,0.7277777777777777
0.01012135934,0.7333333333333333
0.0101236826977,0.7388888888888889
0.0101676437684,0.7444444444444445
0.251497052965,0.75
0.251497052965,0.7555555555555555
0.334655926884,0.7611111111111111
0.390871384791,0.7666666666666667
0.501662262165,0.7722222222222223
0.501662262165,0.7777777777777778
0.502994105929,0.7833333333333333
0.50479227167,0.7888888888888889
0.50479227167,0.7944444444444444
0.669311853768,0.8
1.00445868487,0.8055555555555556
1.00597010196,0.8111111111111111
1.0093943862,0.8166666666666667
1.00952039563,0.8222222222222222
1.2548449758,0.8277777777777777
1.25793848378,0.8333333333333334
1.50867442988,0.8388888888888889
1.51171204802,0.8444444444444444
1.51513003993,0.85
1.59573763409,0.8555555555555555
1.59573763409,0.8611111111111112
2.01520589535,0.8666666666666667
2.01916598461,0.8722222222222222
2.25979012188,0.8777777777777778
2.52140285803,0.8833333333333333
2.60098222981,0.8888888888888888
2.60575449054,0.8944444444444445
3.26841453988,0.9
4.62446979949,0.9055555555555556
5.2001289169,0.9111111111111111
5.78933149146,0.9166666666666666
6.20625133669,0.9222222222222223
6.80118909069,0.9277777777777778
11.8403516509,0.9333333333333333
12.353746006,0.9388888888888889
13.3661142758,0.9444444444444444
14.374689575,0.95
14.8644041552,0.9555555555555556
15.8755237391,0.9611111111111111
16.891151257,0.9666666666666667
17.3841944237,0.9722222222222222
17.8838680821,0.9777777777777777
18.3905568685,0.9833333333333333
18.7878937757,0.9888888888888889
19.3891794785,0.9944444444444445
20.2992447034,1.0
