Congestion,CDF
0.0,0.007352941176470588
0.0,0.014705882352941176
0.0,0.022058823529411766
0.0,0.029411764705882353
0.0,0.03676470588235294
0.0,0.04411764705882353
0.0,0.051470588235294115
0.0,0.058823529411764705
0.0,0.0661764705882353
0.0,0.07352941176470588
0.0,0.08088235294117647
0.0,0.08823529411764706
0.0,0.09558823529411764
0.0,0.10294117647058823
1.73522646011e-06,0.11029411764705882
1.73522646011e-06,0.11764705882352941
1.73522646011e-06,0.125
1.73522646011e-06,0.1323529411764706
1.73522646011e-06,0.13970588235294118
1.73522646011e-06,0.14705882352941177
1.73522646011e-06,0.15441176470588236
1.73522646011e-06,0.16176470588235295
1.73522646011e-06,0.16911764705882354
1.73522646011e-06,0.17647058823529413
1.73522646011e-06,0.18382352941176472
1.73522646011e-06,0.19117647058823528
1.73522646011e-06,0.19852941176470587
1.73522646011e-06,0.20588235294117646
1.73522646011e-06,0.21323529411764705
1.73522646011e-06,0.22058823529411764
1.73522646011e-06,0.22794117647058823
1.73522646011e-06,0.23529411764705882
1.73522646011e-06,0.2426470588235294
1.73522646011e-06,0.25
1.73522646011e-06,0.25735294117647056
1.73522646011e-06,0.2647058823529412
1.73522646011e-06,0.27205882352941174
1.73522646011e-06,0.27941176470588236
1.73522646011e-06,0.2867647058823529
1.73522646011e-06,0.29411764705882354
1.73522646011e-06,0.3014705882352941
4.33806615028e-05,0.3088235294117647
4.33806615028e-05,0.3161764705882353
4.68511144231e-05,0.3235294117647059
8.67613230057e-05,0.33088235294117646
8.67613230057e-05,0.3382352941176471
8.67613230057e-05,0.34558823529411764
8.67613230057e-05,0.35294117647058826
0.000130141984509,0.3602941176470588
0.000144602205009,0.36764705882352944
0.000144602205009,0.375
0.000144602205009,0.38235294117647056
0.000173522646011,0.3897058823529412
0.000173522646011,0.39705882352941174
0.000173522646011,0.40441176470588236
0.000173522646011,0.4117647058823529
0.000173522646011,0.41911764705882354
0.000173522646011,0.4264705882352941
0.000173522646011,0.4338235294117647
0.000216903307514,0.4411764705882353
0.000260283969017,0.4485294117647059
0.000260283969017,0.45588235294117646
0.000318124851021,0.4632352941176471
0.000347045292023,0.47058823529411764
0.000347045292023,0.47794117647058826
0.000520567938034,0.4852941176470588
0.000708550804546,0.49264705882352944
0.00125803918358,0.5
0.00128695962458,0.5073529411764706
0.00166292535761,0.5147058823529411
0.00206781153164,0.5220588235294118
0.00209673197264,0.5294117647058824
0.00224133417765,0.5367647058823529
0.00227025461865,0.5441176470588235
0.00244377726466,0.5514705882352942
0.00659127860306,0.5588235294117647
0.00745468301769,0.5661764705882353
0.0187781687638,0.5735294117647058
0.0189148211979,0.5808823529411765
0.0191439231587,0.5882352941176471
0.0192060069033,0.5955882352941176
0.0192608572043,0.6029411764705882
0.0193132096041,0.6102941176470589
0.0194555843266,0.6176470588235294
0.0194831950555,0.625
0.0195129032561,0.6323529411764706
0.0195174706408,0.6397058823529411
0.019519060516,0.6470588235294118
0.0195196488702,0.6544117647058824
0.0195215855335,0.6617647058823529
0.0195216695853,0.6691176470588235
0.0195243018942,0.6764705882352942
0.0195340980142,0.6838235294117647
0.0195426324949,0.6911764705882353
0.0195603441426,0.6985294117647058
0.0195682603276,0.7058823529411765
0.0195682833755,0.7132352941176471
0.0195683882807,0.7205882352941176
0.0195683946839,0.7279411764705882
0.0195687629091,0.7352941176470589
0.0195687671784,0.7426470588235294
0.0195687671784,0.75
0.488039638336,0.7573529411764706
0.488352450356,0.7647058823529411
0.499855066716,0.7720588235294118
0.965660480206,0.7794117647058824
0.965660480206,0.7867647058823529
0.977131624744,0.7941176470588235
0.977131624744,0.8014705882352942
1.46411891501,0.8088235294117647
1.6271144082,0.8161764705882353
1.6271144082,0.8235294117647058
1.6271144082,0.8308823529411765
1.92608572043,0.8382352941176471
1.9519060516,0.8455882352941176
1.95340980142,0.8529411764705882
1.95682833755,0.8602941176470589
1.95683946839,0.8676470588235294
1.95687671784,0.875
1.95687671784,0.8823529411764706
2.44000452535,0.8897058823529411
2.88005279608,0.8970588235294118
2.92956181417,0.9044117647058824
3.57543391376,0.9117647058823529
3.84668641076,0.9191176470588235
3.91367829645,0.9264705882352942
5.8706297266,0.9338235294117647
7.97077204924,0.9411764705882353
14.1863148437,0.9485294117647058
14.4574248759,0.9558823529411765
18.7465952909,0.9632352941176471
23.0619809591,0.9705882352941176
23.6274474307,0.9779411764705882
23.7211088194,0.9852941176470589
25.5189295505,0.9926470588235294
26.2643978523,1.0
