Congestion,CDF
0.0,0.007352941176470588
0.0,0.014705882352941176
0.0,0.022058823529411766
0.0,0.029411764705882353
0.0,0.03676470588235294
0.0,0.04411764705882353
0.0,0.051470588235294115
0.0,0.058823529411764705
0.0,0.0661764705882353
0.0,0.07352941176470588
0.0,0.08088235294117647
0.0,0.08823529411764706
0.0,0.09558823529411764
0.0,0.10294117647058823
1.10948255655e-06,0.11029411764705882
1.10948255655e-06,0.11764705882352941
1.10948255655e-06,0.125
1.10948255655e-06,0.1323529411764706
1.10948255655e-06,0.13970588235294118
1.10948255655e-06,0.14705882352941177
1.10948255655e-06,0.15441176470588236
1.10948255655e-06,0.16176470588235295
1.10948255655e-06,0.16911764705882354
1.10948255655e-06,0.17647058823529413
1.10948255655e-06,0.18382352941176472
1.10948255655e-06,0.19117647058823528
1.10948255655e-06,0.19852941176470587
1.10948255655e-06,0.20588235294117646
1.10948255655e-06,0.21323529411764705
1.10948255655e-06,0.22058823529411764
1.10948255655e-06,0.22794117647058823
1.10948255655e-06,0.23529411764705882
1.10948255655e-06,0.2426470588235294
1.10948255655e-06,0.25
1.10948255655e-06,0.25735294117647056
1.10948255655e-06,0.2647058823529412
1.10948255655e-06,0.27205882352941174
1.10948255655e-06,0.27941176470588236
1.10948255655e-06,0.2867647058823529
1.10948255655e-06,0.29411764705882354
1.10948255655e-06,0.3014705882352941
2.77370639136e-05,0.3088235294117647
2.77370639136e-05,0.3161764705882353
2.99560290267e-05,0.3235294117647059
5.54741278273e-05,0.33088235294117646
5.54741278273e-05,0.3382352941176471
5.54741278273e-05,0.34558823529411764
5.54741278273e-05,0.35294117647058826
8.32111917409e-05,0.3602941176470588
9.24568797121e-05,0.36764705882352944
9.24568797121e-05,0.375
9.24568797121e-05,0.38235294117647056
0.000110948255655,0.3897058823529412
0.000110948255655,0.39705882352941174
0.000110948255655,0.40441176470588236
0.000110948255655,0.4117647058823529
0.000110948255655,0.41911764705882354
0.000110948255655,0.4264705882352941
0.000110948255655,0.4338235294117647
0.000138685319568,0.4411764705882353
0.000166422383482,0.4485294117647059
0.000166422383482,0.45588235294117646
0.000203405135367,0.4632352941176471
0.000221896511309,0.47058823529411764
0.000221896511309,0.47794117647058826
0.000332844766964,0.4852941176470588
0.000453038710589,0.49264705882352944
0.000804374853496,0.5
0.000822866229438,0.5073529411764706
0.00106325411669,0.5147058823529411
0.00132213337988,0.5220588235294118
0.00134062475583,0.5294117647058824
0.00143308163554,0.5367647058823529
0.00145157301148,0.5441176470588235
0.00156252126714,0.5514705882352942
0.0194340672284,0.5588235294117647
0.0202005918915,0.5661764705882353
0.0291729480443,0.5735294117647058
0.0292819241867,0.5808823529411765
0.0294238698783,0.5882352941176471
0.0294750756174,0.5955882352941176
0.0295106966541,0.6029411764705882
0.0295712134833,0.6102941176470589
0.0297006945128,0.6176470588235294
0.0297214387522,0.625
0.0297536273216,0.6323529411764706
0.0297546273292,0.6397058823529411
0.0297556975154,0.6470588235294118
0.0297562124445,0.6544117647058824
0.0297581406337,0.6617647058823529
0.0297584449196,0.6691176470588235
0.0297617848018,0.6764705882352942
0.0297705294464,0.6838235294117647
0.0297794826765,0.6911764705882353
0.0297968039401,0.6985294117647058
0.0298045410463,0.7058823529411765
0.029804557797,0.7132352941176471
0.0298046604404,0.7205882352941176
0.0298046655382,0.7279411764705882
0.0298050343149,0.7352941176470589
0.029805037714,0.7426470588235294
0.029805037714,0.75
0.743953515841,0.7573529411764706
0.74426323616,0.7647058823529411
0.781771405843,0.7720588235294118
1.47856067416,0.7794117647058824
1.47856067416,0.7867647058823529
1.48897413383,0.7941176470588235
1.48897413383,0.8014705882352942
2.23186054752,0.8088235294117647
2.48016491599,0.8161764705882353
2.48016491599,0.8235294117647058
2.48016491599,0.8308823529411765
2.95106966541,0.8382352941176471
2.97556975154,0.8455882352941176
2.97705294464,0.8529411764705882
2.9804557797,0.8602941176470589
2.98046655382,0.8676470588235294
2.9805037714,0.875
2.9805037714,0.8823529411764706
3.71957476029,0.8897058823529411
4.42094766199,0.8970588235294118
4.46515261401,0.9044117647058824
5.45230879121,0.9117647058823529
5.89857722715,0.9191176470588235
5.96093259786,0.9264705882352942
8.94151097429,0.9338235294117647
12.1507721607,0.9411764705882353
21.6076166926,0.9485294117647058
22.0517110774,0.9558823529411765
28.5564361365,0.9632352941176471
35.288530771,0.9705882352941176
35.9969514826,0.9779411764705882
37.2319374938,0.9852941176470589
38.9251439013,0.9926470588235294
40.9452030904,1.0
