Congestion,CDF
0.0,0.007352941176470588
0.0,0.014705882352941176
0.0,0.022058823529411766
0.0,0.029411764705882353
0.0,0.03676470588235294
0.0,0.04411764705882353
0.0,0.051470588235294115
0.0,0.058823529411764705
0.0,0.0661764705882353
0.0,0.07352941176470588
0.0,0.08088235294117647
0.0,0.08823529411764706
0.0,0.09558823529411764
0.0,0.10294117647058823
1.52084103433e-05,0.11029411764705882
1.52084103433e-05,0.11764705882352941
1.52084103433e-05,0.125
1.52084103433e-05,0.1323529411764706
1.52084103433e-05,0.13970588235294118
1.52084103433e-05,0.14705882352941177
1.52084103433e-05,0.15441176470588236
1.52084103433e-05,0.16176470588235295
1.52084103433e-05,0.16911764705882354
1.52084103433e-05,0.17647058823529413
1.52084103433e-05,0.18382352941176472
1.52084103433e-05,0.19117647058823528
1.52084103433e-05,0.19852941176470587
1.52084103433e-05,0.20588235294117646
1.52084103433e-05,0.21323529411764705
1.52084103433e-05,0.22058823529411764
1.52084103433e-05,0.22794117647058823
1.52084103433e-05,0.23529411764705882
1.52084103433e-05,0.2426470588235294
1.52084103433e-05,0.25
1.52084103433e-05,0.25735294117647056
1.52084103433e-05,0.2647058823529412
1.52084103433e-05,0.27205882352941174
1.52084103433e-05,0.27941176470588236
1.52084103433e-05,0.2867647058823529
1.52084103433e-05,0.29411764705882354
1.52084103433e-05,0.3014705882352941
0.000380210258582,0.3088235294117647
0.000380210258582,0.3161764705882353
0.000410627079268,0.3235294117647059
0.000760420517163,0.33088235294117646
0.000760420517163,0.3382352941176471
0.000760420517163,0.34558823529411764
0.000760420517163,0.35294117647058826
0.00114063077574,0.3602941176470588
0.00126736752861,0.36764705882352944
0.00126736752861,0.375
0.00126736752861,0.38235294117647056
0.00152084103433,0.3897058823529412
0.00152084103433,0.39705882352941174
0.00152084103433,0.40441176470588236
0.00152084103433,0.4117647058823529
0.00152084103433,0.41911764705882354
0.00152084103433,0.4264705882352941
0.00152084103433,0.4338235294117647
0.00190105129291,0.4411764705882353
0.00228126155149,0.4485294117647059
0.00228126155149,0.45588235294117646
0.00278820856293,0.4632352941176471
0.00304168206865,0.47058823529411764
0.00304168206865,0.47794117647058826
0.00456252310298,0.4852941176470588
0.00471370768504,0.49264705882352944
0.0058053465991,0.5
0.00621010089016,0.5073529411764706
0.0110260974989,0.5147058823529411
0.0112795710046,0.5220588235294118
0.014574726579,0.5294117647058824
0.0181233556591,0.5367647058823529
0.0183768291648,0.5441176470588235
0.0196441966934,0.5514705882352942
0.0198976701991,0.5588235294117647
0.0214185112334,0.5661764705882353
0.021582539639,0.5735294117647058
0.021694438752,0.5808823529411765
0.0220077770812,0.5882352941176471
0.0220595340018,0.5955882352941176
0.0221141616071,0.6029411764705882
0.0221229038483,0.6102941176470589
0.0221968702025,0.6176470588235294
0.0222194913073,0.625
0.0222216783458,0.6323529411764706
0.0222312448502,0.6397058823529411
0.0222341908322,0.6470588235294118
0.0222349632087,0.6544117647058824
0.0222350935287,0.6617647058823529
0.0222362523201,0.6691176470588235
0.0222365834655,0.6764705882352942
0.0222379784434,0.6838235294117647
0.0222384091399,0.6911764705882353
0.022244822367,0.6985294117647058
0.0222470412359,0.7058823529411765
0.022247057878,0.7132352941176471
0.0222471580848,0.7205882352941176
0.0222471624626,0.7279411764705882
0.0222472959353,0.7352941176470589
0.0222472988539,0.7426470588235294
0.0222472988539,0.75
0.555877338217,0.7573529411764706
0.555949461084,0.7647058823529411
0.564598300529,0.7720588235294118
1.10614519241,0.7794117647058824
1.10614519241,0.7867647058823529
1.111920457,0.7941176470588235
1.111920457,0.8014705882352942
1.66763201465,0.8088235294117647
1.85296649371,0.8161764705882353
1.85296649371,0.8235294117647058
1.85296649371,0.8308823529411765
2.21141616071,0.8382352941176471
2.22362523201,0.8455882352941176
2.22379784434,0.8529411764705882
2.2247057878,0.8602941176470589
2.22471624626,0.8676470588235294
2.22472988539,0.875
2.22472988539,0.8823529411764706
2.77953568477,0.8897058823529411
3.30692290054,0.8970588235294118
3.33504494201,0.9044117647058824
4.07491562444,0.9117647058823529
4.4173695609,0.9191176470588235
4.44943205474,0.9264705882352942
6.6741893643,0.9338235294117647
9.07962373136,0.9411764705882353
16.1289807915,0.9485294117647058
16.4803715685,0.9558823529411765
21.3183499789,0.9632352941176471
26.3629179938,0.9705882352941176
26.8342887623,0.9779411764705882
26.8755627555,0.9852941176470589
29.0450066307,0.9926470588235294
29.6255412906,1.0
