Congestion,CDF
0.0,0.007352941176470588
0.0,0.014705882352941176
0.0,0.022058823529411766
0.0,0.029411764705882353
0.0,0.03676470588235294
0.0,0.04411764705882353
0.0,0.051470588235294115
0.0,0.058823529411764705
0.0,0.0661764705882353
0.0,0.07352941176470588
0.0,0.08088235294117647
0.0,0.08823529411764706
0.0,0.09558823529411764
0.0,0.10294117647058823
1.52359991558e-05,0.11029411764705882
1.52359991558e-05,0.11764705882352941
1.52359991558e-05,0.125
1.52359991558e-05,0.1323529411764706
1.52359991558e-05,0.13970588235294118
1.52359991558e-05,0.14705882352941177
1.52359991558e-05,0.15441176470588236
1.52359991558e-05,0.16176470588235295
1.52359991558e-05,0.16911764705882354
1.52359991558e-05,0.17647058823529413
1.52359991558e-05,0.18382352941176472
1.52359991558e-05,0.19117647058823528
1.52359991558e-05,0.19852941176470587
1.52359991558e-05,0.20588235294117646
1.52359991558e-05,0.21323529411764705
1.52359991558e-05,0.22058823529411764
1.52359991558e-05,0.22794117647058823
1.52359991558e-05,0.23529411764705882
1.52359991558e-05,0.2426470588235294
1.52359991558e-05,0.25
1.52359991558e-05,0.25735294117647056
1.52359991558e-05,0.2647058823529412
1.52359991558e-05,0.27205882352941174
1.52359991558e-05,0.27941176470588236
1.52359991558e-05,0.2867647058823529
1.52359991558e-05,0.29411764705882354
1.52359991558e-05,0.3014705882352941
0.000380899978896,0.3088235294117647
0.000380899978896,0.3161764705882353
0.000411371977207,0.3235294117647059
0.000761799957791,0.33088235294117646
0.000761799957791,0.3382352941176471
0.000761799957791,0.34558823529411764
0.000761799957791,0.35294117647058826
0.00114269993669,0.3602941176470588
0.00126966659632,0.36764705882352944
0.00126966659632,0.375
0.00126966659632,0.38235294117647056
0.00152359991558,0.3897058823529412
0.00152359991558,0.39705882352941174
0.00152359991558,0.40441176470588236
0.00152359991558,0.4117647058823529
0.00152359991558,0.41911764705882354
0.00152359991558,0.4264705882352941
0.00152359991558,0.4338235294117647
0.00190449989448,0.4411764705882353
0.00228539987337,0.4485294117647059
0.00228539987337,0.45588235294117646
0.0027932665119,0.4632352941176471
0.00283200283171,0.47058823529411764
0.00304719983117,0.47794117647058826
0.00304719983117,0.4852941176470588
0.00390334412991,0.49264705882352944
0.00457079974675,0.5
0.00622136632196,0.5073529411764706
0.011046099388,0.5147058823529411
0.0113000327072,0.5220588235294118
0.0146011658577,0.5294117647058824
0.0181562323274,0.5367647058823529
0.0184101656466,0.5441176470588235
0.0196798322429,0.5514705882352942
0.0198459862878,0.5588235294117647
0.0199337655622,0.5661764705882353
0.0199631815748,0.5735294117647058
0.0202923247214,0.5808823529411765
0.0203464299238,0.5882352941176471
0.0204049166041,0.5955882352941176
0.0204117265683,0.6029411764705882
0.0204889213325,0.6102941176470589
0.020512978627,0.6176470588235294
0.0205146724555,0.625
0.0205249116189,0.6323529411764706
0.0205280157613,0.6397058823529411
0.020528708178,0.6470588235294118
0.0205289711451,0.6544117647058824
0.0205301128698,0.6617647058823529
0.0205304629077,0.6691176470588235
0.0205318888801,0.6764705882352942
0.020532214214,0.6838235294117647
0.0205387322628,0.6911764705882353
0.0205409934551,0.6985294117647058
0.0205410116374,0.7058823529411765
0.020541112473,0.7132352941176471
0.020541117197,0.7205882352941176
0.0205412505331,0.7279411764705882
0.0205412536824,0.7352941176470589
0.0205412536824,0.7426470588235294
0.0214573654778,0.75
0.513224278627,0.7573529411764706
0.513297222003,0.7647058823529411
0.518078495555,0.7720588235294118
1.02058632842,0.7794117647058824
1.02058632842,0.7867647058823529
1.0266107107,0.7941176470588235
1.0266107107,0.8014705882352942
1.53967283588,0.8088235294117647
1.71078869267,0.8161764705882353
1.71078869267,0.8235294117647058
1.71078869267,0.8308823529411765
2.04049166041,0.8382352941176471
2.05301128698,0.8455882352941176
2.05318888801,0.8529411764705882
2.05410116374,0.8602941176470589
2.0541117197,0.8676470588235294
2.05412536824,0.875
2.05412536824,0.8823529411764706
2.56627056939,0.8897058823529411
3.04981880056,0.8970588235294118
3.07910187259,0.9044117647058824
3.76208655537,0.9117647058823529
4.07513465279,0.9191176470588235
4.108222967,0.9264705882352942
6.1623757898,0.9338235294117647
8.38294136685,0.9411764705882353
14.8920964881,0.9485294117647058
15.2145063839,0.9558823529411765
19.6833691177,0.9632352941176471
24.324058466,0.9705882352941176
24.6072587492,0.9779411764705882
24.8139382358,0.9852941176470589
26.8102563933,0.9926470588235294
27.2005908063,1.0
