Congestion,CDF
0.0,0.007352941176470588
0.0,0.014705882352941176
0.0,0.022058823529411766
0.0,0.029411764705882353
0.0,0.03676470588235294
0.0,0.04411764705882353
0.0,0.051470588235294115
0.0,0.058823529411764705
0.0,0.0661764705882353
0.0,0.07352941176470588
0.0,0.08088235294117647
0.0,0.08823529411764706
0.0,0.09558823529411764
0.0,0.10294117647058823
1.51151357173e-05,0.11029411764705882
1.51151357173e-05,0.11764705882352941
1.51151357173e-05,0.125
1.51151357173e-05,0.1323529411764706
1.51151357173e-05,0.13970588235294118
1.51151357173e-05,0.14705882352941177
1.51151357173e-05,0.15441176470588236
1.51151357173e-05,0.16176470588235295
1.51151357173e-05,0.16911764705882354
1.51151357173e-05,0.17647058823529413
1.51151357173e-05,0.18382352941176472
1.51151357173e-05,0.19117647058823528
1.51151357173e-05,0.19852941176470587
1.51151357173e-05,0.20588235294117646
1.51151357173e-05,0.21323529411764705
1.51151357173e-05,0.22058823529411764
1.51151357173e-05,0.22794117647058823
1.51151357173e-05,0.23529411764705882
1.51151357173e-05,0.2426470588235294
1.51151357173e-05,0.25
1.51151357173e-05,0.25735294117647056
1.51151357173e-05,0.2647058823529412
1.51151357173e-05,0.27205882352941174
1.51151357173e-05,0.27941176470588236
1.51151357173e-05,0.2867647058823529
1.51151357173e-05,0.29411764705882354
1.51151357173e-05,0.3014705882352941
0.000377878392933,0.3088235294117647
0.000377878392933,0.3161764705882353
0.000408108664367,0.3235294117647059
0.000755756785865,0.33088235294117646
0.000755756785865,0.3382352941176471
0.000755756785865,0.34558823529411764
0.000755756785865,0.35294117647058826
0.0011336351788,0.3602941176470588
0.00125959464311,0.36764705882352944
0.00125959464311,0.375
0.00125959464311,0.38235294117647056
0.00151151357173,0.3897058823529412
0.00151151357173,0.39705882352941174
0.00151151357173,0.40441176470588236
0.00151151357173,0.4117647058823529
0.00151151357173,0.41911764705882354
0.00151151357173,0.4264705882352941
0.00151151357173,0.4338235294117647
0.00188939196466,0.4411764705882353
0.0022672703576,0.4485294117647059
0.0022672703576,0.45588235294117646
0.00277110821484,0.4632352941176471
0.00302302714346,0.47058823529411764
0.00302302714346,0.47794117647058826
0.00453454071519,0.4852941176470588
0.00617201375123,0.49264705882352944
0.010958473395,0.5
0.0112103923237,0.5073529411764706
0.0144853383957,0.5147058823529411
0.0180122033965,0.5220588235294118
0.0182641223251,0.5294117647058824
0.0195237169682,0.5367647058823529
0.0197756358968,0.5441176470588235
0.0212871494685,0.5514705882352942
0.0273429908616,0.5588235294117647
0.0275784280534,0.5661764705882353
0.0300509135763,0.5735294117647058
0.030088221789,0.5808823529411765
0.0301169699657,0.5882352941176471
0.0301482802104,0.5955882352941176
0.0301597781161,0.6029411764705882
0.0301795637315,0.6102941176470589
0.0302407474509,0.6176470588235294
0.030249483909,0.625
0.0302574122313,0.6323529411764706
0.0302602198657,0.6397058823529411
0.0302620258632,0.6470588235294118
0.0302626532386,0.6544117647058824
0.03026347828,0.6617647058823529
0.0302639436588,0.6691176470588235
0.0302641986844,0.6764705882352942
0.0302654227925,0.6838235294117647
0.0302663277076,0.6911764705882353
0.0302723936049,0.6985294117647058
0.0302743633038,0.7058823529411765
0.030274372373,0.7132352941176471
0.0302744706946,0.7205882352941176
0.0302744738399,0.7279411764705882
0.0302746079167,0.7352941176470589
0.0302746100136,0.7426470588235294
0.0302746100136,0.75
0.756566330965,0.7573529411764706
0.756635569812,0.7647058823529411
0.810714961746,0.7720588235294118
1.50897818658,0.7794117647058824
1.50897818658,0.7867647058823529
1.51331638538,0.7941176470588235
1.51331638538,0.8014705882352942
2.2696989929,0.8088235294117647
2.52193609622,0.8161764705882353
2.52193609622,0.8235294117647058
2.52193609622,0.8308823529411765
3.01597781161,0.8382352941176471
3.02639436588,0.8455882352941176
3.02654227925,0.8529411764705882
3.0274372373,0.8602941176470589
3.02744738399,0.8676470588235294
3.02746100136,0.875
3.02746100136,0.8823529411764706
3.78298619941,0.8897058823529411
4.52067518315,0.8970588235294118
4.53933837195,0.9044117647058824
5.54688448712,0.9117647058823529
6.03080583265,0.9191176470588235
6.05489445345,0.9264705882352942
9.08238279439,0.9338235294117647
12.3576644895,0.9411764705882353
21.9487863853,0.9485294117647058
22.4376019083,0.9558823529411765
29.0112782274,0.9632352941176471
35.9941742817,0.9705882352941176
36.5763578225,0.9779411764705882
38.7284733679,0.9852941176470589
39.5851800014,0.9926470588235294
42.3430228067,1.0
