Congestion,CDF
0.0,0.007352941176470588
0.0,0.014705882352941176
0.0,0.022058823529411766
0.0,0.029411764705882353
0.0,0.03676470588235294
0.0,0.04411764705882353
0.0,0.051470588235294115
0.0,0.058823529411764705
0.0,0.0661764705882353
0.0,0.07352941176470588
0.0,0.08088235294117647
0.0,0.08823529411764706
0.0,0.09558823529411764
0.0,0.10294117647058823
1.54352568177e-05,0.11029411764705882
1.54352568177e-05,0.11764705882352941
1.54352568177e-05,0.125
1.54352568177e-05,0.1323529411764706
1.54352568177e-05,0.13970588235294118
1.54352568177e-05,0.14705882352941177
1.54352568177e-05,0.15441176470588236
1.54352568177e-05,0.16176470588235295
1.54352568177e-05,0.16911764705882354
1.54352568177e-05,0.17647058823529413
1.54352568177e-05,0.18382352941176472
1.54352568177e-05,0.19117647058823528
1.54352568177e-05,0.19852941176470587
1.54352568177e-05,0.20588235294117646
1.54352568177e-05,0.21323529411764705
1.54352568177e-05,0.22058823529411764
1.54352568177e-05,0.22794117647058823
1.54352568177e-05,0.23529411764705882
1.54352568177e-05,0.2426470588235294
1.54352568177e-05,0.25
1.54352568177e-05,0.25735294117647056
1.54352568177e-05,0.2647058823529412
1.54352568177e-05,0.27205882352941174
1.54352568177e-05,0.27941176470588236
1.54352568177e-05,0.2867647058823529
1.54352568177e-05,0.29411764705882354
1.54352568177e-05,0.3014705882352941
0.000385881420444,0.3088235294117647
0.000385881420444,0.3161764705882353
0.000416751934079,0.3235294117647059
0.000771762840887,0.33088235294117646
0.000771762840887,0.3382352941176471
0.000771762840887,0.34558823529411764
0.000771762840887,0.35294117647058826
0.00115764426133,0.3602941176470588
0.00128627140148,0.36764705882352944
0.00128627140148,0.375
0.00128627140148,0.38235294117647056
0.00154352568177,0.3897058823529412
0.00154352568177,0.39705882352941174
0.00154352568177,0.40441176470588236
0.00154352568177,0.4117647058823529
0.00154352568177,0.41911764705882354
0.00154352568177,0.4264705882352941
0.00154352568177,0.4338235294117647
0.00192940710222,0.4411764705882353
0.00231528852266,0.4485294117647059
0.00231528852266,0.45588235294117646
0.00282979708325,0.4632352941176471
0.00308705136355,0.47058823529411764
0.00308705136355,0.47794117647058826
0.00463057704532,0.4852941176470588
0.00630272986725,0.49264705882352944
0.0111905611929,0.5
0.0113357593959,0.5073529411764706
0.0113998937727,0.5147058823529411
0.0114478154732,0.5220588235294118
0.0120026572495,0.5294117647058824
0.0120026572495,0.5367647058823529
0.0120203208229,0.5441176470588235
0.012021351696,0.5514705882352942
0.012021351696,0.5588235294117647
0.0120443588612,0.5661764705882353
0.0120860604728,0.5735294117647058
0.0120884297274,0.5808823529411765
0.012097702144,0.5882352941176471
0.012097702144,0.5955882352941176
0.012098853645,0.6029411764705882
0.0120992125902,0.6102941176470589
0.0121002894592,0.6176470588235294
0.0121002894592,0.625
0.0121002894592,0.6323529411764706
0.0121015082281,0.6397058823529411
0.0121027719295,0.6470588235294118
0.012107841715,0.6544117647058824
0.0121094720109,0.6617647058823529
0.0121094720109,0.6691176470588235
0.0121095558053,0.6764705882352942
0.0121095558053,0.6838235294117647
0.012109688185,0.6911764705882353
0.012109688185,0.6985294117647058
0.012109688185,0.7058823529411765
0.014792121117,0.7132352941176471
0.0183936810411,0.7205882352941176
0.0186509353214,0.7279411764705882
0.0199372067229,0.7352941176470589
0.0201944610032,0.7426470588235294
0.021737986685,0.75
0.302480314755,0.7573529411764706
0.302537705703,0.7647058823529411
0.324796421905,0.7720588235294118
0.602217943058,0.7794117647058824
0.602217943058,0.7867647058823529
0.605138596476,0.7941176470588235
0.605138596476,0.8014705882352942
0.907440944265,0.8088235294117647
1.00831314196,0.8161764705882353
1.00831314196,0.8235294117647058
1.00831314196,0.8308823529411765
1.2021351696,0.8382352941176471
1.21002894592,0.8455882352941176
1.21015082281,0.8529411764705882
1.21094720109,0.8602941176470589
1.21095558053,0.8676470588235294
1.2109688185,0.875
1.2109688185,0.8823529411764706
1.51250926067,0.8897058823529411
1.802483668,0.8970588235294118
1.81490881088,0.9044117647058824
2.2171561147,0.9117647058823529
2.40427033919,0.9191176470588235
2.42191116107,0.9264705882352942
3.6329064555,0.9338235294117647
4.94088029447,0.9411764705882353
8.77924972445,0.9485294117647058
8.96886039951,0.9558823529411765
11.6034856344,0.9632352941176471
14.3758801317,0.9705882352941176
14.6281646597,0.9779411764705882
15.5094560712,0.9852941176470589
15.830196742,0.9926470588235294
16.9701861192,1.0
