Congestion,CDF
0.0,0.007352941176470588
0.0,0.014705882352941176
0.0,0.022058823529411766
0.0,0.029411764705882353
0.0,0.03676470588235294
0.0,0.04411764705882353
0.0,0.051470588235294115
0.0,0.058823529411764705
0.0,0.0661764705882353
0.0,0.07352941176470588
0.0,0.08088235294117647
0.0,0.08823529411764706
0.0,0.09558823529411764
0.0,0.10294117647058823
1.50202567871e-05,0.11029411764705882
1.50202567871e-05,0.11764705882352941
1.50202567871e-05,0.125
1.50202567871e-05,0.1323529411764706
1.50202567871e-05,0.13970588235294118
1.50202567871e-05,0.14705882352941177
1.50202567871e-05,0.15441176470588236
1.50202567871e-05,0.16176470588235295
1.50202567871e-05,0.16911764705882354
1.50202567871e-05,0.17647058823529413
1.50202567871e-05,0.18382352941176472
1.50202567871e-05,0.19117647058823528
1.50202567871e-05,0.19852941176470587
1.50202567871e-05,0.20588235294117646
1.50202567871e-05,0.21323529411764705
1.50202567871e-05,0.22058823529411764
1.50202567871e-05,0.22794117647058823
1.50202567871e-05,0.23529411764705882
1.50202567871e-05,0.2426470588235294
1.50202567871e-05,0.25
1.50202567871e-05,0.25735294117647056
1.50202567871e-05,0.2647058823529412
1.50202567871e-05,0.27205882352941174
1.50202567871e-05,0.27941176470588236
1.50202567871e-05,0.2867647058823529
1.50202567871e-05,0.29411764705882354
1.50202567871e-05,0.3014705882352941
0.000375506419678,0.3088235294117647
0.000375506419678,0.3161764705882353
0.000405546933252,0.3235294117647059
0.000751012839356,0.33088235294117646
0.000751012839356,0.3382352941176471
0.000751012839356,0.34558823529411764
0.000751012839356,0.35294117647058826
0.00112651925903,0.3602941176470588
0.00125168806559,0.36764705882352944
0.00125168806559,0.375
0.00125168806559,0.38235294117647056
0.00150202567871,0.3897058823529412
0.00150202567871,0.39705882352941174
0.00150202567871,0.40441176470588236
0.00150202567871,0.4117647058823529
0.00150202567871,0.41911764705882354
0.00150202567871,0.4264705882352941
0.00150202567871,0.4338235294117647
0.00187753209839,0.4411764705882353
0.00225303851807,0.4485294117647059
0.00225303851807,0.45588235294117646
0.00275371374431,0.4632352941176471
0.00300405135742,0.47058823529411764
0.00300405135742,0.47794117647058826
0.00450607703614,0.4852941176470588
0.00613327152141,0.49264705882352944
0.0108896861707,0.5
0.0111400237838,0.5073529411764706
0.0143944127543,0.5147058823529411
0.017899139338,0.5220588235294118
0.0181494769511,0.5294117647058824
0.0194011650167,0.5367647058823529
0.0196515026298,0.5441176470588235
0.0211535283085,0.5514705882352942
0.0453262319487,0.5588235294117647
0.0460478896228,0.5661764705882353
0.0543143538658,0.5735294117647058
0.0543723656507,0.5808823529411765
0.0544860546257,0.5882352941176471
0.0545219747521,0.5955882352941176
0.0545439864744,0.6029411764705882
0.0545617610514,0.6102941176470589
0.054624557236,0.6176470588235294
0.0546365385932,0.625
0.0546430487182,0.6323529411764706
0.0546474584976,0.6397058823529411
0.0546494915755,0.6470588235294118
0.0546501651142,0.6544117647058824
0.0546508025262,0.6617647058823529
0.0546514308344,0.6691176470588235
0.0546516972149,0.6764705882352942
0.0546529502171,0.6838235294117647
0.0546537804182,0.6911764705882353
0.0546598897654,0.6985294117647058
0.054661905553,0.7058823529411765
0.0546619158571,0.7132352941176471
0.0546620144127,0.7205882352941176
0.0546620177245,0.7279411764705882
0.0546621517127,0.7352941176470589
0.0546621539207,0.7426470588235294
0.0546621539207,0.75
1.36625412785,0.7573529411764706
1.36632375543,0.7647058823529411
1.4565807418,0.7720588235294118
2.72808805257,0.7794117647058824
2.72808805257,0.7867647058823529
2.73268902091,0.7941176470588235
2.73268902091,0.8014705882352942
4.09876238356,0.8088235294117647
4.55422760247,0.8161764705882353
4.55422760247,0.8235294117647058
4.55422760247,0.8308823529411765
5.45439864744,0.8382352941176471
5.46514308344,0.8455882352941176
5.46529502171,0.8529411764705882
5.46619158571,0.8602941176470589
5.46620177245,0.8676470588235294
5.46621539207,0.875
5.46621539207,0.8823529411764706
6.83142384935,0.8897058823529411
8.17669351514,0.8970588235294118
8.19743487068,0.9044117647058824
10.0178814618,0.9117647058823529
10.9065961227,0.9191176470588235
10.9324032137,0.9264705882352942
16.3986459554,0.9338235294117647
22.3158747879,0.9411764705882353
39.6297550656,0.9485294117647058
40.5243000258,0.9558823529411765
52.3826606655,0.9632352941176471
65.0390250502,0.9705882352941176
66.044400408,0.9779411764705882
69.5716482451,0.9852941176470589
71.4816369731,0.9926470588235294
76.0864259353,1.0
