Congestion,CDF
0.0,0.007352941176470588
0.0,0.014705882352941176
0.0,0.022058823529411766
0.0,0.029411764705882353
0.0,0.03676470588235294
0.0,0.04411764705882353
0.0,0.051470588235294115
0.0,0.058823529411764705
0.0,0.0661764705882353
0.0,0.07352941176470588
0.0,0.08088235294117647
0.0,0.08823529411764706
0.0,0.09558823529411764
0.0,0.10294117647058823
1.50488386989e-05,0.11029411764705882
1.50488386989e-05,0.11764705882352941
1.50488386989e-05,0.125
1.50488386989e-05,0.1323529411764706
1.50488386989e-05,0.13970588235294118
1.50488386989e-05,0.14705882352941177
1.50488386989e-05,0.15441176470588236
1.50488386989e-05,0.16176470588235295
1.50488386989e-05,0.16911764705882354
1.50488386989e-05,0.17647058823529413
1.50488386989e-05,0.18382352941176472
1.50488386989e-05,0.19117647058823528
1.50488386989e-05,0.19852941176470587
1.50488386989e-05,0.20588235294117646
1.50488386989e-05,0.21323529411764705
1.50488386989e-05,0.22058823529411764
1.50488386989e-05,0.22794117647058823
1.50488386989e-05,0.23529411764705882
1.50488386989e-05,0.2426470588235294
1.50488386989e-05,0.25
1.50488386989e-05,0.25735294117647056
1.50488386989e-05,0.2647058823529412
1.50488386989e-05,0.27205882352941174
1.50488386989e-05,0.27941176470588236
1.50488386989e-05,0.2867647058823529
1.50488386989e-05,0.29411764705882354
1.50488386989e-05,0.3014705882352941
0.000376220967472,0.3088235294117647
0.000376220967472,0.3161764705882353
0.000406318644869,0.3235294117647059
0.000752441934943,0.33088235294117646
0.000752441934943,0.3382352941176471
0.000752441934943,0.34558823529411764
0.000752441934943,0.35294117647058826
0.00112866290241,0.3602941176470588
0.00125406989157,0.36764705882352944
0.00125406989157,0.375
0.00125406989157,0.38235294117647056
0.00150488386989,0.3897058823529412
0.00150488386989,0.39705882352941174
0.00150488386989,0.40441176470588236
0.00150488386989,0.4117647058823529
0.00150488386989,0.41911764705882354
0.00150488386989,0.4264705882352941
0.00150488386989,0.4338235294117647
0.00188110483736,0.4411764705882353
0.00225732580483,0.4485294117647059
0.00225732580483,0.45588235294117646
0.00275895376146,0.4632352941176471
0.00300976773977,0.47058823529411764
0.00300976773977,0.47794117647058826
0.00451465160966,0.4852941176470588
0.0061449424687,0.49264705882352944
0.0109104080567,0.5
0.011161222035,0.5073529411764706
0.0144218037531,0.5147058823529411
0.0179331994495,0.5220588235294118
0.0181840134278,0.5294117647058824
0.0194380833194,0.5367647058823529
0.0196888972977,0.5441176470588235
0.0211937811676,0.5514705882352942
0.0322940885201,0.5588235294117647
0.0332043697104,0.5661764705882353
0.0440189872026,0.5735294117647058
0.0440869041212,0.5808823529411765
0.0442418306563,0.5882352941176471
0.0442797376054,0.5955882352941176
0.0443065127734,0.6029411764705882
0.0443235614301,0.6102941176470589
0.0443866783028,0.6176470588235294
0.0444000920383,0.625
0.0444059577822,0.6323529411764706
0.0444110784611,0.6397058823529411
0.044413199613,0.6470588235294118
0.0444138881534,0.6544117647058824
0.0444144533031,0.6617647058823529
0.0444151449236,0.6691176470588235
0.0444154145067,0.6764705882352942
0.0444166768706,0.6838235294117647
0.0444174848072,0.6911764705882353
0.0444236026278,0.6985294117647058
0.0444256351752,0.7058823529411765
0.0444256458621,0.7132352941176471
0.0444257444662,0.7205882352941176
0.0444257478167,0.7279411764705882
0.0444258817824,0.7352941176470589
0.0444258840162,0.7426470588235294
0.0444258840162,0.75
1.11034720383,0.7573529411764706
1.11041692177,0.7647058823529411
1.17467008654,0.7720588235294118
2.21617807151,0.7794117647058824
2.21617807151,0.7867647058823529
2.22087424036,0.7941176470588235
2.22087424036,0.8014705882352942
3.3310416115,0.8088235294117647
3.7012041127,0.8161764705882353
3.7012041127,0.8235294117647058
3.7012041127,0.8308823529411765
4.43065127734,0.8382352941176471
4.44151449236,0.8455882352941176
4.44166768706,0.8529411764705882
4.44256458621,0.8602941176470589
4.44257478167,0.8676470588235294
4.44258840162,0.875
4.44258840162,0.8823529411764706
5.5518886545,0.8897058823529411
6.64036113713,0.8970588235294118
6.66198208647,0.9044117647058824
8.14121331653,0.9117647058823529
8.85862503788,0.9191176470588235
8.8851492283,0.9264705882352942
13.3277649815,0.9338235294117647
18.1360525899,0.9411764705882353
32.2084592353,0.9485294117647058
32.9321118082,0.9558823529411765
42.5728978511,0.9632352941176471
52.8329967035,0.9705882352941176
53.6754757158,0.9779411764705882
56.0624055555,0.9852941176470589
58.0841661279,0.9926470588235294
61.404603099,1.0
