Congestion,CDF
0.0,0.007352941176470588
0.0,0.014705882352941176
0.0,0.022058823529411766
0.0,0.029411764705882353
0.0,0.03676470588235294
0.0,0.04411764705882353
0.0,0.051470588235294115
0.0,0.058823529411764705
0.0,0.0661764705882353
0.0,0.07352941176470588
0.0,0.08088235294117647
0.0,0.08823529411764706
0.0,0.09558823529411764
0.0,0.10294117647058823
1.50858358322e-05,0.11029411764705882
1.50858358322e-05,0.11764705882352941
1.50858358322e-05,0.125
1.50858358322e-05,0.1323529411764706
1.50858358322e-05,0.13970588235294118
1.50858358322e-05,0.14705882352941177
1.50858358322e-05,0.15441176470588236
1.50858358322e-05,0.16176470588235295
1.50858358322e-05,0.16911764705882354
1.50858358322e-05,0.17647058823529413
1.50858358322e-05,0.18382352941176472
1.50858358322e-05,0.19117647058823528
1.50858358322e-05,0.19852941176470587
1.50858358322e-05,0.20588235294117646
1.50858358322e-05,0.21323529411764705
1.50858358322e-05,0.22058823529411764
1.50858358322e-05,0.22794117647058823
1.50858358322e-05,0.23529411764705882
1.50858358322e-05,0.2426470588235294
1.50858358322e-05,0.25
1.50858358322e-05,0.25735294117647056
1.50858358322e-05,0.2647058823529412
1.50858358322e-05,0.27205882352941174
1.50858358322e-05,0.27941176470588236
1.50858358322e-05,0.2867647058823529
1.50858358322e-05,0.29411764705882354
1.50858358322e-05,0.3014705882352941
0.000377145895806,0.3088235294117647
0.000377145895806,0.3161764705882353
0.000407317567471,0.3235294117647059
0.000754291791612,0.33088235294117646
0.000754291791612,0.3382352941176471
0.000754291791612,0.34558823529411764
0.000754291791612,0.35294117647058826
0.00113143768742,0.3602941176470588
0.00125715298602,0.36764705882352944
0.00125715298602,0.375
0.00125715298602,0.38235294117647056
0.00150858358322,0.3897058823529412
0.00150858358322,0.39705882352941174
0.00150858358322,0.40441176470588236
0.00150858358322,0.4117647058823529
0.00150858358322,0.41911764705882354
0.00150858358322,0.4264705882352941
0.00150858358322,0.4338235294117647
0.00188572947903,0.4411764705882353
0.00226287537484,0.4485294117647059
0.00226287537484,0.45588235294117646
0.00276573656925,0.4632352941176471
0.00301716716645,0.47058823529411764
0.00301716716645,0.47794117647058826
0.00452575074967,0.4852941176470588
0.0061600496315,0.49264705882352944
0.0109372309784,0.5
0.0111886615756,0.5073529411764706
0.0144572593392,0.5147058823529411
0.0179772877001,0.5220588235294118
0.0182287182973,0.5294117647058824
0.0194858712833,0.5367647058823529
0.0197373018805,0.5441176470588235
0.0212458854637,0.5514705882352942
0.0212733555165,0.5588235294117647
0.0223216197262,0.5661764705882353
0.0354134607833,0.5735294117647058
0.0354940901904,0.5808823529411765
0.0356991100585,0.5882352941176471
0.0357401377578,0.5955882352941176
0.0357739612723,0.6029411764705882
0.035789606768,0.6102941176470589
0.0358539254436,0.6176470588235294
0.035869525915,0.625
0.0358744455351,0.6323529411764706
0.0358806412654,0.6397058823529411
0.0358829223116,0.6470588235294118
0.0358836427957,0.6544117647058824
0.0358840751691,0.6617647058823529
0.0358848819861,0.6691176470588235
0.0358851591735,0.6764705882352942
0.0358864418963,0.6838235294117647
0.035887198967,0.6911764705882353
0.0358933444848,0.6985294117647058
0.0358954091232,0.7058823529411765
0.0358954206642,0.7132352941176471
0.0358955194098,0.7205882352941176
0.0358955228665,0.7279411764705882
0.0358956567732,0.7352941176470589
0.0358956590777,0.7426470588235294
0.0358956590777,0.75
0.897091069893,0.7573529411764706
0.897161047407,0.7647058823529411
0.939340394009,0.7720588235294118
1.7894803384,0.7794117647058824
1.7894803384,0.7867647058823529
1.79435994835,0.7941176470588235
1.79435994835,0.8014705882352942
2.69127320968,0.8088235294117647
2.99034952769,0.8161764705882353
2.99034952769,0.8235294117647058
2.99034952769,0.8308823529411765
3.57739612723,0.8382352941176471
3.58848819861,0.8455882352941176
3.58864418963,0.8529411764705882
3.58954206642,0.8602941176470589
3.58955228665,0.8676470588235294
3.58956590777,0.875
3.58956590777,0.8823529411764706
4.48560698724,0.8897058823529411
5.35939134425,0.8970588235294118
5.38242407489,0.9044117647058824
6.57730211918,0.9117647058823529
7.15140990301,0.9191176470588235
7.17910422763,0.9264705882352942
10.7686974929,0.9338235294117647
14.6528522304,0.9411764705882353
26.0240457466,0.9485294117647058
26.6050272324,0.9558823529411765
34.3980896712,0.9632352941176471
42.657174558,0.9705882352941176
43.3679582996,0.9779411764705882
44.7845101096,0.9852941176470589
46.9173673186,0.9926470588235294
49.1495292912,1.0
