Congestion,CDF
0.0,0.007352941176470588
0.0,0.014705882352941176
0.0,0.022058823529411766
0.0,0.029411764705882353
0.0,0.03676470588235294
0.0,0.04411764705882353
0.0,0.051470588235294115
0.0,0.058823529411764705
0.0,0.0661764705882353
0.0,0.07352941176470588
0.0,0.08088235294117647
0.0,0.08823529411764706
0.0,0.09558823529411764
0.0,0.10294117647058823
1.51648377396e-05,0.11029411764705882
1.51648377396e-05,0.11764705882352941
1.51648377396e-05,0.125
1.51648377396e-05,0.1323529411764706
1.51648377396e-05,0.13970588235294118
1.51648377396e-05,0.14705882352941177
1.51648377396e-05,0.15441176470588236
1.51648377396e-05,0.16176470588235295
1.51648377396e-05,0.16911764705882354
1.51648377396e-05,0.17647058823529413
1.51648377396e-05,0.18382352941176472
1.51648377396e-05,0.19117647058823528
1.51648377396e-05,0.19852941176470587
1.51648377396e-05,0.20588235294117646
1.51648377396e-05,0.21323529411764705
1.51648377396e-05,0.22058823529411764
1.51648377396e-05,0.22794117647058823
1.51648377396e-05,0.23529411764705882
1.51648377396e-05,0.2426470588235294
1.51648377396e-05,0.25
1.51648377396e-05,0.25735294117647056
1.51648377396e-05,0.2647058823529412
1.51648377396e-05,0.27205882352941174
1.51648377396e-05,0.27941176470588236
1.51648377396e-05,0.2867647058823529
1.51648377396e-05,0.29411764705882354
1.51648377396e-05,0.3014705882352941
0.00037912094349,0.3088235294117647
0.00037912094349,0.3161764705882353
0.000409450618969,0.3235294117647059
0.000758241886979,0.33088235294117646
0.000758241886979,0.3382352941176471
0.000758241886979,0.34558823529411764
0.000758241886979,0.35294117647058826
0.00113736283047,0.3602941176470588
0.0012637364783,0.36764705882352944
0.0012637364783,0.375
0.0012637364783,0.38235294117647056
0.00151648377396,0.3897058823529412
0.00151648377396,0.39705882352941174
0.00151648377396,0.40441176470588236
0.00151648377396,0.4117647058823529
0.00151648377396,0.41911764705882354
0.00151648377396,0.4264705882352941
0.00151648377396,0.4338235294117647
0.00189560471745,0.4411764705882353
0.00227472566094,0.4485294117647059
0.00227472566094,0.45588235294117646
0.00278022025226,0.4632352941176471
0.00303296754792,0.47058823529411764
0.00303296754792,0.47794117647058826
0.00454945132188,0.4852941176470588
0.00619230874367,0.49264705882352944
0.00863024716803,0.5
0.00974177939459,0.5073529411764706
0.0109945073612,0.5147058823529411
0.0112472546569,0.5220588235294118
0.0145329695004,0.5294117647058824
0.0180714316397,0.5367647058823529
0.0183241789353,0.5441176470588235
0.0195879154136,0.5514705882352942
0.0198406627093,0.5588235294117647
0.0213571464833,0.5661764705882353
0.0250491656151,0.5735294117647058
0.0251516510596,0.5808823529411765
0.0254349175121,0.5882352941176471
0.025482917204,0.5955882352941176
0.0255308541843,0.6029411764705882
0.025542374657,0.6102941176470589
0.0256120058522,0.6176470588235294
0.025632254535,0.625
0.0256353085157,0.6323529411764706
0.025643750617,0.6397058823529411
0.0256464495571,0.6470588235294118
0.0256472764748,0.6544117647058824
0.0256473555337,0.6617647058823529
0.025648464822,0.6691176470588235
0.0256487714614,0.6764705882352942
0.0256501206738,0.6838235294117647
0.0256506940037,0.6911764705882353
0.0256569774199,0.6985294117647058
0.0256591348386,0.7058823529411765
0.0256591493188,0.7132352941176471
0.0256592487882,0.7205882352941176
0.0256592527279,0.7279411764705882
0.0256593863928,0.7352941176470589
0.0256593890194,0.7426470588235294
0.0256593890194,0.75
0.64118191187,0.7573529411764706
0.641253016845,0.7647058823529411
0.657898286366,0.7720588235294118
1.27711873285,0.7794117647058824
1.27711873285,0.7867647058823529
1.28253470018,0.7941176470588235
1.28253470018,0.8014705882352942
1.92354573561,0.8088235294117647
2.13731658062,0.8161764705882353
2.13731658062,0.8235294117647058
2.13731658062,0.8308823529411765
2.55308541843,0.8382352941176471
2.5648464822,0.8455882352941176
2.56501206738,0.8529411764705882
2.56591493188,0.8602941176470589
2.56592527279,0.8676470588235294
2.56593890194,0.875
2.56593890194,0.8823529411764706
3.20605905801,0.8897058823529411
3.82061048406,0.8970588235294118
3.84690976189,0.9044117647058824
4.70054203412,0.9117647058823529
5.10137713883,0.9191176470588235
5.13185015162,0.9264705882352942
7.69781644317,0.9338235294117647
10.4729576742,0.9411764705882353
18.6027480274,0.9485294117647058
19.0118190264,0.9558823529411765
24.5882970502,0.9632352941176471
30.4387232108,0.9705882352941176
30.9987376636,0.9779411764705882
31.3017479276,0.9852941176470589
33.5139027696,0.9926470588235294
34.488080709,1.0
