Congestion,CDF
0.0,0.007352941176470588
0.0,0.014705882352941176
0.0,0.022058823529411766
0.0,0.029411764705882353
0.0,0.03676470588235294
0.0,0.04411764705882353
0.0,0.051470588235294115
0.0,0.058823529411764705
0.0,0.0661764705882353
0.0,0.07352941176470588
0.0,0.08088235294117647
0.0,0.08823529411764706
0.0,0.09558823529411764
0.0,0.10294117647058823
1.63141827488e-05,0.11029411764705882
1.63141827488e-05,0.11764705882352941
1.63141827488e-05,0.125
1.63141827488e-05,0.1323529411764706
1.63141827488e-05,0.13970588235294118
1.63141827488e-05,0.14705882352941177
1.63141827488e-05,0.15441176470588236
1.63141827488e-05,0.16176470588235295
1.63141827488e-05,0.16911764705882354
1.63141827488e-05,0.17647058823529413
1.63141827488e-05,0.18382352941176472
1.63141827488e-05,0.19117647058823528
1.63141827488e-05,0.19852941176470587
1.63141827488e-05,0.20588235294117646
1.63141827488e-05,0.21323529411764705
1.63141827488e-05,0.22058823529411764
1.63141827488e-05,0.22794117647058823
1.63141827488e-05,0.23529411764705882
1.63141827488e-05,0.2426470588235294
1.63141827488e-05,0.25
1.63141827488e-05,0.25735294117647056
1.63141827488e-05,0.2647058823529412
1.63141827488e-05,0.27205882352941174
1.63141827488e-05,0.27941176470588236
1.63141827488e-05,0.2867647058823529
1.63141827488e-05,0.29411764705882354
1.63141827488e-05,0.3014705882352941
0.000260335254753,0.3088235294117647
0.000407854568721,0.3161764705882353
0.000407854568721,0.3235294117647059
0.000440482934219,0.33088235294117646
0.000656929115734,0.3382352941176471
0.000815709137442,0.34558823529411764
0.000815709137442,0.35294117647058826
0.000815709137442,0.3602941176470588
0.000815709137442,0.36764705882352944
0.00122356370616,0.375
0.00135951522907,0.38235294117647056
0.00135951522907,0.3897058823529412
0.00135951522907,0.39705882352941174
0.00163141827488,0.40441176470588236
0.00163141827488,0.4117647058823529
0.00163141827488,0.41911764705882354
0.00163141827488,0.4264705882352941
0.00163141827488,0.4338235294117647
0.00163141827488,0.4411764705882353
0.00163141827488,0.4485294117647059
0.0020392728436,0.45588235294117646
0.00244712741233,0.4632352941176471
0.00244712741233,0.47058823529411764
0.00299093350395,0.47794117647058826
0.00326283654977,0.4852941176470588
0.00326283654977,0.49264705882352944
0.00400383641927,0.5
0.00420511722055,0.5073529411764706
0.00460727514789,0.5147058823529411
0.0047413599873,0.5220588235294118
0.00482594069644,0.5294117647058824
0.004855496381,0.5367647058823529
0.00489425482465,0.5441176470588235
0.00506690812813,0.5514705882352942
0.00511934592997,0.5588235294117647
0.00512660670691,0.5661764705882353
0.00514681831968,0.5735294117647058
0.00515411818828,0.5808823529411765
0.00515640713027,0.5882352941176471
0.00515667028204,0.5955882352941176
0.00515933354197,0.6029411764705882
0.00516093347018,0.6102941176470589
0.00516357380563,0.6176470588235294
0.00516410259525,0.625
0.00518061832873,0.6323529411764706
0.00518599824065,0.6397058823529411
0.00518604159629,0.6470588235294118
0.00518634344771,0.6544117647058824
0.00518635694624,0.6617647058823529
0.00518660290056,0.6691176470588235
0.00518661190022,0.6764705882352942
0.00518661190022,0.6838235294117647
0.00666162462244,0.6911764705882353
0.0118277824929,0.6985294117647058
0.0120996855387,0.7058823529411765
0.0156344251343,0.7132352941176471
0.0194410677757,0.7205882352941176
0.0197129708215,0.7279411764705882
0.0210724860506,0.7352941176470589
0.0213443890964,0.7426470588235294
0.0229758073713,0.75
0.126216293582,0.7573529411764706
0.128910178257,0.7647058823529411
0.129089345141,0.7720588235294118
0.24277481905,0.7794117647058824
0.24277481905,0.7867647058823529
0.258205129763,0.7941176470588235
0.258205129763,0.8014705882352942
0.38673053477,0.8088235294117647
0.429803463007,0.8161764705882353
0.429803463007,0.8235294117647058
0.429803463007,0.8308823529411765
0.482594069644,0.8382352941176471
0.515933354197,0.8455882352941176
0.516357380563,0.8529411764705882
0.518604159629,0.8602941176470589
0.518635694624,0.8676470588235294
0.518661190022,0.875
0.518661190022,0.8823529411764706
0.645003525275,0.8897058823529411
0.70350233384,0.8970588235294118
0.772886961731,0.9044117647058824
0.941738056004,0.9117647058823529
0.956730068374,0.9191176470588235
1.03727003939,0.9264705882352942
1.5559826701,0.9338235294117647
2.10640737068,0.9411764705882353
3.75954603833,0.9485294117647058
3.79761105855,0.9558823529411765
4.96561646397,0.9632352941176471
5.85822710269,0.9705882352941176
5.92392001426,0.9779411764705882
6.25116409639,0.9852941176470589
6.67167581845,0.9926470588235294
6.69770934392,1.0
