Congestion,CDF
0.0,0.009433962264150943
0.0,0.018867924528301886
0.0,0.02830188679245283
0.0,0.03773584905660377
0.0,0.04716981132075472
0.0,0.05660377358490566
0.0,0.0660377358490566
0.0,0.07547169811320754
0.0,0.08490566037735849
0.0,0.09433962264150944
0.0,0.10377358490566038
0.0,0.11320754716981132
0.0,0.12264150943396226
0.0,0.1320754716981132
0.0,0.14150943396226415
0.0,0.1509433962264151
0.0,0.16037735849056603
0.0,0.16981132075471697
0.0,0.1792452830188679
0.0,0.18867924528301888
0.0,0.19811320754716982
0.0,0.20754716981132076
0.0,0.2169811320754717
0.0,0.22641509433962265
0.0,0.2358490566037736
0.0,0.24528301886792453
0.0,0.25471698113207547
0.0,0.2641509433962264
0.0,0.27358490566037735
0.0,0.2830188679245283
4.63560081032e-08,0.29245283018867924
1.19424261305e-06,0.3018867924528302
1.34294657916e-06,0.3113207547169811
1.82058450174e-06,0.32075471698113206
2.05511142438e-06,0.330188679245283
2.73458078586e-06,0.33962264150943394
4.17027772839e-06,0.3490566037735849
5.33817579208e-06,0.3584905660377358
5.64946884586e-06,0.36792452830188677
6.58914973215e-06,0.37735849056603776
8.11282129786e-06,0.3867924528301887
8.29871639447e-06,0.39622641509433965
8.75596247575e-06,0.4056603773584906
5.61083941789e-05,0.41509433962264153
7.69100846024e-05,0.42452830188679247
7.69100846024e-05,0.4339622641509434
0.000200181592203,0.44339622641509435
0.000200181592203,0.4528301886792453
0.000200181592203,0.46226415094339623
0.00020509355894,0.4716981132075472
0.00020509355894,0.4811320754716981
0.00020509355894,0.49056603773584906
0.000316635174104,0.5
0.00037812776891,0.5094339622641509
0.00037812776891,0.5188679245283019
0.000400363184406,0.5283018867924528
0.000400363184406,0.5377358490566038
0.000546175350521,0.5471698113207547
0.000696202523199,0.5566037735849056
0.000696202523199,0.5660377358490566
0.000862611523914,0.5754716981132075
0.000862611523914,0.5849056603773585
0.00108938060647,0.5943396226415094
0.0013250115944,0.6037735849056604
0.00179071317339,0.6132075471698113
0.00279234329001,0.6226415094339622
0.00283270308096,0.6320754716981132
0.00502127174965,0.6415094339622641
0.00604699521202,0.6509433962264151
0.00628448623917,0.660377358490566
0.0203293276965,0.6698113207547169
0.0206122451736,0.6792452830188679
0.0322243191474,0.6886792452830188
0.0325647352243,0.6981132075471698
0.0377791801013,0.7075471698113207
0.040192736386,0.7169811320754716
0.0418218749858,0.7264150943396226
0.0421939650047,0.7358490566037735
0.0450340905416,0.7452830188679245
0.0480320137292,0.7547169811320755
0.0485127507843,0.7641509433962265
0.420602996764,0.7735849056603774
1.18670526576,0.7830188679245284
1.18670526576,0.7924528301886793
1.56832031197,0.8018867924528302
1.56832031197,0.8113207547169812
1.56832031197,0.8207547169811321
1.88534587175,0.8301886792452831
3.13664062393,0.839622641509434
3.13664062393,0.8490566037735849
3.16454737536,0.8584905660377359
3.16454737536,0.8679245283018868
3.16454737536,0.8773584905660378
3.55898377374,0.8867924528301887
5.98818140382,0.8962264150943396
5.98818140382,0.9056603773584906
6.61310326113,0.9150943396226415
6.61310326113,0.9245283018867925
7.42928068566,0.9339622641509434
7.42928068566,0.9433962264150944
11.1872019929,0.9528301886792453
11.2508584252,0.9622641509433962
17.5601981184,0.9716981132075472
17.7044192349,0.9811320754716981
27.6593700199,0.9905660377358491
57.22814585,1.0
