Congestion,CDF
0.0,0.009433962264150943
0.0,0.018867924528301886
0.0,0.02830188679245283
0.0,0.03773584905660377
0.0,0.04716981132075472
0.0,0.05660377358490566
0.0,0.0660377358490566
0.0,0.07547169811320754
0.0,0.08490566037735849
0.0,0.09433962264150944
0.0,0.10377358490566038
0.0,0.11320754716981132
0.0,0.12264150943396226
0.0,0.1320754716981132
0.0,0.14150943396226415
0.0,0.1509433962264151
0.0,0.16037735849056603
0.0,0.16981132075471697
0.0,0.1792452830188679
0.0,0.18867924528301888
0.0,0.19811320754716982
0.0,0.20754716981132076
0.0,0.2169811320754717
0.0,0.22641509433962265
0.0,0.2358490566037736
0.0,0.24528301886792453
0.0,0.25471698113207547
0.0,0.2641509433962264
0.0,0.27358490566037735
0.0,0.2830188679245283
6.07818048019e-08,0.29245283018867924
1.56588594149e-06,0.3018867924528302
1.76086596266e-06,0.3113207547169811
2.3871428179e-06,0.32075471698113206
2.69465354231e-06,0.330188679245283
3.58557093983e-06,0.33962264150943394
5.46805079274e-06,0.3490566037735849
6.99939387081e-06,0.3584905660377358
7.40756002673e-06,0.36792452830188677
7.60590712598e-06,0.37735849056603776
8.63966569206e-06,0.3867924528301887
1.06374975046e-05,0.39622641509433965
1.08812423812e-05,0.4056603773584906
1.1480781539e-05,0.41509433962264153
2.75276763337e-05,0.42452830188679247
7.35690928161e-05,0.4339622641509434
0.000100844182683,0.44339622641509435
0.000100844182683,0.4528301886792453
0.000130790905891,0.46226415094339623
0.000262477270155,0.4716981132075472
0.000262477270155,0.4811320754716981
0.000262477270155,0.49056603773584906
0.000265976276799,0.5
0.000268917820487,0.5094339622641509
0.000268917820487,0.5188679245283019
0.000268917820487,0.5283018867924528
0.00041517072184,0.5377358490566038
0.000495799556098,0.5471698113207547
0.000495799556098,0.5566037735849056
0.000524954540311,0.5660377358490566
0.000524954540311,0.5754716981132075
0.00071614284537,0.5849056603773585
0.000912857849483,0.5943396226415094
0.000912857849483,0.6037735849056604
0.000925589197742,0.6132075471698113
0.00113105263831,0.6226415094339622
0.00113105263831,0.6320754716981132
0.0014283913151,0.6415094339622641
0.00173734968533,0.6509433962264151
0.0022817721378,0.660377358490566
0.00234797565656,0.6698113207547169
0.00366130889476,0.6792452830188679
0.00371422848459,0.6886792452830188
0.00436466622807,0.6981132075471698
0.00792879494277,0.7075471698113207
0.00927270399497,0.7169811320754716
0.0161099064316,0.7264150943396226
0.016801234151,0.7358490566037735
0.0185505763006,0.7452830188679245
0.0248149691587,0.7547169811320755
0.0298302388079,0.7641509433962265
0.0306882251577,0.7735849056603774
0.151790010195,0.7830188679245284
0.521734958454,0.7924528301886793
0.521734958454,0.8018867924528302
0.552296090436,0.8113207547169812
0.630046280663,0.8207547169811321
0.630046280663,0.8301886792452831
0.630046280663,0.839622641509434
1.0983984537,0.8490566037735849
1.0983984537,0.8584905660377359
1.26009256133,0.8679245283018868
1.26009256133,0.8773584905660378
1.39129322254,0.8867924528301887
1.39129322254,0.8962264150943396
1.39129322254,0.9056603773584906
2.03744886839,0.9150943396226415
2.03744886839,0.9245283018867925
2.06687682221,0.9339622641509434
2.09729353067,0.9433962264150944
3.78595369931,0.9528301886792453
3.78595369931,0.9622641509433962
7.82186940576,0.9716981132075472
10.2747645343,0.9811320754716981
10.5321604392,0.9905660377358491
30.6878351688,1.0
