Congestion,CDF
0.0,0.009433962264150943
0.0,0.018867924528301886
0.0,0.02830188679245283
0.0,0.03773584905660377
0.0,0.04716981132075472
0.0,0.05660377358490566
0.0,0.0660377358490566
0.0,0.07547169811320754
0.0,0.08490566037735849
0.0,0.09433962264150944
0.0,0.10377358490566038
0.0,0.11320754716981132
0.0,0.12264150943396226
0.0,0.1320754716981132
0.0,0.14150943396226415
0.0,0.1509433962264151
0.0,0.16037735849056603
0.0,0.16981132075471697
0.0,0.1792452830188679
0.0,0.18867924528301888
0.0,0.19811320754716982
0.0,0.20754716981132076
0.0,0.2169811320754717
0.0,0.22641509433962265
0.0,0.2358490566037736
0.0,0.24528301886792453
0.0,0.25471698113207547
0.0,0.2641509433962264
0.0,0.27358490566037735
0.0,0.2830188679245283
4.91406359867e-08,0.29245283018867924
1.26598134587e-06,0.3018867924528302
1.42361803132e-06,0.3113207547169811
1.92994789551e-06,0.32075471698113206
2.17856296411e-06,0.330188679245283
2.8988483796e-06,0.33962264150943394
4.4207883336e-06,0.3490566037735849
5.65884260025e-06,0.3584905660377358
5.98883517871e-06,0.36792452830188677
6.98496315146e-06,0.37735849056603776
7.60590712598e-06,0.3867924528301887
8.60016240692e-06,0.39622641509433965
8.79722431212e-06,0.4056603773584906
9.28193738721e-06,0.41509433962264153
5.94788526227e-05,0.42452830188679247
8.15301106761e-05,0.4339622641509434
8.15301106761e-05,0.44339622641509435
0.000212206597509,0.4528301886792453
0.000212206597509,0.46226415094339623
0.000212206597509,0.4716981132075472
0.00021741362847,0.4811320754716981
0.00021741362847,0.49056603773584906
0.00021741362847,0.5
0.00033565560254,0.5094339622641509
0.000400842087332,0.5188679245283019
0.000400842087332,0.5283018867924528
0.000424413195019,0.5377358490566038
0.000424413195019,0.5471698113207547
0.000578984368653,0.5566037735849056
0.000583973694155,0.5660377358490566
0.000738023746338,0.5754716981132075
0.000738023746338,0.5849056603773585
0.000914429016413,0.5943396226415094
0.000914429016413,0.6037735849056604
0.00115482022771,0.6132075471698113
0.00140460568334,0.6226415094339622
0.00189828218199,0.6320754716981132
0.0022817721378,0.6415094339622641
0.00296008070538,0.6509433962264151
0.00300286492854,0.660377358490566
0.00641024114644,0.6698113207547169
0.0076587179372,0.6792452830188679
0.00797121406458,0.6886792452830188
0.0216880424337,0.6981132075471698
0.0219254121473,0.7075471698113207
0.0291094336222,0.7169811320754716
0.0312238024011,0.7264150943396226
0.0345113754165,0.7358490566037735
0.0350638166563,0.7452830188679245
0.0379746442766,0.7547169811320755
0.0414602763244,0.7641509433962265
0.0420784943555,0.7735849056603774
0.311256809237,0.7830188679245284
0.986169843459,0.7924528301886793
0.986169843459,0.8018867924528302
1.29417657812,0.8113207547169812
1.29417657812,0.8207547169811321
1.29417657812,0.8301886792452831
2.2774026124,0.839622641509434
2.58835315624,0.8490566037735849
2.58835315624,0.8584905660377359
2.62978624922,0.8679245283018868
2.62978624922,0.8773584905660378
2.62978624922,0.8867924528301887
4.42341114362,0.8962264150943396
4.42341114362,0.9056603773584906
5.23161355954,0.9150943396226415
5.23161355954,0.9245283018867925
6.22894975817,0.9339622641509434
6.22894975817,0.9433962264150944
6.95482509541,0.9528301886792453
7.02513672407,0.9622641509433962
15.0471526,0.9716981132075472
15.2326180094,0.9811320754716981
20.7095605992,0.9905660377358491
47.952177674,1.0
