Congestion,CDF
0.0,0.009433962264150943
0.0,0.018867924528301886
0.0,0.02830188679245283
0.0,0.03773584905660377
0.0,0.04716981132075472
0.0,0.05660377358490566
0.0,0.0660377358490566
0.0,0.07547169811320754
0.0,0.08490566037735849
0.0,0.09433962264150944
0.0,0.10377358490566038
0.0,0.11320754716981132
0.0,0.12264150943396226
0.0,0.1320754716981132
0.0,0.14150943396226415
0.0,0.1509433962264151
0.0,0.16037735849056603
0.0,0.16981132075471697
0.0,0.1792452830188679
0.0,0.18867924528301888
0.0,0.19811320754716982
0.0,0.20754716981132076
0.0,0.2169811320754717
0.0,0.22641509433962265
0.0,0.2358490566037736
0.0,0.24528301886792453
0.0,0.25471698113207547
0.0,0.2641509433962264
0.0,0.27358490566037735
0.0,0.2830188679245283
4.55116737656e-08,0.29245283018867924
1.17249052337e-06,0.3018867924528302
1.31848597617e-06,0.3113207547169811
1.78742413974e-06,0.32075471698113206
2.01767935863e-06,0.330188679245283
2.68477277713e-06,0.33962264150943394
4.09431974954e-06,0.3490566037735849
5.24094556658e-06,0.3584905660377358
5.54656868835e-06,0.36792452830188677
6.46913410522e-06,0.37735849056603776
7.96505331963e-06,0.3867924528301887
8.14756249887e-06,0.39622641509433965
8.59648024078e-06,0.4056603773584906
5.50864286178e-05,0.41509433962264153
7.55092343568e-05,0.42452830188679247
7.55092343568e-05,0.4339622641509434
0.000196535458747,0.44339622641509435
0.000196535458747,0.4528301886792453
0.000196535458747,0.46226415094339623
0.000201357958285,0.4716981132075472
0.000201357958285,0.4811320754716981
0.000201357958285,0.49056603773584906
0.000310867940019,0.5
0.000371240500736,0.5094339622641509
0.000371240500736,0.5188679245283019
0.000393070917493,0.5283018867924528
0.000393070917493,0.5377358490566038
0.000536227241923,0.5471698113207547
0.00068352180024,0.5566037735849056
0.00068352180024,0.5660377358490566
0.000846899805856,0.5754716981132075
0.000846899805856,0.5849056603773585
0.00106953848696,0.5943396226415094
0.00130087766155,0.6037735849056604
0.00175809689164,0.6132075471698113
0.00274148318755,0.6226415094339622
0.00278110786003,0.6320754716981132
0.00593685445777,0.6415094339622641
0.0159911053292,0.6509433962264151
0.0194281955039,0.660377358490566
0.0284103301268,0.6698113207547169
0.0286196892107,0.6792452830188679
0.0346441488145,0.6886792452830188
0.0373338692782,0.6981132075471698
0.0392507333437,0.7075471698113207
0.0421644553407,0.7169811320754716
0.0424476912768,0.7264150943396226
0.0428051011464,0.7358490566037735
0.0454472238159,0.7452830188679245
0.0480516029685,0.7547169811320755
0.04839468829,0.7641509433962265
0.472988834445,0.7735849056603774
1.19384131716,0.7830188679245284
1.19384131716,0.7924528301886793
1.58116707528,0.8018867924528302
1.58116707528,0.8113207547169812
1.58116707528,0.8207547169811321
3.16233415056,0.8301886792452831
3.16233415056,0.839622641509434
3.18357684576,0.8490566037735849
3.18357684576,0.8584905660377359
3.18357684576,0.8679245283018868
4.93759103216,0.8773584905660378
5.82845865117,0.8867924528301887
6.27718336525,0.8962264150943396
6.27718336525,0.9056603773584906
6.79542412478,0.9150943396226415
6.79542412478,0.9245283018867925
7.4925293029,0.9339622641509434
7.4925293029,0.9433962264150944
13.1877484033,0.9528301886792453
13.2348541972,0.9622641509433962
17.5884363887,0.9716981132075472
17.6913619852,0.9811320754716981
29.5597776743,0.9905660377358491
58.1113677883,1.0
