Congestion,CDF
0.0,0.007352941176470588
0.0,0.014705882352941176
0.00252491495316,0.022058823529411766
0.00252491495316,0.029411764705882353
0.0113838412433,0.03676470588235294
0.0113838412433,0.04411764705882353
0.0118532732011,0.051470588235294115
0.0118532732011,0.058823529411764705
0.0126769227543,0.0661764705882353
0.0126769227543,0.07352941176470588
0.013407155974,0.08088235294117647
0.013407155974,0.08823529411764706
0.0134552173057,0.09558823529411764
0.0134552173057,0.10294117647058823
0.0140765118452,0.11029411764705882
0.0140765118452,0.11764705882352941
0.0142679913772,0.125
0.0142679913772,0.1323529411764706
0.0145458984008,0.13970588235294118
0.0145458984008,0.14705882352941177
0.0148365286962,0.15441176470588236
0.0148365286962,0.16176470588235295
0.014838676697,0.16911764705882354
0.014838676697,0.17647058823529413
0.0160652141353,0.18382352941176472
0.0160652141353,0.19117647058823528
0.0164704605753,0.19852941176470587
0.0164704605753,0.20588235294117646
0.0172594464329,0.21323529411764705
0.0172594464329,0.22058823529411764
0.0174459507243,0.22794117647058823
0.0174459507243,0.23529411764705882
0.0175867305883,0.2426470588235294
0.0175867305883,0.25
0.018919710033,0.25735294117647056
0.018919710033,0.2647058823529412
0.0189626342726,0.27205882352941174
0.0189626342726,0.27941176470588236
0.01942766055,0.2867647058823529
0.01942766055,0.29411764705882354
0.0194958635646,0.3014705882352941
0.0194958635646,0.3088235294117647
0.0198765741883,0.3161764705882353
0.0198765741883,0.3235294117647059
0.019896561995,0.33088235294117646
0.019896561995,0.3382352941176471
0.0227121548509,0.34558823529411764
0.0227121548509,0.35294117647058826
0.0227938119165,0.3602941176470588
0.0227938119165,0.36764705882352944
0.0242387246309,0.375
0.0242387246309,0.38235294117647056
0.0245635533512,0.3897058823529412
0.0245635533512,0.39705882352941174
0.0276300582303,0.40441176470588236
0.0276300582303,0.4117647058823529
0.0280557387075,0.41911764705882354
0.0280557387075,0.4264705882352941
0.0296932599083,0.4338235294117647
0.0296932599083,0.4411764705882353
0.229580170504,0.4485294117647059
0.229580170504,0.45588235294117646
0.315048205586,0.4632352941176471
0.315048205586,0.47058823529411764
0.435764127175,0.47794117647058826
0.435764127175,0.4852941176470588
0.603475884966,0.49264705882352944
0.603475884966,0.5
0.660836918285,0.5073529411764706
0.660836918285,0.5147058823529411
0.85471977723,0.5220588235294118
0.85471977723,0.5294117647058824
0.951436016191,0.5367647058823529
0.951436016191,0.5441176470588235
0.978271977318,0.5514705882352942
0.978271977318,0.5588235294117647
1.09535116885,0.5661764705882353
1.09535116885,0.5735294117647058
1.40609646917,0.5808823529411765
1.40609646917,0.5882352941176471
1.41848679793,0.5955882352941176
1.41848679793,0.6029411764705882
1.44362485324,0.6102941176470589
1.44362485324,0.6176470588235294
1.45089077112,0.625
1.45089077112,0.6323529411764706
1.45183611366,0.6397058823529411
1.45183611366,0.6470588235294118
1.74459507243,0.6544117647058824
1.74459507243,0.6617647058823529
1.7633230086,0.6691176470588235
1.7633230086,0.6764705882352942
1.96209426311,0.6838235294117647
1.96209426311,0.6911764705882353
2.05446302947,0.6985294117647058
2.05446302947,0.7058823529411765
2.06764654012,0.7132352941176471
2.06764654012,0.7205882352941176
2.10967523741,0.7279411764705882
2.10967523741,0.7352941176470589
2.42134754814,0.7426470588235294
2.42134754814,0.75
2.4340835131,0.7573529411764706
2.4340835131,0.7647058823529411
2.55218875561,0.7720588235294118
2.55218875561,0.7794117647058824
2.5741122727,0.7867647058823529
2.5741122727,0.7941176470588235
2.8080987857,0.8014705882352942
2.8080987857,0.8088235294117647
2.96932599083,0.8161764705882353
2.96932599083,0.8235294117647058
3.35864454747,0.8308823529411765
3.35864454747,0.8382352941176471
3.37508881871,0.8455882352941176
3.37508881871,0.8529411764705882
3.38081970998,0.8602941176470589
3.38081970998,0.8676470588235294
3.71484033834,0.875
3.71484033834,0.8823529411764706
4.27422699829,0.8897058823529411
4.27422699829,0.8970588235294118
4.74286989461,0.9044117647058824
4.74286989461,0.9117647058823529
5.80101292603,0.9191176470588235
5.80101292603,0.9264705882352942
6.60681346538,0.9338235294117647
6.60681346538,0.9411764705882353
7.35262033156,0.9485294117647058
7.35262033156,0.9558823529411765
8.53033093975,0.9632352941176471
8.53033093975,0.9705882352941176
11.0802846047,0.9779411764705882
11.0802846047,0.9852941176470589
12.950836492,0.9926470588235294
12.950836492,1.0
