Congestion,CDF
0.00518351392057,0.007352941176470588
0.00518351392057,0.014705882352941176
0.00518351392057,0.022058823529411766
0.00518351392057,0.029411764705882353
0.00523739234492,0.03676470588235294
0.00523739234492,0.04411764705882353
0.00528438697771,0.051470588235294115
0.00528438697771,0.058823529411764705
0.00528438735054,0.0661764705882353
0.00528438735054,0.07352941176470588
0.00528438735054,0.08088235294117647
0.00528438735054,0.08823529411764706
0.00531796736802,0.09558823529411764
0.00531796736802,0.10294117647058823
0.00548101565906,0.11029411764705882
0.00548101565906,0.11764705882352941
0.00548702686415,0.125
0.00548702686415,0.1323529411764706
0.00559802397521,0.13970588235294118
0.00559802397521,0.14705882352941177
0.00561036852193,0.15441176470588236
0.00561036852193,0.16176470588235295
0.00561036852193,0.16911764705882354
0.00561036852193,0.17647058823529413
0.00568716924799,0.18382352941176472
0.00568716924799,0.19117647058823528
0.00573871279165,0.19852941176470587
0.00573871279165,0.20588235294117646
0.00574177868454,0.21323529411764705
0.00574177868454,0.22058823529411764
0.00574731694812,0.22794117647058823
0.00574731694812,0.23529411764705882
0.00587939681577,0.2426470588235294
0.00587939681577,0.25
0.00587939681577,0.25735294117647056
0.00587939681577,0.2647058823529412
0.00591180561,0.27205882352941174
0.00591180561,0.27941176470588236
0.00598210116054,0.2867647058823529
0.00598210116054,0.29411764705882354
0.006103276037,0.3014705882352941
0.006103276037,0.3088235294117647
0.00614242080871,0.3161764705882353
0.00614242080871,0.3235294117647059
0.00632722219493,0.33088235294117646
0.00632722219493,0.3382352941176471
0.00638984827571,0.34558823529411764
0.00638984827571,0.35294117647058826
0.00648620671694,0.3602941176470588
0.00648620671694,0.36764705882352944
0.00678631029205,0.375
0.00678631029205,0.38235294117647056
0.00683327985263,0.3897058823529412
0.00683327985263,0.39705882352941174
0.00683327985263,0.40441176470588236
0.00683327985263,0.4117647058823529
0.0346314024042,0.41911764705882354
0.0346314024042,0.4264705882352941
0.0787034814192,0.4338235294117647
0.0787034814192,0.4411764705882353
0.166011377254,0.4485294117647059
0.166011377254,0.45588235294117646
0.194227319449,0.4632352941176471
0.194227319449,0.47058823529411764
0.231481782525,0.47794117647058826
0.231481782525,0.4852941176470588
0.247538696895,0.49264705882352944
0.247538696895,0.5
0.285292732765,0.5073529411764706
0.285292732765,0.5147058823529411
0.290764388531,0.5220588235294118
0.290764388531,0.5294117647058824
0.320748579272,0.5367647058823529
0.320748579272,0.5441176470588235
0.360963984674,0.5514705882352942
0.360963984674,0.5588235294117647
0.368114334673,0.5661764705882353
0.368114334673,0.5735294117647058
0.381551204487,0.5808823529411765
0.381551204487,0.5882352941176471
0.399576663017,0.5955882352941176
0.399576663017,0.6029411764705882
0.468252812594,0.6102941176470589
0.468252812594,0.6176470588235294
0.493807332649,0.625
0.493807332649,0.6323529411764706
0.510626457762,0.6397058823529411
0.510626457762,0.6470588235294118
0.532895929412,0.6544117647058824
0.532895929412,0.6617647058823529
0.584648923305,0.6691176470588235
0.584648923305,0.6764705882352942
0.607531493699,0.6838235294117647
0.607531493699,0.6911764705882353
0.625726254382,0.6985294117647058
0.625726254382,0.7058823529411765
0.640010578255,0.7132352941176471
0.640010578255,0.7205882352941176
0.669190352594,0.7279411764705882
0.669190352594,0.7352941176470589
0.683327985263,0.7426470588235294
0.683327985263,0.75
0.694582769193,0.7573529411764706
0.694582769193,0.7647058823529411
0.73931274428,0.7720588235294118
0.73931274428,0.7794117647058824
0.754275363781,0.7867647058823529
0.754275363781,0.7941176470588235
0.763845574002,0.8014705882352942
0.763845574002,0.8088235294117647
0.862553313992,0.8161764705882353
0.862553313992,0.8235294117647058
0.879640861443,0.8308823529411765
0.879640861443,0.8382352941176471
0.911717380661,0.8455882352941176
0.911717380661,0.8529411764705882
0.91265513776,0.8602941176470589
0.91265513776,0.8676470588235294
0.934593682068,0.875
0.934593682068,0.8823529411764706
0.983026197013,0.8897058823529411
0.983026197013,0.8970588235294118
1.13519702149,0.9044117647058824
1.13519702149,0.9117647058823529
1.3445354099,0.9191176470588235
1.3445354099,0.9264705882352942
1.50300806748,0.9338235294117647
1.50300806748,0.9411764705882353
1.73213392884,0.9485294117647058
1.73213392884,0.9558823529411765
1.8626893111,0.9632352941176471
1.8626893111,0.9705882352941176
2.46953119149,0.9779411764705882
2.46953119149,0.9852941176470589
2.83650026159,0.9926470588235294
2.83650026159,1.0
