Congestion,CDF
0.0,0.007352941176470588
0.0,0.014705882352941176
0.0,0.022058823529411766
0.0,0.029411764705882353
0.00153203207707,0.03676470588235294
0.00153203207707,0.04411764705882353
0.0023800181871,0.051470588235294115
0.0023800181871,0.058823529411764705
0.00272937756391,0.0661764705882353
0.00272937756391,0.07352941176470588
0.0027485861317,0.08088235294117647
0.0027485861317,0.08823529411764706
0.00275766401145,0.09558823529411764
0.00275766401145,0.10294117647058823
0.00284378125908,0.11029411764705882
0.00284378125908,0.11764705882352941
0.00287683045519,0.125
0.00287683045519,0.1323529411764706
0.00321866287252,0.13970588235294118
0.00321866287252,0.14705882352941177
0.00331003223851,0.15441176470588236
0.00331003223851,0.16176470588235295
0.00341392887094,0.16911764705882354
0.00341392887094,0.17647058823529413
0.00355382766356,0.18382352941176472
0.00355382766356,0.19117647058823528
0.00366118645375,0.19852941176470587
0.00366118645375,0.20588235294117646
0.00394644082719,0.21323529411764705
0.00394644082719,0.22058823529411764
0.00402958958721,0.22794117647058823
0.00402958958721,0.23529411764705882
0.00413063043166,0.2426470588235294
0.00413063043166,0.25
0.00540276800989,0.25735294117647056
0.00540276800989,0.2647058823529412
0.00543788688839,0.27205882352941174
0.00543788688839,0.27941176470588236
0.00553702071564,0.2867647058823529
0.00553702071564,0.29411764705882354
0.00571616519958,0.3014705882352941
0.00571616519958,0.3088235294117647
0.0069130101042,0.3161764705882353
0.0069130101042,0.3235294117647059
0.00736236555247,0.33088235294117646
0.00736236555247,0.3382352941176471
0.0073752488804,0.34558823529411764
0.0073752488804,0.35294117647058826
0.0075814733423,0.3602941176470588
0.0075814733423,0.36764705882352944
0.0082285381567,0.375
0.0082285381567,0.38235294117647056
0.00861081038942,0.3897058823529412
0.00861081038942,0.39705882352941174
0.00896470849358,0.40441176470588236
0.00896470849358,0.4117647058823529
0.00987454708024,0.41911764705882354
0.00987454708024,0.4264705882352941
0.014332232012,0.4338235294117647
0.014332232012,0.4411764705882353
0.015596083218,0.4485294117647059
0.015596083218,0.45588235294117646
0.0158710857903,0.4632352941176471
0.0158710857903,0.47058823529411764
0.0223390034434,0.47794117647058826
0.0223390034434,0.4852941176470588
0.0921326467826,0.49264705882352944
0.0921326467826,0.5
0.0958977545188,0.5073529411764706
0.0958977545188,0.5147058823529411
0.108641316751,0.5220588235294118
0.108641316751,0.5294117647058824
0.137429306585,0.5367647058823529
0.137429306585,0.5441176470588235
0.137429306585,0.5514705882352942
0.137429306585,0.5588235294117647
0.198995760538,0.5661764705882353
0.198995760538,0.5735294117647058
0.207575659293,0.5808823529411765
0.207575659293,0.5882352941176471
0.207575659293,0.5955882352941176
0.207575659293,0.6029411764705882
0.277298433222,0.6102941176470589
0.277298433222,0.6176470588235294
0.286287596528,0.625
0.286287596528,0.6323529411764706
0.286287596528,0.6397058823529411
0.286287596528,0.6470588235294118
0.355382766356,0.6544117647058824
0.355382766356,0.6617647058823529
0.396554373198,0.6691176470588235
0.396554373198,0.6764705882352942
0.471446549334,0.6838235294117647
0.471446549334,0.6911764705882353
0.50354795196,0.6985294117647058
0.50354795196,0.7058823529411765
0.538744768911,0.7132352941176471
0.538744768911,0.7205882352941176
0.561064437116,0.7279411764705882
0.561064437116,0.7352941176470589
0.683938644867,0.7426470588235294
0.683938644867,0.75
0.723285175776,0.7573529411764706
0.723285175776,0.7647058823529411
0.810629445712,0.7720588235294118
0.810629445712,0.7794117647058824
0.810629445712,0.7867647058823529
0.810629445712,0.7941176470588235
0.987454708024,0.8014705882352942
0.987454708024,0.8088235294117647
1.12049255656,0.8161764705882353
1.12049255656,0.8235294117647058
1.21975435245,0.8308823529411765
1.21975435245,0.8382352941176471
1.47093325065,0.8455882352941176
1.47093325065,0.8529411764705882
1.5596083218,0.8602941176470589
1.5596083218,0.8676470588235294
1.58040949423,0.875
1.58040949423,0.8823529411764706
1.58710857903,0.8897058823529411
1.58710857903,0.8970588235294118
1.64986432556,0.9044117647058824
1.64986432556,0.9117647058823529
1.75089722729,0.9191176470588235
1.75089722729,0.9264705882352942
1.75640310018,0.9338235294117647
1.75640310018,0.9411764705882353
3.21389275561,0.9485294117647058
3.21389275561,0.9558823529411765
4.57994010203,0.9632352941176471
4.57994010203,0.9705882352941176
5.60941931772,0.9779411764705882
5.60941931772,0.9852941176470589
6.51120340116,0.9926470588235294
6.51120340116,1.0
