Congestion,CDF
0.0,0.007352941176470588
0.0,0.014705882352941176
0.0,0.022058823529411766
0.0,0.029411764705882353
0.00724905159734,0.03676470588235294
0.00724905159734,0.04411764705882353
0.0074774197902,0.051470588235294115
0.0074774197902,0.058823529411764705
0.00838750781782,0.0661764705882353
0.00838750781782,0.07352941176470588
0.0087089402997,0.08088235294117647
0.0087089402997,0.08823529411764706
0.00891832356369,0.09558823529411764
0.00891832356369,0.10294117647058823
0.00919954640803,0.11029411764705882
0.00919954640803,0.11764705882352941
0.00980626575722,0.125
0.00980626575722,0.1323529411764706
0.00986427670766,0.13970588235294118
0.00986427670766,0.14705882352941177
0.00997325386388,0.15441176470588236
0.00997325386388,0.16176470588235295
0.0101227706124,0.16911764705882354
0.0101227706124,0.17647058823529413
0.0104143349937,0.18382352941176472
0.0104143349937,0.19117647058823528
0.0111083111095,0.19852941176470587
0.0111083111095,0.20588235294117646
0.0113016067239,0.21323529411764705
0.0113016067239,0.22058823529411764
0.0126952165168,0.22794117647058823
0.0126952165168,0.23529411764705882
0.0127494986912,0.2426470588235294
0.0127494986912,0.25
0.0127774808212,0.25735294117647056
0.0127774808212,0.2647058823529412
0.0128028684196,0.27205882352941174
0.0128028684196,0.27941176470588236
0.0131822841669,0.2867647058823529
0.0131822841669,0.29411764705882354
0.0137403958998,0.3014705882352941
0.0137403958998,0.3088235294117647
0.0139778966947,0.3161764705882353
0.0139778966947,0.3235294117647059
0.0143859194544,0.33088235294117646
0.0143859194544,0.3382352941176471
0.0164978592077,0.34558823529411764
0.0164978592077,0.35294117647058826
0.0176327074697,0.3602941176470588
0.0176327074697,0.36764705882352944
0.0195011138444,0.375
0.0195011138444,0.38235294117647056
0.0199980463189,0.3897058823529412
0.0199980463189,0.39705882352941174
0.0231001875051,0.40441176470588236
0.0231001875051,0.4117647058823529
0.0237889519095,0.41911764705882354
0.0237889519095,0.4264705882352941
0.0248605100748,0.4338235294117647
0.0248605100748,0.4411764705882353
0.0924346280031,0.4485294117647059
0.0924346280031,0.45588235294117646
0.101364039041,0.4632352941176471
0.101364039041,0.47058823529411764
0.270235004375,0.47794117647058826
0.270235004375,0.4852941176470588
0.428506597708,0.49264705882352944
0.428506597708,0.5
0.462622945014,0.5073529411764706
0.462622945014,0.5147058823529411
0.471650343938,0.5220588235294118
0.471650343938,0.5294117647058824
0.542341710259,0.5367647058823529
0.542341710259,0.5441176470588235
0.684187947129,0.5514705882352942
0.684187947129,0.5588235294117647
0.724342900909,0.5661764705882353
0.724342900909,0.5735294117647058
0.83322885277,0.5808823529411765
0.83322885277,0.5882352941176471
0.876074033054,0.5955882352941176
0.876074033054,0.6029411764705882
0.961732750009,0.6102941176470589
0.961732750009,0.6176470588235294
0.999655390161,0.625
0.999655390161,0.6323529411764706
1.00343368222,0.6397058823529411
1.00343368222,0.6470588235294118
1.11083111095,0.6544117647058824
1.11083111095,0.6617647058823529
1.13754416841,0.6691176470588235
1.13754416841,0.6764705882352942
1.17358583008,0.6838235294117647
1.17358583008,0.6911764705882353
1.23152471143,0.6985294117647058
1.23152471143,0.7058823529411765
1.28399303431,0.7132352941176471
1.28399303431,0.7205882352941176
1.39656907242,0.7279411764705882
1.39656907242,0.7352941176470589
1.45384295321,0.7426470588235294
1.45384295321,0.75
1.63952610373,0.7573529411764706
1.63952610373,0.7647058823529411
1.71167603531,0.7720588235294118
1.71167603531,0.7794117647058824
1.99980463189,0.7867647058823529
1.99980463189,0.7941176470588235
2.34121515123,0.8014705882352942
2.34121515123,0.8088235294117647
2.37889519095,0.8161764705882353
2.37889519095,0.8235294117647058
2.48605100748,0.8308823529411765
2.48605100748,0.8382352941176471
2.56975051527,0.8455882352941176
2.56975051527,0.8529411764705882
2.70971044802,0.8602941176470589
2.70971044802,0.8676470588235294
2.82337175085,0.875
2.82337175085,0.8823529411764706
3.48729307131,0.8897058823529411
3.48729307131,0.8970588235294118
3.49585212008,0.9044117647058824
3.49585212008,0.9117647058823529
4.36815878386,0.9191176470588235
4.36815878386,0.9264705882352942
5.28813458406,0.9338235294117647
5.28813458406,0.9411764705882353
5.53231110781,0.9485294117647058
5.53231110781,0.9558823529411765
7.17496494894,0.9632352941176471
7.17496494894,0.9705882352941176
9.21020987498,0.9779411764705882
9.21020987498,0.9852941176470589
10.8396585876,0.9926470588235294
10.8396585876,1.0
