Congestion,CDF
0.00467523932457,0.007352941176470588
0.00467523932457,0.014705882352941176
0.00467523932457,0.022058823529411766
0.00467523932457,0.029411764705882353
0.00467523932457,0.03676470588235294
0.00467523932457,0.04411764705882353
0.00467523932457,0.051470588235294115
0.00467523932457,0.058823529411764705
0.00467523932457,0.0661764705882353
0.00467523932457,0.07352941176470588
0.00467523932457,0.08088235294117647
0.00467523932457,0.08823529411764706
0.00467523932457,0.09558823529411764
0.00467523932457,0.10294117647058823
0.00467523932457,0.11029411764705882
0.00467523932457,0.11764705882352941
0.00467523932457,0.125
0.00467523932457,0.1323529411764706
0.00467523932457,0.13970588235294118
0.00467523932457,0.14705882352941177
0.00467523932457,0.15441176470588236
0.00467523932457,0.16176470588235295
0.00467523932457,0.16911764705882354
0.00467523932457,0.17647058823529413
0.00467523932457,0.18382352941176472
0.00467523932457,0.19117647058823528
0.00467523932457,0.19852941176470587
0.00467523932457,0.20588235294117646
0.00467523932457,0.21323529411764705
0.00467523932457,0.22058823529411764
0.00467523932457,0.22794117647058823
0.00467523932457,0.23529411764705882
0.00467523932457,0.2426470588235294
0.00467523932457,0.25
0.00467523932457,0.25735294117647056
0.00467523932457,0.2647058823529412
0.00467523932457,0.27205882352941174
0.00467523932457,0.27941176470588236
0.00467523932457,0.2867647058823529
0.00467523932457,0.29411764705882354
0.00467523932457,0.3014705882352941
0.00467523932457,0.3088235294117647
0.00467523932457,0.3161764705882353
0.00467523932457,0.3235294117647059
0.00467523932457,0.33088235294117646
0.00467523932457,0.3382352941176471
0.00467523932457,0.34558823529411764
0.00467523932457,0.35294117647058826
0.00467523932457,0.3602941176470588
0.00467523932457,0.36764705882352944
0.00467523932457,0.375
0.00467523932457,0.38235294117647056
0.00467523932457,0.3897058823529412
0.00467523932457,0.39705882352941174
0.00467523932457,0.40441176470588236
0.00467523932457,0.4117647058823529
0.0346314024042,0.41911764705882354
0.0346314024042,0.4264705882352941
0.0779206554095,0.4338235294117647
0.0779206554095,0.4411764705882353
0.16161321122,0.4485294117647059
0.16161321122,0.45588235294117646
0.16161321122,0.4632352941176471
0.16161321122,0.47058823529411764
0.200573538924,0.47794117647058826
0.200573538924,0.4852941176470588
0.219332215227,0.49264705882352944
0.219332215227,0.5
0.222218165427,0.5073529411764706
0.222218165427,0.5147058823529411
0.240976841729,0.5220588235294118
0.240976841729,0.5294117647058824
0.261178493132,0.5367647058823529
0.261178493132,0.5441176470588235
0.262621468232,0.5514705882352942
0.262621468232,0.5588235294117647
0.314568571838,0.5661764705882353
0.314568571838,0.5735294117647058
0.320340472239,0.5808823529411765
0.320340472239,0.5882352941176471
0.350642949343,0.5955882352941176
0.350642949343,0.6029411764705882
0.398261127649,0.6102941176470589
0.398261127649,0.6176470588235294
0.432892530053,0.625
0.432892530053,0.6323529411764706
0.441550380654,0.6397058823529411
0.441550380654,0.6470588235294118
0.444436330854,0.6544117647058824
0.444436330854,0.6617647058823529
0.455980131656,0.6691176470588235
0.455980131656,0.6764705882352942
0.458866081856,0.6838235294117647
0.458866081856,0.6911764705882353
0.467523932457,0.6985294117647058
0.467523932457,0.7058823529411765
0.502155334861,0.7132352941176471
0.502155334861,0.7205882352941176
0.515142110763,0.7279411764705882
0.515142110763,0.7352941176470589
0.519471036063,0.7426470588235294
0.519471036063,0.75
0.549773513167,0.7573529411764706
0.549773513167,0.7647058823529411
0.565646239269,0.7720588235294118
0.565646239269,0.7794117647058824
0.634909044077,0.7867647058823529
0.634909044077,0.7941176470588235
0.639237969378,0.8014705882352942
0.639237969378,0.8088235294117647
0.65943962078,0.8161764705882353
0.65943962078,0.8235294117647058
0.660882595881,0.8308823529411765
0.660882595881,0.8382352941176471
0.678198297083,0.8455882352941176
0.678198297083,0.8529411764705882
0.764776803093,0.8602941176470589
0.764776803093,0.8676470588235294
0.835482583002,0.875
0.835482583002,0.8823529411764706
0.847026383803,0.8897058823529411
0.847026383803,0.8970588235294118
0.917732163712,0.9044117647058824
0.917732163712,0.9117647058823529
1.03461314683,0.9191176470588235
1.03461314683,0.9264705882352942
1.04471397253,0.9338235294117647
1.04471397253,0.9411764705882353
1.22075693475,0.9485294117647058
1.22075693475,0.9558823529411765
1.29482965656,0.9632352941176471
1.29482965656,0.9705882352941176
1.58582963509,0.9779411764705882
1.58582963509,0.9852941176470589
1.79938994992,0.9926470588235294
1.79938994992,1.0
