Congestion,CDF
0.0,0.007352941176470588
0.0,0.014705882352941176
0.0,0.022058823529411766
0.0,0.029411764705882353
0.0099103379789,0.03676470588235294
0.0099103379789,0.04411764705882353
0.0100546102319,0.051470588235294115
0.0100546102319,0.058823529411764705
0.0114111133182,0.0661764705882353
0.0114111133182,0.07352941176470588
0.0116625376673,0.08088235294117647
0.0116625376673,0.08823529411764706
0.0120012125451,0.09558823529411764
0.0120012125451,0.10294117647058823
0.0124433354335,0.11029411764705882
0.0124433354335,0.11764705882352941
0.0125776567708,0.125
0.0125776567708,0.1323529411764706
0.0127350014753,0.13970588235294118
0.0127350014753,0.14705882352941177
0.0130369704172,0.15441176470588236
0.0130369704172,0.16176470588235295
0.013295109108,0.16911764705882354
0.013295109108,0.17647058823529413
0.0139391847276,0.18382352941176472
0.0139391847276,0.19117647058823528
0.0148433868214,0.19852941176470587
0.0148433868214,0.20588235294117646
0.0153640869032,0.21323529411764705
0.0153640869032,0.22058823529411764
0.0156494654251,0.22794117647058823
0.0156494654251,0.23529411764705882
0.0160373347403,0.2426470588235294
0.0160373347403,0.25
0.0168262083598,0.25735294117647056
0.0168262083598,0.2647058823529412
0.0169575082688,0.27205882352941174
0.0169575082688,0.27941176470588236
0.0175542866505,0.2867647058823529
0.0175542866505,0.29411764705882354
0.0177079141018,0.3014705882352941
0.0177079141018,0.3088235294117647
0.0177288788114,0.3161764705882353
0.0177288788114,0.3235294117647059
0.0179953938558,0.33088235294117646
0.0179953938558,0.3382352941176471
0.0207467948162,0.34558823529411764
0.0207467948162,0.35294117647058826
0.0210329124049,0.3602941176470588
0.0210329124049,0.36764705882352944
0.0228089825878,0.375
0.0228089825878,0.38235294117647056
0.0229322859399,0.3897058823529412
0.0229322859399,0.39705882352941174
0.0260855441692,0.40441176470588236
0.0260855441692,0.4117647058823529
0.026620044364,0.41911764705882354
0.026620044364,0.4264705882352941
0.0280521000816,0.4338235294117647
0.0280521000816,0.4411764705882353
0.180809656234,0.4485294117647059
0.180809656234,0.45588235294117646
0.245646751884,0.4632352941176471
0.245646751884,0.47058823529411764
0.371760582151,0.47794117647058826
0.371760582151,0.4852941176470588
0.559296072478,0.49264705882352944
0.559296072478,0.5
0.580974380767,0.5073529411764706
0.580974380767,0.5147058823529411
0.732815985224,0.5220588235294118
0.732815985224,0.5294117647058824
0.776182852619,0.5367647058823529
0.776182852619,0.5441176470588235
0.882980549914,0.5514705882352942
0.882980549914,0.5588235294117647
1.00476652121,0.5661764705882353
1.00476652121,0.5735294117647058
1.25136174284,0.5808823529411765
1.25136174284,0.5882352941176471
1.26741458539,0.5955882352941176
1.26741458539,0.6029411764705882
1.27827042248,0.6102941176470589
1.27827042248,0.6176470588235294
1.30995821631,0.625
1.30995821631,0.6323529411764706
1.35808672214,0.6397058823529411
1.35808672214,0.6470588235294118
1.53640869032,0.6544117647058824
1.53640869032,0.6617647058823529
1.54595726332,0.6691176470588235
1.54595726332,0.6764705882352942
1.62506956776,0.6838235294117647
1.62506956776,0.6911764705882353
1.72998543402,0.6985294117647058
1.72998543402,0.7058823529411765
1.8620691635,0.7132352941176471
1.8620691635,0.7205882352941176
1.86746024166,0.7279411764705882
1.86746024166,0.7352941176470589
2.13227504299,0.7426470588235294
2.13227504299,0.75
2.20122412263,0.7573529411764706
2.20122412263,0.7647058823529411
2.25939414222,0.7720588235294118
2.25939414222,0.7794117647058824
2.28089825878,0.7867647058823529
2.28089825878,0.7941176470588235
2.6620044364,0.8014705882352942
2.6620044364,0.8088235294117647
2.80521000816,0.8161764705882353
2.80521000816,0.8235294117647058
3.0217467561,0.8308823529411765
3.0217467561,0.8382352941176471
3.10164968417,0.8455882352941176
3.10164968417,0.8529411764705882
3.14816866109,0.8602941176470589
3.14816866109,0.8676470588235294
3.43276620376,0.875
3.43276620376,0.8823529411764706
4.01483078029,0.8897058823529411
4.01483078029,0.8970588235294118
4.33295246373,0.9044117647058824
4.33295246373,0.9117647058823529
5.33416021321,0.9191176470588235
5.33416021321,0.9264705882352942
6.17193312907,0.9338235294117647
6.17193312907,0.9411764705882353
6.77380045252,0.9485294117647058
6.77380045252,0.9558823529411765
8.07576886148,0.9632352941176471
8.07576886148,0.9705882352941176
10.4603168812,0.9779411764705882
10.4603168812,0.9852941176470589
12.2550237263,0.9926470588235294
12.2550237263,1.0
