Congestion,CDF
0.0,0.007352941176470588
0.0,0.014705882352941176
0.0,0.022058823529411766
0.0,0.029411764705882353
0.0158384252421,0.03676470588235294
0.0158384252421,0.04411764705882353
0.0169471950484,0.051470588235294115
0.0169471950484,0.058823529411764705
0.0173610930655,0.0661764705882353
0.0173610930655,0.07352941176470588
0.0176807933284,0.08088235294117647
0.0176807933284,0.08823529411764706
0.0179218927417,0.09558823529411764
0.0179218927417,0.10294117647058823
0.018743483361,0.11029411764705882
0.018743483361,0.11764705882352941
0.018975978339,0.125
0.018975978339,0.1323529411764706
0.0198029204808,0.13970588235294118
0.0198029204808,0.14705882352941177
0.0208679322926,0.15441176470588236
0.0208679322926,0.16176470588235295
0.0213126705658,0.16911764705882354
0.0213126705658,0.17647058823529413
0.022225764395,0.18382352941176472
0.022225764395,0.19117647058823528
0.0225110944364,0.19852941176470587
0.0225110944364,0.20588235294117646
0.0225151678603,0.21323529411764705
0.0225151678603,0.22058823529411764
0.0225182142706,0.22794117647058823
0.0225182142706,0.23529411764705882
0.0230174559253,0.2426470588235294
0.0230174559253,0.25
0.0234330487896,0.25735294117647056
0.0234330487896,0.2647058823529412
0.0239482911815,0.27205882352941174
0.0239482911815,0.27941176470588236
0.0244018534228,0.2867647058823529
0.0244018534228,0.29411764705882354
0.0248645338236,0.3014705882352941
0.0248645338236,0.3088235294117647
0.0255265110585,0.3161764705882353
0.0255265110585,0.3235294117647059
0.0256059304083,0.33088235294117646
0.0256059304083,0.3382352941176471
0.0260611891836,0.34558823529411764
0.0260611891836,0.35294117647058826
0.0282499741101,0.3602941176470588
0.0282499741101,0.36764705882352944
0.0284666648948,0.375
0.0284666648948,0.38235294117647056
0.0289524639112,0.3897058823529412
0.0289524639112,0.39705882352941174
0.0309929274522,0.40441176470588236
0.0309929274522,0.4117647058823529
0.0316687215871,0.41911764705882354
0.0316687215871,0.4264705882352941
0.0335951423293,0.4338235294117647
0.0335951423293,0.4411764705882353
0.41730880972,0.4485294117647059
0.41730880972,0.45588235294117646
0.601101560297,0.4632352941176471
0.601101560297,0.47058823529411764
0.659667768316,0.47794117647058826
0.659667768316,0.4852941176470588
0.763718440701,0.49264705882352944
0.763718440701,0.5
0.936444475866,0.5073529411764706
0.936444475866,0.5147058823529411
1.22627141572,0.5220588235294118
1.22627141572,0.5294117647058824
1.2393950381,0.5367647058823529
1.2393950381,0.5441176470588235
1.24087063578,0.5514705882352942
1.24087063578,0.5588235294117647
1.65461707763,0.5661764705882353
1.65461707763,0.5735294117647058
1.68363711064,0.5808823529411765
1.68363711064,0.5882352941176471
1.84347728042,0.5955882352941176
1.84347728042,0.6029411764705882
1.91915252075,0.6102941176470589
1.91915252075,0.6176470588235294
1.93585018304,0.625
1.93585018304,0.6323529411764706
2.03441260156,0.6397058823529411
2.03441260156,0.6470588235294118
2.55265110585,0.6544117647058824
2.55265110585,0.6617647058823529
2.60143178496,0.6691176470588235
2.60143178496,0.6764705882352942
2.65287423008,0.6838235294117647
2.65287423008,0.6911764705882353
2.84666648948,0.6985294117647058
2.84666648948,0.7058823529411765
2.84872113545,0.7132352941176471
2.84872113545,0.7205882352941176
2.91077721195,0.7279411764705882
2.91077721195,0.7352941176470589
3.06492820007,0.7426470588235294
3.06492820007,0.75
3.16687215871,0.7573529411764706
3.16687215871,0.7647058823529411
3.35951423293,0.7720588235294118
3.35951423293,0.7794117647058824
3.44848360604,0.7867647058823529
3.44848360604,0.7941176470588235
3.87125100984,0.8014705882352942
3.87125100984,0.8088235294117647
4.00266535389,0.8161764705882353
4.00266535389,0.8235294117647058
4.04286508549,0.8308823529411765
4.04286508549,0.8382352941176471
4.40922702131,0.8455882352941176
4.40922702131,0.8529411764705882
4.50863452165,0.8602941176470589
4.50863452165,0.8676470588235294
4.54359532671,0.875
4.54359532671,0.8823529411764706
4.97819443989,0.8897058823529411
4.97819443989,0.8970588235294118
6.16857196157,0.9044117647058824
6.16857196157,0.9117647058823529
7.20230758721,0.9191176470588235
7.20230758721,0.9264705882352942
7.67769552607,0.9338235294117647
7.67769552607,0.9411764705882353
9.21231163837,0.9485294117647058
9.21231163837,0.9558823529411765
9.62567913686,0.9632352941176471
9.62567913686,0.9705882352941176
12.6720561168,0.9779411764705882
12.6720561168,0.9852941176470589
14.7234440633,0.9926470588235294
14.7234440633,1.0
