Congestion,CDF
0.0,0.007352941176470588
0.0,0.014705882352941176
0.0380555968555,0.022058823529411766
0.0380555968555,0.029411764705882353
0.0388821823646,0.03676470588235294
0.0388821823646,0.04411764705882353
0.0392045095309,0.051470588235294115
0.0392045095309,0.058823529411764705
0.0399542187185,0.0661764705882353
0.0399542187185,0.07352941176470588
0.0403591915155,0.08088235294117647
0.0403591915155,0.08823529411764706
0.0407519247058,0.09558823529411764
0.0407519247058,0.10294117647058823
0.0418155270652,0.11029411764705882
0.0418155270652,0.11764705882352941
0.0418252106864,0.125
0.0418252106864,0.1323529411764706
0.0423953132216,0.13970588235294118
0.0423953132216,0.14705882352941177
0.0433726135314,0.15441176470588236
0.0433726135314,0.16176470588235295
0.0437614384139,0.16911764705882354
0.0437614384139,0.17647058823529413
0.0439589439349,0.18382352941176472
0.0439589439349,0.19117647058823528
0.0439630182669,0.19852941176470587
0.0439630182669,0.20588235294117646
0.0444275294429,0.21323529411764705
0.0444275294429,0.22058823529411764
0.0448624365864,0.22794117647058823
0.0448624365864,0.23529411764705882
0.0450958370133,0.2426470588235294
0.0450958370133,0.25
0.0457692569481,0.25735294117647056
0.0457692569481,0.2647058823529412
0.046156833897,0.27205882352941174
0.046156833897,0.27941176470588236
0.0463042323897,0.2867647058823529
0.0463042323897,0.29411764705882354
0.0464449482897,0.3014705882352941
0.0464449482897,0.3088235294117647
0.0469849262779,0.3161764705882353
0.0469849262779,0.3235294117647059
0.0471590632586,0.33088235294117646
0.0471590632586,0.3382352941176471
0.0472186880212,0.34558823529411764
0.0472186880212,0.35294117647058826
0.0472579003327,0.3602941176470588
0.0472579003327,0.36764705882352944
0.0484163473955,0.375
0.0484163473955,0.38235294117647056
0.0500076661987,0.3897058823529412
0.0500076661987,0.39705882352941174
0.0502870512796,0.40441176470588236
0.0502870512796,0.4117647058823529
0.0541881972662,0.41911764705882354
0.0541881972662,0.4264705882352941
0.145801788531,0.4338235294117647
0.145801788531,0.4411764705882353
1.21544960727,0.4485294117647059
1.21544960727,0.45588235294117646
1.33905058208,0.4632352941176471
1.33905058208,0.47058823529411764
1.72612684797,0.47794117647058826
1.72612684797,0.4852941176470588
1.83396037167,0.49264705882352944
1.83396037167,0.5
1.93668689984,0.5073529411764706
1.93668689984,0.5147058823529411
2.2105430564,0.5220588235294118
2.2105430564,0.5294117647058824
2.27581122087,0.5367647058823529
2.27581122087,0.5441176470588235
2.69230126085,0.5514705882352942
2.69230126085,0.5588235294117647
2.74303328426,0.5661764705882353
2.74303328426,0.5735294117647058
3.33998905283,0.5808823529411765
3.33998905283,0.5882352941176471
3.36218148487,0.5955882352941176
3.36218148487,0.6029411764705882
3.90156187189,0.6102941176470589
3.90156187189,0.6176470588235294
4.05643451966,0.625
4.05643451966,0.6323529411764706
4.3076392555,0.6397058823529411
4.3076392555,0.6470588235294118
4.57692569481,0.6544117647058824
4.57692569481,0.6617647058823529
4.6222908148,0.6691176470588235
4.6222908148,0.6764705882352942
5.07696843286,0.6838235294117647
5.07696843286,0.6911764705882353
5.14702156455,0.6985294117647058
5.14702156455,0.7058823529411765
5.37341614169,0.7132352941176471
5.37341614169,0.7205882352941176
5.41881972662,0.7279411764705882
5.41881972662,0.7352941176470589
5.43991155109,0.7426470588235294
5.43991155109,0.75
5.53399992532,0.7573529411764706
5.53399992532,0.7647058823529411
6.21317683397,0.7720588235294118
6.21317683397,0.7794117647058824
6.41003900373,0.7867647058823529
6.41003900373,0.7941176470588235
6.61978197069,0.8014705882352942
6.61978197069,0.8088235294117647
7.24688221728,0.8161764705882353
7.24688221728,0.8235294117647058
7.51725806922,0.8308823529411765
7.51725806922,0.8382352941176471
7.98343922045,0.8455882352941176
7.98343922045,0.8529411764705882
8.2006669362,0.8602941176470589
8.2006669362,0.8676470588235294
8.33588759558,0.875
8.33588759558,0.8823529411764706
8.70699342633,0.8897058823529411
8.70699342633,0.8970588235294118
10.4294297439,0.9044117647058824
10.4294297439,0.9117647058823529
12.1661596297,0.9191176470588235
12.1661596297,0.9264705882352942
12.4223410326,0.9338235294117647
12.4223410326,0.9411764705882353
15.0587128524,0.9485294117647058
15.0587128524,0.9558823529411765
15.2580677167,0.9632352941176471
15.2580677167,0.9705882352941176
19.705042781,0.9779411764705882
19.705042781,0.9852941176470589
22.6419618364,0.9926470588235294
22.6419618364,1.0
