Congestion,CDF
0.0,0.007352941176470588
0.0,0.014705882352941176
0.0174615431087,0.022058823529411766
0.0174615431087,0.029411764705882353
0.0238112909863,0.03676470588235294
0.0238112909863,0.04411764705882353
0.0244486391411,0.051470588235294115
0.0244486391411,0.058823529411764705
0.0250025928837,0.0661764705882353
0.0250025928837,0.07352941176470588
0.0251624016182,0.08088235294117647
0.0251624016182,0.08823529411764706
0.025207814703,0.09558823529411764
0.025207814703,0.10294117647058823
0.0254817785336,0.11029411764705882
0.0254817785336,0.11764705882352941
0.0269705804481,0.125
0.0269705804481,0.1323529411764706
0.0270298657254,0.13970588235294118
0.0270298657254,0.14705882352941177
0.028543526879,0.15441176470588236
0.028543526879,0.16176470588235295
0.0289294417606,0.16911764705882354
0.0289294417606,0.17647058823529413
0.0300267071187,0.18382352941176472
0.0300267071187,0.19117647058823528
0.030289064058,0.19852941176470587
0.030289064058,0.20588235294117646
0.030353303294,0.21323529411764705
0.030353303294,0.22058823529411764
0.0303934450493,0.22794117647058823
0.0303934450493,0.23529411764705882
0.0305835400749,0.2426470588235294
0.0305835400749,0.25
0.0311827708326,0.25735294117647056
0.0311827708326,0.2647058823529412
0.031218715767,0.27205882352941174
0.031218715767,0.27941176470588236
0.0323265509131,0.2867647058823529
0.0323265509131,0.29411764705882354
0.0325116149994,0.3014705882352941
0.0325116149994,0.3088235294117647
0.033241039678,0.3161764705882353
0.033241039678,0.3235294117647059
0.033272702156,0.33088235294117646
0.033272702156,0.3382352941176471
0.0337884846248,0.34558823529411764
0.0337884846248,0.35294117647058826
0.0348942442347,0.3602941176470588
0.0348942442347,0.36764705882352944
0.0356470826279,0.375
0.0356470826279,0.38235294117647056
0.0358644583998,0.3897058823529412
0.0358644583998,0.39705882352941174
0.03772897753,0.40441176470588236
0.03772897753,0.4117647058823529
0.0380709466383,0.41911764705882354
0.0380709466383,0.4264705882352941
0.0409058780683,0.4338235294117647
0.0409058780683,0.4411764705882353
0.70015910941,0.4485294117647059
0.70015910941,0.45588235294117646
0.951993102421,0.4632352941176471
0.951993102421,0.47058823529411764
1.05120289621,0.47794117647058826
1.05120289621,0.4852941176470588
1.08571381241,0.49264705882352944
1.08571381241,0.5
1.23000044498,0.5073529411764706
1.23000044498,0.5147058823529411
1.59640613141,0.5220588235294118
1.59640613141,0.5294117647058824
1.60939294374,0.5367647058823529
1.60939294374,0.5441176470588235
1.77207354195,0.5514705882352942
1.77207354195,0.5588235294117647
2.03615776429,0.5661764705882353
2.03615776429,0.5735294117647058
2.29031426318,0.5808823529411765
2.29031426318,0.5882352941176471
2.46087724194,0.5955882352941176
2.46087724194,0.6029411764705882
2.55710491201,0.6102941176470589
2.55710491201,0.6176470588235294
2.65183204905,0.625
2.65183204905,0.6323529411764706
2.84293970533,0.6397058823529411
2.84293970533,0.6470588235294118
3.3272702156,0.6544117647058824
3.3272702156,0.6617647058823529
3.47196288036,0.6691176470588235
3.47196288036,0.6764705882352942
3.51699666313,0.6838235294117647
3.51699666313,0.6911764705882353
3.65620968513,0.6985294117647058
3.65620968513,0.7058823529411765
3.80738424923,0.7132352941176471
3.80738424923,0.7205882352941176
3.82455620694,0.7279411764705882
3.82455620694,0.7352941176470589
3.95967150475,0.7426470588235294
3.95967150475,0.75
4.08838452428,0.7573529411764706
4.08838452428,0.7647058823529411
4.09058780683,0.7720588235294118
4.09058780683,0.7794117647058824
4.62588744975,0.7867647058823529
4.62588744975,0.7941176470588235
4.89726295699,0.8014705882352942
4.89726295699,0.8088235294117647
5.22033009596,0.8161764705882353
5.22033009596,0.8235294117647058
5.52156330622,0.8308823529411765
5.52156330622,0.8382352941176471
5.62260360427,0.8455882352941176
5.62260360427,0.8529411764705882
5.97670919779,0.8602941176470589
5.97670919779,0.8676470588235294
6.0501654816,0.875
6.0501654816,0.8823529411764706
6.08467804074,0.8897058823529411
6.08467804074,0.8970588235294118
7.76780236169,0.9044117647058824
7.76780236169,0.9117647058823529
9.0901005748,0.9191176470588235
9.0901005748,0.9264705882352942
9.46323485738,0.9338235294117647
9.46323485738,0.9411764705882353
11.4912228282,0.9485294117647058
11.4912228282,0.9558823529411765
11.6181955943,0.9632352941176471
11.6181955943,0.9705882352941176
15.2971809343,0.9779411764705882
15.2971809343,0.9852941176470589
17.6960517483,0.9926470588235294
17.6960517483,1.0
