Congestion,CDF
0.0,0.007352941176470588
0.0,0.014705882352941176
0.0,0.022058823529411766
0.0,0.029411764705882353
0.00474594717835,0.03676470588235294
0.00474594717835,0.04411764705882353
0.00508432375429,0.051470588235294115
0.00508432375429,0.058823529411764705
0.00510541138042,0.0661764705882353
0.00510541138042,0.07352941176470588
0.00576003782747,0.08088235294117647
0.00576003782747,0.08823529411764706
0.00638534740344,0.09558823529411764
0.00638534740344,0.10294117647058823
0.00651106495375,0.11029411764705882
0.00651106495375,0.11764705882352941
0.00675072785092,0.125
0.00675072785092,0.1323529411764706
0.0068073430337,0.13970588235294118
0.0068073430337,0.14705882352941177
0.00709784821485,0.15441176470588236
0.00709784821485,0.16176470588235295
0.0071328830975,0.16911764705882354
0.0071328830975,0.17647058823529413
0.0071893698086,0.18382352941176472
0.0071893698086,0.19117647058823528
0.00753279493571,0.19852941176470587
0.00753279493571,0.20588235294117646
0.00762891811948,0.21323529411764705
0.00762891811948,0.22058823529411764
0.0076747909196,0.22794117647058823
0.0076747909196,0.23529411764705882
0.0080824571553,0.2426470588235294
0.0080824571553,0.25
0.00813347852224,0.25735294117647056
0.00813347852224,0.2647058823529412
0.00860329930457,0.27205882352941174
0.00860329930457,0.27941176470588236
0.00883941347424,0.2867647058823529
0.00883941347424,0.29411764705882354
0.00931834177364,0.3014705882352941
0.00931834177364,0.3088235294117647
0.0098498405823,0.3161764705882353
0.0098498405823,0.3235294117647059
0.0100033854907,0.33088235294117646
0.0100033854907,0.3382352941176471
0.0113422343444,0.34558823529411764
0.0113422343444,0.35294117647058826
0.0124991194491,0.3602941176470588
0.0124991194491,0.36764705882352944
0.0140658053001,0.375
0.0140658053001,0.38235294117647056
0.0159376836819,0.3897058823529412
0.0159376836819,0.39705882352941174
0.0181564546417,0.40441176470588236
0.0181564546417,0.4117647058823529
0.0193086080241,0.41911764705882354
0.0193086080241,0.4264705882352941
0.0197771951888,0.4338235294117647
0.0197771951888,0.4411764705882353
0.0439362507439,0.4485294117647059
0.0439362507439,0.45588235294117646
0.0500586445855,0.4632352941176471
0.0500586445855,0.47058823529411764
0.169928852891,0.47794117647058826
0.169928852891,0.4852941176470588
0.284225868525,0.49264705882352944
0.284225868525,0.5
0.293497852193,0.5073529411764706
0.293497852193,0.5147058823529411
0.309853729429,0.5220588235294118
0.309853729429,0.5294117647058824
0.340346018919,0.5367647058823529
0.340346018919,0.5441176470588235
0.370752023197,0.5514705882352942
0.370752023197,0.5588235294117647
0.419768906233,0.5661764705882353
0.419768906233,0.5735294117647058
0.442248650617,0.5808823529411765
0.442248650617,0.5882352941176471
0.578673461109,0.5955882352941176
0.578673461109,0.6029411764705882
0.645613905234,0.6102941176470589
0.645613905234,0.6176470588235294
0.719009035835,0.625
0.719009035835,0.6323529411764706
0.723542841216,0.6397058823529411
0.723542841216,0.6470588235294118
0.80824571553,0.6544117647058824
0.80824571553,0.6617647058823529
0.818849293605,0.6691176470588235
0.818849293605,0.6764705882352942
0.847608122496,0.6838235294117647
0.847608122496,0.6911764705882353
0.86340649681,0.6985294117647058
0.86340649681,0.7058823529411765
0.881775532778,0.7132352941176471
0.881775532778,0.7205882352941176
0.933612425929,0.7279411764705882
0.933612425929,0.7352941176470589
1.02996782381,0.7426470588235294
1.02996782381,0.75
1.03924713032,0.7573529411764706
1.03924713032,0.7647058823529411
1.07188166327,0.7720588235294118
1.07188166327,0.7794117647058824
1.59376836819,0.7867647058823529
1.59376836819,0.7941176470588235
1.6594603616,0.8014705882352942
1.6594603616,0.8088235294117647
1.88528357466,0.8161764705882353
1.88528357466,0.8235294117647058
1.93086080241,0.8308823529411765
1.93086080241,0.8382352941176471
1.97771951888,0.8455882352941176
1.97771951888,0.8529411764705882
2.01599896722,0.8602941176470589
2.01599896722,0.8676470588235294
2.08374980415,0.875
2.08374980415,0.8823529411764706
2.56783266277,0.8897058823529411
2.56783266277,0.8970588235294118
2.66000287928,0.9044117647058824
2.66000287928,0.9117647058823529
3.13272228464,0.9191176470588235
3.13272228464,0.9264705882352942
3.98080862464,0.9338235294117647
3.98080862464,0.9411764705882353
4.00266340518,0.9485294117647058
4.00266340518,0.9558823529411765
5.72422578545,0.9632352941176471
5.72422578545,0.9705882352941176
7.16668621245,0.9779411764705882
7.16668621245,0.9852941176470589
8.51891229323,0.9926470588235294
8.51891229323,1.0
