Congestion,CDF
0.0,0.007352941176470588
0.0,0.014705882352941176
0.0368740841686,0.022058823529411766
0.0368740841686,0.029411764705882353
0.0376740460986,0.03676470588235294
0.0376740460986,0.04411764705882353
0.0381138069829,0.051470588235294115
0.0381138069829,0.058823529411764705
0.0388452600235,0.0661764705882353
0.0388452600235,0.07352941176470588
0.0392277145785,0.08088235294117647
0.0392277145785,0.08823529411764706
0.0394693128472,0.09558823529411764
0.0394693128472,0.10294117647058823
0.040761483829,0.11029411764705882
0.040761483829,0.11764705882352941
0.0407833097305,0.125
0.0407833097305,0.1323529411764706
0.0413179128805,0.13970588235294118
0.0413179128805,0.14705882352941177
0.0424993868882,0.15441176470588236
0.0424993868882,0.16176470588235295
0.0428194116548,0.16911764705882354
0.0428194116548,0.17647058823529413
0.0429429668578,0.18382352941176472
0.0429429668578,0.19117647058823528
0.0430262542264,0.19852941176470587
0.0430262542264,0.20588235294117646
0.0432437046609,0.21323529411764705
0.0432437046609,0.22058823529411764
0.043740931413,0.22794117647058823
0.043740931413,0.23529411764705882
0.0441553375661,0.2426470588235294
0.0441553375661,0.25
0.0449106439958,0.25735294117647056
0.0449106439958,0.2647058823529412
0.0451162399855,0.27205882352941174
0.0451162399855,0.27941176470588236
0.0452311450165,0.2867647058823529
0.0452311450165,0.29411764705882354
0.0454044806311,0.3014705882352941
0.0454044806311,0.3088235294117647
0.0460354708325,0.3161764705882353
0.0460354708325,0.3235294117647059
0.0460879134865,0.33088235294117646
0.0460879134865,0.3382352941176471
0.0462846242528,0.34558823529411764
0.0462846242528,0.35294117647058826
0.0463141774917,0.3602941176470588
0.0463141774917,0.36764705882352944
0.047503150418,0.375
0.047503150418,0.38235294117647056
0.049082768447,0.3897058823529412
0.049082768447,0.39705882352941174
0.0492897997058,0.40441176470588236
0.0492897997058,0.4117647058823529
0.053242934982,0.41911764705882354
0.053242934982,0.4264705882352941
0.126196267501,0.4338235294117647
0.126196267501,0.4411764705882353
1.17830392438,0.4485294117647059
1.17830392438,0.45588235294117646
1.30419813589,0.4632352941176471
1.30419813589,0.47058823529411764
1.69043876632,0.47794117647058826
1.69043876632,0.4852941176470588
1.77975792858,0.49264705882352944
1.77975792858,0.5
1.87011000569,0.5073529411764706
1.87011000569,0.5147058823529411
2.16858295847,0.5220588235294118
2.16858295847,0.5294117647058824
2.22914562531,0.5367647058823529
2.22914562531,0.5441176470588235
2.64305443374,0.5514705882352942
2.64305443374,0.5588235294117647
2.67239893964,0.5661764705882353
2.67239893964,0.5735294117647058
3.26822044906,0.5808823529411765
3.26822044906,0.5882352941176471
3.30050214657,0.5955882352941176
3.30050214657,0.6029411764705882
3.8174519037,0.6102941176470589
3.8174519037,0.6176470588235294
3.95031817163,0.625
3.95031817163,0.6323529411764706
4.20416118432,0.6397058823529411
4.20416118432,0.6470588235294118
4.49106439958,0.6544117647058824
4.49106439958,0.6617647058823529
4.53065833934,0.6691176470588235
4.53065833934,0.6764705882352942
4.98116558861,0.6838235294117647
4.98116558861,0.6911764705882353
5.03206533684,0.6985294117647058
5.03206533684,0.7058823529411765
5.26365940525,0.7132352941176471
5.26365940525,0.7205882352941176
5.3242934982,0.7279411764705882
5.3242934982,0.7352941176470589
5.33708034712,0.7426470588235294
5.33708034712,0.75
5.40254171308,0.7573529411764706
5.40254171308,0.7647058823529411
6.06677600864,0.7720588235294118
6.06677600864,0.7794117647058824
6.30291513435,0.7867647058823529
6.30291513435,0.7941176470588235
6.48371359205,0.8014705882352942
6.48371359205,0.8088235294117647
7.10653876045,0.8161764705882353
7.10653876045,0.8235294117647058
7.38609086983,0.8308823529411765
7.38609086983,0.8382352941176471
7.84998406001,0.8455882352941176
7.84998406001,0.8529411764705882
8.01827665759,0.8602941176470589
8.01827665759,0.8676470588235294
8.17666220843,0.875
8.17666220843,0.8823529411764706
8.52904163945,0.8897058823529411
8.52904163945,0.8970588235294118
10.2465276479,0.9044117647058824
10.2465276479,0.9117647058823529
11.9611081442,0.9191176470588235
11.9611081442,0.9264705882352942
12.2234935931,0.9338235294117647
12.2234935931,0.9411764705882353
14.8245354461,0.9485294117647058
14.8245354461,0.9558823529411765
15.0066064231,0.9632352941176471
15.0066064231,0.9705882352941176
19.410005642,0.9779411764705882
19.410005642,0.9852941176470589
22.3122022796,0.9926470588235294
22.3122022796,1.0
