Congestion,CDF
0.0,0.007352941176470588
0.0,0.014705882352941176
0.0310609268299,0.022058823529411766
0.0310609268299,0.029411764705882353
0.031344440705,0.03676470588235294
0.031344440705,0.04411764705882353
0.0316895020587,0.051470588235294115
0.0316895020587,0.058823529411764705
0.0325612232214,0.0661764705882353
0.0325612232214,0.07352941176470588
0.0327897522202,0.08088235294117647
0.0327897522202,0.08823529411764706
0.0331101714513,0.09558823529411764
0.0331101714513,0.10294117647058823
0.0346233636851,0.11029411764705882
0.0346233636851,0.11764705882352941
0.0347521745477,0.125
0.0347521745477,0.1323529411764706
0.0354077131941,0.13970588235294118
0.0354077131941,0.14705882352941177
0.0366907346078,0.15441176470588236
0.0366907346078,0.16176470588235295
0.0372740167072,0.16911764705882354
0.0372740167072,0.17647058823529413
0.0372992698183,0.18382352941176472
0.0372992698183,0.19117647058823528
0.0374615032035,0.19852941176470587
0.0374615032035,0.20588235294117646
0.0374849191435,0.21323529411764705
0.0374849191435,0.22058823529411764
0.0377294144738,0.22794117647058823
0.0377294144738,0.23529411764705882
0.0384716571125,0.2426470588235294
0.0384716571125,0.25
0.0385374145919,0.25735294117647056
0.0385374145919,0.2647058823529412
0.0395962427632,0.27205882352941174
0.0395962427632,0.27941176470588236
0.0396919983223,0.2867647058823529
0.0396919983223,0.29411764705882354
0.039961991071,0.3014705882352941
0.039961991071,0.3088235294117647
0.0402070929819,0.3161764705882353
0.0402070929819,0.3235294117647059
0.0408970339718,0.33088235294117646
0.0408970339718,0.3382352941176471
0.0410879984616,0.34558823529411764
0.0410879984616,0.35294117647058826
0.0414598599703,0.3602941176470588
0.0414598599703,0.36764705882352944
0.0424253957994,0.375
0.0424253957994,0.38235294117647056
0.0441379928875,0.3897058823529412
0.0441379928875,0.39705882352941174
0.0441394732905,0.40441176470588236
0.0441394732905,0.4117647058823529
0.0478556709239,0.41911764705882354
0.0478556709239,0.4264705882352941
0.064624806599,0.4338235294117647
0.064624806599,0.4411764705882353
0.960787353119,0.4485294117647059
0.960787353119,0.45588235294117646
1.13074793476,0.4632352941176471
1.13074793476,0.47058823529411764
1.47772250906,0.47794117647058826
1.47772250906,0.4852941176470588
1.4828599033,0.49264705882352944
1.4828599033,0.5
1.50018970362,0.5073529411764706
1.50018970362,0.5147058823529411
1.91948929395,0.5220588235294118
1.91948929395,0.5294117647058824
1.95449998563,0.5367647058823529
1.95449998563,0.5441176470588235
2.27567216239,0.5514705882352942
2.27567216239,0.5588235294117647
2.37601895013,0.5661764705882353
2.37601895013,0.5735294117647058
2.84185747378,0.5808823529411765
2.84185747378,0.5882352941176471
2.93582142032,0.5955882352941176
2.93582142032,0.6029411764705882
3.3150159838,0.6102941176470589
3.3150159838,0.6176470588235294
3.33104197324,0.625
3.33104197324,0.6323529411764706
3.60651185004,0.6397058823529411
3.60651185004,0.6470588235294118
3.9961991071,0.6544117647058824
3.9961991071,0.6617647058823529
4.05754301574,0.6691176470588235
4.05754301574,0.6764705882352942
4.36925760109,0.6838235294117647
4.36925760109,0.6911764705882353
4.46520415947,0.6985294117647058
4.46520415947,0.7058823529411765
4.63169451729,0.7132352941176471
4.63169451729,0.7205882352941176
4.63879723644,0.7279411764705882
4.63879723644,0.7352941176470589
4.74388724561,0.7426470588235294
4.74388724561,0.75
4.78556709239,0.7573529411764706
4.78556709239,0.7647058823529411
5.20764949089,0.7720588235294118
5.20764949089,0.7794117647058824
5.68354410758,0.7867647058823529
5.68354410758,0.7941176470588235
5.68830416199,0.8014705882352942
5.68830416199,0.8088235294117647
6.28371767823,0.8161764705882353
6.28371767823,0.8235294117647058
6.61855853006,0.8308823529411765
6.61855853006,0.8382352941176471
6.93548675017,0.8455882352941176
6.93548675017,0.8529411764705882
7.072781078,0.8602941176470589
7.072781078,0.8676470588235294
7.22906376653,0.875
7.22906376653,0.8823529411764706
7.4639803094,0.8897058823529411
7.4639803094,0.8970588235294118
9.163941248,0.9044117647058824
9.163941248,0.9117647058823529
10.7315562678,0.9191176470588235
10.7315562678,0.9264705882352942
11.0353173969,0.9338235294117647
11.0353173969,0.9411764705882353
13.4328072666,0.9485294117647058
13.4328072666,0.9558823529411765
13.5005194881,0.9632352941176471
13.5005194881,0.9705882352941176
17.6440518424,0.9779411764705882
17.6440518424,0.9852941176470589
20.3345245599,0.9926470588235294
20.3345245599,1.0
