Congestion,CDF
0.0,0.007352941176470588
0.0,0.014705882352941176
0.0,0.022058823529411766
0.0,0.029411764705882353
0.0,0.03676470588235294
0.0,0.04411764705882353
0.0,0.051470588235294115
0.0,0.058823529411764705
0.0,0.0661764705882353
0.0,0.07352941176470588
0.0,0.08088235294117647
0.0,0.08823529411764706
0.0,0.09558823529411764
0.0,0.10294117647058823
6.28894768893e-06,0.11029411764705882
6.28894768893e-06,0.11764705882352941
6.28894768893e-06,0.125
6.28894768893e-06,0.1323529411764706
6.28894768893e-06,0.13970588235294118
6.28894768893e-06,0.14705882352941177
6.28894768893e-06,0.15441176470588236
6.28894768893e-06,0.16176470588235295
6.28894768893e-06,0.16911764705882354
6.28894768893e-06,0.17647058823529413
6.28894768893e-06,0.18382352941176472
6.28894768893e-06,0.19117647058823528
6.28894768893e-06,0.19852941176470587
6.28894768893e-06,0.20588235294117646
6.28894768893e-06,0.21323529411764705
6.28894768893e-06,0.22058823529411764
6.28894768893e-06,0.22794117647058823
6.28894768893e-06,0.23529411764705882
6.28894768893e-06,0.2426470588235294
6.28894768893e-06,0.25
6.28894768893e-06,0.25735294117647056
6.28894768893e-06,0.2647058823529412
6.28894768893e-06,0.27205882352941174
6.28894768893e-06,0.27941176470588236
6.28894768893e-06,0.2867647058823529
6.28894768893e-06,0.29411764705882354
6.28894768893e-06,0.3014705882352941
0.000157223692223,0.3088235294117647
0.000157223692223,0.3161764705882353
0.000169801587601,0.3235294117647059
0.000314447384447,0.33088235294117646
0.000314447384447,0.3382352941176471
0.000314447384447,0.34558823529411764
0.000314447384447,0.35294117647058826
0.00047167107667,0.3602941176470588
0.000524078974078,0.36764705882352944
0.000524078974078,0.375
0.000524078974078,0.38235294117647056
0.000628894768893,0.3897058823529412
0.000628894768893,0.39705882352941174
0.000628894768893,0.40441176470588236
0.000628894768893,0.4117647058823529
0.000628894768893,0.41911764705882354
0.000628894768893,0.4264705882352941
0.000628894768893,0.4338235294117647
0.000774929004352,0.4411764705882353
0.000786118461117,0.4485294117647059
0.00094334215334,0.45588235294117646
0.00094334215334,0.4632352941176471
0.00115297374297,0.47058823529411764
0.00125778953779,0.47794117647058826
0.00125778953779,0.4852941176470588
0.00151334940401,0.49264705882352944
0.00188668430668,0.5
0.00256798697298,0.5073529411764706
0.00455948707448,0.5147058823529411
0.00466430286929,0.5220588235294118
0.00602690820189,0.5294117647058824
0.00749432932931,0.5367647058823529
0.00759914512413,0.5441176470588235
0.0081232240982,0.5514705882352942
0.00822803989302,0.5588235294117647
0.00885693466191,0.5661764705882353
0.0100341534193,0.5735294117647058
0.0102096369787,0.5808823529411765
0.0105158950741,0.5882352941176471
0.0106022868536,0.5955882352941176
0.0106804611736,0.6029411764705882
0.0107236611771,0.6102941176470589
0.0109055510307,0.6176470588235294
0.0109457430317,0.625
0.0109728426642,0.6323529411764706
0.0109839971515,0.6397058823529411
0.0109866226016,0.6470588235294118
0.0109876535982,0.6544117647058824
0.0109884004811,0.6617647058823529
0.0109888510734,0.6691176470588235
0.0109897088697,0.6764705882352942
0.0110022711839,0.6838235294117647
0.0110098791507,0.6911764705882353
0.0110294352938,0.6985294117647058
0.0110379713956,0.7058823529411765
0.0110380141775,0.7132352941176471
0.0110381412242,0.7205882352941176
0.0110381541772,0.7279411764705882
0.0110385232332,0.7352941176470589
0.0110385318693,0.7426470588235294
0.0110385318693,0.75
0.274113197162,0.7573529411764706
0.274721276835,0.7647058823529411
0.275056779597,0.7720588235294118
0.536183058854,0.7794117647058824
0.536183058854,0.7867647058823529
0.550493957537,0.7941176470588235
0.550493957537,0.8014705882352942
0.824163830504,0.8088235294117647
0.916058072469,0.8161764705882353
0.916058072469,0.8235294117647058
0.916058072469,0.8308823529411765
1.06804611736,0.8382352941176471
1.09866226016,0.8455882352941176
1.10022711839,0.8529411764705882
1.10380141775,0.8602941176470589
1.10381541772,0.8676470588235294
1.10385318693,0.875
1.10385318693,0.8823529411764706
1.37348663666,0.8897058823529411
1.58777256627,0.8970588235294118
1.64946484451,0.9044117647058824
2.01063237563,0.9117647058823529
2.12827480272,0.9191176470588235
2.20762954015,0.9264705882352942
3.31155869719,0.9338235294117647
4.48660668443,0.9411764705882353
8.00184357424,0.9485294117647058
8.12397722199,0.9558823529411765
10.5713391336,0.9632352941176471
12.8434399329,0.9705882352941176
12.9209328333,0.9779411764705882
13.3180882446,0.9852941176470589
14.3390519424,0.9926470588235294
14.4903868828,1.0
