Congestion,CDF
0.0013309044703,0.009433962264150943
0.0013309044703,0.018867924528301886
0.00134046839162,0.02830188679245283
0.00134046839162,0.03773584905660377
0.00134166063974,0.04716981132075472
0.00134166063974,0.05660377358490566
0.00134302175572,0.0660377358490566
0.00134302175572,0.07547169811320754
0.00134734354812,0.08490566037735849
0.00134734354812,0.09433962264150944
0.00134943762752,0.10377358490566038
0.00134943762752,0.11320754716981132
0.00135540053404,0.12264150943396226
0.00135540053404,0.1320754716981132
0.0013674912167,0.14150943396226415
0.0013674912167,0.1509433962264151
0.00137681722165,0.16037735849056603
0.00137681722165,0.16981132075471697
0.00137922584543,0.1792452830188679
0.00137922584543,0.18867924528301888
0.00138629967223,0.19811320754716982
0.00138629967223,0.20754716981132076
0.00139714092402,0.2169811320754717
0.00139714092402,0.22641509433962265
0.0013984103664,0.2358490566037736
0.0013984103664,0.24528301886792453
0.00140148354679,0.25471698113207547
0.00140148354679,0.2641509433962264
0.0104788700983,0.27358490566037735
0.0104788700983,0.2830188679245283
0.0136991181205,0.29245283018867924
0.0136991181205,0.3018867924528302
0.0191058245641,0.3113207547169811
0.0191058245641,0.32075471698113206
0.0199436292868,0.330188679245283
0.0199436292868,0.33962264150943394
0.0200807561056,0.3490566037735849
0.0200807561056,0.3584905660377358
0.0206742998673,0.36792452830188677
0.0206742998673,0.37735849056603776
0.023075854083,0.3867924528301887
0.023075854083,0.39622641509433965
0.0231165786661,0.4056603773584906
0.0231165786661,0.41509433962264153
0.023374185057,0.42452830188679247
0.023374185057,0.4339622641509434
0.0245991728365,0.44339622641509435
0.0245991728365,0.4528301886792453
0.026372476669,0.46226415094339623
0.026372476669,0.4716981132075472
0.026869557046,0.4811320754716981
0.026869557046,0.49056603773584906
0.0305423394311,0.5
0.0305423394311,0.5094339622641509
0.0307792158056,0.5188679245283019
0.0307792158056,0.5283018867924528
0.031315447181,0.5377358490566038
0.031315447181,0.5471698113207547
0.03253917814,0.5566037735849056
0.03253917814,0.5660377358490566
0.0325647386785,0.5754716981132075
0.0325647386785,0.5849056603773585
0.0335952890468,0.5943396226415094
0.0335952890468,0.6037735849056604
0.0353825564577,0.6132075471698113
0.0353825564577,0.6226415094339622
0.0365323769493,0.6320754716981132
0.0365323769493,0.6415094339622641
0.0368870445583,0.6509433962264151
0.0368870445583,0.660377358490566
0.0384638718608,0.6698113207547169
0.0384638718608,0.6792452830188679
0.0402189782192,0.6886792452830188
0.0402189782192,0.6981132075471698
0.0430748522064,0.7075471698113207
0.0430748522064,0.7169811320754716
0.0437944886079,0.7264150943396226
0.0437944886079,0.7358490566037735
0.0443241397427,0.7452830188679245
0.0443241397427,0.7547169811320755
0.0476743292664,0.7641509433962265
0.0476743292664,0.7735849056603774
0.0484152633228,0.7830188679245284
0.0484152633228,0.7924528301886793
0.0539254701664,0.8018867924528302
0.0539254701664,0.8113207547169812
0.0549773636647,0.8207547169811321
0.0549773636647,0.8301886792452831
0.0553625029402,0.839622641509434
0.0553625029402,0.8490566037735849
0.0591764475017,0.8584905660377359
0.0591764475017,0.8679245283018868
0.0595706328016,0.8773584905660378
0.0595706328016,0.8867924528301887
0.0597928427207,0.8962264150943396
0.0597928427207,0.9056603773584906
0.0639116901667,0.9150943396226415
0.0639116901667,0.9245283018867925
0.0663385034667,0.9339622641509434
0.0663385034667,0.9433962264150944
0.0701249606709,0.9528301886792453
0.0701249606709,0.9622641509433962
0.0804783846056,0.9716981132075472
0.0804783846056,0.9811320754716981
0.0841796373267,0.9905660377358491
0.0841796373267,1.0
