Congestion,CDF
0.00914430905634,0.005555555555555556
0.00914430905634,0.011111111111111112
0.00983850833663,0.016666666666666666
0.00983850833663,0.022222222222222223
0.0101765019754,0.027777777777777776
0.0101765019754,0.03333333333333333
0.0104595825457,0.03888888888888889
0.0104595825457,0.044444444444444446
0.0104948745077,0.05
0.0104948745077,0.05555555555555555
0.0105424494326,0.06111111111111111
0.0105424494326,0.06666666666666667
0.0106904972539,0.07222222222222222
0.0106904972539,0.07777777777777778
0.010721837336,0.08333333333333333
0.010721837336,0.08888888888888889
0.0108051701407,0.09444444444444444
0.0108051701407,0.1
0.0108053259816,0.10555555555555556
0.0108053259816,0.1111111111111111
0.0108713638619,0.11666666666666667
0.0108713638619,0.12222222222222222
0.010902155969,0.12777777777777777
0.010902155969,0.13333333333333333
0.0109854114114,0.1388888888888889
0.0109854114114,0.14444444444444443
0.0110558069267,0.15
0.0110558069267,0.15555555555555556
0.0111148523722,0.16111111111111112
0.0111148523722,0.16666666666666666
0.0111294033978,0.17222222222222222
0.0111294033978,0.17777777777777778
0.0114043049677,0.18333333333333332
0.0114043049677,0.18888888888888888
0.0114331284591,0.19444444444444445
0.0114331284591,0.2
0.0115106071598,0.20555555555555555
0.0115106071598,0.2111111111111111
0.0115259299942,0.21666666666666667
0.0115259299942,0.2222222222222222
0.0115367605765,0.22777777777777777
0.0115367605765,0.23333333333333334
0.0116085430262,0.2388888888888889
0.0116085430262,0.24444444444444444
0.0116342829988,0.25
0.0116342829988,0.25555555555555554
0.0118301375065,0.2611111111111111
0.0118301375065,0.26666666666666666
0.0119950935559,0.2722222222222222
0.0119950935559,0.2777777777777778
0.0121072906694,0.2833333333333333
0.0121072906694,0.28888888888888886
0.0121367651094,0.29444444444444445
0.0121367651094,0.3
0.0125176277747,0.3055555555555556
0.0125176277747,0.3111111111111111
0.0132828028846,0.31666666666666665
0.0132828028846,0.32222222222222224
0.0133142943062,0.3277777777777778
0.0133142943062,0.3333333333333333
0.0134041138984,0.3388888888888889
0.0134041138984,0.34444444444444444
0.0135343388913,0.35
0.0135343388913,0.35555555555555557
0.0138796286915,0.3611111111111111
0.0138796286915,0.36666666666666664
0.0138905386978,0.37222222222222223
0.0138905386978,0.37777777777777777
0.0139563119131,0.38333333333333336
0.0139563119131,0.3888888888888889
0.0139680860131,0.39444444444444443
0.0139680860131,0.4
0.0141606709684,0.40555555555555556
0.0141606709684,0.4111111111111111
0.0144230248619,0.4166666666666667
0.0144230248619,0.4222222222222222
0.0144303030694,0.42777777777777776
0.0144303030694,0.43333333333333335
0.0146647746528,0.4388888888888889
0.0146647746528,0.4444444444444444
0.28608391974,0.45
0.28608391974,0.45555555555555555
0.358600941354,0.46111111111111114
0.358600941354,0.4666666666666667
0.399347547179,0.4722222222222222
0.399347547179,0.4777777777777778
0.40262480011,0.48333333333333334
0.40262480011,0.4888888888888889
0.733804536219,0.49444444444444446
0.733804536219,0.5
0.792235477427,0.5055555555555555
0.792235477427,0.5111111111111111
0.871583943921,0.5166666666666667
0.871583943921,0.5222222222222223
0.872011078112,0.5277777777777778
0.872011078112,0.5333333333333333
0.993999925906,0.5388888888888889
0.993999925906,0.5444444444444444
1.26140216728,0.55
1.26140216728,0.5555555555555556
1.35941258746,0.5611111111111111
1.35941258746,0.5666666666666667
1.37111583859,0.5722222222222222
1.37111583859,0.5777777777777777
1.37917853425,0.5833333333333334
1.37917853425,0.5888888888888889
1.42994109474,0.5944444444444444
1.42994109474,0.6
1.48970250321,0.6055555555555555
1.48970250321,0.6111111111111112
1.50044897568,0.6166666666666667
1.50044897568,0.6222222222222222
1.51471028236,0.6277777777777778
1.51471028236,0.6333333333333333
1.5722774523,0.6388888888888888
1.5722774523,0.6444444444444445
1.59621562609,0.65
1.59621562609,0.6555555555555556
1.6836074624,0.6611111111111111
1.6836074624,0.6666666666666666
1.70429232725,0.6722222222222223
1.70429232725,0.6777777777777778
1.75656770103,0.6833333333333333
1.75656770103,0.6888888888888889
1.85363020017,0.6944444444444444
1.85363020017,0.7
1.90517581721,0.7055555555555556
1.90517581721,0.7111111111111111
1.92061708544,0.7166666666666667
1.92061708544,0.7222222222222222
2.17190359326,0.7277777777777777
2.17190359326,0.7333333333333333
2.28109800404,0.7388888888888889
2.28109800404,0.7444444444444445
2.81960308863,0.75
2.81960308863,0.7555555555555555
2.86114057721,0.7611111111111111
2.86114057721,0.7666666666666667
3.01301405074,0.7722222222222223
3.01301405074,0.7777777777777778
3.06603011983,0.7833333333333333
3.06603011983,0.7888888888888889
3.30220456964,0.7944444444444444
3.30220456964,0.8
3.37498967669,0.8055555555555556
3.37498967669,0.8111111111111111
3.5767375669,0.8166666666666667
3.5767375669,0.8222222222222222
3.60718247569,0.8277777777777777
3.60718247569,0.8333333333333334
3.62913987572,0.8388888888888889
3.62913987572,0.8444444444444444
4.18758652349,0.85
4.18758652349,0.8555555555555555
4.19419377324,0.8611111111111112
4.19419377324,0.8666666666666667
4.76805574773,0.8722222222222222
4.76805574773,0.8777777777777778
5.01614633495,0.8833333333333333
5.01614633495,0.8888888888888888
5.15262589619,0.8944444444444445
5.15262589619,0.9
5.35927503654,0.9055555555555556
5.35927503654,0.9111111111111111
5.46810868949,0.9166666666666666
5.46810868949,0.9222222222222223
5.91854527549,0.9277777777777778
5.91854527549,0.9333333333333333
6.29354138505,0.9388888888888889
6.29354138505,0.9444444444444444
6.40570896279,0.95
6.40570896279,0.9555555555555556
6.47267474133,0.9611111111111111
6.47267474133,0.9666666666666667
8.06175253323,0.9722222222222222
8.06175253323,0.9777777777777777
8.74240531102,0.9833333333333333
8.74240531102,0.9888888888888889
8.9371264405,0.9944444444444445
8.9371264405,1.0
