Congestion,CDF
0.0,0.007352941176470588
0.0,0.014705882352941176
0.0,0.022058823529411766
0.0,0.029411764705882353
0.0,0.03676470588235294
0.0,0.04411764705882353
0.0,0.051470588235294115
0.0,0.058823529411764705
0.0,0.0661764705882353
0.0,0.07352941176470588
0.0,0.08088235294117647
0.0,0.08823529411764706
0.0,0.09558823529411764
0.0,0.10294117647058823
1.502289441e-05,0.11029411764705882
1.502289441e-05,0.11764705882352941
1.502289441e-05,0.125
1.502289441e-05,0.1323529411764706
1.502289441e-05,0.13970588235294118
1.502289441e-05,0.14705882352941177
1.502289441e-05,0.15441176470588236
1.502289441e-05,0.16176470588235295
1.502289441e-05,0.16911764705882354
1.502289441e-05,0.17647058823529413
1.502289441e-05,0.18382352941176472
1.502289441e-05,0.19117647058823528
1.502289441e-05,0.19852941176470587
1.502289441e-05,0.20588235294117646
1.502289441e-05,0.21323529411764705
1.502289441e-05,0.22058823529411764
1.502289441e-05,0.22794117647058823
1.502289441e-05,0.23529411764705882
1.502289441e-05,0.2426470588235294
1.502289441e-05,0.25
1.502289441e-05,0.25735294117647056
1.502289441e-05,0.2647058823529412
1.502289441e-05,0.27205882352941174
1.502289441e-05,0.27941176470588236
1.502289441e-05,0.2867647058823529
1.502289441e-05,0.29411764705882354
1.502289441e-05,0.3014705882352941
0.000375572360251,0.3088235294117647
0.000375572360251,0.3161764705882353
0.000405618149071,0.3235294117647059
0.000751144720502,0.33088235294117646
0.000751144720502,0.3382352941176471
0.000751144720502,0.34558823529411764
0.000751144720502,0.35294117647058826
0.00112671708075,0.3602941176470588
0.0012519078675,0.36764705882352944
0.0012519078675,0.375
0.0012519078675,0.38235294117647056
0.001502289441,0.3897058823529412
0.001502289441,0.39705882352941174
0.001502289441,0.40441176470588236
0.001502289441,0.4117647058823529
0.001502289441,0.41911764705882354
0.001502289441,0.4264705882352941
0.001502289441,0.4338235294117647
0.00187786180125,0.4411764705882353
0.00225343416151,0.4485294117647059
0.00225343416151,0.45588235294117646
0.00275419730851,0.4632352941176471
0.00300457888201,0.47058823529411764
0.00300457888201,0.47794117647058826
0.00450686832301,0.4852941176470588
0.00613434855076,0.49264705882352944
0.0108915984473,0.5
0.0111419800208,0.5073529411764706
0.0143969404763,0.5147058823529411
0.0179022825053,0.5220588235294118
0.0181526640788,0.5294117647058824
0.0194045719463,0.5367647058823529
0.0196549535198,0.5441176470588235
0.0211572429608,0.5514705882352942
0.0465920152791,0.5588235294117647
0.0471161951027,0.5661764705882353
0.0529365145064,0.5735294117647058
0.053001819627,0.5808823529411765
0.0530885326262,0.5882352941176471
0.053113981788,0.5955882352941176
0.0531343888566,0.6029411764705882
0.0531821419854,0.6102941176470589
0.0532668096608,0.6176470588235294
0.053279058264,0.625
0.0532951559974,0.6323529411764706
0.0533004325872,0.6397058823529411
0.0533008685975,0.6470588235294118
0.0533016450344,0.6544117647058824
0.053302149147,0.6617647058823529
0.053302759896,0.6691176470588235
0.0533033316356,0.6764705882352942
0.0533068466554,0.6838235294117647
0.0533102270413,0.6911764705882353
0.0533198389946,0.6985294117647058
0.053323503717,0.7058823529411765
0.0533235129708,0.7132352941176471
0.0533235556207,0.7205882352941176
0.0533235581968,0.7279411764705882
0.0533239362809,0.7352941176470589
0.0533239379983,0.7426470588235294
0.0533239379983,0.75
1.33254112586,0.7573529411764706
1.33267116639,0.7647058823529411
1.42502065607,0.7720588235294118
2.65910709927,0.7794117647058824
2.65910709927,0.7867647058823529
2.66551135207,0.7941176470588235
2.66551135207,0.8014705882352942
3.99762337758,0.8088235294117647
4.44190791216,0.8161764705882353
4.44190791216,0.8235294117647058
4.44190791216,0.8308823529411765
5.31343888566,0.8382352941176471
5.3302759896,0.8455882352941176
5.33068466554,0.8529411764705882
5.33235129708,0.8602941176470589
5.33235581968,0.8676470588235294
5.33239379983,0.875
5.33239379983,0.8823529411764706
6.66287428943,0.8897058823529411
7.96796036188,0.8970588235294118
7.99555461078,0.9044117647058824
9.76981373857,0.9117647058823529
10.6248370645,0.9191176470588235
10.6647113817,0.9264705882352942
15.9971812278,0.9338235294117647
21.7652731059,0.9411764705882353
38.6592654447,0.9485294117647058
39.5208749098,0.9558823529411765
51.0986686084,0.9632352941176471
63.4073237868,0.9705882352941176
64.4237388189,0.9779411764705882
68.0665253147,0.9852941176470589
69.7239207816,0.9926470588235294
74.4355402919,1.0
