Congestion,CDF
0.0,0.007352941176470588
0.0,0.014705882352941176
0.0,0.022058823529411766
0.0,0.029411764705882353
0.0,0.03676470588235294
0.0,0.04411764705882353
0.0,0.051470588235294115
0.0,0.058823529411764705
0.0,0.0661764705882353
0.0,0.07352941176470588
0.0,0.08088235294117647
0.0,0.08823529411764706
0.0,0.09558823529411764
0.0,0.10294117647058823
1.54002223318e-05,0.11029411764705882
1.54002223318e-05,0.11764705882352941
1.54002223318e-05,0.125
1.54002223318e-05,0.1323529411764706
1.54002223318e-05,0.13970588235294118
1.54002223318e-05,0.14705882352941177
1.54002223318e-05,0.15441176470588236
1.54002223318e-05,0.16176470588235295
1.54002223318e-05,0.16911764705882354
1.54002223318e-05,0.17647058823529413
1.54002223318e-05,0.18382352941176472
1.54002223318e-05,0.19117647058823528
1.54002223318e-05,0.19852941176470587
1.54002223318e-05,0.20588235294117646
1.54002223318e-05,0.21323529411764705
1.54002223318e-05,0.22058823529411764
1.54002223318e-05,0.22794117647058823
1.54002223318e-05,0.23529411764705882
1.54002223318e-05,0.2426470588235294
1.54002223318e-05,0.25
1.54002223318e-05,0.25735294117647056
1.54002223318e-05,0.2647058823529412
1.54002223318e-05,0.27205882352941174
1.54002223318e-05,0.27941176470588236
1.54002223318e-05,0.2867647058823529
1.54002223318e-05,0.29411764705882354
1.54002223318e-05,0.3014705882352941
0.000385005558294,0.3088235294117647
0.000385005558294,0.3161764705882353
0.000415806002958,0.3235294117647059
0.000609849415474,0.33088235294117646
0.000770011116589,0.3382352941176471
0.000770011116589,0.34558823529411764
0.000770011116589,0.35294117647058826
0.000770011116589,0.3602941176470588
0.00115501667488,0.36764705882352944
0.00128335186098,0.375
0.00128335186098,0.38235294117647056
0.00128335186098,0.3897058823529412
0.00136851937456,0.39705882352941174
0.00154002223318,0.40441176470588236
0.00154002223318,0.4117647058823529
0.00154002223318,0.41911764705882354
0.00154002223318,0.4264705882352941
0.00154002223318,0.4338235294117647
0.00154002223318,0.4411764705882353
0.00154002223318,0.4485294117647059
0.00192502779147,0.45588235294117646
0.00231003334977,0.4632352941176471
0.00231003334977,0.47058823529411764
0.00282337409416,0.47794117647058826
0.00308004446636,0.4852941176470588
0.00308004446636,0.49264705882352944
0.00462006669953,0.5
0.00628842411881,0.5073529411764706
0.0111651611905,0.5147058823529411
0.0114218315627,0.5220588235294118
0.0132158841987,0.5294117647058824
0.013364014456,0.5367647058823529
0.0137220688532,0.5441176470588235
0.0137793008285,0.5514705882352942
0.01385319316,0.5588235294117647
0.0138806556312,0.5661764705882353
0.0140019849977,0.5735294117647058
0.0140338843544,0.5808823529411765
0.0140430957584,0.5882352941176471
0.0140576186811,0.5955882352941176
0.0140600174384,0.6029411764705882
0.0140603566943,0.6102941176470589
0.0140614164211,0.6176470588235294
0.0140624060969,0.625
0.0140632416564,0.6323529411764706
0.0140671041555,0.6397058823529411
0.0140692925755,0.6470588235294118
0.0140802127607,0.6544117647058824
0.0140844301564,0.6617647058823529
0.0140844584413,0.6691176470588235
0.0140845110516,0.6764705882352942
0.0140845182365,0.6838235294117647
0.014084895032,0.6911764705882353
0.014084899822,0.6985294117647058
0.014084899822,0.7058823529411765
0.0147585464013,0.7132352941176471
0.018351931612,0.7205882352941176
0.0186086019842,0.7279411764705882
0.0198919538452,0.7352941176470589
0.0201486242174,0.7426470588235294
0.0216886464506,0.75
0.35104673007,0.7573529411764706
0.351535410528,0.7647058823529411
0.351677603887,0.7720588235294118
0.69403278156,0.7794117647058824
0.69403278156,0.7867647058823529
0.703464628777,0.7941176470588235
0.703464628777,0.8014705882352942
1.05460623158,0.8088235294117647
1.17188026236,0.8161764705882353
1.17188026236,0.8235294117647058
1.17188026236,0.8308823529411765
1.385319316,0.8382352941176471
1.40624060969,0.8455882352941176
1.40671041555,0.8529411764705882
1.40844584413,0.8602941176470589
1.40845182365,0.8676470588235294
1.4084899822,0.875
1.4084899822,0.8823529411764706
1.75785957617,0.8897058823529411
2.06623966688,0.8970588235294118
2.10922649689,0.9044117647058824
2.5752686978,0.9117647058823529
2.76324939885,0.9191176470588235
2.81690292881,0.9264705882352942
4.2254694676,0.9338235294117647
5.74201611765,0.9411764705882353
10.2109388601,0.9485294117647058
10.4115160968,0.9558823529411765
13.4943050273,0.9632352941176471
16.5625935824,0.9705882352941176
16.6994455198,0.9779411764705882
17.0078411,0.9852941176470589
18.3442425456,0.9926470588235294
18.4052274872,1.0
