Congestion,CDF
0.0,0.007352941176470588
0.0,0.014705882352941176
0.0,0.022058823529411766
0.0,0.029411764705882353
0.0,0.03676470588235294
0.0,0.04411764705882353
0.0,0.051470588235294115
0.0,0.058823529411764705
0.0,0.0661764705882353
0.0,0.07352941176470588
0.0,0.08088235294117647
0.0,0.08823529411764706
0.0,0.09558823529411764
0.0,0.10294117647058823
1.52361227929e-05,0.11029411764705882
1.52361227929e-05,0.11764705882352941
1.52361227929e-05,0.125
1.52361227929e-05,0.1323529411764706
1.52361227929e-05,0.13970588235294118
1.52361227929e-05,0.14705882352941177
1.52361227929e-05,0.15441176470588236
1.52361227929e-05,0.16176470588235295
1.52361227929e-05,0.16911764705882354
1.52361227929e-05,0.17647058823529413
1.52361227929e-05,0.18382352941176472
1.52361227929e-05,0.19117647058823528
1.52361227929e-05,0.19852941176470587
1.52361227929e-05,0.20588235294117646
1.52361227929e-05,0.21323529411764705
1.52361227929e-05,0.22058823529411764
1.52361227929e-05,0.22794117647058823
1.52361227929e-05,0.23529411764705882
1.52361227929e-05,0.2426470588235294
1.52361227929e-05,0.25
1.52361227929e-05,0.25735294117647056
1.52361227929e-05,0.2647058823529412
1.52361227929e-05,0.27205882352941174
1.52361227929e-05,0.27941176470588236
1.52361227929e-05,0.2867647058823529
1.52361227929e-05,0.29411764705882354
1.52361227929e-05,0.3014705882352941
0.000380903069822,0.3088235294117647
0.000380903069822,0.3161764705882353
0.000411375315408,0.3235294117647059
0.000761806139645,0.33088235294117646
0.000761806139645,0.3382352941176471
0.000761806139645,0.34558823529411764
0.000761806139645,0.35294117647058826
0.00114270920947,0.3602941176470588
0.00126967689941,0.36764705882352944
0.00126967689941,0.375
0.00126967689941,0.38235294117647056
0.00152361227929,0.3897058823529412
0.00152361227929,0.39705882352941174
0.00152361227929,0.40441176470588236
0.00152361227929,0.4117647058823529
0.00152361227929,0.41911764705882354
0.00152361227929,0.4264705882352941
0.00152361227929,0.4338235294117647
0.00190451534911,0.4411764705882353
0.00228541841893,0.4485294117647059
0.00228541841893,0.45588235294117646
0.0027932891787,0.4632352941176471
0.00304722455858,0.47058823529411764
0.00304722455858,0.47794117647058826
0.00457083683787,0.4852941176470588
0.0062214168071,0.49264705882352944
0.0110461890248,0.5
0.0113001244047,0.5073529411764706
0.0146012843432,0.5147058823529411
0.0171912205195,0.5220588235294118
0.0173701124768,0.5294117647058824
0.0181563796615,0.5367647058823529
0.0184103150414,0.5441176470588235
0.0191445123332,0.5514705882352942
0.0191858530545,0.5588235294117647
0.019189061526,0.5661764705882353
0.0192059148514,0.5735294117647058
0.0192106802587,0.5808823529411765
0.019264316821,0.5882352941176471
0.0193398395166,0.5955882352941176
0.0193466084751,0.6029411764705882
0.0193647611446,0.6102941176470589
0.0193673131495,0.6176470588235294
0.0193674166458,0.625
0.0193679294723,0.6323529411764706
0.0193688756,0.6397058823529411
0.0193690975526,0.6470588235294118
0.019369612709,0.6544117647058824
0.0193730334732,0.6617647058823529
0.0193767265835,0.6691176470588235
0.0193860391961,0.6764705882352942
0.0193895668835,0.6838235294117647
0.0193895714435,0.6911764705882353
0.0193896122189,0.6985294117647058
0.0193896137868,0.7058823529411765
0.0193899922543,0.7132352941176471
0.0193899932996,0.7205882352941176
0.0193899932996,0.7279411764705882
0.0196799919408,0.7352941176470589
0.0199339273207,0.7426470588235294
0.0214575396,0.75
0.484198236808,0.7573529411764706
0.484325836829,0.7647058823529411
0.517887268546,0.7720588235294118
0.963215841048,0.7794117647058824
0.963215841048,0.7867647058823529
0.968836329177,0.7941176470588235
0.968836329177,0.8014705882352942
1.45259471042,0.8088235294117647
1.61410117862,0.8161764705882353
1.61410117862,0.8235294117647058
1.61410117862,0.8308823529411765
1.92106802587,0.8382352941176471
1.93690975526,0.8455882352941176
1.93730334732,0.8529411764705882
1.93895714435,0.8602941176470589
1.93896137868,0.8676470588235294
1.93899932996,0.875
1.93899932996,0.8823529411764706
2.42115950771,0.8897058823529411
2.88212199365,0.8970588235294118
2.90557799376,0.9044117647058824
3.54876202613,0.9117647058823529
3.84165951101,0.9191176470588235
3.87792260057,0.9264705882352942
5.81699788536,0.9338235294117647
7.90905800158,0.9411764705882353
14.0571601555,0.9485294117647058
14.3550198204,0.9558823529411765
18.5787015829,0.9632352941176471
22.9932525584,0.9705882352941176
23.4207556911,0.9779411764705882
24.7123746104,0.9852941176470589
25.3393409965,0.9926470588235294
27.0763522442,1.0
