Congestion,CDF
0.0,0.007352941176470588
0.0,0.014705882352941176
0.0,0.022058823529411766
0.0,0.029411764705882353
0.0,0.03676470588235294
0.0,0.04411764705882353
0.0,0.051470588235294115
0.0,0.058823529411764705
0.0,0.0661764705882353
0.0,0.07352941176470588
0.0,0.08088235294117647
0.0,0.08823529411764706
0.0,0.09558823529411764
0.0,0.10294117647058823
1.52588133177e-05,0.11029411764705882
1.52588133177e-05,0.11764705882352941
1.52588133177e-05,0.125
1.52588133177e-05,0.1323529411764706
1.52588133177e-05,0.13970588235294118
1.52588133177e-05,0.14705882352941177
1.52588133177e-05,0.15441176470588236
1.52588133177e-05,0.16176470588235295
1.52588133177e-05,0.16911764705882354
1.52588133177e-05,0.17647058823529413
1.52588133177e-05,0.18382352941176472
1.52588133177e-05,0.19117647058823528
1.52588133177e-05,0.19852941176470587
1.52588133177e-05,0.20588235294117646
1.52588133177e-05,0.21323529411764705
1.52588133177e-05,0.22058823529411764
1.52588133177e-05,0.22794117647058823
1.52588133177e-05,0.23529411764705882
1.52588133177e-05,0.2426470588235294
1.52588133177e-05,0.25
1.52588133177e-05,0.25735294117647056
1.52588133177e-05,0.2647058823529412
1.52588133177e-05,0.27205882352941174
1.52588133177e-05,0.27941176470588236
1.52588133177e-05,0.2867647058823529
1.52588133177e-05,0.29411764705882354
1.52588133177e-05,0.3014705882352941
0.000381470332942,0.3088235294117647
0.000381470332942,0.3161764705882353
0.000411987959577,0.3235294117647059
0.000762940665884,0.33088235294117646
0.000762940665884,0.3382352941176471
0.000762940665884,0.34558823529411764
0.000762940665884,0.35294117647058826
0.00114441099883,0.3602941176470588
0.00127156777647,0.36764705882352944
0.00127156777647,0.375
0.00127156777647,0.38235294117647056
0.00152588133177,0.3897058823529412
0.00152588133177,0.39705882352941174
0.00152588133177,0.40441176470588236
0.00152588133177,0.4117647058823529
0.00152588133177,0.41911764705882354
0.00152588133177,0.4264705882352941
0.00152588133177,0.4338235294117647
0.00190735166471,0.4411764705882353
0.00228882199765,0.4485294117647059
0.00228882199765,0.45588235294117646
0.00279744910824,0.4632352941176471
0.00305176266353,0.47058823529411764
0.00305176266353,0.47794117647058826
0.00332906826086,0.4852941176470588
0.00430797906519,0.49264705882352944
0.0045776439953,0.5
0.00623068210472,0.5073529411764706
0.0110626396553,0.5147058823529411
0.0113169532106,0.5220588235294118
0.0146230294294,0.5294117647058824
0.0181834192036,0.5367647058823529
0.0184377327589,0.5441176470588235
0.0184511593892,0.5514705882352942
0.018578826614,0.5588235294117647
0.0188874674496,0.5661764705882353
0.0189329180095,0.5735294117647058
0.0189923540638,0.5808823529411765
0.0190273817766,0.5882352941176471
0.0191296883744,0.5955882352941176
0.0191550722477,0.6029411764705882
0.0191660398958,0.6102941176470589
0.0191776260798,0.6176470588235294
0.0191792613096,0.625
0.0191798632355,0.6323529411764706
0.0191803675471,0.6397058823529411
0.0191813464361,0.6470588235294118
0.0191820209305,0.6544117647058824
0.0191857363619,0.6617647058823529
0.0191885108386,0.6691176470588235
0.0191986408402,0.6764705882352942
0.0192025888234,0.6838235294117647
0.0192026073839,0.6911764705882353
0.0192026529974,0.6985294117647058
0.0192026573375,0.7058823529411765
0.0192030346455,0.7132352941176471
0.019203037539,0.7205882352941176
0.019203037539,0.7279411764705882
0.0197093005353,0.7352941176470589
0.0199636140906,0.7426470588235294
0.0214894954224,0.75
0.479509188677,0.7573529411764706
0.479643409047,0.7647058823529411
0.485030944992,0.7720588235294118
0.95136908883,0.7794117647058824
0.95136908883,0.7867647058823529
0.959425541928,0.7941176470588235
0.959425541928,0.8014705882352942
1.43852756603,0.8088235294117647
1.59846130804,0.8161764705882353
1.59846130804,0.8235294117647058
1.59846130804,0.8308823529411765
1.89923540638,0.8382352941176471
1.91813464361,0.8455882352941176
1.91857363619,0.8529411764705882
1.92026073839,0.8602941176470589
1.92026573375,0.8676470588235294
1.9203037539,0.875
1.9203037539,0.8823529411764706
2.39771128172,0.8897058823529411
2.84011583379,0.8970588235294118
2.87718814991,0.9044117647058824
3.51396853282,0.9117647058823529
3.79252720734,0.9191176470588235
3.84053103349,0.9264705882352942
5.76091097234,0.9338235294117647
7.83229355693,0.9411764705882353
13.9216050356,0.9485294117647058
14.210600016,0.9558823529411765
18.3993559696,0.9632352941176471
22.6883589961,0.9705882352941176
23.0212658221,0.9779411764705882
23.1931481091,0.9852941176470589
25.0510307705,0.9926470588235294
25.481828677,1.0
