Congestion,CDF
0.00641453998532,0.007352941176470588
0.00641453998532,0.014705882352941176
0.00641453998532,0.022058823529411766
0.00641453998532,0.029411764705882353
0.00643103975684,0.03676470588235294
0.00643103975684,0.04411764705882353
0.00655746954872,0.051470588235294115
0.00655746954872,0.058823529411764705
0.00667584955771,0.0661764705882353
0.00667584955771,0.07352941176470588
0.00679789689867,0.08088235294117647
0.00679789689867,0.08823529411764706
0.00681294988417,0.09558823529411764
0.00681294988417,0.10294117647058823
0.00717923027892,0.11029411764705882
0.00717923027892,0.11764705882352941
0.00718258591002,0.125
0.00718258591002,0.1323529411764706
0.00720804494232,0.13970588235294118
0.00720804494232,0.14705882352941177
0.00720804494232,0.15441176470588236
0.00720804494232,0.16176470588235295
0.00728361016238,0.16911764705882354
0.00728361016238,0.17647058823529413
0.00741207795841,0.18382352941176472
0.00741207795841,0.19117647058823528
0.00763681090896,0.19852941176470587
0.00763681090896,0.20588235294117646
0.00781912557387,0.21323529411764705
0.00781912557387,0.22058823529411764
0.00785521252382,0.22794117647058823
0.00785521252382,0.23529411764705882
0.00811278023396,0.2426470588235294
0.00811278023396,0.25
0.00811278023396,0.25735294117647056
0.00811278023396,0.2647058823529412
0.00819795730045,0.27205882352941174
0.00819795730045,0.27941176470588236
0.00853875401187,0.2867647058823529
0.00853875401187,0.29411764705882354
0.0085529597633,0.3014705882352941
0.0085529597633,0.3088235294117647
0.00867763053486,0.3161764705882353
0.00867763053486,0.3235294117647059
0.00892307931561,0.33088235294117646
0.00892307931561,0.3382352941176471
0.00914461497695,0.34558823529411764
0.00914461497695,0.35294117647058826
0.00936510920042,0.3602941176470588
0.00936510920042,0.36764705882352944
0.0102304011029,0.375
0.0102304011029,0.38235294117647056
0.0103992672201,0.3897058823529412
0.0103992672201,0.39705882352941174
0.0103992672201,0.40441176470588236
0.0103992672201,0.4117647058823529
0.0358633105717,0.41911764705882354
0.0358633105717,0.4264705882352941
0.0831351852486,0.4338235294117647
0.0831351852486,0.4411764705882353
0.182986734875,0.4485294117647059
0.182986734875,0.45588235294117646
0.255095443163,0.4632352941176471
0.255095443163,0.47058823529411764
0.267144057623,0.47794117647058826
0.267144057623,0.4852941176470588
0.302767836096,0.49264705882352944
0.302767836096,0.5
0.347605965805,0.5073529411764706
0.347605965805,0.5147058823529411
0.399428886151,0.5220588235294118
0.399428886151,0.5294117647058824
0.458844548772,0.5367647058823529
0.458844548772,0.5441176470588235
0.463610202889,0.5514705882352942
0.463610202889,0.5588235294117647
0.470434619836,0.5661764705882353
0.470434619836,0.5735294117647058
0.532400343845,0.5808823529411765
0.532400343845,0.5882352941176471
0.545413050303,0.5955882352941176
0.545413050303,0.6029411764705882
0.625720306745,0.6102941176470589
0.625720306745,0.6176470588235294
0.638230085304,0.625
0.638230085304,0.6323529411764706
0.643926379296,0.6397058823529411
0.643926379296,0.6470588235294118
0.685619193659,0.6544117647058824
0.685619193659,0.6617647058823529
0.734531577273,0.6691176470588235
0.734531577273,0.6764705882352942
0.854936813747,0.6838235294117647
0.854936813747,0.6911764705882353
0.867853185095,0.6985294117647058
0.867853185095,0.7058823529411765
0.905850192453,0.7132352941176471
0.905850192453,0.7205882352941176
0.916221930712,0.7279411764705882
0.916221930712,0.7352941176470589
0.918094747936,0.7426470588235294
0.918094747936,0.75
0.951286325822,0.7573529411764706
0.951286325822,0.7647058823529411
0.989821369079,0.7720588235294118
0.989821369079,0.7794117647058824
1.01163154618,0.7867647058823529
1.01163154618,0.7941176470588235
1.03992672201,0.8014705882352942
1.03992672201,0.8088235294117647
1.07666495476,0.8161764705882353
1.07666495476,0.8235294117647058
1.12265281147,0.8308823529411765
1.12265281147,0.8382352941176471
1.26517550463,0.8455882352941176
1.26517550463,0.8529411764705882
1.2719517461,0.8602941176470589
1.2719517461,0.8676470588235294
1.30655390435,0.875
1.30655390435,0.8823529411764706
1.45549261848,0.8897058823529411
1.45549261848,0.8970588235294118
1.62367267945,0.9044117647058824
1.62367267945,0.9117647058823529
1.98746453467,0.9191176470588235
1.98746453467,0.9264705882352942
2.30613342607,0.9338235294117647
2.30613342607,0.9411764705882353
2.5185895704,0.9485294117647058
2.5185895704,0.9558823529411765
2.91216843734,0.9632352941176471
2.91216843734,0.9705882352941176
3.83084428146,0.9779411764705882
3.83084428146,0.9852941176470589
4.39921103218,0.9926470588235294
4.39921103218,1.0
