Congestion,CDF
0.0,0.007352941176470588
0.0,0.014705882352941176
0.0,0.022058823529411766
0.0,0.029411764705882353
0.00459587189617,0.03676470588235294
0.00459587189617,0.04411764705882353
0.00502160924494,0.051470588235294115
0.00502160924494,0.058823529411764705
0.00532846841497,0.0661764705882353
0.00532846841497,0.07352941176470588
0.00544042577978,0.08088235294117647
0.00544042577978,0.08823529411764706
0.00576010198116,0.09558823529411764
0.00576010198116,0.10294117647058823
0.00598613253017,0.11029411764705882
0.00598613253017,0.11764705882352941
0.00642759029307,0.125
0.00642759029307,0.1323529411764706
0.00664114364864,0.13970588235294118
0.00664114364864,0.14705882352941177
0.00716078942983,0.15441176470588236
0.00716078942983,0.16176470588235295
0.00738718172144,0.16911764705882354
0.00738718172144,0.17647058823529413
0.00760840678228,0.18382352941176472
0.00760840678228,0.19117647058823528
0.00766117149418,0.19852941176470587
0.00766117149418,0.20588235294117646
0.00767493167957,0.21323529411764705
0.00767493167957,0.22058823529411764
0.00773082354958,0.22794117647058823
0.00773082354958,0.23529411764705882
0.00784763600485,0.2426470588235294
0.00784763600485,0.25
0.00799086993938,0.25735294117647056
0.00799086993938,0.2647058823529412
0.00816459277323,0.27205882352941174
0.00816459277323,0.27941176470588236
0.00846261390911,0.2867647058823529
0.00846261390911,0.29411764705882354
0.00945500317892,0.3014705882352941
0.00945500317892,0.3088235294117647
0.0104138733388,0.3161764705882353
0.0104138733388,0.3235294117647059
0.0106713851222,0.33088235294117646
0.0106713851222,0.3382352941176471
0.0114992694649,0.34558823529411764
0.0114992694649,0.35294117647058826
0.0129156255692,0.3602941176470588
0.0129156255692,0.36764705882352944
0.0144449586193,0.375
0.0144449586193,0.38235294117647056
0.015891009792,0.3897058823529412
0.015891009792,0.39705882352941174
0.0190075817096,0.40441176470588236
0.0190075817096,0.4117647058823529
0.019958931702,0.41911764705882354
0.019958931702,0.4264705882352941
0.0205480323607,0.4338235294117647
0.0205480323607,0.4411764705882353
0.0322116402438,0.4485294117647059
0.0322116402438,0.45588235294117646
0.032258080401,0.4632352941176471
0.032258080401,0.47058823529411764
0.16990096941,0.47794117647058826
0.16990096941,0.4852941176470588
0.196992453587,0.49264705882352944
0.196992453587,0.5
0.272021288989,0.5073529411764706
0.272021288989,0.5147058823529411
0.272021288989,0.5220588235294118
0.272021288989,0.5294117647058824
0.312627895351,0.5367647058823529
0.312627895351,0.5441176470588235
0.363538343279,0.5514705882352942
0.363538343279,0.5588235294117647
0.42513414909,0.5661764705882353
0.42513414909,0.5735294117647058
0.452809064123,0.5808823529411765
0.452809064123,0.5882352941176471
0.550307007087,0.5955882352941176
0.550307007087,0.6029411764705882
0.608582279176,0.6102941176470589
0.608582279176,0.6176470588235294
0.630871333418,0.625
0.630871333418,0.6323529411764706
0.701715922976,0.6397058823529411
0.701715922976,0.6470588235294118
0.702158062145,0.6544117647058824
0.702158062145,0.6617647058823529
0.735235087556,0.6691176470588235
0.735235087556,0.6764705882352942
0.738718172144,0.6838235294117647
0.738718172144,0.6911764705882353
0.831298634181,0.6985294117647058
0.831298634181,0.7058823529411765
0.913288677648,0.7132352941176471
0.913288677648,0.7205882352941176
0.914780318296,0.7279411764705882
0.914780318296,0.7352941176470589
1.03635223382,0.7426470588235294
1.03635223382,0.75
1.07079950505,0.7573529411764706
1.07079950505,0.7647058823529411
1.07124164422,0.7720588235294118
1.07124164422,0.7794117647058824
1.52484145587,0.7867647058823529
1.52484145587,0.7941176470588235
1.5891009792,0.8014705882352942
1.5891009792,0.8088235294117647
1.96476431113,0.8161764705882353
1.96476431113,0.8235294117647058
1.9958931702,0.8308823529411765
1.9958931702,0.8382352941176471
2.05480323607,0.8455882352941176
2.05480323607,0.8529411764705882
2.06321562413,0.8602941176470589
2.06321562413,0.8676470588235294
2.07546447414,0.875
2.07546447414,0.8823529411764706
2.3761276098,0.8897058823529411
2.3761276098,0.8970588235294118
2.72096894578,0.9044117647058824
2.72096894578,0.9117647058823529
3.04866703966,0.9191176470588235
3.04866703966,0.9264705882352942
3.71894774451,0.9338235294117647
3.71894774451,0.9411764705882353
4.16946187054,0.9485294117647058
4.16946187054,0.9558823529411765
5.95145457722,0.9632352941176471
5.95145457722,0.9705882352941176
7.47091957881,0.9779411764705882
7.47091957881,0.9852941176470589
8.85391640427,0.9926470588235294
8.85391640427,1.0
