Congestion,CDF
0.0179118237547,0.005555555555555556
0.0179118237547,0.011111111111111112
0.0185080824663,0.016666666666666666
0.0185080824663,0.022222222222222223
0.018546409246,0.027777777777777776
0.018546409246,0.03333333333333333
0.018751665266,0.03888888888888889
0.018751665266,0.044444444444444446
0.0189348204972,0.05
0.0189348204972,0.05555555555555555
0.0191435669792,0.06111111111111111
0.0191435669792,0.06666666666666667
0.0194144947553,0.07222222222222222
0.0194144947553,0.07777777777777778
0.019506799444,0.08333333333333333
0.019506799444,0.08888888888888889
0.0195453783147,0.09444444444444444
0.0195453783147,0.1
0.0196058434693,0.10555555555555556
0.0196058434693,0.1111111111111111
0.0197379313531,0.11666666666666667
0.0197379313531,0.12222222222222222
0.0197438579463,0.12777777777777777
0.0197438579463,0.13333333333333333
0.019755526709,0.1388888888888889
0.019755526709,0.14444444444444443
0.019796548952,0.15
0.019796548952,0.15555555555555556
0.0198238832761,0.16111111111111112
0.0198238832761,0.16666666666666666
0.0198653209872,0.17222222222222222
0.0198653209872,0.17777777777777778
0.0201148196855,0.18333333333333332
0.0201148196855,0.18888888888888888
0.020136193127,0.19444444444444445
0.020136193127,0.2
0.0201639757809,0.20555555555555555
0.0201639757809,0.2111111111111111
0.020344851014,0.21666666666666667
0.020344851014,0.2222222222222222
0.0206786948926,0.22777777777777777
0.0206786948926,0.23333333333333334
0.0208787786591,0.2388888888888889
0.0208787786591,0.24444444444444444
0.0210039395082,0.25
0.0210039395082,0.25555555555555554
0.0211102706688,0.2611111111111111
0.0211102706688,0.26666666666666666
0.0213420929938,0.2722222222222222
0.0213420929938,0.2777777777777778
0.0216168129873,0.2833333333333333
0.0216168129873,0.28888888888888886
0.0217466334983,0.29444444444444445
0.0217466334983,0.3
0.0217944390121,0.3055555555555556
0.0217944390121,0.3111111111111111
0.0220016167986,0.31666666666666665
0.0220016167986,0.32222222222222224
0.0220868916685,0.3277777777777778
0.0220868916685,0.3333333333333333
0.0221623839477,0.3388888888888889
0.0221623839477,0.34444444444444444
0.0224240976976,0.35
0.0224240976976,0.35555555555555557
0.0224925918874,0.3611111111111111
0.0224925918874,0.36666666666666664
0.0225996141959,0.37222222222222223
0.0225996141959,0.37777777777777777
0.0228275447057,0.38333333333333336
0.0228275447057,0.3888888888888889
0.023121133665,0.39444444444444443
0.023121133665,0.4
0.0233123328464,0.40555555555555556
0.0233123328464,0.4111111111111111
0.0233404569357,0.4166666666666667
0.0233404569357,0.4222222222222222
0.0236281606962,0.42777777777777776
0.0236281606962,0.43333333333333335
0.0237604887418,0.4388888888888889
0.0237604887418,0.4444444444444444
0.555974248608,0.45
0.555974248608,0.45555555555555555
0.679123317974,0.46111111111111114
0.679123317974,0.4666666666666667
0.70715740121,0.4722222222222222
0.70715740121,0.4777777777777778
0.738355896293,0.48333333333333334
0.738355896293,0.4888888888888889
1.24541830823,0.49444444444444446
1.24541830823,0.5
1.44622222235,0.5055555555555555
1.44622222235,0.5111111111111111
1.60849298864,0.5166666666666667
1.60849298864,0.5222222222222223
1.64951620563,0.5277777777777778
1.64951620563,0.5333333333333333
1.95376339241,0.5388888888888889
1.95376339241,0.5444444444444444
2.29200142953,0.55
2.29200142953,0.5555555555555556
2.30575426314,0.5611111111111111
2.30575426314,0.5666666666666667
2.44865725301,0.5722222222222222
2.44865725301,0.5777777777777777
2.50464939713,0.5833333333333334
2.50464939713,0.5888888888888889
2.55727004524,0.5944444444444444
2.55727004524,0.6
2.57781077104,0.6055555555555555
2.57781077104,0.6111111111111112
2.64973392818,0.6166666666666667
2.64973392818,0.6222222222222222
2.72554044585,0.6277777777777778
2.72554044585,0.6333333333333333
2.85054441926,0.6388888888888888
2.85054441926,0.6444444444444445
2.86490046743,0.65
2.86490046743,0.6555555555555556
3.01941398931,0.6611111111111111
3.01941398931,0.6666666666666666
3.04057432102,0.6722222222222223
3.04057432102,0.6777777777777778
3.04315721691,0.6833333333333333
3.04315721691,0.6888888888888889
3.19152598571,0.6944444444444444
3.19152598571,0.7
3.28724749894,0.7055555555555556
3.28724749894,0.7111111111111111
3.36559961247,0.7166666666666667
3.36559961247,0.7222222222222222
3.46735952079,0.7277777777777777
3.46735952079,0.7333333333333333
3.68926173396,0.7388888888888889
3.68926173396,0.7444444444444445
4.51004699914,0.75
4.51004699914,0.7555555555555555
4.67323519116,0.7611111111111111
4.67323519116,0.7666666666666667
4.73916535076,0.7722222222222223
4.73916535076,0.7777777777777778
5.07067649848,0.7833333333333333
5.07067649848,0.7888888888888889
5.21834038473,0.7944444444444444
5.21834038473,0.8
5.36822349127,0.8055555555555556
5.36822349127,0.8111111111111111
5.65441160932,0.8166666666666667
5.65441160932,0.8222222222222222
5.65875021489,0.8277777777777777
5.65875021489,0.8333333333333334
5.94127986836,0.8388888888888889
5.94127986836,0.8444444444444444
6.58227381148,0.85
6.58227381148,0.8555555555555555
6.97102315469,0.8611111111111112
6.97102315469,0.8666666666666667
7.27576922892,0.8722222222222222
7.27576922892,0.8777777777777778
7.64028891288,0.8833333333333333
7.64028891288,0.8888888888888888
8.01904628632,0.8944444444444445
8.01904628632,0.9
8.18566828767,0.9055555555555556
8.18566828767,0.9111111111111111
8.66673963175,0.9166666666666666
8.66673963175,0.9222222222222223
8.95761641412,0.9277777777777778
8.95761641412,0.9333333333333333
9.83466621746,0.9388888888888889
9.83466621746,0.9444444444444444
9.97232435262,0.95
9.97232435262,0.9555555555555556
10.3091406353,0.9611111111111111
10.3091406353,0.9666666666666667
12.0389767374,0.9722222222222222
12.0389767374,0.9777777777777777
13.0510983262,0.9833333333333333
13.0510983262,0.9888888888888889
13.497764109,0.9944444444444445
13.497764109,1.0
