Congestion,CDF
0.018761482975,0.005555555555555556
0.018761482975,0.011111111111111112
0.0193829166171,0.016666666666666666
0.0193829166171,0.022222222222222223
0.0195410020855,0.027777777777777776
0.0195410020855,0.03333333333333333
0.0197880007148,0.03888888888888889
0.0197880007148,0.044444444444444446
0.0199489468196,0.05
0.0199489468196,0.05555555555555555
0.0200103751619,0.06111111111111111
0.0200103751619,0.06666666666666667
0.0203641332475,0.07222222222222222
0.0203641332475,0.07777777777777778
0.0204114640221,0.08333333333333333
0.0204114640221,0.08888888888888889
0.0204246307835,0.09444444444444444
0.0204246307835,0.1
0.0205124157793,0.10555555555555556
0.0205124157793,0.1111111111111111
0.0205378902701,0.11666666666666667
0.0205378902701,0.12222222222222222
0.0205942352619,0.12777777777777777
0.0205942352619,0.13333333333333333
0.0206296108041,0.1388888888888889
0.0206296108041,0.14444444444444443
0.0206513134263,0.15
0.0206513134263,0.15555555555555556
0.0207528201467,0.16111111111111112
0.0207528201467,0.16666666666666666
0.0208289003832,0.17222222222222222
0.0208289003832,0.17777777777777778
0.0209034337186,0.18333333333333332
0.0209034337186,0.18888888888888888
0.0209662826607,0.19444444444444445
0.0209662826607,0.2
0.0210566285624,0.20555555555555555
0.0210566285624,0.2111111111111111
0.0212148288389,0.21666666666666667
0.0212148288389,0.2222222222222222
0.0214763187783,0.22777777777777777
0.0214763187783,0.23333333333333334
0.0217191565684,0.2388888888888889
0.0217191565684,0.24444444444444444
0.0218014034539,0.25
0.0218014034539,0.25555555555555554
0.0218302900585,0.2611111111111111
0.0218302900585,0.26666666666666666
0.022121961317,0.2722222222222222
0.022121961317,0.2777777777777778
0.0223642835746,0.2833333333333333
0.0223642835746,0.28888888888888886
0.02247008063,0.29444444444444445
0.02247008063,0.3
0.0224885641898,0.3055555555555556
0.0224885641898,0.3111111111111111
0.0227495128902,0.31666666666666665
0.0227495128902,0.32222222222222224
0.0228241916028,0.3277777777777778
0.0228241916028,0.3333333333333333
0.0229038207535,0.3388888888888889
0.0229038207535,0.34444444444444444
0.0231634208921,0.35
0.0231634208921,0.35555555555555557
0.0231699394502,0.3611111111111111
0.0231699394502,0.36666666666666664
0.0233512489505,0.37222222222222223
0.0233512489505,0.37777777777777777
0.0235341832364,0.38333333333333336
0.0235341832364,0.3888888888888889
0.0238328576452,0.39444444444444443
0.0238328576452,0.4
0.0240356316052,0.40555555555555556
0.0240356316052,0.4111111111111111
0.024056732803,0.4166666666666667
0.024056732803,0.4222222222222222
0.0243298301698,0.42777777777777776
0.0243298301698,0.43333333333333335
0.0244121944429,0.4388888888888889
0.0244121944429,0.4444444444444444
0.603309814582,0.45
0.603309814582,0.45555555555555555
0.71176938719,0.46111111111111114
0.71176938719,0.4666666666666667
0.772613351959,0.4722222222222222
0.772613351959,0.4777777777777778
0.824024173747,0.48333333333333334
0.824024173747,0.4888888888888889
1.31464894946,0.49444444444444446
1.31464894946,0.5
1.55017331171,0.5055555555555555
1.55017331171,0.5111111111111111
1.67858469195,0.5166666666666667
1.67858469195,0.5222222222222223
1.719653504,0.5277777777777778
1.719653504,0.5333333333333333
2.03707717897,0.5388888888888889
2.03707717897,0.5444444444444444
2.37019653718,0.55
2.37019653718,0.5555555555555556
2.38448215495,0.5611111111111111
2.38448215495,0.5666666666666667
2.53141916856,0.5722222222222222
2.53141916856,0.5777777777777777
2.58506294897,0.5833333333333334
2.58506294897,0.5888888888888889
2.65791243683,0.5944444444444444
2.65791243683,0.6
2.67665218104,0.6055555555555555
2.67665218104,0.6111111111111112
2.75402904356,0.6166666666666667
2.75402904356,0.6222222222222222
2.82531051524,0.6277777777777778
2.82531051524,0.6333333333333333
2.95059001907,0.6388888888888888
2.95059001907,0.6444444444444445
2.96572972775,0.65
2.96572972775,0.6555555555555556
3.12910225927,0.6611111111111111
3.12910225927,0.6666666666666666
3.13336067359,0.6722222222222223
3.13336067359,0.6777777777777778
3.14531740441,0.6833333333333333
3.14531740441,0.6888888888888889
3.30234720306,0.6944444444444444
3.30234720306,0.7
3.4083183606,0.7055555555555556
3.4083183606,0.7111111111111111
3.4682360117,0.7166666666666667
3.4682360117,0.7222222222222222
3.56264578931,0.7277777777777777
3.56264578931,0.7333333333333333
3.79576240495,0.7388888888888889
3.79576240495,0.7444444444444445
4.63030465605,0.75
4.63030465605,0.7555555555555555
4.7974736372,0.7611111111111111
4.7974736372,0.7666666666666667
4.86020581074,0.7722222222222223
4.86020581074,0.7777777777777778
5.21174928188,0.7833333333333333
5.21174928188,0.7888888888888889
5.34491787318,0.7944444444444444
5.34491787318,0.8
5.51269604897,0.8055555555555556
5.51269604897,0.8111111111111111
5.79288050242,0.8166666666666667
5.79288050242,0.8222222222222222
5.80709417246,0.8277777777777777
5.80709417246,0.8333333333333334
6.09725971141,0.8388888888888889
6.09725971141,0.8444444444444444
6.74177610433,0.85
6.74177610433,0.8555555555555555
7.16633238955,0.8611111111111112
7.16633238955,0.8666666666666667
7.44430362274,0.8722222222222222
7.44430362274,0.8777777777777778
7.82646697674,0.8833333333333333
7.82646697674,0.8888888888888888
8.20955100496,0.8944444444444445
8.20955100496,0.9
8.38562553728,0.9055555555555556
8.38562553728,0.9111111111111111
8.88406937754,0.9166666666666666
8.88406937754,0.9222222222222223
9.17194210331,0.9277777777777778
9.17194210331,0.9333333333333333
10.075332817,0.9388888888888889
10.075332817,0.9444444444444444
10.2260736344,0.95
10.2260736344,0.9555555555555556
10.569324064,0.9611111111111111
10.569324064,0.9666666666666667
12.3017518357,0.9722222222222222
12.3017518357,0.9777777777777777
13.3350737913,0.9833333333333333
13.3350737913,0.9888888888888889
13.7976556506,0.9944444444444445
13.7976556506,1.0
