Congestion,CDF
0.00452716180449,0.005555555555555556
0.00452716180449,0.011111111111111112
0.00518751183202,0.016666666666666666
0.00518751183202,0.022222222222222223
0.00522764563255,0.027777777777777776
0.00522764563255,0.03333333333333333
0.00544409815041,0.03888888888888889
0.00544409815041,0.044444444444444446
0.00549715474854,0.05
0.00549715474854,0.05555555555555555
0.00580656821308,0.06111111111111111
0.00580656821308,0.06666666666666667
0.00580735891924,0.07222222222222222
0.00580735891924,0.07777777777777778
0.0058519113637,0.08333333333333333
0.0058519113637,0.08888888888888889
0.00609627456431,0.09444444444444444
0.00609627456431,0.1
0.0061741596315,0.10555555555555556
0.0061741596315,0.1111111111111111
0.0061764900033,0.11666666666666667
0.0061764900033,0.12222222222222222
0.00622069589286,0.12777777777777777
0.00622069589286,0.13333333333333333
0.00632407356077,0.1388888888888889
0.00632407356077,0.14444444444444443
0.00633370589188,0.15
0.00633370589188,0.15555555555555556
0.00654556493606,0.16111111111111112
0.00654556493606,0.16666666666666666
0.00668534880253,0.17222222222222222
0.00668534880253,0.17777777777777778
0.00671666537279,0.18333333333333332
0.00671666537279,0.18888888888888888
0.00676636294221,0.19444444444444445
0.00676636294221,0.2
0.00677448396948,0.20555555555555555
0.00677448396948,0.2111111111111111
0.00698418221385,0.21666666666666667
0.00698418221385,0.2222222222222222
0.0070810909483,0.22777777777777777
0.0070810909483,0.23333333333333334
0.0070846780693,0.2388888888888889
0.0070846780693,0.24444444444444444
0.00714734527409,0.25
0.00714734527409,0.25555555555555554
0.00719683785523,0.2611111111111111
0.00719683785523,0.26666666666666666
0.00729362929145,0.2722222222222222
0.00729362929145,0.2777777777777778
0.00733090779673,0.2833333333333333
0.00733090779673,0.28888888888888886
0.00761410685623,0.29444444444444445
0.00761410685623,0.3
0.00770869175014,0.3055555555555556
0.00770869175014,0.3111111111111111
0.00789236442546,0.31666666666666665
0.00789236442546,0.32222222222222224
0.00848042386815,0.3277777777777778
0.00848042386815,0.3333333333333333
0.00852420721561,0.3388888888888889
0.00852420721561,0.34444444444444444
0.00870036222,0.35
0.00870036222,0.35555555555555557
0.00885570065415,0.3611111111111111
0.00885570065415,0.36666666666666664
0.00893167658765,0.37222222222222223
0.00893167658765,0.37777777777777777
0.00898602025609,0.38333333333333336
0.00898602025609,0.3888888888888889
0.00912610159988,0.39444444444444443
0.00912610159988,0.4
0.00922003905921,0.40555555555555556
0.00922003905921,0.4111111111111111
0.00942776573301,0.4166666666666667
0.00942776573301,0.4222222222222222
0.00975791275606,0.42777777777777776
0.00975791275606,0.43333333333333335
0.0101158619202,0.4388888888888889
0.0101158619202,0.4444444444444444
0.143356664745,0.45
0.143356664745,0.45555555555555555
0.220535192047,0.46111111111111114
0.220535192047,0.4666666666666667
0.246702613408,0.4722222222222222
0.246702613408,0.4777777777777778
0.251557731755,0.48333333333333334
0.251557731755,0.4888888888888889
0.409031147702,0.49444444444444446
0.409031147702,0.5
0.442056151407,0.5055555555555555
0.442056151407,0.5111111111111111
0.48466362979,0.5166666666666667
0.48466362979,0.5222222222222223
0.498703762096,0.5277777777777778
0.498703762096,0.5333333333333333
0.499089118267,0.5388888888888889
0.499089118267,0.5444444444444444
0.592912312764,0.55
0.592912312764,0.5555555555555556
0.72248215499,0.5611111111111111
0.72248215499,0.5666666666666667
0.735240717377,0.5722222222222222
0.735240717377,0.5777777777777777
0.753398601215,0.5833333333333334
0.753398601215,0.5888888888888889
0.762970484167,0.5944444444444444
0.762970484167,0.6
0.767784237291,0.6055555555555555
0.767784237291,0.6111111111111112
0.794170692006,0.6166666666666667
0.794170692006,0.6222222222222222
0.819838705605,0.6277777777777778
0.819838705605,0.6333333333333333
0.873732225242,0.6388888888888888
0.873732225242,0.6444444444444445
0.984897569923,0.65
0.984897569923,0.6555555555555556
0.987548253062,0.6611111111111111
0.987548253062,0.6666666666666666
1.00977163459,0.6722222222222223
1.00977163459,0.6777777777777778
1.05681850801,0.6833333333333333
1.05681850801,0.6888888888888889
1.07145284426,0.6944444444444444
1.07145284426,0.7
1.09661264501,0.7055555555555556
1.09661264501,0.7111111111111111
1.23859205032,0.7166666666666667
1.23859205032,0.7222222222222222
1.40472433193,0.7277777777777777
1.40472433193,0.7333333333333333
1.48930037801,0.7388888888888889
1.48930037801,0.7444444444444445
1.73893667243,0.75
1.73893667243,0.7555555555555555
1.76514752527,0.7611111111111111
1.76514752527,0.7666666666666667
1.78404121942,0.7722222222222223
1.78404121942,0.7777777777777778
1.9731021564,0.7833333333333333
1.9731021564,0.7888888888888889
2.22500596237,0.7944444444444444
2.22500596237,0.8
2.22607182131,0.8055555555555556
2.22607182131,0.8111111111111111
2.25160529173,0.8166666666666667
2.25160529173,0.8222222222222222
2.34721832308,0.8277777777777777
2.34721832308,0.8333333333333334
2.44301559103,0.8388888888888889
2.44301559103,0.8444444444444444
2.48992154112,0.85
2.48992154112,0.8555555555555555
2.79305802907,0.8611111111111112
2.79305802907,0.8666666666666667
3.29351750432,0.8722222222222222
3.29351750432,0.8777777777777778
3.31746983692,0.8833333333333333
3.31746983692,0.8888888888888888
3.37884635342,0.8944444444444445
3.37884635342,0.9
3.42870101183,0.9055555555555556
3.42870101183,0.9111111111111111
3.44195400123,0.9166666666666666
3.44195400123,0.9222222222222223
3.79348752029,0.9277777777777778
3.79348752029,0.9333333333333333
3.84181683302,0.9388888888888889
3.84181683302,0.9444444444444444
3.8760171992,0.95
3.8760171992,0.9555555555555556
4.10456254919,0.9611111111111111
4.10456254919,0.9666666666666667
5.76901116171,0.9722222222222222
5.76901116171,0.9777777777777777
6.22486366771,0.9833333333333333
6.22486366771,0.9888888888888889
6.23525554983,0.9944444444444445
6.23525554983,1.0
