Congestion,CDF
0.0122032183248,0.005555555555555556
0.0122032183248,0.011111111111111112
0.0128683834201,0.016666666666666666
0.0128683834201,0.022222222222222223
0.0135065436381,0.027777777777777776
0.0135065436381,0.03333333333333333
0.0135325688215,0.03888888888888889
0.0135325688215,0.044444444444444446
0.0136323758725,0.05
0.0136323758725,0.05555555555555555
0.0136936610643,0.06111111111111111
0.0136936610643,0.06666666666666667
0.0138361835135,0.07222222222222222
0.0138361835135,0.07777777777777778
0.0138764831443,0.08333333333333333
0.0138764831443,0.08888888888888889
0.0139356759157,0.09444444444444444
0.0139356759157,0.1
0.0139814067277,0.10555555555555556
0.0139814067277,0.1111111111111111
0.0140462138847,0.11666666666666667
0.0140462138847,0.12222222222222222
0.01405047222,0.12777777777777777
0.01405047222,0.13333333333333333
0.014103332696,0.1388888888888889
0.014103332696,0.14444444444444443
0.0142551319446,0.15
0.0142551319446,0.15555555555555556
0.0142685813235,0.16111111111111112
0.0142685813235,0.16666666666666666
0.0143341606622,0.17222222222222222
0.0143341606622,0.17777777777777778
0.0144837652459,0.18333333333333332
0.0144837652459,0.18888888888888888
0.0144885821113,0.19444444444444445
0.0144885821113,0.2
0.0144925455614,0.20555555555555555
0.0144925455614,0.2111111111111111
0.0145897973941,0.21666666666666667
0.0145897973941,0.2222222222222222
0.014618653041,0.22777777777777777
0.014618653041,0.23333333333333334
0.0146651156103,0.2388888888888889
0.0146651156103,0.24444444444444444
0.0148295004494,0.25
0.0148295004494,0.25555555555555554
0.0150381361637,0.2611111111111111
0.0150381361637,0.26666666666666666
0.0154169570828,0.2722222222222222
0.0154169570828,0.2777777777777778
0.0154985834003,0.2833333333333333
0.0154985834003,0.28888888888888886
0.0158056737845,0.29444444444444445
0.0158056737845,0.3
0.0158342237732,0.3055555555555556
0.0158342237732,0.3111111111111111
0.0164089180481,0.31666666666666665
0.0164089180481,0.32222222222222224
0.0164277918973,0.3277777777777778
0.0164277918973,0.3333333333333333
0.0165731576317,0.3388888888888889
0.0165731576317,0.34444444444444444
0.0167190993369,0.35
0.0167190993369,0.35555555555555557
0.0171627901861,0.3611111111111111
0.0171627901861,0.36666666666666664
0.0171686268389,0.37222222222222223
0.0171686268389,0.37777777777777777
0.0172544975843,0.38333333333333336
0.0172544975843,0.3888888888888889
0.0174379508988,0.39444444444444443
0.0174379508988,0.4
0.0175015460387,0.40555555555555556
0.0175015460387,0.4111111111111111
0.0178828631977,0.4166666666666667
0.0178828631977,0.4222222222222222
0.0179348917272,0.42777777777777776
0.0179348917272,0.43333333333333335
0.0180941441825,0.4388888888888889
0.0180941441825,0.4444444444444444
0.379017142563,0.45
0.379017142563,0.45555555555555555
0.470844580029,0.46111111111111114
0.470844580029,0.4666666666666667
0.50328787599,0.4722222222222222
0.50328787599,0.4777777777777778
0.504020596349,0.48333333333333334
0.504020596349,0.4888888888888889
0.913111327258,0.49444444444444446
0.913111327258,0.5
0.997551626283,0.5055555555555555
0.997551626283,0.5111111111111111
1.12559065561,0.5166666666666667
1.12559065561,0.5222222222222223
1.14958185503,0.5277777777777778
1.14958185503,0.5333333333333333
1.31971250332,0.5388888888888889
1.31971250332,0.5444444444444444
1.65766830287,0.55
1.65766830287,0.5555555555555556
1.68566540135,0.5611111111111111
1.68566540135,0.5666666666666667
1.77700375104,0.5722222222222222
1.77700375104,0.5777777777777777
1.78573630378,0.5833333333333334
1.78573630378,0.5888888888888889
1.87699427844,0.5944444444444444
1.87699427844,0.6
1.88295537615,0.6055555555555555
1.88295537615,0.6111111111111112
1.90587398003,0.6166666666666667
1.90587398003,0.6222222222222222
1.95379462497,0.6277777777777778
1.95379462497,0.6333333333333333
2.0063489981,0.6388888888888888
2.0063489981,0.6444444444444445
2.11382069042,0.65
2.11382069042,0.6555555555555556
2.11780473788,0.6611111111111111
2.11780473788,0.6666666666666666
2.26723365384,0.6722222222222223
2.26723365384,0.6777777777777778
2.27506190666,0.6833333333333333
2.27506190666,0.6888888888888889
2.29655159224,0.6944444444444444
2.29655159224,0.7
2.36746977522,0.7055555555555556
2.36746977522,0.7111111111111111
2.48917459671,0.7166666666666667
2.48917459671,0.7222222222222222
2.67439843188,0.7277777777777777
2.67439843188,0.7333333333333333
2.78995658222,0.7388888888888889
2.78995658222,0.7444444444444445
3.4665909163,0.75
3.4665909163,0.7555555555555555
3.58748201682,0.7611111111111111
3.58748201682,0.7666666666666667
3.68781085443,0.7722222222222223
3.68781085443,0.7777777777777778
3.83398133625,0.7833333333333333
3.83398133625,0.7888888888888889
4.10853653706,0.7944444444444444
4.10853653706,0.8
4.11467157291,0.8055555555555556
4.11467157291,0.8111111111111111
4.35374406624,0.8166666666666667
4.35374406624,0.8222222222222222
4.43910167048,0.8277777777777777
4.43910167048,0.8333333333333334
4.55340363893,0.8388888888888889
4.55340363893,0.8444444444444444
5.16607591898,0.85
5.16607591898,0.8555555555555555
5.24642323175,0.8611111111111112
5.24642323175,0.8666666666666667
5.78036813329,0.8722222222222222
5.78036813329,0.8777777777777778
5.98382993446,0.8833333333333333
5.98382993446,0.8888888888888888
6.31703603753,0.8944444444444445
6.31703603753,0.9
6.40176221088,0.9055555555555556
6.40176221088,0.9111111111111111
6.71652322517,0.9166666666666666
6.71652322517,0.9222222222222223
7.03856768968,0.9277777777777778
7.03856768968,0.9333333333333333
7.67477306283,0.9388888888888889
7.67477306283,0.9444444444444444
7.68433161459,0.95
7.68433161459,0.9555555555555556
7.95399393534,0.9611111111111111
7.95399393534,0.9666666666666667
9.68363111329,0.9722222222222222
9.68363111329,0.9777777777777777
10.5023092506,0.9833333333333333
10.5023092506,0.9888888888888889
10.8014765786,0.9944444444444445
10.8014765786,1.0
