Congestion,CDF
0.00973587910596,0.005555555555555556
0.00973587910596,0.011111111111111112
0.0102239358293,0.016666666666666666
0.0102239358293,0.022222222222222223
0.0108351678243,0.027777777777777776
0.0108351678243,0.03333333333333333
0.0110189297267,0.03888888888888889
0.0110189297267,0.044444444444444446
0.0110486354268,0.05
0.0110486354268,0.05555555555555555
0.0110610082951,0.06111111111111111
0.0110610082951,0.06666666666666667
0.0110930822267,0.07222222222222222
0.0110930822267,0.07777777777777778
0.0111315719055,0.08333333333333333
0.0111315719055,0.08888888888888889
0.0112708125751,0.09444444444444444
0.0112708125751,0.1
0.0113113915325,0.10555555555555556
0.0113113915325,0.1111111111111111
0.0113173757221,0.11666666666666667
0.0113173757221,0.12222222222222222
0.0113490050438,0.12777777777777777
0.0113490050438,0.13333333333333333
0.0114345023252,0.1388888888888889
0.0114345023252,0.14444444444444443
0.011439184404,0.15
0.011439184404,0.15555555555555556
0.0117299001829,0.16111111111111112
0.0117299001829,0.16666666666666666
0.0118210065188,0.17222222222222222
0.0118210065188,0.17777777777777778
0.0118704454672,0.18333333333333332
0.0118704454672,0.18888888888888888
0.011917305069,0.19444444444444445
0.011917305069,0.2
0.0119400866183,0.20555555555555555
0.0119400866183,0.2111111111111111
0.011961336106,0.21666666666666667
0.011961336106,0.2222222222222222
0.0119881872188,0.22777777777777777
0.0119881872188,0.23333333333333334
0.0120144686556,0.2388888888888889
0.0120144686556,0.24444444444444444
0.0122647013291,0.25
0.0122647013291,0.25555555555555554
0.0123083744353,0.2611111111111111
0.0123083744353,0.26666666666666666
0.0124623160672,0.2722222222222222
0.0124623160672,0.2777777777777778
0.0124666898925,0.2833333333333333
0.0124666898925,0.28888888888888886
0.0125218680884,0.29444444444444445
0.0125218680884,0.3
0.0125379421332,0.3055555555555556
0.0125379421332,0.3111111111111111
0.0128455680812,0.31666666666666665
0.0128455680812,0.32222222222222224
0.0128859264361,0.3277777777777778
0.0128859264361,0.3333333333333333
0.0129680938381,0.3388888888888889
0.0129680938381,0.34444444444444444
0.0129825090704,0.35
0.0129825090704,0.35555555555555557
0.0132225099645,0.3611111111111111
0.0132225099645,0.36666666666666664
0.0134345651477,0.37222222222222223
0.0134345651477,0.37777777777777777
0.0134503205587,0.38333333333333336
0.0134503205587,0.3888888888888889
0.0137346750862,0.39444444444444443
0.0137346750862,0.4
0.0139818713177,0.40555555555555556
0.0139818713177,0.4111111111111111
0.0140060911822,0.4166666666666667
0.0140060911822,0.4222222222222222
0.0140788369446,0.42777777777777776
0.0140788369446,0.43333333333333335
0.0142061364183,0.4388888888888889
0.0142061364183,0.4444444444444444
0.334364612339,0.45
0.334364612339,0.45555555555555555
0.405063066858,0.46111111111111114
0.405063066858,0.4666666666666667
0.43900990526,0.4722222222222222
0.43900990526,0.4777777777777778
0.477455237689,0.48333333333333334
0.477455237689,0.4888888888888889
0.76891130031,0.49444444444444446
0.76891130031,0.5
0.858436976851,0.5055555555555555
0.858436976851,0.5111111111111111
0.892963766448,0.5166666666666667
0.892963766448,0.5222222222222223
0.908636198799,0.5277777777777778
0.908636198799,0.5333333333333333
1.02726016318,0.5388888888888889
1.02726016318,0.5444444444444444
1.25956926579,0.55
1.25956926579,0.5555555555555556
1.27714330671,0.5611111111111111
1.27714330671,0.5666666666666667
1.3833207864,0.5722222222222222
1.3833207864,0.5777777777777777
1.39810365724,0.5833333333333334
1.39810365724,0.5888888888888889
1.4487768401,0.5944444444444444
1.4487768401,0.6
1.49768553044,0.6055555555555555
1.49768553044,0.6111111111111112
1.50456968978,0.6166666666666667
1.50456968978,0.6222222222222222
1.50543188576,0.6277777777777778
1.50543188576,0.6333333333333333
1.55926336157,0.6388888888888888
1.55926336157,0.6444444444444445
1.65825368661,0.65
1.65825368661,0.6555555555555556
1.67604528077,0.6611111111111111
1.67604528077,0.6666666666666666
1.72441215468,0.6722222222222223
1.72441215468,0.6777777777777778
1.74900855891,0.6833333333333333
1.74900855891,0.6888888888888889
1.82388162571,0.6944444444444444
1.82388162571,0.7
1.85206996027,0.7055555555555556
1.85206996027,0.7111111111111111
1.86113480886,0.7166666666666667
1.86113480886,0.7222222222222222
2.07946913886,0.7277777777777777
2.07946913886,0.7333333333333333
2.09455773957,0.7388888888888889
2.09455773957,0.7444444444444445
2.60396199681,0.75
2.60396199681,0.7555555555555555
2.69236543128,0.7611111111111111
2.69236543128,0.7666666666666667
2.78328674321,0.7722222222222223
2.78328674321,0.7777777777777778
2.940305925,0.7833333333333333
2.940305925,0.7888888888888889
3.16803569719,0.7944444444444444
3.16803569719,0.8
3.21802369856,0.8055555555555556
3.21802369856,0.8111111111111111
3.26741260327,0.8166666666666667
3.26741260327,0.8222222222222222
3.38345486753,0.8277777777777777
3.38345486753,0.8333333333333334
3.49767375961,0.8388888888888889
3.49767375961,0.8444444444444444
3.96742478009,0.85
3.96742478009,0.8555555555555555
4.03033452268,0.8611111111111112
4.03033452268,0.8666666666666667
4.42991020687,0.8722222222222222
4.42991020687,0.8777777777777778
4.53116150449,0.8833333333333333
4.53116150449,0.8888888888888888
4.75269099258,0.8944444444444445
4.75269099258,0.9
4.84397766782,0.9055555555555556
4.84397766782,0.9111111111111111
5.08431994655,0.9166666666666666
5.08431994655,0.9222222222222223
5.22912213449,0.9277777777777778
5.22912213449,0.9333333333333333
5.75395349026,0.9388888888888889
5.75395349026,0.9444444444444444
5.82304028267,0.95
5.82304028267,0.9555555555555556
5.99274492301,0.9611111111111111
5.99274492301,0.9666666666666667
7.44216316792,0.9722222222222222
7.44216316792,0.9777777777777777
8.06105114501,0.9833333333333333
8.06105114501,0.9888888888888889
8.27283346899,0.9944444444444445
8.27283346899,1.0
