Congestion,CDF
0.0031183646656,0.005555555555555556
0.0031183646656,0.011111111111111112
0.00377562570563,0.016666666666666666
0.00377562570563,0.022222222222222223
0.0038407213034,0.027777777777777776
0.0038407213034,0.03333333333333333
0.00409351915494,0.03888888888888889
0.00409351915494,0.044444444444444446
0.00416743874213,0.05
0.00416743874213,0.05555555555555555
0.00435678339506,0.06111111111111111
0.00435678339506,0.06666666666666667
0.00451511157362,0.07222222222222222
0.00451511157362,0.07777777777777778
0.00458804930596,0.08333333333333333
0.00458804930596,0.08888888888888889
0.00463573946533,0.09444444444444444
0.00463573946533,0.1
0.00466623194388,0.10555555555555556
0.00466623194388,0.1111111111111111
0.00468067835442,0.11666666666666667
0.00468067835442,0.12222222222222222
0.00484171367496,0.12777777777777777
0.00484171367496,0.13333333333333333
0.00487892016531,0.1388888888888889
0.00487892016531,0.14444444444444443
0.00494832390569,0.15
0.00494832390569,0.15555555555555556
0.0050467495351,0.16111111111111112
0.0050467495351,0.16666666666666666
0.00521489282738,0.17222222222222222
0.00521489282738,0.17777777777777778
0.00527467409685,0.18333333333333332
0.00527467409685,0.18888888888888888
0.00534832412429,0.19444444444444445
0.00534832412429,0.2
0.00535968304386,0.20555555555555555
0.00535968304386,0.2111111111111111
0.00553339423079,0.21666666666666667
0.00553339423079,0.2222222222222222
0.00556070134128,0.22777777777777777
0.00556070134128,0.23333333333333334
0.0056984948907,0.2388888888888889
0.0056984948907,0.24444444444444444
0.00570449518978,0.25
0.00570449518978,0.25555555555555554
0.00572894549889,0.2611111111111111
0.00572894549889,0.26666666666666666
0.00579373419698,0.2722222222222222
0.00579373419698,0.2777777777777778
0.00596973808505,0.2833333333333333
0.00596973808505,0.28888888888888886
0.00598082924121,0.29444444444444445
0.00598082924121,0.3
0.00617535405954,0.3055555555555556
0.00617535405954,0.3111111111111111
0.00649936668391,0.31666666666666665
0.00649936668391,0.32222222222222224
0.00700536444604,0.3277777777777778
0.00700536444604,0.3333333333333333
0.00701078971956,0.3388888888888889
0.00701078971956,0.34444444444444444
0.00705499122079,0.35
0.00705499122079,0.35555555555555557
0.00721658341139,0.3611111111111111
0.00721658341139,0.36666666666666664
0.00727048820407,0.37222222222222223
0.00727048820407,0.37777777777777777
0.00745251023742,0.38333333333333336
0.00745251023742,0.3888888888888889
0.00753631618974,0.39444444444444443
0.00753631618974,0.4
0.00767226966579,0.40555555555555556
0.00767226966579,0.4111111111111111
0.00793706497151,0.4166666666666667
0.00793706497151,0.4222222222222222
0.00822663227547,0.42777777777777776
0.00822663227547,0.43333333333333335
0.00858826660274,0.4388888888888889
0.00858826660274,0.4444444444444444
0.10243889089,0.45
0.10243889089,0.45555555555555555
0.18201921617,0.46111111111111114
0.18201921617,0.4666666666666667
0.192930787082,0.4722222222222222
0.192930787082,0.4777777777777778
0.198989309277,0.48333333333333334
0.198989309277,0.4888888888888889
0.269400539733,0.49444444444444446
0.269400539733,0.5
0.32372474531,0.5055555555555555
0.32372474531,0.5111111111111111
0.358369955808,0.5166666666666667
0.358369955808,0.5222222222222223
0.367786337198,0.5277777777777778
0.367786337198,0.5333333333333333
0.421481950628,0.5388888888888889
0.421481950628,0.5444444444444444
0.42548803571,0.55
0.42548803571,0.5555555555555556
0.513053305701,0.5611111111111111
0.513053305701,0.5666666666666667
0.52226730435,0.5722222222222222
0.52226730435,0.5777777777777777
0.54202424347,0.5833333333333334
0.54202424347,0.5888888888888889
0.560738350968,0.5944444444444444
0.560738350968,0.6
0.583968806901,0.6055555555555555
0.583968806901,0.6111111111111112
0.585697646915,0.6166666666666667
0.585697646915,0.6222222222222222
0.658202723141,0.6277777777777778
0.658202723141,0.6333333333333333
0.68201516997,0.6388888888888888
0.68201516997,0.6444444444444445
0.752058111322,0.65
0.752058111322,0.6555555555555556
0.795083112928,0.6611111111111111
0.795083112928,0.6666666666666666
0.818334133936,0.6722222222222223
0.818334133936,0.6777777777777778
0.828399698821,0.6833333333333333
0.828399698821,0.6888888888888889
0.831955884562,0.6944444444444444
0.831955884562,0.7
0.840520043754,0.7055555555555556
0.840520043754,0.7111111111111111
1.03233562739,0.7166666666666667
1.03233562739,0.7222222222222222
1.1395513774,0.7277777777777777
1.1395513774,0.7333333333333333
1.2630401619,0.7388888888888889
1.2630401619,0.7444444444444445
1.34602302485,0.75
1.34602302485,0.7555555555555555
1.34988898156,0.7611111111111111
1.34988898156,0.7666666666666667
1.46144699686,0.7722222222222223
1.46144699686,0.7777777777777778
1.63232399971,0.7833333333333333
1.63232399971,0.7888888888888889
1.81064828433,0.7944444444444444
1.81064828433,0.8
1.84505049948,0.8055555555555556
1.84505049948,0.8111111111111111
1.86087610284,0.8166666666666667
1.86087610284,0.8222222222222222
1.95417078434,0.8277777777777777
1.95417078434,0.8333333333333334
2.00186708775,0.8388888888888889
2.00186708775,0.8444444444444444
2.04464288333,0.85
2.04464288333,0.8555555555555555
2.31673847481,0.8611111111111112
2.31673847481,0.8666666666666667
2.68462137448,0.8722222222222222
2.68462137448,0.8777777777777778
2.74630288019,0.8833333333333333
2.74630288019,0.8888888888888888
2.81277997235,0.8944444444444445
2.81277997235,0.9
2.82453031529,0.9055555555555556
2.82453031529,0.9111111111111111
2.85446924878,0.9166666666666666
2.85446924878,0.9222222222222223
2.98101126696,0.9277777777777778
2.98101126696,0.9333333333333333
3.1105276281,0.9388888888888889
3.1105276281,0.9444444444444444
3.14256722422,0.95
3.14256722422,0.9555555555555556
3.38349063829,0.9611111111111111
3.38349063829,0.9666666666666667
4.97150803618,0.9722222222222222
4.97150803618,0.9777777777777777
5.27273289486,0.9833333333333333
5.27273289486,0.9888888888888889
5.34224562279,0.9944444444444445
5.34224562279,1.0
