Congestion,CDF
0.000768888206983,0.005555555555555556
0.000768888206983,0.011111111111111112
0.00101973307603,0.016666666666666666
0.00101973307603,0.022222222222222223
0.00129687267447,0.027777777777777776
0.00129687267447,0.03333333333333333
0.00145672811603,0.03888888888888889
0.00145672811603,0.044444444444444446
0.00153541091252,0.05
0.00153541091252,0.05555555555555555
0.00166655814749,0.06111111111111111
0.00166655814749,0.06666666666666667
0.00179582958183,0.07222222222222222
0.00179582958183,0.07777777777777778
0.00196667010633,0.08333333333333333
0.00196667010633,0.08888888888888889
0.00204206515715,0.09444444444444444
0.00204206515715,0.1
0.00219306551466,0.10555555555555556
0.00219306551466,0.1111111111111111
0.00223324990426,0.11666666666666667
0.00223324990426,0.12222222222222222
0.00237787608054,0.12777777777777777
0.00237787608054,0.13333333333333333
0.0024678784411,0.1388888888888889
0.0024678784411,0.14444444444444443
0.00248333087622,0.15
0.00248333087622,0.15555555555555556
0.00254641425744,0.16111111111111112
0.00254641425744,0.16666666666666666
0.00255708391372,0.17222222222222222
0.00255708391372,0.17777777777777778
0.00258927277719,0.18333333333333332
0.00258927277719,0.18888888888888888
0.00263337682957,0.19444444444444445
0.00263337682957,0.2
0.00267537624144,0.20555555555555555
0.00267537624144,0.2111111111111111
0.00274198357386,0.21666666666666667
0.00274198357386,0.2222222222222222
0.00278092220676,0.22777777777777777
0.00278092220676,0.23333333333333334
0.00278743876556,0.2388888888888889
0.00278743876556,0.24444444444444444
0.00281506648375,0.25
0.00281506648375,0.25555555555555554
0.00290179767855,0.2611111111111111
0.00290179767855,0.26666666666666666
0.00311814899096,0.2722222222222222
0.00311814899096,0.2777777777777778
0.0031193471624,0.2833333333333333
0.0031193471624,0.28888888888888886
0.00314705805978,0.29444444444444445
0.00314705805978,0.3
0.00323256541688,0.3055555555555556
0.00323256541688,0.3111111111111111
0.00345404138399,0.31666666666666665
0.00345404138399,0.32222222222222224
0.00355790816783,0.3277777777777778
0.00355790816783,0.3333333333333333
0.00391174678321,0.3388888888888889
0.00391174678321,0.34444444444444444
0.00396590413449,0.35
0.00396590413449,0.35555555555555557
0.00408421155742,0.3611111111111111
0.00408421155742,0.36666666666666664
0.0042012158931,0.37222222222222223
0.0042012158931,0.37777777777777777
0.00429515558522,0.38333333333333336
0.00429515558522,0.3888888888888889
0.00442989502025,0.39444444444444443
0.00442989502025,0.4
0.00460993025367,0.40555555555555556
0.00460993025367,0.4111111111111111
0.00485607791671,0.4166666666666667
0.00485607791671,0.4222222222222222
0.00526015425311,0.42777777777777776
0.00526015425311,0.43333333333333335
0.00551708015685,0.4388888888888889
0.00551708015685,0.4444444444444444
0.040453164893,0.45
0.040453164893,0.45555555555555555
0.0498252778908,0.46111111111111114
0.0498252778908,0.4666666666666667
0.0919089540131,0.4722222222222222
0.0919089540131,0.4777777777777778
0.0931102381658,0.48333333333333334
0.0931102381658,0.4888888888888889
0.0949428982395,0.49444444444444446
0.0949428982395,0.5
0.102274988564,0.5055555555555555
0.102274988564,0.5111111111111111
0.108979466693,0.5166666666666667
0.108979466693,0.5222222222222223
0.119909477706,0.5277777777777778
0.119909477706,0.5333333333333333
0.135911242572,0.5388888888888889
0.135911242572,0.5444444444444444
0.146576866147,0.55
0.146576866147,0.5555555555555556
0.151782793283,0.5611111111111111
0.151782793283,0.5666666666666667
0.175983716068,0.5722222222222222
0.175983716068,0.5777777777777777
0.198941076904,0.5833333333333334
0.198941076904,0.5888888888888889
0.251675624236,0.5944444444444444
0.251675624236,0.6
0.272983290714,0.6055555555555555
0.272983290714,0.6111111111111112
0.298346219395,0.6166666666666667
0.298346219395,0.6222222222222222
0.307896318737,0.6277777777777778
0.307896318737,0.6333333333333333
0.309346678614,0.6388888888888888
0.309346678614,0.6444444444444445
0.321792953642,0.65
0.321792953642,0.6555555555555556
0.390552668316,0.6611111111111111
0.390552668316,0.6666666666666666
0.411316036798,0.6722222222222223
0.411316036798,0.6777777777777778
0.421716880651,0.6833333333333333
0.421716880651,0.6888888888888889
0.464770283476,0.6944444444444444
0.464770283476,0.7
0.489682885734,0.7055555555555556
0.489682885734,0.7111111111111111
0.545134063505,0.7166666666666667
0.545134063505,0.7222222222222222
0.578624819018,0.7277777777777777
0.578624819018,0.7333333333333333
0.596218420057,0.7388888888888889
0.596218420057,0.7444444444444445
0.653890351273,0.75
0.653890351273,0.7555555555555555
0.772532872816,0.7611111111111111
0.772532872816,0.7666666666666667
0.828178945067,0.7722222222222223
0.828178945067,0.7777777777777778
0.885677766348,0.7833333333333333
0.885677766348,0.7888888888888889
0.931233214772,0.7944444444444444
0.931233214772,0.8
0.975215232467,0.8055555555555556
0.975215232467,0.8111111111111111
1.07492277791,0.8166666666666667
1.07492277791,0.8222222222222222
1.10028045912,0.8277777777777777
1.10028045912,0.8333333333333334
1.23423200534,0.8388888888888889
1.23423200534,0.8444444444444444
1.27057760383,0.85
1.27057760383,0.8555555555555555
1.30776096205,0.8611111111111112
1.30776096205,0.8666666666666667
1.32810516945,0.8722222222222222
1.32810516945,0.8777777777777778
1.35506842754,0.8833333333333333
1.35506842754,0.8888888888888888
1.40288195851,0.8944444444444445
1.40288195851,0.9
1.5087676153,0.9055555555555556
1.5087676153,0.9111111111111111
1.52969765482,0.9166666666666666
1.52969765482,0.9222222222222223
1.56822936895,0.9277777777777778
1.56822936895,0.9333333333333333
1.71009390124,0.9388888888888889
1.71009390124,0.9444444444444444
1.75150356873,0.95
1.75150356873,0.9555555555555556
1.85412059476,0.9611111111111111
1.85412059476,0.9666666666666667
3.25092166898,0.9722222222222222
3.25092166898,0.9777777777777777
3.28281727865,0.9833333333333333
3.28281727865,0.9888888888888889
3.52135585894,0.9944444444444445
3.52135585894,1.0
