Congestion,CDF
0.0,0.009433962264150943
0.0,0.018867924528301886
0.0,0.02830188679245283
0.0,0.03773584905660377
0.0,0.04716981132075472
0.0,0.05660377358490566
0.0,0.0660377358490566
0.0,0.07547169811320754
0.0,0.08490566037735849
0.0,0.09433962264150944
0.0,0.10377358490566038
0.0,0.11320754716981132
0.0,0.12264150943396226
0.0,0.1320754716981132
0.0,0.14150943396226415
0.0,0.1509433962264151
0.0,0.16037735849056603
0.0,0.16981132075471697
0.0,0.1792452830188679
0.0,0.18867924528301888
0.0,0.19811320754716982
0.0,0.20754716981132076
0.0,0.2169811320754717
0.0,0.22641509433962265
0.0,0.2358490566037736
0.0,0.24528301886792453
0.0,0.25471698113207547
0.0,0.2641509433962264
0.0,0.27358490566037735
0.0,0.2830188679245283
1.58663873221e-07,0.29245283018867924
4.0875641865e-06,0.3018867924528302
4.59653698616e-06,0.3113207547169811
6.23136030022e-06,0.32075471698113206
7.03408148877e-06,0.330188679245283
7.60590712598e-06,0.33962264150943394
9.359718338e-06,0.3490566037735849
1.42737143224e-05,0.3584905660377358
1.82711083581e-05,0.36792452830188677
1.93365789118e-05,0.37735849056603776
2.25528482825e-05,0.3867924528301887
2.77679572193e-05,0.39622641509433965
2.84042250354e-05,0.4056603773584906
2.99692526821e-05,0.41509433962264153
7.71375107048e-05,0.42452830188679247
0.000192043609985,0.4339622641509434
0.000263242078256,0.44339622641509435
0.000263242078256,0.4528301886792453
0.000685166563431,0.46226415094339623
0.000685166563431,0.4716981132075472
0.000685166563431,0.4811320754716981
0.00070197887535,0.49056603773584906
0.00070197887535,0.5
0.00070197887535,0.5094339622641509
0.00108375516307,0.5188679245283019
0.00129422741177,0.5283018867924528
0.00129422741177,0.5377358490566038
0.00137033312686,0.5471698113207547
0.00137033312686,0.5566037735849056
0.00186940809007,0.5660377358490566
0.00190017892524,0.5754716981132075
0.00215050920518,0.5849056603773585
0.0022817721378,0.5943396226415094
0.0023829098621,0.6037735849056604
0.0023829098621,0.6132075471698113
0.00295248212841,0.6226415094339622
0.00295248212841,0.6320754716981132
0.00372865036283,0.6415094339622641
0.00453515046338,0.6509433962264151
0.00612911895445,0.660377358490566
0.00954787403032,0.6698113207547169
0.00955742351173,0.6792452830188679
0.00969556398188,0.6886792452830188
0.0143436775241,0.6981132075471698
0.0185311936698,0.7075471698113207
0.0206972023896,0.7169811320754716
0.0237103444751,0.7264150943396226
0.0241990863122,0.7358490566037735
0.0245958460831,0.7452830188679245
0.0299254815182,0.7547169811320755
0.0341388356058,0.7641509433962265
0.0347563015192,0.7735849056603774
0.217884072286,0.7830188679245284
0.691758171086,0.7924528301886793
0.691758171086,0.8018867924528302
0.889137917815,0.8113207547169812
0.889137917815,0.8207547169811321
0.889137917815,0.8301886792452831
1.22505168888,0.839622641509434
1.77827583563,0.8490566037735849
1.77827583563,0.8584905660377359
1.84468845623,0.8679245283018868
1.84468845623,0.8773584905660378
1.84468845623,0.8867924528301887
2.43274743786,0.8962264150943396
2.43274743786,0.9056603773584906
3.4433708973,0.9150943396226415
3.4433708973,0.9245283018867925
3.87091115548,0.9339622641509434
3.92723546847,0.9433962264150944
4.72522828025,0.9528301886792453
4.72522828025,0.9622641509433962
12.0531328277,0.9716981132075472
12.2383726017,0.9811320754716981
13.8470708814,0.9905660377358491
37.8515356967,1.0
