Congestion,CDF
0.0,0.005555555555555556
0.0,0.011111111111111112
0.0,0.016666666666666666
0.0,0.022222222222222223
0.0,0.027777777777777776
0.0,0.03333333333333333
0.0,0.03888888888888889
0.0,0.044444444444444446
0.0,0.05
0.0,0.05555555555555555
1.05779351674e-06,0.06111111111111111
1.21535387819e-06,0.06666666666666667
2.73566088375e-06,0.07222222222222222
3.99832751482e-06,0.07777777777777778
4.09127297868e-06,0.08333333333333333
5.4018887313e-06,0.08888888888888889
5.94279255808e-06,0.09444444444444444
8.19052329468e-06,0.1
8.23277861418e-06,0.10555555555555556
8.422905317e-06,0.1111111111111111
8.59625837273e-06,0.11666666666666667
9.46272427647e-06,0.12222222222222222
9.68220989613e-06,0.12777777777777777
1.08120645125e-05,0.13333333333333333
1.10737262049e-05,0.1388888888888889
1.16607747462e-05,0.14444444444444443
1.34835128296e-05,0.15
1.47564546343e-05,0.15555555555555556
1.54087109806e-05,0.16111111111111112
1.6025693037e-05,0.16666666666666666
1.62792524028e-05,0.17222222222222222
1.6409996358e-05,0.17777777777777778
1.69536829453e-05,0.18333333333333332
1.75427911134e-05,0.18888888888888888
1.78389209266e-05,0.19444444444444445
1.80403793212e-05,0.2
1.81404674321e-05,0.20555555555555555
1.83487814232e-05,0.2111111111111111
1.85280822131e-05,0.21666666666666667
1.85687401405e-05,0.2222222222222222
1.91891694474e-05,0.22777777777777777
1.93492622661e-05,0.23333333333333334
1.95713797513e-05,0.2388888888888889
2.11947545397e-05,0.24444444444444444
2.23024240396e-05,0.25
2.42139454094e-05,0.25555555555555554
2.45975478602e-05,0.2611111111111111
2.49515244047e-05,0.26666666666666666
2.57965061831e-05,0.2722222222222222
9.1188696125e-05,0.2777777777777778
0.00018237739225,0.2833333333333333
0.000199916375741,0.28888888888888886
0.000199916375741,0.29444444444444445
0.000205819465354,0.3
0.000205819465354,0.3055555555555556
0.000311598817029,0.3111111111111111
0.000409127297868,0.31666666666666665
0.000411638930709,0.32222222222222224
0.000548069034956,0.3277777777777778
0.000819052329468,0.3333333333333333
0.000851787690158,0.3388888888888889
0.000902018966061,0.34444444444444444
0.000902018966061,0.35
0.001152091893,0.35555555555555557
0.00175427911134,0.3611111111111111
0.00178389209266,0.36666666666666664
0.00184091601154,0.37222222222222223
0.00198322541731,0.37777777777777777
0.00209827069196,0.38333333333333336
0.00209827069196,0.3888888888888889
0.00239265878822,0.39444444444444443
0.00252860275184,0.4
0.00271892605256,0.40555555555555556
0.00290679137118,0.4111111111111111
0.00361115312538,0.4166666666666667
0.00381810355963,0.4222222222222222
0.0040171876367,0.42777777777777776
0.00493873213234,0.43333333333333335
0.00579835796961,0.4388888888888889
0.00607086805887,0.4444444444444444
0.0074964480239,0.45
0.00849226259982,0.45555555555555555
0.0116330253937,0.46111111111111114
0.0118183069995,0.4666666666666667
0.0146644781895,0.4722222222222222
0.0148495465123,0.4777777777777778
0.0150317457162,0.48333333333333334
0.0150511894424,0.4888888888888889
0.0150566083684,0.49444444444444446
0.0150733582799,0.5
0.0150869327689,0.5055555555555555
0.0150990906611,0.5111111111111111
0.0151088527367,0.5166666666666667
0.0151176759566,0.5222222222222223
0.0151298354131,0.5277777777777778
0.0151313308234,0.5333333333333333
0.0151330677838,0.5388888888888889
0.0151380109815,0.5444444444444444
0.0151475723056,0.55
0.0151523747433,0.5555555555555556
0.0151527905169,0.5611111111111111
0.0151579008981,0.5666666666666667
0.015165313155,0.5722222222222222
0.0151927409955,0.5777777777777777
0.0152059591845,0.5833333333333334
0.0152094330804,0.5888888888888889
0.0152185491078,0.5944444444444444
0.0152301377554,0.6
0.0152321085795,0.6055555555555555
0.015238024202,0.6111111111111112
0.0152399013992,0.6166666666666667
0.0152410012972,0.6222222222222222
0.015243218601,0.6277777777777778
0.0152434207742,0.6333333333333333
0.0152547940751,0.6388888888888888
0.015255329147,0.6444444444444445
0.0152755571204,0.65
0.0152834974782,0.6555555555555556
0.015306476901,0.6611111111111111
0.0153098918634,0.6666666666666666
0.0153162860561,0.6722222222222223
0.0153183772151,0.6777777777777778
0.0183812740709,0.6833333333333333
0.0192400247923,0.6888888888888889
0.0209609246892,0.6944444444444444
0.0214702671962,0.7
0.0225888499294,0.7055555555555556
0.0228362610466,0.7111111111111111
0.0241846123295,0.7166666666666667
0.0261195385561,0.7222222222222222
0.0262825741623,0.7277777777777777
0.026713817812,0.7333333333333333
0.027124864694,0.7388888888888889
0.0280930856836,0.7444444444444445
0.378326694596,0.75
0.378326694596,0.7555555555555555
0.502445275996,0.7611111111111111
0.584604859742,0.7666666666666667
0.751587285811,0.7722222222222223
0.751587285811,0.7777777777777778
0.756653389192,0.7833333333333333
0.761901210099,0.7888888888888889
0.761901210099,0.7944444444444444
1.00489055199,0.8
1.50869327689,0.8055555555555556
1.51298354131,0.8111111111111111
1.52321085795,0.8166666666666667
1.52399013992,0.8222222222222222
1.88344563884,0.8277777777777777
1.89308392516,0.8333333333333334
2.26472036816,0.8388888888888889
2.27769129991,0.8444444444444444
2.28849111071,0.85
2.4049564891,0.8555555555555555
2.4049564891,0.8611111111111112
3.03624898892,0.8666666666666667
3.04755293537,0.8722222222222222
3.39335470495,0.8777777777777778
3.80179142963,0.8833333333333333
3.9161251196,0.8888888888888888
3.93043589661,0.8944444444444445
4.914298013,0.9
6.97743981207,0.9055555555555556
7.82674244554,0.9111111111111111
8.71471567911,0.9166666666666666
9.34054354369,0.9222222222222223
10.2453633692,0.9277777777777778
17.8423052159,0.9333333333333333
18.6256969205,0.9388888888888889
20.1573255262,0.9444444444444444
21.6765996257,0.95
22.4004091156,0.9555555555555556
23.9287588634,0.9611111111111111
25.4565574682,0.9666666666666667
26.1956252009,0.9722222222222222
26.9230052871,0.9777777777777777
27.7073927965,0.9833333333333333
28.0863078265,0.9888888888888889
29.1923474478,0.9944444444444445
30.3741781477,1.0
