Congestion,CDF
0.0,0.005555555555555556
0.0,0.011111111111111112
0.0,0.016666666666666666
0.0,0.022222222222222223
0.0,0.027777777777777776
0.0,0.03333333333333333
0.0,0.03888888888888889
0.0,0.044444444444444446
0.0,0.05
0.0,0.05555555555555555
1.11151984071e-06,0.06111111111111111
1.27708284056e-06,0.06666666666666667
2.8746076636e-06,0.07222222222222222
4.2014063161e-06,0.07777777777777778
4.29907256717e-06,0.08333333333333333
5.67625572203e-06,0.08888888888888889
6.24463256105e-06,0.09444444444444444
8.60652764809e-06,0.1
8.65092915486e-06,0.10555555555555556
8.85071257109e-06,0.1111111111111111
9.03287039096e-06,0.11666666666666667
9.94334490991e-06,0.12222222222222222
1.01739784099e-05,0.12777777777777777
1.1361219401e-05,0.13333333333333333
1.16361711359e-05,0.1388888888888889
1.22530364228e-05,0.14444444444444443
1.41683530815e-05,0.15
1.55059487933e-05,0.15555555555555556
1.61913338506e-05,0.16111111111111112
1.68396530039e-05,0.16666666666666666
1.71060908874e-05,0.17222222222222222
1.72434754507e-05,0.17777777777777778
1.78147763893e-05,0.18333333333333332
1.84338059132e-05,0.18888888888888888
1.87449764372e-05,0.19444444444444445
1.89566670924e-05,0.2
1.90618387722e-05,0.20555555555555555
1.92807332262e-05,0.2111111111111111
1.94691408712e-05,0.21666666666666667
1.95118638528e-05,0.2222222222222222
2.01638053456e-05,0.22777777777777777
2.03320294286e-05,0.23333333333333334
2.05654284691e-05,0.2388888888888889
2.22712559842e-05,0.24444444444444444
2.3435185056e-05,0.25
2.54437943874e-05,0.25555555555555554
2.58468803662e-05,0.2611111111111111
2.62188357111e-05,0.26666666666666666
2.71067349058e-05,0.2722222222222222
9.58202554534e-05,0.2777777777777778
0.000191640510907,0.2833333333333333
0.000210070315805,0.28888888888888886
0.000210070315805,0.29444444444444445
0.000216273228871,0.3
0.000216273228871,0.3055555555555556
0.000327425212942,0.3111111111111111
0.000429907256717,0.31666666666666665
0.000432546457743,0.32222222222222224
0.000575905974832,0.3277777777777778
0.000696683628425,0.3333333333333333
0.000860652764809,0.3388888888888889
0.000895050785145,0.34444444444444444
0.000924189954276,0.35
0.000947833354622,0.35555555555555557
0.000947833354622,0.3611111111111111
0.00121060771986,0.36666666666666664
0.00184338059132,0.37222222222222223
0.00187449764372,0.37777777777777777
0.00193441786087,0.38333333333333336
0.00208395529472,0.3888888888888889
0.00220484382668,0.39444444444444443
0.00220484382668,0.4
0.00251418417021,0.40555555555555556
0.00265703285513,0.4111111111111111
0.00285702285465,0.4166666666666667
0.00305443002886,0.4222222222222222
0.00346446212197,0.42777777777777776
0.0037945669766,0.43333333333333335
0.00387763816861,0.4388888888888889
0.00401202861734,0.4444444444444444
0.00408450838861,0.45
0.0040926312993,0.45555555555555555
0.00410579677063,0.46111111111111114
0.00413546707298,0.4666666666666667
0.00417229291514,0.4722222222222222
0.00420694695814,0.4777777777777778
0.00422122436124,0.48333333333333334
0.00428553902536,0.4888888888888889
0.00428949774632,0.49444444444444446
0.00430067753505,0.5
0.00432510627917,0.5055555555555555
0.00434504965345,0.5111111111111111
0.00435857260709,0.5166666666666667
0.00436668743713,0.5222222222222223
0.00437048906736,0.5277777777777778
0.00440925549318,0.5333333333333333
0.00446088339631,0.5388888888888889
0.00447432466311,0.5444444444444444
0.00448515141438,0.55
0.00448898939209,0.5555555555555556
0.00450868071539,0.5611111111111111
0.00453620350959,0.5666666666666667
0.00454826350236,0.5722222222222222
0.00456115634734,0.5777777777777777
0.00456272793066,0.5833333333333334
0.00456964653084,0.5888888888888889
0.00457098922233,0.5944444444444444
0.00457717905165,0.6
0.00459921721667,0.6055555555555555
0.00460630902312,0.6111111111111112
0.00465438351455,0.6166666666666667
0.00468121737643,0.6222222222222222
0.00473711098912,0.6277777777777778
0.00474708766623,0.6333333333333333
0.00476167278835,0.6388888888888888
0.00477385989931,0.6444444444444445
0.00518957496538,0.65
0.00609286200448,0.6555555555555556
0.00637921313655,0.6611111111111111
0.00787719964389,0.6666666666666666
0.00892359257529,0.6722222222222223
0.0158762455256,0.6777777777777778
0.0193148762059,0.6833333333333333
0.0202172436811,0.6888888888888889
0.0220255496964,0.6944444444444444
0.0225607621867,0.7
0.0237361587852,0.7055555555555556
0.0239961361448,0.7111111111111111
0.025412971453,0.7166666666666667
0.0274461743958,0.7222222222222222
0.0276174907332,0.7277777777777777
0.0280706376519,0.7333333333333333
0.0285025619903,0.7388888888888889
0.0295199598313,0.7444444444444445
0.107237443658,0.75
0.107237443658,0.7555555555555555
0.137848902433,0.7611111111111111
0.164716546272,0.7666666666666667
0.205289838532,0.7722222222222223
0.205289838532,0.7777777777777778
0.214474887316,0.7833333333333333
0.228136396533,0.7888888888888889
0.228136396533,0.7944444444444444
0.275697804865,0.8
0.417229291514,0.8055555555555556
0.428553902536,0.8111111111111111
0.454826350236,0.8166666666666667
0.456115634734,0.8222222222222222
0.515688282519,0.8277777777777777
0.539748071575,0.8333333333333334
0.64621538785,0.8388888888888889
0.663993657241,0.8444444444444444
0.690642166151,0.85
0.701694438876,0.8555555555555555
0.701694438876,0.8611111111111112
0.882667642969,0.8666666666666667
0.912544255401,0.8722222222222222
0.936382978333,0.8777777777777778
1.12109257947,0.8833333333333333
1.12502944032,0.8888888888888888
1.16161616054,0.8944444444444445
1.38528191754,0.9
2.07135214624,0.9055555555555556
2.23598700912,0.9111111111111111
2.50260311892,0.9166666666666666
2.66605476263,0.9222222222222223
2.97631421783,0.9277777777777778
5.19437156195,0.9333333333333333
5.48465981933,0.9388888888888889
5.96204580926,0.9444444444444444
6.4105609507,0.95
6.52790727646,0.9555555555555556
6.9960290141,0.9611111111111111
7.50286467818,0.9666666666666667
7.63798759635,0.9722222222222222
7.84931089038,0.9777777777777777
7.91897925322,0.9833333333333333
8.07249256169,0.9888888888888889
8.46025637855,0.9944444444444445
8.55267537398,1.0
