Congestion,CDF
0.0,0.005555555555555556
0.0,0.011111111111111112
0.0,0.016666666666666666
0.0,0.022222222222222223
0.0,0.027777777777777776
0.0,0.03333333333333333
0.0,0.03888888888888889
0.0,0.044444444444444446
0.0,0.05
0.0,0.05555555555555555
1.07242314677e-06,0.06111111111111111
1.23216261951e-06,0.06666666666666667
2.77349596779e-06,0.07222222222222222
4.053625691e-06,0.07777777777777778
4.14785662101e-06,0.08333333333333333
5.47659861779e-06,0.08888888888888889
6.02498332127e-06,0.09444444444444444
8.30380090851e-06,0.1
8.34664063289e-06,0.10555555555555556
8.53939685015e-06,0.1111111111111111
8.71514743529e-06,0.11666666666666667
9.59359684564e-06,0.12222222222222222
9.81611802315e-06,0.12777777777777777
1.09615988981e-05,0.13333333333333333
1.12268794572e-05,0.1388888888888889
1.18220470717e-05,0.14444444444444443
1.36699942184e-05,0.15
1.49605412243e-05,0.15555555555555556
1.5621818489e-05,0.16111111111111112
1.6247333609e-05,0.16666666666666666
1.65043997836e-05,0.17222222222222222
1.66369519704e-05,0.17777777777777778
1.71881579209e-05,0.18333333333333332
1.77854136475e-05,0.18888888888888888
1.80856390328e-05,0.19444444444444445
1.82898836628e-05,0.2
1.8391356025e-05,0.20555555555555555
1.86025510667e-05,0.2111111111111111
1.87843316451e-05,0.21666666666666667
1.88255518849e-05,0.2222222222222222
1.94545619319e-05,0.22777777777777777
1.96168688866e-05,0.23333333333333334
1.98420583292e-05,0.2388888888888889
2.14878849214e-05,0.24444444444444444
2.26108738526e-05,0.25
2.45488321876e-05,0.25555555555555554
2.49377399856e-05,0.2611111111111111
2.52966121414e-05,0.26666666666666666
2.61532802939e-05,0.2722222222222222
9.2449865593e-05,0.2777777777777778
0.000184899731186,0.2833333333333333
0.00020268128455,0.28888888888888886
0.00020268128455,0.29444444444444445
0.000208666015822,0.3
0.000208666015822,0.3055555555555556
0.000315908330499,0.3111111111111111
0.000414785662101,0.31666666666666665
0.000417332031644,0.32222222222222224
0.000555649008818,0.3277777777777778
0.000830380090851,0.3333333333333333
0.000863568192278,0.3388888888888889
0.000914494183142,0.34444444444444444
0.000914494183142,0.35
0.00116802570039,0.35555555555555557
0.00177854136475,0.3611111111111111
0.00180856390328,0.36666666666666664
0.00186637648159,0.37222222222222223
0.00201065407295,0.37777777777777777
0.00212729046135,0.38333333333333336
0.00212729046135,0.3888888888888889
0.00218012544052,0.39444444444444443
0.00242575004118,0.4
0.00247944529274,0.40555555555555556
0.00256357415424,0.4111111111111111
0.00275652968841,0.4166666666666667
0.00294699324579,0.4222222222222222
0.00366109655323,0.42777777777777776
0.00387090917962,0.43333333333333335
0.00407274665454,0.4388888888888889
0.00500703641171,0.4444444444444444
0.00587855115524,0.45
0.00615483014809,0.45555555555555555
0.00760012634991,0.46111111111111114
0.00835387100822,0.4666666666666667
0.00860971336685,0.4722222222222222
0.00869933822773,0.4777777777777778
0.00885533653084,0.48333333333333334
0.00886268650861,0.4888888888888889
0.00886946773795,0.49444444444444446
0.00889806921372,0.5
0.00892825770217,0.5055555555555555
0.00895647872426,0.5111111111111111
0.00902140079142,0.5166666666666667
0.00902515106952,0.5222222222222223
0.00903454904657,0.5277777777777778
0.0090547297339,0.5333333333333333
0.0090668467239,0.5388888888888889
0.00908159541121,0.5444444444444444
0.00908656984858,0.55
0.00909221492713,0.5555555555555556
0.00911894616142,0.5611111111111111
0.00916133226062,0.5666666666666667
0.00917799626084,0.5722222222222222
0.00918295110369,0.5777777777777777
0.00918946416343,0.5833333333333334
0.00920614103272,0.5888888888888889
0.00922910392207,0.5944444444444444
0.00923829417629,0.6
0.00924971699207,0.6055555555555555
0.00925030867218,0.6111111111111112
0.00925672987872,0.6166666666666667
0.00925706509481,0.6222222222222222
0.00926218022,0.6277777777777778
0.00928115824048,0.6333333333333333
0.00928637762849,0.6388888888888888
0.00932650126088,0.6444444444444445
0.00934800155616,0.65
0.00939442419408,0.6555555555555556
0.00940253889007,0.6611111111111111
0.00941536446723,0.6666666666666666
0.0094236001805,0.6722222222222223
0.0153178131077,0.6777777777777778
0.0186354930983,0.6833333333333333
0.0195061206228,0.6888888888888889
0.0212508211277,0.6944444444444444
0.021767208008,0.7
0.022901261106,0.7055555555555556
0.0231520939998,0.7111111111111111
0.0245190934216,0.7166666666666667
0.0264807803103,0.7222222222222222
0.0266460707521,0.7277777777777777
0.0270832786424,0.7333333333333333
0.0275000104371,0.7388888888888889
0.0284816222394,0.7444444444444445
0.225628776738,0.75
0.225628776738,0.7555555555555555
0.296602307124,0.7611111111111111
0.342204330296,0.7666666666666667
0.443473386898,0.7722222222222223
0.443473386898,0.7777777777777778
0.451257553476,0.7833333333333333
0.462515433609,0.7888888888888889
0.462515433609,0.7944444444444444
0.593204614248,0.8
0.892825770217,0.8055555555555556
0.902140079142,0.8111111111111111
0.923829417629,0.8166666666666667
0.924971699207,0.8222222222222222
1.11116242982,0.8277777777777777
1.13110175013,0.8333333333333334
1.35536800304,0.8388888888888889
1.37067497473,0.8444444444444444
1.3927940002,0.85
1.44761005358,0.8555555555555555
1.44761005358,0.8611111111111112
1.82547589631,0.8666666666666667
1.85004743963,0.8722222222222222
2.00681030225,0.8777777777777778
2.29638148421,0.8833333333333333
2.34550368334,0.8888888888888888
2.37572587763,0.8944444444444445
2.92575671859,0.9
4.22360796904,0.9055555555555556
4.67938238778,0.9111111111111111
5.21904999419,0.9166666666666666
5.58283729243,0.9222222222222223
6.1584924136,0.9277777777777778
10.7321182493,0.9333333333333333
11.2451752264,0.9388888888888889
12.1875352445,0.9444444444444444
13.1058303549,0.95
13.4782082489,0.9555555555555556
14.4130084045,0.9611111111111111
15.377331584,0.9666666666666667
15.7651387763,0.9722222222222222
16.2127186848,0.9777777777777777
16.4307312288,0.9833333333333333
16.6718234487,0.9888888888888889
17.5417572715,0.9944444444444445
17.7897018007,1.0
