Congestion,CDF
0.0,0.005555555555555556
0.0,0.011111111111111112
0.0,0.016666666666666666
0.0,0.022222222222222223
0.0,0.027777777777777776
0.0,0.03333333333333333
0.0,0.03888888888888889
0.0,0.044444444444444446
0.0,0.05
0.0,0.05555555555555555
1.05572629585e-06,0.06111111111111111
1.2129787408e-06,0.06666666666666667
2.73031464628e-06,0.07222222222222222
3.99051367776e-06,0.07777777777777778
4.0832775005e-06,0.08333333333333333
5.39133194769e-06,0.08888888888888889
5.9311786989e-06,0.09444444444444444
8.17451674839e-06,0.1
8.21668948931e-06,0.10555555555555556
8.40644463201e-06,0.1111111111111111
8.57945890796e-06,0.11666666666666667
9.44423149783e-06,0.12222222222222222
9.66328818193e-06,0.12777777777777777
1.07909347501e-05,0.13333333333333333
1.10520850832e-05,0.1388888888888889
1.16379863694e-05,0.14444444444444443
1.34571623188e-05,0.15
1.47276164434e-05,0.15555555555555556
1.53785981005e-05,0.16111111111111112
1.59943744035e-05,0.16666666666666666
1.62474382441e-05,0.17222222222222222
1.63779266895e-05,0.17777777777777778
1.6920550763e-05,0.18333333333333332
1.75085076509e-05,0.18888888888888888
1.78040587447e-05,0.19444444444444445
1.80051234339e-05,0.2
1.81050159449e-05,0.20555555555555555
1.83129228329e-05,0.2111111111111111
1.84918732195e-05,0.21666666666666667
1.853245169e-05,0.2222222222222222
1.91516685066e-05,0.22777777777777777
1.93114484597e-05,0.23333333333333334
1.95331318659e-05,0.2388888888888889
2.11533341313e-05,0.24444444444444444
2.22588389389e-05,0.25
2.41666246676e-05,0.25555555555555554
2.45494774532e-05,0.2611111111111111
2.49027622297e-05,0.26666666666666666
2.57460926801e-05,0.2722222222222222
9.10104882092e-05,0.2777777777777778
0.000182020976418,0.2833333333333333
0.000199525683888,0.28888888888888886
0.000199525683888,0.29444444444444445
0.000205417237233,0.3
0.000205417237233,0.3055555555555556
0.000310989866817,0.3111111111111111
0.00040832775005,0.31666666666666665
0.000410834474466,0.32222222222222224
0.000546997956581,0.3277777777777778
0.000817451674839,0.3333333333333333
0.000850123061587,0.3388888888888889
0.000900256171693,0.34444444444444444
0.000900256171693,0.35
0.00114984038702,0.35555555555555557
0.00175085076509,0.3611111111111111
0.00178040587447,0.36666666666666664
0.00183731835284,0.37222222222222223
0.00197934964671,0.37777777777777777
0.00209417009109,0.38333333333333336
0.00209417009109,0.3888888888888889
0.00238798287164,0.39444444444444443
0.00252366116318,0.4
0.00271361251957,0.40555555555555556
0.00290111069744,0.4111111111111111
0.00360409593409,0.4166666666666667
0.00381064192999,0.4222222222222222
0.00400933694175,0.42777777777777776
0.00492908048474,0.43333333333333335
0.00578702637553,0.4388888888888889
0.00605900390476,0.4444444444444444
0.00748179789252,0.45
0.00847566637152,0.45555555555555555
0.0129023079856,0.46111111111111114
0.0131081044789,0.4666666666666667
0.0150793258625,0.4722222222222222
0.0163270127208,0.4777777777777778
0.0165281183746,0.48333333333333334
0.0167080665818,0.4888888888888889
0.016724090489,0.49444444444444446
0.01672970252,0.5
0.0167483157109,0.5055555555555555
0.0167635516206,0.5111111111111111
0.0167773158053,0.5166666666666667
0.0168051905509,0.5222222222222223
0.0168114782907,0.5277777777777778
0.01681476245,0.5333333333333333
0.0168201511261,0.5388888888888889
0.0168227003476,0.5444444444444444
0.016830774386,0.55
0.0168386629703,0.5555555555555556
0.0168427567108,0.5611111111111111
0.0168459001134,0.5666666666666667
0.0168504896698,0.5722222222222222
0.0168842609622,0.5777777777777777
0.0168956492297,0.5833333333333334
0.016899922527,0.5888888888888889
0.01690979468,0.5944444444444444
0.0169225207104,0.6
0.0169252135213,0.6055555555555555
0.0169317389998,0.6111111111111112
0.0169333692967,0.6166666666666667
0.0169350940515,0.6222222222222222
0.01693705607,0.6277777777777778
0.0169377831022,0.6333333333333333
0.0169499168294,0.6388888888888888
0.016950920335,0.6444444444444445
0.0169731378935,0.65
0.0169824348267,0.6555555555555556
0.0170077579818,0.6611111111111111
0.0170116429969,0.6666666666666666
0.0170195049026,0.6722222222222223
0.0170205622779,0.6777777777777778
0.0183453519809,0.6833333333333333
0.0192024244661,0.6888888888888889
0.0209199612489,0.6944444444444444
0.02142830836,0.7
0.0225447050734,0.7055555555555556
0.0227916326808,0.7111111111111111
0.0241373489127,0.7166666666666667
0.0260684937586,0.7222222222222222
0.0262312107481,0.7277777777777777
0.0266616116285,0.7333333333333333
0.0270718552113,0.7388888888888889
0.0280381840295,0.7444444444444445
0.420369061251,0.75
0.420369061251,0.7555555555555555
0.558277190362,0.7611111111111111
0.649627734098,0.7666666666666667
0.835403329091,0.7722222222222223
0.835403329091,0.7777777777777778
0.840738122502,0.7833333333333333
0.846586949991,0.7888888888888889
0.846586949991,0.7944444444444444
1.11655438072,0.8
1.67635516206,0.8055555555555556
1.68114782907,0.8111111111111111
1.69252135213,0.8166666666666667
1.69333692967,0.8222222222222222
2.09277811015,0.8277777777777777
2.10344649985,0.8333333333333334
2.51767336385,0.8388888888888889
2.53086262107,0.8444444444444444
2.5427943503,0.85
2.672198849,0.8555555555555555
2.672198849,0.8611111111111112
3.37366895141,0.8666666666666667
3.38629966235,0.8722222222222222
3.77050969068,0.8777777777777778
4.22437202622,0.8833333333333333
4.35128861318,0.8888888888888888
4.36719053194,0.8944444444444445
5.46050194338,0.9
7.75277953265,0.9055555555555556
8.69645771418,0.9111111111111111
9.68332875594,0.9166666666666666
10.3784728268,0.9222222222222223
11.3841045541,0.9277777777777778
19.8249579664,0.9333333333333333
20.6959405424,0.9388888888888889
22.3978910326,0.9444444444444444
24.0863171289,0.95
24.8896063859,0.9555555555555556
26.5878498685,0.9611111111111111
28.288580504,0.9666666666666667
29.1071194946,0.9722222222222222
29.9212817761,0.9777777777777777
30.7876385497,0.9833333333333333
31.2115125747,0.9888888888888889
32.4404503872,0.9944444444444445
33.7512608351,1.0
