Congestion,CDF
0.0,0.007352941176470588
0.0,0.014705882352941176
0.0,0.022058823529411766
0.0,0.029411764705882353
0.0,0.03676470588235294
0.0,0.04411764705882353
0.0,0.051470588235294115
0.0,0.058823529411764705
0.0,0.0661764705882353
0.0,0.07352941176470588
0.0,0.08088235294117647
0.0,0.08823529411764706
0.0,0.09558823529411764
0.0,0.10294117647058823
5.47904427182e-06,0.11029411764705882
5.47904427182e-06,0.11764705882352941
5.47904427182e-06,0.125
5.47904427182e-06,0.1323529411764706
5.47904427182e-06,0.13970588235294118
5.47904427182e-06,0.14705882352941177
5.47904427182e-06,0.15441176470588236
5.47904427182e-06,0.16176470588235295
5.47904427182e-06,0.16911764705882354
5.47904427182e-06,0.17647058823529413
5.47904427182e-06,0.18382352941176472
5.47904427182e-06,0.19117647058823528
5.47904427182e-06,0.19852941176470587
5.47904427182e-06,0.20588235294117646
5.47904427182e-06,0.21323529411764705
5.47904427182e-06,0.22058823529411764
5.47904427182e-06,0.22794117647058823
5.47904427182e-06,0.23529411764705882
5.47904427182e-06,0.2426470588235294
5.47904427182e-06,0.25
5.47904427182e-06,0.25735294117647056
5.47904427182e-06,0.2647058823529412
5.47904427182e-06,0.27205882352941174
5.47904427182e-06,0.27941176470588236
5.47904427182e-06,0.2867647058823529
5.47904427182e-06,0.29411764705882354
5.47904427182e-06,0.3014705882352941
0.000136976106796,0.3088235294117647
0.000136976106796,0.3161764705882353
0.000147934195339,0.3235294117647059
0.000273952213591,0.33088235294117646
0.000273952213591,0.3382352941176471
0.000273952213591,0.34558823529411764
0.000273952213591,0.35294117647058826
0.000396193191328,0.3602941176470588
0.000410928320387,0.36764705882352944
0.000456587022652,0.375
0.000456587022652,0.38235294117647056
0.000456587022652,0.3897058823529412
0.000547904427182,0.39705882352941174
0.000547904427182,0.40441176470588236
0.000547904427182,0.4117647058823529
0.000547904427182,0.41911764705882354
0.000547904427182,0.4264705882352941
0.000547904427182,0.4338235294117647
0.000547904427182,0.4411764705882353
0.000684880533978,0.4485294117647059
0.000821856640774,0.45588235294117646
0.000821856640774,0.4632352941176471
0.000960256614348,0.47058823529411764
0.00100449144983,0.47794117647058826
0.00109580885436,0.4852941176470588
0.00109580885436,0.49264705882352944
0.00164371328155,0.5
0.00223727641099,0.5073529411764706
0.00397230709707,0.5147058823529411
0.0040636245016,0.5220588235294118
0.0052507507605,0.5294117647058824
0.0054232458898,0.5367647058823529
0.00565208078635,0.5441176470588235
0.00585850306911,0.5514705882352942
0.00598002208388,0.5588235294117647
0.00604850406918,0.5661764705882353
0.00615111072924,0.5735294117647058
0.006436997357,0.5808823529411765
0.00648691413844,0.5882352941176471
0.00652919442392,0.5955882352941176
0.00654110040707,0.6029411764705882
0.00654377004365,0.6102941176470589
0.00654574763361,0.6176470588235294
0.00655551590729,0.625
0.00655675516014,0.6323529411764706
0.00655962921314,0.6397058823529411
0.00657549159514,0.6470588235294118
0.00658690597539,0.6544117647058824
0.00661075579729,0.6617647058823529
0.00662051182845,0.6691176470588235
0.00664573992263,0.6764705882352942
0.00666239573686,0.6838235294117647
0.00666244350043,0.6911764705882353
0.00666272518935,0.6985294117647058
0.0066627406123,0.7058823529411765
0.00666302533492,0.7132352941176471
0.00666303561815,0.7205882352941176
0.00666303561815,0.7279411764705882
0.00707709885111,0.7352941176470589
0.00716841625564,0.7426470588235294
0.00771632068282,0.75
0.161754641194,0.7573529411764706
0.163918879004,0.7647058823529411
0.164672649385,0.7720588235294118
0.307555536462,0.7794117647058824
0.307555536462,0.7867647058823529
0.330537789865,0.7941176470588235
0.330537789865,0.8014705882352942
0.491756637011,0.8088235294117647
0.547245835493,0.8161764705882353
0.547245835493,0.8235294117647058
0.547245835493,0.8308823529411765
0.604850406918,0.8382352941176471
0.654377004365,0.8455882352941176
0.658690597539,0.8529411764705882
0.666244350043,0.8602941176470589
0.66627406123,0.8676470588235294
0.666303561815,0.875
0.666303561815,0.8823529411764706
0.818493642365,0.8897058823529411
0.893405843373,0.8970588235294118
0.988086949378,0.9044117647058824
1.19593724934,0.9117647058823529
1.20285261531,0.9191176470588235
1.33254658016,0.9264705882352942
1.99890965712,0.9338235294117647
2.67422652293,0.9411764705882353
4.82141904443,0.9485294117647058
4.8286128104,0.9558823529411765
6.37097042802,0.9632352941176471
7.46000209209,0.9705882352941176
7.49962141122,0.9779411764705882
8.01460896813,0.9852941176470589
8.57981704676,0.9926470588235294
8.6758427082,1.0
