Congestion,CDF
0.0,0.007352941176470588
0.0,0.014705882352941176
0.0,0.022058823529411766
0.0,0.029411764705882353
0.0,0.03676470588235294
0.0,0.04411764705882353
0.0,0.051470588235294115
0.0,0.058823529411764705
0.0,0.0661764705882353
0.0,0.07352941176470588
0.0,0.08088235294117647
0.0,0.08823529411764706
0.0,0.09558823529411764
0.0,0.10294117647058823
2.5698254491e-06,0.11029411764705882
2.5698254491e-06,0.11764705882352941
2.5698254491e-06,0.125
2.5698254491e-06,0.1323529411764706
2.5698254491e-06,0.13970588235294118
2.5698254491e-06,0.14705882352941177
2.5698254491e-06,0.15441176470588236
2.5698254491e-06,0.16176470588235295
2.5698254491e-06,0.16911764705882354
2.5698254491e-06,0.17647058823529413
2.5698254491e-06,0.18382352941176472
2.5698254491e-06,0.19117647058823528
2.5698254491e-06,0.19852941176470587
2.5698254491e-06,0.20588235294117646
2.5698254491e-06,0.21323529411764705
2.5698254491e-06,0.22058823529411764
2.5698254491e-06,0.22794117647058823
2.5698254491e-06,0.23529411764705882
2.5698254491e-06,0.2426470588235294
2.5698254491e-06,0.25
2.5698254491e-06,0.25735294117647056
2.5698254491e-06,0.2647058823529412
2.5698254491e-06,0.27205882352941174
2.5698254491e-06,0.27941176470588236
2.5698254491e-06,0.2867647058823529
2.5698254491e-06,0.29411764705882354
2.5698254491e-06,0.3014705882352941
6.42456362275e-05,0.3088235294117647
6.42456362275e-05,0.3161764705882353
6.93852871257e-05,0.3235294117647059
0.000128491272455,0.33088235294117646
0.000128491272455,0.3382352941176471
0.000128491272455,0.34558823529411764
0.000128491272455,0.35294117647058826
0.000192736908683,0.3602941176470588
0.000214152120758,0.36764705882352944
0.000214152120758,0.375
0.000214152120758,0.38235294117647056
0.00025698254491,0.3897058823529412
0.00025698254491,0.39705882352941174
0.00025698254491,0.40441176470588236
0.00025698254491,0.4117647058823529
0.00025698254491,0.41911764705882354
0.00025698254491,0.4264705882352941
0.00025698254491,0.4338235294117647
0.000321228181138,0.4411764705882353
0.000385473817365,0.4485294117647059
0.000385473817365,0.45588235294117646
0.000471134665668,0.4632352941176471
0.00051396508982,0.47058823529411764
0.00051396508982,0.47794117647058826
0.00077094763473,0.4852941176470588
0.00104934539172,0.49264705882352944
0.0018631234506,0.5
0.00190595387475,0.5073529411764706
0.0023065494559,0.5147058823529411
0.00246274938872,0.5220588235294118
0.00303419518637,0.5294117647058824
0.00306237532684,0.5367647058823529
0.003105205751,0.5441176470588235
0.00331935787175,0.5514705882352942
0.00336218829591,0.5588235294117647
0.00361917084082,0.5661764705882353
0.0125007883821,0.5735294117647058
0.0126793377515,0.5808823529411765
0.0128660403703,0.5882352941176471
0.012942461825,0.5955882352941176
0.013004259491,0.6029411764705882
0.0130876064461,0.6102941176470589
0.013298386457,0.6176470588235294
0.0133319291495,0.625
0.0133746598094,0.6323529411764706
0.0133768644031,0.6397058823529411
0.0133778096898,0.6470588235294118
0.0133908770754,0.6544117647058824
0.0133944423166,0.6617647058823529
0.0133975404815,0.6691176470588235
0.0134117485605,0.6764705882352942
0.0134187621501,0.6838235294117647
0.0134419373557,0.6911764705882353
0.0134718118616,0.6985294117647058
0.013486846374,0.7058823529411765
0.0134868826783,0.7132352941176471
0.0134870488427,0.7205882352941176
0.0134870596558,0.7279411764705882
0.0134873010812,0.7352941176470589
0.0134873082903,0.7426470588235294
0.0134873082903,0.75
0.334771926884,0.7573529411764706
0.335469053754,0.7647058823529411
0.337517763431,0.7720588235294118
0.654380322307,0.7794117647058824
0.654380322307,0.7867647058823529
0.672096867787,0.7941176470588235
0.672096867787,0.8014705882352942
1.00431578065,0.8088235294117647
1.11672239119,0.8161764705882353
1.11672239119,0.8235294117647058
1.11672239119,0.8308823529411765
1.3004259491,0.8382352941176471
1.33768644031,0.8455882352941176
1.34187621501,0.8529411764705882
1.34868826783,0.8602941176470589
1.34870596558,0.8676470588235294
1.34873082903,0.875
1.34873082903,0.8823529411764706
1.67255289586,0.8897058823529411
1.94098435934,0.8970588235294118
2.01327172384,0.9044117647058824
2.44991530614,0.9117647058823529
2.5946721316,0.9191176470588235
2.69741084986,0.9264705882352942
4.04619176617,0.9338235294117647
5.46442770831,0.9411764705882353
9.77644457501,0.9485294117647058
9.89856198245,0.9558823529411765
12.9124450201,0.9632352941176471
15.6842973116,0.9705882352941176
15.9149522572,0.9779411764705882
16.2654707921,0.9852941176470589
17.5334045673,0.9926470588235294
17.8368240859,1.0
