Congestion,CDF
0.0,0.007352941176470588
0.0,0.014705882352941176
0.0,0.022058823529411766
0.0,0.029411764705882353
0.0,0.03676470588235294
0.0,0.04411764705882353
0.0,0.051470588235294115
0.0,0.058823529411764705
0.0,0.0661764705882353
0.0,0.07352941176470588
0.0,0.08088235294117647
0.0,0.08823529411764706
0.0,0.09558823529411764
0.0,0.10294117647058823
1.97333997093e-06,0.11029411764705882
1.97333997093e-06,0.11764705882352941
1.97333997093e-06,0.125
1.97333997093e-06,0.1323529411764706
1.97333997093e-06,0.13970588235294118
1.97333997093e-06,0.14705882352941177
1.97333997093e-06,0.15441176470588236
1.97333997093e-06,0.16176470588235295
1.97333997093e-06,0.16911764705882354
1.97333997093e-06,0.17647058823529413
1.97333997093e-06,0.18382352941176472
1.97333997093e-06,0.19117647058823528
1.97333997093e-06,0.19852941176470587
1.97333997093e-06,0.20588235294117646
1.97333997093e-06,0.21323529411764705
1.97333997093e-06,0.22058823529411764
1.97333997093e-06,0.22794117647058823
1.97333997093e-06,0.23529411764705882
1.97333997093e-06,0.2426470588235294
1.97333997093e-06,0.25
1.97333997093e-06,0.25735294117647056
1.97333997093e-06,0.2647058823529412
1.97333997093e-06,0.27205882352941174
1.97333997093e-06,0.27941176470588236
1.97333997093e-06,0.2867647058823529
1.97333997093e-06,0.29411764705882354
1.97333997093e-06,0.3014705882352941
4.93334992734e-05,0.3088235294117647
4.93334992734e-05,0.3161764705882353
5.32801792152e-05,0.3235294117647059
9.86669985467e-05,0.33088235294117646
9.86669985467e-05,0.3382352941176471
9.86669985467e-05,0.34558823529411764
9.86669985467e-05,0.35294117647058826
0.00014800049782,0.3602941176470588
0.000164444997578,0.36764705882352944
0.000164444997578,0.375
0.000164444997578,0.38235294117647056
0.000197333997093,0.3897058823529412
0.000197333997093,0.39705882352941174
0.000197333997093,0.40441176470588236
0.000197333997093,0.4117647058823529
0.000197333997093,0.41911764705882354
0.000197333997093,0.4264705882352941
0.000197333997093,0.4338235294117647
0.000246667496367,0.4411764705882353
0.00029600099564,0.4485294117647059
0.00029600099564,0.45588235294117646
0.000361778994671,0.4632352941176471
0.000394667994187,0.47058823529411764
0.000394667994187,0.47794117647058826
0.00059200199128,0.4852941176470588
0.000805780488131,0.49264705882352944
0.00143067147893,0.5
0.00146356047844,0.5073529411764706
0.00189111747215,0.5147058823529411
0.00235156346536,0.5220588235294118
0.00238445246488,0.5294117647058824
0.00254889746246,0.5367647058823529
0.00258178646197,0.5441176470588235
0.00277912045907,0.5514705882352942
0.013253189667,0.5588235294117647
0.0135365073873,0.5661764705882353
0.0161290921072,0.5735294117647058
0.0161888669109,0.5808823529411765
0.016225305813,0.5882352941176471
0.0162273368866,0.5955882352941176
0.0162337562103,0.6029411764705882
0.0163429447496,0.6102941176470589
0.0164992917375,0.6176470588235294
0.0165104653828,0.625
0.0165484673681,0.6323529411764706
0.0165488514674,0.6397058823529411
0.0165493883231,0.6470588235294118
0.0165627664653,0.6544117647058824
0.0165671953627,0.6617647058823529
0.0165829343733,0.6691176470588235
0.0165869067443,0.6764705882352942
0.0165898741174,0.6838235294117647
0.0166147108015,0.6911764705882353
0.0166425740979,0.6985294117647058
0.0166568515827,0.7058823529411765
0.0166568608892,0.7132352941176471
0.0166570109965,0.7205882352941176
0.0166570147394,0.7279411764705882
0.0166572578825,0.7352941176470589
0.0166572603781,0.7426470588235294
0.0166572603781,0.75
0.414069161633,0.7573529411764706
0.414746852935,0.7647058823529411
0.43953994282,0.7720588235294118
0.817147237481,0.7794117647058824
0.817147237481,0.7867647058823529
0.830735540077,0.7941176470588235
0.830735540077,0.8014705882352942
1.2422074849,0.8088235294117647
1.38105585999,0.8161764705882353
1.38105585999,0.8235294117647058
1.38105585999,0.8308823529411765
1.62337562103,0.8382352941176471
1.65488514674,0.8455882352941176
1.65898741174,0.8529411764705882
1.66568608892,0.8602941176470589
1.66570147394,0.8676470588235294
1.66572603781,0.875
1.66572603781,0.8823529411764706
2.06900799394,0.8897058823529411
2.43603392857,0.8970588235294118
2.48942621451,0.9044117647058824
3.03210239827,0.9117647058823529
3.24610930969,0.9191176470588235
3.33140257359,0.9264705882352942
4.99717786387,0.9338235294117647
6.75979573749,0.9411764705882353
12.0746985376,0.9485294117647058
12.258974547,0.9558823529411765
15.9507473474,0.9632352941176471
19.554026996,0.9705882352941176
20.0984669993,0.9779411764705882
20.8793459627,0.9852941176470589
21.7209975806,0.9926470588235294
23.0746483193,1.0
