Congestion,CDF
0.0,0.007352941176470588
0.0,0.014705882352941176
0.0,0.022058823529411766
0.0,0.029411764705882353
0.0,0.03676470588235294
0.0,0.04411764705882353
0.0,0.051470588235294115
0.0,0.058823529411764705
0.0,0.0661764705882353
0.0,0.07352941176470588
0.0,0.08088235294117647
0.0,0.08823529411764706
0.0,0.09558823529411764
0.0,0.10294117647058823
1.30183732926e-06,0.11029411764705882
1.30183732926e-06,0.11764705882352941
1.30183732926e-06,0.125
1.30183732926e-06,0.1323529411764706
1.30183732926e-06,0.13970588235294118
1.30183732926e-06,0.14705882352941177
1.30183732926e-06,0.15441176470588236
1.30183732926e-06,0.16176470588235295
1.30183732926e-06,0.16911764705882354
1.30183732926e-06,0.17647058823529413
1.30183732926e-06,0.18382352941176472
1.30183732926e-06,0.19117647058823528
1.30183732926e-06,0.19852941176470587
1.30183732926e-06,0.20588235294117646
1.30183732926e-06,0.21323529411764705
1.30183732926e-06,0.22058823529411764
1.30183732926e-06,0.22794117647058823
1.30183732926e-06,0.23529411764705882
1.30183732926e-06,0.2426470588235294
1.30183732926e-06,0.25
1.30183732926e-06,0.25735294117647056
1.30183732926e-06,0.2647058823529412
1.30183732926e-06,0.27205882352941174
1.30183732926e-06,0.27941176470588236
1.30183732926e-06,0.2867647058823529
1.30183732926e-06,0.29411764705882354
1.30183732926e-06,0.3014705882352941
3.25459332314e-05,0.3088235294117647
3.25459332314e-05,0.3161764705882353
3.51496078899e-05,0.3235294117647059
6.50918664628e-05,0.33088235294117646
6.50918664628e-05,0.3382352941176471
6.50918664628e-05,0.34558823529411764
6.50918664628e-05,0.35294117647058826
9.76377996942e-05,0.3602941176470588
0.000108486444105,0.36764705882352944
0.000108486444105,0.375
0.000108486444105,0.38235294117647056
0.000130183732926,0.3897058823529412
0.000130183732926,0.39705882352941174
0.000130183732926,0.40441176470588236
0.000130183732926,0.4117647058823529
0.000130183732926,0.41911764705882354
0.000130183732926,0.4264705882352941
0.000130183732926,0.4338235294117647
0.000162729666157,0.4411764705882353
0.000195275599388,0.4485294117647059
0.000195275599388,0.45588235294117646
0.00023867017703,0.4632352941176471
0.000260367465851,0.47058823529411764
0.000260367465851,0.47794117647058826
0.000390551198777,0.4852941176470588
0.000531583576113,0.49264705882352944
0.00094383206371,0.5
0.000965529352531,0.5073529411764706
0.0012475941072,0.5147058823529411
0.0015513561507,0.5220588235294118
0.00157305343952,0.5294117647058824
0.00168153988362,0.5367647058823529
0.00170323717244,0.5441176470588235
0.00183342090537,0.5514705882352942
0.0170870217134,0.5588235294117647
0.0177246341674,0.5661764705882353
0.0246798820583,0.5735294117647058
0.0248153344892,0.5808823529411765
0.0248946236259,0.5882352941176471
0.0249496350322,0.5955882352941176
0.0249825644332,0.6029411764705882
0.0250801866123,0.6102941176470589
0.0252581739697,0.6176470588235294
0.0252794252061,0.625
0.0253193039389,0.6323529411764706
0.0253204782509,0.6397058823529411
0.0253211635867,0.6470588235294118
0.0253344719475,0.6544117647058824
0.0253385432274,0.6617647058823529
0.0253485358061,0.6691176470588235
0.025357193055,0.6764705882352942
0.0253618513882,0.6838235294117647
0.0253860024804,0.6911764705882353
0.0254146168095,0.6985294117647058
0.0254291987062,0.7058823529411765
0.0254292188112,0.7132352941176471
0.0254293743496,0.7205882352941176
0.0254293807007,0.7279411764705882
0.0254296230461,0.7352941176470589
0.0254296272804,0.7426470588235294
0.0254296272804,0.75
0.633361798689,0.7573529411764706
0.634046284705,0.7647058823529411
0.666259691973,0.7720588235294118
1.25400933062,0.7794117647058824
1.25400933062,0.7867647058823529
1.26930012402,0.7941176470588235
1.26930012402,0.8014705882352942
1.90008539607,0.8088235294117647
2.11202619097,0.8161764705882353
2.11202619097,0.8235294117647058
2.11202619097,0.8308823529411765
2.49825644332,0.8382352941176471
2.53204782509,0.8455882352941176
2.53618513882,0.8529411764705882
2.54292188112,0.8602941176470589
2.54293807007,0.8676470588235294
2.54296272804,0.875
2.54296272804,0.8823529411764706
3.16547815736,0.8897058823529411
3.7434716932,0.8970588235294118
3.80501942952,0.9044117647058824
4.63996871158,0.9117647058823529
4.99321994654,0.9191176470588235
5.08587550503,0.9264705882352942
7.62888776069,0.9338235294117647
10.3414825673,0.9411764705882353
18.4346513022,0.9485294117647058
18.7612780065,0.9558823529411765
24.3574392981,0.9632352941176471
29.9659578521,0.9705882352941176
30.6973123082,0.9779411764705882
31.6746600234,0.9852941176470589
33.1788457572,0.9926470588235294
34.9513091739,1.0
