Congestion,CDF
0.0,0.009433962264150943
0.0,0.018867924528301886
0.0,0.02830188679245283
0.0,0.03773584905660377
0.0,0.04716981132075472
0.0,0.05660377358490566
0.0,0.0660377358490566
0.0,0.07547169811320754
0.0,0.08490566037735849
0.0,0.09433962264150944
0.0,0.10377358490566038
0.0,0.11320754716981132
0.0,0.12264150943396226
0.0,0.1320754716981132
0.0,0.14150943396226415
0.0,0.1509433962264151
0.0,0.16037735849056603
0.0,0.16981132075471697
0.0,0.1792452830188679
0.0,0.18867924528301888
0.0,0.19811320754716982
0.0,0.20754716981132076
0.0,0.2169811320754717
0.0,0.22641509433962265
0.0,0.2358490566037736
0.0,0.24528301886792453
0.0,0.25471698113207547
0.0,0.2641509433962264
0.0,0.27358490566037735
0.0,0.2830188679245283
2.50729409038e-07,0.29245283018867924
6.45939451801e-06,0.3018867924528302
7.26370142597e-06,0.3113207547169811
9.84713945188e-06,0.32075471698113206
1.11156437758e-05,0.330188679245283
1.47907434756e-05,0.33962264150943394
1.71132910335e-05,0.3490566037735849
1.93178179195e-05,0.3584905660377358
2.2556111131e-05,0.36792452830188677
2.88730138003e-05,0.37735849056603776
3.0556729172e-05,0.3867924528301887
3.56392555357e-05,0.39622641509433965
4.38804584967e-05,0.4056603773584906
4.48859240151e-05,0.41509433962264153
4.73590670754e-05,0.42452830188679247
5.31043763426e-05,0.4339622641509434
8.23050695986e-05,0.44339622641509435
0.000184884293445,0.4528301886792453
0.000184884293445,0.46226415094339623
0.000303477911283,0.4716981132075472
0.000360912672504,0.4811320754716981
0.000360912672504,0.49056603773584906
0.00036976858689,0.5
0.00036976858689,0.5094339622641509
0.00036976858689,0.5188679245283019
0.000473949412906,0.5283018867924528
0.000570869906853,0.5377358490566038
0.000721825345008,0.5471698113207547
0.000721825345008,0.5566037735849056
0.000721825345008,0.5660377358490566
0.000908982037248,0.5754716981132075
0.000908982037248,0.5849056603773585
0.000984713945188,0.5943396226415094
0.0015030820002,0.6037735849056604
0.00155399986901,0.6132075471698113
0.0016736025225,0.6226415094339622
0.0016736025225,0.6320754716981132
0.00171132910335,0.6415094339622641
0.00207363342455,0.6509433962264151
0.00207363342455,0.660377358490566
0.00259117095422,0.6698113207547169
0.00318519780213,0.6792452830188679
0.00322852401155,0.6886792452830188
0.00384877054051,0.6981132075471698
0.00503438936746,0.7075471698113207
0.00523752807607,0.7169811320754716
0.00680954013209,0.7264150943396226
0.00951113201027,0.7358490566037735
0.0109022871612,0.7452830188679245
0.0187885250025,0.7547169811320755
0.0187885250025,0.7641509433962265
0.0194249983627,0.7735849056603774
0.0194249983627,0.7830188679245284
0.0211876464839,0.7924528301886793
0.0303763707496,0.8018867924528302
0.0312011231254,0.8113207547169812
0.037577050005,0.8207547169811321
0.037577050005,0.8301886792452831
0.037577050005,0.839622641509434
0.0388499967253,0.8490566037735849
0.0388499967253,0.8584905660377359
0.0388499967253,0.8679245283018868
0.0408687421823,0.8773584905660378
0.0408687421823,0.8867924528301887
0.0428005239742,0.8962264150943396
0.0490992491421,0.9056603773584906
0.102419085701,0.9150943396226415
0.167772071076,0.9245283018867925
0.167772071076,0.9339622641509434
0.215167012367,0.9433962264150944
0.513770123879,0.9528301886792453
0.513770123879,0.9622641509433962
1.06641924901,0.9716981132075472
3.07585059832,0.9811320754716981
3.15832583591,0.9905660377358491
8.8667112065,1.0
