Congestion,CDF
0.0,0.009433962264150943
0.0,0.018867924528301886
0.0,0.02830188679245283
0.0,0.03773584905660377
0.0,0.04716981132075472
0.0,0.05660377358490566
0.0,0.0660377358490566
0.0,0.07547169811320754
0.0,0.08490566037735849
0.0,0.09433962264150944
0.0,0.10377358490566038
0.0,0.11320754716981132
0.0,0.12264150943396226
0.0,0.1320754716981132
0.0,0.14150943396226415
0.0,0.1509433962264151
0.0,0.16037735849056603
0.0,0.16981132075471697
0.0,0.1792452830188679
0.0,0.18867924528301888
0.0,0.19811320754716982
0.0,0.20754716981132076
0.0,0.2169811320754717
0.0,0.22641509433962265
0.0,0.2358490566037736
0.0,0.24528301886792453
0.0,0.25471698113207547
0.0,0.2641509433962264
0.0,0.27358490566037735
0.0,0.2830188679245283
7.0834156996e-08,0.29245283018867924
1.82485878758e-06,0.3018867924528302
2.05208543008e-06,0.3113207547169811
2.78193860294e-06,0.32075471698113206
3.14030675279e-06,0.330188679245283
4.17856784115e-06,0.33962264150943394
6.3723801815e-06,0.3490566037735849
8.15698326066e-06,0.3584905660377358
8.63265366339e-06,0.36792452830188677
1.00685301797e-05,0.37735849056603776
1.23967718751e-05,0.3867924528301887
1.26808283113e-05,0.39622641509433965
1.33795217931e-05,0.4056603773584906
1.71132910335e-05,0.41509433962264153
5.22320980144e-05,0.42452830188679247
5.22320980144e-05,0.4339622641509434
8.57362608362e-05,0.44339622641509435
8.68564846654e-05,0.4528301886792453
0.000101962290758,0.46226415094339623
0.000101962290758,0.4716981132075472
0.000104464196029,0.4811320754716981
0.000104464196029,0.49056603773584906
0.000104464196029,0.5
0.000161277804472,0.5094339622641509
0.000203924581517,0.5188679245283019
0.000203924581517,0.5283018867924528
0.000203924581517,0.5377358490566038
0.000256798660277,0.5471698113207547
0.000256798660277,0.5566037735849056
0.000278193860294,0.5660377358490566
0.000472813397848,0.5754716981132075
0.000472813397848,0.5849056603773585
0.000585827071942,0.5943396226415094
0.000585827071942,0.6037735849056604
0.000899857747221,0.6132075471698113
0.000912097936882,0.6226415094339622
0.00119123049305,0.6320754716981132
0.0014222772199,0.6415094339622641
0.00147966641582,0.6509433962264151
0.00148918981257,0.660377358490566
0.00171132910335,0.6698113207547169
0.00192377925125,0.6792452830188679
0.00308003087215,0.6886792452830188
0.00875570904488,0.6981132075471698
0.0132624584302,0.7075471698113207
0.0249974448499,0.7169811320754716
0.0306085344328,0.7264150943396226
0.0327524223783,0.7358490566037735
0.033110101704,0.7452830188679245
0.0423077802471,0.7547169811320755
0.0554137256147,0.7641509433962265
0.0567902897759,0.7735849056603774
0.300782856559,0.7830188679245284
0.409405279729,0.7924528301886793
0.409405279729,0.8018867924528302
0.4138762713,0.8113207547169812
0.4138762713,0.8207547169811321
0.818810559459,0.8301886792452831
0.818810559459,0.839622641509434
0.818810559459,0.8490566037735849
0.827752542601,0.8584905660377359
0.827752542601,0.8679245283018868
0.827752542601,0.8773584905660378
1.48640447254,0.8867924528301887
1.48640447254,0.8962264150943396
1.60552752185,0.9056603773584906
1.6353234538,0.9150943396226415
2.07315379353,0.9245283018867925
2.07315379353,0.9339622641509434
2.08183944199,0.9433962264150944
2.93867056338,0.9528301886792453
2.93867056338,0.9622641509433962
5.8873952614,0.9716981132075472
6.3646541125,0.9811320754716981
6.50231052862,0.9905660377358491
18.8664886478,1.0
