Congestion,CDF
0.0,0.009433962264150943
0.0,0.018867924528301886
0.0,0.02830188679245283
0.0,0.03773584905660377
0.0,0.04716981132075472
0.0,0.05660377358490566
0.0,0.0660377358490566
0.0,0.07547169811320754
0.0,0.08490566037735849
0.0,0.09433962264150944
0.0,0.10377358490566038
0.0,0.11320754716981132
0.0,0.12264150943396226
0.0,0.1320754716981132
0.0,0.14150943396226415
0.0,0.1509433962264151
0.0,0.16037735849056603
0.0,0.16981132075471697
0.0,0.1792452830188679
0.0,0.18867924528301888
0.0,0.19811320754716982
0.0,0.20754716981132076
0.0,0.2169811320754717
0.0,0.22641509433962265
0.0,0.2358490566037736
0.0,0.24528301886792453
0.0,0.25471698113207547
0.0,0.2641509433962264
0.0,0.27358490566037735
0.0,0.2830188679245283
6.22219873202e-08,0.29245283018867924
1.60298851793e-06,0.3018867924528302
1.80258845485e-06,0.3113207547169811
2.44370450385e-06,0.32075471698113206
2.75850148064e-06,0.330188679245283
3.67052854519e-06,0.33962264150943394
5.5976124467e-06,0.3490566037735849
7.16523963212e-06,0.3584905660377358
7.58307700073e-06,0.36792452830188677
8.8443765514e-06,0.37735849056603776
1.08895455968e-05,0.3867924528301887
1.11390658385e-05,0.39622641509433965
1.1752810659e-05,0.4056603773584906
4.58816068149e-05,0.41509433962264153
4.58816068149e-05,0.42452830188679247
7.5312261215e-05,0.4339622641509434
8.95654954015e-05,0.44339622641509435
8.95654954015e-05,0.4528301886792453
9.17632136298e-05,0.46226415094339623
9.17632136298e-05,0.4716981132075472
9.17632136298e-05,0.4811320754716981
0.000141669300948,0.49056603773584906
0.000179130990803,0.5
0.000179130990803,0.5094339622641509
0.000179130990803,0.5188679245283019
0.000225576524959,0.5283018867924528
0.000225576524959,0.5377358490566038
0.000244370450385,0.5471698113207547
0.000415327724551,0.5566037735849056
0.000415327724551,0.5660377358490566
0.000514600952253,0.5754716981132075
0.000514600952253,0.5849056603773585
0.000790451100317,0.5943396226415094
0.000801203101303,0.6037735849056604
0.00124935368606,0.6132075471698113
0.00129976537969,0.6226415094339622
0.00168988201815,0.6320754716981132
0.00270555407166,0.6415094339622641
0.00825573606648,0.6509433962264151
0.019097461316,0.660377358490566
0.0193150831192,0.6698113207547169
0.0196916236561,0.6792452830188679
0.021093202733,0.6886792452830188
0.0244473679233,0.6981132075471698
0.0253420567039,0.7075471698113207
0.0271455462857,0.7169811320754716
0.0272259335391,0.7264150943396226
0.0304713946716,0.7358490566037735
0.0320558422661,0.7452830188679245
0.0357919867475,0.7547169811320755
0.0361699055173,0.7641509433962265
0.326103140545,0.7735849056603774
0.339319328572,0.7830188679245284
0.339319328572,0.7924528301886793
0.340324169238,0.8018867924528302
0.340324169238,0.8113207547169812
0.678638657143,0.8207547169811321
0.678638657143,0.8301886792452831
0.678638657143,0.839622641509434
0.680648338476,0.8490566037735849
0.680648338476,0.8584905660377359
0.680648338476,0.8679245283018868
0.825573606648,0.8773584905660378
1.73430363446,0.8867924528301887
1.73430363446,0.8962264150943396
1.90201189398,0.9056603773584906
1.90201189398,0.9150943396226415
2.20321323139,0.9245283018867925
2.20321323139,0.9339622641509434
3.64404976607,0.9433962264150944
3.66581194639,0.9528301886792453
3.87117425959,0.9622641509433962
4.25884217256,0.9716981132075472
4.29663404954,0.9811320754716981
6.63943079576,0.9905660377358491
13.9642736801,1.0
