Congestion,CDF
0.0,0.005555555555555556
0.0,0.011111111111111112
0.0,0.016666666666666666
0.0,0.022222222222222223
0.0,0.027777777777777776
0.0,0.03333333333333333
0.0,0.03888888888888889
0.0,0.044444444444444446
0.0,0.05
0.0,0.05555555555555555
1.06894766547e-06,0.06111111111111111
1.22816945865e-06,0.06666666666666667
2.76450769354e-06,0.07222222222222222
4.04048880534e-06,0.07777777777777778
4.13441435417e-06,0.08333333333333333
5.45885019814e-06,0.08888888888888889
6.00545771061e-06,0.09444444444444444
8.27689016454e-06,0.1
8.31959105504e-06,0.10555555555555556
8.51172259292e-06,0.1111111111111111
8.6869036101e-06,0.11666666666666667
9.56250616424e-06,0.12222222222222222
9.78430620085e-06,0.12777777777777777
1.09260748309e-05,0.13333333333333333
1.11904956756e-05,0.1388888888888889
1.17837344862e-05,0.14444444444444443
1.36256928535e-05,0.15
1.49120574879e-05,0.15555555555555556
1.55711917023e-05,0.16111111111111112
1.61946796689e-05,0.16666666666666666
1.64509127501e-05,0.17222222222222222
1.65830353652e-05,0.17777777777777778
1.71324549817e-05,0.18333333333333332
1.77277751373e-05,0.18888888888888888
1.802702756e-05,0.19444444444444445
1.82306102793e-05,0.2
1.83317537924e-05,0.20555555555555555
1.85422643986e-05,0.2111111111111111
1.87234558672e-05,0.21666666666666667
1.87645425215e-05,0.2222222222222222
1.9391514089e-05,0.22777777777777777
1.95532950435e-05,0.23333333333333334
1.9777754698e-05,0.2388888888888889
2.14182475378e-05,0.24444444444444444
2.25375971153e-05,0.25
2.44692749649e-05,0.25555555555555554
2.48569224006e-05,0.2611111111111111
2.52146315328e-05,0.26666666666666666
2.60685234172e-05,0.2722222222222222
9.21502564513e-05,0.2777777777777778
0.000184300512903,0.2833333333333333
0.000197462144191,0.28888888888888886
0.000202024440267,0.29444444444444445
0.000202024440267,0.3
0.000207989776376,0.3055555555555556
0.000207989776376,0.3111111111111111
0.000314884542923,0.31666666666666665
0.000413441435417,0.32222222222222224
0.000415979552752,0.3277777777777778
0.000553848275831,0.3333333333333333
0.000827689016454,0.3388888888888889
0.000860769562737,0.34444444444444444
0.000911530513963,0.35
0.000911530513963,0.35555555555555557
0.000911989821025,0.3611111111111111
0.0011642403928,0.36666666666666664
0.00177277751373,0.37222222222222223
0.001802702756,0.37777777777777777
0.00186032797679,0.38333333333333336
0.00200413799706,0.3888888888888889
0.00212039639325,0.39444444444444443
0.00212039639325,0.4
0.00241788873296,0.40555555555555556
0.0025552661892,0.4111111111111111
0.00274759639804,0.4166666666666667
0.00293744270603,0.4222222222222222
0.00364923176588,0.42777777777777776
0.00385836443692,0.43333333333333335
0.00405954780214,0.4388888888888889
0.00499080973715,0.4444444444444444
0.00585950009816,0.45
0.00613488373318,0.45555555555555555
0.00757549605632,0.46111111111111114
0.00858181122967,0.4666666666666667
0.00950856457294,0.4722222222222222
0.00971937767781,0.4777777777777778
0.0097265367924,0.48333333333333334
0.00979547677753,0.4888888888888889
0.00984106996634,0.49444444444444446
0.00985690309137,0.5
0.00991636926294,0.5055555555555555
0.0100428218114,0.5111111111111111
0.010044751246,0.5166666666666667
0.0100612361387,0.5222222222222223
0.0100753561958,0.5277777777777778
0.010100530153,0.5333333333333333
0.0101616106505,0.5388888888888889
0.0101735821907,0.5444444444444444
0.0101980339448,0.55
0.0102591369173,0.5555555555555556
0.0103405848469,0.5611111111111111
0.0103701483707,0.5666666666666667
0.0103939426614,0.5722222222222222
0.010398091742,0.5777777777777777
0.0104062893578,0.5833333333333334
0.0104402184031,0.5888888888888889
0.0104668276493,0.5944444444444444
0.0104803612743,0.6
0.0104813200669,0.6055555555555555
0.0104894378195,0.6111111111111112
0.0104940306394,0.6166666666666667
0.0105033772922,0.6222222222222222
0.0105133511563,0.6277777777777778
0.0105415909971,0.6333333333333333
0.0105589092288,0.6388888888888888
0.0106324940166,0.6444444444444445
0.0106824686063,0.65
0.0107694117064,0.6555555555555556
0.0107867368999,0.6611111111111111
0.0108028984452,0.6666666666666666
0.0108406605736,0.6722222222222223
0.0152681715337,0.6777777777777778
0.0185750996725,0.6833333333333333
0.0194429056898,0.6888888888888889
0.0211819520142,0.6944444444444444
0.0216966654013,0.7
0.0228270432893,0.7055555555555556
0.0230770632902,0.7111111111111111
0.0244396325756,0.7166666666666667
0.0263949620799,0.7222222222222222
0.0265597168528,0.7277777777777777
0.026995507851,0.7333333333333333
0.0274108891121,0.7388888888888889
0.0283893197321,0.7444444444444445
0.251118781151,0.75
0.251118781151,0.7555555555555555
0.326515892584,0.7611111111111111
0.381983961108,0.7666666666666667
0.492053498317,0.7722222222222223
0.492053498317,0.7777777777777778
0.502237562301,0.7833333333333333
0.524471890975,0.7888888888888889
0.524471890975,0.7944444444444444
0.653031785169,0.8
0.985690309137,0.8055555555555556
1.00428218114,0.8111111111111111
1.04668276493,0.8166666666666667
1.04803612743,0.8222222222222222
1.22305654893,0.8277777777777777
1.26117179645,0.8333333333333334
1.53144776446,0.8388888888888889
1.54063295602,0.8444444444444444
1.58252740682,0.85
1.62645870553,0.8555555555555555
1.62645870553,0.8611111111111112
2.04893971079,0.8666666666666667
2.09801788055,0.8722222222222222
2.21469347523,0.8777777777777778
2.59097068524,0.8833333333333333
2.62174617373,0.8888888888888888
2.68061780524,0.8944444444444445
3.2517083123,0.9
4.77267577298,0.9055555555555556
5.22085855849,0.9111111111111111
5.8363533073,0.9166666666666666
6.22698217236,0.9222222222222223
6.91329447794,0.9277777777777778
12.0490610093,0.9333333333333333
12.6809567337,0.9388888888888889
13.7650227911,0.9444444444444444
14.8056517268,0.95
15.1378098943,0.9555555555555556
16.2060567549,0.9611111111111111
17.385231498,0.9666666666666667
17.7179136477,0.9722222222222222
18.3360879553,0.9777777777777777
18.4272869374,0.9833333333333333
18.7438273394,0.9888888888888889
19.751362959,0.9944444444444445
19.7711091734,1.0
