Congestion,CDF
0.0,0.005555555555555556
0.0,0.011111111111111112
0.0,0.016666666666666666
0.0,0.022222222222222223
0.0,0.027777777777777776
0.0,0.03333333333333333
0.0,0.03888888888888889
0.0,0.044444444444444446
0.0,0.05
0.0,0.05555555555555555
1.05074163025e-06,0.06111111111111111
1.20725159976e-06,0.06666666666666667
2.7174233263e-06,0.07222222222222222
3.97167226372e-06,0.07777777777777778
4.06399809733e-06,0.08333333333333333
5.36587649868e-06,0.08888888888888889
5.9031743359e-06,0.09444444444444444
8.13592035026e-06,0.1
8.17789397044e-06,0.10555555555555556
8.36675317454e-06,0.1111111111111111
8.53895055475e-06,0.11666666666666667
9.3996400767e-06,0.12222222222222222
9.61766247348e-06,0.12777777777777777
1.07399848008e-05,0.13333333333333333
1.09999020993e-05,0.1388888888888889
1.15830370227e-05,0.14444444444444443
1.33936236399e-05,0.15
1.46580792506e-05,0.15555555555555556
1.53059872645e-05,0.16111111111111112
1.59188561483e-05,0.16666666666666666
1.61707251351e-05,0.17222222222222222
1.63005974726e-05,0.17777777777777778
1.68406595188e-05,0.18333333333333332
1.74258403382e-05,0.18888888888888888
1.77199959724e-05,0.19444444444444445
1.79201113244e-05,0.2
1.80195321879e-05,0.20555555555555555
1.82264574329e-05,0.2111111111111111
1.84045628961e-05,0.21666666666666667
1.84449497733e-05,0.2222222222222222
1.90612429261e-05,0.22777777777777777
1.922026847e-05,0.23333333333333334
1.94409051867e-05,0.2388888888888889
2.10534575843e-05,0.24444444444444444
2.21537426946e-05,0.25
2.40525207156e-05,0.25555555555555554
2.44335658422e-05,0.2611111111111111
2.47851825666e-05,0.26666666666666666
2.56245311892e-05,0.2722222222222222
9.05807775432e-05,0.2777777777777778
0.000181161555086,0.2833333333333333
0.000198583613186,0.28888888888888886
0.000198583613186,0.29444444444444445
0.000204447349261,0.3
0.000204447349261,0.3055555555555556
0.000309521512286,0.3111111111111111
0.000406399809733,0.31666666666666665
0.000408894698522,0.32222222222222224
0.000544415277805,0.3277777777777778
0.000813592035026,0.3333333333333333
0.000846109162154,0.3388888888888889
0.000896005566221,0.34444444444444444
0.000896005566221,0.35
0.00114441135693,0.35555555555555557
0.00174258403382,0.3611111111111111
0.00177199959724,0.36666666666666664
0.00182864336045,0.37222222222222223
0.00197000404631,0.37777777777777777
0.0020842823601,0.38333333333333336
0.0020842823601,0.3888888888888889
0.00237670788861,0.39444444444444443
0.00251174556817,0.4
0.00270080005953,0.40555555555555556
0.00288741295518,0.4111111111111111
0.00358707901115,0.4166666666666667
0.00379264978959,0.4222222222222222
0.00399040665271,0.42777777777777776
0.00490580757961,0.43333333333333335
0.00575970263508,0.4388888888888889
0.00603039600852,0.4444444444444444
0.00744647220183,0.45
0.00843564808008,0.45555555555555555
0.0135848939581,0.46111111111111114
0.0140734242995,0.4666666666666667
0.0150081280557,0.4722222222222222
0.018258733465,0.4777777777777778
0.0191117592387,0.48333333333333334
0.020821186584,0.4888888888888889
0.0213271335082,0.49444444444444446
0.0224382590975,0.5
0.0226840208236,0.5055555555555555
0.0227272008681,0.5111111111111111
0.0228391533068,0.5166666666666667
0.0228441882654,0.5222222222222223
0.0228926321777,0.5277777777777778
0.022923011857,0.5333333333333333
0.0229357829126,0.5388888888888889
0.0229775798191,0.5444444444444444
0.023066437304,0.55
0.0230677970591,0.5555555555555556
0.0230793816903,0.5611111111111111
0.0231069944098,0.5666666666666667
0.0231239902783,0.5722222222222222
0.0231498839008,0.5777777777777777
0.0231583276684,0.5833333333333334
0.023175104864,0.5888888888888889
0.0232175877235,0.5944444444444444
0.0232756814907,0.6
0.0232964516016,0.6055555555555555
0.0233102807336,0.6111111111111112
0.0233160776369,0.6166666666666667
0.0233212243697,0.6222222222222222
0.0233456930412,0.6277777777777778
0.0233643605208,0.6333333333333333
0.0233734895042,0.6388888888888888
0.023373901544,0.6444444444444445
0.0233802622128,0.65
0.0233835056293,0.6555555555555556
0.0233900441977,0.6611111111111111
0.0233970527627,0.6666666666666666
0.0234169278409,0.6722222222222223
0.0234290933065,0.6777777777777778
0.0234807926969,0.6833333333333333
0.0235158449986,0.6888888888888889
0.0235770069841,0.6944444444444444
0.0235891616669,0.7
0.0236005498955,0.7055555555555556
0.0236269402265,0.7111111111111111
0.0240233831876,0.7166666666666667
0.0259454100346,0.7222222222222222
0.0261073587475,0.7277777777777777
0.0265357274682,0.7333333333333333
0.026944034065,0.7388888888888889
0.0279058003123,0.7444444444444445
0.576694926477,0.75
0.576694926477,0.7555555555555555
0.763087739257,0.7611111111111111
0.887707715224,0.7666666666666667
1.14615059285,0.7722222222222223
1.14615059285,0.7777777777777778
1.15338985295,0.7833333333333333
1.16901311064,0.7888888888888889
1.16901311064,0.7944444444444444
1.52617547851,0.8
2.29357829126,0.8055555555555556
2.3066437304,0.8111111111111111
2.33643605208,0.8166666666666667
2.3373901544,0.8222222222222222
2.86061025716,0.8277777777777777
2.88739436746,0.8333333333333334
3.47717866621,0.8388888888888889
3.48400150072,0.8444444444444444
3.5134448425,0.85
3.67772654393,0.8555555555555555
3.67772654393,0.8611111111111112
4.64165756095,0.8666666666666667
4.67614132836,0.8722222222222222
5.15836823907,0.8777777777777778
5.8230059205,0.8833333333333333
5.97805025578,0.8888888888888888
6.01941932802,0.8944444444444445
7.48801339923,0.9
10.6913787865,0.9055555555555556
11.9401956263,0.9111111111111111
13.3065795709,0.9166666666666666
14.2481337953,0.9222222222222223
15.6642802693,0.9277777777777778
27.2778631448,0.9333333333333333
28.5223436849,0.9388888888888889
30.8850377075,0.9444444444444444
33.2171601445,0.95
34.2511284694,0.9555555555555556
36.6027129693,0.9611111111111111
39.0316877611,0.9666666666666667
40.0663740485,0.9722222222222222
41.3044078479,0.9777777777777777
42.3881328209,0.9833333333333333
42.6628972437,0.9888888888888889
44.7005318487,0.9944444444444445
46.1078742786,1.0
