Congestion,CDF
0.0,0.005555555555555556
0.0,0.011111111111111112
0.0,0.016666666666666666
0.0,0.022222222222222223
0.0,0.027777777777777776
0.0,0.03333333333333333
0.0,0.03888888888888889
0.0,0.044444444444444446
0.0,0.05
0.0,0.05555555555555555
1.07307775573e-06,0.06111111111111111
1.23291473372e-06,0.06666666666666667
2.77518891457e-06,0.07222222222222222
4.0561000312e-06,0.07777777777777778
4.15038847993e-06,0.08333333333333333
5.47994154314e-06,0.08888888888888889
6.0286609816e-06,0.09444444444444444
8.30886956308e-06,0.1
8.35173543689e-06,0.10555555555555556
8.54460931289e-06,0.1111111111111111
8.72046717649e-06,0.11666666666666667
9.59945279389e-06,0.12222222222222222
9.82210979871e-06,0.12777777777777777
1.09682898772e-05,0.13333333333333333
1.1233732364e-05,0.1388888888888889
1.18292632699e-05,0.14444444444444443
1.36783384067e-05,0.15
1.49696731648e-05,0.15555555555555556
1.56313540743e-05,0.16111111111111112
1.62572510097e-05,0.16666666666666666
1.6514474098e-05,0.17222222222222222
1.66471071949e-05,0.17777777777777778
1.71986496025e-05,0.18333333333333332
1.7796269895e-05,0.18888888888888888
1.80966785384e-05,0.19444444444444445
1.83010478397e-05,0.2
1.84025821408e-05,0.20555555555555555
1.86139060963e-05,0.2111111111111111
1.87957976339e-05,0.21666666666666667
1.88370430346e-05,0.2222222222222222
1.94664370304e-05,0.22777777777777777
1.96288430576e-05,0.23333333333333334
1.98541699562e-05,0.2388888888888889
2.15010011639e-05,0.24444444444444444
2.26246755694e-05,0.25
2.45638168376e-05,0.25555555555555554
2.49529620256e-05,0.2611111111111111
2.53120532376e-05,0.26666666666666666
2.61692443018e-05,0.2722222222222222
9.25062971522e-05,0.2777777777777778
0.000185012594304,0.2833333333333333
0.000194758187314,0.28888888888888886
0.00020280500156,0.29444444444444445
0.00020280500156,0.3
0.000208793385922,0.3055555555555556
0.000208793385922,0.3111111111111111
0.000316101161495,0.31666666666666665
0.000415038847993,0.32222222222222224
0.000417586771845,0.3277777777777778
0.000555988177943,0.3333333333333333
0.000830886956308,0.3388888888888889
0.000864095315809,0.34444444444444444
0.000874365011245,0.35
0.000915052391987,0.35555555555555557
0.000915052391987,0.3611111111111111
0.00116873866531,0.36666666666666664
0.0017796269895,0.37222222222222223
0.00180966785384,0.37777777777777777
0.00186751572105,0.38333333333333336
0.00201188137971,0.3888888888888889
0.00212858896316,0.39444444444444443
0.00212858896316,0.4
0.00242723072324,0.40555555555555556
0.00256513896438,0.4111111111111111
0.00275821227894,0.4166666666666667
0.00294879209561,0.4222222222222222
0.00366333129296,0.42777777777777776
0.00387327198934,0.43333333333333335
0.0040752326662,0.4388888888888889
0.00501009271547,0.4444444444444444
0.00588213943312,0.45
0.00615858706715,0.45555555555555555
0.0076047654803,0.46111111111111114
0.00829674285903,0.4666666666666667
0.00852667080074,0.4722222222222222
0.0085340230214,0.4777777777777778
0.00860482628598,0.48333333333333334
0.00861496875091,0.4888888888888889
0.00865138208329,0.49444444444444446
0.0086679138795,0.5
0.00872898648299,0.5055555555555555
0.00885885675152,0.5111111111111111
0.00886083798953,0.5166666666666667
0.00887776835745,0.5222222222222223
0.00887926648871,0.5277777777777778
0.00891812431128,0.5333333333333333
0.00898085838474,0.5388888888888889
0.00899315078276,0.5444444444444444
0.00901824338577,0.55
0.00908025732944,0.5555555555555556
0.00916466696986,0.5611111111111111
0.00919502989039,0.5666666666666667
0.00921889596321,0.5722222222222222
0.00922372910961,0.5777777777777777
0.00923211816113,0.5833333333333334
0.00926699343081,0.5888888888888889
0.00929432437622,0.5944444444444444
0.00930822124472,0.6
0.00930824037667,0.6055555555555555
0.00931754460651,0.6111111111111112
0.00932226016155,0.6166666666666667
0.00933186188306,0.6222222222222222
0.0093421052642,0.6277777777777778
0.00937110582751,0.6333333333333333
0.0093888924788,0.6388888888888888
0.00946446671931,0.6444444444444445
0.00951579394269,0.65
0.00960508477223,0.6555555555555556
0.00962287949867,0.6611111111111111
0.00963947558554,0.6666666666666666
0.00967826426389,0.6722222222222223
0.0153271631275,0.6777777777777778
0.0186468682358,0.6833333333333333
0.0195180271929,0.6888888888888889
0.021263792666,0.6944444444444444
0.0217804947498,0.7
0.0229152400758,0.7055555555555556
0.0231662260783,0.7111111111111111
0.024534059919,0.7166666666666667
0.0264969442248,0.7222222222222222
0.0266623355602,0.7277777777777777
0.0270998103229,0.7333333333333333
0.0275167964915,0.7388888888888889
0.0284990074713,0.7444444444444445
0.221520949738,0.75
0.221520949738,0.7555555555555555
0.286827542866,0.7611111111111111
0.338358986919,0.7666666666666667
0.432569104165,0.7722222222222223
0.432569104165,0.7777777777777778
0.443041899476,0.7833333333333333
0.465877230325,0.7888888888888889
0.465877230325,0.7944444444444444
0.573655085732,0.8
0.86679138795,0.8055555555555556
0.885885675152,0.8111111111111111
0.929432437622,0.8166666666666667
0.930822124472,0.8222222222222222
1.07418802981,0.8277777777777777
1.11333338087,0.8333333333333334
1.35445870049,0.8388888888888889
1.3639630688,0.8444444444444444
1.40698945803,0.85
1.43997981102,0.8555555555555555
1.43997981102,0.8611111111111112
1.81323805988,0.8666666666666667
1.86364296404,0.8722222222222222
1.94708667811,0.8777777777777778
2.29714925711,0.8833333333333333
2.31662762072,0.8888888888888888
2.37709039377,0.8944444444444445
2.86658966715,0.9
4.23461186132,0.9055555555555556
4.61000973388,0.9111111111111111
5.15724182051,0.9166666666666666
5.49778656962,0.9222222222222223
6.11775029773,0.9277777777777778
10.6646244471,0.9333333333333333
11.2408304687,0.9388888888888889
12.2086568951,0.9444444444444444
13.1318687112,0.95
13.4002354179,0.9555555555555556
14.3518148122,0.9611111111111111
15.4171514494,0.9666666666666667
15.686208255,0.9722222222222222
16.2468257353,0.9777777777777777
16.3342622364,0.9833333333333333
16.5942339879,0.9888888888888889
17.4821606368,0.9944444444444445
17.5016364555,1.0
