Congestion,CDF
0.0,0.005555555555555556
0.0,0.011111111111111112
0.0,0.016666666666666666
0.0,0.022222222222222223
0.0,0.027777777777777776
0.0,0.03333333333333333
0.0,0.03888888888888889
0.0,0.044444444444444446
0.0,0.05
0.0,0.05555555555555555
1.12039338002e-06,0.06111111111111111
1.28727811048e-06,0.06666666666666667
2.89755637147e-06,0.07222222222222222
4.23494718758e-06,0.07777777777777778
4.33339313262e-06,0.08333333333333333
5.7215706831e-06,0.08888888888888889
6.29448501578e-06,0.09444444444444444
8.67523569868e-06,0.1
8.71999167372e-06,0.10555555555555556
8.92137001065e-06,0.1111111111111111
9.1049820417e-06,0.11666666666666667
1.00227251052e-05,0.12222222222222222
1.02551998097e-05,0.12777777777777777
1.14519188409e-05,0.13333333333333333
1.17290655839e-05,0.1388888888888889
1.23508554598e-05,0.14444444444444443
1.42814625677e-05,0.15
1.56297366388e-05,0.15555555555555556
1.63205932954e-05,0.16111111111111112
1.69740881418e-05,0.16666666666666666
1.72426530652e-05,0.17222222222222222
1.73811344035e-05,0.17777777777777778
1.79569961796e-05,0.18333333333333332
1.85809675702e-05,0.18888888888888888
1.88946222458e-05,0.19444444444444445
1.91080028802e-05,0.2
1.92140141717e-05,0.20555555555555555
1.94346561145e-05,0.2111111111111111
1.96245678646e-05,0.21666666666666667
1.96676319144e-05,0.2222222222222222
2.03247780183e-05,0.22777777777777777
2.0494345076e-05,0.23333333333333334
2.0729607399e-05,0.2388888888888889
2.24490529594e-05,0.24444444444444444
2.36222739665e-05,0.25
2.56469185257e-05,0.25555555555555554
2.60532224401e-05,0.2611111111111111
2.6428147197e-05,0.26666666666666666
2.73231347118e-05,0.2722222222222222
9.65852123825e-05,0.2777777777777778
0.000193170424765,0.2833333333333333
0.000211747359379,0.28888888888888886
0.000211747359379,0.29444444444444445
0.000217999791843,0.3
0.000217999791843,0.3055555555555556
0.000330039129845,0.3111111111111111
0.000433339313262,0.31666666666666665
0.000435999583686,0.32222222222222224
0.000580503575452,0.3277777777777778
0.000867523569868,0.3333333333333333
0.000902196198155,0.3388888888888889
0.000955400144011,0.34444444444444444
0.000955400144011,0.35
0.00122027230236,0.35555555555555557
0.00185809675702,0.3611111111111111
0.00188946222458,0.36666666666666664
0.00194986079973,0.37222222222222223
0.0021005920281,0.37777777777777777
0.00222244564327,0.38333333333333336
0.00222244564327,0.3888888888888889
0.0025342555277,0.39444444444444443
0.0026782446092,0.4
0.00287983117862,0.40555555555555556
0.00307881430339,0.4111111111111111
0.00370270665797,0.4166666666666667
0.00370289976302,0.4222222222222222
0.00370476304235,0.42777777777777776
0.00370631055916,0.43333333333333335
0.00370642447257,0.4388888888888889
0.00370803075554,0.4444444444444444
0.00370869368409,0.45
0.00371144848967,0.45555555555555555
0.00371150027754,0.46111111111111114
0.00371173329571,0.4666666666666667
0.0037119457562,0.4722222222222222
0.00371300769172,0.4777777777777778
0.00371327669201,0.48333333333333334
0.00371466143519,0.4888888888888889
0.00371498212622,0.49444444444444446
0.00371570160946,0.5
0.00371793554655,0.5055555555555555
0.00371949565654,0.5111111111111111
0.00372029505809,0.5166666666666667
0.00372105122767,0.5222222222222223
0.00372136198854,0.5277777777777778
0.00372152222756,0.5333333333333333
0.00372218856665,0.5388888888888889
0.00372291057416,0.5444444444444444
0.00372327350912,0.55
0.00372352041535,0.5555555555555556
0.00372364308275,0.5611111111111111
0.00372389839115,0.5666666666666667
0.00372411814114,0.5722222222222222
0.00372416797126,0.5777777777777777
0.00372492836577,0.5833333333333334
0.00372512457459,0.5888888888888889
0.00372539680048,0.5944444444444444
0.00372738639908,0.6
0.00372874395231,0.6055555555555555
0.00373108670167,0.6111111111111112
0.00373155684258,0.6166666666666667
0.00373199067415,0.6222222222222222
0.00373302627886,0.6277777777777778
0.00382485994846,0.6333333333333333
0.00404405763955,0.6388888888888888
0.0042549234451,0.6444444444444445
0.00523100463294,0.65
0.00614150283711,0.6555555555555556
0.00643013998148,0.6611111111111111
0.00794008528765,0.6666666666666666
0.00899483183405,0.6722222222222223
0.0160029895419,0.6777777777777778
0.0194690716661,0.6833333333333333
0.0203786429653,0.6888888888888889
0.0222013851373,0.6944444444444444
0.022740870362,0.7
0.0239256504438,0.7055555555555556
0.0241877032673,0.7111111111111111
0.0256158495241,0.7166666666666667
0.0276652840317,0.7222222222222222
0.02783796803,0.7277777777777777
0.0282947325333,0.7333333333333333
0.028730105031,0.7388888888888889
0.029755625012,0.7444444444444445
0.0927875069386,0.75
0.0927875069386,0.7555555555555555
0.123492101412,0.7611111111111111
0.145026709254,0.7666666666666667
0.185315527958,0.7722222222222223
0.185315527958,0.7777777777777778
0.185575013877,0.7833333333333333
0.186176020767,0.7888888888888889
0.186176020767,0.7944444444444444
0.246984202823,0.8
0.370642447257,0.8055555555555556
0.371144848967,0.8111111111111111
0.372291057416,0.8166666666666667
0.372327350912,0.8222222222222222
0.463058172735,0.8277777777777777
0.464088276111,0.8333333333333334
0.557467750714,0.8388888888888889
0.557642164286,0.8444444444444444
0.558774081292,0.85
0.588628248369,0.8555555555555555
0.588628248369,0.8611111111111112
0.743381087165,0.8666666666666667
0.744707854542,0.8722222222222222
0.833861248289,0.8777777777777778
0.930032003401,0.8833333333333333
0.959529943177,0.8888888888888888
0.961121084946,0.8944444444444445
1.2058907541,0.9
1.70566729252,0.9055555555555556
1.91844816785,0.9111111111111111
2.13575130388,0.9166666666666666
2.28964274347,0.9222222222222223
2.50885997405,0.9277777777777778
4.36767434427,0.9333333333333333
4.55675551625,0.9388888888888889
4.93005814413,0.9444444444444444
5.30219434299,0.95
5.4831605542,0.9555555555555556
5.85603494943,0.9611111111111111
6.23207390782,0.9666666666666667
6.41292063833,0.9722222222222222
6.60324723739,0.9777777777777777
6.78471419299,0.9833333333333333
6.97457490659,0.9888888888888889
7.15722665045,0.9944444444444445
7.52809601886,1.0
