Congestion,CDF
0.0,0.005555555555555556
0.0,0.011111111111111112
0.0,0.016666666666666666
0.0,0.022222222222222223
0.0,0.027777777777777776
0.0,0.03333333333333333
0.0,0.03888888888888889
0.0,0.044444444444444446
0.0,0.05
0.0,0.05555555555555555
1.06280507168e-06,0.06111111111111111
1.22111191379e-06,0.06666666666666667
2.74862174481e-06,0.07222222222222222
4.01727056719e-06,0.07777777777777778
4.11065638287e-06,0.08333333333333333
5.42748149746e-06,0.08888888888888889
5.97094798813e-06,0.09444444444444444
8.22932789764e-06,0.1
8.27178341202e-06,0.10555555555555556
8.4628108865e-06,0.1111111111111111
8.63698524464e-06,0.11666666666666667
9.50755624205e-06,0.12222222222222222
9.7280817284e-06,0.12777777777777777
1.08632893068e-05,0.13333333333333333
1.11261906853e-05,0.1388888888888889
1.17160205123e-05,0.14444444444444443
1.35473942622e-05,0.15
1.48263669394e-05,0.15555555555555556
1.54817135092e-05,0.16111111111111112
1.61016186688e-05,0.16666666666666666
1.63563793339e-05,0.17222222222222222
1.64877427205e-05,0.17777777777777778
1.70340051557e-05,0.18333333333333332
1.76259043675e-05,0.18888888888888888
1.7923437168e-05,0.19444444444444445
1.81258500209e-05,0.2
1.82264123236e-05,0.20555555555555555
1.84357132531e-05,0.2111111111111111
1.86158635242e-05,0.21666666666666667
1.86567140785e-05,0.2222222222222222
1.92800828206e-05,0.22777777777777777
1.94409341181e-05,0.23333333333333334
1.96641039392e-05,0.2388888888888889
2.12951698618e-05,0.24444444444444444
2.24080872163e-05,0.25
2.43286648851e-05,0.25555555555555554
2.47140847461e-05,0.2611111111111111
2.50697383409e-05,0.26666666666666666
2.59187234266e-05,0.2722222222222222
9.1620724827e-05,0.2777777777777778
0.000183241449654,0.2833333333333333
0.000200863528359,0.28888888888888886
0.000200863528359,0.29444444444444445
0.000206794585301,0.3
0.000206794585301,0.3055555555555556
0.000313075092468,0.3111111111111111
0.000411065638287,0.31666666666666665
0.000413589170601,0.32222222222222224
0.000550665645762,0.3277777777777778
0.000822932789764,0.3333333333333333
0.000855823242214,0.3388888888888889
0.000906292501045,0.34444444444444444
0.000906292501045,0.35
0.000977605648198,0.35555555555555557
0.00115755020951,0.3611111111111111
0.00144508095877,0.36666666666666664
0.00176259043675,0.37222222222222223
0.0017923437168,0.37777777777777777
0.00184963780041,0.38333333333333336
0.00199262143172,0.3888888888888889
0.00210821176144,0.39444444444444443
0.00210821176144,0.4
0.00240399459314,0.40555555555555556
0.00254058262446,0.4111111111111111
0.00273180762827,0.4166666666666667
0.00292056300469,0.4222222222222222
0.0036282618446,0.42777777777777776
0.00383619275703,0.43333333333333335
0.0040362200435,0.4388888888888889
0.00496213058108,0.4444444444444444
0.00582582910555,0.45
0.00609963027786,0.45555555555555555
0.00753196427588,0.46111111111111114
0.00853249676637,0.4666666666666667
0.0119249226949,0.4722222222222222
0.0121047914292,0.4777777777777778
0.0121115643333,0.48333333333333334
0.0121767777597,0.4888888888888889
0.0122200205654,0.49444444444444446
0.0122348813203,0.5
0.0122911348195,0.5055555555555555
0.0124107519086,0.5111111111111111
0.0124125777578,0.5166666666666667
0.0124281716957,0.5222222222222223
0.0124601487429,0.5277777777777778
0.0124653418362,0.5333333333333333
0.0125231149659,0.5388888888888889
0.0125344450052,0.5444444444444444
0.0125575567652,0.55
0.0126161434142,0.5555555555555556
0.0126924206004,0.5611111111111111
0.0127203853242,0.5666666666666667
0.0127431828647,0.5722222222222222
0.0127468166582,0.5777777777777777
0.0127545438159,0.5833333333333334
0.0127866683403,0.5888888888888889
0.0128118337909,0.5944444444444444
0.0128246413259,0.6
0.0128265293789,0.6055555555555555
0.0128332241226,0.6111111111111112
0.0128375715625,0.6166666666666667
0.0128464077944,0.6222222222222222
0.0128558425502,0.6277777777777778
0.0128825613334,0.6333333333333333
0.0128989427065,0.6388888888888888
0.0129685484161,0.6444444444444445
0.0130158132385,0.65
0.0130980654528,0.6555555555555556
0.0131144509478,0.6611111111111111
0.0131297441637,0.6666666666666666
0.0131654449022,0.6722222222222223
0.0151804346138,0.6777777777777778
0.0184683598426,0.6833333333333333
0.0193311791051,0.6888888888888889
0.0210602321853,0.6944444444444444
0.0215719878268,0.7
0.0226958701187,0.7055555555555556
0.0229444534063,0.7111111111111111
0.0242991928326,0.7166666666666667
0.0262432862444,0.7222222222222222
0.0264070942715,0.7277777777777777
0.0268403810432,0.7333333333333333
0.0272533753601,0.7388888888888889
0.028226183533,0.7444444444444445
0.310314443944,0.75
0.310314443944,0.7555555555555555
0.405892591989,0.7611111111111111
0.470448670911,0.7666666666666667
0.611001028271,0.7722222222222223
0.611001028271,0.7777777777777778
0.620628887889,0.7833333333333333
0.641661206131,0.7888888888888889
0.641661206131,0.7944444444444444
0.811785183977,0.8
1.22348813203,0.8055555555555556
1.24107519086,0.8111111111111111
1.28118337909,0.8166666666666667
1.28246413259,0.8222222222222222
1.52079358686,0.8277777777777777
1.55684862756,0.8333333333333334
1.88531931474,0.8388888888888889
1.89397270272,0.8444444444444444
1.93360330425,0.85
1.99941649437,0.8555555555555555
1.99941649437,0.8611111111111112
2.52034297365,0.8666666666666667
2.56676763412,0.8722222222222222
2.74990706882,0.8777777777777778
3.17861348216,0.8833333333333333
3.23198327959,0.8888888888888888
3.28767262771,0.8944444444444445
4.02194560124,0.9
5.84880359432,0.9055555555555556
6.4425562073,0.9111111111111111
7.19457626887,0.9166666666666666
7.68537337687,0.9222222222222223
8.50438281416,0.9277777777777778
14.8179341274,0.9333333333333333
15.5612090252,0.9388888888888889
16.8777535154,0.9444444444444444
18.153207897,0.95
18.6129587669,0.9555555555555556
19.9145400908,0.9611111111111111
21.3211801497,0.9666666666666667
21.7812967955,0.9722222222222222
22.5136724191,0.9777777777777777
22.611432984,0.9833333333333333
23.042911137,0.9888888888888889
24.2889260113,0.9944444444444445
24.4334341071,1.0
