Congestion,CDF
0.0,0.005555555555555556
0.0,0.011111111111111112
0.0,0.016666666666666666
0.0,0.022222222222222223
0.0,0.027777777777777776
0.0,0.03333333333333333
0.0,0.03888888888888889
0.0,0.044444444444444446
0.0,0.05
0.0,0.05555555555555555
1.13986929936e-06,0.06111111111111111
1.30965500515e-06,0.06666666666666667
2.94792490736e-06,0.07222222222222222
4.30856373271e-06,0.07777777777777778
4.40872097427e-06,0.08333333333333333
5.82102936529e-06,0.08888888888888889
6.4039027298e-06,0.09444444444444444
8.8260382594e-06,0.1
8.87157223239e-06,0.10555555555555556
9.07645115074e-06,0.1111111111111111
9.26325492959e-06,0.11666666666666667
1.019695122e-05,0.12222222222222222
1.04334670575e-05,0.12777777777777777
1.16509887851e-05,0.13333333333333333
1.19329531999e-05,0.1388888888888889
1.25655517165e-05,0.14444444444444443
1.45297187766e-05,0.15
1.59014300417e-05,0.15555555555555556
1.66042959344e-05,0.16111111111111112
1.72691505523e-05,0.16666666666666666
1.75423839688e-05,0.17222222222222222
1.76832725433e-05,0.17777777777777778
1.82691445869e-05,0.18333333333333332
1.89039625397e-05,0.18888888888888888
1.92230695085e-05,0.19444444444444445
1.94401593616e-05,0.2
1.95480134588e-05,0.20555555555555555
1.97724908443e-05,0.2111111111111111
1.99657038509e-05,0.21666666666666667
2.00095164878e-05,0.2222222222222222
2.06780858335e-05,0.22777777777777777
2.08506004937e-05,0.23333333333333334
2.10899524071e-05,0.2388888888888889
2.28392872757e-05,0.24444444444444444
2.40329025105e-05,0.25
2.60927416852e-05,0.25555555555555554
2.65061084245e-05,0.2611111111111111
2.6887550539e-05,0.26666666666666666
2.77980957186e-05,0.2722222222222222
9.82641635788e-05,0.2777777777777778
0.000156377088175,0.2833333333333333
0.000196528327158,0.28888888888888886
0.000215428186636,0.29444444444444445
0.000215428186636,0.3
0.00022178930581,0.3055555555555556
0.00022178930581,0.3111111111111111
0.000335776235746,0.31666666666666665
0.000440872097427,0.32222222222222224
0.00044357861162,0.3277777777777778
0.000590594531909,0.3333333333333333
0.000599467596448,0.3388888888888889
0.00088260382594,0.34444444444444444
0.000917879172275,0.35
0.000972007968078,0.35555555555555557
0.000972007968078,0.3611111111111111
0.00124148442781,0.36666666666666664
0.00189039625397,0.37222222222222223
0.00192230695085,0.37777777777777777
0.00198375544096,0.38333333333333336
0.00213710684659,0.3888888888888889
0.00217127556536,0.39444444444444443
0.00226107865634,0.4
0.00226107865634,0.40555555555555556
0.00256313179973,0.4111111111111111
0.00257145334896,0.4166666666666667
0.00257830876572,0.4222222222222222
0.00265157266299,0.42777777777777776
0.00269432877074,0.43333333333333335
0.00272293945907,0.4388888888888889
0.002724800825,0.4444444444444444
0.00279206770566,0.45
0.00282357337483,0.45555555555555555
0.00292989159556,0.46111111111111114
0.00293902419826,0.4666666666666667
0.00294126951025,0.4722222222222222
0.00296042740766,0.4777777777777778
0.00300609430805,0.48333333333333334
0.00307704587782,0.4888888888888889
0.00309099221343,0.49444444444444446
0.00311762169448,0.5
0.00313233366552,0.5055555555555555
0.00317296214409,0.5111111111111111
0.00328507674063,0.5166666666666667
0.00331943186153,0.5222222222222223
0.00332567258592,0.5277777777777778
0.0033518822362,0.5333333333333333
0.00335878285613,0.5388888888888889
0.003400865776,0.5444444444444444
0.00342653889167,0.55
0.0034317449089,0.5555555555555556
0.00344751827572,0.5611111111111111
0.00345804682682,0.5666666666666667
0.00346340152408,0.5722222222222222
0.00347422941521,0.5777777777777777
0.00348581210148,0.5833333333333334
0.00351867763501,0.5888888888888889
0.00353880050319,0.5944444444444444
0.00362429599889,0.6
0.00368216963366,0.6055555555555555
0.0037834276776,0.6111111111111112
0.00380352132804,0.6166666666666667
0.00382235951544,0.6222222222222222
0.00386585604091,0.6277777777777778
0.00389134790275,0.6333333333333333
0.00411435593102,0.6388888888888888
0.00432888723969,0.6444444444444445
0.00532193575241,0.65
0.00624826124537,0.6555555555555556
0.00654191580044,0.6611111111111111
0.00807810864923,0.6666666666666666
0.00915118996896,0.6722222222222223
0.0162811712405,0.6777777777777778
0.0198075046452,0.6833333333333333
0.0207328871207,0.6888888888888889
0.022587314217,0.6944444444444444
0.0231361773718,0.7
0.0243415526139,0.7055555555555556
0.0246081607301,0.7111111111111111
0.0260611326077,0.7166666666666667
0.0281461926571,0.7222222222222222
0.02832187844,0.7277777777777777
0.0287865829301,0.7333333333333333
0.0292295235551,0.7388888888888889
0.0302728702608,0.7444444444444445
0.0735317377562,0.75
0.0735317377562,0.7555555555555555
0.0883857554329,0.7611111111111111
0.119919737059,0.7666666666666667
0.134716438537,0.7722222222222223
0.134716438537,0.7777777777777778
0.147063475512,0.7833333333333333
0.172902341341,0.7888888888888889
0.172902341341,0.7944444444444444
0.176771510866,0.8
0.272293945907,0.8055555555555556
0.293902419826,0.8111111111111111
0.329844917729,0.8166666666666667
0.34317449089,0.8222222222222222
0.344751827572,0.8277777777777777
0.374141168561,0.8333333333333334
0.467283697129,0.8388888888888889
0.480606929123,0.8444444444444444
0.507585079633,0.85
0.507585079633,0.8555555555555555
0.529299427056,0.8611111111111112
0.609051688295,0.8666666666666667
0.634723545796,0.8722222222222222
0.691755701038,0.8777777777777778
0.791034598057,0.8833333333333333
0.828029870643,0.8888888888888888
0.859452843134,0.8944444444444445
0.940994874447,0.9
1.54429124831,0.9055555555555556
1.55576501259,0.9111111111111111
1.76167968593,0.9166666666666666
1.85180775335,0.9222222222222223
2.14002245369,0.9277777777777778
3.74243915407,0.9333333333333333
4.04016015818,0.9388888888888889
4.42674576227,0.9444444444444444
4.71235092348,0.95
4.76262404788,0.9555555555555556
5.08056788685,0.9611111111111111
5.52704649483,0.9666666666666667
5.57256163418,0.9722222222222222
5.78968919072,0.9777777777777777
5.84434270924,0.9833333333333333
5.84963595036,0.9888888888888889
6.12670004672,0.9944444444444445
6.14233775554,1.0
