Congestion,CDF
0.0,0.009433962264150943
0.0,0.018867924528301886
0.0,0.02830188679245283
0.0,0.03773584905660377
0.0,0.04716981132075472
0.0,0.05660377358490566
0.0,0.0660377358490566
0.0,0.07547169811320754
0.0,0.08490566037735849
0.0,0.09433962264150944
0.0,0.10377358490566038
0.0,0.11320754716981132
0.0,0.12264150943396226
0.0,0.1320754716981132
0.0,0.14150943396226415
0.0,0.1509433962264151
0.0,0.16037735849056603
0.0,0.16981132075471697
0.0,0.1792452830188679
0.0,0.18867924528301888
0.0,0.19811320754716982
0.0,0.20754716981132076
0.0,0.2169811320754717
0.0,0.22641509433962265
0.0,0.2358490566037736
0.0,0.24528301886792453
0.0,0.25471698113207547
0.0,0.2641509433962264
0.0,0.27358490566037735
0.0,0.2830188679245283
5.10359494892e-08,0.29245283018867924
1.31480919457e-06,0.3018867924528302
1.47852579601e-06,0.3113207547169811
2.00438438238e-06,0.32075471698113206
2.26258832762e-06,0.330188679245283
3.01065455315e-06,0.33962264150943394
4.5912944667e-06,0.3490566037735849
5.87709945781e-06,0.3584905660377358
6.21981957585e-06,0.36792452830188677
7.2543673769e-06,0.37735849056603776
8.93186352568e-06,0.3867924528301887
9.13652594484e-06,0.39622641509433965
9.63993400052e-06,0.4056603773584906
3.76331819143e-05,0.41509433962264153
3.76331819143e-05,0.42452830188679247
6.17729025515e-05,0.4339622641509434
7.34637432226e-05,0.44339622641509435
7.34637432226e-05,0.4528301886792453
7.52663638287e-05,0.46226415094339623
7.52663638287e-05,0.4716981132075472
7.52663638287e-05,0.4811320754716981
0.000116200520086,0.49056603773584906
0.000146927486445,0.5
0.000146927486445,0.5094339622641509
0.000146927486445,0.5188679245283019
0.000185023214937,0.5283018867924528
0.000185023214937,0.5377358490566038
0.000200438438238,0.5471698113207547
0.000340661648472,0.5566037735849056
0.000340661648472,0.5660377358490566
0.00042208790393,0.5754716981132075
0.00042208790393,0.5849056603773585
0.000648346736692,0.5943396226415094
0.000657165782866,0.6037735849056604
0.00102474951962,0.6132075471698113
0.00106609838616,0.6226415094339622
0.00138608130398,0.6320754716981132
0.00221915960721,0.6415094339622641
0.00646473111529,0.6509433962264151
0.0169461548994,0.660377358490566
0.0172267608909,0.6698113207547169
0.0189967171233,0.6792452830188679
0.0205494030897,0.6886792452830188
0.028439750174,0.6981132075471698
0.0292188731345,0.7075471698113207
0.0319436684544,0.7169811320754716
0.0320644369524,0.7264150943396226
0.0422779748922,0.7358490566037735
0.0439626223454,0.7452830188679245
0.0543772219473,0.7547169811320755
0.0551099739942,0.7641509433962265
0.397578289013,0.7735849056603774
0.39929585568,0.7830188679245284
0.39929585568,0.7924528301886793
0.400805461905,0.8018867924528302
0.400805461905,0.8113207547169812
0.646473111529,0.8207547169811321
0.798591711359,0.8301886792452831
0.798591711359,0.839622641509434
0.798591711359,0.8490566037735849
0.801610923809,0.8584905660377359
0.801610923809,0.8679245283018868
0.801610923809,0.8773584905660378
1.82757147207,0.8867924528301887
1.82757147207,0.8962264150943396
2.22208882629,0.9056603773584906
2.22208882629,0.9150943396226415
2.9140000622,0.9245283018867925
2.9140000622,0.9339622641509434
3.52218696201,0.9433962264150944
3.55024756116,0.9528301886792453
4.12176053862,0.9622641509433962
6.23782351231,0.9716981132075472
6.31109871701,0.9811320754716981
8.05797620193,0.9905660377358491
19.8591845261,1.0
