Congestion,CDF
0.0,0.007352941176470588
0.0,0.014705882352941176
0.0,0.022058823529411766
0.0,0.029411764705882353
0.0,0.03676470588235294
0.0,0.04411764705882353
0.0,0.051470588235294115
0.0,0.058823529411764705
0.0,0.0661764705882353
0.0,0.07352941176470588
0.0,0.08088235294117647
0.0,0.08823529411764706
0.0,0.09558823529411764
0.0,0.10294117647058823
7.18092510647e-07,0.11029411764705882
7.18092510647e-07,0.11764705882352941
7.18092510647e-07,0.125
7.18092510647e-07,0.1323529411764706
7.18092510647e-07,0.13970588235294118
7.18092510647e-07,0.14705882352941177
7.18092510647e-07,0.15441176470588236
7.18092510647e-07,0.16176470588235295
7.18092510647e-07,0.16911764705882354
7.18092510647e-07,0.17647058823529413
7.18092510647e-07,0.18382352941176472
7.18092510647e-07,0.19117647058823528
7.18092510647e-07,0.19852941176470587
7.18092510647e-07,0.20588235294117646
7.18092510647e-07,0.21323529411764705
7.18092510647e-07,0.22058823529411764
7.18092510647e-07,0.22794117647058823
7.18092510647e-07,0.23529411764705882
7.18092510647e-07,0.2426470588235294
7.18092510647e-07,0.25
7.18092510647e-07,0.25735294117647056
7.18092510647e-07,0.2647058823529412
7.18092510647e-07,0.27205882352941174
7.18092510647e-07,0.27941176470588236
7.18092510647e-07,0.2867647058823529
7.18092510647e-07,0.29411764705882354
7.18092510647e-07,0.3014705882352941
1.79523127662e-05,0.3088235294117647
1.79523127662e-05,0.3161764705882353
1.93884977875e-05,0.3235294117647059
3.59046255323e-05,0.33088235294117646
3.59046255323e-05,0.3382352941176471
3.59046255323e-05,0.34558823529411764
3.59046255323e-05,0.35294117647058826
5.38569382985e-05,0.3602941176470588
5.98410425539e-05,0.36764705882352944
5.98410425539e-05,0.375
5.98410425539e-05,0.38235294117647056
7.18092510647e-05,0.3897058823529412
7.18092510647e-05,0.39705882352941174
7.18092510647e-05,0.40441176470588236
7.18092510647e-05,0.4117647058823529
7.18092510647e-05,0.41911764705882354
7.18092510647e-05,0.4264705882352941
7.18092510647e-05,0.4338235294117647
8.97615638308e-05,0.4411764705882353
0.000107713876597,0.4485294117647059
0.000107713876597,0.45588235294117646
0.000131650293619,0.4632352941176471
0.000143618502129,0.47058823529411764
0.000143618502129,0.47794117647058826
0.000215427753194,0.4852941176470588
0.000293221108514,0.49264705882352944
0.000520617070219,0.5
0.00053258527873,0.5073529411764706
0.00068817198937,0.5147058823529411
0.000855726908521,0.5220588235294118
0.000867695117031,0.5294117647058824
0.000927536159585,0.5367647058823529
0.000939504368096,0.5441176470588235
0.00101131361916,0.5514705882352942
0.0348535203673,0.5588235294117647
0.0356658703578,0.5661764705882353
0.0451470139375,0.5735294117647058
0.0452158913685,0.5808823529411765
0.0453544912369,0.5882352941176471
0.0453875938729,0.5955882352941176
0.0454131265673,0.6029411764705882
0.0454418203487,0.6102941176470589
0.0455127285687,0.6176470588235294
0.0455249620754,0.625
0.0455352975324,0.6323529411764706
0.0455406557871,0.6397058823529411
0.0455419217817,0.6470588235294118
0.045542783196,0.6544117647058824
0.0455436725465,0.6617647058823529
0.0455443679053,0.6691176470588235
0.0455447517761,0.6764705882352942
0.0455463534929,0.6838235294117647
0.0455482613562,0.6911764705882353
0.0455555942433,0.6985294117647058
0.045558175868,0.7058823529411765
0.0455581868879,0.7132352941176471
0.0455582767519,0.7205882352941176
0.0455582802829,0.7279411764705882
0.0455584913723,0.7352941176470589
0.0455584937265,0.7426470588235294
0.0455584937265,0.75
1.1385695799,0.7573529411764706
1.13865883732,0.7647058823529411
1.20786907693,0.7720588235294118
2.27209101743,0.7794117647058824
2.27209101743,0.7867647058823529
2.27741306781,0.7941176470588235
2.27741306781,0.8014705882352942
3.4157087397,0.8088235294117647
3.79529247661,0.8161764705882353
3.79529247661,0.8235294117647058
3.79529247661,0.8308823529411765
4.54131265673,0.8382352941176471
4.55443679053,0.8455882352941176
4.55463534929,0.8529411764705882
4.55581868879,0.8602941176470589
4.55582802829,0.8676470588235294
4.55584937265,0.875
4.55584937265,0.8823529411764706
5.69304475751,0.8897058823529411
6.80754014112,0.8970588235294118
6.83147864652,0.9044117647058824
8.34778868415,0.9117647058823529
9.08007204402,0.9191176470588235
9.11165570348,0.9264705882352942
13.6675478825,0.9338235294117647
18.5971412793,0.9411764705882353
33.0294986989,0.9485294117647058
33.7682938378,0.9558823529411765
43.6577636677,0.9632352941176471
54.1706074166,0.9705882352941176
55.0427720674,0.9779411764705882
57.6559594534,0.9852941176470589
59.5643612043,0.9926470588235294
63.1309482401,1.0
