Congestion,CDF
0.0,0.007352941176470588
0.0,0.014705882352941176
0.0,0.022058823529411766
0.0,0.029411764705882353
0.0,0.03676470588235294
0.0,0.04411764705882353
0.0,0.051470588235294115
0.0,0.058823529411764705
0.0,0.0661764705882353
0.0,0.07352941176470588
0.0,0.08088235294117647
0.0,0.08823529411764706
0.0,0.09558823529411764
0.0,0.10294117647058823
5.80118708494e-06,0.11029411764705882
5.80118708494e-06,0.11764705882352941
5.80118708494e-06,0.125
5.80118708494e-06,0.1323529411764706
5.80118708494e-06,0.13970588235294118
5.80118708494e-06,0.14705882352941177
5.80118708494e-06,0.15441176470588236
5.80118708494e-06,0.16176470588235295
5.80118708494e-06,0.16911764705882354
5.80118708494e-06,0.17647058823529413
5.80118708494e-06,0.18382352941176472
5.80118708494e-06,0.19117647058823528
5.80118708494e-06,0.19852941176470587
5.80118708494e-06,0.20588235294117646
5.80118708494e-06,0.21323529411764705
5.80118708494e-06,0.22058823529411764
5.80118708494e-06,0.22794117647058823
5.80118708494e-06,0.23529411764705882
5.80118708494e-06,0.2426470588235294
5.80118708494e-06,0.25
5.80118708494e-06,0.25735294117647056
5.80118708494e-06,0.2647058823529412
5.80118708494e-06,0.27205882352941174
5.80118708494e-06,0.27941176470588236
5.80118708494e-06,0.2867647058823529
5.80118708494e-06,0.29411764705882354
5.80118708494e-06,0.3014705882352941
0.000145029677123,0.3088235294117647
0.000145029677123,0.3161764705882353
0.000156632051293,0.3235294117647059
0.000290059354247,0.33088235294117646
0.000290059354247,0.3382352941176471
0.000290059354247,0.34558823529411764
0.000290059354247,0.35294117647058826
0.00043508903137,0.3602941176470588
0.000483432257078,0.36764705882352944
0.000483432257078,0.375
0.000483432257078,0.38235294117647056
0.000580118708494,0.3897058823529412
0.000580118708494,0.39705882352941174
0.000580118708494,0.40441176470588236
0.000580118708494,0.4117647058823529
0.000580118708494,0.41911764705882354
0.000580118708494,0.4264705882352941
0.000580118708494,0.4338235294117647
0.000725148385617,0.4411764705882353
0.00087017806274,0.4485294117647059
0.00087017806274,0.45588235294117646
0.00106355096557,0.4632352941176471
0.00116023741699,0.47058823529411764
0.00116023741699,0.47794117647058826
0.00174035612548,0.4852941176470588
0.00236881805968,0.49264705882352944
0.00420586063658,0.5
0.00430254708799,0.5073529411764706
0.00553757504181,0.5147058823529411
0.00553757504181,0.5220588235294118
0.00553757504181,0.5294117647058824
0.00553757504181,0.5367647058823529
0.00553757504181,0.5441176470588235
0.00553757504181,0.5514705882352942
0.00553757504181,0.5588235294117647
0.00553757504181,0.5661764705882353
0.00553757504181,0.5735294117647058
0.00553757504181,0.5808823529411765
0.00553757504181,0.5882352941176471
0.00553757504181,0.5955882352941176
0.00553757504181,0.6029411764705882
0.00553757504181,0.6102941176470589
0.00553757504181,0.6176470588235294
0.00553757504181,0.625
0.00553757504181,0.6323529411764706
0.00553757504181,0.6397058823529411
0.00553757504181,0.6470588235294118
0.00553757504181,0.6544117647058824
0.00553757504181,0.6617647058823529
0.00553757504181,0.6691176470588235
0.00553757504181,0.6764705882352942
0.00553757504181,0.6838235294117647
0.00553757504181,0.6911764705882353
0.00553757504181,0.6985294117647058
0.00553757504181,0.7058823529411765
0.0055594709564,0.7132352941176471
0.00691308127621,0.7205882352941176
0.00700976772763,0.7279411764705882
0.00749319998471,0.7352941176470589
0.00758988643612,0.7426470588235294
0.00817000514462,0.75
0.138439376045,0.7573529411764706
0.138439376045,0.7647058823529411
0.149514526129,0.7720588235294118
0.27687875209,0.7794117647058824
0.27687875209,0.7867647058823529
0.27687875209,0.7941176470588235
0.27687875209,0.8014705882352942
0.415318128135,0.8088235294117647
0.461464586817,0.8161764705882353
0.461464586817,0.8235294117647058
0.461464586817,0.8308823529411765
0.553757504181,0.8382352941176471
0.553757504181,0.8455882352941176
0.553757504181,0.8529411764705882
0.553757504181,0.8602941176470589
0.553757504181,0.8676470588235294
0.553757504181,0.875
0.553757504181,0.8823529411764706
0.692196880226,0.8897058823529411
0.830636256271,0.8970588235294118
0.830636256271,0.9044117647058824
1.015222091,0.9117647058823529
1.10751500836,0.9191176470588235
1.10751500836,0.9264705882352942
1.66127251254,0.9338235294117647
2.2611764754,0.9411764705882353
4.01474190531,0.9485294117647058
4.10703482267,0.9558823529411765
5.3068427484,0.9632352941176471
6.59894359149,0.9705882352941176
6.69123650885,0.9779411764705882
7.15270109567,0.9852941176470589
7.24499401303,0.9926470588235294
7.79875151721,1.0
