Congestion,CDF
0.0,0.007352941176470588
0.0,0.014705882352941176
0.0,0.022058823529411766
0.0,0.029411764705882353
0.0,0.03676470588235294
0.0,0.04411764705882353
0.0,0.051470588235294115
0.0,0.058823529411764705
0.0,0.0661764705882353
0.0,0.07352941176470588
0.0,0.08088235294117647
0.0,0.08823529411764706
0.0,0.09558823529411764
0.0,0.10294117647058823
1.89634451695e-06,0.11029411764705882
1.89634451695e-06,0.11764705882352941
1.89634451695e-06,0.125
1.89634451695e-06,0.1323529411764706
1.89634451695e-06,0.13970588235294118
1.89634451695e-06,0.14705882352941177
1.89634451695e-06,0.15441176470588236
1.89634451695e-06,0.16176470588235295
1.89634451695e-06,0.16911764705882354
1.89634451695e-06,0.17647058823529413
1.89634451695e-06,0.18382352941176472
1.89634451695e-06,0.19117647058823528
1.89634451695e-06,0.19852941176470587
1.89634451695e-06,0.20588235294117646
1.89634451695e-06,0.21323529411764705
1.89634451695e-06,0.22058823529411764
1.89634451695e-06,0.22794117647058823
1.89634451695e-06,0.23529411764705882
1.89634451695e-06,0.2426470588235294
1.89634451695e-06,0.25
1.89634451695e-06,0.25735294117647056
1.89634451695e-06,0.2647058823529412
1.89634451695e-06,0.27205882352941174
1.89634451695e-06,0.27941176470588236
1.89634451695e-06,0.2867647058823529
1.89634451695e-06,0.29411764705882354
1.89634451695e-06,0.3014705882352941
4.74086129237e-05,0.3088235294117647
4.74086129237e-05,0.3161764705882353
5.12013019576e-05,0.3235294117647059
9.48172258474e-05,0.33088235294117646
9.48172258474e-05,0.3382352941176471
9.48172258474e-05,0.34558823529411764
9.48172258474e-05,0.35294117647058826
0.000142225838771,0.3602941176470588
0.000158028709746,0.36764705882352944
0.000158028709746,0.375
0.000158028709746,0.38235294117647056
0.000189634451695,0.3897058823529412
0.000189634451695,0.39705882352941174
0.000189634451695,0.40441176470588236
0.000189634451695,0.4117647058823529
0.000189634451695,0.41911764705882354
0.000189634451695,0.4264705882352941
0.000189634451695,0.4338235294117647
0.000237043064618,0.4411764705882353
0.000284451677542,0.4485294117647059
0.000284451677542,0.45588235294117646
0.00034766316144,0.4632352941176471
0.00037926890339,0.47058823529411764
0.00037926890339,0.47794117647058826
0.000568903355084,0.4852941176470588
0.000774340677754,0.49264705882352944
0.00115360096769,0.5
0.00137484977479,0.5073529411764706
0.00140645551674,0.5147058823529411
0.00181733016208,0.5220588235294118
0.00216022131148,0.5294117647058824
0.00225981054936,0.5367647058823529
0.00229141629131,0.5441176470588235
0.00244944500106,0.5514705882352942
0.00248105074301,0.5588235294117647
0.0026706851947,0.5661764705882353
0.0175099773287,0.5735294117647058
0.0176372088296,0.5808823529411765
0.0179766027779,0.5882352941176471
0.0180299649659,0.5955882352941176
0.0180935359905,0.6029411764705882
0.0181085018899,0.6102941176470589
0.0181995837571,0.6176470588235294
0.0182248993943,0.625
0.0182302625776,0.6323529411764706
0.0182418712281,0.6397058823529411
0.0182443890679,0.6470588235294118
0.018245451408,0.6544117647058824
0.0182456113412,0.6617647058823529
0.0182470578664,0.6691176470588235
0.0182475597919,0.6764705882352942
0.0182493786431,0.6838235294117647
0.0182506040083,0.6911764705882353
0.0182585512953,0.6985294117647058
0.0182614386363,0.7058823529411765
0.018261459972,0.7132352941176471
0.0182615534301,0.7205882352941176
0.0182615590244,0.7279411764705882
0.0182617692485,0.7352941176470589
0.0182617729783,0.7426470588235294
0.0182617729783,0.75
0.456140283531,0.7573529411764706
0.456234466078,0.7647058823529411
0.457386160709,0.7720588235294118
0.905425094496,0.7794117647058824
0.905425094496,0.7867647058823529
0.912530200415,0.7941176470588235
0.912530200415,0.8014705882352942
1.36842085059,0.8088235294117647
1.52052105187,0.8161764705882353
1.52052105187,0.8235294117647058
1.52052105187,0.8308823529411765
1.80935359905,0.8382352941176471
1.82470578664,0.8455882352941176
1.82493786431,0.8529411764705882
1.8261459972,0.8602941176470589
1.82615590244,0.8676470588235294
1.82617729783,0.875
1.82617729783,0.8823529411764706
2.28089626272,0.8897058823529411
2.70308537229,0.8970588235294118
2.73671732323,0.9044117647058824
3.3430109913,0.9117647058823529
3.61235009564,0.9191176470588235
3.65231124545,0.9264705882352942
5.47853152051,0.9338235294117647
7.45066824204,0.9411764705882353
13.2393670929,0.9485294117647058
13.5190627035,0.9558823529411765
17.4982734747,0.9632352941176471
21.5854959043,0.9705882352941176
21.7008560011,0.9779411764705882
22.0580170557,0.9852941176470589
23.8217379386,0.9926470588235294
24.0377600698,1.0
