Congestion,CDF
0.0,0.007352941176470588
0.0,0.014705882352941176
0.0,0.022058823529411766
0.0,0.029411764705882353
0.0,0.03676470588235294
0.0,0.04411764705882353
0.0,0.051470588235294115
0.0,0.058823529411764705
0.0,0.0661764705882353
0.0,0.07352941176470588
0.0,0.08088235294117647
0.0,0.08823529411764706
0.0,0.09558823529411764
0.0,0.10294117647058823
1.04345970376e-06,0.11029411764705882
1.04345970376e-06,0.11764705882352941
1.04345970376e-06,0.125
1.04345970376e-06,0.1323529411764706
1.04345970376e-06,0.13970588235294118
1.04345970376e-06,0.14705882352941177
1.04345970376e-06,0.15441176470588236
1.04345970376e-06,0.16176470588235295
1.04345970376e-06,0.16911764705882354
1.04345970376e-06,0.17647058823529413
1.04345970376e-06,0.18382352941176472
1.04345970376e-06,0.19117647058823528
1.04345970376e-06,0.19852941176470587
1.04345970376e-06,0.20588235294117646
1.04345970376e-06,0.21323529411764705
1.04345970376e-06,0.22058823529411764
1.04345970376e-06,0.22794117647058823
1.04345970376e-06,0.23529411764705882
1.04345970376e-06,0.2426470588235294
1.04345970376e-06,0.25
1.04345970376e-06,0.25735294117647056
1.04345970376e-06,0.2647058823529412
1.04345970376e-06,0.27205882352941174
1.04345970376e-06,0.27941176470588236
1.04345970376e-06,0.2867647058823529
1.04345970376e-06,0.29411764705882354
1.04345970376e-06,0.3014705882352941
2.6086492594e-05,0.3088235294117647
2.6086492594e-05,0.3161764705882353
2.81734120015e-05,0.3235294117647059
5.2172985188e-05,0.33088235294117646
5.2172985188e-05,0.3382352941176471
5.2172985188e-05,0.34558823529411764
5.2172985188e-05,0.35294117647058826
7.8259477782e-05,0.3602941176470588
8.69549753133e-05,0.36764705882352944
8.69549753133e-05,0.375
8.69549753133e-05,0.38235294117647056
0.000104345970376,0.3897058823529412
0.000104345970376,0.39705882352941174
0.000104345970376,0.40441176470588236
0.000104345970376,0.4117647058823529
0.000104345970376,0.41911764705882354
0.000104345970376,0.4264705882352941
0.000104345970376,0.4338235294117647
0.00013043246297,0.4411764705882353
0.000156518955564,0.4485294117647059
0.000156518955564,0.45588235294117646
0.000191300945689,0.4632352941176471
0.000208691940752,0.47058823529411764
0.000208691940752,0.47794117647058826
0.000313037911128,0.4852941176470588
0.000426079379035,0.49264705882352944
0.000756508285226,0.5
0.000773899280288,0.5073529411764706
0.000999982216103,0.5147058823529411
0.00124345614698,0.5220588235294118
0.00126084714204,0.5294117647058824
0.00134780211736,0.5367647058823529
0.00136519311242,0.5441176470588235
0.00146953908279,0.5514705882352942
0.0171762113935,0.5588235294117647
0.0182123594102,0.5661764705882353
0.0313710415947,0.5735294117647058
0.0314615154141,0.5808823529411765
0.031683811101,0.5882352941176471
0.0317224868138,0.5955882352941176
0.0317603604885,0.6029411764705882
0.0317863984446,0.6102941176470589
0.0318598530045,0.6176470588235294
0.0318759565565,0.625
0.0318846400107,0.6323529411764706
0.0318918946328,0.6397058823529411
0.0318934562944,0.6470588235294118
0.0318943800918,0.6544117647058824
0.0318950227344,0.6617647058823529
0.0318959313762,0.6691176470588235
0.0318963305795,0.6764705882352942
0.0318979719318,0.6838235294117647
0.0318997787894,0.6911764705882353
0.0319071715651,0.6985294117647058
0.0319098137142,0.7058823529411765
0.0319098264135,0.7132352941176471
0.0319099165827,0.7205882352941176
0.031909920337,0.7279411764705882
0.0319101313049,0.7352941176470589
0.031910133808,0.7426470588235294
0.031910133808,0.75
0.797359502295,0.7573529411764706
0.797449298296,0.7647058823529411
0.831236448196,0.7720588235294118
1.58931992223,0.7794117647058824
1.58931992223,0.7867647058823529
1.59498893947,0.7941176470588235
1.59498893947,0.8014705882352942
2.39207850689,0.8088235294117647
2.65792401041,0.8161764705882353
2.65792401041,0.8235294117647058
2.65792401041,0.8308823529411765
3.17603604885,0.8382352941176471
3.18959313762,0.8455882352941176
3.18979719318,0.8529411764705882
3.19098264135,0.8602941176470589
3.1909920337,0.8676470588235294
3.1910133808,0.875
3.1910133808,0.8823529411764706
3.98699256024,0.8897058823529411
4.75770103233,0.8970588235294118
4.78417840275,0.9044117647058824
5.84551966606,0.9117647058823529
6.34828473022,0.9191176470588235
6.38198369197,0.9264705882352942
9.57303989208,0.9338235294117647
13.0240119817,0.9411764705882353
23.1344368951,0.9485294117647058
23.6448368704,0.9558823529411765
30.5780670015,0.9632352941176471
37.8879267925,0.9705882352941176
38.5507094053,0.9779411764705882
39.6055479318,0.9852941176470589
41.6968609467,0.9926470588235294
43.5180968878,1.0
