Congestion,CDF
0.0,0.007352941176470588
0.0,0.014705882352941176
0.0,0.022058823529411766
0.0,0.029411764705882353
0.0,0.03676470588235294
0.0,0.04411764705882353
0.0,0.051470588235294115
0.0,0.058823529411764705
0.0,0.0661764705882353
0.0,0.07352941176470588
0.0,0.08088235294117647
0.0,0.08823529411764706
0.0,0.09558823529411764
0.0,0.10294117647058823
6.01128384647e-07,0.11029411764705882
6.01128384647e-07,0.11764705882352941
6.01128384647e-07,0.125
6.01128384647e-07,0.1323529411764706
6.01128384647e-07,0.13970588235294118
6.01128384647e-07,0.14705882352941177
6.01128384647e-07,0.15441176470588236
6.01128384647e-07,0.16176470588235295
6.01128384647e-07,0.16911764705882354
6.01128384647e-07,0.17647058823529413
6.01128384647e-07,0.18382352941176472
6.01128384647e-07,0.19117647058823528
6.01128384647e-07,0.19852941176470587
6.01128384647e-07,0.20588235294117646
6.01128384647e-07,0.21323529411764705
6.01128384647e-07,0.22058823529411764
6.01128384647e-07,0.22794117647058823
6.01128384647e-07,0.23529411764705882
6.01128384647e-07,0.2426470588235294
6.01128384647e-07,0.25
6.01128384647e-07,0.25735294117647056
6.01128384647e-07,0.2647058823529412
6.01128384647e-07,0.27205882352941174
6.01128384647e-07,0.27941176470588236
6.01128384647e-07,0.2867647058823529
6.01128384647e-07,0.29411764705882354
6.01128384647e-07,0.3014705882352941
1.50282096162e-05,0.3088235294117647
1.50282096162e-05,0.3161764705882353
1.62304663855e-05,0.3235294117647059
3.00564192323e-05,0.33088235294117646
3.00564192323e-05,0.3382352941176471
3.00564192323e-05,0.34558823529411764
3.00564192323e-05,0.35294117647058826
4.50846288485e-05,0.3602941176470588
5.00940320539e-05,0.36764705882352944
5.00940320539e-05,0.375
5.00940320539e-05,0.38235294117647056
6.01128384647e-05,0.3897058823529412
6.01128384647e-05,0.39705882352941174
6.01128384647e-05,0.40441176470588236
6.01128384647e-05,0.4117647058823529
6.01128384647e-05,0.41911764705882354
6.01128384647e-05,0.4264705882352941
6.01128384647e-05,0.4338235294117647
7.51410480809e-05,0.4411764705882353
9.0169257697e-05,0.4485294117647059
9.0169257697e-05,0.45588235294117646
0.000110206870519,0.4632352941176471
0.000120225676929,0.47058823529411764
0.000120225676929,0.47794117647058826
0.000180338515394,0.4852941176470588
0.000245460757064,0.49264705882352944
0.000435818078869,0.5
0.00044583688528,0.5073529411764706
0.00057608136862,0.5147058823529411
0.000716344658371,0.5220588235294118
0.000726363464782,0.5294117647058824
0.000776457496836,0.5367647058823529
0.000786476303246,0.5441176470588235
0.000846589141711,0.5514705882352942
0.0457669535554,0.5588235294117647
0.0464122880416,0.5661764705882353
0.0537256056623,0.5735294117647058
0.0537863770898,0.5808823529411765
0.0538911691071,0.5882352941176471
0.0539226601036,0.5955882352941176
0.0539443189398,0.6029411764705882
0.0539735958298,0.6102941176470589
0.0540442588688,0.6176470588235294
0.0540553289037,0.625
0.0540661885326,0.6323529411764706
0.0540709691759,0.6397058823529411
0.05407216423,0.6470588235294118
0.0540730136567,0.6544117647058824
0.0540739611879,0.6617647058823529
0.0540746055444,0.6691176470588235
0.0540749868705,0.6764705882352942
0.0540765811157,0.6838235294117647
0.0540785067018,0.6911764705882353
0.0540858330069,0.6985294117647058
0.0540884011642,0.7058823529411765
0.0540884118791,0.7132352941176471
0.0540885017049,0.7205882352941176
0.0540885052055,0.7279411764705882
0.0540887163126,0.7352941176470589
0.0540887186465,0.7426470588235294
0.0540887186465,0.75
1.35182534142,0.7573529411764706
1.35191452789,0.7647058823529411
1.44288933968,0.7720588235294118
2.69867979149,0.7794117647058824
2.69867979149,0.7867647058823529
2.70392533509,0.7941176470588235
2.70392533509,0.8014705882352942
4.05547602425,0.8088235294117647
4.50614534364,0.8161764705882353
4.50614534364,0.8235294117647058
4.50614534364,0.8308823529411765
5.39443189398,0.8382352941176471
5.40746055444,0.8455882352941176
5.40765811157,0.8529411764705882
5.40884118791,0.8602941176470589
5.40885052055,0.8676470588235294
5.40887186465,0.875
5.40887186465,0.8823529411764706
6.75932402847,0.8897058823529411
8.0877967022,0.8970588235294118
8.11102225267,0.9044117647058824
9.91167823401,0.9117647058823529
10.7866979043,0.9191176470588235
10.817700691,0.9264705882352942
16.2266153606,0.9338235294117647
22.0803260453,0.9411764705882353
39.2139118838,0.9485294117647058
40.0951099577,0.9558823529411765
51.8325658633,0.9632352941176471
64.3421651305,0.9705882352941176
65.3502069692,0.9779411764705882
68.918860486,0.9852941176470589
70.7288446782,0.9926470588235294
75.3700734823,1.0
