Congestion,CDF
0.0,0.007352941176470588
0.0,0.014705882352941176
0.0,0.022058823529411766
0.0,0.029411764705882353
0.0,0.03676470588235294
0.0,0.04411764705882353
0.0,0.051470588235294115
0.0,0.058823529411764705
0.0,0.0661764705882353
0.0,0.07352941176470588
0.0,0.08088235294117647
0.0,0.08823529411764706
0.0,0.09558823529411764
0.0,0.10294117647058823
8.02259844352e-06,0.11029411764705882
8.02259844352e-06,0.11764705882352941
8.02259844352e-06,0.125
8.02259844352e-06,0.1323529411764706
8.02259844352e-06,0.13970588235294118
8.02259844352e-06,0.14705882352941177
8.02259844352e-06,0.15441176470588236
8.02259844352e-06,0.16176470588235295
8.02259844352e-06,0.16911764705882354
8.02259844352e-06,0.17647058823529413
8.02259844352e-06,0.18382352941176472
8.02259844352e-06,0.19117647058823528
8.02259844352e-06,0.19852941176470587
8.02259844352e-06,0.20588235294117646
8.02259844352e-06,0.21323529411764705
8.02259844352e-06,0.22058823529411764
8.02259844352e-06,0.22794117647058823
8.02259844352e-06,0.23529411764705882
8.02259844352e-06,0.2426470588235294
8.02259844352e-06,0.25
8.02259844352e-06,0.25735294117647056
8.02259844352e-06,0.2647058823529412
8.02259844352e-06,0.27205882352941174
8.02259844352e-06,0.27941176470588236
8.02259844352e-06,0.2867647058823529
8.02259844352e-06,0.29411764705882354
8.02259844352e-06,0.3014705882352941
0.000200564961088,0.3088235294117647
0.000200564961088,0.3161764705882353
0.000216610157975,0.3235294117647059
0.000311091350895,0.33088235294117646
0.000401129922176,0.3382352941176471
0.000401129922176,0.34558823529411764
0.000401129922176,0.35294117647058826
0.000401129922176,0.3602941176470588
0.000601694883264,0.36764705882352944
0.000668549870293,0.375
0.000668549870293,0.38235294117647056
0.000668549870293,0.3897058823529412
0.000707394203066,0.39705882352941174
0.000802259844352,0.40441176470588236
0.000802259844352,0.4117647058823529
0.000802259844352,0.41911764705882354
0.000802259844352,0.4264705882352941
0.000802259844352,0.4338235294117647
0.000802259844352,0.4411764705882353
0.000802259844352,0.4485294117647059
0.00100282480544,0.45588235294117646
0.00120338976653,0.4632352941176471
0.00120338976653,0.47058823529411764
0.00147080971465,0.47794117647058826
0.0016045196887,0.4852941176470588
0.0016045196887,0.49264705882352944
0.00240677953306,0.5
0.00327589436444,0.5073529411764706
0.00338336554739,0.5147058823529411
0.00359382151321,0.5220588235294118
0.00397472562968,0.5294117647058824
0.00410437774551,0.5367647058823529
0.00418792924752,0.5441176470588235
0.00424242855211,0.5514705882352942
0.00447647811134,0.5588235294117647
0.00452846172232,0.5661764705882353
0.00454492355471,0.5735294117647058
0.00456545869216,0.5808823529411765
0.00457181560631,0.5882352941176471
0.00457439688816,0.5955882352941176
0.00457546981712,0.6029411764705882
0.00457813392296,0.6102941176470589
0.00457974052507,0.6176470588235294
0.00458340227029,0.625
0.00458594276024,0.6323529411764706
0.00460568247139,0.6397058823529411
0.00461228747037,0.6470588235294118
0.00461233080389,0.6544117647058824
0.00461265649142,0.6617647058823529
0.00461266995223,0.6691176470588235
0.00461305133474,0.6764705882352942
0.00461306030941,0.6838235294117647
0.00461306030941,0.6911764705882353
0.00581638387155,0.6985294117647058
0.00595009384561,0.7058823529411765
0.00768832350837,0.7132352941176471
0.0095602631452,0.7205882352941176
0.00969397311926,0.7279411764705882
0.0103625229895,0.7352941176470589
0.0104962329636,0.7426470588235294
0.011298492808,0.75
0.111564156803,0.7573529411764706
0.114359922204,0.7647058823529411
0.114585056757,0.7720588235294118
0.212121427606,0.7794117647058824
0.212121427606,0.7867647058823529
0.229297138012,0.7941176470588235
0.229297138012,0.8014705882352942
0.343079766612,0.8088235294117647
0.381338832505,0.8161764705882353
0.381338832505,0.8235294117647058
0.381338832505,0.8308823529411765
0.418792924752,0.8382352941176471
0.457813392296,0.8455882352941176
0.458340227029,0.8529411764705882
0.461233080389,0.8602941176470589
0.461266995223,0.8676470588235294
0.461306030941,0.875
0.461306030941,0.8823529411764706
0.572333974711,0.8897058823529411
0.609593990574,0.8970588235294118
0.685843007228,0.9044117647058824
0.829230699303,0.9117647058823529
0.834185004737,0.9191176470588235
0.922532644365,0.9264705882352942
1.38391719536,0.9338235294117647
1.86903318122,0.9411764705882353
3.3434967239,0.9485294117647058
3.3629874247,0.9558823529411765
4.41470094156,0.9632352941176471
5.14014866932,0.9705882352941176
5.21088808962,0.9779411764705882
5.55503630426,0.9852941176470589
5.91441845558,0.9926470588235294
5.94552759067,1.0
