Congestion,CDF
0.0,0.007352941176470588
0.0,0.014705882352941176
0.0,0.022058823529411766
0.0,0.029411764705882353
0.0,0.03676470588235294
0.0,0.04411764705882353
0.0,0.051470588235294115
0.0,0.058823529411764705
0.0,0.0661764705882353
0.0,0.07352941176470588
0.0,0.08088235294117647
0.0,0.08823529411764706
0.0,0.09558823529411764
0.0,0.10294117647058823
1.10594717553e-06,0.11029411764705882
1.10594717553e-06,0.11764705882352941
1.10594717553e-06,0.125
1.10594717553e-06,0.1323529411764706
1.10594717553e-06,0.13970588235294118
1.10594717553e-06,0.14705882352941177
1.10594717553e-06,0.15441176470588236
1.10594717553e-06,0.16176470588235295
1.10594717553e-06,0.16911764705882354
1.10594717553e-06,0.17647058823529413
1.10594717553e-06,0.18382352941176472
1.10594717553e-06,0.19117647058823528
1.10594717553e-06,0.19852941176470587
1.10594717553e-06,0.20588235294117646
1.10594717553e-06,0.21323529411764705
1.10594717553e-06,0.22058823529411764
1.10594717553e-06,0.22794117647058823
1.10594717553e-06,0.23529411764705882
1.10594717553e-06,0.2426470588235294
1.10594717553e-06,0.25
1.10594717553e-06,0.25735294117647056
1.10594717553e-06,0.2647058823529412
1.10594717553e-06,0.27205882352941174
1.10594717553e-06,0.27941176470588236
1.10594717553e-06,0.2867647058823529
1.10594717553e-06,0.29411764705882354
1.10594717553e-06,0.3014705882352941
2.76486793882e-05,0.3088235294117647
2.76486793882e-05,0.3161764705882353
2.98605737392e-05,0.3235294117647059
5.52973587764e-05,0.33088235294117646
5.52973587764e-05,0.3382352941176471
5.52973587764e-05,0.34558823529411764
5.52973587764e-05,0.35294117647058826
8.29460381645e-05,0.3602941176470588
9.21622646273e-05,0.36764705882352944
9.21622646273e-05,0.375
9.21622646273e-05,0.38235294117647056
0.000110594717553,0.3897058823529412
0.000110594717553,0.39705882352941174
0.000110594717553,0.40441176470588236
0.000110594717553,0.4117647058823529
0.000110594717553,0.41911764705882354
0.000110594717553,0.4264705882352941
0.000110594717553,0.4338235294117647
0.000138243396941,0.4411764705882353
0.000165892076329,0.4485294117647059
0.000165892076329,0.45588235294117646
0.00020275698218,0.4632352941176471
0.000221189435105,0.47058823529411764
0.000221189435105,0.47794117647058826
0.000331784152658,0.4852941176470588
0.000451595096674,0.49264705882352944
0.000801811702257,0.5
0.000820244155183,0.5073529411764706
0.00105986604321,0.5147058823529411
0.00131792038417,0.5220588235294118
0.0013363528371,0.5294117647058824
0.00142851510172,0.5367647058823529
0.00144694755465,0.5441176470588235
0.0015575422722,0.5514705882352942
0.0150364844571,0.5588235294117647
0.0160878136032,0.5661764705882353
0.0296440905576,0.5735294117647058
0.0297381321364,0.5808823529411765
0.0299733281579,0.5882352941176471
0.0300131117562,0.5955882352941176
0.0300532657534,0.6029411764705882
0.0300786709162,0.6102941176470589
0.0301529100748,0.6176470588235294
0.0301697578831,0.625
0.0301781392261,0.6323529411764706
0.0301857543554,0.6397058823529411
0.0301873815008,0.6470588235294118
0.030188321434,0.6544117647058824
0.0301889087298,0.6617647058823529
0.030189864753,0.6691176470588235
0.0301902682841,0.6764705882352942
0.0301919197775,0.6838235294117647
0.030193699251,0.6911764705882353
0.0302011116654,0.6985294117647058
0.0302037680864,0.7058823529411765
0.0302037812284,0.7132352941176471
0.0302038714987,0.7205882352941176
0.0302038753223,0.7279411764705882
0.0302040862545,0.7352941176470589
0.0302040888039,0.7426470588235294
0.0302040888039,0.75
0.754708035851,0.7573529411764706
0.754797994437,0.7647058823529411
0.784270494271,0.7720588235294118
1.50393354581,0.7794117647058824
1.50393354581,0.7867647058823529
1.50968496255,0.7941176470588235
1.50968496255,0.8014705882352942
2.26412410755,0.8088235294117647
2.51575208032,0.8161764705882353
2.51575208032,0.8235294117647058
2.51575208032,0.8308823529411765
3.00532657534,0.8382352941176471
3.0189864753,0.8455882352941176
3.01919197775,0.8529411764705882
3.02037812284,0.8602941176470589
3.02038753223,0.8676470588235294
3.02040888039,0.875
3.02040888039,0.8823529411764706
3.77373486426,0.8897058823529411
4.50126636159,0.8970588235294118
4.52826039809,0.9044117647058824
5.53272786862,0.9117647058823529
6.00663775096,0.9191176470588235
6.04077468211,0.9264705882352942
9.06122638623,0.9338235294117647
12.3273642929,0.9411764705882353
21.8975539943,0.9485294117647058
22.3793167148,0.9558823529411765
28.9431022037,0.9632352941176471
35.8516298831,0.9705882352941176
36.4891765244,0.9779411764705882
37.3552783288,0.9852941176470589
39.462989738,0.9926470588235294
41.0717710983,1.0
