Congestion,CDF
0.0,0.005555555555555556
0.0,0.011111111111111112
0.0,0.016666666666666666
0.0,0.022222222222222223
0.0,0.027777777777777776
0.0,0.03333333333333333
0.0,0.03888888888888889
0.0,0.044444444444444446
0.0,0.05
0.0,0.05555555555555555
3.32089103749e-07,0.06111111111111111
3.81554409022e-07,0.06666666666666667
8.58847361672e-07,0.07222222222222222
1.25525537818e-06,0.07777777777777778
1.28443515221e-06,0.08333333333333333
1.69589656104e-06,0.08888888888888889
1.86571067335e-06,0.09444444444444444
2.57137475048e-06,0.1
2.58464060148e-06,0.10555555555555556
2.64432995043e-06,0.1111111111111111
2.69875329487e-06,0.11666666666666667
2.97077602979e-06,0.12222222222222222
3.03968246716e-06,0.12777777777777777
3.39439480089e-06,0.13333333333333333
3.47654221012e-06,0.1388888888888889
3.66084322999e-06,0.14444444444444443
4.23308294114e-06,0.15
4.63271679819e-06,0.15555555555555556
4.83748948966e-06,0.16111111111111112
5.03118799029e-06,0.16666666666666666
5.11079171367e-06,0.17222222222222222
5.15183813929e-06,0.17777777777777778
5.32252588568e-06,0.18333333333333332
5.50747351529e-06,0.18888888888888888
5.60044202259e-06,0.19444444444444445
5.66368890078e-06,0.2
5.69511107392e-06,0.20555555555555555
5.76051023312e-06,0.2111111111111111
5.81680083962e-06,0.21666666666666667
5.82956519718e-06,0.2222222222222222
6.02434594523e-06,0.22777777777777777
6.07460630308e-06,0.23333333333333334
6.14433900178e-06,0.2388888888888889
6.65398958102e-06,0.24444444444444444
7.00173700589e-06,0.25
7.6018497958e-06,0.25555555555555554
7.72227991007e-06,0.2611111111111111
7.83340911587e-06,0.26666666666666666
8.09868701463e-06,0.2722222222222222
2.86282453891e-05,0.2777777777777778
5.72564907781e-05,0.2833333333333333
6.27627689089e-05,0.28888888888888886
6.27627689089e-05,0.29444444444444445
6.46160150369e-05,0.3
6.46160150369e-05,0.3055555555555556
9.78249254118e-05,0.3111111111111111
0.000128443515221,0.31666666666666665
0.000129232030074,0.32222222222222224
0.000172063594388,0.3277777777777778
0.000257137475048,0.3333333333333333
0.000267414581516,0.3388888888888889
0.000283184445039,0.34444444444444444
0.000283184445039,0.35
0.000361693618015,0.35555555555555557
0.000550747351529,0.3611111111111111
0.000560044202259,0.36666666666666664
0.000577946582838,0.37222222222222223
0.000622623925128,0.37777777777777777
0.000658741826726,0.38333333333333336
0.000658741826726,0.3888888888888889
0.000751163530482,0.39444444444444443
0.000793842473323,0.4
0.000853593543224,0.40555555555555556
0.000912572941661,0.4111111111111111
0.00113370387125,0.4166666666666667
0.00119867494844,0.4222222222222222
0.00126117642125,0.42777777777777776
0.00155049081085,0.43333333333333335
0.00182036614034,0.4388888888888889
0.00190591935075,0.4444444444444444
0.00235347321208,0.45
0.00266610433033,0.45555555555555555
0.00474335045981,0.46111111111111114
0.00577071114102,0.4666666666666667
0.00604031173216,0.4722222222222222
0.00658057984248,0.4777777777777778
0.00674048543275,0.48333333333333334
0.00709165901385,0.4888888888888889
0.00716933252465,0.49444444444444446
0.00759264081877,0.5
0.00820010144908,0.5055555555555555
0.00825128568065,0.5111111111111111
0.00838667251641,0.5166666666666667
0.00851571867569,0.5222222222222223
0.00881968692241,0.5277777777777778
0.0129213892092,0.5333333333333333
0.0131414983395,0.5388888888888889
0.0166409501689,0.5444444444444444
0.0168625841732,0.55
0.0170608935572,0.5555555555555556
0.017080866968,0.5611111111111111
0.0170886350412,0.5666666666666667
0.017109124549,0.5722222222222222
0.017125599243,0.5777777777777777
0.0171394058534,0.5833333333333334
0.0171673172588,0.5888888888888889
0.0171769813011,0.5944444444444444
0.0171818074579,0.6
0.0171853020116,0.6055555555555555
0.0171881223348,0.6111111111111112
0.0171998093554,0.6166666666666667
0.0172061312998,0.6222222222222222
0.0172106607186,0.6277777777777778
0.0172116399625,0.6333333333333333
0.0172215191624,0.6388888888888888
0.0172546592534,0.6444444444444445
0.0172711686295,0.65
0.0172742526317,0.6555555555555556
0.017286456116,0.6611111111111111
0.0173007740059,0.6666666666666666
0.0173023289752,0.6722222222222223
0.0173093772214,0.6777777777777778
0.0173127069704,0.6833333333333333
0.0173131966106,0.6888888888888889
0.0173161535486,0.6944444444444444
0.0173167599566,0.7
0.0173303440873,0.7055555555555556
0.0173309085807,0.7111111111111111
0.0173561291921,0.7166666666666667
0.017365592163,0.7222222222222222
0.0173928404615,0.7277777777777777
0.017397387845,0.7333333333333333
0.017404978801,0.7388888888888889
0.0174085912617,0.7444444444444445
0.429545186447,0.75
0.429545186447,0.7555555555555555
0.570304151632,0.7611111111111111
0.663364844277,0.7666666666666667
0.85304467786,0.7722222222222223
0.85304467786,0.7777777777777778
0.859090372893,0.7833333333333333
0.86546886107,0.7888888888888889
0.86546886107,0.7944444444444444
1.14060830326,0.8
1.7125599243,0.8055555555555556
1.71769813011,0.8111111111111111
1.73023289752,0.8166666666666667
1.73127069704,0.8222222222222222
2.13763188325,0.8277777777777777
2.14952612198,0.8333333333333334
2.57157487902,0.8388888888888889
2.58663285732,0.8444444444444444
2.59994949907,0.85
2.73135485929,0.8555555555555555
2.73135485929,0.8611111111111112
3.44817284351,0.8666666666666667
3.46184825239,0.8722222222222222
3.85157246859,0.8777777777777778
4.31795251838,0.8833333333333333
4.44694713657,0.8888888888888888
4.46444571735,0.8944444444444445
5.57899773176,0.9
7.92579381498,0.9055555555555556
8.88716549998,0.9111111111111111
9.89519913167,0.9166666666666666
10.6059777335,0.9222222222222223
11.6344831778,0.9277777777777778
20.2634475441,0.9333333333333333
21.1540227331,0.9388888888888889
22.8945206132,0.9444444444444444
24.6199865385,0.95
25.4402659992,0.9555555555555556
27.1768252155,0.9611111111111111
28.9126274894,0.9666666666666667
29.7504830233,0.9722222222222222
30.5767225063,0.9777777777777777
31.4672147492,0.9833333333333333
31.8688614272,0.9888888888888889
33.1534731665,0.9944444444444445
34.4676230005,1.0
