Congestion,CDF
0.0,0.005555555555555556
0.0,0.011111111111111112
0.0,0.016666666666666666
0.0,0.022222222222222223
0.0,0.027777777777777776
0.0,0.03333333333333333
0.0,0.03888888888888889
0.0,0.044444444444444446
0.0,0.05
0.0,0.05555555555555555
1.04833013914e-06,0.06111111111111111
1.20448091245e-06,0.06666666666666667
2.71118673873e-06,0.07222222222222222
3.96255712821e-06,0.07777777777777778
4.05467107061e-06,0.08333333333333333
5.35356161262e-06,0.08888888888888889
5.88962633132e-06,0.09444444444444444
8.11724811058e-06,0.1
8.15912539973e-06,0.10555555555555556
8.34755116495e-06,0.1111111111111111
8.51935334576e-06,0.11666666666666667
9.37806755326e-06,0.12222222222222222
9.59558958054e-06,0.12777777777777777
1.07153361364e-05,0.13333333333333333
1.0974656915e-05,0.1388888888888889
1.15564535221e-05,0.14444444444444443
1.33628847757e-05,0.15
1.46244384137e-05,0.15555555555555556
1.52708594547e-05,0.16111111111111112
1.58823217816e-05,0.16666666666666666
1.61336127197e-05,0.17222222222222222
1.62631869954e-05,0.17777777777777778
1.68020095791e-05,0.18333333333333332
1.73858473868e-05,0.18888888888888888
1.76793279229e-05,0.19444444444444445
1.78789840027e-05,0.2
1.79781766916e-05,0.20555555555555555
1.81846270354e-05,0.2111111111111111
1.836232374e-05,0.21666666666666667
1.84026179278e-05,0.2222222222222222
1.90174966649e-05,0.22777777777777777
1.91761572392e-05,0.23333333333333334
1.93962875865e-05,0.2388888888888889
2.10051391165e-05,0.24444444444444444
2.21028990315e-05,0.25
2.39973192863e-05,0.25555555555555554
2.43774899002e-05,0.2611111111111111
2.47282996511e-05,0.26666666666666666
2.55657219375e-05,0.2722222222222222
9.03728912911e-05,0.2777777777777778
0.000180745782582,0.2833333333333333
0.000198127856411,0.28888888888888886
0.000198127856411,0.29444444444444445
0.000203978134993,0.3
0.000203978134993,0.3055555555555556
0.000308811148907,0.3111111111111111
0.000405467107061,0.31666666666666665
0.000407956269987,0.32222222222222224
0.000543165824502,0.3277777777777778
0.000811724811058,0.3333333333333333
0.00084416731017,0.3388888888888889
0.000893949200135,0.34444444444444444
0.000893949200135,0.35
0.00114178489032,0.35555555555555557
0.00155350071654,0.3611111111111111
0.0015536938216,0.36666666666666664
0.00155555710093,0.37222222222222223
0.00155710461774,0.37777777777777777
0.00155721853115,0.38333333333333336
0.00155882481412,0.3888888888888889
0.00155948774267,0.39444444444444443
0.00156224254825,0.4
0.00156229433612,0.40555555555555556
0.00156252735429,0.4111111111111111
0.00156273981478,0.4166666666666667
0.0015638017503,0.4222222222222222
0.00156407075059,0.42777777777777776
0.00156545549377,0.43333333333333335
0.0015657761848,0.4388888888888889
0.00156649566804,0.4444444444444444
0.00156872960513,0.45
0.00157028971512,0.45555555555555555
0.00157108911667,0.46111111111111114
0.00157184528625,0.4666666666666667
0.00157215604712,0.4722222222222222
0.00157231628614,0.4777777777777778
0.00157298262523,0.48333333333333334
0.00157370463274,0.4888888888888889
0.0015740675677,0.49444444444444446
0.00157431447393,0.5
0.00157443714133,0.5055555555555555
0.00157469244973,0.5111111111111111
0.00157491219972,0.5166666666666667
0.00157496202984,0.5222222222222223
0.00157572242435,0.5277777777777778
0.00157591863317,0.5333333333333333
0.00157619085906,0.5388888888888889
0.00157818045766,0.5444444444444444
0.00157953801089,0.55
0.00158188076025,0.5555555555555556
0.00158235090116,0.5611111111111111
0.00158278473273,0.5666666666666667
0.00158382033744,0.5722222222222222
0.00173858473868,0.5777777777777777
0.00176793279229,0.5833333333333334
0.00182444655595,0.5888888888888889
0.00196548281378,0.5944444444444444
0.00207949885459,0.6
0.00207949885459,0.6055555555555555
0.00237125325564,0.6111111111111112
0.00250598101871,0.6166666666666667
0.00269460162298,0.6222222222222222
0.0028807862351,0.6277777777777778
0.00357884653146,0.6333333333333333
0.00378394551732,0.6388888888888888
0.00398124852108,0.6444444444444445
0.00489454856882,0.65
0.0057464839034,0.6555555555555556
0.00601655602548,0.6611111111111111
0.00742938227128,0.6666666666666666
0.00841628795411,0.6722222222222223
0.0149736838438,0.6777777777777778
0.0182168289929,0.6833333333333333
0.0190678970407,0.6888888888888889
0.0207734011867,0.6944444444444444
0.0212781869438,0.7
0.0223867624586,0.7055555555555556
0.0226319601525,0.7111111111111111
0.02396824863,0.7166666666666667
0.025885864354,0.7222222222222222
0.0260474413886,0.7277777777777777
0.0264748269871,0.7333333333333333
0.0268821965051,0.7388888888888889
0.0278417554631,0.7444444444444445
0.0390573584031,0.75
0.0390573584031,0.7555555555555555
0.0518519033644,0.7611111111111111
0.061207677539,0.7666666666666667
0.0778552308868,0.7722222222222223
0.0778552308868,0.7777777777777778
0.0781147168062,0.7833333333333333
0.0787157236963,0.7888888888888889
0.0787157236963,0.7944444444444444
0.103703806729,0.8
0.155721853115,0.8055555555555556
0.156224254825,0.8111111111111111
0.157370463274,0.8166666666666667
0.15740675677,0.8222222222222222
0.194407430058,0.8277777777777777
0.195437533433,0.8333333333333334
0.235086859501,0.8388888888888889
0.235261273073,0.8444444444444444
0.236393190079,0.85
0.248337307644,0.8555555555555555
0.248337307644,0.8611111111111112
0.313539898881,0.8666666666666667
0.314866666258,0.8722222222222222
0.350289911469,0.8777777777777778
0.392730518046,0.8833333333333333
0.40431840831,0.8888888888888888
0.405909550079,0.8944444444444445
0.507398823136,0.9
0.720614569373,0.9055555555555556
0.808025098114,0.9111111111111111
0.899957887563,0.9166666666666666
0.964299079592,0.9222222222222223
1.05814596359,0.9277777777777778
1.8423573631,0.9333333333333333
1.92397823801,0.9388888888888889
2.08236027175,0.9444444444444444
2.23957587646,0.95
2.3130817906,0.9555555555555556
2.47103559169,0.9611111111111111
2.63215395594,0.9666666666666667
2.70554038938,0.9722222222222222
2.78840669137,0.9777777777777777
2.8624133499,0.9833333333333333
2.94481376643,0.9888888888888889
3.02000521321,0.9944444444444445
3.17595398748,1.0
