Congestion,CDF
0.0,0.005555555555555556
0.0,0.011111111111111112
0.0,0.016666666666666666
0.0,0.022222222222222223
0.0,0.027777777777777776
0.0,0.03333333333333333
0.0,0.03888888888888889
0.0,0.044444444444444446
0.0,0.05
0.0,0.05555555555555555
6.88035254517e-07,0.06111111111111111
7.90519417708e-07,0.06666666666666667
1.77939371213e-06,0.07222222222222222
2.6006874175e-06,0.07777777777777778
2.66114321995e-06,0.08333333333333333
3.51362513504e-06,0.08888888888888889
3.86545268573e-06,0.09444444444444444
5.32747524965e-06,0.1
5.35495996103e-06,0.10555555555555556
5.47862669967e-06,0.1111111111111111
5.59138312323e-06,0.11666666666666667
6.15497051451e-06,0.12222222222222222
6.29773357913e-06,0.12777777777777777
7.03264053049e-06,0.13333333333333333
7.2028367609e-06,0.1388888888888889
7.58467885593e-06,0.14444444444444443
8.77026757552e-06,0.15
9.59824470409e-06,0.15555555555555556
1.00225008128e-05,0.16111111111111112
1.04238129777e-05,0.16666666666666666
1.05887390998e-05,0.17222222222222222
1.06737806973e-05,0.17777777777777778
1.10274182774e-05,0.18333333333333332
1.14106000439e-05,0.18888888888888888
1.16032158505e-05,0.19444444444444445
1.1734253218e-05,0.2
1.17993549111e-05,0.20555555555555555
1.1934851459e-05,0.2111111111111111
1.20514765495e-05,0.21666666666666667
1.2077922247e-05,0.2222222222222222
1.24814766547e-05,0.22777777777777777
1.2585608039e-05,0.23333333333333334
1.27300829844e-05,0.2388888888888889
1.3785997081e-05,0.24444444444444444
1.45064738605e-05,0.25
1.574981112e-05,0.25555555555555554
1.5999322963e-05,0.2611111111111111
1.62295648184e-05,0.26666666666666666
1.67791779931e-05,0.2722222222222222
5.93131237377e-05,0.2777777777777778
8.38439271735e-05,0.2833333333333333
0.000118626247475,0.28888888888888886
0.000130034370875,0.29444444444444445
0.000130034370875,0.3
0.000133873999026,0.3055555555555556
0.000133873999026,0.3111111111111111
0.000202677524477,0.31666666666666665
0.000266114321995,0.32222222222222224
0.000267747998051,0.3277777777777778
0.000356488116055,0.3333333333333333
0.000532747524965,0.3388888888888889
0.000554040037982,0.34444444444444444
0.000586712660902,0.35
0.000586712660902,0.35555555555555557
0.000749371050476,0.3611111111111111
0.000762661597004,0.36666666666666664
0.00114106000439,0.37222222222222223
0.00116032158505,0.37777777777777777
0.00119741244061,0.38333333333333336
0.00128997671395,0.3888888888888889
0.00136480720173,0.39444444444444443
0.00136480720173,0.4
0.00155629011926,0.40555555555555556
0.0016447140301,0.4111111111111111
0.00176850864462,0.4166666666666667
0.00189070447989,0.4222222222222222
0.00206960152083,0.42777777777777776
0.0023488522291,0.43333333333333335
0.00248346185985,0.4388888888888889
0.00248671617158,0.4444444444444444
0.0026129548672,0.45
0.0027683784347,0.45555555555555555
0.00277671290928,0.46111111111111114
0.00277846879701,0.4666666666666667
0.00282131719001,0.4722222222222222
0.00285769605707,0.4777777777777778
0.00289080631824,0.48333333333333334
0.00296939150382,0.4888888888888889
0.00297484567215,0.49444444444444446
0.00298650660247,0.5
0.00301093832921,0.5055555555555555
0.00301130325705,0.5111111111111111
0.00304254951874,0.5166666666666667
0.00304711871598,0.5222222222222223
0.00305634042665,0.5277777777777778
0.00306974332022,0.5333333333333333
0.00312156981235,0.5388888888888889
0.0031601531505,0.5444444444444444
0.00316227014743,0.55
0.00317282412524,0.5555555555555556
0.00319406893575,0.5611111111111111
0.00321236778812,0.5666666666666667
0.0032220711402,0.5722222222222222
0.0032322165117,0.5777777777777777
0.003246620878,0.5833333333333334
0.00324702339898,0.5888888888888889
0.00325494614786,0.5944444444444444
0.00325550743202,0.6
0.00326112931628,0.6055555555555555
0.00328508378835,0.6111111111111112
0.00329013337628,0.6166666666666667
0.0033397655601,0.6222222222222222
0.00336525452568,0.6277777777777778
0.00342089177946,0.6333333333333333
0.00343102136024,0.6388888888888888
0.00344751494924,0.6444444444444445
0.00345579209005,0.65
0.00377150610044,0.6555555555555556
0.00394875860356,0.6611111111111111
0.00487601828,0.6666666666666666
0.00552373971556,0.6722222222222223
0.00982745987155,0.6777777777777778
0.0119559861008,0.6833333333333333
0.0125145551994,0.6888888888888889
0.0136339039001,0.6944444444444444
0.0139652025855,0.7
0.0146927778101,0.7055555555555556
0.0148537048419,0.7111111111111111
0.0157307315995,0.7166666666666667
0.0169892924034,0.7222222222222222
0.0170953379056,0.7277777777777777
0.017375837672,0.7333333333333333
0.0176432005756,0.7388888888888889
0.0182729739335,0.7444444444444445
0.0743711418038,0.75
0.0743711418038,0.7555555555555555
0.0940439063338,0.7611111111111111
0.115030798695,0.7666666666666667
0.138835645464,0.7722222222222223
0.138835645464,0.7777777777777778
0.148742283608,0.7833333333333333
0.1623310439,0.7888888888888889
0.1623310439,0.7944444444444444
0.188087812668,0.8
0.285769605707,0.8055555555555556
0.296939150382,0.8111111111111111
0.32322165117,0.8166666666666667
0.324702339898,0.8222222222222222
0.351208985273,0.8277777777777777
0.375464974725,0.8333333333333334
0.445809977486,0.8388888888888889
0.466585995773,0.8444444444444444
0.493493778531,0.85
0.493607816932,0.8555555555555555
0.493607816932,0.8611111111111112
0.619746161717,0.8666666666666667
0.640289617097,0.8722222222222222
0.649334582797,0.8777777777777778
0.785524196109,0.8833333333333333
0.79208061056,0.8888888888888888
0.822116195767,0.8944444444444445
0.957572029621,0.9
1.46902564968,0.9055555555555556
1.55697889274,0.9111111111111111
1.74585556153,0.9166666666666666
1.85562955299,0.9222222222222223
2.08794473948,0.9277777777777778
3.65020594588,0.9333333333333333
3.87246206886,0.9388888888888889
4.21804127786,0.9444444444444444
4.53426829261,0.95
4.58935900117,0.9555555555555556
4.92588445374,0.9611111111111111
5.29223525133,0.9666666666666667
5.3694319708,0.9722222222222222
5.49919540341,0.9777777777777777
5.57546156311,0.9833333333333333
5.6705622965,0.9888888888888889
5.91923391366,0.9944444444444445
5.92761830638,1.0
