Congestion,CDF
0.0,0.005555555555555556
0.0,0.011111111111111112
0.0,0.016666666666666666
0.0,0.022222222222222223
0.0,0.027777777777777776
0.0,0.03333333333333333
0.0,0.03888888888888889
0.0,0.044444444444444446
0.0,0.05
0.0,0.05555555555555555
3.3760438532e-07,0.06111111111111111
3.878912023e-07,0.06666666666666667
8.73110958317e-07,0.07222222222222222
1.27610245439e-06,0.07777777777777778
1.30576684134e-06,0.08333333333333333
1.72406173401e-06,0.08888888888888889
1.89669609135e-06,0.09444444444444444
2.61407972216e-06,0.1
2.62756589025e-06,0.10555555555555556
2.68824655015e-06,0.1111111111111111
2.74357374861e-06,0.11666666666666667
3.02011419266e-06,0.12222222222222222
3.09016501689e-06,0.12777777777777777
3.45076835509e-06,0.13333333333333333
3.53428005508e-06,0.1388888888888889
3.72164191616e-06,0.14444444444444443
4.30338529093e-06,0.15
4.70965620178e-06,0.15555555555555556
4.91782972465e-06,0.16111111111111112
5.11474513832e-06,0.16666666666666666
5.19567090734e-06,0.17222222222222222
5.23739902529e-06,0.17777777777777778
5.41092152588e-06,0.18333333333333332
5.5989407355e-06,0.18888888888888888
5.69345324857e-06,0.19444444444444445
5.75775052058e-06,0.2
5.78969454804e-06,0.20555555555555555
5.85617984579e-06,0.2111111111111111
5.91340531749e-06,0.21666666666666667
5.92638166341e-06,0.2222222222222222
6.1243972983e-06,0.22777777777777777
6.17549237196e-06,0.23333333333333334
6.24638317992e-06,0.2388888888888889
6.7644979527e-06,0.24444444444444444
7.11802070998e-06,0.25
7.72810007505e-06,0.25555555555555554
7.85053027298e-06,0.2611111111111111
7.96350509447e-06,0.26666666666666666
8.23318868523e-06,0.2722222222222222
2.91036986106e-05,0.2777777777777778
5.82073972211e-05,0.2833333333333333
6.38051227194e-05,0.28888888888888886
6.38051227194e-05,0.29444444444444445
6.56891472562e-05,0.3
6.56891472562e-05,0.3055555555555556
9.94495857882e-05,0.3111111111111111
0.000130576684134,0.31666666666666665
0.000131378294512,0.32222222222222224
0.000174921198448,0.3277777777777778
0.000261407972216,0.3333333333333333
0.000271855759189,0.3388888888888889
0.000287887526029,0.34444444444444444
0.000287887526029,0.35
0.000367700566522,0.35555555555555557
0.00055989407355,0.3611111111111111
0.000569345324857,0.36666666666666664
0.000587545025248,0.37222222222222223
0.000632964361538,0.37777777777777777
0.000669682103344,0.38333333333333336
0.000669682103344,0.3888888888888889
0.000763638731654,0.39444444444444443
0.000807026479404,0.4
0.00086776988531,0.40555555555555556
0.000927728803959,0.4111111111111111
0.00115253223989,0.4166666666666667
0.00121858234612,0.4222222222222222
0.00128212183317,0.42777777777777776
0.00157624110888,0.43333333333333335
0.00185059848374,0.4388888888888889
0.00193757254789,0.4444444444444444
0.00239255931062,0.45
0.0027103825554,0.45555555555555555
0.00482212724917,0.46111111111111114
0.0058665501687,0.4666666666666667
0.0061406282424,0.4722222222222222
0.00668986903723,0.4777777777777778
0.0068524303134,0.48333333333333334
0.00720943612796,0.4888888888888889
0.00728839962774,0.49444444444444446
0.00771873815683,0.5
0.00833628739403,0.5055555555555555
0.00838832168496,0.5111111111111111
0.00852595700316,0.5166666666666667
0.00865714633997,0.5222222222222223
0.00896616284166,0.5277777777777778
0.0113337973679,0.5333333333333333
0.0115735076862,0.5388888888888889
0.0154401925751,0.5444444444444444
0.0156775387008,0.55
0.0158716648681,0.5555555555555556
0.0158881600927,0.5611111111111111
0.015896121271,0.5666666666666667
0.0159184740581,0.5722222222222222
0.0159366101784,0.5777777777777777
0.0159520230757,0.5833333333333334
0.0159893618486,0.5888888888888889
0.0159930162573,0.5944444444444444
0.0159978942022,0.6
0.0160046545576,0.6055555555555555
0.0160111735069,0.6111111111111112
0.0160174035139,0.6166666666666667
0.0160264032922,0.6222222222222222
0.0160308878598,0.6277777777777778
0.0160387544513,0.6333333333333333
0.0160410877554,0.6388888888888888
0.0160805828331,0.6444444444444445
0.0160952507528,0.65
0.0160991341565,0.6555555555555556
0.0161120937871,0.6611111111111111
0.0161275490391,0.6666666666666666
0.0161298260076,0.6722222222222223
0.016137484101,0.6777777777777778
0.0161405669462,0.6833333333333333
0.0161416814566,0.6888888888888889
0.0161449079718,0.6944444444444444
0.0161449895049,0.7
0.0161603273541,0.7055555555555556
0.0161604234132,0.7111111111111111
0.0161881020511,0.7166666666666667
0.0161989219847,0.7222222222222222
0.0162285136255,0.7277777777777777
0.0162335311026,0.7333333333333333
0.0162425904507,0.7388888888888889
0.0162451684027,0.7444444444444445
0.399947355054,0.75
0.399947355054,0.7555555555555555
0.530615801936,0.7611111111111111
0.61665037206,0.7666666666666667
0.793583243405,0.7722222222222223
0.793583243405,0.7777777777777778
0.799894710109,0.7833333333333333
0.806874205049,0.7888888888888889
0.806874205049,0.7944444444444444
1.06123160387,0.8
1.59366101784,0.8055555555555556
1.59930162573,0.8111111111111111
1.61298260076,0.8166666666666667
1.61405669462,0.8222222222222222
1.98876336433,0.8277777777777777
2.00168770644,0.8333333333333334
2.3947005941,0.8388888888888889
2.40996299103,0.8444444444444444
2.42441155037,0.85
2.54487596489,0.8555555555555555
2.54487596489,0.8611111111111112
3.21247122295,0.8666666666666667
3.22747339793,0.8722222222222222
3.5839656719,0.8777777777777778
4.02413113669,0.8833333333333333
4.14182858366,0.8888888888888888
4.16091830621,0.8944444444444445
5.19387908754,0.9
7.38772990474,0.9055555555555556
8.27631667565,0.9111111111111111
9.21608765373,0.9166666666666666
9.87678213141,0.9222222222222223
10.8389390163,0.9277777777777778
18.8790109866,0.9333333333333333
19.7138966612,0.9388888888888889
21.3381557062,0.9444444444444444
22.9462139895,0.95
23.7026915883,0.9555555555555556
25.3225837868,0.9611111111111111
26.9447900288,0.9666666666666667
27.7188073594,0.9722222222222222
28.4888092863,0.9777777777777777
29.3177435443,0.9833333333333333
29.6221890231,0.9888888888888889
30.8854974144,0.9944444444444445
32.042848183,1.0
