Congestion,CDF
0.0,0.005555555555555556
0.0,0.011111111111111112
0.0,0.016666666666666666
0.0,0.022222222222222223
0.0,0.027777777777777776
0.0,0.03333333333333333
0.0,0.03888888888888889
0.0,0.044444444444444446
0.0,0.05
0.0,0.05555555555555555
3.71534267301e-07,0.06111111111111111
4.26875004903e-07,0.06666666666666667
9.6086026804e-07,0.07222222222222222
1.40435317492e-06,0.07777777777777778
1.43699888911e-06,0.08333333333333333
1.89733321301e-06,0.08888888888888889
2.08731765117e-06,0.09444444444444444
2.8767996995e-06,0.1
2.89164125309e-06,0.10555555555555556
2.95842043458e-06,0.1111111111111111
3.01930812157e-06,0.11666666666666667
3.32364140551e-06,0.12222222222222222
3.40073247063e-06,0.12777777777777777
3.79757712927e-06,0.13333333333333333
3.88948191373e-06,0.1388888888888889
4.09567399773e-06,0.14444444444444443
4.73588368664e-06,0.15
5.18298559572e-06,0.15555555555555556
5.41208095305e-06,0.16111111111111112
5.62878673982e-06,0.16666666666666666
5.71784570234e-06,0.17222222222222222
5.7637675754e-06,0.17777777777777778
5.95472941689e-06,0.18333333333333332
6.16164491421e-06,0.18888888888888888
6.26565611437e-06,0.19444444444444445
6.33641538434e-06,0.2
6.37156984724e-06,0.20555555555555555
6.4447370437e-06,0.2111111111111111
6.507713784e-06,0.21666666666666667
6.52199427733e-06,0.2222222222222222
6.73991085964e-06,0.22777777777777777
6.79614108525e-06,0.23333333333333334
6.87415655407e-06,0.2388888888888889
7.44434284564e-06,0.24444444444444444
7.83339531152e-06,0.25
8.50478881158e-06,0.25555555555555554
8.63952347694e-06,0.2611111111111111
8.76385248258e-06,0.26666666666666666
9.06063978646e-06,0.2722222222222222
3.20286756013e-05,0.2777777777777778
6.40573512027e-05,0.2833333333333333
7.0217658746e-05,0.28888888888888886
7.0217658746e-05,0.29444444444444445
7.22910313274e-05,0.3
7.22910313274e-05,0.3055555555555556
0.000109444458057,0.3111111111111111
0.000143699888911,0.31666666666666665
0.000144582062655,0.32222222222222224
0.000192501111143,0.3277777777777778
0.00028767996995,0.3333333333333333
0.000299177779359,0.3388888888888889
0.000316820769217,0.34444444444444444
0.000316820769217,0.35
0.000404655171879,0.35555555555555557
0.000616164491421,0.3611111111111111
0.000626565611437,0.36666666666666664
0.000646594416286,0.37222222222222223
0.000696578482144,0.37777777777777777
0.000736986426744,0.38333333333333336
0.000736986426744,0.3888888888888889
0.000840385874663,0.39444444444444443
0.000888134173474,0.4
0.000954982407052,0.40555555555555556
0.00102096731091,0.4111111111111111
0.00126836391915,0.4166666666666667
0.00134105218651,0.4222222222222222
0.00141097751271,0.42777777777777776
0.00173465633429,0.43333333333333335
0.00203658714644,0.4388888888888889
0.00213230226924,0.4444444444444444
0.00263301606583,0.45
0.0029827811504,0.45555555555555555
0.00524486316134,0.46111111111111114
0.005306760197,0.4666666666666667
0.00553191896482,0.4722222222222222
0.00645614960376,0.4777777777777778
0.00675777304446,0.48333333333333334
0.0073622135824,0.4888888888888889
0.00754111257561,0.49444444444444446
0.00793399815264,0.5
0.00802089763413,0.5055555555555555
0.00849448600279,0.5111111111111111
0.00917410011132,0.5166666666666667
0.00923136394732,0.5222222222222223
0.00938283187643,0.5277777777777778
0.00952720599078,0.5333333333333333
0.00986727923784,0.5388888888888889
0.0106228984113,0.5444444444444444
0.0109245798262,0.55
0.0111143215111,0.5555555555555556
0.0111173325912,0.5611111111111111
0.0111260661898,0.5666666666666667
0.0111558720944,0.5722222222222222
0.0111806538616,0.5777777777777777
0.0112024919643,0.5833333333333334
0.0112571560768,0.5888888888888889
0.0112622411792,0.5944444444444444
0.0112707834474,0.6
0.0112765826746,0.6055555555555555
0.0112877801477,0.6111111111111112
0.0113074360353,0.6166666666666667
0.0113078793815,0.6222222222222222
0.0113138418399,0.6277777777777778
0.0113193621271,0.6333333333333333
0.0113499005136,0.6388888888888888
0.0113841917519,0.6444444444444445
0.011391579246,0.65
0.0113986602539,0.6555555555555556
0.0114146442915,0.6611111111111111
0.0114346491701,0.6666666666666666
0.0114398140098,0.6722222222222223
0.0114499115817,0.6777777777777778
0.0114520068477,0.6833333333333333
0.011455620712,0.6888888888888889
0.0114579076858,0.6944444444444444
0.0114599255043,0.7
0.0114784827425,0.7055555555555556
0.0114802604146,0.7111111111111111
0.0115159934133,0.7166666666666667
0.0115322380926,0.7222222222222222
0.0115712062332,0.7277777777777777
0.0115781037342,0.7333333333333333
0.0115914769662,0.7388888888888889
0.0115930312309,0.7444444444444445
0.281556029481,0.75
0.281556029481,0.7555555555555555
0.371862403145,0.7611111111111111
0.430253665881,0.7666666666666667
0.555716075556,0.7722222222222223
0.555716075556,0.7777777777777778
0.563112058961,0.7833333333333333
0.572495579085,0.7888888888888889
0.572495579085,0.7944444444444444
0.74372480629,0.8
1.11806538616,0.8055555555555556
1.12571560768,0.8111111111111111
1.14398140098,0.8166666666666667
1.14520068477,0.8222222222222222
1.39328928861,0.8277777777777777
1.41033404426,0.8333333333333334
1.68710025955,0.8388888888888889
1.70328351723,0.8444444444444444
1.72225975558,0.85
1.79896038729,0.8555555555555555
1.79896038729,0.8611111111111112
2.26966472749,0.8666666666666667
2.2899739514,0.8722222222222222
2.51353848503,0.8777777777777778
2.84884558843,0.8833333333333333
2.921354372,0.8888888888888888
2.94680866154,0.8944444444444445
3.65340451042,0.9
5.23547426332,0.9055555555555556
5.83292137827,0.9111111111111111
6.49964173864,0.9166666666666666
6.95999972301,0.9222222222222223
7.65676236196,0.9277777777777778
13.3412647549,0.9333333333333333
13.9533922752,0.9388888888888889
15.1126953983,0.9444444444444444
16.2511145735,0.95
16.7523939115,0.9555555555555556
17.9056177208,0.9611111111111111
19.0732048844,0.9666666666666667
19.5920773999,0.9722222222222222
20.1354947255,0.9777777777777777
20.6599810417,0.9833333333333333
20.7197356674,0.9888888888888889
21.81219365,0.9944444444444445
22.3653855465,1.0
