Congestion,CDF
0.0,0.005555555555555556
0.0,0.011111111111111112
0.0,0.016666666666666666
0.0,0.022222222222222223
0.0,0.027777777777777776
0.0,0.03333333333333333
0.0,0.03888888888888889
0.0,0.044444444444444446
0.0,0.05
0.0,0.05555555555555555
5.6803855122e-07,0.06111111111111111
6.52648976631e-07,0.06666666666666667
1.46905877228e-06,0.07222222222222222
2.14711485075e-06,0.07777777777777778
2.19702686647e-06,0.08333333333333333
2.90083177881e-06,0.08888888888888889
3.19129888912e-06,0.09444444444444444
4.39833758896e-06,0.1
4.42102883266e-06,0.10555555555555556
4.52312748907e-06,0.1111111111111111
4.61621864256e-06,0.11666666666666667
5.0815136447e-06,0.12222222222222222
5.19937813473e-06,0.12777777777777777
5.80611373031e-06,0.13333333333333333
5.94662690826e-06,0.1388888888888889
6.26187388002e-06,0.14444444444444443
7.2406901459e-06,0.15
7.92426402597e-06,0.15555555555555556
8.2745278006e-06,0.16111111111111112
8.60584916714e-06,0.16666666666666666
8.74201136937e-06,0.17222222222222222
8.81222129761e-06,0.17777777777777778
9.10418275939e-06,0.18333333333333332
9.42053575738e-06,0.18888888888888888
9.5795584281e-06,0.19444444444444445
9.68774223976e-06,0.2
9.74148988011e-06,0.20555555555555555
9.85335516934e-06,0.2111111111111111
9.94964027537e-06,0.21666666666666667
9.97147371432e-06,0.2222222222222222
1.03046462655e-05,0.22777777777777777
1.03906166287e-05,0.23333333333333334
1.05098944391e-05,0.2388888888888889
1.13816519686e-05,0.24444444444444444
1.19764740847e-05,0.25
1.30029672634e-05,0.25555555555555554
1.32089630244e-05,0.2611111111111111
1.33990495775e-05,0.26666666666666666
1.38528075346e-05,0.2722222222222222
4.89686257428e-05,0.2777777777777778
8.71922249377e-05,0.2833333333333333
9.79372514857e-05,0.28888888888888886
0.000107355742537,0.29444444444444445
0.000107355742537,0.3
0.000110525720816,0.3055555555555556
0.000110525720816,0.3111111111111111
0.000167329575938,0.31666666666666665
0.000219702686647,0.32222222222222224
0.000221051441633,0.3277777777777778
0.000294314850353,0.3333333333333333
0.000439833758896,0.3388888888888889
0.000457412753819,0.34444444444444444
0.000484387111988,0.35
0.000484387111988,0.35555555555555557
0.000618677085287,0.3611111111111111
0.000863192769383,0.36666666666666664
0.000942053575738,0.37222222222222223
0.00095795584281,0.37777777777777777
0.000988577872298,0.38333333333333336
0.00106499848502,0.3888888888888889
0.00112677817085,0.39444444444444443
0.00112677817085,0.4
0.00128486553388,0.40555555555555556
0.00135786788351,0.4111111111111111
0.00146007211363,0.4166666666666667
0.00156095639939,0.4222222222222222
0.00193920094717,0.42777777777777776
0.00205033400195,0.43333333333333335
0.0021572427974,0.4388888888888889
0.00265211518214,0.4444444444444444
0.00311373704639,0.45
0.00326007584867,0.45555555555555555
0.00331004160254,0.46111111111111114
0.00371225790082,0.4666666666666667
0.00396109054046,0.4722222222222222
0.00397098341088,0.4777777777777778
0.0039710144496,0.48333333333333334
0.0040119689302,0.4888888888888889
0.00402561691615,0.49444444444444446
0.00404670937228,0.5
0.00407819448106,0.5055555555555555
0.00415336391123,0.5111111111111111
0.00415876127199,0.5166666666666667
0.00416997630005,0.5222222222222223
0.00419334498758,0.5277777777777778
0.00419676778983,0.5333333333333333
0.00422334983293,0.5388888888888889
0.00422791769371,0.5444444444444444
0.00423677339998,0.55
0.00425367816703,0.5555555555555556
0.00430302526111,0.5611111111111111
0.00433607187185,0.5666666666666667
0.00433797151931,0.5722222222222222
0.00434794834171,0.5777777777777777
0.00436845742431,0.5833333333333334
0.0043952987138,0.5888888888888889
0.00440477407851,0.5944444444444444
0.00441854313518,0.6
0.00441916604427,0.6055555555555555
0.0044265118255,0.6111111111111112
0.0044272831531,0.6166666666666667
0.00443242982885,0.6222222222222222
0.00445557130359,0.6277777777777778
0.00446015801682,0.6333333333333333
0.00450781971253,0.6388888888888888
0.00453209597031,0.6444444444444445
0.00456037257502,0.65
0.00458523832496,0.6555555555555556
0.00459493501614,0.6611111111111111
0.00461093951295,0.6666666666666666
0.00461848353023,0.6722222222222223
0.00811350295056,0.6777777777777778
0.00987080382658,0.6833333333333333
0.0103319557508,0.6888888888888889
0.01125608458,0.6944444444444444
0.0115296031592,0.7
0.012130285717,0.7055555555555556
0.0122631462898,0.7111111111111111
0.0129872153044,0.7166666666666667
0.0140262769672,0.7222222222222222
0.0141138276168,0.7277777777777777
0.0143454068562,0.7333333333333333
0.0145661403657,0.7388888888888889
0.0150860781792,0.7444444444444445
0.1039690318,0.75
0.1039690318,0.7555555555555555
0.133732297673,0.7611111111111111
0.158809301621,0.7666666666666667
0.19855072248,0.7722222222222223
0.19855072248,0.7777777777777778
0.207938063599,0.7833333333333333
0.220927156759,0.7888888888888889
0.220927156759,0.7944444444444444
0.267464595347,0.8
0.404670937228,0.8055555555555556
0.415336391123,0.8111111111111111
0.440477407851,0.8166666666666667
0.441916604427,0.8222222222222222
0.500078085846,0.8277777777777777
0.523303530557,0.8333333333333334
0.623918539182,0.8388888888888889
0.643262140052,0.8444444444444444
0.669032014894,0.85
0.680086975119,0.8555555555555555
0.680086975119,0.8611111111111112
0.855452908482,0.8666666666666667
0.883720390736,0.8722222222222222
0.907897533952,0.8777777777777778
1.0859133226,0.8833333333333333
1.09064301542,0.8888888888888888
1.12564410548,0.8944444444444445
1.34269236812,0.9
2.00709058128,0.9055555555555556
2.16782833162,0.9111111111111111
2.42497171769,0.9166666666666666
2.58482596163,0.9222222222222223
2.88349555018,0.9277777777777778
5.03464485822,0.9333333333333333
5.31262276513,0.9388888888888889
5.77447111816,0.9444444444444444
6.20826827009,0.95
6.32694350914,0.9555555555555556
6.78015310617,0.9611111111111111
7.26248933538,0.9666666666666667
7.40149559802,0.9722222222222222
7.59349349564,0.9777777777777777
7.67981277257,0.9833333333333333
7.821172377,0.9888888888888889
8.19239816708,0.9944444444444445
8.20111738957,1.0
