Congestion,CDF
0.0,0.005555555555555556
0.0,0.011111111111111112
0.0,0.016666666666666666
0.0,0.022222222222222223
0.0,0.027777777777777776
0.0,0.03333333333333333
0.0,0.03888888888888889
0.0,0.044444444444444446
0.0,0.05
0.0,0.05555555555555555
9.61538114222e-07,0.06111111111111111
1.10476104992e-06,0.06666666666666667
2.48672559028e-06,0.07222222222222222
3.63449410286e-06,0.07777777777777778
3.71898186406e-06,0.08333333333333333
4.91033630072e-06,0.08888888888888889
5.40201982624e-06,0.09444444444444444
7.44521515646e-06,0.1
7.48362539398e-06,0.10555555555555556
7.65645125121e-06,0.1111111111111111
7.81402980284e-06,0.11666666666666667
8.60165042816e-06,0.12222222222222222
8.80116364647e-06,0.12777777777777777
9.82820555966e-06,0.13333333333333333
1.00660569799e-05,0.1388888888888889
1.0599686217e-05,0.14444444444444443
1.22565616957e-05,0.15
1.34136703781e-05,0.15555555555555556
1.40065737446e-05,0.16111111111111112
1.45674126548e-05,0.16666666666666666
1.47978990309e-05,0.17222222222222222
1.49167457568e-05,0.17777777777777778
1.54109588217e-05,0.18333333333333332
1.59464602669e-05,0.18888888888888888
1.62156433331e-05,0.19444444444444445
1.63987697389e-05,0.2
1.6489750192e-05,0.20555555555555555
1.66791083597e-05,0.2111111111111111
1.68420934231e-05,0.21666666666666667
1.68790516254e-05,0.2222222222222222
1.74430240986e-05,0.22777777777777777
1.75885490471e-05,0.23333333333333334
1.77904546407e-05,0.2388888888888889
1.92661081666e-05,0.24444444444444444
2.02729837291e-05,0.25
2.20105635347e-05,0.25555555555555554
2.23592595433e-05,0.2611111111111111
2.26810254963e-05,0.26666666666666666
2.34491169743e-05,0.2722222222222222
7.69827556567e-05,0.2777777777777778
8.28908530093e-05,0.2833333333333333
0.000165781706019,0.28888888888888886
0.000181724705143,0.29444444444444445
0.000181724705143,0.3
0.00018709063485,0.3055555555555556
0.00018709063485,0.3111111111111111
0.000283244446272,0.31666666666666665
0.000371898186406,0.32222222222222224
0.000374181269699,0.3277777777777778
0.000498196725536,0.3333333333333333
0.000637739095082,0.3388888888888889
0.000744521515646,0.34444444444444444
0.000774278076344,0.35
0.000818420819509,0.35555555555555557
0.000819938486946,0.3611111111111111
0.000819938486946,0.36666666666666664
0.00104725567767,0.37222222222222223
0.00124555426696,0.37777777777777777
0.00157560836572,0.38333333333333336
0.00157775414344,0.3888888888888889
0.00158594411797,0.39444444444444443
0.00159464602669,0.4
0.00162156433331,0.40555555555555556
0.00163065205259,0.4111111111111111
0.00166858867057,0.4166666666666667
0.00167339928082,0.4222222222222222
0.00170335755217,0.42777777777777776
0.00178535867803,0.43333333333333335
0.0017909038571,0.4388888888888889
0.00180275904291,0.4444444444444444
0.0018030205689,0.45
0.00181869026306,0.45555555555555555
0.00182852066616,0.46111111111111114
0.00186154425006,0.4666666666666667
0.00186455453181,0.4722222222222222
0.00187589121956,0.4777777777777778
0.00187693367814,0.48333333333333334
0.00190733561167,0.4888888888888889
0.00190733561167,0.49444444444444446
0.00193103668548,0.5
0.00198392054114,0.5055555555555555
0.00198422286642,0.5111111111111111
0.00199763322412,0.5166666666666667
0.00201957437649,0.5222222222222223
0.00204882129352,0.5277777777777778
0.0020594445998,0.5333333333333333
0.00207455562913,0.5388888888888889
0.0020748583021,0.5444444444444444
0.00208316016162,0.55
0.00208370005276,0.5555555555555556
0.00208961239564,0.5611111111111111
0.00211457325423,0.5666666666666667
0.00212004153973,0.5722222222222222
0.00217160013952,0.5777777777777777
0.00217493545081,0.5833333333333334
0.00219794545514,0.5888888888888889
0.00225642861646,0.5944444444444444
0.0022668791742,0.6
0.00228407201189,0.6055555555555555
0.00229229128381,0.6111111111111112
0.00229850900307,0.6166666666666667
0.00247151356849,0.6222222222222222
0.00264228381933,0.6277777777777778
0.00328255118923,0.6333333333333333
0.00347066987888,0.6388888888888888
0.00365163802153,0.6444444444444445
0.00448932528515,0.65
0.00527072826543,0.6555555555555556
0.00551844091747,0.6611111111111111
0.00681429823701,0.6666666666666666
0.00771949727093,0.6722222222222223
0.0137340015216,0.6777777777777778
0.0167086442934,0.6833333333333333
0.0174892517902,0.6888888888888889
0.0190535559908,0.6944444444444444
0.0195165501631,0.7
0.0205333458939,0.7055555555555556
0.0207582434899,0.7111111111111111
0.0219838996595,0.7166666666666667
0.0237427545642,0.7222222222222222
0.023890954517,0.7277777777777777
0.0242829565468,0.7333333333333333
0.0246565996421,0.7388888888888889
0.0255367160068,0.7444444444444445
0.0447725964274,0.75
0.0447725964274,0.7555555555555555
0.0543550684197,0.7611111111111111
0.0711603911557,0.7666666666666667
0.0788877071721,0.7722222222222223
0.0788877071721,0.7777777777777778
0.0895451928548,0.7833333333333333
0.103727781457,0.7888888888888889
0.103727781457,0.7944444444444444
0.108710136839,0.8
0.166858867057,0.8055555555555556
0.178535867803,0.8111111111111111
0.202333432999,0.8166666666666667
0.20594445998,0.8222222222222222
0.20748583021,0.8277777777777777
0.227624663043,0.8333333333333334
0.266581074986,0.8388888888888889
0.289882206462,0.8444444444444444
0.30712582642,0.85
0.30712582642,0.8555555555555555
0.317952394043,0.8611111111111112
0.372669188217,0.8666666666666667
0.38401888101,0.8722222222222222
0.414905699544,0.8777777777777778
0.480402018105,0.8833333333333333
0.498198222624,0.8888888888888888
0.518583151843,0.8944444444444445
0.572432510629,0.9
0.930951111405,0.9055555555555556
0.946122256322,0.9111111111111111
1.06670031386,0.9166666666666666
1.12642431321,0.9222222222222223
1.29234317551,0.9277777777777778
2.26574542989,0.9333333333333333
2.4321350151,0.9388888888888889
2.66136414348,0.9444444444444444
2.85172174855,0.95
2.85975619759,0.9555555555555556
3.07151629407,0.9611111111111111
3.31944094113,0.9666666666666667
3.33685945442,0.9722222222222222
3.40128302308,0.9777777777777777
3.46505693258,0.9833333333333333
3.51872848073,0.9888888888888889
3.64328390742,0.9944444444444445
3.65098218299,1.0
