Congestion,CDF
0.0,0.007352941176470588
0.0,0.014705882352941176
0.0,0.022058823529411766
0.0,0.029411764705882353
0.0,0.03676470588235294
0.0,0.04411764705882353
0.0,0.051470588235294115
0.0,0.058823529411764705
0.0,0.0661764705882353
0.0,0.07352941176470588
0.0,0.08088235294117647
0.0,0.08823529411764706
0.0,0.09558823529411764
0.0,0.10294117647058823
1.83667535117e-05,0.11029411764705882
1.83667535117e-05,0.11764705882352941
1.83667535117e-05,0.125
1.83667535117e-05,0.1323529411764706
1.83667535117e-05,0.13970588235294118
1.83667535117e-05,0.14705882352941177
1.83667535117e-05,0.15441176470588236
1.83667535117e-05,0.16176470588235295
1.83667535117e-05,0.16911764705882354
1.83667535117e-05,0.17647058823529413
1.83667535117e-05,0.18382352941176472
1.83667535117e-05,0.19117647058823528
1.83667535117e-05,0.19852941176470587
1.83667535117e-05,0.20588235294117646
1.83667535117e-05,0.21323529411764705
1.83667535117e-05,0.22058823529411764
1.83667535117e-05,0.22794117647058823
1.83667535117e-05,0.23529411764705882
1.83667535117e-05,0.2426470588235294
1.83667535117e-05,0.25
1.83667535117e-05,0.25735294117647056
1.83667535117e-05,0.2647058823529412
1.83667535117e-05,0.27205882352941174
1.83667535117e-05,0.27941176470588236
1.83667535117e-05,0.2867647058823529
1.83667535117e-05,0.29411764705882354
1.83667535117e-05,0.3014705882352941
0.000126383648192,0.3088235294117647
0.000459168837793,0.3161764705882353
0.000459168837793,0.3235294117647059
0.000495902344816,0.33088235294117646
0.000548137127801,0.3382352941176471
0.000827709071311,0.34558823529411764
0.000918337675585,0.35294117647058826
0.000918337675585,0.3602941176470588
0.000918337675585,0.36764705882352944
0.000918337675585,0.375
0.00109917923131,0.38235294117647056
0.00128646345704,0.3897058823529412
0.00137750651338,0.39705882352941174
0.00141798898084,0.40441176470588236
0.00148861631303,0.4117647058823529
0.00153056279264,0.41911764705882354
0.00153056279264,0.4264705882352941
0.00153056279264,0.4338235294117647
0.00165994628519,0.4411764705882353
0.00183667535117,0.4485294117647059
0.00183667535117,0.45588235294117646
0.00183667535117,0.4632352941176471
0.00183667535117,0.47058823529411764
0.00183667535117,0.47794117647058826
0.00183667535117,0.4852941176470588
0.00183667535117,0.49264705882352944
0.00203223275744,0.5
0.00208615116186,0.5073529411764706
0.00218118237912,0.5147058823529411
0.00218341809449,0.5220588235294118
0.00218612940017,0.5294117647058824
0.00218801137935,0.5367647058823529
0.00218892036091,0.5441176470588235
0.0021893137708,0.5514705882352942
0.00220169117317,0.5588235294117647
0.00222104230687,0.5661764705882353
0.00224743470288,0.5735294117647058
0.00229290833973,0.5808823529411765
0.00229584418896,0.5882352941176471
0.00231190105683,0.5955882352941176
0.00231194794049,0.6029411764705882
0.00231232234001,0.6102941176470589
0.00231233717115,0.6176470588235294
0.00231334475373,0.625
0.00231335464382,0.6323529411764706
0.00231335464382,0.6397058823529411
0.00275501302676,0.6470588235294118
0.00275501302676,0.6544117647058824
0.00336723814381,0.6617647058823529
0.00367335070234,0.6691176470588235
0.00367335070234,0.6764705882352942
0.00551002605351,0.6838235294117647
0.00749975768395,0.6911764705882353
0.013315896296,0.6985294117647058
0.0136220088545,0.7058823529411765
0.0176014721154,0.7132352941176471
0.0218870479348,0.7205882352941176
0.0221931604933,0.7279411764705882
0.023723723286,0.7352941176470589
0.0240298358445,0.7426470588235294
0.0258665111957,0.75
0.0508414224914,0.7573529411764706
0.05473284427,0.7647058823529411
0.0555260576718,0.7720588235294118
0.0829973142595,0.7794117647058824
0.0829973142595,0.7867647058823529
0.112371735144,0.7941176470588235
0.112371735144,0.8014705882352942
0.148861631303,0.8088235294117647
0.16419853281,0.8161764705882353
0.183222913972,0.8235294117647058
0.183222913972,0.8308823529411765
0.183222913972,0.8382352941176471
0.211643659964,0.8455882352941176
0.218612940017,0.8529411764705882
0.222104230687,0.8602941176470589
0.231194794049,0.8676470588235294
0.231233717115,0.875
0.231335464382,0.8823529411764706
0.231335464382,0.8897058823529411
0.273533982205,0.8970588235294118
0.290660529387,0.9044117647058824
0.332540852461,0.9117647058823529
0.391838030159,0.9191176470588235
0.462465951116,0.9264705882352942
0.694005404138,0.9338235294117647
0.893711645644,0.9411764705882353
1.57177026581,0.9485294117647058
1.67438231266,0.9558823529411765
2.15684536229,0.9632352941176471
2.19926779575,0.9705882352941176
2.21165907507,0.9779411764705882
2.74992688612,0.9852941176470589
2.85984480925,0.9926470588235294
2.87248317407,1.0
