Congestion,CDF
0.0,0.009433962264150943
0.0,0.018867924528301886
0.0,0.02830188679245283
0.0,0.03773584905660377
0.0,0.04716981132075472
0.0,0.05660377358490566
0.0,0.0660377358490566
0.0,0.07547169811320754
0.0,0.08490566037735849
0.0,0.09433962264150944
0.0,0.10377358490566038
0.0,0.11320754716981132
0.0,0.12264150943396226
0.0,0.1320754716981132
0.0,0.14150943396226415
0.0,0.1509433962264151
0.0,0.16037735849056603
0.0,0.16981132075471697
0.0,0.1792452830188679
0.0,0.18867924528301888
0.0,0.19811320754716982
0.0,0.20754716981132076
0.0,0.2169811320754717
0.0,0.22641509433962265
0.0,0.2358490566037736
0.0,0.24528301886792453
0.0,0.25471698113207547
0.0,0.2641509433962264
0.0,0.27358490566037735
0.0,0.2830188679245283
5.03397488395e-08,0.29245283018867924
1.29687338609e-06,0.3018867924528302
1.45835666758e-06,0.3113207547169811
1.97704181849e-06,0.32075471698113206
2.23172350626e-06,0.330188679245283
2.96958507806e-06,0.33962264150943394
4.52866288596e-06,0.3490566037735849
5.79692772588e-06,0.3584905660377358
6.13497266944e-06,0.36792452830188677
7.15540781345e-06,0.37735849056603776
8.81002060412e-06,0.3867924528301887
9.01189114597e-06,0.39622641509433965
9.50843202236e-06,0.4056603773584906
6.09302350725e-05,0.41509433962264153
8.35195803204e-05,0.42452830188679247
8.35195803204e-05,0.4339622641509434
0.00021738478972,0.44339622641509435
0.00021738478972,0.4528301886792453
0.00021738478972,0.46226415094339623
0.000222718880854,0.4716981132075472
0.000222718880854,0.4811320754716981
0.000222718880854,0.49056603773584906
0.000343846154799,0.5
0.000410623297713,0.5094339622641509
0.000410623297713,0.5188679245283019
0.000434769579441,0.5283018867924528
0.000434769579441,0.5377358490566038
0.000593112545548,0.5471698113207547
0.000756032747281,0.5566037735849056
0.000756032747281,0.5660377358490566
0.000936742597922,0.5754716981132075
0.000936742597922,0.5849056603773585
0.00118299975265,0.5943396226415094
0.00143888038683,0.6037735849056604
0.00194460340915,0.6132075471698113
0.00303231157394,0.6226415094339622
0.00307613980295,0.6320754716981132
0.00656666164026,0.6415094339622641
0.00686421878437,0.6509433962264151
0.00778908156019,0.660377358490566
0.0154800222922,0.6698113207547169
0.0156438715112,0.6792452830188679
0.0157526173932,0.6886792452830188
0.0211804239317,0.6981132075471698
0.023190602493,0.7075471698113207
0.023338758224,0.7169811320754716
0.0234415687565,0.7264150943396226
0.0284532554957,0.7358490566037735
0.0294092619612,0.7452830188679245
0.0326975953294,0.7547169811320755
0.0330052071221,0.7641509433962265
0.276246484855,0.7735849056603774
0.659294121276,0.7830188679245284
0.659294121276,0.7924528301886793
0.8752034334,0.8018867924528302
0.8752034334,0.8113207547169812
0.8752034334,0.8207547169811321
1.7504068668,0.8301886792452831
1.7504068668,0.839622641509434
1.75811765674,0.8490566037735849
1.75811765674,0.8584905660377359
1.75811765674,0.8679245283018868
2.31615768978,0.8773584905660378
2.33672446806,0.8867924528301887
3.08786615307,0.8962264150943396
3.08786615307,0.9056603773584906
3.69849438864,0.9150943396226415
3.69849438864,0.9245283018867925
4.62423866696,0.9339622641509434
4.62423866696,0.9433962264150944
7.18149940438,0.9528301886792453
7.21836547866,0.9622641509433962
11.5635408606,0.9716981132075472
11.6558243984,0.9811320754716981
17.2399871746,0.9905660377358491
37.9209934636,1.0
